16

N    28.556    7.358    3.183
C    28.367    6.59    2.068
C    27.481    5.601    2.323
C    26.141    5.118    4.468
C    26.002    5.525    5.765
C    26.718    6.587    6.277
C    27.597    7.292    5.505
C    27.747    6.877    4.189
C    27.054    5.773    3.675
H    29.196    8.1615    3.2583
H    28.86    6.7518    1.1105
H    27.1562    4.8245    1.632
H    25.5475    4.3007    4.0746
H    25.3088    4.9978    6.4104
H    26.5801    6.8682    7.3148
H    28.151    8.1353    5.9012
