24

C    27.533    7.061    3.952
C    26.994    7.069    5.257
C    26.19    6.037    5.674
C    25.897    5.0    4.801
C    26.442    4.987    3.55
C    27.255    6.016    3.12
C    28.347    8.21    3.423
C    27.417    9.375    3.096
C    26.645    9.142    1.809
C    27.533    9.085    0.602
H    27.2149    7.8898    5.9297
H    25.7865    6.0328    6.6801
H    25.2352    4.1999    5.1123
H    26.2335    4.1569    2.8848
H    27.6732    5.9939    2.1201
H    28.8779    7.8962    2.5121
H    29.0772    8.5244    4.1832
H    28.0179    10.2901    2.989
H    26.7012    9.5008    3.9217
H    25.925    9.9631    1.6773
H    26.1028    8.1885    1.8919
H    26.9207    8.9151    -0.2959
H    28.2537    8.2618    0.7155
H    28.0759    10.0363    0.5009
