23

C    14.22    56.953    55.173
C    12.784    57.219    54.807
C    12.273    56.271    53.78
C    13.122    56.443    52.526
C    14.603    56.178    52.877
C    15.606    56.429    51.764
O    14.403    55.718    55.733
O    11.952    57.262    56.06
O    10.87    56.53    53.492
O    12.972    57.772    51.989
O    15.019    57.054    53.912
H    14.5568    57.717    55.8891
H    12.7407    58.2211    54.3555
H    12.3743    55.2406    54.1513
H    12.7949    55.7151    51.769
H    14.6887    55.132    53.2066
H    16.6203    56.2082    52.1278
H    15.5501    57.4819    51.4506
H    15.374    55.7787    50.9077
H    15.3239    55.5946    55.9308
H    11.0673    57.5308    55.8422
H    10.3591    56.4177    54.285
H    13.4996    57.8563    51.2035
