39

P    10.509    -4.87    -3.736
O    9.705    -4.217    -4.863
O    11.893    -5.59    -4.289
O    9.653    -5.837    -2.941
P    11.824    -3.972    -1.437
O    10.934    -3.568    -0.325
O    12.296    -5.373    -1.286
O    11.07    -3.797    -2.773
O    13.058    -2.953    -1.625
C    12.773    -1.579    -1.763
C    13.204    -1.041    -3.143
O    14.587    -0.629    -3.093
C    13.068    -1.964    -4.344
O    11.809    -1.863    -5.013
C    14.206    -1.565    -5.238
O    13.839    -0.536    -6.16
C    15.27    -1.115    -4.262
N    16.286    -2.195    -4.006
C    16.321    -3.083    -2.999
N    17.404    -3.867    -3.151
C    18.052    -3.479    -4.237
C    19.219    -3.872    -4.927
N    19.974    -4.893    -4.476
N    19.598    -3.211    -6.071
C    18.88    -2.179    -6.571
N    17.76    -1.8    -5.924
C    17.323    -2.405    -4.784
H    13.3105    -1.0234    -0.9804
H    11.6903    -1.426    -1.6434
H    12.5791    -0.1581    -3.3427
H    13.1958    -3.0073    -4.0195
H    11.6883    -0.9742    -5.3259
H    14.5608    -2.4339    -5.8116
H    13.1274    -0.8435    -6.7092
H    15.8131    -0.2685    -4.7076
H    15.593    -3.1564    -2.1925
H    20.8235    -5.1707    -4.988
H    19.7016    -5.3957    -3.6192
H    19.1986    -1.6681    -7.4724
