18

N    0.472    5.105    9.736
C    -0.646    5.919    10.239
C    -1.97    5.583    9.567
C    -3.141    4.946    10.236
N    -3.48    3.627    10.041
C    -4.083    5.415    11.087
C    -4.545    3.288    10.731
N    -4.926    4.363    11.383
H    1.3202    5.3679    10.213
H    0.5815    5.2597    8.746
H    0.2802    4.1299    9.9046
H    -0.4185    6.9796    10.0564
H    -0.7473    5.7467    11.3207
H    -1.7118    4.9142    8.7327
H    -2.3454    6.5374    9.1693
H    -2.961    2.9827    9.4276
H    -4.1613    6.4325    11.4672
H    -5.0192    2.308    10.7574
