64

N    6.914    16.494    15.12
C    6.425    17.769    14.533
C    5.181    18.263    15.242
O    4.425    17.465    15.802
C    6.221    17.686    13.008
C    5.276    16.563    12.573
C    5.185    16.461    11.051
C    6.431    15.859    10.401
N    6.688    14.46    10.854
N    5.024    19.586    15.276
C    3.871    20.2    15.942
C    2.581    20.054    15.167
O    2.467    20.287    13.964
C    4.116    21.731    16.043
C    5.334    22.01    16.926
C    5.301    21.716    18.38
O    4.394    21.162    18.982
N    6.39    22.072    19.074
N    1.528    19.659    15.901
C    0.211    19.49    15.351
C    -0.806    20.395    16.069
O    -1.8    20.688    15.375
C    -0.197    18.015    15.578
C    -1.601    17.72    15.113
C    -1.607    17.316    13.649
C    -3.061    16.925    13.289
N    -3.106    16.929    11.796
O    -0.616    20.786    17.243
H    7.7403    16.1926    14.6277
H    6.1979    15.7895    15.0372
H    7.1355    16.6353    16.0931
H    7.211    18.519    14.7054
H    7.2    17.5183    12.5354
H    5.8053    18.6434    12.6607
H    4.2731    16.7638    12.9777
H    5.6484    15.6083    12.9729
H    5.0342    17.4715    10.6434
H    4.3208    15.83    10.796
H    7.3007    16.4802    10.6613
H    6.2948    15.8577    9.3095
H    7.516    14.1068    10.4005
H    5.8999    13.8791    10.6143
H    6.8217    14.4495    11.853
H    5.7063    20.1717    14.8385
H    3.7554    19.7572    16.9423
H    3.2301    22.2133    16.4818
H    4.2948    22.1383    15.0369
H    5.5535    23.0834    16.8278
H    6.1662    21.4256    16.5065
H    6.4331    21.9023    20.0586
H    7.1599    22.5075    18.6075
H    1.6665    19.4742    16.874
H    0.2209    19.7242    14.2763
H    -0.1287    17.7927    16.6531
H    0.4998    17.3682    15.0248
H    -2.2208    18.6196    15.242
H    -2.0162    16.899    15.7159
H    -0.9361    16.4586    13.4917
H    -1.2775    18.159    13.0239
H    -3.771    17.6584    13.6988
H    -3.3002    15.925    13.6799
H    -4.0328    16.6806    11.4871
H    -2.4421    16.2603    11.438
H    -2.8735    17.8487    11.4553
