92

O    2.808    1.969    12.124
O    3.835    -0.032    12.046
C    1.077    0.32    12.634
C    0.556    2.486    11.539
C    1.809    0.765    10.258
C    1.587    1.371    11.646
C    3.821    1.158    12.399
N    4.828    1.713    13.068
C    6.033    0.966    13.447
C    7.275    1.805    13.183
C    7.475    2.132    11.746
C    7.865    1.146    10.85
C    7.235    3.417    11.276
C    8.017    1.435    9.508
C    7.385    3.717    9.934
C    7.772    2.723    9.046
C    6.008    0.539    14.904
O    7.205    -0.189    15.192
C    4.804    -0.349    15.187
N    4.892    -0.754    16.6
C    4.673    -2.201    16.861
C    3.267    -2.654    16.446
C    3.121    -4.151    16.57
C    3.091    -4.767    17.823
C    3.131    -6.148    17.942
C    3.169    -4.963    15.439
C    3.209    -6.339    15.547
C    3.198    -6.928    16.795
O    3.305    -8.296    16.863
C    3.79    -8.941    18.029
C    5.689    -3.186    16.291
O    5.996    -3.175    15.097
N    6.187    -4.05    17.169
C    7.152    -5.1    16.815
C    6.912    -6.178    17.865
O    7.047    -5.922    19.064
C    8.628    -4.637    16.895
C    8.898    -3.565    15.839
C    9.567    -5.831    16.696
C    10.344    -3.398    15.484
N    6.508    -7.362    17.415
C    6.254    -8.457    18.335
C    5.213    -9.454    17.845
H    0.1461    -0.1228    12.2502
H    0.8831    0.795    13.607
H    1.8351    -0.4678    12.7551
H    -0.396    2.0715    11.1758
H    0.9151    3.2511    10.835
H    0.4039    2.941    12.5289
H    0.8723    0.3114    9.9019
H    2.5912    -0.0063    10.3154
H    2.1229    1.5544    9.5592
H    4.7612    2.6777    13.3228
H    6.0829    0.0604    12.8246
H    8.154    1.2476    13.5389
H    7.1854    2.7463    13.7451
H    8.052    0.1397    11.207
H    6.927    4.1925    11.9679
H    8.3265    0.6595    8.8168
H    7.2011    4.724    9.5774
H    7.8832    2.9511    7.9921
H    5.9567    1.4327    15.5433
H    7.2053    -0.4467    16.1064
H    4.8277    -1.2363    14.5373
H    3.8728    0.2094    15.0112
H    4.1983    -0.236    17.1162
H    5.811    -0.5125    16.9365
H    4.7339    -2.3078    17.9541
H    3.0887    -2.3608    15.4009
H    2.5256    -2.1656    17.0954
H    3.0356    -4.1559    18.7166
H    3.1102    -6.614    18.9205
H    3.1751    -4.5061    14.456
H    3.2489    -6.954    14.6552
H    3.1332    -9.7914    18.2642
H    3.7755    -8.2247    18.8637
H    5.8893    -3.9821    18.1212
H    6.9468    -5.4789    15.8029
H    8.8108    -4.2063    17.8905
H    8.5241    -2.6036    16.2209
H    8.3483    -3.8355    14.9254
H    9.3599    -6.5921    17.4628
H    10.6108    -5.4955    16.785
H    9.4045    -6.2629    15.6975
H    10.446    -2.6112    14.722
H    10.7359    -4.346    15.0869
H    10.9117    -3.1141    16.3824
H    6.3777    -7.5001    16.4332
H    7.1985    -8.9965    18.4984
H    5.9042    -8.0331    19.2878
H    5.384    -9.6472    16.7757
H    5.3272    -10.391    18.4098
