45

N    -2.849    13.823    13.808
N    -1.997    12.007    14.98
C    -2.323    13.313    14.928
C    -1.864    14.166    15.964
C    -1.898    15.564    15.827
C    -1.502    16.41    16.865
C    -1.056    15.87    18.08
C    -1.004    14.481    18.252
C    -1.404    13.653    17.199
N    -0.674    16.687    19.084
C    0.259    17.646    19.003
O    0.829    17.93    17.932
N    0.57    18.281    20.13
C    1.449    19.274    20.258
C    1.031    20.401    20.965
C    1.963    21.413    21.197
C    3.283    21.29    20.724
C    3.667    20.137    20.025
C    2.744    19.112    19.782
O    4.2    22.281    20.926
C    4.756    22.743    22.083
C    5.795    23.673    21.985
C    6.392    24.185    23.136
C    5.956    23.772    24.394
C    4.923    22.839    24.501
C    4.32    22.323    23.351
H    -3.1794    13.1947    13.0617
H    -2.9234    14.8438    13.6924
H    -1.592    11.6112    15.8403
H    -2.1527    11.4043    14.1594
H    -2.2397    15.996    14.8934
H    -1.5394    17.4851    16.7315
H    -0.659    14.0546    19.187
H    -1.36    12.5783    17.3341
H    -1.1274    16.5661    19.9671
H    0.0988    17.9845    20.9607
H    0.0118    20.4882    21.3238
H    1.6684    22.3004    21.7455
H    4.6864    20.038    19.6698
H    3.0315    18.2191    19.2388
H    6.1381    23.9976    21.0093
H    7.1972    24.906    23.0526
H    6.4184    24.1747    25.2879
H    4.5877    22.5139    25.4792
H    3.5171    21.5998    23.4369
