18

C    45.543    19.287    52.917
C    45.642    20.668    53.164
C    45.292    21.616    52.201
C    44.825    21.199    50.962
C    44.71    19.837    50.684
C    45.061    18.898    51.645
C    45.902    18.356    53.892
N    46.742    18.698    54.821
N    45.403    17.158    53.84
H    46.0003    21.0059    54.1297
H    45.3845    22.6737    52.4198
H    44.55    21.9311    50.2113
H    44.3461    19.511    49.7163
H    44.9635    17.8431    51.4154
H    47.0136    18.0181    55.5455
H    47.1368    19.6492    54.8335
H    44.7381    16.909    53.0938
H    45.6721    16.457    54.545
