20

C    46.035    18.312    54.297
C    45.691    19.34    53.441
N    46.787    18.603    55.31
N    45.595    17.117    54.03
S    44.872    18.981    51.886
C    44.783    20.675    51.406
C    45.374    21.396    52.437
C    45.855    20.703    53.526
N    44.281    21.193    50.303
C    44.346    22.51    50.195
C    44.917    23.333    51.169
C    45.439    22.766    52.318
H    47.0979    19.5736    55.4586
H    47.0743    17.8639    55.9673
H    44.9995    16.96    53.2044
H    45.8422    16.328    54.6442
H    46.3238    21.1913    54.3791
H    43.9354    22.9741    49.3056
H    44.9508    24.407    51.0256
H    45.8825    23.3776    53.0954
