24

C    45.273    11.816    2.09
C    45.406    12.893    2.908
C    44.728    14.09    2.617
C    43.93    14.162    1.451
C    43.776    13.025    0.627
C    44.432    11.872    0.952
C    44.506    10.604    0.3
C    45.42    9.859    1.055
N    45.861    10.573    2.103
N    44.825    15.182    3.428
C    45.473    15.388    4.638
C    45.166    16.769    5.248
O    45.886    17.431    5.904
O    43.863    17.105    5.133
O    46.04    14.498    5.277
C    43.301    15.419    1.066
O    43.098    16.293    1.856
O    42.963    15.437    -0.22
H    46.0366    12.8291    3.7874
H    43.1445    13.0671    -0.2531
H    43.968    10.2853    -0.5916
H    45.7303    8.841    0.8241
H    46.5352    10.2412    2.8075
H    44.3375    15.9856    3.0867
