22

C    37.158    4.421    -30.046
O    38.145    3.684    -30.269
O    36.919    5.669    -30.014
C    35.907    3.512    -29.701
C    35.464    3.068    -31.094
C    33.916    2.928    -31.09
C    33.578    1.456    -30.887
C    32.32    1.024    -31.494
N    32.413    0.64    -32.918
H    35.1193    4.0875    -29.1927
H    36.1938    2.6527    -29.0771
H    35.9247    2.1    -31.3403
H    35.768    3.8187    -31.8383
H    33.507    3.2762    -32.0499
H    33.489    3.5256    -30.2711
H    33.5188    1.265    -29.8053
H    34.3909    0.8556    -31.3214
H    31.599    1.8505    -31.4099
H    31.9495    0.1554    -30.9299
H    31.504    0.358    -33.25
H    33.0598    -0.1267    -33.0177
H    32.7386    1.4267    -33.4576
