50

N         61.47200       33.25700      -17.03100
C         62.03900       34.45300      -17.39500
O         62.18800       35.34600      -16.56500
N         62.43300       34.66700      -18.77300
C         62.15400       33.83200      -19.85400
O         62.53800       34.11200      -21.01000
C         61.41400       32.58900      -19.47800
N         61.06600       31.72500      -20.41900
C         60.58200       30.51400      -19.98600
C         60.49800       29.44400      -20.93100
C         60.19100       28.13300      -20.53300
C         60.02000       27.03400      -21.55500
C         60.00300       27.86100      -19.12100
C         59.63200       26.49000      -18.63300
C         60.11900       28.89600      -18.18000
C         60.37500       30.20900      -18.59100
N         60.57300       31.22400      -17.65300
C         61.14500       32.40500      -18.01200
C         60.17800       31.00000      -16.25100
C         58.69700       31.28400      -16.01300
O         58.33700       32.65300      -16.21600
C         58.32100       30.86500      -14.59300
O         58.43100       29.44000      -14.46300
C         56.98500       31.34000      -14.02500
O         56.84400       30.86500      -12.68300
C         55.82200       30.93600      -14.93200
O         54.63500       31.59100      -14.46000
P         53.14600       31.15100      -14.74400
O         52.98900       29.89400      -14.02700
O         52.23800       32.23800      -14.32800
O         52.94600       30.86300      -16.27400
H         62.95710       35.49600      -18.96790
H         60.67570       29.65010      -21.98030
H         60.20370       27.43760      -22.56160
H         58.99510       26.63840      -21.50010
H         60.73670       26.22570      -21.34770
H         59.53990       26.50340      -17.53690
H         60.41250       25.77260      -18.92650
H         58.67190       26.18980      -19.07790
H         60.00920       28.67600      -17.12420
H         60.77320       31.66280      -15.60570
H         60.38350       29.95160      -15.98890
H         58.11910       30.67510      -16.72390
H         58.53380       32.90160      -17.11150
H         59.08910       31.30970      -13.94320
H         58.19620       29.18480      -13.57850
H         57.00300       32.43920      -13.98850
H         56.87120       29.91540      -12.67990
H         55.68410       29.84530      -14.89680
H         56.03170       31.24590      -15.96640
