51

C    24.117    10.029    30.871
C    25.617    10.208    30.707
C    25.924    11.688    30.926
O    26.749    12.216    30.197
C    25.328    12.355    32.098
C    23.815    12.113    32.21
C    23.168    12.812    33.411
C    21.655    12.694    33.348
C    21.215    11.215    33.253
C    21.931    10.495    32.079
C    23.482    10.586    32.152
C    21.395    9.053    31.952
C    19.895    8.869    31.912
C    19.209    9.618    33.045
C    19.714    11.076    33.065
C    18.801    11.714    34.111
C    17.427    11.093    33.807
C    17.732    9.909    32.867
O    16.863    8.809    33.148
C    19.469    8.936    34.412
C    24.006    9.879    33.424
H    23.9067    8.9498    30.8393
H    23.6292    10.5229    30.0177
H    25.9238    9.9056    29.6949
H    26.1524    9.5985    31.4499
H    25.5064    13.4373    32.0159
H    25.8143    11.9711    33.0069
H    23.3627    12.5657    31.3153
H    23.448    13.8757    33.404
H    23.5286    12.344    34.3389
H    21.2891    13.2351    32.463
H    21.2219    13.1399    34.2555
H    21.4947    10.7173    34.1932
H    21.6403    11.0222    31.1584
H    21.7744    8.483    32.8129
H    21.8041    8.6296    31.0228
H    19.6642    7.7972    32.0013
H    19.5143    9.2474    30.9519
H    19.4923    11.54    32.0926
H    18.7734    12.8076    33.9956
H    19.1312    11.4609    35.1293
H    16.7722    11.824    33.3102
H    16.9474    10.7403    34.732
H    17.5577    10.2136    31.8245
H    17.0644    8.0898    32.5609
H    20.5446    8.7334    34.522
H    18.9107    7.9895    34.4617
H    19.1364    9.6009    35.2227
H    25.1029    9.9531    33.4591
H    23.7106    8.8196    33.4028
H    23.5772    10.3615    34.3147
