53

N    9.501    83.817    43.452
C    8.306    83.41    43.914
N    7.3    82.809    43.32
N    8.088    83.673    45.275
C    8.954    84.294    46.16
O    8.649    84.485    47.381
C    10.247    84.729    45.584
N    11.294    85.397    46.367
C    12.614    85.035    45.911
C    12.635    85.27    44.438
N    11.727    84.62    43.649
C    10.463    84.449    44.233
C    12.937    83.539    46.079
N    12.957    83.205    47.55
C    12.667    79.526    49.369
C    13.526    80.535    49.922
C    13.615    81.763    49.301
C    12.81    81.933    48.109
C    11.978    81.022    47.54
C    11.931    79.782    48.221
C    12.536    78.2    49.974
O    11.459    77.616    49.851
N    13.538    77.637    50.634
C    13.387    76.381    51.418
C    13.972    75.203    50.57
C    15.339    75.561    49.715
C    16.093    74.543    48.803
O    15.643    74.45    47.662
O    17.121    73.855    49.288
C    14.205    76.483    52.659
O    14.953    77.444    52.843
O    14.118    75.575    53.516
C    10.936    86.394    47.191
O    11.834    86.946    47.869
H    9.7175    83.6507    42.4588
H    6.4517    82.5745    43.855
H    7.3597    82.5723    42.3193
H    13.368    85.6456    46.4292
H    13.3631    85.9495    43.9974
H    13.921    83.322    45.6378
H    12.1677    82.9363    45.5741
H    13.0918    83.989    48.2043
H    14.0994    80.3332    50.8196
H    14.25    82.5544    49.6825
H    11.4019    81.2264    46.6448
H    11.2925    78.9987    47.8288
H    14.436    78.0759    50.6038
H    12.3294    76.2021    51.6619
H    13.1992    74.8812    49.8564
H    14.2065    74.3747    51.2548
H    16.0762    75.8965    50.4593
H    15.0689    76.4032    49.0609
H    9.8977    86.7134    47.2681
