76

C    -8.89    15.322    27.739
O    -8.408    14.213    27.62
N    -8.609    16.169    26.74
C    -8.033    15.586    25.485
C    -8.678    17.649    26.914
C    -10.018    18.272    27.161
O    -9.786    19.625    26.924
C    -10.591    18.023    28.535
O    -11.823    18.647    28.554
C    -10.83    16.559    28.855
N    -9.636    15.647    28.845
C    -9.413    14.875    30.096
C    -8.717    16.004    24.221
C    -10.116    15.918    24.124
C    -10.814    16.327    22.975
C    -10.079    16.849    21.907
C    -8.669    16.959    21.996
N    -7.981    17.669    20.975
C    -7.982    16.516    23.146
C    -7.525    18.131    27.814
C    -6.244    18.138    26.992
C    -5.223    17.185    27.232
C    -4.059    17.178    26.454
C    -3.921    18.118    25.42
C    -4.927    19.075    25.152
C    -6.091    19.088    25.947
C    -12.02    15.857    28.104
C    -12.541    14.596    28.791
C    -13.371    14.7    29.926
C    -13.778    13.548    30.621
C    -13.357    12.28    30.172
C    -12.536    12.147    29.028
C    -12.132    13.312    28.339
C    -9.51    15.583    31.43
C    -10.455    15.134    32.38
C    -10.486    15.697    33.669
N    -11.411    15.221    34.649
C    -9.581    16.725    34.002
C    -8.641    17.201    33.048
C    -8.607    16.622    31.763
H    -8.093    14.4901    25.559
H    -6.9784    15.8919    25.4194
H    -8.4173    18.0379    25.9186
H    -10.7392    17.8836    26.4268
H    -9.1691    19.9565    27.5658
H    -9.9214    18.4545    29.2936
H    -11.7124    19.5698    28.357
H    -11.1455    16.5851    29.9084
H    -8.4019    14.4465    30.0329
H    -10.1551    14.0632    30.1088
H    -10.6759    15.5228    24.9639
H    -11.893    16.24    22.9185
H    -10.5897    17.1711    21.0067
H    -6.9562    17.7642    21.0149
H    -8.5072    18.0883    20.1951
H    -6.9006    16.5715    23.196
H    -7.4129    17.4501    28.6706
H    -7.738    19.1468    28.1784
H    -5.3442    16.4554    28.0245
H    -3.274    16.4559    26.6475
H    -3.0227    18.1099    24.8133
H    -4.8047    19.7892    24.3458
H    -6.8675    19.8212    25.7614
H    -11.677    15.583    27.0954
H    -12.8498    16.5749    28.0267
H    -13.6979    15.6762    30.2654
H    -14.4114    13.6342    31.4964
H    -13.6673    11.3928    30.712
H    -12.2221    11.1675    28.6857
H    -11.5052    13.2262    27.4588
H    -11.1584    14.3531    32.1146
H    -11.4256    15.64    35.5898
H    -12.0631    14.459    34.4145
H    -9.6021    17.1571    34.996
H    -7.9569    18.0014    33.3059
H    -7.8896    16.9721    31.0297
