39

C    -1.907    -34.689    21.888
N    -1.884    -34.892    23.268
C    -2.837    -34.351    24.127
C    -3.86    -33.589    23.559
C    -3.888    -33.371    22.178
C    -2.935    -33.914    21.33
Cl    -5.092    -32.942    24.536
N    -1.053    -35.264    21.004
C    0.014    -36.04    21.201
S    1.097    -36.331    19.87
N    0.153    -36.592    22.431
C    1.479    -36.894    23.005
C    1.356    -37.153    24.538
C    1.514    -35.851    25.328
N    2.656    -35.092    25.145
C    2.85    -33.864    25.743
C    1.856    -33.35    26.578
C    0.683    -34.088    26.794
C    0.494    -35.345    26.165
O    -0.255    -33.569    27.667
C    -1.088    -32.588    27.067
C    -2.139    -32.144    28.058
F    -0.642    -36.032    26.363
H    -2.7866    -34.5153    25.1973
H    -4.6783    -32.7593    21.758
H    -2.983    -33.7437    20.2605
H    -1.2579    -35.0742    20.0438
H    -0.6663    -36.8007    22.965
H    2.152    -36.041    22.8335
H    1.8907    -37.7898    22.5171
H    2.1404    -37.8593    24.8477
H    0.3676    -37.5859    24.7517
H    3.7622    -33.3055    25.5669
H    1.99    -32.3865    27.0564
H    -1.5781    -33.0161    26.1801
H    -0.4782    -31.723    26.7673
H    -2.784    -31.3841    27.5926
H    -1.6491    -31.7158    28.9449
H    -2.749    -33.0089    28.3577
