35

N    2.445    28.991    7.346
C    2.981    29.96    6.614
N    2.39    31.17    6.609
C    1.301    31.419    7.326
C    0.749    30.408    8.049
C    1.327    29.141    8.057
O    0.722    28.16    8.841
C    1.706    27.118    9.112
N    -0.292    31.001    8.618
C    -0.492    32.319    8.278
N    0.588    32.528    7.49
N    4.122    29.981    5.88
C    0.979    26.303    10.257
C    -0.223    25.57    9.57
C    -0.778    24.578    10.592
C    0.172    23.387    10.321
C    1.364    23.999    11.171
C    1.848    25.047    10.126
H    2.6583    27.5433    9.4617
H    1.8872    26.4934    8.2248
H    -1.2923    33.0006    8.5623
H    0.8282    33.4366    7.0685
H    4.6904    29.1271    5.7871
H    4.4198    30.8509    5.4157
H    0.822    26.7971    11.2271
H    0.1222    25.0357    8.6726
H    -0.9988    26.2971    9.2882
H    -1.8281    24.3215    10.3885
H    -0.685    24.9527    11.622
H    0.4185    23.2634    9.2561
H    -0.2023    22.4343    10.7237
H    2.1378    23.2526    11.4036
H    1.0152    24.4682    12.1027
H    2.9006    25.3026    10.3173
H    1.7499    24.6322    9.112
