69

S    -37.352    -31.271    47.264
O    -36.143    -32.106    47.639
O    -38.575    -31.744    48.049
C    -38.189    -28.744    48.085
C    -37.127    -29.595    47.786
C    -35.814    -29.189    47.97
C    -35.541    -27.982    48.58
C    -36.255    -25.907    49.402
C    -37.269    -25.002    49.586
C    -38.575    -25.37    49.323
C    -38.918    -26.639    48.905
C    -37.907    -27.496    48.597
C    -36.589    -27.135    48.87
N    -37.743    -31.542    45.741
C    -36.804    -31.246    44.7
C    -37.331    -30.043    43.949
O    -38.321    -29.377    44.297
C    -36.808    -28.755    41.995
C    -35.508    -27.952    41.995
O    -34.675    -28.083    41.103
N    -36.578    -29.856    42.892
C    -37.195    -29.268    40.625
C    -38.581    -29.884    40.633
C    -38.751    -31.25    40.723
C    -39.677    -29.066    40.542
C    -40.01    -31.804    40.782
C    -40.935    -29.618    40.602
C    -41.124    -30.981    40.711
C    -42.413    -31.495    40.726
N    -42.609    -32.76    41.114
N    -43.447    -30.71    40.443
N    -35.311    -27.094    42.998
C    -34.069    -26.388    43.211
C    -33.63    -26.728    44.642
C    -34.575    -26.279    45.731
C    -35.82    -27.039    45.391
C    -36.337    -26.791    43.992
H    -39.2136    -29.0565    47.9187
H    -35.0002    -29.8213    47.6338
H    -34.5223    -27.7052    48.8264
H    -35.2311    -25.6666    49.6644
H    -37.0467    -24.0007    49.9368
H    -39.3598    -24.6331    49.4501
H    -39.9555    -26.9426    48.8248
H    -38.6414    -31.9176    45.5135
H    -36.7135    -32.1051    44.019
H    -35.8197    -31.0172    45.1345
H    -37.626    -28.125    42.3744
H    -35.8287    -30.4915    42.7056
H    -36.467    -30.0301    40.31
H    -37.1804    -28.4302    39.9124
H    -37.8811    -31.8963    40.7476
H    -39.5534    -27.9955    40.424
H    -40.1298    -32.8766    40.8833
H    -41.8003    -28.9662    40.5627
H    -43.5612    -33.1524    41.1292
H    -41.8077    -33.3417    41.3976
H    -43.2884    -29.7369    40.1448
H    -44.4071    -31.0745    40.5218
H    -34.2225    -25.3039    43.1056
H    -33.3101    -26.7228    42.4886
H    -32.6548    -26.2514    44.8206
H    -33.523    -27.8204    44.7141
H    -34.7454    -25.193    45.6905
H    -34.1976    -26.5541    46.7269
H    -36.6056    -26.7506    46.1049
H    -35.6071    -28.1132    45.4943
H    -37.2131    -27.4315    43.8126
H    -36.6295    -25.7348    43.8978
