123

C    -22.158    64.463    32.461
C    -23.478    64.66    32.842
C    -24.028    63.906    33.873
C    -25.379    64.138    34.222
C    -25.97    63.478    35.238
C    -25.201    62.573    35.912
C    -23.858    62.347    35.626
C    -23.261    63.008    34.567
C    -21.927    62.824    34.223
C    -21.378    63.511    33.11
C    -20.989    61.835    34.93
C    -20.538    62.297    36.291
C    -20.164    61.079    37.176
C    -21.319    60.064    37.115
C    -21.312    59.01    36.26
C    -22.405    58.117    36.212
C    -23.415    58.438    37.078
C    -23.584    59.448    37.983
C    -24.698    59.648    38.814
C    -24.7    60.71    39.657
C    -23.611    61.588    39.695
C    -22.535    61.396    38.891
C    -22.471    60.298    37.984
C    -19.302    63.212    36.219
O    -18.351    62.891    35.566
N    -19.441    64.278    36.975
C    -18.523    65.33    37.216
C    -18.423    65.693    38.709
O    -19.123    66.576    39.186
C    -18.748    66.578    36.386
C    -17.411    67.373    36.294
C    -17.713    68.854    36.241
O    -18.648    69.227    35.518
N    -17.26    64.734    39.186
C    -17.192    65.089    40.58
C    -17.741    63.986    41.481
C    -18.888    63.133    40.96
C    -18.7    61.662    41.349
C    -20.29    63.603    41.365
C    -15.831    65.61    41.001
O    -14.793    64.795    40.435
C    -15.609    67.065    40.683
C    -16.342    68.082    41.539
O    -17.526    68.313    41.282
N    -15.704    68.714    42.519
C    -16.271    69.868    43.186
C    -16.439    71.065    42.26
O    -15.515    71.465    41.569
C    -15.491    70.251    44.431
C    -15.963    71.418    45.269
C    -17.307    71.295    45.944
C    -14.959    72.087    46.194
N    -17.633    71.634    42.273
C    -18.123    72.786    41.612
C    -18.534    72.772    40.189
C    -17.81    72.051    39.255
C    -19.573    73.553    39.678
C    -18.181    72.086    37.942
C    -19.976    73.588    38.33
C    -19.227    72.783    37.451
C    -17.339    71.162    37.079
N    -16.995    69.713    36.957
H    -21.7338    65.0522    31.656
H    -24.0819    65.4036    32.3346
H    -25.9533    64.8645    33.6585
H    -27.0048    63.6569    35.5068
H    -25.6601    62.0015    36.7105
H    -23.2818    61.6559    36.2304
H    -20.3703    63.2984    32.7717
H    -21.5174    60.8772    35.0456
H    -20.0991    61.6892    34.3
H    -21.3646    62.8496    36.7615
H    -20.0117    61.4069    38.2149
H    -19.2408    60.6148    36.7989
H    -20.4602    58.8523    35.6084
H    -22.4406    57.2582    35.5515
H    -24.2521    57.7505    37.0379
H    -25.5403    58.9664    38.7822
H    -25.5513    60.8801    40.3062
H    -23.6272    62.4319    40.3751
H    -21.706    62.0927    38.9394
H    -20.319    64.358    37.447
H    -17.5381    64.9395    36.9202
H    -19.5173    67.2038    36.8619
H    -19.0789    66.2947    35.376
H    -16.8686    67.0758    35.3844
H    -16.7926    67.1555    37.1773
H    -16.7234    64.069    38.6666
H    -17.8789    65.9392    40.7037
H    -18.087    64.4653    42.4087
H    -16.9068    63.306    41.7086
H    -18.8429    63.1913    39.8625
H    -19.5415    61.0696    40.9605
H    -18.6649    61.5741    42.4449
H    -17.7589    61.2868    40.9207
H    -20.4184    64.6585    41.0833
H    -20.4125    63.4964    42.4529
H    -21.045    62.9914    40.8493
H    -15.7725    65.5104    42.0949
H    -13.9535    65.0606    40.7916
H    -15.918    67.2266    39.6397
H    -14.5318    67.2646    40.7815
H    -14.8048    68.3825    42.8046
H    -17.2791    69.5763    43.5156
H    -14.4648    70.4814    44.1088
H    -15.4799    69.3683    45.0872
H    -16.1401    72.1853    44.5009
H    -17.5163    72.2122    46.5141
H    -17.2967    70.433    46.6272
H    -18.0878    71.1503    45.1828
H    -13.9875    72.1671    45.6842
H    -14.845    71.4856    47.1079
H    -15.3179    73.0924    46.4591
H    -18.3059    71.1703    42.8494
H    -17.3314    73.5453    41.6939
H    -19.0053    73.1132    42.1817
H    -16.9539    71.4624    39.5645
H    -20.1125    74.183    40.3759
H    -20.808    74.1946    37.9911
H    -19.4855    72.7241    36.3999
H    -16.342    71.615    37.1826
H    -17.7371    71.3769    36.0763
H    -16.186    69.3735    37.437
