36

C    15.511    22.908    40.433
C    14.118    22.887    40.21
C    13.201    22.902    41.254
C    13.619    22.94    42.606
C    15.056    22.966    42.956
C    16.031    22.954    41.809
C    15.557    22.999    44.325
C    17.021    23.005    44.55
C    17.896    22.994    43.44
C    17.445    22.984    42.102
C    14.72    23.016    45.498
C    15.25    23.037    46.79
C    16.632    23.037    46.995
C    17.562    23.02    45.885
C    11.376    22.904    42.475
C    16.329    23.026    39.14
C    20.19    21.914    46.048
O    18.863    22.586    46.021
O    11.851    22.878    41.117
O    12.494    22.942    43.385
O    17.248    22.282    38.8
O    15.892    23.495    38.095
O    17.097    23.053    48.335
O    18.717    23.989    40.216
O    19.599    23.192    41.923
N    18.703    23.39    41.099
H    13.7509    22.8582    39.1905
H    18.9642    22.9932    43.6247
H    13.6432    23.0124    45.3734
H    14.5816    23.0535    47.6433
H    10.7521    23.7972    42.6261
H    10.7778    22.0016    42.6695
H    20.9185    22.5614    46.558
H    20.526    21.7244    45.0179
H    20.1067    20.9594    46.5882
H    18.047    23.0513    48.3394
