74

C          0.07400        6.02500       10.04800
C         -0.07000        7.51900        9.83700
C          0.76400        8.29700       10.88200
C          0.24200        7.91200       12.29900
C          0.40200        6.35400       12.47300
C         -0.10700        5.80800       13.83200
O         -0.70600        5.29100        9.07000
O          0.37000        7.83400        8.51600
O          0.62100        9.71000       10.67400
O         -1.13900        8.24800       12.43800
O         -0.35000        5.62400       11.40900
O         -0.04600        4.38400       13.83500
S          1.80700       10.63000       10.94400
O          2.96000       10.25600       10.09100
O          1.42200       12.01400       10.64300
O          2.18700       10.57200       12.34500
C         -1.31100        1.41500        7.47500
C         -1.83800        1.85700        8.86900
C         -1.84800        3.40500        8.96000
C         -0.35500        3.88500        8.77400
C          0.13200        3.40300        7.34800
C          1.57800        3.79700        7.07400
C         -3.15300        0.20000        8.30200
C         -3.96900        0.24600        7.04600
N         -3.18600        1.32500        9.06700
O         -1.28100        0.06500        7.35900
O          0.05100        1.95700        7.24900
O          2.02500        3.36300        5.78000
O         -2.49500       -0.84200        8.58400
C         -3.93900        3.71600       10.21900
C         -4.51100        3.45700       11.64300
C         -3.92100        4.48100       12.64400
C         -4.29700        5.91400       12.18300
C         -3.72500        6.18200       10.80700
C         -4.03800        7.53900       10.23000
O         -2.53200        3.40100       10.23200
O         -4.22700        2.09400       11.99500
O         -4.47000        4.22800       13.93400
O         -5.74500        6.04300       12.15700
O         -4.17800        5.12600        9.82700
H          1.13440        5.76140        9.92150
H         -1.12790        7.80050        9.94460
H          1.82480        8.02120       10.78960
H          0.82830        8.43990       13.06550
H          1.47260        6.11770       12.38370
H         -1.14750        6.12900       13.98760
H          0.52340        6.20190       14.64280
H          1.27950        7.57810        8.41690
H         -1.43680        8.00560       13.30690
H         -0.59100        4.04330       13.13550
H         -1.98580        1.81760        6.70520
H         -1.17500        1.45690        9.65030
H         -2.46280        3.89940        8.19340
H          0.34440        3.48990        9.52540
H         -0.51600        3.85910        6.58510
H          2.22050        3.34090        7.84150
H          1.66270        4.89240        7.12850
H         -3.86980       -0.70900        6.50910
H         -3.61070        1.06550        6.40570
H         -5.02550        0.41510        7.30110
H         -3.93480        1.69150        9.61920
H          1.96180        2.41670        5.72530
H         -4.44660        3.05880        9.49760
H         -5.60260        3.59070       11.62200
H         -2.82630        4.37980       12.68060
H         -3.88120        6.64400       12.89300
H         -2.63110        6.11430       10.90020
H         -3.57820        7.62920        9.23480
H         -3.63610        8.32040       10.89170
H         -5.12810        7.65770       10.14240
H         -3.28710        1.95570       11.98850
H         -5.41500        4.31890       13.89820
H         -6.09150        5.88630       13.02760
H         -0.94847       -0.17672        6.48043
