147

N    49.72    56.976    4.687
C    48.605    57.923    4.4
C    48.122    57.736    2.969
O    48.924    57.613    2.045
C    49.077    59.366    4.605
O    48.031    60.286    4.356
N    46.803    57.729    2.801
C    46.17    57.543    1.501
C    46.208    58.742    0.562
O    46.295    59.89    0.992
C    44.712    57.125    1.706
C    44.537    55.651    1.985
C    44.657    54.858    0.697
N    43.464    54.995    -0.135
C    43.479    55.125    -1.457
N    44.632    55.145    -2.113
N    42.339    55.223    -2.126
N    46.131    58.452    -0.732
C    46.112    59.481    -1.764
C    44.673    60.004    -1.82
O    43.772    59.393    -1.243
C    46.491    58.865    -3.111
C    46.568    59.89    -4.225
O    46.468    59.484    -5.402
O    46.738    61.094    -3.931
N    44.455    61.128    -2.498
C    43.111    61.695    -2.616
C    43.026    62.707    -3.756
O    44.047    63.125    -4.302
C    42.692    62.371    -1.304
C    43.482    63.6    -0.975
N    44.805    63.557    -0.593
C    43.138    64.91    -0.988
C    45.243    64.786    -0.384
N    44.25    65.626    -0.617
N    41.802    63.102    -4.103
C    41.563    64.063    -5.18
C    42.103    63.54    -6.508
O    42.723    64.274    -7.276
C    42.21    65.413    -4.848
O    41.618    65.997    -3.697
N    41.852    62.263    -6.771
C    42.304    61.614    -7.996
C    41.408    61.993    -9.179
O    40.264    62.412    -8.995
C    42.304    60.094    -7.783
C    42.878    59.267    -8.922
C    41.786    58.547    -9.699
N    40.919    57.748    -8.835
C    39.932    56.975    -9.28
N    39.19    56.283    -8.425
N    39.688    56.893    -10.581
N    41.939    61.865    -10.391
C    41.175    62.183    -11.593
C    40.235    61.01    -11.869
O    40.652    59.858    -11.836
C    42.112    62.382    -12.811
O    43.106    63.368    -12.497
C    41.32    62.848    -14.027
N    38.95    61.287    -12.142
C    38.01    60.194    -12.41
C    38.354    59.408    -13.674
O    39.046    59.912    -14.556
C    36.671    60.918    -12.53
C    37.071    62.229    -13.139
C    38.303    62.598    -12.335
N    37.863    58.177    -13.755
C    38.105    57.327    -14.918
C    37.299    57.776    -16.135
O    37.684    57.399    -17.265
C    37.77    55.87    -14.595
C    38.791    55.178    -13.717
S    38.329    53.467    -13.405
C    38.516    53.384    -11.641
O    36.281    58.479    -15.951
H    50.0348    57.1053    5.6358
H    50.4831    57.1533    4.0528
H    49.3961    56.0291    4.5666
H    47.7731    57.7166    5.0895
H    49.9087    59.573    3.9156
H    49.4219    59.4869    5.6425
H    47.3112    60.1142    4.9517
H    46.2189    57.8571    3.6025
H    46.7011    56.7211    0.9986
H    44.1475    57.3756    0.7958
H    44.3049    57.6903    2.5573
H    43.5441    55.4797    2.4263
H    45.3137    55.3195    2.6898
H    44.799    53.7956    0.9443
H    45.5284    55.2229    0.1335
H    42.548    54.9905    0.3359
H    44.6397    55.2459    -3.138
H    45.5195    55.0596    -1.5973
H    41.442    55.2078    -1.62
H    42.3501    55.3143    -3.1519
H    46.0843    57.4921    -1.0083
H    46.8098    60.2937    -1.5139
H    45.7351    58.1118    -3.3781
H    47.4731    58.3797    -3.0116
H    45.2241    61.5941    -2.9352
H    42.41    60.8741    -2.8272
H    42.8202    61.6476    -0.4854
H    41.6314    62.6519    -1.3825
H    45.3658    62.6996    -0.4868
H    42.162    65.3192    -1.2447
H    46.2501    65.0598    -0.0729
H    41.0173    62.7277    -3.6089
H    40.4773    64.2099    -5.2788
H    42.0798    66.0931    -5.7026
H    43.2832    65.2603    -4.6611
H    40.6914    66.135    -3.8543
H    41.334    61.7267    -6.1046
H    43.3303    61.9435    -8.2152
H    41.2631    59.7751    -7.6255
H    42.8938    59.8797    -6.8796
H    43.5714    58.5208    -8.5068
H    43.4231    59.9331    -9.607
H    42.2581    57.882    -10.4372
H    41.1714    59.2958    -10.2201
H    41.0824    57.7858    -7.8187
H    38.4264    55.6853    -8.7722
H    39.3776    56.3435    -7.414
H    40.2621    57.4289    -11.2474
H    38.9244    56.2934    -10.925
H    42.8818    61.544    -10.4809
H    40.5923    63.1013    -11.4282
H    42.6054    61.4271    -13.0449
H    43.6789    63.488    -13.2453
H    42.0023    62.9831    -14.8792
H    40.8254    63.8035    -13.7983
H    40.5608    62.0937    -14.2812
H    37.9911    59.4941    -11.5616
H    36.2061    61.0622    -11.5436
H    35.9785    60.3691    -13.1851
H    36.2778    62.9818    -13.02
H    37.3115    62.1153    -14.2063
H    38.9537    63.2859    -12.8947
H    38.0295    63.0539    -11.372
H    37.3126    57.8222    -12.9993
H    39.1737    57.3922    -15.1703
H    37.6966    55.3149    -15.5418
H    36.7987    55.8456    -14.0794
H    38.8596    55.7116    -12.7576
H    39.7694    55.1994    -14.2193
H    38.2623    52.3719    -11.2926
H    37.8442    54.1143    -11.1663
H    39.5573    53.6143    -11.3714
