34

P    -12.513    60.012    68.346
O    -13.172    59.286    69.448
O    -11.057    59.92    68.415
O    -13.083    59.621    67.051
O    -13.016    61.512    68.438
C    -12.497    62.532    69.308
C    -12.821    63.895    68.774
O    -14.244    64.163    68.712
C    -12.266    64.939    69.684
O    -10.965    65.327    69.235
C    -13.215    66.074    69.56
O    -12.761    67.015    68.601
C    -14.584    65.496    69.17
N    -15.528    65.461    70.399
C    -15.795    64.363    71.231
N    -16.641    64.6    72.221
C    -16.987    65.949    72.082
C    -17.882    66.772    72.883
O    -18.523    66.429    73.878
N    -17.977    68.104    72.425
C    -17.292    68.618    71.302
N    -16.443    67.845    70.536
C    -16.324    66.512    70.971
H    -11.405    62.4229    69.3821
H    -12.9454    62.4187    70.306
H    -12.3835    63.9929    67.7695
H    -12.2144    64.5772    70.7215
H    -10.6155    65.9916    69.817
H    -13.3013    66.5812    70.5323
H    -11.9142    67.3534    68.8673
H    -15.0513    66.0826    68.3654
H    -15.3392    63.3866    71.0736
H    -18.5717    68.728    72.9319
H    -17.439    69.6623    71.0305
