22

C    44.773    0.302    29.019
O    45.445    0.082    30.108
C    44.401    -0.91    28.186
C    44.011    -0.726    26.847
C    44.464    -2.221    28.683
C    43.731    -1.815    26.004
C    44.159    -3.285    27.851
C    43.692    -3.093    26.557
N    43.338    -4.216    25.817
C    43.751    -4.461    24.579
N    44.53    -3.637    23.89
N    43.359    -5.575    23.983
H    44.4897    1.3094    28.7177
H    43.9243    0.2811    26.4556
H    44.75    -2.3998    29.7132
H    43.5493    -1.6638    24.9461
H    44.2883    -4.2961    28.2198
H    42.7128    -4.9047    26.2594
H    44.8183    -3.8814    22.9319
H    44.8464    -2.7529    24.3133
H    42.7536    -6.2413    24.4835
H    43.6592    -5.7761    23.0184
