33

H    45.0275    -1.207    25.4625
H    44.9724    0.1302    27.5424
H    43.2786    -4.5453    27.558
H    44.0692    -5.5671    24.3589
H    43.8107    -5.4631    26.121
C    44.162    -2.971    26.36
C    44.636    -1.644    26.374
C    44.609    -0.891    27.534
C    44.112    -1.468    28.67
C    43.651    -2.737    28.668
C    43.655    -3.529    27.535
C    44.232    -3.706    25.176
N    44.022    -5.007    25.222
N    44.521    -3.083    24.042
N    43.998    -0.96    29.873
C    43.241    -2.991    29.954
C    43.483    -1.85    30.682
C    43.241    -1.65    32.033
C    42.98    -2.754    32.842
C    42.736    -2.592    34.193
C    42.743    -1.314    34.739
C    43.003    -0.193    33.929
C    43.25    -0.359    32.567
O    43.506    0.753    31.773
H    44.6796    -2.0653    24.0395
H    44.5869    -3.6167    23.1635
H    44.2725    -0.0041    30.141
H    42.8074    -3.9182    30.3257
H    42.9682    -3.7476    32.4087
H    42.541    -3.4539    34.8208
H    42.5467    -1.1797    35.7966
H    43.0112    0.7998    34.3642
H    44.2786    1.2009    32.0969
