27

C    23.959    2.992    52.68
C    23.69    4.409    52.407
C    24.447    5.001    51.322
C    25.87    4.755    51.347
C    26.108    3.284    51.45
C    27.601    2.834    51.379
O    23.103    2.417    51.687
O    22.341    4.664    51.999
O    24.312    6.373    51.467
O    26.218    5.266    50.06
O    25.426    2.805    52.687
O    28.693    3.809    51.597
P    30.215    3.4    51.083
O    30.17    2.832    49.695
O    30.855    2.467    52.061
O    30.967    4.677    51.03
H    23.5941    2.6903    53.6729
H    23.9042    4.9586    53.3355
H    24.0341    4.6571    50.3622
H    26.3843    5.2863    52.1614
H    25.6074    2.8155    50.5898
H    27.7542    2.4091    50.376
H    27.7281    2.045    52.1349
H    22.2025    2.6598    51.8677
H    21.7432    4.3126    52.6483
H    24.755    6.8112    50.7499
H    26.0523    6.2012    50.0364
