21

C    28.63    50.978    58.637
C    27.886    49.745    58.561
O    28.497    48.803    57.752
C    27.774    49.179    59.843
O    26.896    48.119    59.903
C    27.417    50.134    60.848
C    27.528    51.548    60.629
C    28.844    53.151    59.644
O    30.084    53.261    59.197
O    26.964    52.505    58.685
O    28.437    54.204    60.305
C    28.027    52.002    59.401
H    28.7682    51.355    57.6129
H    29.6113    50.7557    59.0815
H    26.8838    49.9643    58.1641
H    27.9703    48.0125    57.7349
H    28.7708    48.7909    60.0994
H    26.8664    47.7837    60.7913
H    27.0497    49.7763    61.8088
H    27.2301    52.2545    61.4024
H    26.568    53.2204    59.1686
