21

C    30.017    72.045    20.608
C    29.155    73.248    20.238
O    29.885    74.461    20.606
C    28.984    73.26    18.705
O    28.176    74.38    18.35
C    28.574    71.934    18.066
C    28.825    70.815    18.68
C    30.191    69.52    20.235
O    31.43    69.615    20.525
O    28.195    70.671    21.001
O    29.62    68.337    20.176
C    29.349    70.76    20.104
H    30.1272    71.9958    21.7013
H    31.0088    72.1485    20.1437
H    28.1797    73.2039    20.7448
H    29.3634    75.2231    20.383
H    29.9834    73.466    18.2942
H    28.0618    74.4005    17.4071
H    28.073    71.9257    17.0991
H    28.6522    69.879    18.1508
H    28.4969    70.6352    21.901
