52

C    20.636    11.858    21.148
C    19.883    10.851    21.762
C    19.956    9.433    21.345
C    20.859    9.125    20.232
C    21.637    10.039    19.57
C    22.618    9.609    18.36
C    22.385    10.589    17.29
C    22.39    11.97    17.56
C    21.341    12.358    18.721
C    21.612    11.562    19.981
C    21.33    13.943    18.938
C    21.101    14.666    17.593
C    22.101    14.363    16.544
C    22.08    12.841    16.314
C    22.957    12.71    15.016
C    22.777    13.884    14.262
C    21.792    14.776    15.064
C    23.498    14.949    17.028
C    22.949    11.949    20.581
C    21.841    16.327    14.937
C    20.827    16.768    14.703
O    19.314    8.6    21.893
O    21.468    14.574    20.145
O    20.34    14.4    14.83
O    22.872    16.659    14.207
O    20.922    18.125    15.144
H    20.5329    12.8828    21.5016
H    19.2165    11.1217    22.5796
H    20.9163    8.0878    19.9052
H    22.374    8.5949    18.0107
H    23.6676    9.6414    18.6875
H    21.3983    10.3572    16.8627
H    23.1629    10.4155    16.5318
H    23.4002    12.2289    17.9099
H    20.337    12.0732    18.3734
H    21.1199    15.7498    17.7801
H    20.1098    14.3765    17.2139
H    21.0545    12.5571    16.0351
H    22.6344    11.8356    14.4317
H    24.0167    12.598    15.2888
H    22.3534    13.6414    13.2762
H    23.7382    14.4024    14.1306
H    23.6841    14.6417    18.0677
H    23.4753    16.0472    16.9688
H    24.3008    14.5635    16.3824
H    23.1257    11.3603    21.4933
H    22.9423    13.0201    20.8314
H    23.7494    11.7474    19.8539
H    22.0747    16.71    15.9413
H    19.972    16.2722    14.2457
H    20.1343    14.4944    13.9073
H    23.6442    16.2081    14.5279
