39

P    14.596    14.374    9.63
O    14.616    15.712    10.348
O    15.918    13.671    9.86
O    13.444    13.543    10.163
P    14.064    13.72    6.935
O    14.37    12.249    7.172
O    14.724    14.252    5.676
O    14.366    14.604    8.145
O    12.456    13.806    6.675
C    11.77    15.078    6.622
C    10.865    15.142    5.406
O    11.671    15.011    4.2
C    9.783    14.065    5.321
O    8.577    14.577    4.748
C    10.41    13.024    4.401
O    9.431    12.258    3.722
C    11.222    13.901    3.44
N    12.405    13.235    2.877
C    13.257    12.364    3.527
N    14.239    11.916    2.774
C    14.028    12.531    1.549
C    14.733    12.472    0.319
N    15.832    11.735    0.137
N    14.258    13.209    -0.725
C    13.146    13.957    -0.536
N    12.397    14.092    0.578
C    12.896    13.348    1.593
H    12.5123    15.8877    6.564
H    11.1637    15.2007    7.5316
H    10.3701    16.1244    5.4116
H    9.5682    13.6421    6.3135
H    7.9273    13.885    4.7096
H    11.0672    12.3455    4.9647
H    8.8899    12.8337    3.1944
H    10.5733    14.2339    2.6164
H    13.1279    12.074    4.5687
H    16.3032    11.7304    -0.7789
H    16.2083    11.1712    0.9126
H    12.8117    14.5248    -1.3967
