93

C    6.772    -7.777    17.737
C    7.181    -6.301    17.728
O    7.332    -5.692    18.787
N    7.337    -5.736    16.529
C    7.712    -4.325    16.31
C    9.051    -4.224    15.524
C    9.445    -2.778    15.247
C    10.166    -4.949    16.294
C    6.598    -3.629    15.519
O    6.499    -3.803    14.307
N    5.813    -2.801    16.199
C    4.699    -2.107    15.577
C    3.408    -2.577    16.233
C    3.297    -4.086    16.275
C    3.392    -4.829    17.551
C    3.215    -6.185    17.54
C    2.949    -6.868    16.347
C    2.852    -6.205    15.135
C    3.02    -4.834    15.06
C    4.81    -0.572    15.688
O    5.081    -0.184    17.037
C    5.952    -0.05    14.842
N    5.694    -0.219    13.426
C    6.976    0.2    12.849
C    7.055    0.777    11.447
C    8.577    0.775    11.247
C    9.084    1.74    10.189
C    8.596    3.143    10.491
C    7.077    3.163    10.54
C    6.568    2.217    11.593
N    4.524    0.562    13.069
C    3.611    0.148    12.191
O    3.599    -0.997    11.71
C    2.578    1.196    11.77
N    2.986    1.849    10.52
C    1.167    0.574    11.648
C    0.783    -0.161    12.923
C    0.134    1.692    11.343
C    3.218    3.154    10.449
O    3.036    3.91    11.408
C    3.709    3.732    9.148
H    6.6762    -8.1246    18.7762
H    7.5386    -8.3731    17.2203
H    5.8075    -7.8934    17.2211
H    7.1896    -6.3085    15.7225
H    7.8312    -3.8291    17.2846
H    8.9156    -4.7283    14.5558
H    10.3942    -2.7566    14.6915
H    9.5657    -2.2419    16.1999
H    8.6596    -2.2919    14.6497
H    9.8635    -5.9894    16.4842
H    10.3425    -4.4376    17.2518
H    11.09    -4.9391    15.6972
H    5.9949    -2.6506    17.1707
H    4.6766    -2.373    14.5099
H    2.5564    -2.1761    15.6637
H    3.3746    -2.1918    17.2628
H    3.5984    -4.3075    18.4786
H    3.2816    -6.7395    18.469
H    2.8156    -7.9435    16.3727
H    2.6416    -6.768    14.2329
H    2.9459    -4.3236    14.1065
H    3.8644    -0.1201    15.3539
H    5.133    0.7631    17.0885
H    6.869    -0.5978    15.1046
H    6.0912    1.0205    15.0532
H    5.5149    -1.1836    13.1949
H    7.6271    -0.6865    12.8586
H    7.3873    0.9645    13.5246
H    6.5032    0.2123    10.6811
H    8.8823    -0.2412    10.957
H    9.048    1.04    12.2051
H    8.7099    1.4286    9.2026
H    10.1839    1.7301    10.1839
H    8.9445    3.8278    9.7038
H    8.9965    3.4672    11.4628
H    6.6798    2.8603    9.5599
H    6.7364    4.1822    10.7748
H    6.8932    2.5907    12.5751
H    5.469    2.2132    11.5476
H    4.3968    1.454    13.5029
H    2.538    1.9655    12.555
H    3.0925    1.2929    9.6957
H    1.1691    -0.1455    10.8159
H    -0.2224    -0.5924    12.8088
H    0.7858    0.5438    13.7676
H    1.5078    -0.9659    13.1147
H    0.4224    2.2157    10.4196
H    0.1106    2.4074    12.1782
H    -0.8629    1.2451    11.2149
H    3.8499    4.8173    9.259
H    2.969    3.5373    8.3578
H    4.6667    3.2637    8.877
