80

C    0.997    61.423    -2.245
C    -0.498    61.638    -2.536
C    -1.229    60.305    -2.683
C    -0.483    59.385    -3.669
C    0.97    59.213    -3.213
C    1.717    58.278    -4.172
C    -1.234    63.746    -1.499
C    -1.851    64.387    -0.25
N    -1.085    62.42    -1.439
O    -1.314    59.685    -1.408
O    -1.12    58.104    -3.735
O    1.601    60.519    -3.21
O    3.021    57.989    -3.652
O    -0.929    64.431    -2.476
C    5.484    63.76    -0.981
C    5.258    62.263    -1.256
C    4.007    62.041    -2.131
C    2.791    62.79    -1.531
C    3.16    64.263    -1.356
C    1.967    65.029    -0.786
C    7.314    60.916    -1.311
C    8.552    60.417    -2.054
N    6.452    61.727    -1.938
O    4.256    62.504    -3.461
O    1.624    62.698    -2.352
O    4.286    64.359    -0.431
O    2.329    66.397    -0.623
O    7.132    60.583    -0.138
C    8.794    66.606    1.202
C    7.42    67.32    1.156
C    6.388    66.229    0.863
C    7.131    65.195    0.018
C    8.458    65.177    0.767
C    9.592    64.507    -0.016
C    8.288    67.41    3.259
C    9.444    67.311    5.26
N    7.288    67.828    2.511
N    8.422    67.755    4.545
O    5.308    66.782    0.106
O    6.551    63.872    -0.035
O    9.825    65.214    -1.228
O    9.187    66.613    2.614
H    1.126    61.0163    -1.2311
H    -0.6013    62.201    -3.4753
H    -2.2438    60.4897    -3.0652
H    -0.4964    59.8443    -4.6684
H    0.9918    58.7878    -2.1988
H    1.8151    58.7645    -5.1537
H    1.152    57.3407    -4.2821
H    -1.9313    65.4741    -0.3974
H    -1.212    64.1814    0.6214
H    -2.8523    63.9654    -0.0781
H    -1.3849    61.9402    -0.6145
H    -1.7852    58.8639    -1.4872
H    -2.0203    58.2135    -4.0178
H    3.5096    58.7982    -3.5576
H    5.7545    64.2738    -1.9153
H    5.1191    61.7383    -0.2992
H    3.7815    60.9649    -2.1634
H    2.5613    62.3532    -0.5479
H    3.4416    64.6921    -2.3289
H    1.6869    64.6031    0.1887
H    1.1152    64.9529    -1.4779
H    9.1411    59.7674    -1.39
H    9.1647    61.2763    -2.3642
H    8.2417    59.848    -2.9428
H    6.6216    61.9754    -2.8917
H    3.4906    62.3422    -3.9999
H    1.5908    66.8787    -0.2687
H    9.5531    67.0751    0.5588
H    7.3747    68.1248    0.4075
H    6.0094    65.7815    1.7938
H    7.2529    65.5581    -1.0131
H    8.3123    64.5798    1.6792
H    9.3121    63.4686    -0.2472
H    10.5086    64.513    0.592
H    9.5427    67.5985    6.3057
H    10.186    66.6583    4.8024
H    4.709    66.0878    -0.1426
H    10.5287    64.7937    -1.7082
