100

O    20.168    -3.421    6.08
C    19.026    -3.599    6.516
N    17.031    -4.817    6.879
C    18.34    -4.818    6.514
C    18.97    -6.034    6.225
C    18.24    -7.219    6.333
C    16.898    -7.166    6.721
C    16.146    -8.333    6.845
C    14.806    -8.241    7.243
C    14.217    -7.001    7.516
C    14.966    -5.835    7.393
C    16.297    -5.929    6.995
N    18.279    -2.627    7.045
C    18.773    -1.291    7.3
C    18.626    -0.898    8.761
O    17.709    -0.198    9.208
C    18.041    -0.304    6.442
C    18.449    -0.571    5.014
O    19.616    -0.691    4.675
N    17.556    -0.763    4.077
C    20.587    0.083    11.188
O    21.877    -0.51    11.108
C    19.559    -1.049    10.983
N    19.567    -1.387    9.569
C    19.888    -2.314    11.792
C    19.089    -3.505    11.321
C    17.728    -3.576    11.598
C    19.725    -4.494    10.572
C    16.995    -4.656    11.117
C    18.983    -5.56    10.101
C    17.62    -5.64    10.37
N    19.421    1.907    12.419
C    20.464    0.886    12.488
C    18.888    2.287    13.738
C    18.242    1.188    14.571
O    17.366    0.483    14.069
C    17.845    3.39    13.594
C    18.44    4.608    12.931
C    17.355    5.653    12.755
C    16.363    5.298    11.656
C    17.072    5.081    10.333
C    17.991    3.894    10.518
C    19.066    4.216    11.543
C    20.022    3.051    11.743
N    18.721    1.12    15.814
C    18.334    0.142    16.813
C    19.154    0.456    18.037
C    16.887    0.302    17.198
C    18.633    -1.29    16.365
H    20.0104    -6.0553    5.9215
H    18.7097    -8.172    6.1179
H    16.592    -9.2987    6.6363
H    14.2157    -9.1449    7.3411
H    13.1786    -6.9492    7.8229
H    14.5208    -4.8693    7.6035
H    17.3284    -2.833    7.2771
H    19.8413    -1.2629    7.0396
H    18.3163    0.7219    6.7277
H    16.955    -0.4374    6.5556
H    17.8477    -0.9385    3.1367
H    16.5819    -0.7343    4.3012
H    20.4689    0.7942    10.3572
H    22.5401    0.1593    11.23
H    18.5626    -0.6882    11.2779
H    20.2785    -1.9864    9.2024
H    19.659    -2.1284    12.8517
H    20.9593    -2.5382    11.6822
H    17.2449    -2.8002    12.1809
H    20.7864    -4.4276    10.3622
H    15.9339    -4.7272    11.3271
H    19.4647    -6.3376    9.5193
H    17.0444    -6.4774    9.9926
H    18.6558    1.5557    11.8649
H    20.226    0.1936    13.309
H    21.4266    1.3783    12.6908
H    19.737    2.6793    14.3171
H    17.4739    3.6677    14.5916
H    17.0096    3.0186    12.9823
H    19.2324    5.0184    13.5742
H    17.8296    6.6127    12.5027
H    16.8069    5.7531    13.7035
H    15.6393    6.119    11.5458
H    15.8319    4.376    11.9349
H    17.6562    5.9739    10.0657
H    16.3386    4.8718    9.5403
H    18.4671    3.65    9.5569
H    17.4042    3.0311    10.866
H    19.6419    5.0748    11.1678
H    20.3796    2.7223    10.7561
H    20.8743    3.4008    12.344
H    19.4042    1.8003    16.0795
H    18.9052    -0.2561    18.8376
H    18.9322    1.4792    18.3744
H    20.2234    0.3742    17.7928
H    16.6236    -0.4514    17.955
H    16.2538    0.1655    16.309
H    16.7267    1.3087    17.6114
H    18.3233    -1.9928    17.1526
H    19.7119    -1.3987    16.1802
H    18.0787    -1.5082    15.4403
