110

N    -0.735    14.476    42.706
C    0.31    15.207    41.959
C    0.144    15.014    40.46
O    0.212    13.883    39.958
C    1.649    14.654    42.424
C    1.314    14.185    43.815
C    -0.109    13.604    43.714
N    -0.071    16.113    39.742
C    -0.236    16.05    38.287
C    1.055    15.574    37.597
O    2.147    16.117    37.811
C    -0.649    17.419    37.728
C    -1.952    17.991    38.299
C    -3.179    17.111    38.042
O    -3.434    16.667    36.917
N    -3.955    16.874    39.091
N    0.919    14.545    36.774
C    2.058    13.986    36.064
C    2.953    15.049    35.439
O    2.48    15.996    34.813
C    1.6    13.036    34.929
C    2.813    12.379    34.262
C    0.827    13.827    33.875
C    3.675    11.587    35.201
N    4.256    14.885    35.62
C    5.22    15.794    35.021
C    5.939    14.959    33.967
O    5.45    14.799    32.846
C    6.248    16.315    36.052
O    5.579    17.122    37.03
C    7.321    17.149    35.362
N    7.089    14.411    34.35
C    7.902    13.571    33.479
C    7.889    13.943    31.985
O    8.794    14.635    31.509
C    7.503    12.096    33.676
C    7.815    11.473    35.05
C    7.187    10.109    35.151
C    9.316    11.359    35.246
N    6.863    13.504    31.256
C    6.763    13.755    29.816
C    6.432    15.184    29.409
O    6.361    15.44    28.182
C    5.736    12.805    29.21
C    5.754    11.484    29.881
C    6.851    10.714    30.157
C    4.628    10.792    30.416
N    6.475    9.582    30.839
C    5.115    9.603    31.013
C    3.253    11.057    30.454
C    4.271    8.678    31.642
C    2.412    10.14    31.081
C    2.927    8.962    31.666
H    -1.2734    13.9141    42.0653
H    -1.3421    15.1366    43.1655
H    0.2494    16.2807    42.1902
H    2.423    15.4355    42.4391
H    1.982    13.8203    41.7883
H    1.3373    15.0273    44.5221
H    2.024    13.4114    44.1426
H    -0.0885    12.5571    43.3771
H    -0.6347    13.6688    44.6781
H    -0.121    16.9987    40.2036
H    -1.0345    15.3272    38.0636
H    -0.7693    17.3198    36.6391
H    0.1595    18.1329    37.9441
H    -2.129    18.9751    37.8404
H    -1.8318    18.1093    39.386
H    -4.7722    16.3065    38.9904
H    -3.7229    17.2628    39.9826
H    0.0131    14.1439    36.6381
H    2.6543    13.4115    36.7881
H    0.9498    12.2559    35.3516
H    3.43    13.1703    33.8112
H    2.4498    11.7033    33.4737
H    -0.0471    14.3038    34.3425
H    0.4913    13.1463    33.0788
H    1.4802    14.6005    33.4449
H    4.5184    11.1513    34.6452
H    3.0792    10.781    35.6542
H    4.0593    12.248    35.9918
H    4.5819    14.1223    36.1786
H    4.7028    16.6474    34.5583
H    6.7232    15.4575    36.5508
H    6.2121    17.4411    37.6624
H    8.042    17.5103    36.1101
H    6.8516    18.0081    34.8604
H    7.8439    16.5306    34.6176
H    7.4115    14.5836    35.2807
H    8.9429    13.6826    33.8168
H    8.0301    11.5033    32.9138
H    6.4177    12.0197    33.5141
H    7.3991    12.1189    35.8373
H    7.4149    9.6723    36.1346
H    7.5901    9.4602    34.3595
H    6.097    10.1975    35.0329
H    9.7723    12.3571    35.1717
H    9.7385    10.704    34.4698
H    9.5249    10.9333    36.2385
H    6.1367    12.9856    31.7074
H    7.7461    13.5198    29.3821
H    6.2626    15.9576    30.1565
H    5.9635    12.6666    28.1427
H    4.7342    13.2464    29.3172
H    7.8736    10.9624    29.8768
H    7.1101    8.8399    31.1657
H    2.8512    11.9578    30.0044
H    4.6634    7.7733    32.0922
H    1.3461    10.3336    31.1205
H    2.2468    8.2667    32.1445
