46

N    41.995    -23.231    -0.693
C    43.337    -23.94    -0.373
C    43.246    -25.421    -0.862
C    42.229    -26.188    -0.168
S    42.866    -27.447    0.881
C    44.487    -23.363    -1.181
O    44.22    -23.094    -2.397
O    45.661    -23.646    -0.829
C    41.285    -27.629    1.719
C    41.04    -26.549    2.786
O    39.688    -26.788    3.202
C    41.982    -26.702    4.054
O    42.547    -25.418    4.5
C    40.948    -27.213    5.019
O    41.178    -26.993    6.378
C    39.651    -26.553    4.557
N    38.384    -27.153    4.978
C    38.151    -28.523    5.318
N    36.927    -28.749    5.567
C    36.271    -27.528    5.416
C    34.899    -27.101    5.524
N    33.937    -28.003    5.75
N    34.559    -25.733    5.358
C    35.56    -24.821    5.032
N    36.84    -25.148    4.843
C    37.16    -26.508    5.067
H    41.2586    -23.64    -0.1394
H    41.7811    -23.3425    -1.6717
H    42.0732    -22.2498    -0.4757
H    43.5457    -23.8813    0.7054
H    44.2207    -25.904    -0.699
H    43.0119    -25.421    -1.9368
H    41.5806    -26.6611    -0.9201
H    41.634    -25.4959    0.4459
H    41.2584    -28.6148    2.2062
H    40.4824    -27.5688    0.9692
H    41.1596    -25.5444    2.3543
H    42.7943    -27.4242    3.885
H    41.8522    -24.7736    4.5666
H    40.8673    -28.3019    4.886
H    41.2408    -26.0591    6.5403
H    39.6587    -25.483    4.8119
H    38.9311    -29.2818    5.3584
H    32.9555    -27.7006    5.8277
H    34.178    -28.9998    5.8463
H    35.2815    -23.7789    4.9249
