99

H    6.6217    8.6878    6.7144
N    6.105    9.134    7.456
C    5.202    10.158    6.86
C    4.24    9.482    5.875
O    4.607    9.199    4.752
H    5.5435    8.4473    7.9348
H    5.8022    10.9107    6.3278
H    4.6249    10.647    7.6586
N    3.03    9.242    6.324
C    2.018    8.59    5.457
C    1.514    9.576    4.392
O    1.336    10.744    4.672
C    0.9    8.218    6.425
C    1.038    9.176    7.567
C    2.496    9.547    7.66
H    2.4312    7.6952    4.9685
H    1.02    7.1817    6.7737
H    -0.0821    8.3312    5.9426
H    0.4311    10.0744    7.3813
H    0.7097    8.6984    8.5019
H    2.6128    10.6158    7.8925
H    3.0032    8.9467    8.4296
N    1.297    9.073    3.199
C    0.808    9.936    2.096
C    -0.672    10.286    2.306
O    -1.35    9.648    3.085
C    0.989    9.07    0.853
C    0.959    7.661    1.354
C    1.483    7.679    2.767
H    1.4007    10.8598    2.0232
H    1.9519    9.2871    0.3676
H    0.1708    9.2436    0.1386
H    -0.0719    7.2777    1.3392
H    1.5964    7.0234    0.7238
H    0.9084    6.992    3.4056
H    2.5468    7.4005    2.7928
N    -1.128    11.294    1.601
C    -2.545    11.722    1.722
C    -3.47    10.711    1.037
O    -3.049    9.644    0.635
C    -2.579    13.064    0.998
C    -1.437    13.014    0.033
C    -0.384    12.122    0.638
H    -2.8358    11.835    2.7768
H    -2.4464    13.8911    1.7109
H    -3.5317    13.1903    0.4629
H    -1.774    12.6009    -0.9292
H    -1.0311    14.0243    -0.1237
H    0.0879    11.4957    -0.1334
H    0.3868    12.718    1.1485
N    -4.726    11.038    0.901
C    -5.675    10.096    0.24
C    -6.254    10.731    -1.028
O    -6.098    10.201    -2.111
C    -6.78    9.856    1.271
C    -7.392    8.493    1.048
C    -7.854    8.131    -0.224
C    -7.499    7.591    2.113
C    -8.422    6.869    -0.429
C    -8.066    6.329    1.907
C    -8.528    5.968    0.636
O    -9.088    4.723    0.434
H    -5.0523    11.9204    1.24
H    -5.1714    9.1522    -0.0161
H    -7.556    10.6281    1.1628
H    -6.3531    9.9046    2.2836
H    -7.7714    8.8287    -1.0495
H    -7.1423    7.8706    3.0977
H    -8.78    6.5893    -1.4132
H    -8.1476    5.6304    2.7319
H    -8.4502    4.0518    0.6466
N    -6.919    11.849    -0.938
H    -7.3008    12.2712    -1.7602
H    -7.0472    12.2842    -0.0468
C    7.072    9.721    8.426
C    8.352    8.901    8.249
C    9.566    9.768    8.589
C    10.844    8.945    8.422
C    11.719    9.575    7.337
C    12.695    10.565    7.978
C    14.123    10.227    7.543
C    14.283    10.511    6.048
H    6.6927    9.6295    9.4545
H    7.2562    10.7808    8.196
H    8.4267    8.5588    7.2063
H    8.3247    8.0297    8.9198
H    9.4878    10.1164    9.6294
H    9.5978    10.6354    7.9133
H    10.5825    7.917    8.1309
H    11.3957    8.9276    9.3735
H    11.0816    10.105    6.614
H    12.2844    8.7867    6.8186
H    12.6196    10.4973    9.0733
H    12.4456    11.5867    7.6557
H    14.3231    9.1629    7.7372
H    14.8348    10.8437    8.1113
H    15.3095    10.2678    5.7364
H    14.0832    11.575    5.8534
H    13.5714    9.8943    5.4794
