16

O    31.109    76.408    66.218
C    32.003    75.62    65.591
O    33.018    75.248    66.196
C    31.645    75.192    64.143
C    32.482    74.204    63.433
C    32.196    73.77    62.137
C    30.514    75.689    63.415
O    29.637    76.589    63.888
C    30.233    75.212    62.049
C    31.081    74.254    61.424
O    29.139    75.742    61.461
H    33.3522    73.8    63.9375
H    32.8481    73.0424    61.6675
H    28.9763    76.7629    63.2279
H    30.873    73.9039    60.4194
H    28.7265    76.3559    62.0572
