24

C    22.49    21.771    16.533
C    21.124    22.006    16.281
O    20.609    23.281    16.237
C    20.217    20.938    16.063
O    18.884    21.225    15.822
C    20.674    19.603    16.092
C    22.046    19.351    16.341
C    22.946    20.433    16.561
C    23.429    22.922    16.767
C    23.379    23.705    17.961
C    24.273    24.793    18.16
C    25.234    25.113    17.168
C    25.293    24.341    15.982
C    24.394    23.258    15.791
Cl    22.252    23.423    19.272
H    19.9389    23.3739    16.904
H    18.3476    20.8195    16.4931
H    19.9854    18.7824    15.9262
H    22.4121    18.3309    16.3642
H    23.9931    20.2281    16.7522
H    24.2196    25.3781    19.071
H    25.9176    25.9412    17.3159
H    26.0256    24.5771    15.2187
H    24.4494    22.6771    14.8774
