99

O    -8.388    15.529    -2.595
C    -8.237    16.533    -3.254
O    -8.37    16.644    -4.615
C    -9.002    15.595    -5.493
C    -8.915    16.14    -6.914
C    -10.479    15.388    -5.086
C    -8.198    14.287    -5.369
N    -7.901    17.752    -2.751
C    -7.634    17.926    -1.327
C    -8.806    18.625    -0.634
C    -6.32    18.694    -1.131
C    -5.14    18.028    -1.776
C    -4.692    18.439    -3.033
C    -4.523    16.935    -1.166
C    -3.653    17.771    -3.676
C    -3.483    16.259    -1.802
C    -3.049    16.678    -3.059
C    -9.576    17.722    0.327
N    -10.676    17.027    -0.334
C    -11.262    15.914    0.418
C    -10.419    15.295    1.546
O    -9.373    14.698    1.296
C    -11.657    14.793    -0.543
C    -12.383    13.663    0.12
C    -12.108    12.35    -0.229
C    -13.325    13.912    1.113
C    -12.752    11.293    0.399
C    -13.979    12.859    1.752
C    -13.691    11.549    1.395
N    -10.903    15.425    2.78
C    -10.246    14.875    3.965
C    -11.335    14.61    5.001
O    -12.191    15.46    5.225
C    -9.221    15.867    4.527
C    -8.497    15.386    5.783
C    -9.376    15.421    7.034
O    -8.992    14.827    8.069
O    -10.451    16.056    6.988
N    -11.31    13.439    5.631
C    -12.309    13.108    6.637
C    -11.74    12.424    7.882
O    -10.619    11.918    7.878
C    -13.414    12.243    6.011
C    -12.926    10.937    5.442
C    -13.059    9.758    6.159
C    -12.343    10.886    4.176
C    -12.622    8.545    5.623
C    -11.902    9.675    3.631
C    -12.043    8.506    4.356
N    -12.522    12.416    8.955
H    -9.3625    15.4171    -7.612
H    -7.8602    16.3023    -7.1806
H    -9.4596    17.0938    -6.9749
H    -10.9331    14.6213    -5.731
H    -11.027    16.3349    -5.2004
H    -10.5279    15.0604    -4.0371
H    -8.6529    13.5151    -6.0072
H    -8.2067    13.9491    -4.3222
H    -7.1604    14.4626    -5.689
H    -7.8362    18.5386    -3.3651
H    -7.5184    16.9303    -0.874
H    -9.5021    18.9845    -1.4062
H    -8.4135    19.4817    -0.0666
H    -6.1245    18.7815    -0.0521
H    -6.4345    19.698    -1.5655
H    -5.1595    19.2899    -3.5151
H    -4.8559    16.6083    -0.1875
H    -3.3158    18.1001    -4.6522
H    -3.0127    15.4094    -1.3203
H    -2.2414    16.153    -3.5562
H    -9.9844    18.3378    1.1419
H    -8.8839    16.9752    0.7432
H    -10.3325    16.6636    -1.2092
H    -11.4055    17.6993    -0.5125
H    -12.1774    16.305    0.8862
H    -10.7428    14.3943    -1.0069
H    -12.3089    15.2159    -1.3216
H    -11.3786    12.1456    -1.0044
H    -13.5528    14.9342    1.3927
H    -12.5248    10.2718    0.1152
H    -14.7104    13.0631    2.5256
H    -14.1957    10.7273    1.8902
H    -11.7604    15.9248    2.9025
H    -9.7368    13.9349    3.7063
H    -9.7458    16.8027    4.77
H    -8.4677    16.0605    3.7491
H    -7.6225    16.0316    5.9517
H    -8.1625    14.351    5.6193
H    -10.5945    12.7761    5.4105
H    -12.7644    14.0535    6.9667
H    -13.885    12.8182    5.2003
H    -14.1618    12.0233    6.7872
H    -13.5069    9.778    7.1459
H    -12.2296    11.8001    3.6045
H    -12.7335    7.6306    6.1943
H    -11.4519    9.6534    2.6451
H    -11.7047    7.5636    3.9407
H    -12.2069    11.9842    9.8001
H    -13.4261    12.8418    8.918
