173

N    -9.06    11.541    36.513
C    -7.998    10.802    35.748
C    -8.056    11.205    34.279
O    -7.049    11.087    33.533
C    -8.148    9.283    35.905
C    -7.554    8.742    37.206
S    -7.259    6.926    37.242
C    -8.819    6.331    38.265
N    -9.231    11.663    33.862
C    -9.422    12.208    32.515
C    -9.054    13.682    32.432
O    -9.567    14.488    33.18
C    -10.921    12.053    32.306
C    -11.474    12.303    33.675
C    -10.485    11.654    34.637
N    -8.194    14.029    31.498
C    -7.76    15.414    31.313
C    -8.93    16.395    31.187
O    -10.029    16.035    30.764
C    -7.011    15.351    29.984
C    -6.523    13.91    29.893
C    -7.612    13.108    30.511
N    -8.713    17.646    31.534
C    -9.765    18.639    31.401
C    -9.951    18.915    29.971
O    -9.014    18.967    29.221
C    -9.338    19.94    32.032
O    -9.071    19.732    33.439
C    -10.481    20.969    31.99
N    -11.177    19.099    29.562
C    -11.441    19.374    28.16
C    -11.14    20.837    27.843
O    -11.439    21.726    28.595
C    -12.905    19.071    27.856
C    -13.275    17.606    27.946
C    -14.769    17.363    27.912
C    -12.593    16.893    26.821
N    -10.548    21.077    26.703
C    -10.279    22.451    26.24
C    -11.581    23.134    25.897
O    -12.481    22.463    25.454
C    -9.527    22.226    24.932
C    -9.088    20.776    25.0
C    -10.121    20.034    25.752
N    -11.652    24.445    26.079
C    -12.851    25.247    25.799
C    -13.245    25.106    24.361
O    -12.417    25.253    23.48
C    -12.551    26.723    26.079
C    -13.466    27.689    25.384
N    -14.728    27.993    25.853
C    -13.285    28.45    24.277
C    -15.29    28.882    25.054
N    -14.435    29.184    24.094
N    -14.502    24.819    24.107
C    -14.911    24.728    22.723
C    -15.888    25.865    22.393
O    -16.631    26.307    23.266
C    -15.498    23.35    22.446
C    -16.787    23.078    23.157
C    -16.983    21.581    23.395
N    -16.83    21.187    24.797
C    -17.093    19.96    25.256
N    -17.478    19.011    24.414
N    -16.948    19.679    26.55
N    -15.871    26.344    21.147
C    -16.704    27.463    20.727
C    -18.036    27.076    20.176
O    -18.581    27.827    19.403
C    -16.025    28.287    19.634
C    -14.914    29.137    20.156
O    -15.199    30.169    20.824
O    -13.718    28.829    19.943
N    -18.579    25.936    20.539
C    -19.887    25.593    20.027
C    -20.654    24.914    21.13
O    -20.02    24.592    22.13
C    -19.78    24.679    18.818
C    -18.893    23.514    19.083
C    -19.137    22.456    19.92
C    -17.588    23.315    18.572
N    -18.066    21.601    19.934
C    -17.097    22.112    19.118
C    -16.774    24.037    17.708
C    -15.841    21.609    18.806
C    -15.549    23.554    17.395
C    -15.083    22.34    17.936
O    -21.958    24.6743    21.0255
H    -9.0214    11.2743    37.4843
H    -9.9665    11.3108    36.1372
H    -8.9043    12.5335    36.4307
H    -7.0161    11.0916    36.1504
H    -7.64    8.794    35.0607
H    -9.2194    9.0348    35.8819
H    -8.2461    8.9899    38.0242
H    -6.5909    9.2459    37.375
H    -8.7887    5.2371    38.3767
H    -9.7378    6.62    37.7338
H    -8.8068    6.8015    39.2592
H    -8.8457    11.6377    31.7716
H    -11.1698    11.0399    31.9571
H    -11.2991    12.7925    31.5848
H    -11.5469    13.3833    33.869
H    -12.4684    11.844    33.7779
H    -10.3852    12.2425    35.561
H    -10.7899    10.6272    34.8873
H    -7.1013    15.7308    32.135
H    -6.162    16.0505    29.9819
H    -7.6835    15.588    29.1464
H    -6.3714    13.6165    28.8438
H    -5.5825    13.7823    30.4491
H    -8.3589    12.813    29.7593
H    -7.2096    12.2089    31.0007
H    -7.8185    17.9145    31.8914
H    -10.696    18.273    31.8584
H    -8.4472    20.3284    31.5167
H    -8.3679    19.1007    33.5368
H    -10.1463    21.908    32.4551
H    -11.3485    20.5761    32.5404
H    -10.7653    21.1587    30.9445
H    -11.9342    19.0507    30.2134
H    -10.8    18.7318    27.5382
H    -13.1229    19.4182    26.8352
H    -13.5269    19.627    28.573
H    -12.8934    17.211    28.8991
H    -14.9665    16.2831    27.9809
H    -15.1824    17.7519    26.9698
H    -15.2436    17.8774    28.7606
H    -11.5109    17.0849    26.8677
H    -12.989    17.258    25.8619
H    -12.7776    15.812    26.9065
H    -9.6993    23.0332    26.9714
H    -8.6561    22.8944    24.8627
H    -10.1875    22.3935    24.0685
H    -8.9942    20.364    23.9844
H    -8.1201    20.7006    25.5172
H    -10.9474    19.7127    25.101
H    -9.6997    19.159    26.2685
H    -10.8417    24.9161    26.4275
H    -13.6763    24.9071    26.4419
H    -11.521    26.9315    25.754
H    -12.6345    26.8906    27.1629
H    -15.1635    27.5896    26.6947
H    -12.3955    28.4759    23.6493
H    -16.2906    29.2964    25.1678
H    -15.1559    24.6681    24.8484
H    -14.0215    24.8509    22.0876
H    -14.7644    22.593    22.7601
H    -15.6756    23.2618    21.364
H    -17.6201    23.4561    22.5463
H    -16.7781    23.5971    24.1268
H    -16.2402    21.0332    22.7965
H    -17.9954    21.3056    23.0646
H    -16.5009    21.8961    25.4676
H    -17.6817    18.0639    24.7637
H    -17.5734    19.2209    23.4101
H    -16.649    20.4143    27.2063
H    -17.1349    18.7264    26.8942
H    -15.2633    25.9185    20.4764
H    -16.8651    28.1001    21.6091
H    -16.7774    28.9398    19.1674
H    -15.6165    27.5998    18.8784
H    -18.0963    25.3167    21.1583
H    -20.4122    26.5127    19.7297
H    -19.3715    25.2526    17.973
H    -20.7839    24.3107    18.56
H    -20.0524    22.3149    20.4928
H    -18.0026    20.7229    20.4686
H    -17.1162    24.9765    17.2893
H    -15.4792    20.6804    19.2325
H    -14.9149    24.1118    16.7154
H    -14.1006    21.9776    17.6556
H    -22.418    25.1205    21.7267
