32

N    52.374    40.634    19.822
C    53.072    40.673    20.986
N    54.379    40.334    21.123
C    55.013    39.913    19.895
C    54.34    39.857    18.658
C    52.936    40.241    18.632
N    52.201    40.219    17.517
N    55.23    39.42    17.715
N    56.473    39.184    18.313
C    56.366    39.47    19.63
C    57.547    39.316    20.657
C    57.48    39.88    22.108
O    58.359    40.912    22.435
C    57.684    38.688    23.024
O    59.047    38.815    23.51
C    57.434    37.385    22.204
O    57.78    37.887    20.839
C    55.95    36.844    22.2
O    55.446    36.346    23.437
H    52.5445    41.0002    21.8747
H    52.6254    39.9238    16.6261
H    51.2098    40.4973    17.548
H    55.0173    39.2852    16.7163
H    58.4246    39.7781    20.1813
H    56.4647    40.2745    22.2616
H    59.2534    40.6128    22.3208
H    56.9824    38.7208    23.8705
H    59.14    39.6367    23.9776
H    58.1065    36.5798    22.5348
H    55.895    36.0275    21.465
H    55.2956    37.6688    21.8815
H    55.467    37.0378    24.0877
