178

C    66.805    -3.289    -3.689
O    67.18    -3.633    -2.586
C    67.383    -3.956    -4.942
H    66.9235    -3.5134    -5.8381
H    67.1691    -5.0346    -4.915
H    68.4713    -3.7987    -4.9723
C    61.785    -3.776    -1.409
C    60.639    -4.457    -0.974
O    59.952    -4.931    -1.856
C    62.966    -4.48    -1.669
C    64.111    -3.794    -2.095
C    64.072    -2.404    -2.26
C    62.891    -1.7    -2.001
C    61.748    -2.386    -1.575
C    65.306    -1.659    -2.713
N    65.906    -2.349    -3.888
C    65.477    -1.959    -5.27
C    66.066    -0.59    -5.647
C    64.935    0.434    -5.756
C    67.063    -0.124    -4.579
H    62.995    -5.556    -1.5408
H    65.0262    -4.3388    -2.2967
H    62.8613    -0.6241    -2.1302
H    60.833    -1.8408    -1.3733
H    66.038    -1.631    -1.8924
H    65.0304    -0.6318    -2.9938
H    64.379    -1.9038    -5.3068
H    65.8303    -2.7153    -5.9863
H    66.5823    -0.6716    -6.6149
H    65.3533    1.415    -6.0257
H    64.415    0.5103    -4.7897
H    64.2234    0.1132    -6.531
H    67.8796    -0.8563    -4.4953
H    66.5487    -0.0361    -3.6106
H    67.476    0.8546    -4.865
C    59.525    -6.588    1.363
C    59.851    -7.669    0.538
C    60.203    -8.899    1.104
C    60.228    -9.048    2.495
C    59.901    -7.966    3.321
C    59.55    -6.735    2.754
C    59.142    -5.264    0.751
N    60.367    -4.546    0.304
C    61.283    -3.939    1.312
C    62.424    -4.915    1.611
C    63.14    -4.492    2.897
O    62.932    -5.087    3.935
C    60.61    -10.375    3.106
N    59.393    -11.04    3.651
H    59.831    -7.554    -0.5397
H    60.4565    -9.7369    0.4647
H    59.9196    -8.0812    4.3987
H    59.2977    -5.8961    3.3925
H    58.6132    -4.6547    1.4987
H    58.4837    -5.4371    -0.1131
H    60.7254    -3.731    2.2371
H    61.6969    -3.0006    0.9145
H    63.1391    -4.9089    0.7752
H    62.0151    -5.9285    1.7364
H    61.3326    -10.2099    3.9188
H    61.0642    -11.016    2.336
H    59.6483    -11.9258    4.0588
H    58.7308    -11.1914    2.9063
H    58.9767    -10.4528    4.3566
N    63.967    -3.475    2.8
C    64.199    -2.765    1.504
C    63.98    -1.268    1.73
C    64.895    -0.801    2.866
C    64.77    0.716    3.041
O    64.024    1.182    3.879
C    64.466    -1.5    4.158
C    64.7    -3.004    4.006
H    63.4922    -3.1339    0.7461
H    65.2292    -2.9426    1.1619
H    62.93    -1.0849    2.0021
H    64.222    -0.7159    0.8099
H    65.9382    -1.0596    2.632
H    63.399    -1.309    4.345
H    65.0603    -1.1168    5.0006
H    65.7755    -3.2023    3.8878
H    64.3259    -3.5298    4.8968
N    65.513    1.44    2.241
C    65.522    2.913    2.282
C    64.264    3.48    1.616
O    64.19    3.603    0.41
C    66.779    3.286    1.49
C    67.097    2.075    0.581
C    66.408    0.855    1.22
H    65.5867    3.2786    3.3174
H    67.6177    3.4779    2.1754
H    66.5922    4.1816    0.8792
H    68.1839    1.9137    0.5295
H    66.7033    2.2464    -0.4317
H    65.8308    0.295    0.4695
H    67.1484    0.188    1.6857
N    63.279    3.834    2.396
C    62.031    4.4    1.812
C    62.399    5.464    0.775
O    63.501    5.975    0.782
C    61.195    5.037    2.926
C    60.861    3.982    3.982
C    60.856    4.627    5.369
C    59.481    3.391    3.691
H    63.3623    3.7251    3.3866
H    61.4521    3.5989    1.3291
H    60.2629    5.4378    2.501
H    61.7665    5.8534    3.3918
H    61.6161    3.1826    3.9527
H    60.6156    3.8662    6.1263
H    60.1005    5.4259    5.3992
H    61.8483    5.0526    5.5791
H    59.4838    2.9269    2.6937
H    58.7259    4.1903    3.7213
H    59.2406    2.6305    4.4485
N    61.464    5.767    -0.088
C    61.662    6.77    -1.146
C    61.528    8.182    -0.568
O    61.167    8.347    0.581
C    60.535    6.47    -2.14
C    59.442    5.716    -1.347
C    60.124    5.141    -0.091
H    62.6473    6.6567    -1.6218
H    60.9098    5.8424    -2.9619
H    60.1296    7.407    -2.5496
H    59.0239    4.9021    -1.9576
H    58.6374    6.4083    -1.0582
H    59.5642    5.4128    0.816
H    60.2049    4.046    -0.1576
N    61.821    9.157    -1.386
C    61.742    10.574    -0.99
C    60.281    11.021    -0.938
O    59.597    11.055    -1.941
C    62.506    11.3    -2.101
C    62.491    10.357    -3.327
C    62.252    8.938    -2.781
H    62.2162    10.7416    -0.0117
H    63.541    11.4973    -1.7851
H    62.0098    12.2507    -2.3459
H    63.4548    10.4041    -3.855
H    61.6815    10.641    -4.0155
H    61.4671    8.4253    -3.3563
H    63.1781    8.3454    -2.8152
N    59.791    11.352    0.226
C    58.369    11.779    0.332
C    58.126    13.009    -0.546
O    59.031    13.773    -0.818
C    58.023    12.132    1.787
C    57.857    10.869    2.651
C    56.911    11.173    3.804
C    57.262    9.72    1.839
H    60.368    11.3188    1.0421
H    57.7213    10.9565    -0.0056
H    57.082    12.7015    1.8024
H    58.8315    12.7483    2.207
H    58.8393    10.5682    3.0443
H    56.7888    10.2733    4.4249
H    55.9326    11.4786    3.4048
H    57.3279    11.9867    4.4156
H    57.9295    9.4814    0.9978
H    56.276    10.0166    1.4519
H    57.1522    8.8346    2.4824
N    56.891    13.158    -0.95
C    56.448    14.281    -1.793
C    56.272    15.546    -0.948
O    55.599    15.531    0.064
C    55.102    13.8    -2.345
C    54.597    12.713    -1.382
C    55.817    12.207    -0.601
H    57.1631    14.4745    -2.6061
H    55.2328    13.3823    -3.3542
H    54.3871    14.6351    -2.3836
H    54.1418    11.8874    -1.9487
H    53.854    13.1362    -0.6901
H    55.6204    12.2207    0.4812
H    56.0835    11.1862    -0.9124
N    56.854    16.652    -1.324
H    56.7458    17.4839    -0.7798
H    57.4081    16.6675    -2.1563
