58

N    64.384    73.981    69.21
C    65.764    73.456    69.191
C    65.778    72.097    68.474
O    65.051    71.173    68.883
C    66.313    73.297    70.633
C    66.12    74.579    71.449
C    67.779    72.895    70.606
C    66.439    74.434    72.95
N    66.609    71.967    67.438
C    66.667    70.727    66.634
C    67.433    69.495    67.113
O    68.742    69.561    67.448
C    67.458    71.153    65.418
C    68.393    72.221    65.939
C    67.651    72.929    67.022
N    66.496    69.04    68.151
C    66.902    67.949    69.032
C    65.719    67.069    69.487
O    64.762    67.571    70.086
C    67.754    68.42    70.303
C    67.631    67.422    71.484
C    67.335    69.769    70.788
C    68.927    67.226    72.275
O    65.717    65.842    69.288
H    64.0477    74.0762    68.2645
H    64.3733    74.8815    69.6627
H    63.7889    73.3436    69.7156
H    66.4067    74.1601    68.6422
H    65.7466    72.4928    71.1253
H    65.0712    74.8953    71.3495
H    66.7782    75.3549    71.0311
H    67.8958    71.9739    70.0161
H    68.13    72.7193    71.6336
H    68.3718    73.7008    70.1487
H    66.2737    75.3973    73.4547
H    67.489    74.1305    73.0741
H    65.7819    73.6708    73.3925
H    65.6394    70.4248    66.3837
H    67.4119    68.763    66.2922
H    68.8522    70.1653    68.1727
H    66.7925    71.5614    64.6431
H    68.0251    70.3058    65.005
H    68.6561    72.9235    65.1345
H    69.3092    71.7634    66.3404
H    68.3202    73.1665    67.8621
H    67.1966    73.8558    66.6417
H    65.654    68.7449    67.682
H    66.2934    69.8348    68.7369
H    67.5632    67.3061    68.4324
H    68.8097    68.4716    69.9984
H    67.3216    66.4464    71.0809
H    66.8592    67.7956    72.1729
H    67.4141    70.4952    69.9656
H    67.9887    70.0803    71.6161
H    66.2936    69.7252    71.1395
H    68.7542    66.5074    73.0897
H    69.2478    68.1895    72.6979
H    69.7102    66.8402    71.6059
