54

C    44.304    -3.064    26.271
C    44.684    -1.696    26.261
C    44.652    -0.896    27.416
C    44.235    -1.502    28.566
C    43.874    -2.776    28.626
C    43.885    -3.605    27.514
C    44.35    -3.836    25.079
N    44.178    -5.14    25.096
N    44.568    -3.223    23.94
N    44.109    -1.035    29.759
N    43.512    -3.148    29.846
C    43.684    -2.019    30.488
C    43.422    -1.902    31.869
C    43.104    -3.006    32.671
C    42.843    -2.88    34.028
C    42.467    -4.125    34.87
C    40.958    -4.298    34.642
O    40.599    -5.104    33.806
O    40.203    -3.612    35.3
C    42.783    -3.981    36.433
C    43.421    -5.251    37.109
O    43.2    -6.353    36.628
O    44.12    -5.08    38.109
C    42.911    -1.636    34.589
C    43.222    -0.496    33.867
C    43.475    -0.655    32.508
O    43.78    0.447    31.746
C    43.279    0.733    34.544
C    44.474    1.44    34.703
C    44.557    2.635    35.404
C    43.429    3.178    35.974
C    42.216    2.523    35.841
C    42.143    1.317    35.135
N    45.628    1.083    34.203
O    46.325    1.783    34.215
O    45.562    0.561    33.377
H    45.011    -1.2521    25.3277
H    44.9433    0.1479    27.3948
H    43.5805    -4.6424    27.5928
H    44.2162    -5.676    24.2173
H    44.0051    -5.6251    25.988
H    44.7032    -2.2021    23.9222
H    44.604    -3.7626    23.0634
H    44.3061    -0.0735    30.0713
H    43.0605    -3.9895    32.2171
H    43.0112    -5.0016    34.4886
H    41.839    -3.7579    36.9516
H    43.4803    -3.1403    36.5629
H    42.712    -1.5367    35.6499
H    44.5664    0.8577    32.0857
H    45.5109    3.1405    35.5023
H    43.489    4.1109    36.5228
H    41.3216    2.9453    36.2846
H    41.1849    0.8188    35.0407
