85

N    42.667    52.399    18.713
C    42.385    52.238    20.178
C    41.634    53.441    20.769
O    41.99    54.599    20.572
C    43.683    51.978    20.954
C    44.049    50.478    21.065
C    44.042    49.747    19.686
O    42.977    49.586    19.053
N    45.235    49.321    19.218
N    40.565    53.117    21.477
C    39.677    54.051    22.108
C    39.701    53.702    23.585
O    40.205    52.642    23.975
C    38.266    53.872    21.537
O    38.276    53.931    20.107
N    39.179    54.591    24.419
C    39.171    54.303    25.844
C    38.06    53.339    26.167
O    36.949    53.426    25.595
C    38.932    55.58    26.656
C    39.969    56.614    26.386
C    41.204    56.55    27.016
C    39.764    57.589    25.417
C    42.22    57.424    26.691
C    40.79    58.468    25.067
C    42.013    58.374    25.71
O    43.062    59.175    25.329
N    38.375    52.417    27.07
C    37.371    51.485    27.599
C    37.485    50.062    26.941
C    37.213    50.146    25.434
O    38.801    49.563    27.253
P    39.292    48.094    26.936
O    39.367    47.983    25.345
O    38.311    47.064    27.523
O    40.741    47.992    27.54
C    37.679    51.422    29.086
O    38.729    51.916    29.511
N    36.788    50.852    29.872
C    37.016    50.64    31.3
C    36.554    49.272    31.731
O    35.969    48.52    30.886
C    36.292    51.66    32.215
C    36.954    53.057    32.028
C    34.773    51.664    31.92
O    36.784    48.963    32.936
H    43.159    51.587    18.3743
H    43.2338    53.2199    18.5681
H    41.7977    52.4982    18.2124
H    41.7393    51.3552    20.2951
H    43.5681    52.3839    21.9699
H    44.5049    52.4994    20.4416
H    43.3199    49.9869    21.7262
H    45.055    50.3936    21.5017
H    45.2869    48.8467    18.3391
H    46.0665    49.4798    19.7503
H    40.3592    52.1439    21.5808
H    40.0172    55.0848    21.9485
H    37.6177    54.6716    21.9247
H    37.8721    52.8949    21.8532
H    38.8316    53.2397    19.7665
H    38.7962    55.4475    24.0726
H    40.1383    53.8626    26.1276
H    38.951    55.329    27.7268
H    37.9454    55.9891    26.3927
H    41.3733    55.7983    27.7785
H    38.7992    57.6674    24.929
H    43.1743    57.3658    27.2018
H    40.6312    59.2169    24.2995
H    42.8183    60.0868    25.4373
H    39.318    52.3562    27.3972
H    36.3574    51.8775    27.4301
H    36.7358    49.3917    27.3875
H    37.2967    49.1431    24.9899
H    37.9481    50.8169    24.9655
H    36.1991    50.5381    25.2657
H    35.9204    50.5523    29.4752
H    38.0985    50.7232    31.477
H    36.4303    51.3535    33.2623
H    36.4489    53.7913    32.6727
H    36.8631    53.3681    30.9769
H    38.0176    52.9985    32.3024
H    34.3678    50.6524    32.0698
H    34.6024    51.9769    30.8794
H    34.269    52.3654    32.6012
