62

N    28.869    15.698    8.923
C    27.397    15.844    8.864
C    26.851    15.596    10.25
O    27.418    15.005    11.135
C    26.801    14.803    7.938
C    27.133    15.01    6.483
O    28.267    15.431    6.077
O    26.271    14.685    5.657
N    25.624    16.029    10.435
C    24.959    15.906    11.714
C    24.329    14.496    11.858
O    23.764    13.885    10.946
C    23.93    17.044    11.853
O    24.551    18.343    11.883
N    24.441    13.996    13.075
C    23.74    12.776    13.477
C    22.568    13.218    14.334
O    22.679    14.13    15.124
C    24.655    11.739    14.207
C    25.353    12.285    15.394
C    23.86    10.536    14.639
N    21.494    12.464    14.198
C    20.248    12.68    14.957
C    19.776    11.414    15.612
O    20.269    10.347    15.214
C    19.157    13.22    14.041
C    19.516    14.547    13.494
C    20.166    14.663    12.29
C    19.296    15.687    14.238
C    20.562    15.901    11.849
C    19.724    16.875    13.797
C    20.358    16.975    12.588
O    18.951    11.525    16.501
H    29.2595    15.859    8.0078
H    29.1023    14.7662    9.2286
H    29.2475    16.3694    9.5727
H    27.1311    16.8539    8.5184
H    25.7069    14.8278    8.0493
H    27.1781    13.8151    8.2409
H    25.1374    16.4545    9.672
H    25.7071    16.0232    12.5119
H    23.3671    16.8996    12.787
H    23.239    17.0022    10.9982
H    25.1454    18.3916    12.6225
H    25.0215    14.4645    13.741
H    23.3494    12.2861    12.5729
H    25.4196    11.4117    13.4871
H    25.9729    11.4983    15.8489
H    24.6111    12.6365    16.1262
H    25.9934    13.1255    15.0884
H    23.3326    10.114    13.7708
H    23.1275    10.8356    15.4029
H    24.539    9.7792    15.0588
H    21.5264    11.7063    13.5462
H    20.4474    13.4238    15.7425
H    18.222    13.3104    14.6134
H    19.0101    12.5176    13.2073
H    20.3653    13.7817    11.6911
H    18.7734    15.62    15.1853
H    21.047    15.9974    10.8843
H    19.5681    17.7625    14.3996
H    20.6948    17.9431    12.2352
