33

O         10.97200       -9.72100       10.71700
C         10.35200      -10.55200       11.39100
C          9.11600      -11.18300       10.81900
N         10.73400      -10.92500       12.61900
C         11.90300      -10.39400       13.28900
N         12.84100       -9.54200       12.62400
N         12.18400      -10.69800       14.66300
C         13.26000      -10.17800       15.24600
C         14.09600       -9.39600       14.58600
C         13.90200       -9.08000       13.28500
C         14.84000       -8.15000       12.56700
N         14.58500       -7.50800       11.29600
C         15.68500       -6.68900       11.01300
N         16.61300       -6.78300       12.06200
C         16.16500       -7.62800       13.02000
C         16.94400       -7.95200       14.26200
C         15.71100       -5.94700        9.83400
C         14.64500       -6.01300        8.92500
C         13.55300       -6.82400        9.22700
C         13.55500       -7.56000       10.42500
H          8.69550      -11.89190       11.54750
H          9.37250      -11.71810        9.89280
H          8.37420      -10.40150       10.59760
H         10.18240      -11.60690       13.09930
H         13.45620      -10.40110       16.28850
H         14.96170       -8.99640       15.10160
H         16.37090       -8.65850       14.88040
H         17.12530       -7.02910       14.83240
H         17.90640       -8.40590       13.98320
H         16.56300       -5.31280        9.61730
H         14.67020       -5.44290        8.00340
H         12.71170       -6.88680        8.54630
H         12.70290       -8.18880       10.65640
