40

C          8.70100      -11.77900       10.81800
N         14.27600       -8.00000       10.54200
C         13.64400       -8.77300        9.64900
C         15.08500       -7.00600       10.23600
C         15.36100       -6.67300        8.92200
C         14.72400       -7.45700        7.95900
C         13.86200       -8.50600        8.30100
C         13.83700       -9.40400       13.94600
C         13.42600       -9.03300       12.67600
C         14.23000       -8.04500       11.89100
C         15.02800       -7.07500       12.38500
C         13.06000      -10.32200       14.63800
C          9.72400      -10.88100       11.14200
C         11.55700      -10.46800       12.83100
N         12.30300       -9.57900       12.13800
C          9.89700       -9.75400       10.34200
C          9.10700       -9.56200        9.20600
C          8.11900      -10.48000        8.86800
O          6.08100       -9.44900        7.98900
S          7.19800      -10.24300        7.57500
O          6.72400      -11.49800        7.05200
N          8.00400       -9.45400        6.43900
C          7.91300      -11.59200        9.68400
N         10.44400      -11.08100       12.33500
N         11.95900      -10.83000       14.06800
N         15.56000       -6.43100       11.42100
H          8.51860      -12.63370       11.45930
H         12.98770       -9.57600        9.96460
H         16.02640       -5.85890        8.65840
H         14.90270       -7.24670        6.91070
H         13.37560       -9.09660        7.53310
H         14.73740       -8.99010       14.38530
H         15.19220       -6.87340       13.44250
H         13.34340      -10.62780       15.63860
H         10.65070       -9.02000       10.60300
H          9.26570       -8.68960        8.58250
H          7.55820       -9.23310        5.57150
H          8.95330       -9.18200        6.59680
H          7.14020      -12.31060        9.43620
H         10.06270      -11.82160       12.94080
