111

N    35.897    21.67    -1.411
C    37.091    21.288    -0.623
C    37.528    22.412    0.319
O    37.18    23.57    0.083
C    38.256    20.967    -1.586
C    38.514    22.04    -2.647
C    39.936    22.038    -3.231
N    39.949    22.647    -4.557
C    40.775    23.614    -4.952
N    41.789    24.039    -4.206
N    40.626    24.127    -6.159
N    38.14    22.056    1.45
C    38.79    23.049    2.277
C    39.868    23.678    1.42
O    40.535    22.959    0.688
C    39.438    22.424    3.506
C    40.188    23.458    4.381
C    40.822    22.88    5.631
N    42.285    22.876    5.568
C    43.038    21.832    5.239
N    44.355    21.952    5.304
N    42.508    20.658    4.893
N    39.988    25.003    1.46
C    40.948    25.673    0.613
C    42.329    25.751    1.249
O    42.555    26.269    2.348
C    40.499    27.029    0.08
C    39.551    26.908    -1.12
C    39.099    28.302    -1.571
C    40.125    26.119    -2.304
N    43.284    25.217    0.518
C    44.597    25.2    1.068
C    45.273    26.545    0.857
O    45.666    26.895    -0.255
C    45.356    23.98    0.565
C    45.75    23.168    1.794
C    46.536    24.344    -0.371
C    46.288    24.039    2.945
N    45.421    27.276    1.959
C    46.016    28.608    1.975
C    47.286    28.588    2.798
O    47.251    28.176    3.955
C    45.024    29.575    2.631
C    43.833    29.888    1.782
C    42.566    29.647    2.245
C    43.983    30.423    0.519
C    41.482    29.933    1.455
C    42.913    30.709    -0.26
C    41.666    30.455    0.195
N    48.38    29.091    2.235
H    35.6378    20.9087    -2.0187
H    36.1068    22.4855    -1.965
H    35.1335    21.8757    -0.7858
H    36.8525    20.3949    -0.0269
H    38.0264    20.0225    -2.1009
H    39.1721    20.8461    -0.9893
H    38.3328    23.0241    -2.1901
H    37.8044    21.8828    -3.4727
H    40.2941    21.0007    -3.3064
H    40.6008    22.6079    -2.5652
H    39.2635    22.3007    -5.2433
H    42.4032    24.7902    -4.5516
H    41.9609    23.6173    -3.2821
H    39.8485    23.8156    -6.7586
H    41.2872    24.8387    -6.5013
H    38.1494    21.0955    1.728
H    38.0597    23.8076    2.595
H    40.155    21.6586    3.1742
H    38.6532    21.9518    4.1152
H    39.471    24.2342    4.6866
H    40.9827    23.9125    3.7712
H    40.4717    21.845    5.7578
H    40.508    23.4821    6.4964
H    42.7703    23.755    5.7977
H    44.9577    21.1552    5.0535
H    44.7768    22.8421    5.6051
H    41.485    20.5508    4.8385
H    43.1217    19.8586    4.6803
H    39.4115    25.5369    2.0786
H    41.0564    25.029    -0.2721
H    41.3882    27.5976    -0.2298
H    39.9803    27.5697    0.8853
H    38.6611    26.3621    -0.7735
H    38.42    28.2068    -2.4312
H    39.9778    28.8963    -1.8616
H    38.5748    28.803    -0.7438
H    40.4433    25.1234    -1.9613
H    40.9897    26.6577    -2.7189
H    39.3536    26.0102    -3.0806
H    43.095    24.8381    -0.3879
H    44.4973    25.0738    2.1562
H    44.6616    23.3693    -0.0307
H    46.5309    22.4497    1.5038
H    44.8645    22.6223    2.152
H    46.1602    24.926    -1.2254
H    47.0121    23.4221    -0.7364
H    47.2734    24.9423    0.1842
H    46.5532    23.3967    3.7977
H    45.5143    24.7574    3.2538
H    47.1807    24.5848    2.6055
H    45.1062    26.8901    2.8262
H    46.2394    28.9322    0.9479
H    45.5503    30.5158    2.85
H    44.6711    29.1249    3.5706
H    42.4206    29.2305    3.2352
H    44.9802    30.6188    0.1418
H    40.4795    29.7477    1.8234
H    43.056    31.1398    -1.2444
H    40.8083    30.663    -0.4343
H    49.2432    29.0998    2.7397
H    48.3398    29.4607    1.3067
