87

O    70.735    55.366    61.027
C    70.366    56.386    61.627
O    71.208    57.375    62.051
C    68.901    56.661    62.0
C    68.879    57.797    63.023
C    67.549    58.348    63.678
N    66.246    57.786    63.199
C    65.704    57.016    64.166
O    66.367    56.819    65.215
C    64.323    56.453    64.031
C    63.669    55.675    65.024
C    62.326    55.221    64.861
C    61.532    55.488    63.687
C    62.237    56.271    62.676
C    63.57    56.748    62.831
N    60.053    54.964    63.571
C    59.064    55.184    64.435
O    57.853    54.921    64.271
C    59.326    55.897    65.76
C    59.269    55.958    67.152
C    59.51    56.735    68.351
C    60.208    57.969    68.384
N    60.954    58.007    69.589
C    60.624    56.788    70.114
N    59.768    55.959    69.392
C    59.182    54.631    69.619
O    58.281    54.814    70.695
C    58.958    54.122    71.712
C    59.2    54.991    72.927
O    60.656    55.167    73.022
P    61.389    55.765    74.325
O    60.324    56.641    75.148
O    61.936    54.558    75.245
O    62.604    56.707    73.851
C    60.368    53.754    71.247
O    60.724    52.465    71.723
C    60.347    53.729    69.751
O    60.104    52.511    69.049
C    60.197    59.091    67.349
O    59.291    59.223    66.558
N    61.191    59.965    67.265
C    59.682    54.176    62.331
C    60.161    54.687    60.981
N    59.558    55.772    60.477
C    59.886    56.271    59.304
C    60.956    55.671    58.49
N    61.302    56.243    57.193
C    60.683    57.291    56.719
N    61.047    57.794    55.491
N    59.612    57.951    57.464
C    59.182    57.518    58.698
O    58.274    58.149    59.24
C    61.626    54.538    59.011
C    61.223    54.018    60.277
C    67.545    59.894    63.665
O    66.699    60.594    63.066
O    68.589    60.414    64.4
H    68.4509    55.7571    62.4363
H    68.3364    56.9555    61.1031
H    69.351    58.6584    62.5278
H    69.5112    57.4629    63.8589
H    67.609    58.0506    64.7353
H    65.84    57.9552    62.3009
H    64.2052    55.4192    65.9307
H    61.8786    54.6445    65.6626
H    61.7157    56.5026    61.7542
H    64.0246    57.3374    62.0429
H    59.797    56.8352    65.4703
H    58.8667    55.0018    67.4834
H    61.0223    56.4717    71.0769
H    58.5991    54.3009    68.7465
H    58.3852    53.2237    71.9858
H    58.8159    54.4971    73.8317
H    58.7054    55.9657    72.8033
H    61.0927    54.4983    71.6088
H    60.1091    51.8236    71.3869
H    61.2716    54.1676    69.3477
H    60.7744    51.8771    69.2755
H    61.1613    60.6915    66.5785
H    61.9702    59.8975    67.8881
H    58.5837    54.1304    62.2907
H    60.0868    53.161    62.4571
H    61.7994    57.3422    54.9518
H    60.5671    58.6224    55.111
H    59.1722    58.7527    57.0591
H    62.4329    54.0726    58.4565
H    61.704    53.1422    60.6974
