144

C    15.659    25.813    26.197
O    16.724    24.883    26.437
O    14.512    25.396    26.12
C    15.87    27.302    26.04
C    15.248    27.764    24.738
C    16.078    27.444    23.506
C    17.526    27.905    23.714
C    18.092    27.277    24.983
N    17.261    27.767    26.083
C    17.779    28.308    27.208
O    17.048    28.58    28.173
C    19.108    28.752    27.287
O    19.383    29.804    26.701
C    20.225    27.919    27.944
O    20.701    27.177    26.834
O    21.221    28.727    28.555
C    19.708    27.03    29.078
C    20.639    25.868    29.328
C    21.051    25.143    28.044
C    21.581    26.093    26.971
C    21.654    25.391    25.626
C    22.831    24.414    25.505
O    23.934    25.205    25.272
C    22.66    23.42    24.365
C    22.375    22.163    24.66
C    22.14    21.095    23.679
C    21.868    19.856    24.078
C    21.524    18.864    23.058
C    21.181    17.633    23.373
C    20.716    16.574    22.374
C    19.287    16.211    22.715
C    18.266    17.32    22.738
C    16.995    16.781    23.38
O    16.207    16.093    22.732
C    16.755    17.076    24.858
O    15.67    16.305    25.23
C    16.328    18.526    25.192
O    15.206    18.811    24.36
C    17.421    19.6    25.015
C    17.378    20.506    24.027
C    18.352    21.652    23.817
C    17.839    22.933    24.501
O    17.422    23.91    23.872
C    17.862    22.986    26.015
C    16.579    23.518    26.602
C    16.365    23.288    28.112
C    15.867    21.895    28.426
C    14.412    21.504    28.312
C    14.274    19.986    28.269
C    12.83    19.543    28.034
O    12.732    18.179    28.168
C    11.832    20.128    29.043
O    10.571    19.9    28.418
C    12.055    21.632    29.321
C    13.535    22.038    29.458
C    19.492    27.787    30.388
C    22.849    23.951    22.937
C    21.492    15.295    22.532
C    17.96    17.853    21.337
C    18.538    19.512    26.05
C    18.499    21.89    22.326
C    17.638    23.487    28.904
C    25.148    24.741    25.722
C    16.068    15.351    26.125
C    12.625    17.526    26.949
H    15.3402    27.7899    26.8714
H    15.1108    28.8542    24.7884
H    14.2682    27.2757    24.6308
H    15.6521    27.9634    22.6349
H    16.0634    26.3585    23.3289
H    17.5504    29.0008    23.8069
H    18.1348    27.5965    22.8513
H    18.038    26.18    24.923
H    19.1379    27.5853    25.1279
H    21.5567    29.3485    27.9197
H    18.7352    26.6269    28.7601
H    20.1325    25.1492    29.989
H    21.5456    26.2458    29.8232
H    21.8385    24.415    28.2888
H    20.1742    24.6137    27.6427
H    22.58    26.4516    27.2597
H    20.7198    24.8301    25.4756
H    21.7539    26.1545    24.8405
H    22.9504    23.8578    26.4465
H    22.3092    21.8983    25.7143
H    22.189    21.3202    22.6147
H    21.9002    19.5872    25.1328
H    21.5527    19.1529    22.0084
H    21.2323    17.3481    24.4228
H    20.8004    16.9574    21.3464
H    18.9508    15.4709    21.9739
H    19.2949    15.7516    23.7144
H    18.6565    18.1484    23.3474
H    17.6556    16.8138    25.4326
H    16.0113    18.5542    26.245
H    14.8465    19.6586    24.5944
H    16.567    20.4107    23.3065
H    19.3291    21.3827    24.2444
H    18.029    21.969    26.3995
H    18.6897    23.638    26.331
H    15.7165    23.1204    26.0471
H    15.6157    24.0157    28.457
H    16.155    21.6964    29.4689
H    16.4179    21.2167    27.7579
H    14.0285    21.9196    27.3685
H    14.6199    19.5717    29.2275
H    14.901    19.5964    27.4535
H    12.5359    19.8436    27.0176
H    11.8945    19.5831    29.9965
H    10.5385    20.3692    27.5926
H    11.5389    21.8896    30.2576
H    11.616    22.2048    28.4908
H    13.5982    23.1361    29.4657
H    13.9208    21.6418    30.4089
H    18.8142    28.6356    30.2136
H    20.4579    28.1596    30.7598
H    19.0484    27.1107    31.1335
H    22.6976    23.1321    22.2183
H    23.8673    24.352    22.8267
H    22.1175    24.7492    22.7428
H    22.5514    15.4778    22.2993
H    21.0913    14.5357    21.8444
H    21.4008    14.9363    23.5679
H    17.2127    18.6573    21.4058
H    17.565    17.038    20.7128
H    18.8822    18.2471    20.8851
H    19.2763    20.3052    25.861
H    19.0283    18.53    25.9778
H    18.115    19.6374    27.0576
H    19.2022    22.7183    22.1545
H    17.519    22.1464    21.8972
H    18.8824    20.978    21.8451
H    18.0392    24.492    28.7067
H    18.3786    22.7311    28.6038
H    17.4221    23.3827    29.9775
H    25.9345    25.4675    25.4698
H    25.3724    23.7766    25.2429
H    25.1081    24.6078    26.8132
H    15.202    14.7396    26.4186
H    16.4919    15.8379    27.0157
H    16.8303    14.708    25.6608
H    12.5501    16.4418    27.1192
H    13.5146    17.7407    26.3387
H    11.7255    17.8775    26.4224
