20

O    6.381    34.718    -19.599
C    6.965    34.961    -18.575
O    7.954    34.268    -18.096
C    6.588    36.144    -17.717
N    5.539    36.893    -18.205
C    5.063    38.024    -17.546
C    3.962    38.737    -18.132
C    3.5    39.868    -17.464
Cl    2.181    40.742    -18.117
C    4.075    40.326    -16.266
C    5.133    39.635    -15.707
Cl    5.733    40.32    -14.255
C    5.688    38.437    -16.307
C    6.816    37.629    -15.76
O    7.408    37.895    -14.697
C    7.216    36.473    -16.542
H    3.508    38.4069    -19.0593
H    3.6903    41.2169    -15.783
H    8.0883    37.2497    -14.5447
H    8.0322    35.8535    -16.1884
