34

O    50.725    49.178    30.27
C    49.961    48.469    31.277
C    50.462    47.028    31.579
N    50.533    46.458    30.209
C    51.905    46.866    32.168
O    51.949    46.05    33.403
C    52.802    46.221    31.006
O    53.417    44.933    31.372
C    51.877    46.003    29.805
C    52.299    46.814    28.438
C    51.423    47.442    27.603
N    52.145    48.055    26.5
C    53.514    47.729    26.766
C    54.695    48.115    25.944
O    54.718    48.786    24.886
N    55.876    47.605    26.54
C    55.96    46.845    27.729
N    54.843    46.542    28.409
C    53.647    46.997    27.903
H    50.3559    50.0446    30.146
H    48.9182    48.4039    30.933
H    50.0036    49.049    32.2107
H    49.7423    46.5027    32.2241
H    50.231    47.1654    29.5575
H    49.9067    45.6696    30.1631
H    52.2986    47.8636    32.4129
H    51.4122    46.4597    34.0712
H    53.6024    46.9271    30.7399
H    53.9799    45.0554    32.1274
H    51.8546    44.9278    29.574
H    50.3435    47.4789    27.7416
H    51.7619    48.5966    25.7121
H    56.7371    47.803    26.0717
H    56.9289    46.506    28.0926
