40

C    53.112    23.476    33.089
O    53.659    24.0    34.051
C    52.757    21.997    33.118
C    53.054    21.193    34.219
C    52.133    21.461    32.008
C    51.791    20.12    31.992
N    51.168    19.63    30.915
O    51.0    20.368    29.94
O    50.755    18.466    30.913
C    52.084    19.317    33.089
C    52.711    19.841    34.213
O    52.996    19.029    35.28
C    51.969    18.977    36.285
O    50.747    18.395    35.79
C    50.93    17.031    35.395
C    49.608    16.544    34.8
O    49.267    17.385    33.681
C    51.401    16.17    36.567
O    50.398    16.137    37.604
C    52.698    16.72    37.143
O    53.047    15.988    38.324
C    52.507    18.199    37.494
O    53.763    18.734    37.844
H    53.7792    23.6238    32.2271
H    52.1722    24.0231    32.9233
H    53.8079    24.92    33.8669
H    53.5527    21.6203    35.0814
H    51.912    22.0888    31.1523
H    51.8192    18.2661    33.0669
H    51.7455    20.0059    36.6036
H    51.7031    16.988    34.6137
H    48.816    16.6018    35.5612
H    49.7158    15.503    34.4612
H    49.1766    18.2831    33.9772
H    51.5758    15.146    36.2054
H    50.7058    15.5987    38.3237
H    53.502    16.6198    36.3991
H    52.3529    16.0762    38.9666
H    51.8064    18.2931    38.3368
H    54.359    18.6465    37.1095
