27

N    18.87    62.99    33.52
C    18.054    61.897    32.969
C    18.63    61.289    31.644
O    18.951    62.029    30.647
C    16.596    62.404    32.828
C    15.719    61.212    32.508
C    15.296    60.85    31.256
C    15.182    60.221    33.389
N    14.53    59.714    31.307
C    14.47    59.292    32.607
C    15.246    60.01    34.775
C    13.806    58.192    33.167
C    14.598    58.904    35.317
C    13.885    58.01    34.506
O    19.142    60.141    31.773
H    18.4444    63.333    34.367
H    18.9286    63.7379    32.8468
H    19.796    62.6481    33.7239
H    18.0508    61.0832    33.709
H    16.5339    63.1428    32.0154
H    16.2683    62.867    33.7704
H    15.5361    61.3921    30.3426
H    14.0768    59.2562    30.5033
H    15.7909    60.6968    35.4125
H    13.2441    57.5052    32.5443
H    14.6455    58.7306    36.386
H    13.3888    57.1591    34.9586
