50

O    25.211    11.844    23.912
O    27.226    12.761    23.016
O    25.075    13.557    22.283
P    25.821    13.064    23.42
O    25.865    14.142    24.627
C    26.327    13.849    25.929
C    27.168    14.993    26.493
O    28.421    15.07    25.825
C    26.551    16.36    26.292
O    27.136    17.312    27.188
C    27.005    16.659    24.84
O    27.032    18.071    24.662
C    28.445    16.075    24.746
N    28.553    15.453    23.541
C    29.616    15.959    22.824
O    29.926    15.583    21.746
N    30.237    16.947    23.576
C    29.521    17.028    24.752
O    29.846    17.834    25.621
C    31.408    17.767    23.214
C    31.169    18.457    21.862
C    30.027    19.502    21.947
C    29.578    19.916    20.51
C    28.27    20.708    20.548
O    27.969    21.523    19.517
O    27.43    20.618    21.597
N    30.598    20.799    19.817
O    31.157    21.76    20.765
C    31.679    19.999    19.237
O    32.385    20.72    18.23
H    26.941    12.937    25.894
H    25.4613    13.6832    26.587
H    27.3209    14.8128    27.5673
H    25.4564    16.3479    26.3999
H    26.987    17.0347    28.0843
H    26.3371    16.1906    24.1022
H    27.6422    18.4554    25.2804
H    27.9443    14.7277    23.2193
H    32.2961    17.122    23.1417
H    31.5715    18.5306    23.9887
H    30.9006    17.6952    21.1152
H    32.0944    18.9644    21.5519
H    30.3851    20.3906    22.4874
H    29.1723    19.0655    22.4846
H    29.4331    19.0004    19.9179
H    30.1359    21.3027    19.0762
H    31.5801    21.2926    21.4756
H    31.2499    19.09    18.7903
H    32.3827    19.7186    20.0346
H    33.0767    20.173    17.8766
