107

C    35.641    57.228    -1.867
O    35.065    57.547    -0.823
C    35.81    58.239    -2.997
N    36.135    56.01    -2.076
C    36.032    54.967    -1.066
C    37.192    55.025    -0.081
O    38.302    55.426    -0.43
C    35.999    53.574    -1.718
C    34.734    53.276    -2.495
C    34.763    52.484    -3.645
C    33.506    53.801    -2.089
C    33.601    52.232    -4.37
C    32.342    53.554    -2.803
C    32.393    52.774    -3.941
O    31.233    52.551    -4.648
N    36.934    54.632    1.173
C    37.87    54.581    2.299
C    38.898    53.502    1.974
O    38.588    52.558    1.248
C    36.989    54.138    3.471
C    35.606    54.411    3.024
C    35.613    54.13    1.575
N    40.106    53.632    2.51
C    41.147    52.629    2.294
C    41.409    51.913    3.617
O    41.615    52.556    4.638
C    42.448    53.282    1.792
C    42.203    53.882    0.41
C    43.587    52.259    1.765
C    43.365    54.666    -0.123
N    41.395    50.584    3.606
C    41.615    49.824    4.836
C    43.028    49.927    5.384
O    43.986    50.143    4.643
C    41.287    48.34    4.621
C    39.863    48.074    4.175
C    39.517    46.603    4.168
O    40.243    45.785    3.61
N    38.393    46.259    4.778
N    43.143    49.777    6.695
C    44.439    49.799    7.358
C    45.14    48.51    6.931
O    44.492    47.573    6.461
C    44.252    49.801    8.877
C    43.413    48.63    9.395
C    43.2    48.667    10.909
O    42.305    47.948    11.403
O    43.926    49.401    11.61
N    46.455    48.456    7.087
C    47.199    47.261    6.703
C    47.524    46.433    7.943
O    47.438    45.186    7.866
C    48.508    47.62    5.971
O    49.357    48.375    6.844
C    48.212    48.441    4.726
O    47.8705    46.9906    9.0185
H    36.3445    57.7669    -3.8345
H    36.3872    59.102    -2.6336
H    34.8202    58.577    -3.3377
H    36.5863    55.8072    -2.945
H    35.0943    55.1185    -0.5112
H    36.1002    52.82    -0.9236
H    36.8524    53.4968    -2.4077
H    35.7032    52.0595    -3.9779
H    33.4606    54.4149    -1.1967
H    33.6371    51.6178    -5.2625
H    31.3986    53.9709    -2.4693
H    31.06    51.6176    -4.6842
H    38.3552    55.5493    2.4915
H    37.226    54.7175    4.3754
H    37.126    53.066    3.676
H    35.3382    55.461    3.2133
H    34.8944    53.7518    3.5426
H    34.806    54.6708    1.0591
H    35.5176    53.0523    1.3764
H    40.3077    54.4332    3.0734
H    40.7996    51.9018    1.5453
H    42.7272    54.092    2.4819
H    41.3321    54.5511    0.4716
H    41.9868    53.0622    -0.2909
H    43.7351    51.8485    2.7747
H    44.5125    52.7495    1.4292
H    43.3316    51.444    1.0718
H    43.1134    55.0644    -1.117
H    44.2443    54.0099    -0.2028
H    43.5895    55.4988    0.5597
H    41.2322    50.0983    2.7471
H    40.9295    50.2259    5.5967
H    41.4557    47.809    5.5694
H    41.968    47.9444    3.8531
H    39.7336    48.4703    3.1571
H    39.1771    48.5931    4.8606
H    38.1125    45.2995    4.8056
H    37.8248    46.9587    5.211
H    42.3177    49.6451    7.244
H    45.0194    50.6811    7.0499
H    43.7542    50.7388    9.1645
H    45.2443    49.7529    9.3492
H    43.925    47.6914    9.1365
H    42.4298    48.6591    8.9025
H    46.9414    49.2408    7.4711
H    46.5718    46.6612    6.0271
H    49.0214    46.6925    5.6775
H    48.912    49.1729    7.1047
H    49.1553    48.688    4.2169
H    47.6963    49.3693    5.0129
H    47.5704    47.8598    4.0474
