36

P    19.664    35.43    19.218
O    20.756    35.186    18.064
O    20.158    36.605    20.027
O    18.407    35.45    18.511
O    17.77    34.775    23.99
C    18.759    33.935    24.586
C    19.426    33.073    23.541
O    18.389    32.312    22.824
C    20.277    33.764    22.453
O    21.265    32.832    22.049
C    19.233    33.92    21.334
O    19.903    34.154    20.106
C    18.504    32.608    21.416
N    17.188    32.423    20.848
C    16.781    31.361    20.131
N    15.492    31.271    20.035
C    14.96    32.331    20.765
C    13.637    32.755    21.028
O    12.527    32.298    20.669
N    13.574    33.89    21.815
C    14.728    34.526    22.267
N    14.485    35.596    23.032
N    15.948    34.153    22.039
C    16.019    33.04    21.275
H    17.1106    34.2362    23.5688
H    18.2795    33.2881    25.3354
H    19.5186    34.5624    25.0752
H    20.0846    32.3742    24.0775
H    20.7175    34.7197    22.7733
H    21.8112    33.2225    21.3769
H    18.5453    34.7552    21.5326
H    19.1536    31.8621    20.9348
H    17.4665    30.6474    19.6762
H    12.6804    34.2626    22.0653
H    15.2686    36.1407    23.4195
H    13.5143    35.8753    23.2335
