50

N    29.929    90.266    63.561
C    30.322    89.328    64.629
C    28.515    90.541    63.3
C    30.476    89.942    62.228
C    31.842    89.579    64.72
C    27.794    91.147    64.507
C    32.022    89.618    62.262
N    32.68    89.425    63.525
N    27.836    92.5    64.806
C    27.046    90.484    65.415
O    32.612    89.469    61.198
C    34.068    89.179    63.716
C    28.553    93.601    64.068
C    27.111    92.72    65.909
N    26.588    91.504    66.344
C    34.7    88.207    62.864
C    34.879    89.847    64.721
C    30.1    93.54    64.214
C    36.085    87.899    62.994
C    36.272    89.533    64.848
C    30.949    93.693    63.061
C    30.726    93.323    65.49
C    36.87    88.563    63.989
Cl    36.775    86.732    61.95
C    32.379    93.632    63.181
C    32.144    93.262    65.614
C    32.974    93.418    64.447
C    34.282    93.364    64.553
N    35.441    93.315    64.646
H    30.3353    91.1436    63.8451
H    30.1033    88.2869    64.3492
H    29.8186    89.5662    65.5776
H    28.0175    89.5974    63.0313
H    28.4439    91.2457    62.4584
H    30.3119    90.8022    61.5623
H    29.942    89.0653    61.8327
H    32.2349    88.8834    65.4761
H    31.9735    90.6135    65.0699
H    26.8322    89.4166    65.4448
H    28.2041    94.5677    64.4601
H    28.3008    93.526    62.9999
H    26.9559    93.6865    66.3862
H    34.1111    87.6993    62.1087
H    34.4292    90.5844    65.376
H    36.8727    90.0338    65.5986
H    30.5019    93.8568    62.0872
H    30.1085    93.2038    66.3729
H    37.9234    88.3282    64.0907
H    33.0023    93.7499    62.302
H    32.5975    93.0985    66.5849
