98

C    18.257    1.219    4.158
C    17.921    0.075    4.821
S    18.363    -1.446    4.014
C    18.955    -0.236    2.858
N    18.846    1.031    3.039
C    17.292    -0.314    6.035
O    18.295    -0.479    7.01
C    18.088    -0.856    8.331
N    19.271    -0.919    9.003
C    19.416    -1.28    10.426
C    20.463    -0.435    11.176
C    20.325    1.06    10.984
C    19.201    1.886    11.665
C    18.218    1.332    13.901
C    18.526    1.395    15.41
N    17.934    2.61    16.006
C    18.701    3.675    16.387
O    16.968    -1.095    8.803
C    19.672    -2.792    10.667
C    18.819    -3.791    10.059
C    17.677    -4.008    10.881
C    16.705    -4.96    10.446
C    16.854    -5.685    9.221
C    18.013    -5.45    8.409
C    18.993    -4.507    8.824
O    21.715    -0.845    10.67
C    19.483    3.316    11.253
C    18.351    4.152    11.623
C    18.487    4.944    12.806
C    17.418    5.788    13.24
C    16.226    5.827    12.476
C    16.091    5.047    11.304
C    17.148    4.206    10.869
N    19.22    1.805    13.127
O    17.14    0.899    13.441
C    18.028    0.16    16.253
C    18.535    -1.228    15.777
C    18.384    0.341    17.752
N    17.978    4.765    16.835
C    18.669    5.994    17.286
O    19.957    3.627    16.324
C    18.978    7.032    16.282
C    20.213    6.994    15.697
S    20.258    8.359    14.553
C    18.606    8.792    15.021
N    18.143    7.969    15.928
C    18.228    9.916    14.279
C    18.924    11.265    14.104
C    16.849    10.29    14.653
C    16.653    4.908    16.941
H    18.041    2.2117    4.5501
H    19.4365    -0.5867    1.9463
H    16.7531    -1.2618    5.8895
H    16.5843    0.4648    6.3553
H    20.1042    -0.7043    8.4933
H    18.4449    -1.0531    10.8902
H    20.3971    -0.6546    12.2518
H    20.2094    1.2201    9.9019
H    21.2751    1.5006    11.3205
H    18.2175    1.557    11.2982
H    19.6197    1.4498    15.5143
H    16.9433    2.6545    16.1344
H    19.6167    -2.9509    11.754
H    20.6947    -2.9973    10.3179
H    17.5487    -3.4659    11.8109
H    15.8302    -5.1383    11.0608
H    16.1018    -6.4014    8.9112
H    18.1417    -5.9915    7.4788
H    19.869    -4.3283    8.211
H    22.4077    -0.3945    11.1387
H    19.6344    3.3623    10.1645
H    20.3882    3.6748    11.7648
H    19.4072    4.904    13.3776
H    17.5179    6.3874    14.1377
H    15.4072    6.4625    12.7935
H    15.1711    5.092    10.7324
H    17.0386    3.6104    9.9699
H    20.0445    2.127    13.5923
H    16.9315    0.1448    16.167
H    18.1282    -2.0117    16.4331
H    19.634    -1.2504    15.817
H    18.2019    -1.4055    14.7438
H    18.0279    1.3228    18.0974
H    19.4749    0.2809    17.8797
H    17.9015    -0.4523    18.3419
H    19.6227    5.6842    17.7381
H    18.0343    6.4616    18.0531
H    21.0079    6.2753    15.8909
H    18.197    9.517    13.2544
H    18.3226    11.9046    13.4413
H    19.9184    11.1097    13.6602
H    19.032    11.7518    15.0845
H    16.2508    9.3796    14.8056
H    16.4014    10.8922    13.8486
H    16.8677    10.8767    15.5833
H    16.1565    3.9868    16.6021
H    16.3242    5.7524    16.3173
H    16.388    5.1024    17.9907
