27

C    33.408    12.227    -5.389
C    34.488    11.954    -4.617
C    34.463    10.821    -3.771
C    33.31    10.023    -3.744
C    32.188    10.344    -4.51
C    32.219    11.455    -5.356
C    31.779    14.394    -7.84
C    32.631    15.489    -8.001
C    32.227    16.501    -8.854
C    31.011    16.427    -9.522
C    30.151    15.34    -9.339
C    30.537    14.302    -8.482
C    35.737    12.83    -4.645
N    33.338    13.422    -6.298
N    32.19    13.332    -6.906
O    36.545    12.666    -3.725
O    36.0    13.83    -5.611
O    30.608    17.491    -10.338
H    35.3196    10.5738    -3.1545
H    33.2897    9.1397    -3.116
H    31.295    9.7326    -4.4484
H    31.363    11.7182    -5.9668
H    33.5773    15.5443    -7.4752
H    32.8676    17.3627    -9.0029
H    29.1978    15.3012    -9.8538
H    29.8902    13.4475    -8.3191
H    31.2945    18.1472    -10.3629
