12

C    -10.248    -9.558    31.48
C    -10.01    -8.648    32.511
C    -8.779    -7.983    32.54
C    -7.827    -8.144    31.532
C    -8.124    -8.997    30.47
C    -9.315    -9.722    30.458
H    -11.1626    -10.1398    31.4742
H    -10.7603    -8.4609    33.2707
H    -8.558    -7.3226    33.3707
H    -6.8798    -7.6186    31.5739
H    -7.4244    -9.0973    29.6481
H    -9.516    -10.4163    29.6501
