123

N    37.56    58.967    11.171
C    38.57    57.878    11.293
C    39.783    58.38    12.067
O    40.261    59.49    11.837
C    39.025    57.408    9.907
C    37.863    57.043    8.993
O    38.068    56.531    7.893
N    36.64    57.312    9.442
N    40.283    57.56    12.985
C    41.448    57.947    13.766
C    42.675    57.845    12.871
O    42.682    57.098    11.895
C    41.606    57.029    14.978
C    41.801    55.58    14.617
C    41.793    54.693    15.85
N    41.947    53.289    15.482
C    41.974    52.282    16.348
N    42.118    51.039    15.909
N    41.859    52.517    17.647
N    43.731    58.603    13.186
C    44.941    58.548    12.362
C    45.675    57.209    12.41
O    45.678    56.518    13.433
C    45.79    59.695    12.913
C    45.366    59.774    14.348
C    43.868    59.591    14.27
N    46.282    56.85    11.282
C    47.055    55.622    11.153
C    48.483    56.01    11.492
O    49.101    56.811    10.789
C    47.006    55.09    9.714
C    45.557    54.786    9.332
C    47.885    53.855    9.588
C    45.369    54.452    7.87
N    49.009    55.433    12.565
C    50.348    55.773    13.021
C    51.506    54.96    12.454
O    51.473    53.73    12.435
C    50.39    55.705    14.545
C    49.31    56.507    15.274
C    49.432    56.27    16.774
C    49.454    57.992    14.947
N    52.529    55.672    11.99
C    53.738    55.052    11.462
C    54.784    55.257    12.553
O    54.557    56.028    13.486
C    54.195    55.745    10.173
O    53.267    55.554    9.118
N    55.919    54.574    12.444
C    56.976    54.707    13.439
C    58.278    55.167    12.784
O    58.411    54.99    11.553
C    57.189    53.366    14.148
C    58.168    53.303    15.321
C    57.697    54.213    16.446
C    58.264    51.871    15.809
O    59.153    55.689    13.506
H    36.7609    58.6282    10.6583
H    37.9664    59.7489    10.6816
H    37.2695    59.2604    12.0905
H    38.1197    57.0312    11.8317
H    39.6662    56.5227    10.0298
H    39.6024    58.2163    9.4345
H    35.8419    57.0922    8.881
H    36.5188    57.734    10.3405
H    39.8552    56.6696    13.1404
H    41.3298    58.9843    14.1125
H    40.7017    57.1138    15.5985
H    42.48    57.3638    15.5559
H    42.7662    55.4668    14.1016
H    40.9879    55.2663    13.9458
H    40.8388    54.8235    16.3815
H    42.6232    54.9856    16.5097
H    42.0413    53.0633    14.4815
H    42.1393    50.2559    16.5777
H    42.2085    50.8567    14.8993
H    41.7472    53.4825    17.9878
H    41.8814    51.7341    18.316
H    44.6787    58.7478    11.3126
H    45.5733    60.6354    12.3851
H    46.8629    59.4669    12.8305
H    45.6228    60.7511    14.783
H    45.8316    58.9742    14.9425
H    43.4639    59.203    15.2166
H    43.3637    60.5349    14.0154
H    46.2041    57.4506    10.4862
H    46.6806    54.855    11.8469
H    47.3925    55.8641    9.0348
H    44.9437    55.6682    9.5678
H    45.2129    53.9296    9.9304
H    48.9174    54.1095    9.8697
H    47.8665    53.4963    8.5483
H    47.5068    53.0662    10.2549
H    44.3062    54.2467    7.6746
H    45.9665    53.5638    7.617
H    45.6974    55.3024    7.2544
H    48.476    54.7531    13.0686
H    50.5235    56.8166    12.7209
H    51.3701    56.0813    14.8734
H    50.2846    54.6504    14.8395
H    48.32    56.1647    14.9384
H    48.6564    56.8457    17.3004
H    50.4255    56.5944    17.1169
H    49.302    55.1988    16.9878
H    49.3627    58.1387    13.8607
H    50.439    58.3477    15.2835
H    48.664    58.559    15.4612
H    52.4665    56.67    12.0038
H    53.5738    53.9815    11.2695
H    55.1682    55.3306    9.8711
H    54.2992    56.823    10.3654
H    52.4248    55.9142    9.3695
H    56.05    53.9588    11.6666
H    56.6704    55.4582    14.1822
H    57.545    52.6522    13.3905
H    56.2088    53.0406    14.5266
H    59.1601    53.6368    14.9828
H    58.4085    54.1593    17.2832
H    56.7031    53.8888    16.7881
H    57.6391    55.2487    16.08
H    58.6052    51.2254    14.9863
H    57.2753    51.534    16.1537
H    58.9813    51.8144    16.641
