54

C    38.259    34.451    25.431
C    39.309    34.61    24.349
C    40.052    35.931    24.535
C    39.035    37.172    24.426
C    37.951    37.005    25.549
C    36.77    37.892    25.9
O    40.167    33.477    24.445
O    41.035    36.055    23.512
O    38.335    37.169    23.173
O    37.322    35.621    25.404
O    35.733    37.869    26.868
O    32.004    32.635    26.509
C    32.85    33.082    27.55
C    34.297    32.587    27.41
O    34.358    31.097    27.099
C    35.71    30.476    26.957
O    36.357    30.495    28.239
C    35.725    29.765    29.47
C    36.502    31.25    25.9
N    37.734    30.559    25.866
C    38.403    30.217    24.73
O    37.86    30.138    23.613
C    39.888    29.927    24.853
C    36.549    32.735    26.258
O    37.299    33.392    25.282
C    35.104    33.352    26.263
O    34.537    33.094    24.953
H    38.7751    34.3613    26.3982
H    38.8268    34.6158    23.3603
H    40.5381    35.9413    25.5217
H    39.584    38.1172    24.5497
H    38.5552    37.0076    26.4682
H    36.2119    37.9327    24.953
H    37.2486    38.8648    26.0857
H    40.5761    33.4627    25.3023
H    41.6417    35.3261    23.5673
H    37.8689    36.3471    23.0739
H    35.2177    37.0783    26.7597
H    32.3356    32.9492    25.676
H    32.4477    32.7191    28.5073
H    32.8553    34.182    27.5479
H    34.8037    32.7662    28.3697
H    35.6032    29.4322    26.6269
H    36.3728    29.9001    30.3487
H    35.626    28.692    29.2489
H    34.7319    30.1897    29.678
H    36.0161    31.1617    24.9171
H    38.1451    30.3021    26.7406
H    40.2938    29.6664    23.8644
H    40.0413    29.0862    25.5455
H    40.405    30.8182    25.2382
H    37.0123    32.865    27.2471
H    35.1282    34.4331    26.4644
H    33.6583    33.4529    24.9132
