60

C         18.50090       83.67466        4.02969
N         19.94500       83.50800        3.70700
C         20.52100       82.26200        4.27700
C         21.94600       82.20900        3.68000
C         22.25000       83.64600        3.24300
C         21.06300       84.48700        3.76100
C         21.40200       85.00100        5.17500
C         20.19800       85.43500        5.96300
N         19.76800       86.75300        5.48200
C         20.59200       87.72900        5.12200
C         18.51300       87.12700        5.37900
C         17.32900       86.47000        5.66700
C         16.13200       87.13400        5.46500
C         16.13000       88.45200        5.00500
C         17.32000       89.08900        4.71400
C         18.52300       88.44400        4.91600
C         19.86800       88.78400        4.74300
C         20.40900       90.03300        4.35200
C         19.90700       91.27500        4.75400
O         18.85000       91.41100        5.38800
N         20.70900       92.28100        4.28900
C         21.73900       91.71800        3.65400
O         22.66500       92.33100        3.11800
C         21.62000       90.31800        3.67800
C         22.56900       89.44400        3.09500
C         22.34800       88.22700        2.43900
C         21.23000       87.44300        2.12300
C         21.38700       86.22000        1.43100
C         22.66200       85.78600        1.08100
C         23.77000       86.56900        1.39500
C         23.60400       87.78500        2.07100
N         24.49800       88.68600        2.47200
C         23.88900       89.67700        3.07600
H         17.85686       82.97671        3.43325
H         18.15800       84.70191        3.78717
H         18.22368       83.32045        5.04699
H         19.71850       83.34410        2.73860
H         20.55770       82.31370        5.37520
H         19.93460       81.38320        3.97060
H         21.97790       81.52810        2.81670
H         22.66990       81.87460        4.43770
H         22.31830       83.70950        2.14700
H         23.19300       83.99370        3.69000
H         20.85460       85.34510        3.10500
H         22.08250       85.85990        5.07880
H         21.90600       84.19380        5.72670
H         20.45740       85.49750        7.03010
H         19.38430       84.70770        5.82540
H         21.67970       87.67750        5.13390
H         17.33950       85.45370        6.04400
H         15.19350       86.62950        5.66440
H         15.19070       88.97740        4.87580
H         17.30910       90.10070        4.32500
H         20.55180       93.26180        4.40420
H         20.23940       87.77610        2.41070
H         20.51890       85.62370        1.17450
H         22.79230       84.84130        0.56550
H         24.76340       86.23690        1.11570
H         25.51560       88.61500        2.32910
H         24.37920       90.55360        3.49700
