48

C    7.738    10.017    23.091
C    6.734    12.593    23.832
O    6.369    10.446    22.795
C    5.838    11.581    23.417
C    6.212    13.739    24.469
C    4.821    13.811    24.645
O    4.181    14.909    25.282
C    4.861    16.097    25.655
C    3.957    12.791    24.274
C    4.447    11.669    23.639
C    3.448    10.604    23.218
C    2.183    10.484    24.056
N    0.977    11.006    23.782
C    0.198    10.666    24.827
C    -1.149    10.871    25.086
N    -2.03    11.551    24.191
C    0.959    9.956    25.726
N    0.492    9.509    26.894
C    -0.827    9.704    27.142
N    -1.694    10.443    26.253
N    2.16    9.872    25.224
C    3.372    9.232    25.779
C    3.427    7.705    25.63
C    3.925    7.02    24.357
C    5.32    7.264    23.708
H    7.9726    9.1129    22.5099
H    7.8291    9.7966    24.1648
H    8.4403    10.8192    22.8204
H    7.8001    12.4907    23.6643
H    6.8625    14.536    24.8106
H    4.1519    16.7921    26.1283
H    5.2942    16.5679    24.7602
H    5.6641    15.8521    26.3657
H    2.8968    12.8758    24.4832
H    3.9628    9.6325    23.2507
H    3.1433    10.8229    22.184
H    -3.0223    11.6729    24.4386
H    -1.6731    11.9196    23.2979
H    -1.2502    9.2865    28.0484
H    3.4238    9.472    26.8512
H    4.2473    9.6564    25.2655
H    2.3994    7.3457    25.7879
H    4.0716    7.3419    26.4441
H    3.1895    7.2725    23.579
H    3.8817    5.941    24.5663
H    5.4173    6.6445    22.8043
H    6.11    6.9941    24.4243
H    5.4178    8.3256    23.4371
