51

Cl    2.256    13.99    24.257
C    3.869    13.263    24.286
C    4.946    13.947    24.877
O    4.981    15.221    25.514
C    5.159    16.515    25.701
C    6.221    13.431    24.881
O    7.222    14.227    25.535
C    8.329    14.803    24.785
C    6.493    12.218    24.292
O    7.804    11.783    24.348
C    8.284    10.656    23.581
C    5.448    11.503    23.689
C    4.129    12.007    23.684
C    3.045    11.173    22.981
C    1.853    10.879    23.883
N    0.605    11.302    23.643
C    -0.151    10.881    24.654
C    -1.477    10.972    24.982
N    -2.438    11.652    24.15
C    0.668    10.233    25.524
N    0.285    9.66    26.666
C    -1.023    9.797    26.949
N    -1.877    10.442    26.135
N    1.902    10.207    25.069
C    3.061    9.578    25.704
C    3.037    8.061    25.489
C    3.155    7.706    24.013
C    4.569    7.851    23.434
C    5.692    7.96    23.073
H    4.8868    16.777    26.7341
H    4.524    17.0775    25.0007
H    6.2145    16.7693    25.5242
H    8.9774    15.3721    25.4674
H    7.9353    15.4747    24.008
H    8.9107    13.9975    24.3131
H    9.353    10.5    23.7883
H    8.144    10.856    22.5085
H    7.7205    9.7542    23.8625
H    5.6561    10.5484    23.2194
H    3.4878    10.2184    22.6606
H    2.6909    11.7273    22.0993
H    -3.4266    11.6962    24.4357
H    -2.136    12.0936    23.2698
H    -1.4037    9.3704    27.87
H    3.0415    9.7904    26.7831
H    3.9816    9.9906    25.2656
H    2.09    7.6594    25.8788
H    3.8789    7.6091    26.0339
H    2.4824    8.3664    23.446
H    2.8368    6.6609    23.8846
H    6.6931    8.0572    22.7512
