29

C    26.876    3.429    40.169
C    27.02    2.505    41.206
C    26.861    2.888    42.544
C    26.556    4.202    42.851
C    26.43    5.138    41.834
C    26.595    4.752    40.509
C    26.856    2.997    38.722
C    27.744    1.822    38.348
C    31.468    1.638    38.525
C    30.057    1.229    38.901
N    29.079    2.121    38.807
O    29.821    0.049    39.174
O    26.477    0.707    36.659
O    28.858    0.652    36.617
B    27.676    1.489    36.72
Cl    26.236    4.828    44.497
H    27.2589    1.4739    40.9717
H    26.9766    2.1572    43.3362
H    26.2028    6.1706    42.0732
H    26.5034    5.4941    39.7242
H    27.1684    3.8579    38.1128
H    25.8204    2.7256    38.4695
H    27.3867    0.9296    38.8827
H    32.1463    0.7829    38.6615
H    31.7924    2.4695    39.1679
H    31.4889    1.9582    37.4729
H    29.2807    3.0639    39.0721
H    26.4463    0.2404    35.8321
H    28.8429    0.1851    35.7898
