38

P    18.985    85.514    28.673
O    19.0    86.06    30.097
O    19.697    84.174    28.608
O    17.624    85.417    28.021
P    20.818    88.669    22.597
O    22.135    89.137    21.997
O    19.736    89.724    22.447
O    20.35    87.301    22.114
O    21.126    88.533    24.2
C    20.068    88.138    25.092
C    20.457    88.402    26.514
O    20.464    89.818    26.763
C    19.521    87.85    27.576
O    19.93    86.522    27.841
C    19.773    88.774    28.772
O    20.644    88.173    29.686
C    20.472    89.997    28.151
N    19.877    91.301    28.457
C    20.572    92.47    28.647
N    19.814    93.501    28.946
C    18.537    92.975    28.951
C    17.299    93.553    29.231
N    17.169    94.813    29.647
N    16.191    92.781    29.099
C    16.356    91.496    28.764
N    17.491    90.814    28.545
C    18.555    91.626    28.636
H    19.8687    87.0638    24.9644
H    19.1597    88.7104    24.8527
H    21.4619    87.983    26.6712
H    18.467    87.8763    27.2622
H    18.8312    89.052    29.2678
H    20.2619    87.3616    29.9993
H    21.5111    90.0119    28.5117
H    21.6553    92.5368    28.5578
H    16.2333    95.1971    29.8416
H    18.0042    95.4023    29.7737
H    15.4419    90.9239    28.6537
