52

C    4.287    6.331    22.766
C    5.474    6.794    23.629
N    5.049    5.816    21.637
C    5.61    6.79    20.714
C    6.737    7.403    21.551
N    6.234    7.805    22.865
S    6.809    9.213    23.705
O    7.186    10.227    22.754
O    5.87    9.461    24.78
C    8.244    8.607    24.558
C    9.543    8.963    23.962
C    10.43    8.359    25.023
C    11.747    8.234    25.205
C    12.204    7.562    26.334
Cl    13.927    7.468    26.423
C    9.571    7.754    25.998
N    8.31    7.934    25.691
C    10.017    7.134    27.132
C    11.376    7.011    27.331
C    5.31    4.436    21.609
O    4.886    3.795    22.567
C    6.109    3.707    20.621
N    7.393    4.088    20.443
C    8.155    3.392    19.598
C    7.662    2.313    18.89
C    6.341    1.955    19.143
N    5.56    2.637    19.998
C    8.541    1.537    17.981
C    9.794    1.175    18.458
C    10.672    0.417    17.674
N    10.329    -0.01    16.461
C    9.102    0.321    16.009
C    8.173    1.081    16.732
H    3.6293    7.1649    22.4796
H    3.6927    5.5481    23.2598
H    6.1231    5.9366    23.8601
H    5.1033    7.2362    24.5655
H    4.8649    7.5476    20.4297
H    6.0026    6.3039    19.8087
H    7.1368    8.2856    21.0302
H    7.5376    6.66    21.681
H    9.7869    9.4952    23.0437
H    12.446    8.6479    24.4873
H    7.5045    7.605    26.2422
H    9.3151    6.7462    27.8614
H    11.7841    6.5178    28.2058
H    9.1909    3.6813    19.4629
H    5.9266    1.0939    18.6313
H    10.0967    1.4839    19.452
H    11.6535    0.1723    18.0638
H    8.8159    -0.0235    15.0218
H    7.1945    1.304    16.3223
