73

C    35.773    7.068    10.113
O    34.852    7.277    10.882
N    35.795    7.551    8.835
C    34.675    8.358    8.386
C    34.797    8.672    6.9
C    36.062    9.451    6.514
C    33.373    7.594    8.705
O    33.308    6.373    8.578
N    32.369    8.384    9.136
C    31.126    7.734    9.431
C    31.755    6.625    11.595
C    31.52    6.372    12.946
C    30.461    6.991    13.633
C    29.588    7.83    12.927
C    29.795    8.071    11.558
C    30.883    7.474    10.89
C    30.296    6.754    15.073
N    30.944    5.752    15.658
C    35.909    9.844    5.066
O    35.641    9.03    4.212
N    35.996    11.139    4.828
C    37.974    7.125    11.296
N    36.552    5.174    11.479
C    36.992    6.218    10.574
S    36.391    3.586    10.849
O    35.754    3.792    9.596
O    35.724    2.865    11.877
C    37.975    2.96    10.598
C    38.444    2.65    12.024
N    29.483    7.49    15.825
C    41.432    4.588    14.669
C    41.885    4.729    13.312
C    41.122    5.368    12.34
C    39.823    5.89    12.693
C    39.382    5.778    14.021
C    40.164    5.127    15.038
N    41.338    5.643    11.004
C    40.261    6.273    10.492
C    39.288    6.451    11.489
H    36.5625    7.3537    8.225
H    34.6731    9.3081    8.9404
H    33.9222    9.2688    6.6023
H    34.7975    7.721    6.3471
H    36.9511    8.8161    6.6418
H    36.1595    10.3492    7.1415
H    32.4854    9.3713    9.2442
H    31.111    6.7685    8.9041
H    30.31    8.3692    9.0559
H    32.6019    6.1715    11.0928
H    32.1672    5.6838    13.4776
H    28.7518    8.2937    13.4377
H    29.116    8.7178    11.0143
H    30.8294    5.5844    16.6678
H    31.5608    5.143    15.1016
H    35.9055    11.4828    3.8933
H    36.1525    11.7766    5.5823
H    37.5597    7.3917    12.2795
H    38.1232    8.0381    10.7011
H    36.3492    5.3727    12.4379
H    37.479    5.7645    9.6981
H    38.6257    3.707    10.12
H    37.9486    2.0489    9.9822
H    39.4629    2.2365    11.9931
H    37.7644    1.9165    12.4822
H    38.4415    3.5745    12.62
H    28.964    8.275    15.4063
H    29.3722    7.2751    16.8262
H    42.0463    4.0785    15.4026
H    42.8524    4.3243    13.0373
H    38.4188    6.1966    14.2895
H    39.7999    5.0483    16.056
H    42.1911    5.4036    10.4789
H    40.1605    6.5964    9.457
