29

N    -57.159    4.326    57.582
S    -55.826    5.462    57.705
O    -55.79    6.18    56.474
O    -54.595    4.713    57.9
C    -56.063    6.69    59.086
C    -56.19    8.075    58.887
C    -56.355    8.7    60.129
S    -56.332    7.709    61.14
C    -56.148    6.445    60.485
C    -56.069    5.136    61.199
O    -56.15    5.127    62.435
O    -55.916    3.996    60.531
C    -58.461    4.79    57.224
C    -58.97    4.586    55.881
C    -60.283    5.041    55.534
C    -61.102    5.706    56.533
C    -60.598    5.917    57.872
C    -59.283    5.462    58.218
O    -58.203    3.953    54.936
C    -62.494    6.181    56.169
O    -63.261    6.799    57.082
O    -62.926    5.996    55.027
H    -57.0064    3.3543    57.7626
H    -56.1643    8.5806    57.9228
H    -56.4801    9.7697    60.2904
H    -60.664    4.8899    54.5305
H    -61.2124    6.4175    58.6117
H    -58.9015    5.6189    59.2205
H    -57.3662    3.7142    55.3171
