49

O    7.942    4.687    -6.589
C    7.586    3.494    -6.905
O    8.387    2.506    -6.939
C    6.132    3.287    -7.319
C    6.064    2.722    -8.722
C    4.635    2.744    -9.269
C    5.343    2.331    -6.446
C    3.89    2.31    -6.989
C    3.701    1.868    -8.448
C    4.112    0.482    -8.65
N    4.4    -0.619    -8.876
C    2.253    1.844    -8.966
C    1.14    2.19    -8.19
C    -0.155    2.125    -8.719
C    -0.4    1.708    -10.048
O    -1.684    1.625    -10.601
C    -2.866    1.865    -9.809
C    0.699    1.367    -10.825
C    2.001    1.422    -10.285
O    0.464    0.949    -12.102
C    1.613    0.844    -12.996
C    1.51    -0.434    -13.76
C    0.407    -0.124    -14.72
C    0.493    1.353    -14.975
C    1.612    1.869    -14.102
H    5.6363    4.2687    -7.2953
H    6.4243    1.6828    -8.7063
H    6.7077    3.3234    -9.3807
H    4.6454    2.3784    -10.3064
H    4.262    3.7786    -9.2485
H    5.3507    2.6792    -5.4026
H    5.7802    1.3231    -6.4995
H    3.4851    3.3284    -6.895
H    3.3082    1.6241    -6.3557
H    1.2828    2.5128    -7.1651
H    -0.9942    2.4024    -8.0915
H    -3.7598    1.7475    -10.4394
H    -2.8347    2.8873    -9.404
H    -2.9047    1.1432    -8.9799
H    2.8379    1.1286    -10.9084
H    2.5425    0.8991    -12.4104
H    1.2446    -1.2745    -13.1019
H    2.4479    -0.663    -14.2871
H    -0.5679    -0.381    -14.28
H    0.5455    -0.6835    -15.6569
H    -0.4554    1.8417    -14.7071
H    0.7175    1.5442    -16.0347
H    2.5709    1.8823    -14.6408
H    1.3929    2.8764    -13.7185
