40

O    14.467    29.333    55.447
C    12.294    34.011    50.524
C    13.213    34.776    51.475
C    13.488    33.398    51.088
C    14.368    28.267    54.828
C    14.173    28.335    53.363
C    14.145    27.209    52.532
C    13.94    27.356    51.149
C    13.79    28.64    50.592
O    13.59    28.874    49.259
C    13.907    27.889    48.282
F    13.038    26.894    48.39
F    15.16    27.465    48.449
C    13.804    29.751    51.416
O    13.645    30.991    50.855
C    13.957    32.106    51.684
C    14.001    29.593    52.794
N    14.457    27.087    55.459
C    14.618    26.929    56.868
C    15.75    26.328    57.425
Cl    17.039    25.821    56.407
C    15.843    26.157    58.808
N    14.846    26.57    59.612
C    13.738    27.136    59.122
C    13.597    27.319    57.741
Cl    12.166    28.048    57.1
H    12.2576    34.2745    49.4567
H    11.296    33.6895    50.8565
H    12.8823    35.0093    52.4978
H    13.844    35.5944    51.098
H    14.2651    33.4268    50.31
H    14.2818    26.2208    52.9561
H    13.8974    26.4804    50.5114
H    13.8178    28.3325    47.2794
H    13.4711    31.9687    52.6612
H    15.0475    32.153    51.8201
H    14.0198    30.47    53.4309
H    14.4069    26.2581    54.9019
H    16.7224    25.6894    59.2358
H    12.9488    27.4532    59.794
