40

S    20.447    26.373    19.333
O    20.672    25.187    20.085
O    19.122    26.899    19.21
O    21.218    27.486    20.186
N    21.16    26.235    17.963
N    23.095    33.555    18.724
N    23.581    34.305    17.602
N    24.67    34.812    15.765
N    23.92    35.919    16.157
N    26.286    34.331    24.919
C    24.456    33.868    16.631
C    23.283    35.603    17.242
C    23.77    33.709    20.05
C    23.13    33.298    21.318
C    23.782    33.449    22.574
C    25.101    34.013    22.65
C    25.76    34.427    21.435
C    25.115    34.28    20.169
C    25.763    34.17    23.911
C    21.71    32.974    18.471
C    21.567    31.517    18.913
C    22.58    30.547    18.549
C    22.46    29.2    18.972
C    21.337    28.797    19.759
C    20.324    29.748    20.125
C    20.441    31.109    19.7
H    20.8204    25.5819    17.2861
H    21.9594    26.7991    17.7563
H    24.9029    32.8756    16.5951
H    22.6121    36.2646    17.788
H    22.1349    32.869    21.2901
H    23.2788    33.1356    23.4815
H    26.7551    34.8541    21.4835
H    25.6339    34.5992    19.2723
H    21.5    33.0324    17.3928
H    20.9736    33.5781    19.0213
H    23.4315    30.8525    17.9518
H    23.2191    28.4759    18.699
H    19.4742    29.4353    20.721
H    19.6793    31.8304    19.9728
