46

N    46.782    18.521    54.803
C    45.917    18.389    53.816
C    45.414    19.445    53.008
C    45.8    20.775    53.163
C    45.267    21.753    52.308
C    44.36    21.399    51.307
C    43.765    22.444    50.399
N    44.735    23.584    50.197
C    45.827    23.235    49.234
C    45.304    23.612    47.834
C    43.987    24.306    48.008
C    43.867    24.62    49.51
C    42.391    24.343    49.937
C    41.825    25.468    50.864
N    42.356    25.129    52.174
C    42.681    23.797    52.279
O    43.149    23.269    53.322
C    42.479    23.134    50.9
C    41.867    25.87    53.393
C    43.976    20.056    51.152
C    44.507    19.09    51.983
N    45.485    17.124    53.591
H    47.0884    17.693    55.3334
H    47.151    19.4521    55.0433
H    46.506    21.0523    53.9374
H    45.5615    22.7896    52.4258
H    43.5516    21.9594    49.4348
H    45.1173    23.9087    51.0713
H    46.0472    22.1583    49.2813
H    46.7377    23.8062    49.4671
H    45.1711    22.7042    47.2273
H    46.0183    24.2844    47.3363
H    43.1642    23.6499    47.688
H    43.9644    25.2356    47.4204
H    44.1752    25.6489    49.7472
H    41.7452    24.1641    49.0647
H    40.7251    25.4555    50.8706
H    42.1785    26.4583    50.541
H    41.6038    22.468    50.8802
H    42.3761    25.4811    54.2872
H    40.7814    25.7272    53.4979
H    42.0869    26.9422    53.2831
H    43.2648    19.7794    50.3821
H    44.2265    18.0516    51.8487
H    44.8082    16.9373    52.8374
H    45.8336    16.3495    54.1737
