48

C    6.904    10.245    2.828
C    7.015    10.291    1.43
C    5.871    10.238    0.626
C    4.6    10.142    1.205
C    4.481    10.096    2.598
C    3.22    10.0    3.192
N    3.1    9.954    4.542
C    4.182    10.0    5.355
C    5.467    10.098    4.807
C    5.628    10.148    3.414
S    8.385    10.32    3.807
O    8.168    11.239    4.898
O    9.515    10.533    2.926
N    8.422    8.825    4.403
C    8.874    7.706    3.596
C    10.193    8.052    2.886
N    11.274    7.179    3.36
C    12.422    7.996    3.796
C    12.832    8.959    2.714
C    12.831    10.281    2.932
C    13.236    11.261    1.863
C    14.068    10.882    0.799
C    14.427    11.815    -0.183
C    13.954    13.131    -0.1
Br    14.422    14.388    -1.388
C    13.128    13.511    0.956
C    12.772    12.576    1.932
H    7.9934    10.3681    0.9698
H    5.9696    10.2715    -0.453
H    3.7157    10.1036    0.5792
H    2.3328    9.9621    2.5703
H    4.0534    9.9609    6.4306
H    6.3341    10.1351    5.4565
H    8.1286    8.6643    5.3454
H    8.1082    7.4706    2.8423
H    9.0308    6.8317    4.2449
H    10.4543    9.0995    3.0971
H    10.0672    7.9168    1.8016
H    11.563    6.5682    2.6121
H    10.9425    6.627    4.1356
H    13.2686    7.3336    4.0294
H    12.1408    8.5626    4.6959
H    13.1337    8.5757    1.7403
H    12.5292    10.6568    3.9085
H    14.4345    9.8638    0.7362
H    15.0691    11.5192    -1.0048
H    12.7624    14.5295    1.0204
H    12.1286    12.8751    2.7515
