36

B    16.821    55.111    32.427
O    16.543    56.238    33.35
O    15.955    53.95    32.797
C    18.395    54.718    32.42
N    18.901    54.475    33.796
C    20.188    54.439    34.133
O    21.018    54.535    33.273
C    20.405    54.17    35.605
N    20.129    53.025    36.158
O    19.58    52.043    35.349
C    19.538    50.73    36.022
C    21.179    55.176    36.373
C    21.882    56.181    35.758
S    22.611    57.171    36.954
C    21.933    56.161    38.161
N    22.146    56.359    39.482
N    21.191    55.176    37.729
C    20.997    50.275    36.12
C    18.849    49.79    35.053
C    18.77    50.866    37.315
O    19.335    50.303    38.29
O    17.837    51.73    37.414
H    16.7315    55.9696    34.2416
H    16.1299    53.2254    32.2079
H    18.9673    55.542    31.9689
H    18.533    53.8052    31.8219
H    18.2268    54.3282    34.5198
H    21.9641    56.3269    34.6819
H    21.7181    55.7265    40.1731
H    22.7361    57.1423    39.7968
H    21.0426    49.2941    36.6157
H    21.5713    51.0085    36.7049
H    21.425    50.1955    35.1098
H    18.7855    48.7862    35.4984
H    19.4257    49.7402    34.1176
H    17.8357    50.1612    34.8398
