24

O    17.113    35.648    -7.173
P    15.622    35.751    -7.544
O    15.241    36.868    -8.47
O    14.653    35.708    -6.438
C    15.23    34.251    -8.5
O    13.955    34.413    -9.088
P    16.439    34.086    -9.835
O    16.573    35.455    -10.377
O    17.632    33.737    -9.097
O    16.243    33.14    -11.018
C    15.178    33.105    -7.475
C    15.033    31.707    -8.064
C    15.635    30.66    -7.381
C    15.521    29.372    -7.883
C    14.775    29.144    -8.999
N    14.19    30.147    -9.642
C    14.286    31.404    -9.191
H    13.9661    35.1698    -9.662
H    14.3204    33.2835    -6.8097
H    16.1085    33.1314    -6.889
H    16.1872    30.8462    -6.467
H    16.0244    28.5493    -7.3882
H    14.6574    28.1311    -9.3668
H    13.77    32.199    -9.7171
