43

C    -9.739    55.117    46.892
C    -8.622    54.764    47.579
N    -8.465    54.728    49.04
C    -8.178    55.822    49.802
O    -8.057    56.956    49.342
C    -11.038    55.611    47.382
C    -12.167    55.743    46.544
C    -13.432    56.768    48.378
C    -11.145    56.049    48.691
C    -12.306    56.613    49.189
C    -14.812    57.569    50.235
C    -14.571    58.868    50.725
C    -14.809    59.178    52.093
C    -15.333    58.195    52.956
C    -15.62    56.902    52.472
C    -15.348    56.597    51.126
C    -7.45    54.282    46.796
O    -7.497    54.388    45.553
O    -6.491    53.729    47.378
C    -8.046    55.536    51.227
C    -7.272    56.39    52.039
C    -7.311    56.244    53.437
C    -8.128    55.241    54.021
C    -8.86    54.344    53.208
C    -8.801    54.478    51.809
C    -13.346    56.36    47.04
O    -14.612    57.286    48.873
Br    -14.095    60.21    49.516
H    -9.6629    55.0198    45.81
H    -8.5753    53.8485    49.503
H    -12.1338    55.3744    45.5251
H    -10.2893    55.9465    49.3486
H    -12.342    56.9388    50.2223
H    -14.5874    60.1695    52.4711
H    -15.5164    58.434    53.9973
H    -16.0451    56.1521    53.1293
H    -15.5515    55.5977    50.7585
H    -6.6503    57.155    51.5881
H    -6.718    56.8964    54.0677
H    -8.1917    55.1615    55.1002
H    -9.4601    53.5616    53.6584
H    -9.3299    53.7763    51.1742
H    -14.1887    56.5171    46.3764
