45

C    2.985    10.763    23.502
C    4.162    9.839    23.309
C    4.079    8.653    24.254
C    3.94    9.086    25.711
C    2.76    10.054    25.847
C    2.536    10.543    27.276
O    3.222    12.064    22.929
O    4.225    9.446    21.939
O    5.252    7.875    24.055
O    5.159    9.678    26.136
O    3.049    11.163    25.014
O    3.649    11.34    27.639
C    0.679    15.123    21.867
C    1.15    15.086    23.128
C    1.915    14.044    23.524
C    2.066    12.946    22.749
C    1.598    12.932    21.502
C    1.522    11.654    20.691
O    -0.095    15.992    21.436
O    1.239    16.149    23.779
O    2.173    13.952    24.744
O    0.559    13.864    21.16
O    0.46    10.899    21.264
H    2.0377    10.307    23.1785
H    5.0818    10.3931    23.5475
H    3.198    8.0489    23.9916
H    3.7417    8.201    26.3335
H    1.8435    9.554    25.5007
H    2.453    9.6834    27.9573
H    1.6145    11.1415    27.3268
H    4.2755    10.2202    21.3906
H    5.2109    7.0972    24.599
H    5.0849    9.9327    27.0482
H    4.4409    10.8177    27.5887
H    1.599    15.4985    21.3953
H    0.2158    14.7353    23.5909
H    2.873    14.5023    23.2372
H    1.297    12.3229    23.2291
H    2.4558    13.4084    21.0048
H    2.4688    11.0984    20.7604
H    1.3063    11.8808    19.6365
H    0.0922    16.1545    20.5189
H    0.6562    16.7986    23.4037
H    2.0242    14.7919    25.1622
H    0.3648    10.0799    20.7923
