181

N    86.93    -7.874    33.535
C    87.99    -7.835    34.58
C    88.059    -9.174    35.323
O    88.923    -10.004    35.038
C    87.706    -6.693    35.567
O    88.789    -6.486    36.458
N    87.137    -9.382    36.261
C    87.092    -10.612    37.052
C    88.474    -10.876    37.664
O    89.129    -11.874    37.353
C    86.659    -11.794    36.175
C    86.086    -12.942    36.948
N    84.991    -12.808    37.776
C    86.451    -14.243    37.015
C    84.707    -13.977    38.321
N    85.578    -14.866    37.876
N    88.92    -9.973    38.558
C    90.198    -9.972    39.29
C    90.683    -11.364    39.677
O    90.254    -11.918    40.687
C    89.889    -9.115    40.511
C    88.924    -8.125    39.959
C    88.01    -8.951    39.107
N    91.598    -11.912    38.883
C    92.116    -13.252    39.13
C    92.835    -13.478    40.466
O    92.263    -14.084    41.372
C    93.033    -13.699    37.975
O    93.603    -14.976    38.288
C    94.134    -12.678    37.734
N    94.075    -13.008    40.599
C    94.835    -13.2    41.841
C    94.102    -12.744    43.107
O    94.161    -13.416    44.136
C    96.198    -12.483    41.796
C    97.078    -13.1    40.709
C    96.889    -12.595    43.14
C    97.378    -14.585    40.916
N    93.426    -11.6    43.023
C    92.669    -11.049    44.146
C    91.534    -12.01    44.509
O    91.174    -12.167    45.681
C    92.071    -9.702    43.749
C    91.901    -8.565    44.757
C    90.585    -7.862    44.442
C    91.91    -9.071    46.183
N    90.967    -12.651    43.494
C    89.876    -13.588    43.715
C    90.4    -14.818    44.462
O    89.78    -15.281    45.424
C    89.27    -14.004    42.372
C    87.937    -14.694    42.48
C    86.749    -13.976    42.375
C    87.861    -16.074    42.691
C    85.512    -14.617    42.475
C    86.634    -16.728    42.796
C    85.464    -15.996    42.685
O    84.252    -16.641    42.779
N    91.542    -15.339    44.011
C    92.178    -16.513    44.619
C    92.501    -16.223    46.078
O    92.493    -17.115    46.926
C    93.505    -16.878    43.887
O    93.211    -17.435    42.601
C    94.325    -17.879    44.7
N    92.789    -14.959    46.349
C    93.126    -14.503    47.683
C    91.878    -14.262    48.529
O    91.888    -14.526    49.726
C    93.952    -13.209    47.584
C    95.412    -13.221    48.051
C    96.079    -14.539    47.693
C    96.156    -12.065    47.412
N    90.803    -13.781    47.906
C    89.574    -13.482    48.637
C    88.611    -14.631    48.865
O    87.783    -14.577    49.78
C    88.818    -12.339    47.964
C    89.497    -10.974    48.032
C    88.505    -9.917    47.577
C    89.962    -10.69    49.459
N    88.696    -15.66    48.032
C    87.823    -16.816    48.186
C    88.458    -17.864    49.097
O    87.79    -18.294    50.065
C    87.517    -17.444    46.83
O    86.85    -18.685    47.01
O    89.618    -18.245    48.824
H    86.8974    -6.9875    33.0563
H    86.0379    -8.055    33.9679
H    87.1371    -8.6057    32.8734
H    88.9596    -7.6511    34.0942
H    86.8074    -6.9419    36.1506
H    87.5299    -5.7673    34.9995
H    88.578    -5.7747    37.0513
H    86.4521    -8.6734    36.4305
H    86.3603    -10.4879    37.8639
H    87.5376    -12.154    35.6196
H    85.897    -11.4388    35.4657
H    87.2808    -14.7096    36.4862
H    83.894    -14.1747    39.018
H    85.5995    -15.8634    38.1324
H    90.9787    -9.4957    38.6788
H    90.7948    -8.6205    40.8917
H    89.4327    -9.7129    41.3137
H    89.4435    -7.3667    39.3548
H    88.3652    -7.6303    40.7671
H    87.2131    -9.4111    39.7097
H    87.5608    -8.3469    38.3049
H    91.9384    -11.3932    38.0988
H    91.2415    -13.9193    39.1345
H    92.4312    -13.791    37.0588
H    94.1684    -15.2522    37.5763
H    94.7746    -13.0179    36.9069
H    94.7395    -12.5695    38.6459
H    93.6844    -11.7081    37.4748
H    94.4964    -12.5148    39.838
H    95.021    -14.28    41.9362
H    96.0351    -11.42    41.5646
H    98.033    -12.5546    40.6869
H    96.5662    -12.9826    39.7424
H    96.2517    -12.1497    43.9182
H    97.8503    -12.0615    43.1037
H    97.0666    -13.6551    43.3738
H    98.013    -14.9487    40.0947
H    96.4351    -15.1513    40.9288
H    97.9018    -14.7233    41.8733
H    93.4364    -11.0981    42.1581
H    93.3353    -10.9174    45.0113
H    91.0674    -9.915    43.3523
H    92.7076    -9.3073    42.9434
H    92.7303    -7.8524    44.6364
H    90.4318    -7.0356    45.1516
H    89.7558    -8.5794    44.5301
H    90.6181    -7.4638    43.4171
H    92.8668    -9.5736    46.3877
H    91.084    -9.7835    46.3245
H    91.7858    -8.2238    46.8735
H    91.2947    -12.4874    42.5635
H    89.0996    -13.1013    44.3236
H    89.9727    -14.6886    41.8745
H    89.1412    -13.1006    41.7578
H    86.7844    -12.9047    42.2134
H    88.7765    -16.6484    42.7748
H    84.5942    -14.0465    42.39
H    86.5965    -17.7984    42.9628
H    83.5497    -16.0084    42.6836
H    91.9844    -14.9103    43.2233
H    91.4854    -17.3654    44.5585
H    94.0978    -15.961    43.7536
H    94.0228    -17.6555    42.1595
H    95.2532    -18.1171    44.1598
H    93.74    -18.7989    44.8467
H    94.5722    -17.4416    45.6786
H    92.7733    -14.2926    45.6036
H    93.7343    -15.2769    48.174
H    93.4293    -12.4466    48.1803
H    93.9547    -12.9086    46.5258
H    95.4361    -13.0997    49.144
H    97.1239    -14.5263    48.0365
H    96.0533    -14.6786    46.6022
H    95.5426    -15.366    48.1812
H    95.6627    -11.1189    47.6794
H    96.1506    -12.185    46.3186
H    97.1945    -12.0522    47.7744
H    90.8381    -13.6216    46.9194
H    89.8879    -13.1364    49.633
H    87.8336    -12.2525    48.4472
H    88.6843    -12.5988    46.9035
H    90.3697    -10.9664    47.3624
H    88.9799    -8.9257    47.6203
H    87.6253    -9.9313    48.2373
H    88.1917    -10.1286    46.544
H    90.6786    -11.4637    49.7719
H    89.0948    -10.6982    50.1357
H    90.4475    -9.7037    49.497
H    89.3666    -15.6419    47.2904
H    86.8793    -16.4801    48.6405
H    88.4578    -17.6116    46.2853
H    86.8738    -16.7652    46.2508
H    86.6633    -19.0689    46.1613
