39

C    0.632    11.597    30.679
C    2.329    15.362    30.486
C    2.295    9.604    31.656
C    -2.385    10.579    30.324
C    2.801    10.848    31.405
C    7.464    11.619    30.489
C    0.904    9.344    31.415
F    8.635    10.96    30.558
C    7.173    12.506    31.519
C    5.957    13.194    31.528
C    6.553    11.372    29.463
C    5.33    12.064    29.451
C    5.03    12.974    30.497
C    3.73    13.738    30.532
N    3.588    15.077    30.42
O    1.58    14.265    30.658
C    2.444    13.223    30.659
C    1.975    11.857    30.873
N    0.092    10.36    30.942
C    -1.158    9.821    30.811
C    -3.074    11.207    31.549
C    -3.38    9.664    29.603
N    0.14    8.26    31.555
N    -1.09    8.558    31.227
H    -0.0147    12.3911    30.3088
H    1.9263    16.371    30.4109
H    2.9424    8.8152    32.0362
H    -2.0659    11.3721    29.6318
H    3.8478    11.0603    31.6173
H    7.8904    12.6641    32.3162
H    5.731    13.8927    32.3254
H    6.7852    10.6549    28.684
H    4.6203    11.9034    28.6475
H    -3.9662    11.762    31.2234
H    -2.3766    11.8949    32.0494
H    -3.3716    10.4129    32.2495
H    -2.8934    9.2119    28.7262
H    -4.2498    10.253    29.2766
H    -3.7112    8.87    30.2885
