21

C    93.039    68.137    -7.774
N    92.541    68.282    -6.388
C    93.395    68.74    -5.376
O    94.568    69.015    -5.626
N    92.913    68.85    -4.064
C    93.812    69.321    -2.986
C    91.588    68.498    -3.775
C    90.744    68.044    -4.782
C    91.216    67.938    -6.086
O    90.467    67.545    -6.979
N    89.572    67.762    -4.218
C    89.667    68.023    -2.916
N    90.89    68.473    -2.642
H    94.0919    68.4521    -7.8201
H    92.4382    68.7661    -8.4472
H    92.9572    67.085    -8.0849
H    94.8027    69.5468    -3.4073
H    93.9091    68.5368    -2.2207
H    93.3922    70.2293    -2.5291
H    88.7373    67.4043    -4.704
H    88.8683    67.8892    -2.1879
