23

C    39.774    2.503    42.519
C    39.658    2.007    41.083
C    38.464    2.654    40.386
C    37.199    2.519    41.215
C    37.457    3.051    42.621
C    36.244    2.912    43.518
O    40.757    1.791    43.164
O    40.841    2.329    40.379
O    38.275    2.04    39.12
O    36.824    1.146    41.292
O    38.55    2.304    43.217
H    40.0276    3.5733    42.5167
H    39.5231    0.9153    41.0891
H    38.6763    3.7233    40.2395
H    36.3885    3.0959    40.7457
H    37.7308    4.1142    42.5528
H    36.4794    3.308    44.5169
H    35.9684    1.8503    43.6002
H    35.4036    3.4768    43.0883
H    40.8364    2.1015    44.0583
H    41.5828    1.9115    40.8008
H    39.056    2.1583    38.5921
H    36.6661    0.8124    40.4166
