56

C    19.95    4.752    34.734
C    19.525    5.161    36.145
C    19.206    3.911    36.963
C    18.824    4.242    38.409
C    19.734    4.819    39.283
O    21.014    5.258    39.081
N    21.49    5.787    40.297
C    20.516    5.666    41.197
C    20.628    6.223    42.622
F    19.867    7.301    42.783
F    20.274    5.329    43.538
F    21.891    6.572    42.831
C    19.412    5.061    40.615
C    18.15    4.719    41.094
C    17.229    4.142    40.229
C    17.561    3.905    38.896
O    16.714    3.281    38.032
C    15.306    3.454    38.264
C    14.729    3.975    36.949
C    15.586    5.186    36.58
O    14.977    5.919    35.51
C    15.724    7.007    35.186
C    15.416    8.244    35.75
C    16.716    6.89    34.217
C    17.409    8.022    33.795
C    17.093    9.261    34.344
C    16.1    9.372    35.318
C    15.985    10.667    35.607
C    16.847    11.361    34.868
N    17.522    10.495    34.112
C    18.68    10.836    33.271
C    18.261    10.849    31.797
O    19.167    10.664    30.957
O    17.052    11.039    31.542
H    20.1797    5.6521    34.1449
H    19.1324    4.1967    34.2512
H    20.8436    4.1131    34.7909
H    18.6314    5.7999    36.0881
H    20.3426    5.7163    36.6278
H    20.0918    3.2589    36.972
H    18.3664    3.3825    36.4879
H    17.8893    4.901    42.1303
H    16.244    3.8738    40.5935
H    15.1373    4.1818    39.0714
H    14.8411    2.4939    38.5326
H    13.6785    4.2732    37.0812
H    14.7958    3.204    36.1673
H    16.5821    4.8428    36.2638
H    15.6855    5.8412    37.458
H    14.6527    8.324    36.5155
H    16.9487    5.9204    33.7918
H    18.1877    7.9386    33.0455
H    15.294    11.0913    36.3339
H    16.9776    12.4421    34.8789
H    19.4727    10.0879    33.4193
H    19.0567    11.8303    33.5529
