246

C    63.739    18.323    -5.219
C    64.15    17.924    -6.604
O    62.617    18.075    -4.807
N    64.647    18.95    -4.468
C    65.996    19.268    -4.926
C    67.076    18.666    -4.053
O    66.791    18.078    -3.02
C    66.051    20.792    -4.866
O    65.864    21.255    -3.52
N    68.327    18.818    -4.477
C    69.473    18.347    -3.698
C    69.646    19.148    -2.406
O    70.102    18.606    -1.396
C    70.755    18.399    -4.536
C    72.064    17.933    -3.889
C    72.012    16.451    -3.522
C    73.237    18.221    -4.806
N    69.281    20.431    -2.461
C    69.27    21.333    -1.305
C    68.437    20.764    -0.148
O    68.823    20.872    1.017
C    68.729    22.701    -1.73
C    69.088    23.858    -0.808
S    69.038    25.481    -1.622
C    67.28    25.683    -1.938
N    67.3    20.159    -0.485
C    66.436    19.491    0.484
C    67.146    18.298    1.129
O    67.142    18.163    2.353
C    65.145    19.028    -0.2
C    64.047    18.571    0.742
C    62.857    18.022    -0.03
N    62.014    19.069    -0.609
C    60.961    19.612    -0.002
N    60.614    19.222    1.216
N    60.253    20.553    -0.613
N    67.755    17.45    0.296
C    68.459    16.244    0.749
C    69.569    16.58    1.75
O    69.689    15.926    2.792
C    69.033    15.428    -0.448
C    69.917    14.278    0.03
C    67.915    14.898    -1.321
N    70.357    17.605    1.426
C    71.454    18.075    2.277
C    70.974    18.615    3.626
O    71.6    18.357    4.659
C    72.279    19.141    1.544
C    73.088    18.588    0.374
C    73.596    19.663    -0.567
O    72.967    20.71    -0.737
N    74.737    19.402    -1.195
N    69.865    19.354    3.61
C    69.296    19.947    4.822
C    68.724    18.889    5.765
O    68.775    19.045    6.988
C    68.235    20.978    4.467
N    68.185    17.818    5.188
C    67.646    16.705    5.962
C    68.759    15.854    6.564
O    68.656    15.422    7.712
C    66.712    15.855    5.101
C    65.383    16.497    4.837
N    64.187    15.876    5.128
C    65.061    17.709    4.325
C    63.187    16.672    4.795
N    63.69    17.791    4.306
N    69.817    15.625    5.787
C    71.004    14.914    6.26
C    71.606    15.617    7.48
O    71.948    14.973    8.473
C    72.064    14.774    5.137
C    71.656    13.671    4.156
C    73.45    14.478    5.719
C    72.441    13.675    2.848
N    71.714    16.94    7.395
C    72.248    17.758    8.478
C    71.356    17.747    9.721
O    71.856    17.825    10.844
C    72.454    19.196    8.0
C    73.682    19.415    7.141
C    73.923    20.896    6.902
N    75.188    21.131    6.21
C    75.304    21.406    4.914
N    74.228    21.494    4.14
N    76.505    21.598    4.388
N    70.042    17.645    9.515
C    69.081    17.608    10.623
C    69.207    16.33    11.458
O    68.809    16.304    12.622
C    67.645    17.779    10.117
C    66.699    18.344    11.17
C    65.238    18.084    10.843
C    64.353    18.459    12.027
N    62.91    18.195    11.773
N    69.76    15.278    10.857
C    70.088    14.046    11.575
C    71.407    14.175    12.345
O    72.063    13.17    12.634
C    70.154    12.858    10.606
C    68.872    12.043    10.503
C    67.881    12.644    9.518
N    66.713    11.784    9.331
C    66.641    10.78    8.459
N    67.673    10.488    7.676
N    65.53    10.062    8.369
N    71.772    15.415    12.679
C    73.028    15.751    13.367
C    74.258    15.159    12.667
O    75.07    14.464    13.284
C    72.984    15.346    14.85
C    72.067    16.199    15.727
S    70.311    15.825    15.53
C    69.615    16.685    16.941
N    74.382    15.44    11.374
H    65.1901    18.235    -6.7817
H    63.491    18.4123    -7.337
H    64.0707    16.832    -6.7098
H    64.3886    19.2169    -3.5395
H    66.1373    18.9154    -5.9583
H    65.2569    21.2072    -5.504
H    67.0309    21.1325    -5.2318
H    65.9016    22.2041    -3.5047
H    68.4898    19.2679    -5.3551
H    69.2864    17.2983    -3.4234
H    70.8991    19.4443    -4.8467
H    70.5893    17.7719    -5.4244
H    72.2068    18.5059    -2.9609
H    72.9657    16.1536    -3.0616
H    71.8414    15.8541    -4.4301
H    71.1916    16.2781    -2.81
H    73.2529    19.2922    -5.0555
H    73.1345    17.6311    -5.7288
H    74.1744    17.9487    -4.2989
H    68.9973    20.8    -3.3461
H    70.3048    21.4583    -0.9535
H    67.6322    22.6326    -1.7781
H    69.1265    22.9278    -2.7303
H    70.1054    23.6933    -0.4236
H    68.3763    23.8678    0.0306
H    67.1059    26.6467    -2.439
H    66.7312    25.6609    -0.985
H    66.9271    24.8652    -2.5835
H    67.025    20.1622    -1.4464
H    66.1774    20.2108    1.2746
H    65.394    18.1887    -0.866
H    64.7555    19.8662    -0.7964
H    63.717    19.4257    1.3507
H    64.4428    17.7833    1.3999
H    62.2438    17.4183    0.6552
H    63.2321    17.3848    -0.8444
H    62.252    19.4093    -1.5516
H    59.7981    19.6464    1.6798
H    61.1602    18.4945    1.699
H    60.5158    20.862    -1.5598
H    59.4406    20.9745    -0.1406
H    67.7302    17.6462    -0.6843
H    67.7249    15.6079    1.2652
H    69.6521    16.1053    -1.0547
H    70.303    13.7263    -0.8398
H    69.3256    13.599    0.6619
H    70.7591    14.6803    0.6122
H    67.2857    15.7345    -1.6589
H    67.3035    14.1891    -0.7435
H    68.3436    14.3854    -2.1948
H    70.1917    18.0765    0.5598
H    72.1093    17.2147    2.478
H    72.9748    19.5978    2.2631
H    71.592    19.9093    1.1597
H    72.4491    17.8982    -0.1969
H    73.9525    18.0393    0.776
H    75.1235    20.072    -1.8288
H    75.2095    18.5355    -1.034
H    69.4036    19.5095    2.7365
H    70.1079    20.4648    5.3537
H    67.821    21.4107    5.3897
H    67.4295    20.4935    3.8957
H    68.6874    21.7753    3.859
H    68.1481    17.7745    4.1896
H    67.0566    17.1237    6.791
H    66.5392    14.8987    5.6164
H    67.2047    15.6674    4.1356
H    65.7588    18.4753    3.9908
H    62.1278    16.4443    4.905
H    63.143    18.5947    3.9657
H    69.7985    15.9526    4.8424
H    70.6954    13.9031    6.5645
H    72.1151    15.7266    4.5894
H    70.5895    13.7979    3.9185
H    71.8092    12.6987    4.6471
H    73.731    15.2767    6.4212
H    74.1873    14.4301    4.9041
H    73.4268    13.5147    6.2496
H    72.0866    12.8557    2.2052
H    73.511    13.5365    3.0621
H    72.2914    14.6356    2.3335
H    71.4169    17.3923    6.5541
H    73.2267    17.3434    8.7614
H    72.5382    19.8416    8.8866
H    71.5708    19.4908    7.4142
H    73.5377    18.9134    6.1728
H    74.5578    18.9857    7.6495
H    73.945    21.415    7.8716
H    73.1017    21.297    6.29
H    76.0532    21.08    6.7665
H    74.3307    21.7076    3.1376
H    73.291    21.3487    4.5422
H    77.3439    21.5314    4.9818
H    76.5996    21.8138    3.3853
H    69.7014    17.5921    8.5763
H    69.3072    18.4585    11.2829
H    67.2671    16.796    9.7994
H    67.6573    18.4629    9.2555
H    66.8566    19.4305    11.2386
H    66.9314    17.8779    12.1388
H    65.1025    17.0169    10.613
H    64.9493    18.687    9.9695
H    64.4827    19.5308    12.2376
H    64.6691    17.8724    12.9022
H    62.3723    18.4594    12.5836
H    62.7757    17.2136    11.5863
H    62.6049    18.7333    10.9773
H    69.9585    15.3321    9.8784
H    69.2859    13.8532    12.3026
H    70.959    12.1876    10.9415
H    70.3934    13.2463    9.6051
H    68.4006    11.9988    11.4959
H    69.1259    11.0252    10.172
H    68.3814    12.781    8.548
H    67.5471    13.6202    9.8995
H    65.8858    11.9682    9.9164
H    67.6063    9.7093    7.0051
H    68.5401    11.0402    7.7395
H    64.7247    10.2815    8.9725
H    65.4723    9.2847    7.6956
H    71.1514    16.1638    12.4464
H    73.1317    16.8455    13.3306
H    74.0048    15.4174    15.2535
H    72.6386    14.3033    14.9087
H    72.2269    17.2564    15.4696
H    72.3407    16.0323    16.7793
H    68.5241    16.5446    16.9544
H    69.8456    17.758    16.8668
H    70.0482    16.28    17.8675
H    75.1614    15.0851    10.8577
H    73.6959    16.0063    10.9174
