28

S    12.16    -1.676    8.027
O    13.6    -1.986    7.994
O    11.596    -1.773    9.415
O    12.449    -4.28    1.206
N    13.145    -3.296    3.74
C    11.294    -2.941    7.009
O    11.915    -0.341    7.461
C    11.566    -2.573    5.54
C    12.964    -2.984    5.21
C    12.272    -2.473    2.808
C    12.676    -2.911    1.405
C    13.162    -5.134    2.106
C    12.753    -4.74    3.516
H    14.1126    -3.153    3.4963
H    10.2133    -2.9196    7.2132
H    11.6892    -3.9435    7.2299
H    11.4537    -1.4877    5.4005
H    10.8575    -3.1021    4.8857
H    13.6461    -2.1655    5.4835
H    13.2151    -3.8813    5.7946
H    12.4618    -1.3986    2.9478
H    11.2075    -2.6838    2.9879
H    12.0883    -2.3412    0.6702
H    13.7462    -2.7019    1.2602
H    14.2458    -4.9982    1.9759
H    12.8988    -6.1851    1.9168
H    11.6649    -4.8521    3.6323
H    13.2679    -5.3824    4.2455
