45

C    45.729    1.549    95.455
C    44.806    1.809    94.228
C    45.174    0.774    93.149
C    46.639    0.974    92.777
C    47.529    0.78    94.021
C    49.007    1.006    93.736
O    43.436    1.648    94.605
O    44.347    0.978    92.003
O    47.023    0.031    91.792
O    47.138    1.699    95.083
O    49.238    2.259    93.09
C    44.526    0.618    100.388
C    43.378    1.062    99.43
C    43.727    0.88    97.936
C    45.085    1.505    97.572
C    46.161    0.865    98.516
C    47.598    1.336    98.333
O    44.583    -0.745    100.334
O    42.212    0.296    99.707
O    42.717    1.46    97.118
O    45.448    2.445    96.498
O    45.819    1.096    99.927
O    47.747    2.737    98.575
H    45.5582    0.5219    95.8098
H    44.9656    2.8277    93.8448
H    45.0232    -0.2441    93.5372
H    46.7765    1.9917    92.3829
H    47.3955    -0.2529    94.3748
H    49.3717    0.1976    93.0853
H    49.5596    0.9887    94.687
H    42.8821    1.776    93.8438
H    44.5861    0.3554    91.3264
H    47.9344    0.1684    91.5619
H    48.7682    2.2798    92.2646
H    44.328    0.9712    101.4108
H    43.167    2.1259    99.6131
H    43.7753    -0.1987    97.7261
H    44.9089    2.3626    98.2379
H    46.1433    -0.2179    98.3238
H    47.9118    1.1204    97.301
H    48.2422    0.7858    99.0346
H    43.7554    -1.1073    100.6277
H    42.3838    -0.6193    99.5193
H    42.9144    1.2898    96.2044
H    48.6556    2.984    98.4495
