64

N    17.069    2.14    26.105
C    18.197    1.435    26.248
N    19.117    2.255    25.763
C    18.65    3.53    25.277
C    19.121    4.711    24.717
N    20.428    4.838    24.516
N    18.223    5.664    24.423
C    16.894    5.603    24.616
N    16.371    4.483    25.172
C    17.16    3.438    25.518
C    15.722    1.718    26.503
C    15.072    2.608    27.462
C    13.677    2.052    27.816
C    13.4    1.713    29.192
C    12.103    1.183    29.546
C    11.1    0.998    28.523
C    11.366    1.333    27.151
C    12.651    1.859    26.793
O    10.409    1.15    26.208
C    21.146    5.759    24.073
C    22.551    5.741    23.912
C    23.215    6.862    23.424
C    22.478    8.023    23.091
C    21.078    8.072    23.236
C    20.409    6.945    23.727
P    23.333    9.487    22.477
O    24.363    9.791    23.595
C    23.943    8.939    21.158
C    22.383    10.61    22.184
C    15.951    6.686    24.255
C    16.252    7.162    22.793
C    16.299    8.698    22.783
C    16.022    9.162    24.213
C    16.069    7.931    25.154
H    18.3265    0.4355    26.6606
H    20.9628    3.9988    24.7819
H    15.7938    0.7178    26.9552
H    15.0957    1.6681    25.6001
H    14.966    3.6094    27.0194
H    15.683    2.6731    28.3743
H    14.1587    1.8549    29.9532
H    11.8835    0.9251    30.5758
H    10.1294    0.5994    28.7951
H    12.8621    2.1142    25.7608
H    9.6271    0.7971    26.6162
H    23.1127    4.8504    24.1698
H    24.2917    6.846    23.2995
H    20.5277    8.9678    22.9717
H    19.3319    6.9659    23.847
H    24.5094    9.7375    20.6565
H    23.1353    8.5917    20.497
H    24.6164    8.0997    21.3863
H    22.946    11.4792    21.8133
H    21.8465    10.8858    23.1038
H    21.6598    10.2886    21.42
H    14.9256    6.293    24.3186
H    15.4587    6.8102    22.117
H    17.2206    6.7586    22.4629
H    15.5322    9.0952    22.1016
H    17.2918    9.0436    22.4592
H    15.0274    9.6291    24.2643
H    16.786    9.8915    24.5198
H    17.02    7.9116    25.7065
H    15.2316    7.9656    25.8664
