46

N    -3.063    202.626    113.35
C    -2.654    201.998    114.635
C    -1.38    201.211    114.3
N    -1.223    201.486    112.879
C    -2.162    202.261    112.403
N    -12.296    204.266    109.225
N    -11.148    204.915    109.451
C    -10.818    204.701    110.759
C    -11.787    203.895    111.353
C    -12.715    203.632    110.374
C    -14.002    202.803    110.492
C    -14.16    201.988    111.79
C    -15.229    203.003    111.322
N    -9.638    205.281    111.359
C    -9.135    205.203    112.603
C    -7.865    206.049    112.861
O    -9.649    204.532    113.513
C    -6.622    205.156    113.026
C    -5.822    204.91    111.875
C    -4.679    204.101    111.972
C    -4.29    203.503    113.223
C    -5.114    203.767    114.374
C    -6.254    204.575    114.281
O    -2.158    202.584    111.201
C    -8.095    206.986    114.085
H    -3.4404    201.3231    115.0038
H    -2.4458    202.7674    115.3931
H    -1.5133    200.1353    114.4871
H    -0.5187    201.5795    114.8765
H    -0.4751    201.1203    112.325
H    -10.6141    205.4709    108.7678
H    -11.8053    203.5445    112.3839
H    -14.1647    202.3236    109.5154
H    -13.53    202.208    112.6645
H    -14.3628    200.9077    111.7466
H    -16.2022    202.6438    110.9562
H    -15.3694    203.9441    111.874
H    -9.0965    205.8434    110.7341
H    -7.6975    206.6857    111.9798
H    -6.0957    205.348    110.922
H    -4.0774    203.9229    111.088
H    -4.8469    203.3322    115.3304
H    -6.8588    204.7607    115.1612
H    -8.9924    207.5988    113.9141
H    -7.2218    207.6424    114.2135
H    -8.2333    206.3781    114.9913
