43

C    27.317    24.746    25.006
N    28.171    23.851    25.495
C    29.396    24.363    25.353
N    29.269    25.55    24.766
N    28.071    25.745    24.551
C    27.527    26.973    23.947
C    27.872    28.149    24.867
C    27.043    28.64    25.871
C    29.136    28.702    24.724
C    29.546    29.781    25.494
C    28.696    30.29    26.467
C    27.459    29.696    26.677
C    26.634    30.265    27.643
N    25.674    29.535    28.243
C    26.796    31.624    27.928
C    25.888    32.193    28.806
N    24.965    31.411    29.36
C    24.813    30.097    29.115
N    23.842    29.378    29.698
C    23.514    28.107    29.403
C    24.254    27.285    28.551
C    22.348    27.555    29.932
C    21.922    26.27    29.607
C    22.682    25.468    28.758
C    23.859    25.983    28.219
N    24.668    25.194    27.493
O    24.551    24.825    26.104
O    25.813    24.734    28.195
H    26.2305    24.6765    24.9827
H    30.3292    23.8942    25.6616
H    26.4351    26.8867    23.8458
H    27.9759    27.1313    22.9553
H    26.066    28.1969    26.0266
H    29.8188    28.2818    23.9944
H    30.523    30.2235    25.3371
H    28.9968    31.1466    27.0594
H    27.5951    32.2056    27.4826
H    25.9286    33.2514    29.0365
H    23.2977    29.8415    30.4395
H    25.1743    27.6713    28.1281
H    21.7534    28.146    30.6192
H    20.9929    25.8909    30.0171
H    22.3626    24.4597    28.5207
