57

O    -17.804    7.713    -34.227
P    -16.595    7.346    -33.397
O    -16.603    5.925    -32.888
O    -15.278    7.782    -33.992
O    -16.704    8.275    -32.086
C    -16.605    7.738    -30.772
C    -18.011    7.397    -30.29
C    -17.982    6.631    -28.971
C    -17.686    7.554    -27.795
C    -18.934    8.303    -27.352
C    -18.716    9.81    -27.441
N    -18.18    10.342    -26.183
C    -18.77    10.485    -24.985
C    -20.14    10.151    -24.526
O    -20.992    9.649    -25.289
N    -20.432    10.424    -23.232
C    -16.95    10.825    -25.962
O    -16.074    10.851    -26.904
N    -16.673    11.272    -24.719
C    -17.815    11.082    -24.026
N    -18.253    11.294    -22.753
C    -19.525    10.974    -22.373
O    -19.88    11.193    -21.19
C    -15.393    11.845    -24.275
C    -15.107    11.657    -22.784
O    -15.044    10.259    -22.487
C    -13.828    12.357    -22.3
O    -14.19    13.662    -21.833
C    -12.712    12.473    -23.351
O    -12.259    11.166    -23.727
C    -11.52    13.292    -22.854
O    -10.788    12.577    -21.844
H    -16.1506    8.4804    -30.0995
H    -15.9857    6.829    -30.7868
H    -18.5091    6.7785    -31.0511
H    -18.576    8.3301    -30.1485
H    -17.2013    5.8579    -29.0238
H    -18.9605    6.1538    -28.8132
H    -16.9187    8.2826    -28.0957
H    -17.3112    6.953    -26.9534
H    -19.1678    8.0325    -26.3117
H    -19.775    8.0205    -28.0022
H    -19.6769    10.2997    -27.6575
H    -18.0048    10.0227    -28.2528
H    -21.3488    10.2142    -22.8923
H    -17.6285    11.6931    -22.0817
H    -15.4041    12.9235    -24.491
H    -14.5837    11.3651    -24.8449
H    -15.9504    12.0913    -22.2272
H    -14.3497    9.8589    -22.9974
H    -13.4265    11.7766    -21.4563
H    -13.4127    14.1148    -21.5278
H    -13.1281    12.9731    -24.238
H    -11.9233    10.7159    -22.9608
H    -11.8859    14.2389    -22.4303
H    -10.8508    13.5036    -23.701
H    -10.4666    11.7597    -22.2063
