49

C    -9.236    40.666    17.336
N    -9.548    41.889    17.732
C    -8.798    42.671    18.704
C    -9.559    43.61    19.614
O    -8.923    44.493    20.231
O    -10.802    43.659    19.468
N    -10.187    39.764    17.158
C    -11.51    39.783    17.777
C    -12.437    40.612    17.142
C    -12.706    40.449    15.779
C    -13.427    41.402    15.102
C    -13.894    42.527    15.765
C    -13.654    42.701    17.114
C    -12.932    41.748    17.805
C    -11.982    38.5    18.062
C    -13.213    38.043    17.618
C    -13.567    36.707    17.787
C    -12.692    35.827    18.399
C    -11.472    36.284    18.847
C    -11.126    37.609    18.68
N    -8.102    40.452    16.753
C    -7.243    39.255    16.565
C    -7.256    38.222    17.479
C    -6.431    37.125    17.295
C    -5.598    37.063    16.194
C    -4.697    35.872    15.968
N    -4.006    34.958    15.8
C    -5.596    38.083    15.291
C    -6.42    39.179    15.472
H    -10.3872    42.3217    17.3204
H    -8.0731    43.2788    18.1426
H    -8.2596    41.9598    19.3477
H    -9.9758    38.9781    16.5266
H    -11.3535    40.2503    18.7604
H    -12.3453    39.5702    15.2569
H    -13.6318    41.2743    14.0452
H    -14.4534    43.2778    15.2187
H    -14.0296    43.5792    17.6266
H    -12.7459    41.8769    18.8651
H    -13.9023    38.7279    17.1376
H    -14.5311    36.3552    17.438
H    -12.9645    34.7854    18.5251
H    -10.783    35.6016    19.3314
H    -10.1648    37.9574    19.0403
H    -7.7063    41.3003    16.3233
H    -7.9117    38.2688    18.3409
H    -6.4386    36.3146    18.0149
H    -4.9449    38.0354    14.4257
H    -6.4147    39.9828    14.7447
