71

C    13.359    35.609    10.998
C    12.198    35.152    11.776
C    12.275    34.718    13.185
C    13.573    34.735    13.862
C    14.696    35.198    13.036
C    14.673    35.64    11.638
C    10.9    35.123    11.09
P    9.748    36.458    11.308
F    10.036    33.956    11.379
F    10.935    35.064    9.6
O    8.525    35.893    10.126
O    10.605    37.851    10.648
O    9.335    36.447    13.017
C    16.057    35.217    13.685
C    16.736    33.866    13.547
O    16.219    32.853    14.01
N    17.879    33.78    12.863
C    18.499    32.441    12.807
C    19.889    32.433    13.44
O    20.787    33.167    13.026
N    20.108    31.602    14.467
C    21.41    31.626    15.168
C    22.48    30.814    14.454
O    23.596    31.28    14.266
C    21.207    31.072    16.586
C    22.46    31.137    17.433
N    22.144    29.591    14.07
C    19.304    30.656    11.205
C    18.506    29.466    11.521
C    19.177    28.161    11.395
C    20.583    28.118    10.969
C    21.356    29.33    10.659
C    20.714    30.647    10.774
C    22.931    29.878    18.011
C    24.137    29.962    18.833
C    24.761    31.283    19.005
C    24.26    32.53    18.406
C    23.061    32.461    17.587
C    25.955    31.32    19.84
F    26.838    32.344    19.373
F    26.629    30.039    19.864
P    25.748    31.613    21.717
O    27.303    31.394    22.327
O    24.636    30.425    22.169
O    25.203    33.235    21.884
C    18.614    32.001    11.341
H    13.2424    35.9182    9.9656
H    11.3845    34.3919    13.71
H    13.696    34.4291    14.8946
H    15.5658    35.9661    11.1168
H    15.9447    35.4573    14.7525
H    16.6779    35.9844    13.1997
H    18.2904    34.5741    12.4157
H    17.8581    31.7313    13.3507
H    19.393    30.9668    14.7592
H    21.7532    32.6691    15.2327
H    20.8901    30.0214    16.5096
H    20.4187    31.6577    17.0814
H    22.8102    29.0149    13.5964
H    21.2242    29.2442    14.2538
H    17.4707    29.5437    11.8327
H    18.641    27.2445    11.6135
H    21.07    27.1537    10.8797
H    22.3915    29.2526    10.348
H    21.249    31.5636    10.5535
H    22.4165    28.9393    17.84
H    24.5579    29.0793    19.3007
H    24.7699    33.4723    18.5706
H    22.6367    33.341    17.1172
H    19.1932    32.7551    10.788
H    17.6039    31.9272    10.9118
