21

C    -1.016    29.492    -8.258
O    -0.24    30.337    -7.757
O    -0.737    28.352    -8.692
C    -2.496    29.735    -8.525
O    -3.143    29.951    -7.521
C    -2.697    30.808    -9.604
C    -2.478    30.181    -10.942
C    -1.23    30.39    -11.576
C    -0.948    29.873    -12.854
C    -1.896    29.108    -13.544
C    -3.143    28.879    -12.939
C    -3.409    29.429    -11.685
H    -2.891    28.7971    -8.9425
H    -4.0523    30.0933    -7.7561
H    -1.9754    31.6246    -9.4543
H    -3.7202    31.2073    -9.5443
H    -0.4688    30.9655    -11.0618
H    0.0156    30.0696    -13.3101
H    -1.6727    28.7013    -14.5237
H    -3.8927    28.2796    -13.4427
H    -4.3915    29.268    -11.2563
