45

C    45.932    2.502    95.21
C    45.038    2.409    93.955
C    45.349    1.102    93.193
C    46.86    1.216    92.769
C    47.729    1.262    94.057
C    49.247    1.387    93.874
O    45.598    1.421    96.121
O    43.71    2.512    94.439
O    44.513    1.064    92.067
O    47.266    0.115    92.065
O    47.337    2.391    94.888
O    49.532    2.525    93.089
C    45.012    0.38    100.237
C    43.909    1.062    99.39
C    43.966    0.882    97.848
C    45.376    1.497    97.517
C    46.517    0.727    98.339
C    48.053    1.18    98.21
O    44.862    -0.694    100.197
O    42.656    0.598    99.787
O    42.853    1.574    97.156
O    46.335    0.783    99.812
O    47.937    2.67    98.376
H    45.7515    3.4691    95.7021
H    45.2414    3.2552    93.2823
H    45.1848    0.2162    93.8241
H    47.0087    2.1247    92.1672
H    47.535    0.3281    94.6049
H    49.6313    0.4879    93.3701
H    49.7281    1.4899    94.8578
H    43.1038    2.4687    93.7088
H    44.7378    0.3116    91.5323
H    46.7583    0.0472    91.2649
H    49.1157    2.4349    92.2398
H    44.8913    0.7006    101.2823
H    43.9736    2.1404    99.5972
H    43.935    -0.1839    97.5782
H    45.3841    2.5551    97.8174
H    46.4509    -0.3207    98.0105
H    48.4693    0.9158    97.2267
H    48.6721    0.7338    99.0022
H    43.9807    -0.9005    100.4854
H    42.5704    0.687    100.7289
H    42.9801    1.5147    96.2164
H    47.5565    2.8643    99.2244
