53

N    16.657    65.186    45.869
C    15.939    65.341    47.048
N    14.748    64.924    47.172
N    16.683    66.021    48.056
C    17.95    66.514    47.949
N    18.622    67.212    49.007
C    18.574    66.298    46.644
N    19.806    66.953    46.429
C    20.296    66.79    45.184
C    19.704    66.09    44.297
N    18.637    65.581    44.462
C    18.03    65.71    45.769
C    21.735    67.544    45.004
N    22.074    67.722    43.532
C    23.148    66.886    43.05
C    19.786    69.897    41.111
C    20.826    69.157    40.682
C    21.481    68.536    41.432
C    21.178    68.539    42.784
C    20.149    69.283    43.34
C    19.455    69.911    42.468
C    18.973    70.65    40.199
O    19.505    71.1    39.03
N    17.662    70.951    40.459
C    16.959    71.936    39.749
C    16.305    72.888    40.717
O    16.08    72.609    41.959
O    15.823    73.984    40.198
C    15.67    71.349    39.16
C    15.994    70.364    38.138
C    16.086    71.003    36.738
O    16.895    70.242    35.892
O    15.469    72.227    36.429
H    14.2872    64.441    46.3876
H    14.2413    65.0683    48.0571
H    19.5806    67.5615    48.8659
H    18.1459    67.3637    49.9077
H    20.1966    65.9498    43.3416
H    22.52    66.9412    45.484
H    21.6863    68.5323    45.4844
H    23.3174    67.0863    41.9817
H    22.8788    65.8282    43.1865
H    24.066    67.1066    43.6145
H    21.0625    69.1345    39.6244
H    22.3234    67.9598    41.0669
H    19.9525    69.3281    44.4051
H    18.5847    70.4703    42.7916
H    17.1879    70.4494    41.1826
H    17.6026    72.4284    39.0051
H    15.0734    72.1569    38.7113
H    15.0903    70.8663    39.9606
H    15.2108    69.5917    38.1264
H    16.9615    69.9015    38.3828
