57

C    3.008    2.923    -22.775
C    3.167    5.942    -20.404
C    3.085    4.445    -19.961
C    4.14    3.535    -20.68
C    4.163    3.665    -22.241
C    4.183    5.218    -22.667
C    3.079    6.066    -21.961
N    2.032    6.712    -19.764
C    2.211    8.177    -19.671
C    0.907    8.925    -19.802
C    -0.251    8.452    -19.031
C    -1.519    9.108    -19.117
C    -1.666    10.281    -19.998
C    -0.543    10.769    -20.765
C    0.752    10.095    -20.675
C    -2.796    8.856    -18.48
C    -3.705    9.841    -18.953
C    -2.993    10.672    -19.855
C    -5.041    10.391    -18.929
N    -5.086    11.474    -19.774
N    -3.837    11.612    -20.313
C    -6.217    9.879    -18.1
C    -7.402    10.728    -17.974
C    -8.554    10.307    -17.184
C    -8.544    9.003    -16.492
C    -7.359    8.146    -16.617
C    -6.223    8.582    -17.405
C    -9.696    8.574    -15.694
O    -10.796    9.336    -15.74
O    -9.648    7.576    -15.024
H    3.061    1.8751    -22.4448
H    3.0233    2.9622    -23.8742
H    2.0772    3.3775    -22.4048
H    4.1255    6.3634    -20.0669
H    2.0789    4.0654    -20.1926
H    3.2567    4.3906    -18.8759
H    3.9181    2.4878    -20.4269
H    5.1373    3.8007    -20.2996
H    5.0815    3.1976    -22.6256
H    4.0316    5.2837    -23.7545
H    5.1657    5.6387    -22.4075
H    3.2047    7.1218    -22.2429
H    2.0912    5.7131    -22.2922
H    1.9077    6.357    -18.8288
H    1.1986    6.5372    -20.3033
H    2.8871    8.5021    -20.4754
H    2.6595    8.417    -18.6957
H    -0.1421    7.5889    -18.3843
H    -0.6602    11.6345    -21.4071
H    1.595    10.4585    -21.2514
H    -2.6934    8.932    -17.3874
H    -3.1575    7.8516    -18.7454
H    -5.905    12.0687    -19.965
H    -7.4244    11.6879    -18.4771
H    -9.4202    10.9539    -17.1049
H    -7.3332    7.1838    -16.1184
H    -5.356    7.9362    -17.4843
