55

C    22.027    16.349    105.645
C    20.905    16.134    106.499
C    20.906    14.922    107.292
C    22.027    14.056    107.195
C    23.153    14.268    106.312
C    23.12    15.448    105.506
C    19.731    14.607    108.14
C    18.519    15.494    108.176
N    17.786    15.05    109.394
C    18.443    13.943    110.054
C    19.528    13.516    109.11
C    18.355    13.546    111.486
C    17.459    12.473    111.906
C    17.43    12.046    113.292
C    18.315    12.724    114.238
C    19.23    13.79    113.846
C    19.225    14.215    112.445
C    16.538    15.52    109.626
N    16.481    16.89    109.704
C    15.355    17.73    109.403
F    21.95    12.998    107.98
F    22.056    17.431    104.933
O    15.581    14.758    109.729
C    14.103    17.376    110.207
C    17.649    17.67    110.107
C    14.952    17.668    107.938
C    12.92    18.298    109.904
C    13.796    18.617    107.594
N    12.639    18.258    108.436
H    20.0887    16.8453    106.5521
H    23.9793    13.568    106.264
H    23.9158    15.6537    104.7992
H    17.9034    15.3523    107.2755
H    18.8103    16.5515    108.2584
H    17.7087    13.1808    109.7541
H    20.068    12.5707    109.1366
H    16.8129    11.9935    111.1795
H    16.7719    11.2481    113.6167
H    18.2899    12.4205    115.2783
H    19.8924    14.2527    114.5687
H    19.8674    15.026    112.1215
H    15.6447    18.7633    109.6446
H    14.341    17.4511    111.2783
H    13.8127    16.3424    109.9674
H    18.4854    16.9904    110.3275
H    17.4062    18.2562    111.0055
H    17.9348    18.3505    109.2913
H    14.6427    16.639    107.7026
H    15.8228    17.9389    107.323
H    13.167    19.3268    110.2048
H    12.0339    17.9564    110.459
H    13.5306    18.511    106.5318
H    14.0948    19.6563    107.7954
H    11.8908    18.904    108.2387
H    12.3487    17.3235    108.1941
