247

N    -14.41    10.069    4.718
C    -15.77    9.613    5.159
C    -16.116    8.219    4.639
O    -17.042    7.579    5.141
C    -16.848    10.604    4.719
N    -15.363    7.759    3.639
C    -15.661    6.497    2.967
C    -14.718    5.348    3.324
O    -14.768    4.296    2.687
C    -15.639    6.717    1.453
C    -16.764    7.579    0.952
C    -16.615    8.959    0.861
C    -17.973    7.009    0.577
C    -17.655    9.757    0.391
C    -19.027    7.811    0.109
C    -18.861    9.185    0.019
N    -13.885    5.538    4.347
C    -12.903    4.518    4.759
C    -12.055    4.019    3.587
O    -11.873    2.819    3.385
C    -13.584    3.37    5.518
C    -14.347    3.843    6.719
C    -15.703    4.155    6.618
C    -13.698    4.02    7.956
C    -16.417    4.634    7.742
C    -14.407    4.496    9.068
C    -15.75    4.798    8.955
N    -11.518    4.968    2.832
C    -10.722    4.673    1.662
C    -9.447    3.912    2.004
O    -8.876    4.073    3.082
C    -10.376    5.98    0.934
N    -9.005    3.096    1.059
C    -7.713    2.421    1.148
C    -6.579    3.445    1.288
O    -6.672    4.568    0.761
C    -7.501    1.558    -0.107
C    -6.222    0.742    -0.181
C    -6.036    -0.181    1.02
O    -5.72    0.275    2.122
N    -6.209    -1.488    0.804
N    -5.525    3.051    1.999
C    -4.339    3.903    2.14
C    -3.588    4.049    0.818
O    -3.612    3.149    -0.029
C    -3.377    3.313    3.164
C    -3.931    2.963    4.539
C    -2.971    1.998    5.234
C    -4.125    4.214    5.356
N    -2.901    5.186    0.679
C    -2.105    5.479    -0.51
C    -0.632    5.564    -0.133
O    -0.289    6.104    0.924
C    -2.55    6.799    -1.147
C    -3.855    6.71    -1.936
C    -3.688    6.037    -3.287
O    -2.755    6.339    -4.039
N    -4.594    5.119    -3.603
N    0.218    5.028    -1.006
C    1.668    4.997    -0.84
C    2.293    6.34    -1.203
O    1.984    6.912    -2.247
C    2.244    3.883    -1.737
C    3.714    3.726    -2.163
C    4.121    4.669    -3.318
C    4.679    3.781    -0.979
N    3.166    6.844    -0.328
C    3.96    8.028    -0.641
C    5.181    7.555    -1.415
O    5.972    6.772    -0.887
C    4.405    8.714    0.652
C    5.079    10.032    0.398
O    6.141    10.053    -0.259
O    4.546    11.064    0.859
N    5.34    8.025    -2.654
C    6.407    7.521    -3.533
C    7.796    7.904    -3.053
O    8.783    7.265    -3.429
C    6.201    8.017    -4.963
N    7.874    8.948    -2.235
C    9.165    9.471    -1.783
C    9.618    8.905    -0.437
O    10.813    8.709    -0.209
C    9.117    10.997    -1.675
C    8.929    11.681    -3.006
C    8.909    13.198    -2.914
O    9.552    13.756    -2.001
O    8.26    13.827    -3.773
N    8.664    8.667    0.463
C    9.012    8.265    1.827
C    8.662    6.809    2.092
O    9.143    6.216    3.064
C    8.276    9.111    2.892
O    6.878    8.82    2.856
C    8.499    10.601    2.641
N    7.767    6.267    1.265
C    7.289    4.908    1.463
C    6.206    4.78    2.518
O    5.691    3.682    2.757
N    5.83    5.888    3.159
C    4.736    5.837    4.144
C    3.385    5.617    3.474
O    3.155    6.078    2.353
C    4.683    7.128    4.966
C    5.963    7.38    5.78
C    5.795    8.4    6.914
O    4.64    8.743    7.256
O    6.815    8.864    7.476
N    2.488    4.919    4.175
C    1.114    4.776    3.701
C    0.24    5.663    4.543
O    0.388    5.699    5.771
C    0.619    3.319    3.796
C    0.994    2.474    2.606
C    2.142    1.691    2.628
C    0.203    2.471    1.456
C    2.498    0.905    1.522
C    0.548    1.692    0.347
C    1.699    0.911    0.379
N    -0.675    6.367    3.874
C    -1.57    7.322    4.514
C    -2.951    7.281    3.857
O    -3.073    7.123    2.637
C    -0.974    8.733    4.412
C    -1.722    9.901    5.061
C    -1.472    9.961    6.555
C    -1.301    11.202    4.413
O    -3.986    7.409    4.531
H    -14.2291    10.9902    5.0851
H    -14.3747    10.0957    3.711
H    -13.7126    9.4275    5.0618
H    -15.7677    9.573    6.2583
H    -17.833    10.2469    5.054
H    -16.8424    10.6889    3.6223
H    -16.6442    11.589    5.1641
H    -14.572    8.2933    3.3409
H    -16.6767    6.1957    3.2629
H    -15.7057    5.7367    0.9585
H    -14.6868    7.1985    1.1857
H    -15.6794    9.4181    1.1591
H    -18.1049    5.9353    0.646
H    -17.5205    10.83    0.3159
H    -19.9677    7.3572    -0.1811
H    -19.6713    9.8088    -0.3408
H    -13.9273    6.4003    4.8516
H    -12.2127    5.0038    5.4644
H    -12.8118    2.6599    5.8489
H    -14.2813    2.8618    4.8358
H    -16.2141    4.0294    5.6703
H    -12.6435    3.7868    8.0492
H    -17.4717    4.8709    7.6606
H    -13.9006    4.6271    10.0174
H    -16.2912    5.1665    9.8189
H    -11.6696    5.9244    3.0817
H    -11.3232    4.0447    0.9883
H    -9.7703    5.7546    0.0439
H    -9.8062    6.6358    1.6087
H    -11.3036    6.4858    0.6278
H    -9.5773    2.9362    0.2546
H    -7.7116    1.7693    2.0341
H    -7.515    2.2306    -0.9773
H    -8.3454    0.8561    -0.1724
H    -5.3672    1.4327    -0.2284
H    -6.2491    0.1289    -1.0939
H    -6.0993    -2.1379    1.5561
H    -6.4482    -1.8164    -0.1098
H    -5.5419    2.1566    2.4459
H    -4.663    4.898    2.479
H    -2.5675    4.0428    3.3124
H    -2.9636    2.3897    2.7321
H    -4.9059    2.4683    4.4172
H    -3.3654    1.741    6.2282
H    -1.9859    2.4753    5.3425
H    -2.8708    1.0831    4.6316
H    -4.8187    4.8891    4.8336
H    -3.1563    4.7172    5.4918
H    -4.5417    3.9491    6.339
H    -2.9328    5.8613    1.4159
H    -2.2432    4.6674    -1.2395
H    -1.7568    7.1358    -1.8307
H    -2.6825    7.5405    -0.3454
H    -4.2372    7.7288    -2.097
H    -4.5829    6.1343    -1.3455
H    -4.5369    4.6411    -4.4796
H    -5.3334    4.9056    -2.9644
H    -0.1637    4.6175    -1.8341
H    1.9027    4.772    0.2108
H    1.6783    3.951    -2.6779
H    1.9918    2.9429    -1.2246
H    3.7983    2.7073    -2.5693
H    5.1789    4.5043    -3.5703
H    3.9768    5.714    -3.0063
H    3.4971    4.4598    -4.1994
H    4.3359    3.091    -0.194
H    4.7104    4.8051    -0.5788
H    5.6851    3.4864    -1.312
H    3.2785    6.4007    0.5613
H    3.3715    8.7302    -1.2497
H    5.1091    8.0529    1.1785
H    3.5208    8.8853    1.2835
H    4.7213    8.7342    -2.9919
H    6.3441    6.4228    -3.5371
H    7.0067    7.6309    -5.6046
H    6.2175    9.1168    -4.9756
H    5.2305    7.6604    -5.3386
H    7.032    9.3866    -1.9208
H    9.9171    9.1962    -2.5372
H    10.0618    11.3461    -1.2329
H    8.2798    11.2749    -1.0178
H    7.9739    11.3463    -3.437
H    9.7547    11.3839    -3.6692
H    7.7029    8.7638    0.2044
H    10.0963    8.4001    1.9535
H    8.6709    8.8544    3.8861
H    6.4301    9.3417    3.5115
H    7.9687    11.1853    3.4074
H    8.1138    10.8668    1.6455
H    9.5751    10.824    2.6894
H    7.419    6.8038    0.4964
H    8.1417    4.2825    1.7656
H    6.8857    4.541    0.5077
H    6.2917    6.7547    2.9704
H    4.9281    4.9948    4.825
H    3.833    7.0652    5.6614
H    4.5331    7.974    4.2792
H    6.7403    7.75    5.0953
H    6.2861    6.4249    6.2198
H    2.7606    4.4887    5.0356
H    1.0613    5.0984    2.6507
H    -0.4775    3.3295    3.8829
H    1.0539    2.8623    4.6973
H    2.7704    1.6876    3.5112
H    -0.692    3.0816    1.422
H    3.3927    0.2939    1.5557
H    -0.0804    1.6967    -0.5363
H    1.9734    0.31    -0.4804
H    -0.75    6.2327    2.8859
H    -1.6754    7.0552    5.5759
H    -0.878    8.9663    3.3413
H    0.0253    8.6952    4.8702
H    -2.8    9.7575    4.8958
H    -2.0237    10.8098    6.9853
H    -0.3958    10.0908    6.7418
H    -1.8151    9.0261    7.0221
H    -1.4861    11.1489    3.33
H    -0.2294    11.3718    4.5939
H    -1.8815    12.031    4.8439
