56

F    21.573    -1.239    35.907
F    23.672    -1.216    35.13
C    22.74    -1.906    35.83
O    22.508    -3.183    35.262
C    23.172    -8.143    33.576
C    23.482    -7.326    32.311
C    22.646    -6.712    33.437
O    22.357    -5.526    34.143
C    22.06    -3.234    33.972
C    22.011    -4.466    33.378
C    21.572    -4.606    32.048
C    21.169    -3.483    31.313
C    21.219    -2.234    31.931
C    21.663    -2.101    33.26
C    20.654    -3.626    29.877
C    21.344    -4.756    29.153
C    23.03    -5.858    27.933
N    22.558    -4.648    28.544
S    20.7    -6.276    28.95
C    22.047    -6.842    28.149
C    22.171    -8.267    27.661
O    21.018    -9.011    28.077
C    23.397    -8.957    28.33
F    23.497    -10.244    27.901
F    23.218    -8.945    29.673
F    24.539    -8.295    28.021
C    22.271    -8.284    26.1
F    21.19    -7.666    25.575
F    22.31    -9.56    25.644
F    23.393    -7.637    25.707
C    20.799    -2.317    29.084
C    20.324    -2.41    27.651
C    20.959    -1.671    26.668
C    20.531    -1.757    25.345
C    19.256    -3.236    27.306
C    19.471    -2.577    24.993
O    17.821    -4.133    25.652
N    18.833    -3.32    25.978
H    23.1235    -2.0465    36.8513
H    23.9726    -8.3675    34.2961
H    22.4754    -8.9928    33.5254
H    23.0073    -7.5908    31.3547
H    24.5046    -6.9656    32.1254
H    21.601    -6.8165    33.1099
H    21.5455    -5.588    31.5897
H    20.9114    -1.3527    31.3799
H    21.6965    -1.1238    33.7281
H    19.5821    -3.8669    29.9325
H    23.9716    -5.9899    27.4021
H    21.0937    -9.9073    27.7713
H    21.8614    -2.0318    29.0784
H    20.2128    -1.5376    29.5928
H    21.7898    -1.0249    26.9277
H    21.0337    -1.1749    24.5811
H    18.7519    -3.8152    28.0712
H    19.1436    -2.6379    23.9614
