65

S         10.63700       -0.53100       14.44700
O         10.17600        0.74800       13.99300
O          9.69200       -1.55900       14.75000
N         11.45400       -0.26200       15.80400
C         13.60500       -2.17600       11.44800
C         12.97900       -3.00900       12.36300
C         12.06500       -2.46000       13.23400
C         11.72700       -1.14500       13.20100
C         12.34500       -0.28200       12.30000
C         13.25200       -0.83300       11.44600
C         14.65200       -2.69400       10.49300
C         14.35200       -4.03100        9.83500
N         13.41600       -3.64200        8.79600
C         13.60700       -3.14000        7.58100
O         14.66600       -2.51300        7.26100
C         12.53800       -3.06300        6.52100
C         11.21700       -3.41100        6.64300
C         10.35000       -3.28100        5.55400
C         10.83300       -2.79500        4.35300
C         12.16500       -2.44500        4.23900
C         13.01100       -2.59000        5.31000
N         12.71800       -1.95300        3.08600
C         13.67200       -2.02300        2.15900
O         14.75800       -2.61300        2.35900
C         13.48400       -1.15600        0.91100
N         12.31000       -0.31400        1.07100
C         11.03600       -0.91400        0.74400
C         10.26200        0.37600        0.95700
O          9.49700        0.71500        0.04000
O         10.52400        0.91800        2.05100
C         12.74300        1.04739        1.05403
C         13.83600        1.15500        2.10800
O         14.72100        1.59400        1.34100
O         13.94100        1.13200        3.35700
Cu        12.17300        0.35300        3.01300
H         12.17720        0.42840       15.82370
H         11.23930       -0.78500       16.62890
H         13.20430       -4.06890       12.39180
H         11.59800       -3.10080       13.97320
H         12.11550        0.77720       12.27910
H         13.72740       -0.18310       10.72020
H         15.59430       -2.79770       11.05090
H         14.77840       -1.94740        9.69520
H         13.89320       -4.73410       10.54570
H         15.26050       -4.48130        9.40860
H         12.45510       -3.77590        9.03830
H         10.84350       -3.78850        7.58800
H          9.30670       -3.55920        5.65050
H         14.05860       -2.33170        5.20610
H         13.35190       -1.80410        0.03210
H         14.37180       -0.52220        0.76910
H         10.74280       -1.71590        1.43760
H         10.98380       -1.28610       -0.28980
H         12.08972        1.93703        1.05235
H         13.06966        1.21818       -0.01105
N         11.46631        0.33575        4.86764
C         12.15313        0.58065        5.99890
C         10.20290        0.10365        5.25737
C         10.14971        0.20054        6.62924
N         11.37628        0.50066        7.09771
H         10.15026       -2.69933        3.51813
H         11.91899       -1.48798        2.84000
H          9.38206       -0.12185        4.59007
H         13.20931        0.81097        6.02544
H          9.27382        0.06369        7.24877
