55

C    78.774    24.927    71.399
N    78.124    25.887    72.109
C    78.412    25.954    73.42
N    79.28    25.142    74.053
C    79.942    24.175    73.357
C    79.717    24.03    71.962
N    78.481    24.879    70.087
N    77.808    26.882    74.158
C    80.908    23.317    74.155
C    82.307    23.928    74.222
C    80.066    21.698    70.887
C    80.882    20.871    70.051
C    82.064    21.393    69.448
C    82.433    22.751    69.674
C    81.599    23.517    70.516
C    80.442    23.033    71.115
O    82.842    20.549    68.652
C    83.771    21.152    67.722
C    84.331    22.567    68.151
N    83.616    23.281    69.1
C    84.135    24.662    69.44
C    84.694    24.781    70.878
N    84.8    26.188    71.274
C    85.973    26.736    71.671
C    85.874    28.222    72.03
C    83.087    21.301    66.344
C    84.934    20.156    67.589
O    85.351    22.989    67.621
O    87.042    26.136    71.742
H    78.934    24.178    69.4835
H    77.8037    25.5433    69.6859
H    77.1349    27.5287    73.7225
H    78.0135    26.9536    75.1647
H    80.9768    22.327    73.6805
H    80.5207    23.2069    75.1787
H    82.9662    23.2712    74.8085
H    82.2529    24.9163    74.702
H    82.709    24.0363    73.2038
H    79.1661    21.2983    71.3402
H    80.5991    19.8395    69.8748
H    81.878    24.5468    70.7075
H    83.3095    25.3803    69.328
H    84.9391    24.9144    68.7331
H    85.6909    24.3179    70.9181
H    84.0192    24.2595    71.5728
H    83.9809    26.7611    71.2503
H    86.8627    28.5908    72.3408
H    85.158    28.3531    72.8547
H    85.5304    28.7892    71.1524
H    83.7903    21.7594    65.6332
H    82.1974    21.9403    66.4434
H    82.7866    20.3094    65.9746
H    85.6822    20.5573    66.8896
H    84.5535    19.1967    67.2082
H    85.3987    20.0012    68.5739
