39

C    -12.517    13.437    45.787
C    -13.724    13.719    46.441
C    -14.223    15.027    46.418
C    -13.51    16.031    45.74
C    -12.304    15.74    45.086
C    -11.783    14.434    45.102
N    -10.603    14.165    44.456
C    -9.623    13.352    44.927
O    -9.686    12.751    45.999
C    -8.346    13.155    44.061
C    -8.374    11.785    43.351
C    -7.086    10.975    43.452
C    -6.892    10.253    42.111
C    -6.207    8.886    42.244
C    -6.066    8.365    40.819
C    -4.984    7.287    40.568
O    -4.007    7.13    41.292
C    -5.127    6.486    39.278
F    -6.367    6.179    38.916
F    -4.617    7.331    38.396
F    -4.366    5.428    39.195
H    -12.1337    12.4232    45.8066
H    -14.2644    12.9344    46.9581
H    -15.1539    15.2641    46.9202
H    -13.8974    17.0433    45.7224
H    -11.7702    16.5266    44.565
H    -10.453    14.6018    43.569
H    -7.4587    13.2077    44.709
H    -8.2959    13.9524    43.305
H    -8.5843    11.9582    42.2853
H    -9.1862    11.1892    43.793
H    -7.1668    10.2401    44.2665
H    -6.2349    11.6445    43.6452
H    -6.2753    10.8893    41.4592
H    -7.8795    10.1039    41.65
H    -6.8251    8.2024    42.8445
H    -5.2183    8.9948    42.7138
H    -5.8339    9.2245    40.173
H    -7.0355    7.9365    40.525
