110

C    -2.65    18.736    3.684
O    -1.578    18.851    3.044
O    -3.598    19.555    3.67
C    -2.806    17.534    4.614
C    -1.627    17.375    5.578
O    -2.12    16.884    6.823
C    -0.967    18.738    5.788
N    -1.64    19.693    6.65
C    -1.095    20.906    6.645
O    -0.041    21.134    6.073
C    -1.771    22.018    7.466
N    -0.909    22.325    8.609
C    -0.83    21.493    9.644
O    -1.486    20.462    9.749
C    0.083    22.006    10.756
C    -0.649    23.197    11.373
O    0.258    23.999    12.135
C    -1.821    22.73    12.242
C    -2.548    23.921    12.872
N    -1.286    21.887    13.318
C    -1.638    20.613    13.477
O    -2.468    20.02    12.791
C    -0.977    19.937    14.678
N    -2.004    19.995    15.723
C    -1.742    20.203    17.016
O    -0.622    20.28    17.5
C    -3.0    20.296    17.884
N    -2.634    20.151    19.299
C    -3.265    19.297    20.098
O    -4.189    18.567    19.74
C    -2.74    19.276    21.535
C    -2.187    17.903    21.924
C    -1.119    17.415    20.944
C    0.581    18.702    5.884
C    1.19    18.076    7.127
C    1.663    19.102    8.172
C    0.319    16.987    7.786
C    -1.88    23.24    6.557
C    -3.517    23.445    13.958
C    -4.748    22.743    13.38
C    -3.923    24.612    14.859
C    -0.58    18.5    14.328
C    0.523    18.5    13.266
C    -0.109    17.747    15.573
C    -3.679    21.649    17.647
C    -4.985    21.747    18.437
C    -2.763    22.824    17.998
C    -1.608    17.958    23.339
H    -2.8851    16.6235    4.0019
H    -3.7267    17.6615    5.2023
H    -0.8945    16.6678    5.1617
H    -1.3968    16.7811    7.4303
H    -1.1166    19.2033    4.8025
H    -2.4425    19.4593    7.199
H    -2.7667    21.7024    7.8109
H    -0.3736    23.1696    8.6117
H    1.0514    22.3233    10.3418
H    0.246    21.2227    11.5109
H    -1.0523    23.8137    10.5563
H    0.9489    24.3199    11.5673
H    -2.5275    22.153    11.6272
H    -3.1118    24.4544    12.0925
H    -1.8083    24.6009    13.3198
H    -0.6298    22.2863    13.9583
H    -0.0802    20.4909    14.9925
H    -2.9583    19.8713    15.4511
H    -3.6944    19.4893    17.6066
H    -1.8916    20.7087    19.6703
H    -3.5633    19.5335    22.2176
H    -1.9374    20.0221    21.6307
H    -3.0181    17.1825    21.9125
H    -0.7522    16.4282    21.2629
H    -0.2826    18.1293    20.9275
H    -1.554    17.3365    19.9367
H    0.9393    19.7405    5.8283
H    0.9525    18.1388    5.0152
H    2.0972    17.5622    6.7763
H    2.0894    18.5738    9.0376
H    0.8085    19.7124    8.4995
H    2.4292    19.7531    7.726
H    -0.0071    16.2661    7.0218
H    -0.5626    17.4535    8.2499
H    0.9055    16.4647    8.5562
H    -2.5285    23.0032    5.7006
H    -0.8794    23.5171    6.1936
H    -2.3107    24.0799    7.1218
H    -2.9824    22.7113    14.5792
H    -5.4069    22.4234    14.2008
H    -4.4304    21.8633    12.8011
H    -5.2915    23.4377    12.7228
H    -3.0207    25.097    15.2596
H    -4.5374    24.2367    15.6906
H    -4.5029    25.3418    14.2749
H    -1.4615    17.9838    13.9199
H    0.7987    17.463    13.0238
H    1.4042    19.0329    13.6525
H    0.1585    19.0039    12.3587
H    -0.9079    17.7528    16.3291
H    0.7863    18.2382    15.9818
H    0.1333    16.7084    15.3036
H    -3.921    21.7187    16.5762
H    -5.4533    22.7249    18.2513
H    -4.7728    21.6402    19.511
H    -5.6682    20.9466    18.1168
H    -1.8276    22.7436    17.4248
H    -2.5364    22.8035    19.0742
H    -3.2666    23.7692    17.7472
H    -2.3811    18.3096    24.0381
H    -0.7535    18.6504    23.3589
H    -1.2732    16.9536    23.6375
