98

N    -4.437    -10.186    9.961
C    -4.193    -9.312    8.783
C    -4.16    -7.83    9.16
O    -4.428    -7.456    10.306
C    -5.236    -9.581    7.688
N    -3.803    -7.004    8.178
C    -3.703    -5.554    8.315
C    -4.956    -4.938    8.942
O    -4.879    -3.91    9.611
C    -3.452    -4.955    6.926
C    -3.268    -3.452    6.865
C    -3.084    -2.999    5.408
N    -1.927    -3.63    4.765
C    -0.705    -3.098    4.713
N    0.278    -3.753    4.1
N    -0.456    -1.91    5.256
N    -6.094    -5.598    8.737
C    -7.409    -5.11    9.183
C    -7.666    -5.257    10.695
O    -8.695    -4.791    11.207
C    -8.529    -5.827    8.413
O    -8.399    -7.242    8.602
C    -8.432    -5.513    6.929
N    -6.735    -5.91    11.392
C    -6.801    -6.072    12.848
C    -5.564    -5.474    13.492
O    -4.442    -5.654    12.996
C    -6.876    -7.544    13.238
C    -8.173    -8.245    12.918
C    -8.128    -9.649    13.505
C    -9.009    -10.607    12.745
N    -8.829    -12.008    13.211
N    -5.766    -4.795    14.616
C    -4.674    -4.132    15.32
C    -3.675    -5.141    15.885
O    -4.06    -6.204    16.377
C    -5.227    -3.242    16.426
C    -4.232    -2.225    16.951
C    -4.666    -1.614    18.263
O    -3.836    -1.331    19.127
N    -5.971    -1.401    18.421
N    -2.393    -4.802    15.786
C    -1.306    -5.675    16.231
C    -0.061    -4.852    16.557
O    1.067    -5.34    16.441
O    -0.1939    -3.595    16.9707
H    -4.4506    -11.1501    9.667
H    -5.324    -9.9491    10.3772
H    -3.7018    -10.0514    10.6373
H    -3.2043    -9.5711    8.3763
H    -5.0398    -8.9264    6.826
H    -6.2424    -9.3765    8.082
H    -5.1727    -10.6326    7.3717
H    -3.589    -7.404    7.2868
H    -2.8459    -5.3223    8.9644
H    -4.3112    -5.2133    6.2896
H    -2.5419    -5.4205    6.52
H    -2.3787    -3.1707    7.4481
H    -4.1554    -2.9597    7.2893
H    -2.9443    -1.908    5.3928
H    -3.9891    -3.2607    4.8403
H    -2.068    -4.5492    4.3221
H    1.2223    -3.3437    4.0589
H    0.0945    -4.6692    3.6667
H    -1.2089    -1.3938    5.733
H    0.4898    -1.506    5.1996
H    -6.0531    -6.4726    8.2539
H    -7.4567    -4.0375    8.9433
H    -9.5052    -5.4923    8.7937
H    -8.459    -7.4434    9.5285
H    -9.2388    -6.0322    6.3909
H    -7.4583    -5.8517    6.5454
H    -8.5288    -4.4279    6.7767
H    -5.9591    -6.3059    10.9009
H    -7.6957    -5.5531    13.2226
H    -6.7142    -7.6137    14.3238
H    -6.068    -8.0736    12.7121
H    -8.3023    -8.3041    11.8272
H    -9.0132    -7.6872    13.3572
H    -8.4672    -9.6079    14.5506
H    -7.0915    -10.0156    13.4699
H    -8.7565    -10.5518    11.6758
H    -10.0599    -10.3157    12.8891
H    -9.4321    -12.6182    12.6818
H    -9.0637    -12.0695    14.1894
H    -7.8693    -12.2858    13.0775
H    -6.6918    -4.7369    14.9895
H    -4.1408    -3.4944    14.5995
H    -5.5407    -3.8835    17.2627
H    -6.0997    -2.701    16.0315
H    -4.1227    -1.4221    16.2072
H    -3.2625    -2.7234    17.0978
H    -6.3127    -0.9987    19.2703
H    -6.6092    -1.6434    17.6903
H    -2.1619    -3.913    15.3908
H    -1.0672    -6.3924    15.4321
H    -1.6252    -6.2212    17.1309
H    0.2505    -3.0144    16.364
