66

C    22.738    -0.322    -47.786
C    21.497    -0.995    -48.326
O    20.418    -0.198    -48.054
C    22.741    -1.312    -46.688
C    23.803    -1.374    -45.723
C    23.995    -0.419    -44.588
C    25.167    -0.545    -43.669
C    26.072    -1.654    -43.97
C    25.834    -2.592    -45.119
C    24.7    -2.435    -45.984
N    22.681    1.107    -47.332
C    23.223    3.354    -46.908
C    23.632    2.024    -47.484
O    24.669    1.697    -48.05
C    23.689    4.605    -47.673
C    23.182    4.59    -49.101
C    23.236    5.947    -47.04
N    23.723    3.398    -45.522
C    22.984    3.727    -44.477
O    21.767    4.057    -44.488
C    23.83    3.668    -43.213
C    23.376    2.642    -42.157
N    23.685    4.806    -42.569
C    24.462    5.859    -42.712
O    25.468    6.212    -43.35
O    23.936    6.789    -41.901
C    24.377    8.104    -41.819
C    24.094    8.924    -40.675
C    25.208    8.862    -39.678
C    25.032    9.597    -38.516
C    23.783    10.366    -38.357
C    22.668    10.428    -39.355
C    22.832    9.668    -40.574
H    23.5953    -0.4181    -48.4685
H    21.366    -1.9745    -47.843
H    21.5924    -1.1321    -49.4132
H    19.6296    -0.6093    -48.3883
H    22.7007    -2.302    -47.1657
H    21.816    -1.1422    -46.1175
H    23.2744    0.3752    -44.4298
H    25.3338    0.1347    -42.8412
H    26.9435    -1.804    -43.343
H    26.5316    -3.4022    -45.2979
H    24.5356    -3.1115    -46.8149
H    21.8442    1.399    -46.8688
H    22.1235    3.3814    -46.889
H    24.7888    4.589    -47.6882
H    23.5294    5.4938    -49.6229
H    22.0822    4.5674    -49.0994
H    23.5664    3.698    -49.6172
H    23.5857    5.9976    -45.9983
H    22.1381    6.0105    -47.0616
H    23.6631    6.7845    -47.6112
H    24.6821    3.1641    -45.3624
H    24.8788    3.4878    -43.4915
H    24.0529    2.6833    -41.2909
H    23.3996    1.6323    -42.5928
H    22.3515    2.8779    -41.8333
H    22.9264    4.8765    -41.9212
H    23.952    8.6278    -42.6879
H    25.4725    8.0694    -41.9115
H    26.1023    8.2754    -39.8545
H    25.7927    9.6065    -37.7438
H    23.6622    10.9335    -37.4414
H    21.7767    11.0171    -39.1714
H    22.08    9.6489    -41.3545
