46

C    45.826    40.299    -8.534
C    45.17    39.086    -8.952
C    45.271    38.614    -10.286
C    46.945    41.023    -4.949
C    46.954    40.327    -6.323
C    44.449    41.053    -6.597
C    44.553    41.687    -5.196
C    45.565    40.971    -4.294
C    45.615    41.649    -2.925
C    46.168    38.824    -12.66
C    48.036    43.176    -9.627
C    48.33    44.304    -8.735
C    49.194    45.378    -8.874
C    47.61    45.887    -5.642
C    46.03    39.339    -11.25
C    46.683    40.554    -10.853
C    46.586    41.046    -9.505
N    45.765    40.654    -7.172
O    45.134    39.389    -13.461
N    47.164    42.271    -9.05
O    48.53    43.082    -10.759
C    49.071    46.171    -7.701
C    48.137    45.548    -6.918
O    47.673    44.412    -7.527
N    47.19    46.175    -4.595
H    44.5873    38.5225    -8.2323
H    44.7685    37.6975    -10.5734
H    47.2366    42.0754    -5.0813
H    47.6701    40.5214    -4.2913
H    46.9762    39.2392    -6.161
H    47.8613    40.6359    -6.8627
H    43.9805    41.7821    -7.2745
H    43.8145    40.1572    -6.5268
H    43.5638    41.645    -4.7168
H    44.8624    42.7367    -5.3072
H    45.2609    39.9215    -4.1669
H    46.343    41.1292    -2.2848
H    44.6199    41.6063    -2.4581
H    45.9181    42.6994    -3.0468
H    46.0799    37.7276    -12.6629
H    47.1488    39.1141    -13.0648
H    49.8457    45.5774    -9.7234
H    47.2598    41.111    -11.5825
H    45.2144    39.0689    -14.3518
H    46.88    42.5259    -8.1257
H    49.6107    47.0886    -7.4716
