39

C    18.465    -34.929    -60.303
C    18.425    -33.953    -59.161
O    19.727    -35.197    -60.969
C    17.464    -32.954    -59.134
C    17.429    -32.048    -58.084
C    18.379    -32.153    -57.061
C    19.338    -33.14    -57.089
C    19.375    -34.04    -58.135
C    20.415    -35.138    -58.185
C    21.705    -34.713    -58.854
C    21.906    -33.298    -59.339
C    23.001    -33.273    -60.403
C    22.417    -33.252    -61.81
C    22.732    -34.564    -62.486
C    21.791    -35.242    -63.141
C    20.38    -34.718    -63.233
C    19.478    -35.546    -62.33
O    17.456    -35.507    -60.683
O    16.541    -32.856    -60.132
O    18.346    -31.27    -56.035
Cl    20.4    -33.214    -55.891
O    22.601    -35.529    -59.013
H    16.6759    -31.2689    -58.056
H    19.9971    -35.9893    -58.7423
H    20.6426    -35.4501    -57.1551
H    22.2022    -32.6596    -58.4936
H    20.9669    -32.922    -59.7711
H    23.6283    -34.1695    -60.2905
H    23.6177    -32.3735    -60.2593
H    22.8616    -32.4248    -62.3827
H    21.3268    -33.1162    -61.756
H    23.7443    -34.9626    -62.4375
H    22.0442    -36.1882    -63.6169
H    20.0274    -34.7917    -64.2723
H    20.3566    -33.6663    -62.9115
H    18.4253    -35.3421    -62.5752
H    19.6891    -36.6151    -62.48
H    16.6945    -33.541    -60.7722
H    17.63    -30.6596    -56.1669
