32

N    39.386    9.162    -0.014
C    39.359    7.727    -0.54
N    38.24    7.418    -1.342
C    37.173    8.293    -1.699
C    37.19    9.745    -1.189
C    38.265    10.094    -0.393
O    40.177    6.871    -0.329
O    35.998    7.85    -2.561
P    40.289    14.29    -1.469
O    39.367    14.018    -2.59
O    40.165    15.628    -0.81
O    41.801    14.033    -1.889
C    40.589    9.579    0.899
C    41.992    9.628    0.118
O    42.991    9.024    0.986
C    41.891    11.088    -0.404
C    41.394    11.814    0.877
O    43.153    11.629    -0.784
O    40.376    10.996    1.302
C    40.768    13.153    0.827
O    40.049    13.216    -0.381
H    38.1902    6.4849    -1.6982
H    36.4029    10.4545    -1.44
H    38.3041    11.114    -0.0134
H    40.6498    8.9083    1.7687
H    41.9709    8.9815    -0.7717
H    42.7444    8.1261    1.1738
H    41.179    11.1724    -1.2382
H    42.2246    11.8521    1.5971
H    43.0585    12.5581    -0.958
H    41.5416    13.9347    0.8494
H    40.0875    13.286    1.681
