59

C    43.288    49.692    17.89
O    44.244    49.348    17.188
N    42.182    50.299    17.336
N    39.883    51.626    14.813
C    38.892    51.85    16.773
N    38.774    52.038    15.508
N    37.827    52.231    17.696
C    37.726    52.161    19.056
C    36.463    52.622    19.743
O    38.656    51.724    19.728
C    35.317    53.151    19.075
C    34.178    53.543    19.802
C    35.291    52.894    21.888
C    36.425    52.506    21.167
C    40.685    51.164    15.84
C    40.051    51.291    17.103
C    40.987    50.745    18.122
C    42.055    50.559    15.864
N    32.921    53.824    22.018
C    32.694    53.284    23.429
C    31.216    53.195    23.91
N    30.223    53.31    22.791
C    30.403    54.505    21.892
C    31.876    54.784    21.455
C    28.832    53.222    23.317
C    34.136    53.421    21.23
C    41.453    45.897    19.505
C    40.876    46.688    20.468
S    42.716    46.723    18.686
C    41.444    47.961    20.558
C    42.454    48.12    19.656
C    43.325    49.376    19.409
H    40.068    51.6535    13.8001
H    37.0198    52.6155    17.2481
H    35.3247    53.2517    17.9957
H    33.3195    53.9432    19.2747
H    35.2876    52.7932    22.9673
H    37.286    52.1123    21.695
H    41.2675    51.5224    18.8478
H    40.5316    49.8956    18.6521
H    42.1041    49.63    15.277
H    42.8207    51.2616    15.5034
H    33.234    53.9392    24.1284
H    33.1207    52.2711    23.4717
H    31.0316    54.0093    24.6262
H    31.0687    52.2264    24.4101
H    30.3655    52.5012    22.2065
H    30.031    55.3925    22.4249
H    29.8024    54.3435    20.9847
H    31.9204    54.7277    20.3573
H    32.1394    55.801    21.781
H    28.741    52.3393    23.9671
H    28.1273    53.133    22.4771
H    28.6006    54.1286    23.8953
H    41.1479    44.8744    19.2881
H    40.0546    46.3548    21.1007
H    41.1211    48.7289    21.2595
H    42.9226    50.2273    19.9776
H    44.3604    49.1806    19.7248
