54

C    37.109    40.474    22.524
C    36.519    41.732    21.86
C    37.033    42.979    22.565
C    34.972    41.735    21.858
O    34.325    40.781    22.32
N    34.415    42.833    21.314
C    32.933    43.014    21.201
C    32.278    43.186    22.572
O    32.291    44.56    22.821
C    30.833    42.651    22.656
O    30.3    42.881    23.969
C    30.869    41.154    22.33
C    29.568    40.37    22.651
O    28.532    40.831    21.828
N    31.29    41.02    20.907
C    30.946    40.188    19.924
C    32.277    41.885    20.367
N    32.445    41.534    19.093
C    31.629    40.507    18.813
C    31.543    39.758    17.463
C    31.372    40.737    16.307
C    29.954    41.346    16.25
C    28.89    40.629    15.669
C    27.606    41.184    15.593
C    27.4    42.462    16.115
C    28.461    43.183    16.696
C    29.737    42.629    16.771
H    38.2074    40.526    22.4968
H    36.7708    39.5795    21.9804
H    36.7703    40.4179    23.5691
H    36.8602    41.7553    20.8145
H    36.6076    43.8729    22.0855
H    38.1303    43.0132    22.4962
H    36.7326    42.9523    23.6228
H    35.0147    43.5564    20.9718
H    32.7667    43.9516    20.6504
H    32.8826    42.6621    23.327
H    31.8934    44.7312    23.6666
H    30.2033    43.1704    21.9186
H    29.411    42.5487    24.0113
H    31.6561    40.7056    22.954
H    29.2961    40.526    23.7054
H    29.7314    39.2975    22.4693
H    28.392    41.7573    21.9858
H    30.2243    39.3769    20.0088
H    30.6823    39.0734    17.4853
H    32.467    39.1806    17.3121
H    31.5654    40.2055    15.3635
H    32.1011    41.5522    16.4248
H    29.067    39.6346    15.2755
H    26.7904    40.6331    15.1388
H    26.4115    42.9048    16.0727
H    28.2833    44.1778    17.0883
H    30.5506    43.1824    17.2259
