54

N    15.402    -2.912    11.832
C    14.007    -3.272    11.695
C    13.805    -4.736    11.97
O    14.555    -5.591    11.496
O    12.871    -5.147    12.673
C    13.506    -2.851    10.314
C    12.056    -3.247    10.098
C    11.573    -2.632    8.823
O    12.502    -2.144    7.894
N    10.255    -2.559    8.611
C    9.759    -1.786    7.485
C    8.479    -1.054    7.737
O    7.675    -1.4    8.845
C    9.615    -2.661    6.26
S    8.381    -3.958    6.517
C    8.413    -4.051    4.715
C    7.841    -5.337    4.148
C    6.343    -5.176    3.975
C    6.005    -4.582    2.616
C    4.569    -4.942    2.24
C    4.045    -3.961    1.202
N    8.19    -0.105    6.839
C    7.041    0.778    6.938
C    7.397    2.235    7.209
O    6.518    3.102    6.998
O    8.535    2.599    7.633
H    15.5151    -1.9282    11.6438
H    15.9524    -3.4449    11.1769
H    15.71    -3.1121    12.7707
H    13.4317    -2.7113    12.4464
H    14.1263    -3.3367    9.5464
H    13.595    -1.7586    10.2202
H    11.4448    -2.8848    10.9378
H    11.9776    -4.3423    10.033
H    9.6178    -3.0309    9.2203
H    10.5224    -1.0254    7.2642
H    10.5854    -3.1292    6.0385
H    9.3061    -2.0368    5.4086
H    9.4582    -3.9628    4.3836
H    7.8294    -3.2084    4.3157
H    8.0453    -6.168    4.8392
H    8.3043    -5.5486    3.173
H    5.9607    -4.5098    4.7624
H    5.8638    -6.1621    4.0644
H    6.6934    -4.9857    1.859
H    6.1083    -3.4877    2.6592
H    3.9346    -4.897    3.1375
H    4.5449    -5.9602    1.8246
H    3.0111    -4.2261    0.9361
H    4.6776    -4.0054    0.3032
H    4.0673    -2.9422    1.6162
H    8.8005    0.0025    6.0543
H    6.4005    0.4208    7.7578
H    6.485    0.7289    5.9902
