85

O    91.943    -8.498    100.574
S    91.751    -9.878    100.044
O    90.884    -10.651    100.987
O    91.082    -9.829    98.712
C    93.378    -10.688    99.903
C    94.201    -10.398    98.636
N    95.178    -11.498    98.57
C    96.347    -11.475    99.228
C    96.929    -10.486    100.026
C    98.195    -10.677    100.574
C    98.9    -11.848    100.317
S    100.476    -12.075    101.018
O    101.156    -10.749    101.152
O    100.328    -12.692    102.374
O    101.293    -12.989    100.165
C    98.337    -12.83    99.509
C    97.068    -12.639    98.955
C    96.201    -13.502    98.048
C    96.96    -13.751    96.738
C    95.857    -14.809    98.774
C    94.972    -12.596    97.839
C    93.876    -12.918    97.026
C    93.747    -14.095    96.297
C    92.619    -14.316    95.518
C    92.466    -15.485    94.78
C    93.543    -16.588    94.791
C    91.311    -15.633    94.026
C    91.099    -16.776    93.267
C    89.932    -16.891    92.526
C    89.585    -17.982    91.722
C    90.444    -19.25    91.517
C    90.681    -19.998    92.839
C    91.769    -18.935    90.799
C    89.545    -20.083    90.613
C    89.675    -21.362    90.065
C    88.663    -21.871    89.257
S    88.783    -23.453    88.554
O    88.874    -23.32    87.067
O    90.008    -24.149    89.066
O    87.556    -24.233    88.909
C    87.53    -21.113    89.001
C    87.399    -19.841    89.543
C    88.415    -19.31    90.336
N    88.484    -18.144    90.987
C    87.424    -17.123    90.916
C    87.808    -16.257    89.703
S    86.917    -14.679    89.49
O    86.833    -13.964    90.798
O    85.544    -14.966    88.978
O    87.647    -13.816    88.51
H    93.2117    -11.7744    99.9479
H    93.9803    -10.3732    100.7679
H    94.713    -9.4279    98.7187
H    93.5558    -10.3973    97.7451
H    96.3917    -9.5647    100.2195
H    98.6325    -9.9102    101.2031
H    98.883    -13.7447    99.3086
H    97.8262    -14.4001    96.9338
H    97.3064    -12.7914    96.3268
H    96.2916    -14.2402    96.0142
H    95.3155    -14.5804    99.7038
H    96.7841    -15.3505    99.0133
H    95.2247    -15.4332    98.1255
H    93.0661    -12.1929    96.9607
H    94.534    -14.8467    96.3372
H    91.8377    -13.5581    95.4842
H    93.2236    -17.4187    94.1446
H    93.6812    -16.9553    95.8186
H    94.4926    -16.1771    94.4176
H    90.5615    -14.843    94.0295
H    91.8406    -17.5734    93.2535
H    89.2268    -16.0625    92.5742
H    91.3304    -19.3947    93.4903
H    91.1649    -20.9639    92.6321
H    89.7173    -20.1705    93.3406
H    91.5594    -18.4013    89.8603
H    92.2979    -19.8736    90.5769
H    92.3963    -18.305    91.4467
H    90.5597    -21.9545    90.2684
H    86.7424    -21.5156    88.3744
H    86.5047    -19.2599    89.3489
H    87.4034    -16.5186    91.8349
H    86.4409    -17.5923    90.7636
H    87.6357    -16.859    88.7987
H    88.8794    -16.0231    89.7892
