59

C    38.745    4.486    -3.556
C    37.41    4.279    -2.899
C    36.628    3.276    -3.69
C    37.366    1.966    -3.895
C    38.736    2.288    -4.498
C    39.611    1.042    -4.651
O    36.629    5.488    -2.786
O    35.391    2.992    -2.961
O    37.495    1.361    -2.584
O    39.471    3.23    -3.694
C    40.867    7.418    -7.353
C    41.291    5.973    -7.243
C    40.152    5.136    -6.646
C    39.752    5.773    -5.313
C    39.344    7.225    -5.527
C    38.925    7.946    -4.286
C    42.885    5.184    -8.921
C    43.089    4.777    -10.364
N    41.619    5.462    -8.57
O    40.716    3.83    -6.418
O    38.568    5.113    -4.833
O    40.479    7.952    -6.089
O    39.834    7.769    -3.316
O    43.853    5.22    -8.128
N    43.038    9.696    -8.959
C    43.744    9.409    -7.849
C    45.089    9.96    -7.399
O    45.811    10.306    -8.582
N    41.847    8.205    -7.805
C    42.989    8.476    -7.128
N    41.827    8.962    -8.983
H    39.3414    5.1567    -2.9201
H    37.5831    3.885    -1.8867
H    36.3913    3.7069    -4.674
H    36.8065    1.3    -4.5684
H    38.5699    2.7264    -5.4931
H    40.5803    1.3259    -5.0866
H    39.1091    0.3204    -5.3124
H    39.7727    0.584    -3.6641
H    37.1156    6.1324    -2.2855
H    34.8573    2.3909    -3.4673
H    37.9907    0.5538    -2.6564
H    40.0145    7.4707    -8.0462
H    42.1757    5.9014    -6.5932
H    39.2889    5.0827    -7.3258
H    40.576    5.6969    -4.5883
H    38.5053    7.2432    -6.2385
H    37.9538    7.5545    -3.9491
H    38.8316    9.0201    -4.5042
H    44.1556    4.574    -10.5404
H    42.7565    5.5909    -11.0251
H    42.5033    3.8703    -10.5756
H    40.8846    5.3156    -9.2327
H    41.485    3.9103    -5.866
H    40.6732    8.1083    -3.6042
H    45.6393    9.1967    -6.8294
H    44.9421    10.8511    -6.7711
H    46.661    10.6558    -8.342
H    43.2747    8.0371    -6.1732
