163

N    60.725    -32.929    -91.825
C    59.662    -33.877    -92.167
C    59.591    -34.138    -93.679
O    58.98    -33.366    -94.431
C    58.312    -33.387    -91.643
C    57.86    -32.031    -92.196
S    59.156    -30.768    -92.191
C    58.233    -29.276    -92.578
N    60.216    -35.242    -94.098
C    60.409    -35.595    -95.512
C    59.617    -36.834    -95.909
O    60.379    -37.604    -96.822
C    60.174    -34.45    -96.498
O    59.078    -34.252    -97.052
N    61.254    -33.718    -96.716
C    61.241    -32.503    -97.499
C    61.361    -32.788    -99.003
O    61.725    -31.912    -99.782
C    62.37    -31.597    -96.989
C    62.374    -31.472    -95.456
C    63.57    -30.71    -94.913
O    63.549    -30.226    -93.781
N    64.623    -30.605    -95.716
N    61.055    -34.016    -99.409
C    61.169    -34.386    -100.818
C    59.799    -34.52    -101.482
O    59.711    -34.725    -102.702
C    62.036    -35.677    -101.037
C    62.039    -36.111    -102.51
C    61.558    -36.841    -100.16
C    62.658    -35.12    -103.475
N    58.737    -34.399    -100.681
C    57.373    -34.456    -101.21
C    57.174    -33.322    -102.208
O    57.568    -32.179    -101.941
C    56.345    -34.372    -100.072
C    54.87    -34.543    -100.49
C    54.025    -35.017    -99.305
C    54.671    -36.246    -98.626
N    53.853    -36.814    -97.519
N    56.585    -33.635    -103.361
C    56.324    -32.617    -104.379
C    55.443    -31.507    -103.824
O    54.57    -31.754    -102.995
C    55.636    -33.228    -105.591
C    56.48    -34.172    -106.403
C    55.589    -34.913    -107.366
N    56.341    -35.732    -108.307
C    55.783    -36.635    -109.108
N    54.473    -36.831    -109.081
N    56.531    -37.344    -109.935
N    55.664    -30.283    -104.285
C    54.854    -29.153    -103.841
C    53.555    -29.065    -104.615
O    52.634    -28.388    -104.177
C    55.617    -27.841    -103.986
C    56.953    -27.754    -103.261
C    57.263    -26.31    -102.976
C    56.882    -28.516    -101.967
N    53.49    -29.751    -105.757
C    52.307    -29.724    -106.614
C    51.78    -31.112    -106.955
O    51.686    -31.988    -106.092
C    52.588    -28.98    -107.924
C    52.734    -27.466    -107.933
C    52.467    -26.951    -109.333
C    51.788    -26.813    -106.938
N    51.419    -31.271    -108.229
C    50.813    -32.489    -108.766
C    49.607    -32.933    -107.948
O    48.668    -32.157    -107.76
C    51.847    -33.611    -108.896
O    52.844    -33.271    -109.85
H    60.7386    -32.785    -90.8274
H    60.5539    -32.0506    -92.2889
H    61.6139    -33.299    -92.1232
H    59.8926    -34.8319    -91.672
H    58.3797    -33.3043    -90.5482
H    57.5504    -34.1352    -91.9078
H    57.0214    -31.6691    -91.583
H    57.5211    -32.1752    -93.2325
H    58.9196    -28.417    -92.6058
H    57.467    -29.1083    -91.8066
H    57.7475    -29.3891    -93.5585
H    60.5753    -35.8679    -93.4058
H    61.4717    -35.8618    -95.6091
H    58.6724    -36.5299    -96.3837
H    59.4005    -37.4344    -95.0131
H    59.8864    -38.3773    -97.0706
H    62.1213    -34.0197    -96.32
H    60.2819    -31.9909    -97.3319
H    62.2431    -30.595    -97.4248
H    63.3337    -32.0178    -97.3116
H    62.3807    -32.4837    -95.0243
H    61.4577    -30.9475    -95.1471
H    65.4384    -30.1137    -95.4097
H    64.6003    -31.0172    -96.6268
H    60.7434    -34.6939    -98.7432
H    61.6926    -33.5602    -101.3219
H    63.0702    -35.4367    -100.7496
H    60.9962    -36.2786    -102.8172
H    62.5996    -37.0544    -102.5854
H    61.5563    -36.5287    -99.1053
H    62.2353    -37.6984    -100.2875
H    60.5396    -37.1307    -100.4582
H    62.6101    -35.5244    -104.4968
H    63.7083    -34.946    -103.1985
H    62.1049    -34.1702    -103.4303
H    58.8764    -34.2667    -99.6996
H    57.2358    -35.4142    -101.7324
H    56.449    -33.3865    -99.5945
H    56.5831    -35.16    -99.3424
H    54.8073    -35.2861    -101.2986
H    54.4816    -33.5781    -100.8478
H    53.0215    -35.2894    -99.6639
H    53.9432    -34.2014    -98.5714
H    55.6471    -35.9448    -98.2179
H    54.8168    -37.027    -99.3867
H    54.33    -37.6085    -97.1223
H    52.9572    -37.1049    -97.8782
H    53.7181    -36.1132    -96.8071
H    56.3164    -34.5826    -103.5339
H    57.285    -32.1849    -104.6947
H    55.3157    -32.4071    -106.2494
H    54.7529    -33.7805    -105.2376
H    56.9798    -34.889    -105.7351
H    57.237    -33.6031    -106.9626
H    54.9957    -34.1801    -107.9325
H    54.9147    -35.5653    -106.7917
H    57.362    -35.6046    -108.3546
H    54.0441    -37.5312    -109.7028
H    53.8834    -36.2831    -108.4382
H    57.5502    -37.1974    -109.9618
H    56.0949    -38.0433    -110.5528
H    56.3976    -30.132    -104.9476
H    54.6152    -29.3016    -102.7776
H    54.9742    -27.0352    -103.6019
H    55.8061    -27.6799    -105.0576
H    57.7434    -28.1826    -103.8947
H    58.2275    -26.2386    -102.4519
H    56.4702    -25.8824    -102.3447
H    57.3182    -25.753    -103.9229
H    56.6553    -29.572    -102.1753
H    56.0907    -28.0893    -101.3331
H    57.848    -28.4443    -101.4458
H    54.2767    -30.3018    -106.0358
H    51.5177    -29.1844    -106.0701
H    51.7609    -29.2214    -108.6078
H    53.5267    -29.39    -108.3248
H    53.7658    -27.2099    -107.6507
H    52.5709    -25.856    -109.3469
H    51.4462    -27.2263    -109.6365
H    53.1901    -27.3968    -110.0318
H    51.9952    -27.1975    -105.9284
H    50.7487    -27.046    -107.2129
H    51.9357    -25.7231    -106.9526
H    51.5725    -30.5085    -108.8575
H    50.4521    -32.2558    -109.7786
O    49.5672    -34.1598    -107.4359
H    51.3402    -34.5329    -109.2172
H    52.3244    -33.7763    -107.9189
H    53.4737    -33.9794    -109.9145
H    50.361    -34.6258    -107.6709
