95

O    -22.213    59.669    30.59
C    -20.995    59.363    31.299
C    -20.957    59.931    32.635
N    -21.676    61.202    32.754
C    -22.321    61.877    31.646
C    -22.335    61.106    30.428
C    -21.284    61.977    33.828
O    -21.708    63.104    33.985
N    -20.67    61.317    34.81
C    -20.473    61.94    36.086
C    -19.295    62.886    36.127
O    -18.237    62.691    35.58
C    -20.55    60.99    37.259
C    -21.724    60.031    37.278
C    -21.669    58.793    36.609
C    -22.842    60.196    38.033
C    -22.688    57.88    36.734
C    -23.946    59.304    38.223
C    -23.816    58.075    37.531
N    -19.504    64.017    36.796
C    -18.411    64.99    36.976
C    -18.289    65.329    38.452
O    -19.025    66.177    38.984
C    -18.638    66.217    36.13
C    -17.404    67.127    35.912
C    -17.694    68.51    35.543
C    -16.478    69.302    35.981
N    -17.256    64.731    39.071
C    -16.968    64.844    40.486
C    -17.313    63.662    41.3
C    -18.624    62.948    41.077
C    -19.864    63.634    41.414
C    -18.524    61.476    41.394
C    -21.174    62.921    41.267
C    -19.796    60.816    41.009
C    -21.136    61.437    41.301
C    -15.609    65.392    40.85
O    -14.569    64.692    40.185
O    -15.509    65.543    42.26
C    -15.422    66.883    40.487
F    -15.651    67.173    39.191
F    -14.112    67.228    40.552
C    -16.14    67.804    41.458
O    -17.332    68.19    41.215
N    -15.362    68.565    42.234
C    -15.971    69.735    42.899
H    -20.1457    59.7615    30.7247
H    -20.9021    58.27    31.3803
H    -19.9057    60.0993    32.9113
H    -21.4084    59.2098    33.3322
H    -21.7867    62.8193    31.4546
H    -23.3607    62.0962    31.9304
H    -23.2848    61.3082    29.9113
H    -21.4972    61.4477    29.8024
H    -20.3456    60.3837    34.656
H    -21.3501    62.5924    36.2086
H    -20.5982    61.5951    38.1763
H    -19.6283    60.3897    37.2637
H    -20.8123    58.5576    35.9879
H    -22.9073    61.1368    38.5675
H    -22.6107    56.9517    36.1796
H    -24.8032    59.5472    38.8403
H    -24.5742    57.3052    37.6186
H    -20.4078    64.2082    37.179
H    -17.4699    64.5232    36.6498
H    -19.42    66.8202    36.6143
H    -18.9902    65.8848    35.1423
H    -16.7949    66.684    35.1103
H    -16.8251    67.1411    36.8472
H    -18.5948    68.8672    36.0634
H    -17.8397    68.5967    34.4562
H    -16.6236    70.3639    35.7339
H    -15.5864    68.9232    35.4598
H    -16.3416    69.1937    37.0671
H    -16.6435    64.1687    38.5154
H    -17.6691    65.6204    40.8262
H    -17.3031    63.9864    42.351
H    -16.5164    62.9211    41.1374
H    -18.6898    62.9397    39.979
H    -19.9157    64.5294    40.7772
H    -19.7835    63.9378    42.4681
H    -18.349    61.341    42.4716
H    -17.6914    61.0319    40.8288
H    -21.6096    63.2207    40.3024
H    -21.8288    63.2559    42.0849
H    -19.7525    60.6754    39.9189
H    -19.7964    59.8345    41.5056
H    -21.8527    61.0625    40.5553
H    -21.4481    61.1129    42.3048
H    -13.7439    65.1402    40.3301
H    -15.4846    64.6855    42.6682
H    -14.3941    68.3482    42.3609
H    -15.2081    70.2551    43.497
H    -16.7865    69.3997    43.5566
H    -16.3717    70.4215    42.1387
