317

N    -2.721    -5.469    24.014
C    -1.465    -6.233    23.793
C    -0.519    -5.48    22.863
O    -0.855    -4.413    22.35
C    -1.821    -7.595    23.195
C    -0.945    -8.729    23.701
C    -1.646    -9.591    24.733
O    -2.505    -10.408    24.34
O    -1.335    -9.449    25.934
N    0.666    -6.044    22.651
C    1.662    -5.426    21.783
C    1.137    -5.298    20.357
O    1.306    -6.202    19.539
C    2.955    -6.244    21.792
C    2.705    -7.727    21.602
O    1.603    -8.089    21.137
O    3.61    -8.527    21.918
N    0.502    -4.168    20.065
C    -0.046    -3.919    18.737
C    -0.789    -2.579    18.711
C    -1.143    -2.11    17.312
O    -1.989    -2.695    19.478
P    -2.291    -1.247    20.119
O    -3.715    -1.17    20.515
O    -1.363    -1.031    21.416
O    -1.974    -0.1    19.034
C    1.066    -3.91    17.692
O    1.582    -2.851    17.335
N    1.431    -5.09    17.201
C    2.475    -5.198    16.2
C    1.886    -5.112    14.794
O    2.182    -5.938    13.931
C    3.234    -6.515    16.373
C    4.672    -6.424    15.904
O    5.455    -5.679    16.531
O    5.017    -7.099    14.912
N    1.057    -4.096    14.571
C    0.43    -3.884    13.277
C    1.34    -3.073    12.362
O    1.388    -3.296    11.154
C    -0.913    -3.17    13.446
C    -0.79    -1.777    14.04
C    -2.139    -1.133    14.298
O    -3.04    -1.828    14.812
O    -2.293    0.067    13.985
N    2.046    -2.118    12.953
C    2.948    -1.253    12.211
C    4.316    -1.901    12.018
O    5.061    -1.539    11.106
C    3.097    0.084    12.936
C    2.951    1.269    12.002
O    1.802    1.684    11.744
O    3.986    1.783    11.528
N    4.645    -2.852    12.884
C    5.928    -3.543    12.816
C    6.204    -4.077    11.418
O    7.237    -3.779    10.818
C    5.962    -4.681    13.822
C    7.374    -5.105    14.174
O    8.021    -5.767    13.335
O    7.833    -4.775    15.288
N    5.274    -4.864    10.911
C    5.4    -5.447    9.588
C    5.046    -4.435    8.504
O    5.456    -4.576    7.352
C    4.501    -6.677    9.472
C    3.133    -6.489    10.051
N    2.555    -7.387    10.922
C    2.227    -5.498    9.878
C    1.351    -6.959    11.259
N    1.129    -5.815    10.639
N    4.283    -3.413    8.879
C    3.875    -2.376    7.938
C    5.091    -1.73    7.283
O    5.044    -1.323    6.124
C    3.039    -1.31    8.648
C    2.746    -0.059    7.818
C    1.754    -0.373    6.71
C    2.225    1.057    8.709
N    6.177    -1.633    8.032
C    7.395    -1.042    7.518
C    8.233    -2.084    6.775
O    8.97    -1.755    5.846
C    8.228    -0.396    8.644
C    7.44    0.752    9.281
C    9.564    0.106    8.109
C    8.174    1.433    10.416
N    8.115    -3.343    7.198
C    8.861    -4.437    6.581
C    8.423    -4.667    5.142
O    9.25    -4.847    4.251
C    8.71    -5.724    7.415
C    8.4    -6.962    6.598
C    7.146    -7.14    6.033
C    9.365    -7.937    6.376
C    6.857    -8.249    5.272
C    9.082    -9.056    5.616
C    7.826    -9.207    5.065
O    7.541    -10.317    4.303
N    7.124    -4.661    4.921
C    6.59    -4.869    3.585
C    6.783    -3.614    2.745
O    6.711    -3.653    1.518
C    5.115    -5.307    3.638
C    4.055    -4.208    3.491
C    4.25    -3.138    4.543
C    4.068    -3.608    2.093
N    7.025    -2.499    3.415
C    7.23    -1.24    2.73
C    8.476    -1.298    1.846
O    8.552    -0.626    0.818
C    7.339    -0.098    3.754
C    8.742    0.47    3.921
C    8.819    1.522    5.011
O    7.76    2.068    5.385
O    9.939    1.799    5.49
N    9.457    -2.092    2.269
C    10.713    -2.222    1.534
C    10.619    -3.219    0.385
O    11.104    -2.952    -0.715
C    11.856    -2.603    2.48
C    11.583    -3.837    3.323
C    12.857    -4.499    3.812
O    13.431    -5.311    3.057
O    13.279    -4.206    4.951
N    10.001    -4.362    0.634
C    9.857    -5.388    -0.404
C    9.279    -4.801    -1.682
O    9.517    -5.308    -2.778
C    8.981    -6.578    0.046
C    7.735    -6.092    0.779
C    9.776    -7.521    0.932
C    6.506    -6.029    -0.095
N    8.523    -3.728    -1.532
C    7.91    -3.058    -2.665
C    8.934    -2.326    -3.504
O    9.383    -2.813    -4.541
C    6.864    -2.059    -2.179
C    6.478    -0.983    -3.203
C    5.892    -1.616    -4.453
C    5.504    0.009    -2.59
N    9.259    -1.133    -3.053
C    10.184    -0.28    -3.751
C    11.069    0.465    -2.77
O    11.503    1.587    -3.03
C    9.43    0.735    -4.629
C    8.559    0.031    -5.662
C    8.587    1.657    -3.762
N    11.322    -0.167    -1.637
C    12.147    0.434    -0.605
C    13.064    -0.6    0.04
O    13.261    -0.599    1.255
C    11.271    1.105    0.455
C    10.696    2.438    0.009
C    10.303    3.301    1.197
N    11.4    4.16    1.636
C    11.458    4.736    2.835
N    10.483    4.548    3.716
N    12.492    5.502    3.153
N    13.626    -1.48    -0.784
C    14.524    -2.52    -0.297
C    15.721    -1.916    0.43
O    16.023    -2.373    1.553
C    15.033    -3.407    -1.448
C    13.886    -4.191    -2.066
C    15.741    -2.565    -2.499
O    16.348    -0.992    -0.13
H    -3.3261    -5.9884    24.6306
H    -3.1856    -5.3235    23.1314
H    -2.503    -4.5771    24.43
H    -0.9626    -6.3832    24.76
H    -1.7137    -7.5338    22.102
H    -2.8667    -7.8236    23.4485
H    -0.0406    -8.2994    24.1565
H    -0.6605    -9.3622    22.8477
H    0.8797    -6.9129    23.0974
H    1.8808    -4.4185    22.1665
H    3.4616    -6.0924    22.7565
H    3.6031    -5.8884    20.9775
H    0.3973    -3.4706    20.774
H    -0.7554    -4.7233    18.4924
H    -0.1406    -1.8198    19.1727
H    -1.6716    -1.1472    17.3709
H    -1.7916    -2.8554    16.8285
H    -0.2225    -1.9874    16.7224
H    0.9772    -5.919    17.5279
H    3.1794    -4.3643    16.3366
H    2.7223    -7.2957    15.7911
H    3.2275    -6.7882    17.4385
H    0.8592    -3.4589    15.316
H    0.2503    -4.8645    12.812
H    -1.5482    -3.7759    14.1088
H    -1.3891    -3.086    12.458
H    -0.2252    -1.1438    13.3399
H    -0.2448    -1.8469    14.9928
H    1.9547    -1.9891    13.9405
H    2.5112    -1.0676    11.2186
H    4.0921    0.1233    13.4031
H    2.3233    0.1512    13.715
H    3.9957    -3.1014    13.6024
H    6.7201    -2.8244    13.0732
H    5.4308    -5.5446    13.3953
H    5.4527    -4.3546    14.7407
H    4.4587    -5.0645    11.4542
H    6.4446    -5.7598    9.4436
H    4.9874    -7.5117    9.9981
H    4.3939    -6.9278    8.4063
H    2.3467    -4.6147    9.2524
H    0.6602    -7.4637    11.9328
H    0.2704    -5.251    10.714
H    3.9811    -3.3537    9.8305
H    3.2597    -2.8403    7.1532
H    3.5802    -0.9993    9.5538
H    2.078    -1.7635    8.9324
H    3.6853    0.2779    7.3551
H    1.5567    0.5378    6.1256
H    0.8141    -0.7362    7.1513
H    2.1732    -1.1478    6.0512
H    2.9585    1.266    9.5016
H    1.2719    0.7487    9.1635
H    2.0676    1.9639    8.1067
H    6.1565    -1.9745    8.9717
H    7.1147    -0.2531    6.8045
H    8.4253    -1.1564    9.414
H    6.4932    0.35    9.6706
H    7.2281    1.5016    8.5044
H    10.1153    -0.7311    7.6558
H    10.1542    0.5292    8.9352
H    9.3867    0.8821    7.3499
H    7.5502    2.2427    10.8225
H    9.1201    1.8515    10.0421
H    8.3851    0.6998    11.2084
H    7.4984    -3.544    7.9592
H    9.9253    -4.1594    6.57
H    7.8933    -5.5736    8.1363
H    9.6514    -5.8958    7.9575
H    6.379    -6.3911    6.1941
H    10.3534    -7.8182    6.8049
H    5.8714    -8.3689    4.837
H    9.8427    -9.811    5.4536
H    6.6417    -10.2697    4.0005
H    6.4956    -4.511    5.6843
H    7.1617    -5.6816    3.113
H    4.9499    -5.7992    4.6078
H    4.9552    -6.0324    2.8267
H    3.068    -4.6662    3.6514
H    3.4818    -2.3601    4.4215
H    5.2477    -2.689    4.4289
H    4.1622    -3.5869    5.5434
H    3.9245    -4.4064    1.35
H    5.0335    -3.1116    1.916
H    3.2553    -2.8723    2.0021
H    7.0671    -2.5264    4.4137
H    6.359    -1.0482    2.0861
H    7.0044    -0.479    4.7302
H    6.6747    0.7172    3.4312
H    9.0535    0.9253    2.9693
H    9.427    -0.3521    4.1758
H    9.3309    -2.6137    3.1128
H    10.9459    -1.2381    1.1008
H    12.0394    -1.7562    3.1577
H    12.7558    -2.7905    1.8756
H    11.0195    -4.5612    2.7164
H    10.9812    -3.5424    4.1954
H    9.6256    -4.5292    1.5457
H    10.8623    -5.7745    -0.6275
H    8.662    -7.1297    -0.8506
H    7.9339    -5.0843    1.1725
H    7.5329    -6.7786    1.6143
H    10.671    -7.864    0.3923
H    9.1529    -8.388    1.1969
H    10.08    -6.9942    1.8485
H    5.6517    -5.672    0.4989
H    6.2848    -7.0317    -0.4895
H    6.6858    -5.3374    -0.9312
H    8.3686    -3.3671    -0.6123
H    7.4174    -3.8155    -3.2923
H    7.2613    -1.5547    -1.2858
H    5.9554    -2.6179    -1.9108
H    7.3892    -0.4376    -3.4897
H    5.6231    -0.8277    -5.1716
H    4.993    -2.1909    -4.186
H    6.6354    -2.2878    -4.9069
H    5.9513    0.4524    -1.6882
H    4.5728    -0.5105    -2.3199
H    5.2828    0.8033    -3.3181
H    8.8507    -0.8096    -2.1994
H    10.818    -0.9054    -4.3966
H    10.1723    1.3452    -5.1644
H    8.0347    0.7813    -6.272
H    7.822    -0.6041    -5.1486
H    9.1914    -0.5924    -6.3112
H    9.2313    2.156    -3.0232
H    7.8185    1.0682    -3.2399
H    8.1015    2.4138    -4.3957
H    10.9372    -1.0778    -1.4878
H    12.7755    1.2055    -1.0738
H    11.8802    1.2722    1.3555
H    10.4373    0.4294    0.6966
H    9.805    2.254    -0.6093
H    11.4514    2.9719    -0.5862
H    10.0097    2.6457    2.0304
H    9.4499    3.9333    0.9099
H    12.1747    4.3302    0.9789
H    10.5325    4.9958    4.6423
H    9.677    3.9544    3.4733
H    13.251    5.6509    2.4729
H    12.5364    5.9483    4.0802
H    13.4274    -1.4268    -1.7626
H    13.9655    -3.1508    0.4102
H    15.758    -4.1245    -1.0362
H    14.2694    -4.8175    -2.8849
H    13.1343    -3.4915    -2.4605
H    13.4246    -4.8312    -1.2997
H    16.565    -2.0084    -2.0287
H    15.0266    -1.8564    -2.9435
H    16.1434    -3.2214    -3.2846
