38

C    -7.15    5.345    8.587
N    -11.036    7.878    9.697
C    -15.034    9.452    6.915
O    -15.568    12.601    4.109
C    -15.671    11.183    3.971
C    -14.256    10.583    3.969
C    -11.657    10.25    6.774
S    -12.241    11.511    5.753
C    -13.633    10.606    5.355
C    -13.73    9.511    6.17
N    -12.497    9.155    6.734
C    -12.128    7.737    6.975
C    -10.299    7.285    8.723
N    -9.162    6.666    9.113
C    -8.388    6.112    8.154
N    -8.682    6.156    6.837
C    -9.867    6.692    6.472
C    -10.718    7.31    7.39
H    -6.4852    6.0112    9.1369
H    -7.4447    4.5138    9.2276
H    -6.635    4.9617    7.7061
H    -11.9086    8.3501    9.4602
H    -10.7171    7.8513    10.6655
H    -15.1358    10.3409    7.5376
H    -15.857    9.4104    6.2016
H    -15.0515    8.5621    7.5442
H    -16.4475    12.9859    4.1114
H    -16.178    10.938    3.0377
H    -16.2461    10.7714    4.8004
H    -13.6319    11.178    3.3023
H    -14.3234    9.546    3.6402
H    -11.6125    10.6205    7.7981
H    -10.6692    9.947    6.4268
H    -14.4478    11.3009    5.558
H    -13.8815    8.584    5.617
H    -12.252    7.2753    5.9954
H    -12.7372    7.4619    7.8359
H    -10.1688    6.6402    5.4259
