150

N    -12.57    -25.852    1.006
C    -12.399    -27.249    1.385
C    -11.617    -28.014    0.318
O    -11.017    -29.055    0.591
C    -13.768    -27.918    1.607
O    -14.63    -27.634    0.495
C    -14.409    -27.42    2.896
N    -11.633    -27.485    -0.896
C    -10.939    -28.101    -2.014
C    -9.974    -27.107    -2.654
O    -10.255    -25.909    -2.702
C    -11.941    -28.609    -3.044
N    -8.82    -27.582    -3.137
C    -7.842    -26.734    -3.816
C    -8.23    -26.478    -5.272
O    -8.896    -27.303    -5.898
C    -6.558    -27.56    -3.732
C    -7.022    -28.977    -3.727
C    -8.373    -28.984    -3.056
N    -7.832    -25.332    -5.831
C    -8.145    -24.996    -7.213
C    -7.189    -25.667    -8.195
O    -6.031    -25.931    -7.86
C    -7.982    -23.48    -7.243
C    -6.955    -23.183    -6.204
C    -7.052    -24.275    -5.165
N    -7.667    -25.962    -9.415
C    -6.847    -26.586    -10.456
C    -5.638    -25.733    -10.822
O    -5.736    -24.507    -10.905
C    -7.794    -26.693    -11.657
C    -8.896    -25.734    -11.372
C    -9.042    -25.714    -9.88
N    -4.507    -26.386    -11.04
C    -3.277    -25.694    -11.391
C    -3.371    -25.081    -12.784
O    -4.235    -25.446    -13.584
C    -2.094    -26.647    -11.302
N    -2.46    -24.165    -13.068
C    -2.441    -23.445    -14.335
C    -2.254    -24.403    -15.508
O    -2.889    -24.254    -16.553
C    -1.323    -22.398    -14.313
C    -1.207    -21.59    -15.584
C    -2.181    -20.665    -15.93
C    -0.12    -21.752    -16.434
C    -2.077    -19.922    -17.089
C    -0.009    -21.013    -17.594
C    -0.988    -20.1    -17.918
O    -0.879    -19.361    -19.074
N    -1.397    -25.395    -15.316
C    -1.13    -26.389    -16.352
C    -2.282    -27.378    -16.441
O    -2.469    -28.058    -17.447
C    0.173    -27.12    -16.065
N    -3.053    -27.442    -15.369
C    -4.196    -28.333    -15.279
C    -5.388    -27.767    -16.045
O    -6.145    -28.502    -16.677
C    -4.585    -28.54    -13.802
O    -3.484    -29.118    -13.093
C    -5.805    -29.432    -13.659
N    -5.54    -26.453    -15.989
C    -6.661    -25.782    -16.631
C    -6.321    -25.37    -18.062
O    -7.183    -24.892    -18.801
C    -7.091    -24.572    -15.788
C    -5.995    -23.545    -15.487
C    -5.873    -22.519    -16.604
C    -6.27    -22.866    -14.159
N    -5.066    -25.555    -18.45
C    -4.643    -25.196    -19.79
C    -4.451    -26.411    -20.672
O    -4.2497    -27.5413    -20.1528
O    -4.4925    -26.292    -21.9257
H    -11.666    -25.4292    0.8646
H    -13.0589    -25.3624    1.739
H    -13.1032    -25.7983    0.1523
H    -11.8327    -27.2862    2.3273
H    -13.6238    -29.006    1.6801
H    -15.4733    -28.0483    0.6356
H    -15.384    -27.9103    3.0339
H    -14.5513    -26.3308    2.8378
H    -13.7547    -27.6593    3.7472
H    -12.1383    -26.6355    -1.0479
H    -10.36    -28.9572    -1.6376
H    -11.4013    -29.0721    -3.8832
H    -12.5436    -27.7671    -3.4156
H    -12.6012    -29.3545    -2.5767
H    -7.7281    -25.7719    -3.295
H    -6.0071    -27.3286    -2.8085
H    -5.9135    -27.3655    -4.602
H    -6.3157    -29.606    -3.1653
H    -7.1078    -29.3522    -4.7574
H    -9.0702    -29.6478    -3.5882
H    -8.2871    -29.3069    -2.008
H    -9.1773    -25.2852    -7.4595
H    -8.9331    -22.9838    -6.9997
H    -7.6377    -23.1475    -8.2334
H    -7.155    -22.2042    -5.7436
H    -5.9516    -23.1781    -6.6547
H    -6.0524    -24.6418    -4.8888
H    -7.5715    -23.9136    -4.2653
H    -6.5065    -27.581    -10.1336
H    -8.1872    -27.7163    -11.7482
H    -7.2725    -26.4165    -12.5852
H    -9.8302    -26.0722    -11.8441
H    -8.6383    -24.7319    -11.7454
H    -9.4084    -24.7374    -9.5307
H    -9.7249    -26.5056    -9.538
H    -4.4983    -27.3828    -10.9611
H    -3.1209    -24.88    -10.6678
H    -1.171    -26.1117    -11.5696
H    -2.2459    -27.486    -11.997
H    -2.0098    -27.0321    -10.2751
H    -1.7573    -23.9586    -12.3871
H    -3.4044    -22.9289    -14.459
H    -0.3676    -22.9168    -14.1456
H    -1.5151    -21.7055    -13.4802
H    -3.0371    -20.5233    -15.2803
H    0.6524    -22.4696    -16.1822
H    -2.8463    -19.2029    -17.3464
H    0.845    -21.1504    -18.2474
H    -1.6288    -18.7827    -19.1507
H    -0.9209    -25.4648    -14.4394
H    -1.0358    -25.8718    -17.3182
H    0.3577    -27.8636    -16.8542
H    0.1018    -27.6281    -15.092
H    1.0016    -26.3969    -16.0413
H    -2.8406    -26.8533    -14.589
H    -3.922    -29.3043    -15.7166
H    -4.8172    -27.5589    -13.362
H    -3.7261    -29.2446    -12.1831
H    -6.0476    -29.5533    -12.593
H    -5.5931    -30.4167    -14.1011
H    -6.6583    -28.9724    -14.1792
H    -4.8661    -25.9064    -15.4919
H    -7.5039    -26.4874    -16.6745
H    -7.4733    -24.9485    -14.8278
H    -7.8987    -24.0552    -16.327
H    -5.0365    -24.079    -15.4095
H    -5.0791    -21.7992    -16.3556
H    -6.8284    -21.9861    -16.7184
H    -5.6231    -23.0299    -17.5455
H    -6.3539    -23.6266    -13.3688
H    -7.2109    -22.3    -14.2245
H    -5.4446    -22.1791    -13.9205
H    -4.4039    -25.9466    -17.8111
H    -3.6903    -24.6498    -19.7267
H    -5.4082    -24.5475    -20.2416
