32

O    75.005    36.157    -2.571
C    75.312    35.723    -1.482
C    75.784    34.313    -1.284
C    75.925    33.287    -2.365
O    75.635    33.57    -3.634
C    76.386    32.001    -2.043
C    76.708    31.664    -0.721
O    77.132    30.442    -0.421
C    76.151    33.901    0.094
C    76.582    32.581    0.325
O    76.052    34.812    1.13
C    75.607    36.169    0.881
C    75.228    36.618    -0.329
C    75.462    37.019    2.078
C    75.292    38.397    1.926
C    75.092    39.213    3.038
O    74.969    40.525    2.832
C    75.026    38.597    4.406
O    74.833    39.372    5.476
C    75.168    37.102    4.514
C    75.374    36.374    3.327
O    75.091    36.474    5.704
H    75.7846    32.8007    -4.171
H    76.4943    31.2594    -2.8262
H    77.3031    30.3875    0.5119
H    76.821    32.2698    1.3355
H    74.8626    37.6369    -0.4485
H    75.3158    38.8354    0.9349
H    74.8381    40.9642    3.6641
H    74.8164    38.8323    6.2577
H    75.4668    35.295    3.3751
H    74.9508    37.1152    6.3907
