196

N    -6.783    11.636    5.818
C    -8.259    11.538    5.965
C    -8.793    10.262    5.32
O    -9.63    10.312    4.418
C    -8.896    12.767    5.315
O    -10.309    12.699    5.389
C    -8.52    12.935    3.858
H    -6.4579    12.4858    6.2518
H    -6.5427    11.6452    4.8391
H    -6.3476    10.8435    6.2635
H    -8.512    11.5236    7.0354
H    -8.5528    13.6547    5.8666
H    -10.6164    11.958    4.88
H    -9.0098    13.8334    3.4542
N    -8.303    9.12    5.791
C    -8.729    7.829    5.261
C    -8.953    6.825    6.386
O    -8.454    7.0    7.498
C    -7.694    7.257    4.275
C    -7.276    8.325    3.263
C    -8.256    6.036    3.563
C    -6.02    7.971    2.495
H    -8.8484    12.0519    3.2904
H    -7.4287    13.0419    3.7709
H    -7.6259    9.1461    6.5265
H    -9.6788    7.9745    4.7257
H    -6.8041    6.949    4.8435
H    -7.0997    9.2667    3.8034
H    -8.0966    8.4631    2.5436
H    -8.5502    5.2809    4.3068
H    -7.4889    5.6147    2.8966
H    -9.1353    6.3293    2.9707
H    -5.7812    8.7806    1.7896
N    -9.707    5.77    6.091
C    -9.998    4.735    7.079
C    -8.711    4.158    7.661
O    -7.617    4.652    7.387
C    -10.831    3.618    6.446
O    -11.808    3.135    7.352
H    -6.1816    7.0359    1.9388
H    -5.1848    7.8395    3.1986
H    -10.0843    5.6833    5.169
H    -10.5789    5.1873    7.8963
H    -10.1649    2.7903    6.161
N    -8.851    3.112    8.469
C    -7.699    2.469    9.092
C    -7.358    1.157    8.385
O    -8.132    0.202    8.432
C    -7.979    2.204    10.573
C    -7.418    3.289    11.471
O    -6.569    4.078    11.055
N    -7.89    3.333    12.711
H    -11.3344    4.009    5.5495
H    -12.3102    2.4442    6.9358
H    -9.7675    2.7574    8.6543
H    -6.8353    3.1454    9.0114
H    -7.5221    1.2432    10.8524
H    -9.0674    2.1497    10.7224
N    -6.19    1.089    7.72
C    -5.759    -0.118    7.008
C    -5.437    -1.268    7.96
O    -5.111    -1.046    9.126
C    -4.496    0.331    6.268
C    -3.986    1.485    7.057
C    -5.199    2.177    7.608
H    -7.5566    4.0276    13.3485
H    -8.5789    2.6716    13.0075
H    -6.534    -0.4433    6.2984
H    -4.7377    0.6403    5.2404
H    -3.7529    -0.4796    6.2418
H    -3.3415    1.1331    7.876
H    -3.4166    2.1686    6.4101
N    -5.523    -2.517    7.471
C    -5.239    -3.705    8.284
C    -3.883    -3.619    8.981
O    -3.075    -2.74    8.678
C    -5.246    -4.844    7.263
C    -6.118    -4.356    6.16
C    -5.905    -2.87    6.091
H    -4.9868    2.6195    8.5925
H    -5.5509    2.9612    6.9216
H    -6.0243    -3.8514    9.0402
H    -5.6595    -5.7612    7.7076
H    -4.2284    -5.0414    6.8948
H    -5.8312    -4.8279    5.2087
H    -7.1723    -4.5814    6.378
N    -3.615    -4.534    9.929
C    -2.348    -4.556    10.669
C    -1.171    -4.979    9.797
O    -1.35    -5.625    8.764
C    -2.598    -5.591    11.769
C    -3.649    -6.487    11.214
C    -4.523    -5.617    10.353
H    -5.1009    -2.6198    5.3834
H    -6.8292    -2.353    5.7936
H    -2.138    -3.5667    11.1016
H    -2.9515    -5.1018    12.6886
H    -1.6799    -6.1573    11.9845
H    -3.1914    -7.285    10.6109
H    -4.2384    -6.9346    12.0278
N    0.034    -4.611    10.222
C    1.243    -4.954    9.482
C    1.902    -6.2    10.064
O    1.866    -6.425    11.274
C    2.23    -3.783    9.508
C    2.067    -2.768    8.375
C    2.851    -1.499    8.675
C    2.514    -3.371    7.051
H    -4.9014    -6.1761    9.4846
H    -5.3703    -5.2173    10.9294
H    0.1132    -4.0863    11.0696
H    0.9665    -5.1594    8.4373
H    3.2484    -4.195    9.4517
H    2.1018    -3.2511    10.4623
H    1.0016    -2.5062    8.2948
H    2.7206    -0.7837    7.8496
H    3.9179    -1.744    8.7827
H    2.4812    -1.0518    9.6095
H    1.937    -4.286    6.8515
N    2.51    -7.004    9.198
C    3.184    -8.224    9.63
C    4.686    -8.126    9.402
O    5.138    -7.905    8.279
C    2.648    -9.473    8.894
C    2.167    -9.118    7.488
C    1.524    -10.113    9.689
C    1.945    -10.325    6.603
H    3.5849    -3.6169    7.103
H    2.3431    -2.646    6.2416
H    2.5055    -6.7671    8.2265
H    3.0001    -8.3503    10.7071
H    3.4688    -10.1998    8.8049
H    2.9218    -8.4732    7.0143
H    1.2174    -8.5694    7.5731
H    1.8845    -10.3628    10.6978
H    1.1915    -11.0302    9.1809
H    0.6816    -9.4097    9.7645
H    1.6013    -9.9945    5.6117
N    5.459    -8.296    10.468
C    6.911    -8.229    10.369
C    7.503    -9.614    10.156
O    7.222    -10.544    10.913
C    7.507    -7.599    11.628
O    6.674    -7.82    12.754
H    1.1839    -10.9771    7.0563
H    2.8883    -10.8808    6.4975
H    5.0361    -8.4736    11.3566
H    7.1716    -7.6003    9.5048
H    7.6172    -6.516    11.47
N    8.328    -9.745    9.126
C    8.967    -11.016    8.817
C    10.471    -10.922    9.032
O    11.075    -9.873    8.808
C    8.666    -11.431    7.377
O    9.357    -12.62    7.033
H    8.4946    -8.044    11.8192
H    7.0668    -7.4193    13.5206
H    8.5157    -8.9513    8.5474
H    8.5636    -11.7832    9.4942
H    8.9791    -10.6244    6.6978
N    11.068    -12.02    9.472
C    12.503    -12.057    9.724
C    12.955    -13.457    10.125
O    12.346    -14.097    10.981
C    12.869    -11.048    10.804
H    7.5844    -11.6007    7.2707
H    9.1529    -12.8551    6.1355
H    10.5218    -12.8417    9.6348
H    13.0247    -11.7792    8.7963
H    13.9531    -11.0836    10.9868
N    14.031    -13.925    9.499
C    14.568    -15.25    9.79
C    16.048    -15.168    10.146
O    16.664    -14.106    10.048
C    14.37    -16.178    8.59
C    12.962    -16.74    8.481
C    12.69    -17.774    9.56
C    13.39    -19.09    9.259
N    12.763    -19.803    8.114
H    12.3325    -11.2936    11.7323
H    12.5859    -10.0378    10.4732
H    14.4828    -13.3552    8.8125
H    14.0234    -15.6661    10.6504
H    15.0738    -17.0185    8.6805
H    14.5905    -15.6123    7.6728
H    12.841    -17.2122    7.4949
H    12.2396    -15.9169    8.5846
H    11.6061    -17.9512    9.6203
H    13.0527    -17.3885    10.5243
H    13.3371    -19.7328    10.1501
H    14.4432    -18.8852    9.0166
H    13.254    -20.6673    7.9469
O    16.6826    -16.258    10.5681
H    12.8119    -19.2241    7.2903
H    11.7983    -20.0008    8.329
H    17.026    -16.1052    11.4406
