56

N    -9.263    76.306    121.315
C    -8.585    77.399    120.858
N    -8.156    78.32    121.759
N    -8.33    77.584    119.525
C    -8.729    76.705    118.567
O    -8.473    76.912    117.372
C    -9.48    75.48    118.979
N    -9.945    74.487    118.027
C    -10.144    73.132    118.651
C    -10.886    73.194    120.034
N    -10.39    74.253    120.925
C    -9.723    75.341    120.463
C    -8.766    72.44    118.814
N    -8.865    70.994    118.926
C    -11.193    74.959    117.384
C    -9.387    68.293    115.743
C    -9.54    67.875    117.099
C    -9.36    68.796    118.153
C    -9.026    70.144    117.866
C    -8.873    70.561    116.493
C    -9.055    69.638    115.443
C    -9.581    67.298    114.64
O    -8.769    67.25    113.731
N    -10.659    66.51    114.726
C    -11.116    65.46    113.825
C    -12.29    64.676    114.448
C    -12.137    63.184    114.126
C    -13.285    62.373    114.731
O    -14.4    62.97    114.753
O    -13.135    61.203    115.171
C    -11.475    66.033    112.462
O    -12.083    67.126    112.398
O    -11.148    65.405    111.435
H    -8.3451    78.1857    122.7625
H    -7.6415    79.1529    121.4389
H    -7.8281    78.4019    119.2437
H    -10.7594    72.5299    117.9664
H    -10.7576    72.226    120.5405
H    -11.9554    73.3708    119.8465
H    -10.5549    74.166    121.938
H    -8.2837    72.8295    119.7227
H    -8.1467    72.6818    117.9377
H    -8.8102    70.581    119.868
H    -11.0228    75.9491    116.936
H    -11.9901    75.0301    118.1387
H    -11.4929    74.2484    116.5997
H    -9.7957    66.8451    117.3204
H    -9.477    68.4733    119.1812
H    -8.6167    71.5899    116.2677
H    -8.9417    69.9549    114.4126
H    -11.2367    66.6646    115.5275
H    -10.2843    64.7548    113.6806
H    -13.2391    65.0453    114.0323
H    -12.2877    64.8177    115.5388
H    -11.184    62.8224    114.5395
H    -12.1376    63.0495    113.0343
