55

C    -5.475    1.106    -6.245
C    -5.974    0.521    -5.084
C    -5.375    0.791    -3.855
C    -4.271    1.638    -3.792
C    -3.77    2.219    -4.954
C    -4.379    1.963    -6.18
C    -4.008    2.821    -7.395
O    -2.58    2.891    -7.484
N    -4.598    4.132    -7.076
C    -5.341    4.629    -8.246
C    -5.078    6.096    -8.593
C    -3.696    6.332    -9.207
C    -2.594    6.515    -8.158
C    -2.373    5.273    -7.287
N    -3.616    4.93    -6.575
C    -3.98    5.609    -5.493
O    -5.263    5.688    -5.056
C    -2.932    6.422    -4.738
C    -3.309    6.533    -3.261
N    -2.542    7.666    -2.726
C    -2.866    5.393    -2.345
C    -3.491    5.17    -1.122
C    -4.528    5.989    -0.703
C    -5.021    5.943    0.599
F    -6.131    6.644    0.893
C    -4.437    5.068    1.51
F    -4.6    5.221    2.839
C    -3.459    4.187    1.07
C    -2.99    4.217    -0.239
F    -1.995    3.378    -0.572
H    -5.9403    0.8941    -7.2009
H    -6.8282    -0.1443    -5.1362
H    -5.7676    0.3426    -2.9495
H    -3.8013    1.8451    -2.8372
H    -2.9054    2.871    -4.9043
H    -6.416    4.5118    -8.0446
H    -5.0617    4.0157    -9.1154
H    -5.158    6.6928    -7.6724
H    -5.8413    6.4274    -9.3124
H    -3.7399    7.2376    -9.8298
H    -3.4401    5.4665    -9.8358
H    -2.8706    7.3551    -7.5041
H    -1.653    6.7489    -8.6774
H    -1.5784    5.4783    -6.5546
H    -2.074    4.4287    -7.9255
H    -2.8718    7.4302    -5.1738
H    -1.9545    5.9253    -4.8265
H    -4.3949    6.6856    -3.1748
H    -2.755    7.7839    -1.7478
H    -2.7885    8.5052    -3.227
H    -1.5563    7.4863    -2.8359
H    -1.8019    5.5644    -2.1253
H    -2.9757    4.4652    -2.9256
H    -4.9676    6.6848    -1.4084
H    -3.0515    3.4591    1.7622
