69

C    47.722    4.805    69.194
N    48.131    5.52    67.961
C    47.322    5.135    66.783
C    49.577    5.354    67.686
C    50.042    3.9    67.508
C    51.459    3.882    66.938
C    52.505    3.647    68.051
C    52.34    2.606    68.978
C    53.612    4.505    68.133
C    54.578    4.307    69.135
C    55.8    5.248    69.245
F    55.429    6.411    69.789
F    56.75    4.674    70.006
F    56.306    5.518    68.037
C    54.408    3.265    70.061
C    53.276    2.415    70.003
N    53.144    1.38    70.859
C    53.619    1.327    72.115
O    54.197    2.252    72.677
C    53.39    0.011    72.886
C    53.613    0.003    74.262
C    53.007    -1.171    72.235
C    52.821    -2.345    72.976
C    53.04    -2.342    74.369
C    52.835    -3.65    75.16
C    53.422    -1.16    75.022
N    53.676    -1.123    76.347
C    52.805    -0.948    77.332
N    51.518    -0.725    77.031
C    50.591    -0.539    77.961
C    50.937    -0.559    79.309
C    52.266    -0.767    79.676
C    53.224    -0.981    78.679
C    54.554    -1.173    79.075
C    54.895    -1.131    80.42
C    56.23    -1.313    80.779
N    57.141    -1.504    79.841
C    56.799    -1.513    78.562
N    55.538    -1.341    78.184
H    46.6451    4.9522    69.3631
H    48.2853    5.2013    70.0517
H    47.9321    3.7311    69.0819
H    47.9683    6.5014    68.1236
H    47.6686    5.6944    65.9015
H    46.2639    5.3684    66.9726
H    47.4323    4.0561    66.5992
H    50.1365    5.7906    68.5265
H    49.814    5.9033    66.763
H    49.3625    3.3803    66.8165
H    50.033    3.3907    68.4829
H    51.6628    4.8475    66.452
H    51.5371    3.0741    66.1956
H    51.4835    1.9461    68.9005
H    53.7222    5.3187    67.4254
H    55.1541    3.1087    70.8317
H    52.6466    0.5781    70.5279
H    53.94    0.9122    74.7534
H    52.8554    -1.1759    71.1617
H    52.5086    -3.256    72.4785
H    52.5398    -4.4537    74.4694
H    52.0453    -3.504    75.9117
H    53.7737    -3.9253    75.663
H    54.6601    -1.2447    76.6256
H    49.5603    -0.3708    77.6703
H    50.1778    -0.4137    80.069
H    52.5535    -0.763    80.7212
H    54.1379    -0.96    81.1767
H    56.5194    -1.2979    81.8235
H    57.5637    -1.6638    77.8086
