130

N    18.219    1.275    1.974
C    18.24    1.29    0.524
N    16.344    2.122    4.685
C    19.162    0.219    -0.029
C    18.802    2.618    0.065
C    17.876    3.717    0.489
C    18.402    4.831    1.174
O    20.463    0.495    0.465
C    17.537    5.858    1.566
C    16.167    5.753    1.267
O    16.03    0.809    2.163
C    15.656    4.635    0.591
C    16.511    3.615    0.194
C    17.255    1.107    4.168
C    17.111    1.043    2.675
C    17.046    -0.227    4.897
C    12.51    5.696    11.064
C    11.714    6.848    11.03
N    16.104    4.6    7.175
C    12.15    7.993    10.357
C    13.393    7.984    9.711
C    14.196    6.839    9.746
O    18.054    3.041    5.789
C    16.004    4.25    5.787
C    16.892    3.084    5.43
C    16.403    5.468    4.977
O    14.848    -3.832    -7.494
C    15.889    -4.397    -7.794
O    15.936    -5.073    -9.063
C    14.699    -5.086    -9.797
C    13.822    -6.286    -9.506
C    12.772    -6.571    -10.393
C    11.927    -7.661    -10.174
C    12.119    -8.492    -9.067
C    13.169    -8.211    -8.171
C    14.024    -7.118    -8.397
N    16.979    -4.421    -7.054
C    16.89    -4.335    -5.61
C    17.483    -5.586    -4.982
C    17.604    -3.085    -5.199
O    18.734    -2.862    -5.63
N    16.887    -2.282    -4.417
C    17.308    -0.979    -3.929
C    16.727    0.151    -4.816
C    16.858    -0.059    -6.312
C    17.28    1.542    -4.462
C    16.85    -0.957    -2.491
O    15.831    -0.387    -2.161
N    17.587    -1.687    -1.645
C    17.473    -1.692    -0.197
C    17.322    -3.095    0.409
C    16.722    -4.183    -0.447
C    15.424    -4.052    -0.92
C    14.877    -5.063    -1.692
C    15.608    -6.226    -1.975
C    16.916    -6.371    -1.502
C    17.464    -5.345    -0.729
C    18.752    -1.177    0.429
O    19.783    -2.079    0.065
C    17.569    -0.169    6.329
C    17.697    -1.379    4.116
C    15.152    4.393    8.064
O    13.989    4.139    7.816
O    15.574    4.507    9.445
C    14.592    4.453    10.469
C    13.742    5.696    10.412
H    19.0717    1.4459    2.4677
H    17.2202    1.146    0.1378
H    15.3631    2.0983    4.4919
H    19.1554    0.2575    -1.1283
H    18.8964    2.6187    -1.0309
H    19.7918    2.7753    0.5184
H    19.4618    4.891    1.3939
H    21.07    -0.1584    0.1378
H    17.9183    6.7245    2.094
H    15.4943    6.5495    1.5639
H    14.5951    4.5673    0.3788
H    16.1268    2.7516    -0.337
H    18.2843    1.4303    4.3824
H    15.9639    -0.4193    4.9433
H    12.171    4.8124    11.5926
H    10.752    6.8517    11.5296
H    16.951    5.029    7.4888
H    11.5303    8.8821    10.3351
H    13.7337    8.8669    9.1824
H    15.1648    6.8377    9.2596
H    14.9622    3.9814    5.5581
H    16.337    5.2327    3.9045
H    17.4357    5.7525    5.2271
H    15.7257    6.3024    5.2116
H    14.9344    -5.0822    -10.8715
H    14.1359    -4.1762    -9.5418
H    12.6152    -5.9373    -11.2584
H    11.1179    -7.8636    -10.8663
H    11.4679    -9.3424    -8.8999
H    13.3187    -8.8413    -7.3019
H    14.8405    -6.9188    -7.7124
H    17.8745    -4.4992    -7.4921
H    15.8347    -4.2603    -5.3087
H    17.4126    -5.515    -3.8866
H    18.5388    -5.6789    -5.2763
H    16.9266    -6.4693    -5.3286
H    15.9807    -2.6024    -4.1413
H    18.4049    -0.9021    -3.9592
H    15.6489    0.1714    -4.5987
H    16.4158    0.7972    -6.8425
H    16.3314    -0.9807    -6.6004
H    17.9217    -0.1457    -6.5784
H    17.1907    1.7071    -3.3781
H    16.7064    2.3121    -4.9986
H    18.3383    1.6016    -4.756
H    18.2806    -2.2845    -2.0473
H    16.6173    -1.0637    0.0911
H    16.6884    -2.9973    1.3029
H    18.3263    -3.4312    0.7064
H    14.8437    -3.1665    -0.6873
H    13.8716    -4.9543    -2.0824
H    15.1567    -7.0166    -2.5635
H    17.492    -7.2604    -1.7304
H    18.4717    -5.4448    -0.3421
H    18.6304    -1.1647    1.5222
H    20.605    -1.7872    0.4415
H    17.403    -1.1395    6.8195
H    17.0355    0.6177    6.8826
H    18.6456    0.0565    6.3174
H    17.3014    -1.3958    3.0897
H    17.4688    -2.3337    4.6125
H    18.7868    -1.2323    4.0865
H    15.0869    4.3913    11.4494
H    13.9569    3.5669    10.3224
