37

N    -6.266    39.961    45.557
C    -5.621    38.89    46.016
C    -4.396    39.265    46.356
C    -4.281    40.566    46.109
C    -5.444    41.011    45.613
C    -5.728    42.358    45.25
C    -4.577    43.372    45.419
C    -7.025    42.804    44.764
C    -7.35    44.088    44.277
C    -6.632    45.293    44.086
C    -8.21    42.057    44.668
O    -8.381    40.894    45.033
N    -9.186    42.807    44.162
C    -8.715    44.035    43.911
C    -9.34    45.167    43.364
C    -8.618    46.354    43.174
C    -7.254    46.428    43.532
N    -6.518    47.559    43.385
C    -6.931    48.737    42.85
O    -8.048    48.911    42.349
N    -6.027    49.708    42.83
H    -7.2376    39.9764    45.2156
H    -6.0284    37.8834    46.0976
H    -3.6199    38.6203    46.7658
H    -3.3909    41.1694    46.2809
H    -5.4201    42.1503    44.2146
H    -3.6827    42.8524    45.7936
H    -4.8763    44.1502    46.1364
H    -4.3515    43.836    44.4475
H    -7.2569    43.0985    45.7981
H    -5.5872    45.3426    44.3707
H    -10.1235    42.5015    43.9955
H    -10.3871    45.1231    43.0869
H    -9.1105    47.2212    42.7492
H    -5.5712    47.5208    43.7045
H    -6.2624    50.6026    42.4502
H    -5.1102    49.5452    43.1948
