16

P    60.255    8.759    26.936
O    60.301    10.205    27.3
O    59.185    8.418    25.96
O    61.593    8.275    26.478
O    60.972    9.935    31.715
O    60.255    8.403    33.135
C    59.809    7.855    28.338
C    59.927    7.932    30.873
C    60.422    8.816    31.998
N    60.229    8.53    29.561
H    60.287    6.8653    28.293
H    58.7158    7.7339    28.3532
H    58.8386    7.8039    30.9681
H    60.4192    6.9508    30.9431
H    59.8008    9.4425    29.5516
H    61.2309    8.6284    29.5098
