185

N    71.093    -27.117    48.622
C    71.945    -25.988    48.964
C    73.322    -26.511    49.415
O    73.421    -27.502    50.153
C    71.3    -25.166    50.112
C    72.094    -23.967    50.426
C    69.893    -24.758    49.741
N    74.374    -25.822    49.003
C    75.726    -26.122    49.478
C    76.213    -25.181    50.602
O    76.169    -23.944    50.478
C    76.719    -26.149    48.292
C    78.179    -25.944    48.727
C    79.159    -25.876    47.552
O    78.825    -26.45    46.483
O    80.251    -25.252    47.702
N    76.671    -25.771    51.705
C    77.255    -25.002    52.814
C    78.496    -24.171    52.406
O    79.38    -24.647    51.679
C    77.584    -25.966    53.931
C    78.014    -25.327    55.267
C    78.242    -26.411    56.272
O    78.677    -27.483    55.894
N    77.913    -26.175    57.534
N    78.555    -22.909    52.83
C    79.74    -22.054    52.554
C    80.654    -22.032    53.776
O    80.163    -22.145    54.893
C    79.324    -20.597    52.401
C    78.536    -20.31    51.168
N    77.184    -20.585    51.062
C    78.899    -19.741    49.992
C    76.754    -20.207    49.869
N    77.776    -19.696    49.198
N    81.952    -21.793    53.572
C    82.887    -21.542    54.692
C    82.528    -20.241    55.41
O    81.939    -19.37    54.799
C    84.333    -21.367    54.18
C    84.86    -22.538    53.406
N    85.809    -22.399    52.419
C    84.585    -23.864    53.48
C    86.097    -23.59    51.917
N    85.358    -24.494    52.534
N    82.955    -20.082    56.672
C    82.883    -18.781    57.361
C    83.958    -17.909    56.704
O    84.881    -18.449    56.101
C    83.066    -18.918    58.896
C    84.531    -19.157    59.4
C    84.513    -19.308    60.894
N    85.862    -19.261    61.485
C    86.636    -20.326    61.656
N    87.854    -20.212    62.227
N    86.185    -21.507    61.223
N    83.796    -16.588    56.775
C    84.741    -15.627    56.24
C    85.586    -15.211    57.411
O    85.081    -15.117    58.526
C    84.013    -14.366    55.758
C    82.981    -14.565    54.641
C    83.605    -15.296    53.446
N    84.96    -14.825    53.083
C    85.163    -13.871    52.174
N    86.39    -13.464    51.851
N    84.102    -13.315    51.59
N    86.868    -14.986    57.164
C    87.766    -14.453    58.16
C    88.751    -13.585    57.351
O    88.853    -13.731    56.137
C    88.494    -15.569    58.933
O    89.329    -14.956    59.942
C    89.431    -16.396    57.983
N    89.409    -12.649    58.003
C    90.423    -11.781    57.392
C    91.534    -12.644    56.755
O    91.967    -13.649    57.339
C    91.064    -10.891    58.472
C    90.045    -10.235    59.375
O    89.674    -9.109    59.065
O    89.57    -10.825    60.38
N    92.01    -12.236    55.594
C    93.095    -12.956    54.831
C    92.853    -14.455    54.577
O    93.785    -15.244    54.795
C    94.462    -12.845    55.513
C    94.85    -11.415    55.817
O    95.155    -11.069    56.964
N    94.82    -10.568    54.798
N    91.63    -14.84    54.161
C    91.278    -16.246    53.865
C    91.445    -16.625    52.372
O    92.079    -15.833    51.64
C    89.893    -16.597    54.394
C    88.749    -15.769    53.736
O    89.057    -14.86    52.923
O    87.553    -16.02    54.053
O    91.007    -17.674    51.831
H    71.5185    -27.6453    47.8764
H    70.1917    -26.7792    48.3225
H    70.9786    -27.7086    49.4301
H    72.069    -25.3439    48.081
H    71.2574    -25.8005    51.0095
H    71.6096    -23.4096    51.2413
H    72.1607    -23.3273    49.5336
H    73.105    -24.268    50.7378
H    69.3009    -25.6549    49.5066
H    69.9224    -24.098    48.8615
H    69.4315    -24.2242    50.5848
H    74.242    -25.0765    48.3497
H    75.6974    -27.1354    49.9049
H    76.447    -25.3482    47.5886
H    76.6369    -27.1233    47.788
H    78.4706    -26.7827    49.3763
H    78.2458    -25.0025    49.2918
H    76.616    -26.7666    51.7811
H    76.4926    -24.2967    53.1764
H    78.4046    -26.6129    53.5873
H    76.6902    -26.578    54.1223
H    77.2225    -24.6522    55.6251
H    78.9436    -24.7572    55.1214
H    78.0541    -26.8811    58.2279
H    77.5237    -25.2908    57.7923
H    77.7863    -22.529    53.3445
H    80.2685    -22.4164    51.66
H    80.2339    -19.9793    52.3798
H    78.7129    -20.3199    53.2726
H    79.8934    -19.386    49.7256
H    75.7333    -20.3001    49.501
H    77.7363    -19.3253    48.2379
H    82.3025    -21.7833    52.6355
H    82.8387    -22.386    55.3958
H    84.9886    -21.205    55.0483
H    84.3627    -20.4817    53.5278
H    83.8825    -24.3408    54.162
H    86.821    -23.7902    51.1285
H    85.3605    -25.5053    52.3384
H    83.3331    -20.8691    57.1593
H    81.8959    -18.3303    57.1805
H    82.4527    -19.7668    59.2326
H    82.6978    -17.992    59.3618
H    85.1613    -18.299    59.1232
H    84.9347    -20.0717    58.9413
H    84.0521    -20.2748    61.1448
H    83.9119    -18.4929    61.3232
H    86.227    -18.3454    61.7839
H    88.4437    -21.047    62.3533
H    88.1935    -19.2901    62.5363
H    85.253    -21.575    60.7898
H    86.7694    -22.3493    61.3224
H    82.9736    -16.2387    57.2241
H    85.3429    -16.0676    55.4315
H    84.7723    -13.6596    55.3913
H    83.4919    -13.9283    56.6222
H    82.6134    -13.5823    54.3105
H    82.1405    -15.1596    55.0284
H    82.9473    -15.1566    52.5754
H    83.6668    -16.3665    53.6912
H    85.7749    -15.249    53.5489
H    86.5183    -12.7249    51.1452
H    87.2102    -13.8885    52.3072
H    83.1533    -13.6292    51.8393
H    84.2307    -12.5711    50.8893
H    87.2266    -15.1932    56.2538
H    87.2112    -13.8308    58.8777
H    87.7555    -16.2363    59.4013
H    89.7853    -15.6329    60.4279
H    89.9363    -17.1836    58.5612
H    90.1832    -15.7283    57.5377
H    88.8301    -16.8556    57.1845
H    89.2055    -12.5217    58.9738
H    89.9523    -11.1521    56.622
H    91.6509    -10.1042    57.9755
H    91.7307    -11.5121    59.0883
H    91.6296    -11.401    55.1964
H    93.1616    -12.4625    53.8502
H    95.2226    -13.2822    54.8494
H    94.4309    -13.4091    56.4568
H    95.0663    -9.6089    54.9376
H    94.5511    -10.888    53.8896
H    90.9251    -14.1399    54.0467
H    91.9943    -16.868    54.4217
H    89.8772    -16.4125    55.4783
H    89.7064    -17.6637    54.2008
