61

N    -57.081    28.761    0.516
C    -55.693    28.294    0.385
C    -55.573    27.086    -0.536
O    -56.503    26.287    -0.644
C    -55.287    27.951    1.819
C    -55.247    29.166    2.722
O    -54.594    30.161    2.345
O    -55.856    29.124    3.813
N    -54.43    26.966    -1.203
C    -54.183    25.858    -2.114
C    -52.952    25.081    -1.661
O    -52.114    25.608    -0.925
C    -53.957    26.381    -3.534
C    -55.08    27.247    -4.067
C    -54.877    27.623    -5.522
O    -53.88    28.257    -5.885
N    -55.824    27.228    -6.369
N    -52.843    23.831    -2.106
C    -51.708    22.993    -1.742
C    -50.651    22.949    -2.841
O    -50.965    23.083    -4.026
C    -52.171    21.568    -1.433
C    -53.069    21.451    -0.216
S    -54.677    20.752    -0.627
C    -55.622    22.237    -0.909
N    -49.399    22.759    -2.427
C    -48.256    22.674    -3.33
C    -47.612    21.308    -3.265
O    -47.766    20.608    -4.49
C    -47.181    23.689    -2.942
C    -47.361    25.023    -3.622
O    -46.942    26.039    -3.028
O    -47.914    25.059    -4.743
H    -57.1105    29.5582    1.1321
H    -57.65    28.0211    0.8965
H    -57.4341    29.024    -0.3908
H    -55.0574    29.1006    -0.009
H    -54.2872    27.4926    1.8015
H    -56.0127    27.2326    2.2279
H    -53.7187    27.6572    -1.0753
H    -55.0558    25.1886    -2.1105
H    -53.8407    25.5169    -4.2047
H    -53.0318    26.9759    -3.5386
H    -55.1313    28.168    -3.4677
H    -56.027    26.6953    -3.9732
H    -55.747    27.4456    -7.342
H    -56.6128    26.7135    -6.0326
H    -53.5547    23.4596    -2.7023
H    -51.248    23.4168    -0.8371
H    -51.2798    20.9457    -1.264
H    -52.723    21.1888    -2.3056
H    -53.2169    22.4528    0.2136
H    -52.5793    20.8026    0.5255
H    -56.6547    21.9691    -1.1768
H    -55.1673    22.8106    -1.7301
H    -55.6272    22.8476    0.0059
H    -49.2338    22.6699    -1.4448
H    -48.5989    22.872    -4.3562
H    -47.0965    20.9122    -2.3912
H    -46.1976    23.2827    -3.2209
H    -47.2192    23.842    -1.8534
