24

C    -5.906    3.304    15.262
C    -5.118    2.244    15.713
C    -3.718    2.188    15.438
C    -3.123    3.227    14.687
C    -5.293    4.346    14.504
C    -3.901    4.278    14.242
C    -3.529    5.472    13.45
C    -4.75    6.176    13.114
C    -5.859    5.568    13.909
S    -5.85    0.93    16.677
O    -7.265    0.989    16.473
O    -5.33    1.071    18.003
N    -5.311    -0.426    16.13
H    -6.9666    3.3352    15.484
H    -3.1196    1.3599    15.8003
H    -2.063    3.1993    14.4617
H    -3.0088    5.1647    12.5308
H    -2.8713    6.1247    14.0428
H    -4.9589    6.0716    12.0391
H    -4.6492    7.242    13.3661
H    -6.1918    6.2603    14.6963
H    -6.7086    5.3196    13.256
H    -5.6084    -1.2861    16.5445
H    -4.6677    -0.4361    15.3644
