27

O    -4.702    22.22    -14.836
C    -6.034    21.743    -14.759
C    -6.257    20.71    -15.845
O    -6.245    19.417    -15.225
C    -7.59    20.991    -16.54
O    -7.529    22.259    -17.212
C    -7.917    19.849    -17.504
O    -9.178    20.061    -18.143
C    -9.043    20.256    -19.559
C    -7.895    18.515    -16.759
O    -8.179    17.451    -17.672
C    -6.517    18.324    -16.112
O    -6.427    17.1    -15.368
H    -4.5591    22.868    -14.1562
H    -6.7334    22.5805    -14.8987
H    -6.204    21.2838    -13.774
H    -5.4465    20.7663    -16.5865
H    -8.383    21.0402    -15.7793
H    -8.3591    22.4286    -17.6418
H    -7.1406    19.8219    -18.2827
H    -10.0366    20.4144    -20.0037
H    -8.5776    19.3667    -20.0089
H    -8.4116    21.1363    -19.7494
H    -8.6632    18.5253    -15.9718
H    -8.1646    16.6232    -17.2061
H    -5.7586    18.3076    -16.9085
H    -5.5529    17.0144    -15.0058
