32

C    16.216    37.289    -2.691
C    16.882    38.507    -2.587
C    18.086    38.719    -3.265
C    18.643    37.719    -4.051
C    17.974    36.484    -4.173
C    16.756    36.284    -3.499
C    18.489    35.443    -4.96
C    17.715    34.167    -5.235
C    16.238    34.387    -4.891
O    16.092    35.094    -3.592
O    19.614    35.548    -5.462
C    15.322    33.106    -4.922
C    15.9    31.714    -5.304
C    14.922    30.716    -5.277
C    13.587    30.889    -4.972
C    13.118    32.138    -4.628
C    13.973    33.239    -4.598
O    12.743    29.844    -4.981
O    16.379    39.5    -1.817
O    19.837    37.96    -4.689
H    15.2852    37.121    -2.1493
H    18.593    39.6797    -3.1757
H    18.1156    33.3582    -4.6239
H    17.8091    33.9028    -6.2883
H    15.8703    35.0098    -5.7065
H    16.9442    31.5375    -5.5622
H    15.2445    29.7036    -5.5202
H    12.0654    32.267    -4.3761
H    13.5812    34.2167    -4.3174
H    12.0347    30.0115    -5.607
H    15.5554    39.2088    -1.419
H    20.4927    37.3266    -4.3883
