93

C    15.754    22.363    8.091
C    12.838    23.209    3.882
C    13.376    23.745    5.238
C    17.153    22.611    7.856
C    14.567    22.956    5.842
C    18.148    21.808    8.496
C    17.752    20.745    9.37
C    16.36    20.491    9.614
C    15.361    21.293    8.976
C    8.241    24.153    2.71
C    7.78    23.111    3.582
C    6.409    23.047    3.951
C    5.496    24.028    3.452
C    5.941    25.076    2.576
C    7.33    25.139    2.203
C    9.73    24.212    2.34
C    5.353    27.785    5.896
C    11.959    24.212    3.134
O    8.234    28.037    5.092
N    8.199    26.093    6.317
C    14.643    23.19    7.39
O    15.707    23.579    5.26
O    6.29    26.806    5.423
C    14.579    21.422    5.604
O    13.582    20.72    5.827
N    15.766    20.917    5.182
C    15.967    19.452    4.941
C    15.985    19.058    3.502
C    17.037    18.105    3.347
C    15.16    19.48    2.389
C    15.439    18.901    1.08
C    16.516    17.929    0.925
C    17.365    19.126    5.499
O    18.344    20.119    5.151
C    7.665    27.063    5.581
C    17.329    17.52    2.063
C    17.729    17.858    4.687
C    9.623    26.015    6.693
C    9.848    26.048    8.247
C    9.378    27.399    8.797
C    9.027    24.973    8.951
C    9.978    24.839    5.793
N    10.588    24.024    3.493
O    10.017    23.686    6.26
N    10.233    25.109    4.502
Br    3.73    23.907    3.965
C    11.31    25.94    8.636
H    12.2445    22.3035    4.0765
H    13.6965    22.9545    3.2431
H    12.55    23.7203    5.964
H    13.7003    24.7851    5.0867
H    17.4536    23.4115    7.1897
H    19.1996    22.0034    8.32
H    18.5055    20.1302    9.8489
H    16.0652    19.6903    10.2827
H    14.3104    21.097    9.1573
H    8.4777    22.3723    3.9595
H    6.0574    22.2589    4.607
H    5.2387    25.8112    2.2
H    7.6845    25.9242    1.5451
H    9.9457    25.1942    1.8942
H    9.9444    23.4212    1.6061
H    4.3283    27.4367    5.6994
H    5.523    28.7378    5.3734
H    5.4895    27.9306    6.9777
H    12.0757    24.0616    2.0506
H    12.2676    25.2344    3.3976
H    7.5927    25.3654    6.6381
H    14.8378    24.2574    7.5709
H    13.6738    22.9142    7.8311
H    15.6939    24.5082    5.4573
H    16.5306    21.5426    5.027
H    15.1862    18.8822    5.4661
H    14.3624    20.2015    2.5243
H    14.8456    19.1931    0.2212
H    16.7145    17.5043    -0.0524
H    17.3446    18.9562    6.5856
H    18.0782    20.9608    5.5019
H    18.129    16.7977    1.9471
H    18.8179    17.7677    4.5601
H    17.3399    16.951    5.1728
H    10.1623    26.8962    6.3154
H    9.534    27.426    9.8855
H    8.3087    27.5327    8.5765
H    9.954    28.2079    8.3239
H    9.3316    23.9811    8.5858
H    7.9591    25.1296    8.739
H    9.1981    25.0327    10.036
H    10.4511    23.1059    3.886
H    10.1881    26.0585    4.1913
H    11.8856    26.7221    8.1193
H    11.6942    24.9507    8.347
H    11.4105    26.069    9.7238
