21

N    38.074    20.531    22.212
C    38.08    20.395    23.611
C    38.316    21.533    24.423
C    38.541    22.785    23.848
N    38.516    22.947    22.445
C    38.29    21.814    21.619
N    38.375    21.718    25.76
C    38.634    23.018    25.992
N    38.721    23.669    24.845
C    38.742    24.283    21.825
C    37.833    19.322    21.38
O    38.279    21.929    20.393
O    37.88    19.261    24.068
Cl    38.808    23.699    27.356
H    38.8962    24.6779    24.7342
H    38.8977    25.0323    22.6152
H    37.8641    24.5614    21.2236
H    39.6311    24.2416    21.1787
H    37.6927    18.4488    22.0341
H    38.6975    19.1517    20.7215
H    36.9305    19.4712    20.7691
