52

O    34.726    34.349    -1.162
C    33.904    33.517    -0.292
C    34.692    32.358    0.388
C    35.907    32.828    1.212
O    35.474    33.862    2.1
O    37.804    32.037    2.625
C    37.043    30.551    0.924
O    37.211    29.303    1.629
N    35.297    31.503    -0.643
C    34.417    31.361    -1.813
C    35.087    30.419    -2.78
C    35.94    30.29    -0.096
C    34.541    30.759    -4.16
C    35.132    29.894    -5.271
C    34.396    30.356    -6.54
C    35.21    30.024    -7.785
C    35.816    31.288    -8.366
C    38.112    31.666    -9.096
C    36.837    30.937    -9.439
C    36.611    31.642    1.916
H    35.4265    34.741    -0.654
H    33.0929    33.0803    -0.8931
H    33.4748    34.1545    0.495
H    34.0026    31.783    1.0237
H    36.6389    33.2697    0.5198
H    36.212    34.1638    2.6166
H    37.5785    32.6764    3.2905
H    37.9755    30.8485    0.4221
H    36.3935    29.0666    2.0513
H    36.0748    32.0394    -0.9943
H    34.2658    32.3411    -2.289
H    33.4449    30.9501    -1.5028
H    34.8482    29.3765    -2.5228
H    36.1774    30.5619    -2.7566
H    35.1631    29.6811    0.3894
H    36.3764    29.7273    -0.9344
H    34.7714    31.8124    -4.3773
H    33.4503    30.6168    -4.1492
H    34.9439    28.8277    -5.0772
H    36.2147    30.0644    -5.3641
H    34.2388    31.4436    -6.4907
H    33.4226    29.847    -6.5986
H    34.5539    29.5576    -8.5347
H    36.0156    29.3246    -7.5169
H    36.3119    31.8548    -7.5643
H    35.0188    31.9021    -8.8102
H    38.8791    31.438    -9.8507
H    38.4644    31.3422    -8.1056
H    37.9224    32.7494    -9.0816
H    36.4726    31.2587    -10.4258
H    37.0146    29.8515    -9.4497
H    35.8984    31.2101    2.634
