14

N    32.155    33.683    27.721
C    31.507    32.428    28.187
C    32.337    31.206    27.88
O    31.979    30.102    28.327
O    33.357    31.298    27.134
C    31.248    32.456    29.714
O    32.466    32.611    30.464
H    31.5661    34.4692    27.9471
H    32.2905    33.6407    26.723
H    33.0476    33.7897    28.177
H    30.5419    32.3345    27.6675
H    30.7663    31.5124    30.01
H    30.5788    33.2978    29.9454
H    32.886    33.427    30.2186
