87

C    12.871    10.85    52.541
C    13.34    11.168    51.098
N    13.775    12.362    50.678
C    14.102    12.268    49.39
C    14.602    13.209    48.478
C    14.86    12.811    47.16
C    14.624    11.486    46.757
O    14.882    11.06    45.483
C    14.024    11.676    44.511
C    14.131    10.555    47.672
C    13.869    10.948    48.983
C    13.393    10.24    50.072
C    13.008    8.749    50.117
C    14.262    7.875    49.979
O    14.639    7.458    48.882
N    14.85    7.647    51.151
C    16.076    6.857    51.496
C    17.399    7.565    51.13
C    18.602    6.621    51.337
C    19.773    7.202    52.124
C    21.091    6.462    51.84
C    22.262    7.048    52.629
C    23.631    6.846    51.941
O    24.167    5.734    51.826
N    24.191    7.964    51.522
O    25.409    7.974    50.905
C    16.101    5.323    51.172
O    16.629    4.814    50.181
N    15.571    4.585    52.118
C    15.533    3.112    52.051
C    15.079    2.437    50.73
C    15.158    0.933    51.048
C    14.532    0.403    52.172
C    13.741    1.002    53.164
C    13.217    0.243    54.199
C    13.51    -1.114    54.204
C    14.297    -1.711    53.216
C    14.816    -0.955    52.181
N    15.592    -1.249    51.122
C    15.854    -0.124    50.425
C    16.546    0.0    49.203
C    16.615    -1.109    48.358
C    17.218    -1.033    47.105
C    17.748    0.173    46.657
C    17.661    1.298    47.477
C    17.048    1.213    48.732
H    12.5682    9.7944    52.6039
H    12.0162    11.4925    52.7987
H    13.6958    11.0374    53.2443
H    13.8453    13.2124    51.2549
H    14.7864    14.2309    48.7891
H    15.2444    13.5304    46.446
H    14.2748    11.2982    43.5088
H    14.1639    12.7667    44.5373
H    12.9759    11.435    44.742
H    13.9527    9.5309    47.3645
H    12.3171    8.5267    49.2904
H    12.5155    8.5294    51.0757
H    14.3975    8.075    51.9333
H    16.0679    6.8724    52.5959
H    17.5223    8.4516    51.7694
H    17.3619    7.8757    50.0754
H    18.9749    6.3266    50.3449
H    18.2437    5.73    51.8733
H    19.5494    7.1267    53.1984
H    19.8947    8.2598    51.8481
H    21.3149    6.5363    50.7656
H    20.9707    5.4043    52.1173
H    22.2937    6.564    53.6163
H    22.0916    8.1274    52.7551
H    23.7096    8.8296    51.6602
H    25.3671    7.4472    50.1155
H    15.1768    5.0393    52.9169
H    14.8486    2.7696    52.8411
H    16.55    2.7519    52.2654
H    15.7542    2.6996    49.9022
H    14.0508    2.7306    50.4718
H    13.5381    2.066    53.1208
H    12.6037    0.6907    54.9726
H    13.1145    -1.7318    55.0021
H    14.5022    -2.7744    53.2611
H    15.9341    -2.19    50.8802
H    16.1894    -2.051    48.6846
H    17.2746    -1.9151    46.4775
H    18.2219    0.2374    45.6842
H    18.0706    2.2434    47.1402
H    16.9621    2.1019    49.3464
