48

O    39.36    13.84    56.203
P    39.809    12.621    57.209
O    41.013    13.333    58.094
O    40.204    11.381    56.451
O    38.55    12.313    58.241
P    37.334    13.331    58.492
O    36.709    12.706    59.842
O    37.742    14.749    58.586
O    36.328    13.159    57.302
P    35.22    12.025    57.225
O    34.478    12.421    55.821
O    34.308    12.067    58.4
O    35.955    10.598    57.058
C    36.412    9.839    58.174
C    36.057    8.371    58.092
O    34.635    8.287    58.311
C    36.225    7.767    56.695
O    37.545    7.345    56.512
C    35.315    6.568    56.806
O    35.803    5.658    57.775
C    34.093    7.234    57.417
N    33.142    7.757    56.356
C    32.921    9.049    56.002
N    31.971    9.057    55.042
C    31.461    10.276    54.384
C    31.581    7.795    54.768
C    32.341    6.972    55.616
N    32.199    5.589    55.602
C    31.298    5.014    54.728
N    31.178    3.689    54.713
N    30.532    5.814    53.853
C    30.675    7.206    53.862
O    29.987    7.866    53.09
H    35.9609    10.2557    59.0866
H    37.5067    9.9296    58.2318
H    36.631    7.7997    58.8364
H    35.9214    8.458    55.8948
H    37.7599    6.6889    57.1646
H    35.1245    6.0763    55.8406
H    36.6705    5.3637    57.523
H    33.5429    6.4995    58.0234
H    33.4205    9.9228    56.4178
H    31.9596    11.1588    54.8106
H    30.3758    10.3536    54.5463
H    31.6676    10.224    53.3048
H    31.7412    3.1136    55.3553
H    30.5219    3.2387    54.0591
H    29.8843    5.3841    53.2239
