24

N    32.944    4.626    26.454
C    32.261    4.79    27.765
C    31.722    6.192    27.975
O    30.574    6.393    27.105
C    29.661    7.34    27.492
C    29.612    8.62    26.917
Cl    30.685    9.049    25.621
C    28.678    9.543    27.37
C    27.804    9.22    28.403
C    27.872    7.957    28.981
C    28.787    7.018    28.527
Cl    28.844    5.445    29.257
C    26.818    10.233    28.901
O    26.307    10.16    30.002
O    26.588    11.222    28.075
H    33.2813    3.6801    26.3669
H    33.7205    5.2662    26.3972
H    32.2931    4.8204    25.7093
H    32.9803    4.5662    28.5666
H    31.4226    4.0798    27.8159
H    32.5027    6.9276    27.7313
H    31.4158    6.3161    29.0242
H    28.6297    10.5252    26.9139
H    27.2028    7.7033    29.7952
