78

O    40.996    -5.279    41.757
C    41.002    -5.755    40.625
C    41.418    -7.145    40.515
C    42.747    -7.508    41.109
C    40.564    -8.053    39.952
C    40.786    -9.519    39.76
C    40.028    -9.916    38.49
C    38.518    -10.061    38.66
C    38.15    -11.051    39.778
N    40.643    -4.978    39.591
C    40.877    -5.232    38.261
C    39.876    -4.922    37.356
C    40.043    -5.148    35.988
O    38.992    -4.863    35.163
C    41.224    -5.701    35.498
C    42.246    -6.033    36.413
C    42.069    -5.774    37.777
C    43.544    -6.674    35.966
C    43.459    -8.217    35.86
C    43.291    -8.92    37.219
C    42.366    -8.663    34.846
C    42.131    -10.163    34.705
O    43.361    -10.836    34.361
C    43.382    -12.207    34.692
C    41.099    -10.492    33.626
O    41.647    -9.995    32.385
C    39.742    -9.842    33.921
C    38.782    -10.265    32.814
C    39.136    -10.387    35.21
C    38.398    -9.71    36.137
C    38.046    -8.249    36.016
C    37.875    -10.497    37.318
O    36.486    -10.225    37.433
C    35.59    -11.043    36.665
O    36.062    -11.894    35.929
N    34.308    -10.774    36.857
H    42.9359    -8.5809    40.9567
H    42.74    -7.2863    42.1864
H    43.5395    -6.923    40.6194
H    39.6097    -7.662    39.6023
H    40.397    -10.0777    40.624
H    41.8595    -9.7276    39.6416
H    40.4265    -10.8803    38.1419
H    40.2132    -9.1457    37.7269
H    38.1116    -9.0763    38.9342
H    37.0553    -11.1202    39.8608
H    38.5682    -10.6984    40.7323
H    38.5631    -12.0424    39.5405
H    40.1578    -4.1315    39.81
H    38.9462    -4.4963    37.7157
H    39.2332    -5.0594    34.2654
H    41.3553    -5.8728    34.4358
H    42.8718    -5.9983    38.47
H    44.3291    -6.4164    36.6921
H    43.8112    -6.2702    34.9783
H    44.4244    -8.5534    35.4541
H    43.2384    -10.0079    37.065
H    42.3646    -8.5725    37.6996
H    44.15    -8.6821    37.8636
H    42.652    -8.2764    33.8567
H    41.4157    -8.2051    35.1579
H    41.7678    -10.5466    35.6699
H    44.3492    -12.6404    34.3978
H    42.5709    -12.7252    34.1596
H    43.2424    -12.3245    35.7767
H    40.9625    -11.5817    33.5643
H    42.4754    -10.4261    32.2108
H    39.8447    -8.7479    33.9706
H    37.7943    -9.8154    32.9937
H    38.6902    -11.3611    32.8073
H    39.1691    -9.9235    31.8426
H    39.3133    -11.4417    35.4151
H    38.5055    -7.8353    35.1062
H    38.4226    -7.707    36.896
H    36.9531    -8.1387    35.9575
H    38.051    -11.5701    37.1522
H    33.6091    -11.2929    36.3648
H    34.0386    -10.0519    37.4942
