66

C    17.503    -26.753    114.934
C    17.249    -25.453    114.237
C    17.236    -25.619    112.71
C    18.529    -26.285    112.223
C    18.763    -27.565    113.048
C    20.051    -28.269    112.657
O    16.04    -24.979    114.749
O    17.079    -24.387    112.105
O    19.593    -25.36    112.318
O    18.713    -27.318    114.444
O    20.128    -29.558    113.219
C    15.54    -30.602    117.048
C    16.093    -29.815    115.852
C    16.059    -28.289    116.055
C    14.694    -27.87    116.635
C    14.388    -28.762    117.844
C    13.162    -28.32    118.63
O    17.422    -30.234    115.591
O    16.309    -27.587    114.834
O    13.696    -28.049    115.659
O    14.278    -30.116    117.396
O    13.437    -28.544    120.019
C    13.825    -34.67    118.651
C    14.002    -33.602    117.566
C    15.269    -32.764    117.843
C    16.503    -33.651    118.063
C    17.808    -32.911    118.376
C    15.133    -35.421    118.847
O    14.956    -36.237    119.994
O    12.828    -35.624    118.317
O    12.874    -32.772    117.601
O    15.492    -31.98    116.733
O    16.219    -34.541    119.11
O    17.641    -32.053    119.486
H    17.6587    -26.5467    116.0032
H    18.0487    -24.7419    114.4915
H    16.3859    -26.2599    112.4334
H    18.4132    -26.5695    111.1668
H    17.9365    -28.2517    112.813
H    20.9052    -27.6734    113.0114
H    20.0928    -28.3543    111.5611
H    15.3447    -25.5889    114.5321
H    16.276    -23.984    112.4136
H    20.3921    -25.7645    112.0011
H    19.3954    -30.0799    112.9132
H    16.215    -30.4635    117.9054
H    15.4717    -30.0514    114.9756
H    16.8452    -28.0185    116.7753
H    14.7258    -26.8151    116.945
H    15.2469    -28.7009    118.5285
H    12.2855    -28.9085    118.321
H    12.9674    -27.2519    118.4532
H    17.7398    -29.8045    114.8055
H    13.8849    -27.4966    114.9095
H    13.6084    -29.4674    120.1618
H    13.5425    -34.1717    119.5901
H    14.0869    -34.081    116.5794
H    15.1085    -32.1338    118.7302
H    16.6658    -34.2271    117.1402
H    18.1043    -32.315    117.5002
H    18.5945    -33.6458    118.6026
H    15.3543    -36.0318    117.9593
H    14.2344    -36.837    119.8462
H    12.7457    -36.2547    119.0227
H    12.9583    -32.0969    116.938
H    17.3877    -32.5648    120.2452
