136

N    -71.105    -35.819    20.587
C    -71.552    -36.559    19.333
C    -70.63    -36.319    18.108
O    -71.055    -35.663    17.14
C    -71.758    -38.071    19.597
O    -70.541    -38.727    19.963
N    -69.379    -36.801    18.174
C    -68.453    -36.71    17.029
C    -68.298    -38.045    16.293
O    -67.705    -38.121    15.21
C    -67.091    -36.114    17.431
C    -67.066    -34.588    17.765
C    -67.586    -33.616    16.68
N    -69.038    -33.645    16.69
C    -69.838    -33.228    15.714
N    -69.343    -32.679    14.605
N    -71.158    -33.371    15.868
N    -68.865    -39.087    16.898
C    -68.926    -40.436    16.325
C    -67.973    -41.421    17.033
O    -67.866    -42.591    16.653
C    -70.367    -40.948    16.353
O    -70.729    -41.386    17.65
N    -67.314    -40.942    18.079
C    -66.109    -41.568    18.586
C    -65.267    -40.395    19.057
C    -63.823    -40.523    18.591
C    -63.309    -39.154    18.165
N    -63.145    -38.296    19.346
O    -64.057    -37.546    19.672
C    -62.064    -38.295    20.008
O    -61.955    -37.563    20.977
C    -66.358    -42.492    19.733
O    -67.402    -42.41    20.386
N    -65.381    -43.354    20.019
C    -65.553    -44.435    21.002
C    -65.423    -44.081    22.498
O    -66.214    -44.554    23.327
C    -64.589    -45.581    20.674
C    -64.651    -46.774    21.64
C    -65.92    -47.58    21.425
C    -66.124    -48.571    22.55
N    -66.497    -47.844    23.791
N    -64.409    -43.278    22.824
C    -63.981    -43.016    24.212
C    -64.766    -41.93    24.954
C    -64.847    -40.582    24.268
C    -64.057    -39.525    25.025
N    -63.887    -38.444    24.053
O    -64.182    -38.613    22.881
C    -63.437    -37.313    24.381
O    -63.339    -36.457    23.515
C    -63.991    -44.203    25.131
O    -63.182    -45.128    24.983
N    -64.957    -44.178    26.054
C    -64.967    -44.95    27.301
C    -66.152    -45.939    27.35
O    -66.92    -45.979    28.308
C    -64.921    -43.965    28.546
O    -65.046    -44.687    29.782
C    -66.003    -42.853    28.46
N    -66.254    -46.74    26.291
C    -67.406    -47.599    25.979
C    -67.061    -48.44    24.754
O    -67.328    -49.642    24.706
C    -68.729    -46.811    25.623
O    -69.182    -47.208    24.32
C    -68.536    -45.293    25.592
H    -71.7444    -36.0179    21.3404
H    -71.0962    -34.8273    20.4068
H    -70.1786    -36.1221    20.8438
H    -72.5365    -36.1472    19.066
H    -72.1518    -38.5396    18.6831
H    -72.4849    -38.1921    20.4136
H    -70.7128    -39.6488    20.1151
H    -69.0668    -37.2325    19.0204
H    -68.9063    -36.0076    16.314
H    -66.3931    -36.2847    16.598
H    -66.7392    -36.6561    18.3211
H    -66.0229    -34.3141    17.9815
H    -67.6793    -34.4367    18.6655
H    -67.2158    -33.93    15.6929
H    -67.2342    -32.5965    16.8963
H    -69.4908    -34.0248    17.5336
H    -69.9788    -32.3617    13.8593
H    -68.3246    -32.572    14.4936
H    -71.5331    -33.7962    16.7279
H    -71.8001    -33.056    15.1268
H    -69.2745    -38.9409    17.7985
H    -68.6098    -40.368    15.2736
H    -70.4629    -41.789    15.6504
H    -71.0426    -40.1357    16.047
H    -70.6518    -40.6622    18.2605
H    -67.66    -40.1212    18.5335
H    -65.6012    -42.1212    17.7822
H    -65.2862    -40.3596    20.1563
H    -65.692    -39.4645    18.6527
H    -63.7719    -41.2163    17.7385
H    -63.2038    -40.9081    19.4145
H    -64.0298    -38.6916    17.4747
H    -62.3389    -39.269    17.6593
H    -61.2394    -38.9426    19.7137
H    -64.5027    -43.2624    19.5498
H    -66.5784    -44.8088    20.8654
H    -63.5644    -45.1811    20.6901
H    -64.824    -45.9468    19.6636
H    -64.6323    -46.401    22.6746
H    -63.7792    -47.4223    21.4681
H    -65.8437    -48.1258    20.473
H    -66.7801    -46.8953    21.3872
H    -65.192    -49.1303    22.7191
H    -66.9281    -49.2714    22.28
H    -66.2988    -46.8667    23.8664
H    -63.9094    -42.827    22.0844
H    -62.9393    -42.6714    24.1341
H    -64.2893    -41.7805    25.934
H    -65.7931    -42.2964    25.0979
H    -65.9006    -40.2707    24.214
H    -64.439    -40.6732    23.2506
H    -63.0814    -39.9204    25.3442
H    -64.6164    -39.1747    25.905
H    -63.1435    -37.1047    25.4088
H    -65.7405    -43.5816    25.8795
H    -64.0466    -45.5518    27.3266
H    -63.9372    -43.4729    28.5409
H    -65.8739    -45.1529    29.793
H    -65.9289    -42.2003    29.3423
H    -67.0011    -43.3142    28.4279
H    -65.8449    -42.2572    27.5489
H    -65.4827    -46.7589    25.6548
H    -67.6008    -48.2509    26.8434
H    -69.4949    -47.0578    26.373
H    -69.3571    -48.1417    24.3177
H    -69.4901    -44.8072    25.3395
H    -67.7813    -45.0347    24.8346
H    -68.1981    -44.9461    26.5796
