33

O    -9.268    -12.181    11.221
C    -8.748    -11.016    10.586
C    -7.961    -10.178    11.581
O    -8.868    -9.669    12.584
C    -7.212    -9.084    10.825
C    -6.448    -8.16    11.763
O    -5.758    -8.927    12.753
O    -6.315    -9.668    9.857
C    -7.048    -10.363    8.864
O    -6.134    -10.962    7.973
C    -7.842    -11.502    9.48
N    -8.635    -12.117    8.438
C    -9.468    -11.454    7.651
O    -9.655    -10.259    7.729
N    -10.125    -12.161    6.747
C    -11.095    -11.652    5.797
N    -9.871    -13.541    6.717
O    -10.51    -14.203    5.925
H    -9.8425    -11.9229    11.9322
H    -9.5679    -10.4134    10.1682
H    -7.2193    -10.8172    12.0822
H    -8.3836    -9.1438    13.2101
H    -7.9542    -8.4781    10.2847
H    -7.1552    -7.4785    12.2583
H    -5.7193    -7.5744    11.1833
H    -6.3864    -9.4322    13.2553
H    -7.7172    -9.669    8.3344
H    -6.6117    -11.4327    7.3001
H    -7.1433    -12.2435    9.8947
H    -8.5486    -13.1042    8.3038
H    -11.4696    -12.4795    5.1765
H    -10.6175    -10.8983    5.1536
H    -11.9338    -11.1922    6.3401
