22

Br    0.034    -19.796    22.657
C    1.752    -20.462    23.164
C    1.923    -21.917    23.301
C    2.725    -19.675    23.37
C    3.838    -20.048    23.689
C    4.154    -21.266    23.855
C    3.14    -22.324    23.66
C    3.468    -23.741    23.828
O    4.584    -24.136    23.524
C    2.526    -24.737    24.342
O    2.832    -26.134    24.148
C    1.679    -26.679    24.807
N    1.458    -27.985    24.921
N    0.982    -25.712    25.223
C    1.435    -24.594    24.98
H    1.1114    -22.6128    23.1215
H    2.5553    -18.6105    23.2554
H    4.6045    -19.2965    23.8403
H    5.1661    -21.5302    24.1394
H    0.6139    -28.3243    25.404
H    2.1309    -28.6576    24.5263
H    0.9802    -23.6457    25.2625
