35

Cl    32.351    22.282    24.011
C    33.372    20.815    23.921
C    33.308    19.879    24.952
C    34.098    18.73    24.894
C    34.95    18.525    23.816
C    35.01    19.471    22.794
Cl    36.116    19.215    21.408
C    34.226    20.615    22.844
C    34.305    21.617    21.711
N    34.956    22.875    22.084
C    36.11    22.985    22.754
C    34.506    24.11    21.791
C    33.253    24.487    21.044
N    35.375    25.006    22.288
C    36.375    24.338    22.886
C    37.534    24.986    23.562
C    38.464    24.241    24.29
C    39.516    24.917    24.906
N    39.616    26.25    24.786
C    38.7    26.963    24.078
N    37.667    26.331    23.47
N    38.807    28.309    23.97
H    32.6472    20.043    25.7955
H    34.0468    17.9968    25.6908
H    35.5652    17.6337    23.7699
H    33.2824    21.8416    21.3736
H    34.8725    21.1636    20.8849
H    36.724    22.1657    23.125
H    33.1816    25.5826    20.9773
H    32.3754    24.0942    21.5783
H    33.2873    24.0595    20.0311
H    38.3703    23.1643    24.374
H    40.2521    24.3669    25.481
H    39.5873    28.8019    24.4272
H    38.108    28.8396    23.4307
