71

C    16.309    1.907    48.366
C    17.107    0.671    47.983
C    18.507    1.09    47.514
C    18.411    2.01    46.296
C    17.527    3.211    46.656
C    17.311    4.138    45.462
C    16.937    -1.514    49.061
C    17.207    -2.293    50.345
O    16.227    2.763    47.195
O    19.303    -0.065    47.241
O    17.845    1.303    45.185
O    16.385    5.158    45.842
O    16.44    -2.062    48.077
N    17.271    -0.23    49.124
C    16.264    5.641    51.537
C    16.955    4.445    50.88
C    15.975    3.673    49.992
C    14.653    3.385    50.713
C    14.099    4.699    51.282
C    12.768    4.55    52.023
O    17.104    6.154    52.546
O    18.036    4.932    50.112
O    16.575    2.481    49.539
O    14.88    2.433    51.726
O    15.051    5.272    52.158
O    12.111    5.804    52.045
C    19.304    4.286    50.395
C    20.389    4.854    49.477
C    20.752    6.271    49.926
C    21.218    6.252    51.382
C    20.137    5.601    52.252
C    20.572    5.432    53.704
O    19.92    4.875    48.152
O    21.726    6.845    49.081
O    22.436    5.541    51.499
O    19.738    4.334    51.748
H    15.2827    1.5377    48.5083
H    16.5848    0.1428    47.1716
H    18.9895    1.652    48.3272
H    19.4167    2.3633    46.0246
H    18.0429    3.7845    47.4402
H    16.9048    3.5646    44.6157
H    18.2676    4.5955    45.1695
H    17.6502    -1.6214    51.095
H    17.9038    -3.1176    50.134
H    16.2617    -2.7016    50.7317
H    18.9142    -0.5542    46.5254
H    18.3977    0.5613    44.9683
H    16.739    5.6487    46.5744
H    17.646    0.132    49.9774
H    16.0698    6.4109    50.7757
H    17.3358    3.77    51.6606
H    15.7488    4.2969    49.1148
H    13.9274    2.9742    49.9955
H    13.9379    5.3861    50.4382
H    12.9549    4.2133    53.0534
H    12.1377    3.8123    51.5048
H    16.6894    6.908    52.9486
H    15.2214    1.6355    51.3388
H    11.2835    5.7187    52.5038
H    19.1766    3.2223    50.1453
H    21.2835    4.2164    49.5341
H    19.8459    6.8917    49.8651
H    21.3767    7.2863    51.7212
H    19.2608    6.2659    52.236
H    19.7597    4.9619    54.2778
H    20.8025    6.4175    54.1348
H    21.4675    4.7946    53.7467
H    19.149    5.4275    48.0989
H    21.4081    6.8425    48.1858
H    22.7201    5.5488    52.4055
