38

S    -15.357    11.517    -17.062
O    -14.028    11.618    -16.539
O    -15.613    11.099    -18.429
O    -16.39    12.352    -16.642
N    -15.802    10.16    -16.334
N    -16.523    17.356    -5.535
N    -17.328    15.771    -6.771
N    -16.187    16.045    -7.171
N    -18.306    17.571    -14.261
C    -17.59    16.575    -5.736
C    -15.631    17.014    -6.452
C    -16.122    15.841    -9.653
C    -16.79    17.066    -9.748
C    -17.333    17.474    -10.959
C    -17.222    16.666    -12.088
C    -16.529    15.436    -12.008
C    -15.988    15.022    -10.785
C    -17.822    17.155    -13.306
Cl    -14.93    15.151    -16.846
C    -15.808    15.165    -14.307
C    -15.747    14.43    -15.486
C    -16.33    13.152    -15.524
C    -16.975    12.676    -14.395
C    -17.024    13.403    -13.211
C    -15.506    15.397    -8.309
C    -16.443    14.661    -13.166
H    -15.2496    9.3328    -16.4373
H    -16.632    10.1406    -15.7766
H    -18.5121    16.5914    -5.1569
H    -14.6391    17.4419    -6.5894
H    -16.8842    17.6991    -8.8732
H    -17.8461    18.4265    -11.0261
H    -15.4681    14.0735    -10.7126
H    -15.3543    16.1488    -14.2709
H    -17.457    11.7059    -14.4356
H    -17.5104    12.9914    -12.334
H    -15.6044    14.3057    -8.2121
H    -14.441    15.672    -8.294
