17

C    16.404    6.135    14.289
Cl    14.272    5.573    17.489
C    16.844    4.851    14.015
C    16.48    3.776    14.818
C    15.659    3.923    15.951
C    15.235    5.227    16.183
C    15.575    6.303    15.362
S    15.185    2.603    16.858
N    15.67    1.223    16.174
O    15.626    2.744    18.182
O    13.754    2.567    16.835
H    16.7061    6.9757    13.675
H    17.4849    4.6806    13.1575
H    16.8425    2.7871    14.5614
H    15.1753    7.287    15.5788
H    15.4563    0.3478    16.6079
H    16.184    1.2436    15.3165
