43

C    20.173    -16.277    -10.708
C    19.925    -17.204    -9.544
C    18.517    -16.959    -9.005
C    20.985    -16.962    -8.457
N    19.944    -18.662    -9.923
N    20.629    -19.519    -9.313
C    19.22    -19.207    -10.909
N    18.349    -18.715    -11.843
C    17.795    -19.547    -12.705
N    18.024    -20.85    -12.719
C    18.889    -21.394    -11.825
N    19.09    -22.707    -11.858
C    19.508    -20.571    -10.916
C    20.417    -20.734    -9.855
C    21.092    -21.989    -9.291
C    22.176    -22.603    -10.123
C    22.99    -23.558    -9.505
C    22.393    -22.289    -11.471
C    23.425    -22.906    -12.173
C    24.231    -23.855    -11.527
C    23.997    -24.176    -10.193
C    24.894    -25.229    -9.471
H    21.1513    -16.4904    -11.1387
H    19.4013    -16.429    -11.4627
H    20.1449    -15.2442    -10.3607
H    17.7873    -17.1842    -9.7828
H    18.342    -17.6032    -8.1433
H    18.4204    -15.9154    -8.7056
H    20.7557    -17.5744    -7.5849
H    21.9679    -17.2314    -8.8434
H    20.9803    -15.9092    -8.1747
H    17.11    -19.1374    -13.4474
H    19.726    -23.1425    -11.19
H    18.6083    -23.2794    -12.5513
H    20.3083    -22.7429    -9.2159
H    21.5671    -21.681    -8.3596
H    22.8189    -23.8133    -8.4592
H    21.7535    -21.5612    -11.9705
H    23.6054    -22.6532    -13.2178
H    25.0412    -24.3415    -12.0701
H    24.8177    -26.1853    -9.9884
H    25.93    -24.8903    -9.4817
H    24.5587    -25.3444    -8.4403
