80

N    36.662    -28.184    21.363
C    36.701    -28.206    22.714
N    36.011    -27.256    23.44
C    35.306    -26.308    22.784
C    35.269    -26.284    21.462
C    35.958    -27.244    20.737
N    35.895    -27.199    19.295
N    34.48    -25.216    21.058
C    34.008    -24.555    22.213
N    34.502    -25.2    23.241
C    34.277    -24.86    24.625
C    35.148    -24.502    25.776
O    36.287    -23.694    25.583
C    34.21    -24.168    26.869
O    34.426    -24.728    28.117
P    34.689    -23.727    29.384
O    36.199    -24.006    29.993
O    33.539    -24.029    30.518
O    34.607    -22.3    28.906
C    32.805    -24.206    26.265
O    32.937    -25.146    25.124
C    32.19    -22.863    25.874
O    33.03    -22.188    24.959
P    32.606    -20.647    24.57
O    32.95    -19.672    25.848
O    33.331    -20.197    23.326
O    30.988    -20.771    24.296
P    29.966    -19.5    24.562
O    30.678    -18.247    25.027
O    28.842    -20.038    25.615
O    29.203    -19.256    23.118
C    27.265    -19.953    21.773
C    28.397    -20.33    22.726
C    26.068    -19.525    22.614
C    26.932    -21.142    20.873
C    27.758    -18.757    20.961
O    29.05    -18.899    20.417
C    26.717    -18.397    19.902
O    25.652    -17.954    20.215
N    27.035    -18.796    18.532
C    26.039    -18.616    17.492
C    25.933    -17.185    16.954
C    25.015    -16.99    15.753
O    23.903    -17.382    15.805
N    25.449    -16.074    14.716
C    24.688    -15.874    13.497
C    23.886    -17.048    12.925
S    22.749    -16.549    11.593
H    37.2741    -28.9696    23.2273
H    35.3455    -26.4647    18.8262
H    36.3996    -27.9012    18.7353
H    33.3601    -23.6802    22.2434
H    34.0973    -23.8059    24.3668
H    35.6014    -25.4565    26.0815
H    36.0213    -22.8534    25.2291
H    34.3895    -23.1006    27.0649
H    32.1268    -24.6484    27.0096
H    32.0642    -22.2451    26.7753
H    31.2088    -23.035    25.4074
H    27.9531    -20.7747    23.6288
H    29.0344    -21.0742    22.2261
H    25.2351    -19.247    21.9515
H    26.3465    -18.661    23.2352
H    25.7586    -20.3581    23.2622
H    26.1164    -20.8664    20.1883
H    26.6179    -21.9946    21.493
H    27.8219    -21.421    20.2898
H    27.8152    -17.9081    21.6582
H    29.6612    -19.1219    21.1093
H    27.9286    -19.1885    18.314
H    25.0591    -18.9024    17.9015
H    26.2942    -19.2803    16.6532
H    26.9424    -16.8591    16.6626
H    25.5622    -16.5456    17.7686
H    26.2995    -15.5641    14.8451
H    25.3999    -15.5599    12.7195
H    23.9746    -15.0596    13.6914
H    23.2978    -17.4999    13.7373
H    24.5903    -17.792    12.5246
H    22.092    -15.8728    11.9494
