125

N    -5.46    4.63    -29.923
C    -6.784    3.995    -30.189
C    -7.928    4.979    -29.934
O    -7.871    5.791    -29.008
C    -6.953    2.754    -29.31
N    -8.983    4.924    -30.763
C    -10.134    5.82    -30.609
C    -10.912    5.554    -29.32
O    -10.859    4.457    -28.758
C    -10.977    5.519    -31.847
C    -9.975    5.031    -32.838
C    -9.097    4.145    -32.006
N    -11.628    6.572    -28.856
C    -12.436    6.462    -27.65
C    -13.64    7.385    -27.755
O    -13.512    8.573    -28.058
C    -11.612    6.803    -26.4
C    -10.567    5.751    -26.048
C    -9.834    6.091    -24.761
N    -10.699    6.017    -23.585
C    -10.27    6.139    -22.331
N    -8.982    6.344    -22.084
N    -11.125    6.041    -21.319
O    -20.852    2.491    -26.923
C    -21.638    3.436    -27.036
C    -23.13    3.234    -26.862
N    -21.257    4.679    -27.309
C    -19.877    5.108    -27.507
C    -19.496    6.123    -26.44
C    -18.523    7.171    -26.956
C    -17.209    6.544    -27.341
C    -16.071    7.533    -27.576
N    -14.812    6.811    -27.518
C    -16.118    8.657    -26.541
O    -15.708    8.475    -25.396
N    -16.617    9.819    -26.949
C    -16.71    10.965    -26.047
C    -18.156    11.411    -25.862
O    -18.727    12.089    -26.715
C    -15.873    12.134    -26.582
C    -14.38    11.849    -26.67
C    -13.774    11.496    -25.325
O    -13.913    12.245    -24.357
N    -13.092    10.354    -25.257
N    -18.74    11.027    -24.736
C    -20.119    11.377    -24.431
C    -20.219    12.86    -24.109
O    -19.838    13.29    -23.018
C    -20.607    10.552    -23.241
C    -20.541    9.037    -23.431
C    -20.829    8.35    -22.112
C    -21.534    8.607    -24.5
N    -20.729    13.637    -25.06
C    -20.875    15.079    -24.878
C    -19.702    15.67    -24.088
O    -19.956    16.274    -23.023
C    -22.191    15.378    -24.165
N    -18.542    15.517    -24.538
H    -4.7257    3.962    -30.0982
H    -5.4185    4.9305    -28.9617
H    -5.3414    5.4264    -30.5294
H    -6.8178    3.687    -31.2445
H    -7.9307    2.2921    -29.5119
H    -6.8966    3.0446    -28.2506
H    -6.1533    2.0332    -29.5356
H    -9.805    6.8696    -30.6123
H    -11.4801    6.427    -32.2108
H    -11.7281    4.7444    -31.6328
H    -9.4027    5.8661    -33.2682
H    -10.4596    4.4637    -33.6463
H    -9.5688    3.1679    -31.8255
H    -8.1146    3.9962    -32.478
H    -11.6115    7.441    -29.3505
H    -12.7922    5.4252    -27.5601
H    -12.3003    6.907    -25.5483
H    -11.0969    7.7592    -26.5741
H    -9.8361    5.6872    -26.8676
H    -11.0674    4.779    -25.9264
H    -9.436    7.1133    -24.8418
H    -9.0023    5.3828    -24.6316
H    -11.7057    5.8603    -23.7366
H    -8.6525    6.4381    -21.1127
H    -8.3121    6.409    -22.8637
H    -12.1257    5.882    -21.5038
H    -10.7872    6.1241    -20.3495
H    -23.6487    4.1939    -27.002
H    -23.3328    2.8518    -25.8507
H    -23.4914    2.5099    -27.607
H    -21.9716    5.3744    -27.3846
H    -19.7764    5.5678    -28.5012
H    -19.2097    4.2363    -27.4369
H    -19.0284    5.5915    -25.5981
H    -20.4086    6.6294    -26.0926
H    -18.3478    7.9183    -26.168
H    -18.9588    7.6633    -27.8379
H    -17.3617    5.9719    -28.268
H    -16.9067    5.8605    -26.5339
H    -16.1811    7.9759    -28.5769
H    -14.8296    5.8377    -27.2892
H    -16.9354    9.9111    -27.8925
H    -16.3102    10.6663    -25.0667
H    -16.02    12.9962    -25.915
H    -16.2356    12.3841    -27.5899
H    -13.8729    12.7433    -27.0612
H    -14.222    11.0067    -27.3597
H    -12.6718    10.0732    -24.3941
H    -13.0002    9.7773    -26.0688
H    -18.2192    10.4823    -24.0786
H    -20.7487    11.1559    -25.3054
H    -21.6541    10.8252    -23.0435
H    -19.9892    10.8132    -22.3692
H    -19.5282    8.7611    -23.7597
H    -20.7815    7.2595    -22.2485
H    -21.8332    8.6324    -21.763
H    -20.0814    8.659    -21.3667
H    -21.3011    9.1204    -25.4445
H    -22.5532    8.8706    -24.1811
H    -21.4658    7.5191    -24.6476
H    -21.0203    13.2232    -25.9225
H    -20.8967    15.5531    -25.8703
H    -22.2964    16.4646    -24.0303
H    -22.1958    14.8845    -23.1819
H    -23.0293    15.0004    -24.7689
H    -17.7595    15.8929    -24.0416
H    -18.3992    15.019    -25.3934
