89

C    -10.481    24.749    -2.508
C    -9.686    25.997    -1.96
C    -9.741    23.461    -2.316
C    -8.582    23.352    -1.709
N    -8.217    21.993    -1.764
N    -9.178    21.301    -2.409
C    -10.09    22.125    -2.749
C    -11.266    21.701    -3.448
N    -11.502    20.389    -3.454
O    -12.017    22.501    -4.026
C    -7.025    21.389    -1.229
C    -7.876    24.46    -1.091
C    -8.393    25.703    -1.169
C    -7.66    26.779    -0.496
N    -6.564    26.51    0.128
C    -6.046    25.174    0.18
N    -6.677    24.235    -0.394
N    -4.85    24.851    0.86
C    -4.195    23.584    1.017
C    -2.903    23.554    0.677
C    -2.112    22.288    0.831
C    -2.697    21.177    1.309
C    -4.136    21.191    1.673
C    -4.855    22.342    1.536
O    -2.371    24.776    0.182
C    -1.899    19.985    1.488
N    -2.227    18.824    0.897
O    -0.904    20.069    2.239
C    -1.469    17.602    1.161
C    -1.881    16.501    0.134
C    -1.172    15.154    0.474
N    -1.492    14.75    1.884
C    -0.993    15.762    2.875
C    -1.716    17.111    2.637
C    -0.879    13.435    2.175
C    -1.173    25.277    0.746
F    -0.101    24.705    0.08
F    -1.104    24.959    2.09
F    -1.112    26.665    0.632
C    -12.645    19.781    -3.996
C    -12.588    19.376    -5.292
C    -13.777    18.73    -5.905
C    -14.909    18.547    -5.185
C    -14.98    18.982    -3.777
C    -13.911    19.577    -3.181
C    -13.964    20.037    -1.707
C    -15.304    19.777    -0.986
C    -11.289    19.595    -6.08
C    -11.34    19.099    -7.528
H    -10.6636    24.8927    -3.5832
H    -11.4428    24.6843    -1.9781
H    -10.3616    26.5579    -1.2975
H    -9.414    26.6237    -2.8221
H    -10.8129    19.7933    -3.0413
H    -7.0365    20.3088    -1.4365
H    -6.9869    21.5531    -0.142
H    -6.1407    21.8434    -1.6996
H    -8.0369    27.795    -0.5226
H    -4.3763    25.6462    1.3118
H    -1.0638    22.2699    0.5553
H    -4.6128    20.2916    2.0456
H    -5.9055    22.3587    1.8029
H    -3.0024    18.7951    0.2661
H    -0.397    17.8161    1.0382
H    -1.5889    16.82    -0.8774
H    -2.9709    16.3576    0.1728
H    -0.0841    15.2775    0.368
H    -1.5216    14.3731    -0.2174
H    -2.4928    14.674    1.9773
H    0.0909    15.8984    2.7468
H    -1.1999    15.4094    3.8962
H    -2.7957    16.9794    2.8012
H    -1.3269    17.8618    3.3405
H    -1.2433    12.6922    1.4501
H    -1.1534    13.1196    3.1924
H    0.2154    13.5156    2.0987
H    -13.738    18.4023    -6.9376
H    -15.7699    18.0772    -5.6467
H    -15.892    18.8262    -3.2121
H    -13.7676    21.119    -1.6807
H    -13.1728    19.5072    -1.1563
H    -15.2386    20.1385    0.0509
H    -15.5167    18.6978    -0.9853
H    -16.1115    20.3095    -1.5097
H    -10.4777    19.0628    -5.5618
H    -11.071    20.6731    -6.0925
H    -10.3739    19.294    -8.0166
H    -12.138    19.6285    -8.0691
H    -11.5446    18.0183    -7.5384
