104

P    -6.959    67.099    89.247
O    -6.022    67.475    88.098
O    -8.357    66.498    89.053
O    -7.238    68.452    90.072
C    -6.22    69.457    90.093
C    -6.98    70.748    89.969
O    -6.122    71.819    90.275
C    -7.492    70.982    88.568
O    -8.902    71.246    88.674
C    -6.674    72.174    88.082
O    -7.334    72.971    87.095
C    -6.411    72.894    89.39
N    -5.233    73.807    89.364
C    -4.006    73.549    88.849
N    -3.209    74.628    89.041
C    -3.945    75.542    89.691
C    -3.626    76.798    90.125
N    -2.389    77.249    89.877
N    -4.532    77.543    90.782
C    -5.907    77.07    91.046
N    -6.175    75.735    90.541
C    -5.217    75.03    89.903
N    -8.482    57.403    86.141
C    -9.509    56.521    86.3
O    -9.92    56.188    87.551
N    -10.158    55.962    85.236
C    -9.85    56.279    83.957
O    -10.483    55.709    82.895
C    -8.667    57.13    83.729
N    -8.465    57.652    82.368
C    -7.745    58.879    82.308
C    -7.784    59.569    81.098
C    -7.169    60.798    80.942
C    -7.212    61.519    79.622
C    -6.508    61.366    82.007
C    -5.84    62.701    81.797
C    -6.472    60.686    83.234
C    -7.111    59.44    83.425
N    -7.024    58.718    84.683
C    -8.092    57.811    84.908
C    -6.605    59.533    85.866
C    -7.598    60.478    86.568
O    -8.308    61.231    85.585
C    -6.834    61.397    87.541
O    -5.893    60.642    88.315
C    -7.665    62.156    88.565
O    -8.797    62.775    87.933
C    -6.739    63.163    89.299
O    -7.425    63.989    90.27
P    -6.732    65.098    91.23
O    -5.531    64.549    91.998
O    -7.911    65.743    91.979
O    -6.071    66.166    90.218
C    -8.037    56.526    81.489
O    -8.595    56.386    80.379
C    -7.018    55.482    81.9
C    -6.421    55.824    83.246
C    -6.452    54.695    84.252
C    -5.267    54.475    84.962
C    -5.186    53.47    85.911
C    -7.589    53.911    84.5
C    -7.515    52.895    85.451
C    -6.312    52.679    86.146
Br    -6.145    51.318    87.46
H    -5.4942    69.3264    89.2904
H    -5.6191    69.4172    91.0016
H    -7.8263    70.6849    90.653
H    -7.3847    70.1527    87.8689
H    -9.0408    72.023    89.2206
H    -5.768    71.8985    87.5422
H    -8.1513    73.3182    87.4598
H    -7.2551    73.5305    89.6555
H    -3.7081    72.6221    88.3589
H    -1.7215    76.6597    89.3794
H    -2.1147    78.1816    90.1858
H    -6.6515    77.6681    91.5714
H    -10.6455    55.562    87.4922
H    -10.1221    56.0653    82.0799
H    -8.3128    59.1288    80.2526
H    -6.7452    60.8999    78.8559
H    -8.2492    61.7152    79.3502
H    -6.6726    62.4624    79.707
H    -6.2654    63.431    82.4856
H    -4.7705    62.604    81.9834
H    -6.0028    63.0299    80.7706
H    -5.9327    61.1342    84.0684
H    -5.8392    60.2001    85.4702
H    -6.3628    58.7908    86.6266
H    -8.3221    59.9035    87.1457
H    -8.9275    61.8206    86.0211
H    -6.3853    62.1238    86.8639
H    -5.4278    61.2305    88.914
H    -8.0788    61.4785    89.3119
H    -9.3436    62.0993    87.5253
H    -6.3208    63.8289    88.5442
H    -5.9906    62.5822    89.838
H    -6.2213    55.4536    81.1567
H    -7.5124    54.513    81.9683
H    -7.0162    56.6373    83.6612
H    -5.373    56.071    83.0763
H    -4.3972    55.102    84.7659
H    -4.2618    53.2999    86.4633
H    -8.5162    54.0939    83.957
H    -8.3852    52.2711    85.655
