119

O    13.678    48.555    40.432
C    13.71    47.318    40.182
O    12.916    46.711    39.431
C    14.864    46.516    40.821
C    14.613    45.004    41.028
C    15.953    44.298    41.387
C    16.926    44.48    40.182
O    16.829    43.682    39.22
O    17.831    45.36    40.218
N    16.605    44.927    42.562
C    17.867    44.547    42.873
O    18.303    43.472    42.423
N    18.517    45.304    43.758
C    19.854    44.955    44.215
C    20.047    45.607    45.587
O    20.641    44.91    46.445
O    19.511    46.723    45.786
C    20.727    45.688    43.189
C    22.214    45.345    43.167
C    22.753    46.16    41.981
C    24.176    45.786    41.586
N    24.664    46.758    40.582
C    24.91    48.049    40.82
N    24.9    46.47    39.396
N    25.298    47.473    38.776
C    25.318    48.497    39.636
C    25.716    49.814    39.34
O    24.867    50.966    39.618
C    25.578    52.045    40.258
C    25.206    52.212    41.745
O    25.228    53.598    42.17
C    26.55    53.995    42.586
C    27.029    55.217    41.803
O    27.994    55.92    42.618
C    29.18    56.243    41.827
C    29.521    57.751    41.971
O    29.951    57.994    43.355
C    29.39    59.277    43.813
C    28.359    59.104    44.982
O    27.284    58.219    44.591
C    26.109    58.957    44.075
C    25.212    58.039    43.225
O    23.938    57.571    43.879
C    24.186    56.921    45.131
C    23.062    55.948    45.44
O    23.375    54.523    45.466
C    24.776    54.209    45.455
C    25.18    53.31    46.601
O    26.554    52.936    46.41
C    27.319    53.418    47.526
C    28.657    54.045    47.114
N    29.673    53.621    48.095
C    31.001    53.714    47.932
C    31.548    54.588    46.986
C    32.932    54.683    46.842
C    33.784    53.915    47.641
N    35.12    54.002    47.496
O    35.697    54.866    46.507
O    36.012    53.22    48.308
C    33.231    53.048    48.589
C    31.847    52.937    48.744
N    31.357    52.088    49.666
O    29.968    51.838    49.776
O    32.22    51.411    50.555
H    15.0754    46.9588    41.8055
H    15.7465    46.6239    40.1733
H    14.2068    44.57    40.1025
H    13.8927    44.861    41.847
H    15.7709    43.2312    41.584
H    16.1255    45.6129    43.1094
H    18.0768    46.128    44.1148
H    20.039    43.8711    44.2442
H    20.639    46.766    43.3895
H    20.3215    45.4663    42.1908
H    22.3666    44.2677    43.0053
H    22.7012    45.6476    44.1056
H    22.7356    47.2255    42.2537
H    22.0955    45.9922    41.1153
H    24.1862    44.7737    41.1558
H    24.8254    45.8139    42.4734
H    24.8029    48.5993    41.7536
H    25.9192    49.837    38.2592
H    26.6519    49.9828    39.8928
H    25.3432    52.9813    39.7305
H    26.6573    51.8447    40.1869
H    25.9248    51.6446    42.3545
H    24.1941    51.8106    41.9029
H    27.2467    53.1616    42.4128
H    26.5309    54.2401    43.6582
H    26.1766    55.8762    41.5817
H    27.4987    54.8964    40.8614
H    28.9858    56.0131    40.769
H    30.0298    55.642    42.1828
H    28.6312    58.3572    41.7456
H    30.3317    58.0175    41.2769
H    28.8831    59.7619    42.9657
H    30.2139    59.9167    44.1623
H    27.9402    60.0873    45.2421
H    28.8738    58.6814    45.8575
H    26.4554    59.7966    43.4545
H    25.5261    59.3443    44.9236
H    25.7996    57.1485    42.9571
H    24.9395    58.5871    42.3111
H    24.2442    57.6761    45.9287
H    25.1379    56.3726    45.075
H    22.2821    56.0973    44.6788
H    22.6634    56.213    46.4304
H    25.3475    55.1463    45.5244
H    25.0159    53.7024    44.5086
H    24.5465    52.4108    46.6111
H    25.0687    53.8477    47.5542
H    27.5215    52.5742    48.2019
H    26.725    54.1775    48.0554
H    28.5721    55.1417    47.1132
H    28.9393    53.6983    46.109
H    29.334    53.2192    48.9808
H    30.8959    55.1914    46.3649
H    33.3505    55.3581    46.1043
H    33.8869    52.4525    49.2136
