69

O    16.054    16.135    11.783
C    17.079    16.855    12.302
C    17.053    18.241    12.167
O    15.993    18.764    11.507
C    18.127    16.227    12.978
C    19.151    17.005    13.506
C    19.129    18.392    13.356
C    18.075    19.036    12.704
C    18.143    20.59    12.554
O    19.045    21.215    13.104
N    17.236    21.148    11.747
C    17.115    22.578    11.321
C    16.201    22.356    10.123
C    14.829    22.537    10.242
C    16.744    21.852    8.938
C    15.912    21.59    7.851
C    16.51    20.998    6.572
N    16.192    19.566    6.818
C    16.207    18.566    5.93
O    16.542    18.691    4.75
C    15.729    17.187    6.471
C    15.758    16.087    5.612
C    15.337    14.831    6.043
C    14.858    14.656    7.34
C    14.81    15.739    8.21
O    14.349    15.582    9.493
C    15.244    16.987    7.779
O    15.183    18.002    8.672
C    14.53    21.768    7.962
C    13.997    22.277    9.152
C    12.486    22.432    9.329
N    12.19    21.129    10.02
C    11.118    20.85    10.779
O    10.194    21.645    10.977
C    11.085    19.446    11.456
C    9.918    19.073    12.135
C    9.82    17.833    12.776
C    10.9    16.949    12.765
C    12.071    17.313    12.104
O    13.152    16.485    12.082
C    12.169    18.545    11.463
O    13.35    18.803    10.846
H    15.2316    16.4068    12.197
H    15.9683    18.4125    10.6141
H    18.142    15.1429    13.0901
H    19.9743    16.5296    14.0392
H    19.9514    18.9852    13.7559
H    16.5311    20.5142    11.3705
H    18.0543    23.0893    11.1103
H    16.7417    23.2668    12.0788
H    14.4031    22.8813    11.1844
H    17.8152    21.6643    8.8641
H    17.5655    21.2166    6.4102
H    16.1133    21.4073    5.6429
H    15.9329    19.3183    7.773
H    16.115    16.2126    4.5898
H    15.3824    13.9808    5.3624
H    14.5222    13.6733    7.671
H    14.3848    16.4254    9.9501
H    14.2729    18.1272    8.9508
H    13.8737    21.5129    7.1299
H    11.9313    22.5968    8.4053
H    12.1782    23.3218    9.8782
H    12.8732    20.3812    9.8997
H    9.0723    19.76    12.1646
H    8.897    17.5565    13.2857
H    10.828    15.9847    13.2679
H    13.8607    16.899    11.5841
H    14.0591    18.7815    11.4928
