48

C    2.904    13.928    23.196
C    2.664    13.305    21.812
O    3.708    13.754    20.928
C    2.63    11.774    21.892
O    2.063    11.249    20.683
C    1.736    11.337    23.051
C    2.353    11.791    24.383
C    1.566    11.3    25.591
O    2.197    11.234    26.668
O    0.371    11.003    25.426
O    3.854    10.996    24.506
C    2.622    13.304    24.406
C    0.295    17.097    24.42
C    0.035    17.755    25.574
C    -1.203    18.095    26.121
C    -1.296    18.779    27.326
C    -0.141    19.14    28.005
C    1.106    18.813    27.481
C    1.196    18.127    26.275
S    2.521    17.595    25.371
C    1.593    16.92    24.143
C    2.13    16.234    23.003
O    3.335    15.234    23.242
C    2.881    14.011    25.748
C    1.547    14.402    26.402
C    1.349    14.957    27.6
C    0.054    15.201    27.902
C    -0.85    14.853    26.972
S    0.033    14.213    25.684
H    1.694    13.6224    21.4294
H    3.6845    14.7118    20.8674
H    3.6461    11.4067    22.0363
H    2.0409    10.2905    20.7312
H    1.6455    10.2508    23.0471
H    0.7509    11.7894    22.9371
H    4.2765    11.2385    25.3333
H    -0.4963    16.7367    23.7627
H    -2.115    17.8182    25.592
H    -2.2734    19.0315    27.7372
H    -0.2105    19.68    28.9493
H    2.0127    19.0948    28.0163
H    2.5249    17.015    22.3532
H    1.3139    15.62    22.6222
H    3.471    14.9103    25.5715
H    3.4209    13.335    26.4111
H    2.1666    15.1946    28.2806
H    -0.2401    15.6552    28.8482
H    -1.9327    14.9617    27.0359
