16

C    -24.061    -21.521    4.385
O    -23.229    -21.614    3.456
C    -25.521    -21.822    4.042
O    -23.809    -21.204    5.567
C    -26.413    -21.437    5.224
O    -25.906    -21.07    2.889
C    -27.859    -21.877    4.986
O    -29.95    -21.264    5.931
C    -28.748    -21.507    6.175
O    -28.205    -21.475    7.3
H    -25.6338    -22.896    3.8328
H    -26.3861    -20.3451    5.3543
H    -26.034    -21.9243    6.1344
H    -26.8125    -21.2594    2.677
H    -27.8843    -22.9675    4.8437
H    -28.242    -21.3803    4.0824
