56

C    27.158    47.933    63.619
C    25.661    47.86    63.467
N    24.765    48.67    63.976
C    25.011    49.785    64.932
N    23.475    48.333    63.618
C    24.908    46.886    62.657
C    23.494    47.272    62.789
C    22.226    46.644    62.224
C    25.478    45.801    61.813
C    25.456    44.538    62.599
O    24.279    43.874    62.861
C    24.741    42.85    63.51
N    26.035    42.769    63.741
N    26.545    43.928    63.07
C    23.715    41.938    63.969
S    22.128    41.913    63.358
C    21.534    40.684    64.319
C    20.225    40.167    64.375
C    19.952    39.097    65.306
C    20.995    38.589    66.12
C    22.342    39.078    66.12
C    22.603    40.163    65.213
C    23.866    40.889    65.017
O    25.011    40.661    65.687
C    24.81    40.656    67.152
C    25.751    39.604    67.781
C    27.253    39.885    67.448
N    27.542    41.241    68.005
C    26.641    42.315    67.493
C    25.119    42.07    67.659
H    27.6235    47.1031    63.0671
H    27.4225    47.8589    64.6841
H    27.5212    48.8902    63.2167
H    24.058    50.279    65.1722
H    25.6972    50.514    64.4763
H    25.4595    49.3856    65.8536
H    22.4939    45.7962    61.5763
H    21.6754    47.394    61.6372
H    21.5933    46.2883    63.0505
H    26.5134    46.0494    61.537
H    24.8739    45.6824    60.9014
H    19.4431    40.5617    63.7363
H    18.9527    38.6839    65.3819
H    20.7567    37.7716    66.791
H    23.1108    38.6591    66.7593
H    23.7674    40.3989    67.3906
H    25.4817    38.6103    67.3936
H    25.6209    39.6195    68.8732
H    27.4133    39.8749    66.3598
H    27.8987    39.1303    67.9208
H    28.4911    41.4847    67.7685
H    27.4459    41.1985    69.0075
H    26.8453    42.4408    66.4195
H    26.891    43.2446    68.0252
H    24.8404    42.1557    68.7197
H    24.5554    42.8092    67.0709
