24

N    92.952    -38.703    -18.469
C    93.315    -40.078    -18.982
C    93.601    -41.02    -17.766
O    93.815    -40.552    -16.65
C    94.56    -39.978    -19.806
C    95.82    -39.452    -19.093
C    95.987    -38.109    -18.805
C    96.892    -40.257    -18.932
C    97.152    -37.619    -18.235
C    98.059    -39.796    -18.368
C    98.185    -38.484    -18.022
O    99.4    -38.093    -17.532
O    93.543    -42.244    -17.942
H    92.7666    -38.0916    -19.2487
H    93.7175    -38.3336    -17.9271
H    92.1299    -38.7669    -17.8893
H    92.4913    -40.4827    -19.5883
H    94.3485    -39.3044    -20.6495
H    94.7886    -40.9838    -20.1883
H    95.1824    -37.4189    -19.032
H    96.8317    -41.2901    -19.2545
H    97.2399    -36.5729    -17.9649
H    98.8826    -40.48    -18.1979
H    99.3735    -37.1661    -17.3255
