59

C    37.759    58.119    12.996
C    38.331    56.702    12.933
C    37.411    55.822    12.086
C    37.818    54.35    12.111
C    36.907    53.598    11.142
C    37.027    52.084    11.316
C    36.281    51.343    10.205
C    34.767    51.561    10.223
C    34.123    50.469    9.365
C    32.597    50.565    9.285
C    32.012    49.238    8.791
C    30.504    49.358    8.572
P    29.671    47.751    8.525
C    28.154    47.99    9.447
C    30.663    46.506    9.343
C    29.313    47.296    6.807
C    28.917    45.82    6.697
P    27.089    45.599    6.764
O    26.667    45.825    8.3
O    26.437    46.824    5.962
O    26.705    44.262    6.258
P    29.566    45.086    5.139
O    29.107    43.549    5.056
O    28.78    45.825    3.94
O    31.036    45.232    5.023
H    38.4192    58.7541    13.6049
H    36.7573    58.0903    13.4497
H    37.6892    58.5318    11.9788
H    38.4007    56.2885    13.9499
H    39.3326    56.73    12.479
H    37.4425    56.1784    11.0458
H    36.3851    55.9102    12.4729
H    37.6987    53.9458    13.127
H    38.8667    54.2461    11.7958
H    37.1867    53.862    10.1114
H    35.8647    53.897    11.3271
H    36.5993    51.7988    12.2885
H    38.0897    51.8017    11.2858
H    36.4772    50.2662    10.3145
H    36.6693    51.6898    9.236
H    34.5272    52.5514    9.8088
H    34.3923    51.4946    11.2551
H    34.3868    49.4908    9.7933
H    34.529    50.5445    8.3455
H    32.3189    51.3678    8.5863
H    32.1937    50.7914    10.283
H    32.2065    48.4568    9.5405
H    32.4936    48.9629    7.8411
H    30.3276    49.8732    7.6162
H    30.0759    49.9517    9.3931
H    27.5841    47.0493    9.4654
H    27.5517    48.7742    8.9651
H    28.3946    48.2931    10.4767
H    31.5967    46.3541    8.7817
H    30.1028    45.5603    9.3854
H    30.8993    46.8383    10.3646
H    30.2091    47.4739    6.1943
H    28.4854    47.9183    6.4358
H    29.3617    45.283    7.5478
