33

C    1.1    -8.261    -26.327
C    1.063    -9.644    -26.479
C    -0.081    -10.248    -26.99
C    -1.183    -9.478    -27.343
C    -1.147    -8.097    -27.191
C    -0.003    -7.49    -26.683
C    0.024    -6.109    -26.518
O    -0.938    -5.421    -26.856
N    1.165    -5.503    -25.981
C    1.463    -4.189    -25.609
C    0.739    -3.004    -25.664
C    1.293    -1.836    -25.153
C    2.566    -1.86    -24.593
C    3.288    -3.047    -24.543
C    2.736    -4.218    -25.051
N    3.189    -5.47    -25.084
C    2.276    -6.275    -25.625
C    2.237    -7.653    -25.803
C    3.334    -8.425    -25.437
C    3.294    -9.806    -25.594
C    2.159    -10.419    -26.113
C    2.134    -11.946    -26.239
O    1.046    -12.544    -26.099
O    3.222    -12.528    -26.437
H    -0.1135    -11.3304    -27.1142
H    -2.0774    -9.9583    -27.7399
H    -2.0107    -7.4926    -27.4684
H    -0.2576    -2.9905    -26.1053
H    0.7308    -0.9029    -25.1911
H    2.9995    -0.944    -24.1915
H    4.2864    -3.0598    -24.1058
H    4.2244    -7.9481    -25.0274
H    4.1554    -10.4101    -25.3092
