30

O    -3.115    26.059    24.498
C    -1.752    26.487    24.509
C    -1.567    27.675    23.563
O    -2.033    27.348    22.253
C    -0.077    28.009    23.514
O    0.593    26.879    22.942
C    0.428    28.303    24.931
C    1.931    28.583    24.94
N    0.147    27.182    25.846
C    -1.294    26.892    25.915
C    -1.522    25.76    26.92
N    -1.54    26.282    28.296
H    -3.3566    25.7977    23.6172
H    -1.1238    25.6533    24.1622
H    -2.1298    28.5406    23.9425
H    -1.5411    26.607    21.9189
H    0.0888    28.8939    22.882
H    0.2566    26.7221    22.0675
H    -0.0965    29.1963    25.301
H    2.2593    28.7894    25.9694
H    2.1453    29.4552    24.3049
H    2.4697    27.7058    24.5523
H    0.4778    27.4205    26.7678
H    0.6311    26.3613    25.5172
H    -1.8454    27.7864    26.2406
H    -0.7111    25.023    26.824
H    -2.4856    25.275    26.7052
H    -1.691    25.5226    28.9415
H    -2.2837    26.9558    28.3901
H    -0.6576    26.725    28.4989
