128

N    -18.422    5.221    -0.19
C    -19.591    5.226    0.445
N    -19.694    5.528    1.734
C    -18.589    5.853    2.436
C    -17.351    5.849    1.804
C    -17.279    5.512    0.451
N    -16.102    5.498    -0.193
N    -16.44    6.177    2.713
C    -17.065    6.389    3.866
N    -18.375    6.194    3.704
O    -16.582    7.541    6.964
O    -19.049    4.66    7.931
O    -20.976    5.068    5.98
O    -19.102    7.415    5.686
C    -17.633    7.501    7.613
C    -18.652    5.36    6.777
C    -19.605    5.09    5.595
C    -18.872    6.842    7.006
C    -19.426    6.339    4.753
C    -14.052    12.715    11.564
O    -14.738    13.531    12.173
C    -13.936    12.793    10.038
C    -15.195    12.273    9.336
C    -15.367    10.783    9.638
C    -16.702    10.208    9.174
C    -16.692    8.718    9.538
N    -17.779    8.017    8.836
N    -13.368    11.716    12.143
C    -13.363    11.525    13.587
C    -12.262    10.53    14.017
C    -14.743    11.053    14.08
O    -15.305    11.635    15.007
C    -19.776    6.465    17.36
O    -19.462    5.298    17.722
C    -18.813    7.642    17.599
C    -18.351    8.212    16.272
C    -16.865    8.573    16.265
C    -16.255    8.279    14.891
C    -16.518    9.381    13.875
N    -15.231    9.97    13.482
N    -20.928    6.809    16.738
C    -22.007    5.837    16.413
C    -23.258    6.622    16.006
C    -23.128    7.146    14.572
C    -23.469    6.014    13.595
N    -22.502    6.012    12.497
C    -22.388    5.003    11.628
N    -21.491    5.131    10.638
N    -23.165    3.926    11.729
C    -22.341    4.93    17.6
O    -22.332    5.39    18.735
N    -22.623    3.653    17.307
C    -22.933    2.637    18.328
C    -22.017    1.418    18.168
C    -20.522    1.767    18.062
C    -19.728    0.467    18.31
N    -19.607    -0.272    17.028
C    -19.875    -1.579    16.975
N    -20.281    -2.242    18.056
N    -19.732    -2.232    15.829
C    -24.387    2.14    18.223
O    -25.069    2.352    17.222
N    -24.818    1.457    19.266
H    -20.489    4.9753    -0.108
H    -15.2346    5.7239    0.3144
H    -16.0659    5.2614    -1.1948
H    -16.5828    6.6773    4.7989
H    -19.0476    3.7273    7.7504
H    -21.1121    4.3827    6.6237
H    -17.6078    5.1237    6.5244
H    -19.3347    4.1677    5.06
H    -19.74    7.0037    7.662
H    -20.3766    6.5688    4.2496
H    -13.0754    12.1881    9.7165
H    -13.7759    13.8419    9.7477
H    -15.0961    12.4182    8.2501
H    -16.0734    12.8252    9.7014
H    -15.287    10.6386    10.7255
H    -14.559    10.2321    9.1345
H    -16.8102    10.3315    8.0863
H    -17.5321    10.7173    9.6853
H    -16.8302    8.6081    10.6237
H    -15.7272    8.2786    9.2448
H    -18.6632    7.9232    9.2936
H    -12.8475    11.0854    11.5673
H    -13.1461    12.4957    14.0569
H    -12.2846    10.408    15.11
H    -11.2786    10.9168    13.7116
H    -12.4389    9.5568    13.5357
H    -17.94    7.2887    18.1673
H    -19.3307    8.4257    18.1716
H    -18.9338    9.12    16.0579
H    -18.5344    7.4647    15.486
H    -16.343    7.9781    17.0289
H    -16.7501    9.6432    16.4919
H    -16.6853    7.3411    14.5099
H    -15.1675    8.1626    15.008
H    -17.1582    10.1546    14.3241
H    -17.0181    8.9589    12.9909
H    -14.7071    9.5447    12.744
H    -21.061    7.7669    16.4834
H    -21.679    5.2094    15.5713
H    -23.3885    7.473    16.6906
H    -24.1353    5.9615    16.0706
H    -22.0973    7.4873    14.3959
H    -23.823    7.9852    14.4214
H    -24.4809    6.1689    13.1925
H    -23.4277    5.0494    14.1221
H    -21.8802    6.826    12.3887
H    -21.3737    4.375    9.9484
H    -20.9199    5.9853    10.5678
H    -23.8456    3.8523    12.4986
H    -23.0853    3.1668    11.0375
H    -22.623    3.3755    16.3463
H    -22.7767    3.0825    19.3215
H    -22.3123    0.8812    17.2544
H    -22.158    0.7627    19.0402
H    -20.2568    2.5201    18.8186
H    -20.2974    2.1597    17.0593
H    -20.2578    -0.1549    19.0465
H    -18.7258    0.7129    18.6909
H    -19.3148    0.2261    16.1751
H    -20.4831    -3.2502    17.9961
H    -20.393    -1.7467    18.9521
H    -19.4186    -1.7301    14.9859
H    -19.9344    -3.2408    15.7824
H    -25.7514    1.0984    19.2778
H    -24.2113    1.2978    20.0448
