75

C    1.474    1.321    11.354
C    0.562    0.252    12.036
C    0.675    2.633    11.41
C    1.852    1.006    9.891
O    2.664    1.554    12.108
C    3.511    0.571    12.4
O    3.399    -0.533    11.97
N    4.497    0.994    13.193
C    5.716    0.269    13.558
C    6.953    1.163    13.346
C    6.975    1.824    11.998
C    6.815    1.051    10.826
C    6.791    1.701    9.574
C    6.927    3.11    9.519
C    7.114    3.232    11.941
C    7.085    3.888    10.692
C    5.642    -0.319    14.998
O    5.248    0.651    15.98
C    4.669    -1.525    15.008
N    4.998    -2.669    15.91
C    5.441    -2.219    17.249
C    3.718    -3.441    16.024
C    3.724    -4.695    16.883
C    4.055    -5.94    16.308
C    4.162    -7.106    17.109
C    3.957    -7.006    18.505
C    3.386    -4.632    18.248
C    3.502    -5.791    19.063
N    6.121    -3.333    15.291
C    6.067    -4.033    14.14
O    5.015    -4.224    13.523
C    7.36    -4.579    13.674
C    7.343    -5.49    12.582
C    8.521    -6.101    12.123
C    9.714    -5.796    12.796
C    8.593    -4.222    14.279
C    9.781    -4.839    13.838
H    -0.3421    0.0998    11.4281
H    0.275    0.6009    13.0389
H    1.1107    -0.6976    12.1212
H    -0.2605    2.5171    10.843
H    1.2722    3.4451    10.9698
H    0.4414    2.8757    12.4571
H    0.9376    0.8258    9.3067
H    2.4885    0.1093    9.8616
H    2.3992    1.8583    9.462
H    4.3918    1.9092    13.582
H    5.8084    -0.5838    12.8694
H    7.8555    0.5423    13.4468
H    6.9573    1.9448    14.1198
H    6.7121    -0.0263    10.888
H    6.6696    1.1273    8.6623
H    6.9097    3.6052    8.5549
H    7.2422    3.8036    12.8531
H    7.1817    4.966    10.6314
H    6.6455    -0.6795    15.2683
H    4.3708    0.9592    15.7849
H    4.6208    -1.918    13.9817
H    3.6789    -1.1471    15.3029
H    5.6704    -3.0954    17.873
H    4.6402    -1.6317    17.722
H    6.3416    -1.5957    17.147
H    3.4231    -3.7405    15.0075
H    2.9601    -2.7611    16.4404
H    4.2298    -6.0066    15.2403
H    4.3981    -8.0624    16.6565
H    4.1486    -7.8597    19.1449
H    3.0373    -3.6999    18.6777
H    3.2409    -5.7421    20.114
H    7.0065    -3.2687    15.7512
H    6.4019    -5.7172    12.0943
H    8.5093    -6.7828    11.2803
H    10.6212    -6.3139    12.5066
H    8.6209    -3.483    15.0715
H    10.7328    -4.5846    14.2901
