39

S    -28.683    10.097    11.922
C    -32.156    9.883    3.754
F    -28.76    11.768    5.163
N    -32.705    9.984    2.527
O    -29.52    10.072    13.144
C    -31.935    9.71    5.865
F    -28.077    7.787    2.643
N    -32.847    9.761    4.884
O    -27.941    11.4    11.795
C    -31.404    9.689    8.232
N    -32.244    9.578    7.18
O    -29.941    10.009    1.988
C    -30.006    9.734    8.1
N    -27.601    8.889    11.962
C    -29.185    9.856    9.23
N    -30.718    9.766    5.314
C    -29.749    9.928    10.5
N    -30.852    9.9    4.069
C    -31.138    9.894    10.641
C    -31.964    9.769    9.519
C    -29.805    9.972    3.219
C    -28.426    9.791    3.883
C    -27.994    10.7    4.854
C    -26.761    10.513    5.489
C    -25.977    9.402    5.164
C    -26.419    8.488    4.201
C    -27.645    8.681    3.563
H    -33.7288    9.9571    2.4171
H    -32.1007    10.0881    1.6994
H    -33.2285    9.3701    7.4003
H    -29.5577    9.6738    7.1149
H    -27.9116    7.942    12.0443
H    -26.6234    9.0913    11.9044
H    -28.1079    9.8943    9.114
H    -31.5798    9.9651    11.6283
H    -33.0404    9.7337    9.6424
H    -26.4156    11.2259    6.229
H    -25.0249    9.2483    5.6589
H    -25.8079    7.6285    3.9501
