48

C    27.961    2.269    52.947
C    27.316    3.634    53.34
C    27.449    4.12    54.724
C    28.234    3.264    55.685
C    28.821    2.064    55.371
C    28.687    1.56    54.022
C    27.88    1.658    51.489
C    26.928    0.246    51.441
C    29.929    0.311    50.691
C    27.558    -1.021    51.196
C    29.276    1.651    50.868
C    29.982    3.059    50.55
C    31.298    0.227    50.143
C    26.901    -2.395    51.028
C    30.248    -2.259    53.077
C    29.841    -2.149    51.643
C    25.321    0.43    51.627
C    23.313    2.035    51.396
C    23.148    2.468    52.895
C    23.059    3.116    50.359
N    29.099    -0.967    51.14
O    31.208    3.31    50.593
O    29.244    4.071    50.293
O    31.428    -0.172    48.941
O    32.149    0.604    50.994
O    24.601    -0.453    52.016
O    24.879    1.703    51.31
Cl    26.498    4.592    52.289
H    27.0006    5.0553    55.0388
H    28.3431    3.6238    56.7017
H    29.3734    1.5057    56.1182
H    29.1457    0.6067    53.7854
H    27.3131    2.3825    50.886
H    25.8078    -2.2885    51.0883
H    27.2484    -3.0676    51.826
H    27.175    -2.8152    50.0491
H    30.7832    -3.207    53.2345
H    29.3526    -2.2331    53.7154
H    30.9078    -1.418    53.3365
H    29.2111    -3.0253    51.4303
H    30.7663    -2.2102    51.0514
H    22.6844    1.1588    51.1791
H    22.0965    2.7271    53.0882
H    23.784    3.3426    53.0962
H    23.4476    1.6379    53.5516
H    23.2035    2.6988    49.3515
H    23.7622    3.9472    50.516
H    22.0274    3.4846    50.4586
