318

N    -12.289    3.44    29.903
C    -12.294    4.611    28.979
C    -11.174    4.48    27.956
O    -10.15    3.844    28.212
C    -12.089    5.948    29.743
O    -13.097    6.089    30.75
C    -12.179    7.136    28.786
N    -11.387    5.084    26.793
C    -10.401    5.07    25.722
C    -9.237    5.954    26.148
O    -8.104    5.79    25.697
C    -11.045    5.584    24.422
C    -10.097    6.235    23.415
S    -9.661    7.943    23.856
C    -11.15    8.81    23.343
N    -9.534    6.885    27.043
C    -8.54    7.814    27.548
C    -7.552    7.128    28.48
O    -6.373    7.47    28.504
C    -9.247    8.963    28.256
C    -10.189    9.699    27.322
C    -10.927    10.829    27.996
O    -11.568    11.62    27.267
O    -10.871    10.92    29.245
N    -8.032    6.16    29.249
C    -7.154    5.43    30.148
C    -6.225    4.55    29.322
O    -5.016    4.51    29.561
C    -7.971    4.571    31.109
C    -8.706    5.398    32.139
O    -8.091    6.145    32.906
N    -10.029    5.271    32.168
N    -6.794    3.848    28.346
C    -6.009    2.982    27.48
C    -4.917    3.814    26.832
O    -3.794    3.354    26.634
C    -6.888    2.384    26.384
C    -6.1    1.636    25.306
C    -5.461    0.403    25.915
C    -7.023    1.254    24.161
N    -5.273    5.047    26.498
C    -4.35    5.97    25.865
C    -3.162    6.29    26.77
O    -2.032    6.428    26.296
C    -5.081    7.257    25.494
O    -4.224    8.123    24.775
N    -3.408    6.408    28.071
C    -2.32    6.713    28.995
C    -1.436    5.485    29.157
O    -0.209    5.587    29.187
C    -2.867    7.138    30.356
C    -1.863    7.907    31.2
C    -2.346    8.044    32.637
N    -1.443    8.868    33.442
C    -1.476    8.95    34.77
N    -2.368    8.257    35.467
N    -0.611    9.729    35.403
N    -2.073    4.322    29.247
C    -1.363    3.056    29.4
C    -0.478    2.735    28.185
O    0.643    2.22    28.332
C    -2.374    1.928    29.643
C    -3.186    2.107    30.932
C    -3.967    0.846    31.316
N    -4.477    0.932    32.686
C    -5.071    -0.061    33.346
N    -5.245    -1.242    32.77
N    -5.491    0.125    34.591
N    -0.98    3.048    26.991
C    -0.236    2.81    25.763
C    0.95    3.763    25.672
O    2.003    3.401    25.148
C    -1.148    2.988    24.538
C    -2.207    1.902    24.287
C    -3.162    2.375    23.195
C    -1.535    0.58    23.896
N    0.779    4.984    26.177
C    1.864    5.965    26.16
C    2.931    5.56    27.159
O    4.125    5.69    26.888
C    1.341    7.37    26.48
C    0.753    8.059    25.26
C    0.203    9.434    25.565
C    -1.178    9.355    26.173
N    -1.928    10.626    25.919
N    2.497    5.062    28.312
C    3.424    4.611    29.339
C    4.244    3.453    28.794
O    5.469    3.401    28.966
C    2.674    4.121    30.594
C    3.62    3.358    31.499
C    2.068    5.316    31.333
N    3.553    2.53    28.132
C    4.192    1.355    27.557
C    5.111    1.747    26.398
O    6.221    1.226    26.274
C    3.141    0.332    27.05
O    2.197    0.053    28.094
C    3.829    -0.983    26.627
N    4.65    2.669    25.558
C    5.453    3.099    24.428
C    6.72    3.787    24.884
O    7.794    3.578    24.312
N    6.604    4.614    25.919
C    7.764    5.319    26.443
C    8.748    4.352    27.097
O    9.966    4.49    26.941
C    7.33    6.392    27.442
C    6.419    7.442    26.813
O    6.582    7.719    25.603
O    5.55    7.996    27.529
N    8.222    3.369    27.82
C    9.072    2.385    28.483
C    9.55    1.324    27.504
O    10.465    0.567    27.809
C    8.316    1.688    29.618
C    7.86    2.544    30.8
C    7.136    1.658    31.791
C    9.059    3.222    31.461
N    8.918    1.265    26.336
C    9.278    0.282    25.322
C    10.66    0.566    24.756
O    11.495    -0.331    24.652
C    8.261    0.294    24.18
C    8.529    -0.739    23.122
C    8.033    -2.033    23.252
C    9.297    -0.425    22.001
C    8.295    -3.0    22.286
C    9.567    -1.384    21.029
C    9.063    -2.678    21.173
N    10.885    1.819    24.373
C    12.166    2.235    23.81
C    13.3    1.93    24.786
O    14.468    1.854    24.4
C    12.141    3.736    23.499
C    11.082    4.104    22.473
O    11.2    3.684    21.303
O    10.125    4.815    22.838
N    12.938    1.754    26.052
C    13.899    1.463    27.104
C    13.976    -0.044    27.359
O    14.73    -0.766    26.704
C    13.488    2.168    28.416
C    13.205    3.647    28.143
C    14.587    2.02    29.456
C    12.688    4.402    29.349
N    13.177    -0.492    28.321
C    13.082    -1.887    28.735
C    12.975    -2.89    27.583
O    13.794    -3.834    27.541
C    11.88    -2.019    29.668
C    11.417    -3.423    29.954
S    10.042    -3.362    31.123
C    8.876    -2.294    30.257
O    12.069    -2.732    26.742
H    -12.4242    2.5933    29.373
H    -13.0343    3.5386    30.5745
H    -11.4052    3.3967    30.3858
H    -13.2619    4.6411    28.4572
H    -11.0969    5.9407    30.218
H    -12.9672    6.9077    31.214
H    -12.0312    8.0706    29.3469
H    -13.1698    7.1478    28.3083
H    -11.4008    7.0448    28.014
H    -12.2523    5.5638    26.6481
H    -10.0405    4.0431    25.5625
H    -11.8074    6.3281    24.6957
H    -11.5281    4.7297    23.9253
H    -10.583    6.2405    22.4282
H    -9.1739    5.6388    23.3658
H    -11.0384    9.8845    23.5503
H    -12.0134    8.4169    23.8997
H    -11.3092    8.6592    22.2651
H    -10.4729    6.9495    27.3812
H    -7.9781    8.2206    26.6942
H    -8.4922    9.6696    28.6314
H    -9.8246    8.5603    29.1011
H    -10.9268    8.9821    26.9325
H    -9.603    10.112    26.4877
H    -9.0046    5.9309    29.21
H    -6.5546    6.146    30.7295
H    -7.2917    3.8803    31.63
H    -8.7065    3.9942    30.529
H    -10.5671    5.794    32.829
H    -10.4861    4.6524    31.5289
H    -7.7816    3.9169    28.2046
H    -5.5611    2.1725    28.075
H    -7.447    3.2    25.9027
H    -7.594    1.6806    26.8496
H    -5.3079    2.2935    24.9184
H    -4.8941    -0.1361    25.1417
H    -6.2447    -0.2541    26.32
H    -4.7806    0.7047    26.725
H    -7.4744    2.1623    23.7353
H    -7.8168    0.591    24.5355
H    -6.446    0.7323    23.3833
H    -6.2068    5.35    26.6884
H    -3.9686    5.5027    24.9452
H    -5.4168    7.7604    26.4126
H    -5.9533    7.0112    24.8706
H    -4.6936    8.9181    24.5521
H    -4.3386    6.2878    28.4167
H    -1.7203    7.5366    28.5803
H    -3.1668    6.2351    30.9082
H    -3.7471    7.7774    30.1933
H    -1.7258    8.9101    30.77
H    -0.9026    7.3707    31.1934
H    -2.4095    7.0425    33.0875
H    -3.343    8.5086    32.6339
H    -0.7318    9.4236    32.9457
H    -2.3858    8.3269    36.4945
H    -3.0424    7.6493    34.9804
H    0.0835    10.2691    34.8674
H    -0.6331    9.7944    36.4307
H    -3.0722    4.3141    29.2086
H    -0.7106    3.1344    30.2821
H    -1.8265    0.976    29.7049
H    -3.0714    1.8953    28.793
H    -3.8986    2.9325    30.7878
H    -2.4959    2.3571    31.7513
H    -3.3013    -0.026    31.2357
H    -4.8145    0.7253    30.6252
H    -4.3679    1.8305    33.1777
H    -5.7053    -2.0045    33.2874
H    -4.92    -1.3972    31.805
H    -5.3604    1.0391    35.0474
H    -5.9476    -0.6447    35.1009
H    -1.8911    3.4568    26.9374
H    0.1409    1.7767    25.7748
H    -0.5025    3.0326    23.6485
H    -1.6771    3.9452    24.6555
H    -2.7795    1.7424    25.2126
H    -3.9218    1.6009    23.0119
H    -2.5975    2.5608    22.2694
H    -3.6553    3.3041    23.5165
H    -0.8537    0.2634    24.6995
H    -0.965    0.7195    22.9656
H    -2.3043    -0.1911    23.7426
H    -0.1044    5.2336    26.5736
H    2.3085    5.9795    25.1539
H    2.1735    7.9786    26.8628
H    0.5607    7.2897    27.2511
H    -0.0622    7.4354    24.8643
H    1.5414    8.1578    24.4994
H    0.1499    10.0131    24.6313
H    0.8766    9.9397    26.2724
H    -1.089    9.1962    27.2578
H    -1.7256    8.5138    25.723
H    -2.8467    10.5616    26.3287
H    -2.0128    10.7733    24.9254
H    -1.4294    11.3986    26.3319
H    1.513    4.9958    28.4773
H    4.0902    5.4419    29.6142
H    1.8617    3.4474    30.2836
H    3.076    3.013    32.3906
H    4.4457    4.017    31.8055
H    4.025    2.4901    30.9579
H    1.3855    5.8556    30.6599
H    2.8723    5.992    31.6586
H    1.5104    4.9595    32.2116
H    2.5655    2.6462    28.0259
H    4.798    0.8754    28.3397
H    2.6123    0.7582    26.1846
H    1.7589    0.8572    28.3465
H    3.0704    -1.6956    26.2709
H    4.3598    -1.413    27.4892
H    4.5471    -0.7778    25.8194
H    3.7451    3.0683    25.7057
H    4.8652    3.7995    23.8166
H    5.7205    2.2199    23.8234
H    5.7087    4.753    26.3423
H    8.2741    5.8133    25.6031
H    8.2275    6.8929    27.8338
H    6.7906    5.9067    28.2687
H    7.2284    3.3024    27.9113
H    9.9463    2.9053    28.9012
H    8.974    0.9017    30.0165
H    7.418    1.2276    29.1803
H    7.1691    3.3199    30.4386
H    6.8022    2.2623    32.6474
H    7.8165    0.8685    32.1424
H    6.2631    1.1995    31.3034
H    9.5707    3.8602    30.7256
H    9.7566    2.4555    31.8295
H    8.713    3.8385    32.3037
H    8.1777    1.9107    26.1486
H    9.2819    -0.7151    25.7865
H    8.2802    1.2875    23.7082
H    7.2625    0.1078    24.6021
H    7.4342    -2.2912    24.1179
H    9.6888    0.5791    21.8852
H    7.9006    -4.0031    22.4014
H    10.1665    -1.1271    20.1632
H    9.2699    -3.4291    20.4193
H    10.1558    2.4959    24.4735
H    12.3405    1.6797    22.8766
H    13.1263    4.0313    23.1093
H    11.9352    4.285    24.4297
H    11.9693    1.8242    26.2903
H    14.8888    1.8275    26.792
H    12.5716    1.6969    28.801
H    12.4531    3.7145    27.3429
H    14.1389    4.1232    27.8097
H    14.7768    0.9521    29.6394
H    14.2725    2.5027    30.3931
H    15.5068    2.498    29.088
H    12.5092    5.4522    29.0751
H    13.4324    4.3556    30.1575
H    11.7467    3.9469    29.6907
H    12.6004    0.1739    28.7944
H    13.9938    -2.1328    29.2991
H    11.0397    -1.4737    29.2135
H    12.1454    -1.5503    30.6271
H    12.2447    -4.003    30.3882
H    11.0857    -3.8996    29.0196
H    7.9706    -2.1674    30.8688
H    8.6064    -2.7508    29.2933
H    9.3394    -1.3121    30.0805
