38

C    -22.232    40.013    93.233
C    -21.898    43.102    91.804
C    -21.95    41.429    89.823
C    -19.563    39.377    92.755
C    -21.601    39.062    94.043
C    -22.41    44.176    90.84
C    -18.116    39.04    92.478
C    -17.261    38.98    93.753
O    -23.546    40.309    93.493
C    -20.264    38.746    93.793
N    -15.836    38.71    93.443
C    -20.212    40.329    91.957
C    -21.554    40.658    92.184
C    -22.255    41.683    91.319
C    -21.717    43.968    89.491
C    -22.155    42.629    88.882
H    -22.3514    43.2652    92.7928
H    -20.8042    43.1867    91.8836
H    -22.6052    40.6152    89.4789
H    -20.8995    41.113    89.7421
H    -22.1404    38.5794    94.8499
H    -22.1706    45.1752    91.2327
H    -23.4992    44.0808    90.719
H    -17.6981    39.8086    91.8112
H    -18.073    38.06    91.9803
H    -17.6432    38.1781    94.4017
H    -17.3355    39.9435    94.2784
H    -24.0702    39.5216    93.4051
H    -19.7633    38.0061    94.4069
H    -15.3061    38.6775    94.2999
H    -15.4757    39.4434    92.8528
H    -15.7577    37.8256    92.9657
H    -19.669    40.8161    91.1551
H    -23.3393    41.5558    91.4536
H    -20.6268    43.9632    89.6375
H    -21.9918    44.7864    88.8093
H    -23.2236    42.6946    88.6295
H    -21.5716    42.4562    87.9656
