48

P         26.43000       21.07500        0.58900
O         25.62200       19.98900       -0.02900
O         26.09500       22.50000        0.29200
O         26.42900       20.83200        2.18000
O         27.99600       20.80000        0.24400
P         27.44300       21.62700        3.14400
O         27.30800       23.07900        2.88200
O         28.77600       20.99200        3.06800
O         26.79300       21.31200        4.57800
P         26.76100       19.82000        5.19700
O         28.09900       19.21700        5.43300
O         25.83400       18.89400        4.24700
O         25.92900       19.99600        6.57900
C         28.74500       21.61800       -0.66400
C         29.58100       20.78800       -1.65000
O         30.17300       19.60700       -1.01900
C         28.69400       20.25300       -2.77800
O         28.62400       21.23900       -3.82600
C         29.47800       19.02400       -3.24500
O         30.54000       19.41800       -4.12400
C         30.08000       18.48500       -1.93200
N         29.17600       17.47500       -1.32500
C         28.26500       17.69100       -0.37300
N         27.65300       16.54100       -0.11300
C         26.58000       16.41500        0.90500
C         28.15700       15.56700       -0.87900
C         27.93400       14.19200       -1.03500
O         27.09500       13.57900       -0.37100
N         28.69500       13.49800       -1.97700
C         29.66100       14.18700       -2.72400
N         30.41100       13.55800       -3.62300
N         29.84600       15.49700       -2.55300
C         29.13600       16.18700       -1.65400
H         29.42140       22.26200       -0.08290
H         28.04390       22.24380       -1.23560
H         30.37640       21.42510       -2.06410
H         27.68550       19.98880       -2.42710
H         28.25340       22.04210       -3.47940
H         28.82640       18.28500       -3.73410
H         31.01830       18.64720       -4.40640
H         31.07140       18.04560       -2.11640
H         28.05900       18.64610        0.10780
H         26.39210       17.39730        1.36310
H         26.89340       15.70210        1.68190
H         25.65940       16.05240        0.42450
H         28.55260       12.51830       -2.11790
H         31.11570       14.08090       -4.16230
H         30.28760       12.54760       -3.78040
