75

N    -8.235    14.011    -13.768
C    -8.878    15.172    -14.157
C    -10.202    15.384    -13.775
C    -10.858    16.554    -14.113
C    -10.163    17.514    -14.819
C    -8.855    17.328    -15.255
C    -8.214    16.152    -14.918
S    -11.118    18.915    -15.327
O    -12.291    19.035    -14.468
O    -10.196    20.046    -15.481
N    -11.685    18.666    -16.902
C    -10.703    18.425    -17.965
C    -11.063    19.016    -19.343
C    -11.166    20.537    -19.291
C    -9.956    18.596    -20.327
C    -12.983    17.988    -17.028
C    -14.073    18.88    -17.669
O    -15.167    18.029    -18.041
C    -14.578    19.96    -16.699
N    -15.426    20.9    -17.405
C    -15.089    22.188    -17.654
O    -14.106    22.785    -17.271
O    -16.069    22.71    -18.437
C    -15.993    24.128    -18.724
C    -16.56    24.326    -20.128
O    -17.969    24.24    -19.95
C    -18.34    24.779    -18.673
O    -19.215    23.909    -18.026
C    -18.515    23.265    -16.965
C    -17.402    24.225    -16.504
C    -17.037    24.875    -17.843
C    -15.24    19.467    -15.392
C    -16.926    21.077    -14.393
C    -17.27    22.147    -13.575
C    -16.273    22.835    -12.884
C    -14.943    22.406    -12.954
C    -14.649    21.256    -13.666
C    -15.609    20.631    -14.477
H    -8.7381    13.3055    -13.2112
H    -7.2531    13.8519    -14.0351
H    -10.7236    14.6228    -13.2062
H    -11.8924    16.7126    -13.8302
H    -8.352    18.0864    -15.8439
H    -7.1933    15.9828    -15.2416
H    -10.5887    17.3372    -18.0815
H    -9.7449    18.8625    -17.6478
H    -12.0282    18.6058    -19.6747
H    -11.4234    20.9214    -20.289
H    -10.2013    20.9592    -18.9731
H    -11.9476    20.8273    -18.5735
H    -9.8896    17.4984    -20.3574
H    -8.9934    19.0125    -19.9955
H    -10.1941    18.9769    -21.3311
H    -13.3207    17.6887    -16.0248
H    -12.8512    17.0924    -17.6529
H    -13.6608    19.3693    -18.5638
H    -14.8632    17.3782    -18.6628
H    -13.684    20.5166    -16.3813
H    -16.3155    20.5773    -17.7285
H    -14.9718    24.5193    -18.6055
H    -16.2037    23.5378    -20.8075
H    -16.2766    25.3107    -20.528
H    -18.8052    25.7689    -18.79
H    -18.0752    22.3219    -17.3216
H    -19.2023    23.0572    -16.1317
H    -16.55    23.6826    -16.0683
H    -17.775    24.9643    -15.78
H    -16.7151    25.9139    -17.6784
H    -14.5378    18.8058    -14.8632
H    -16.1528    18.9068    -15.6431
H    -17.6949    20.5817    -14.9748
H    -18.3074    22.4449    -13.4748
H    -16.5293    23.7052    -12.2906
H    -14.1566    22.9645    -12.4593
H    -13.6553    20.8286    -13.5957
