59

C    23.495    -17.251    5.431
N    22.356    -18.599    9.703
N    22.853    -16.829    8.364
C    23.23    -18.192    6.272
O    22.308    -21.434    8.724
N    23.212    -19.46    5.809
C    22.919    -17.947    7.613
N    22.362    -14.292    9.314
C    22.313    -14.895    10.538
N    22.187    -14.209    11.686
O    22.19    -15.283    12.642
N    22.311    -16.593    12.041
C    22.356    -16.272    10.726
C    22.509    -17.261    9.599
C    21.973    -19.395    10.885
C    23.16    -19.998    11.598
C    23.758    -16.535    4.508
C    23.836    -15.626    3.343
C    23.025    -14.366    3.627
C    25.295    -15.276    3.082
O    23.324    -16.28    2.178
C    22.615    -19.029    8.449
C    22.609    -20.337    7.946
C    22.922    -20.507    6.593
C    22.036    -22.721    8.149
C    21.489    -23.699    9.184
C    20.195    -23.178    9.795
N    19.747    -24.015    10.902
C    20.667    -24.607    11.858
C    22.0    -25.013    11.232
C    22.507    -23.927    10.293
H    22.4594    -14.8628    8.4622
H    22.3015    -13.2663    9.2424
H    21.3086    -20.209    10.5596
H    21.4357    -18.7422    11.5886
H    22.8111    -20.5767    12.466
H    23.8302    -19.1949    11.9382
H    23.7031    -20.6617    10.9092
H    23.0827    -13.6899    2.7612
H    23.4322    -13.8602    4.5149
H    21.9752    -14.639    3.8097
H    25.8623    -16.1964    2.8796
H    25.7152    -14.7731    3.9655
H    25.3614    -14.6057    2.2124
H    23.8331    -17.0636    2.0066
H    22.93    -21.5054    6.1708
H    22.9684    -23.1289    7.7315
H    21.2951    -22.6024    7.3447
H    21.2848    -24.6579    8.6852
H    19.4147    -23.1643    9.0198
H    20.3618    -22.1558    10.1656
H    19.2439    -24.783    10.4859
H    19.1104    -23.4488    11.4407
H    20.1956    -25.5022    12.2898
H    20.8629    -23.875    12.6553
H    21.8634    -25.9456    10.6649
H    22.7395    -25.1741    12.0302
H    22.6509    -22.9932    10.8563
H    23.4648    -24.241    9.8526
