100

O    20.888    27.586    18.779
C    21.354    26.421    18.721
N    22.983    24.755    19.335
C    22.459    25.945    19.616
C    22.888    26.768    20.673
C    23.887    26.264    21.511
C    24.453    25.006    21.221
C    25.539    24.437    21.964
C    26.046    23.21    21.621
C    25.58    22.481    20.505
C    24.511    22.974    19.799
C    23.98    24.26    20.114
N    20.911    25.482    17.889
C    19.796    25.72    17.015
C    18.8    24.573    17.164
O    18.959    23.507    16.488
C    20.166    25.877    15.515
C    21.098    27.074    15.408
O    20.63    28.196    15.434
N    22.415    26.741    15.379
C    15.482    24.382    18.027
O    15.136    25.489    18.896
C    16.861    23.824    18.414
N    17.851    24.824    18.062
C    16.94    23.438    19.899
C    18.34    23.245    20.413
C    19.006    22.015    20.201
C    18.999    24.251    21.072
C    20.274    21.863    20.693
C    20.255    24.095    21.571
C    20.925    22.894    21.364
N    14.449    22.518    16.759
C    14.41    23.31    18.025
C    13.825    21.227    16.932
C    14.565    20.409    17.988
O    15.778    20.343    18.022
C    13.962    20.431    15.61
C    13.205    21.169    14.495
C    13.384    20.387    13.135
C    14.877    20.47    12.651
C    15.24    21.925    12.418
C    15.196    22.648    13.783
C    13.778    22.596    14.343
C    13.708    23.28    15.719
N    13.728    19.788    18.88
C    14.204    18.884    19.955
C    14.94    17.699    19.286
C    12.951    18.352    20.692
C    15.057    19.664    20.96
H    22.4617    27.752    20.8312
H    24.2215    26.8323    22.3713
H    25.9617    24.9798    22.8017
H    26.8348    22.7832    22.2299
H    26.0561    21.5522    20.2122
H    24.0703    22.3861    19.002
H    21.3643    24.5908    17.8717
H    19.3125    26.6538    17.3379
H    19.2583    26.0509    14.9185
H    20.6735    24.9701    15.1545
H    23.1102    27.4565    15.3099
H    22.689    25.7805    15.4268
H    15.5558    24.7719    17.0011
H    14.2831    25.8281    18.6507
H    17.0507    22.9167    17.8217
H    17.8195    25.7207    18.5035
H    16.388    22.4971    20.0406
H    16.4632    24.2351    20.4883
H    18.5221    21.2098    19.6602
H    18.501    25.2053    21.2
H    20.7839    20.9162    20.5567
H    20.7284    24.8982    22.124
H    21.9403    22.7627    21.7204
H    15.4068    22.3887    16.4726
H    13.4235    23.7872    18.1207
H    14.5749    22.6345    18.8773
H    12.7681    21.3527    17.2096
H    13.5361    19.4252    15.7403
H    15.0249    20.3469    15.3396
H    12.1365    21.2259    14.7501
H    12.7296    20.8325    12.3713
H    13.1088    19.3324    13.2837
H    14.9928    19.9063    11.7136
H    15.5383    20.0434    13.4196
H    14.5175    22.3849    11.7277
H    16.2511    21.9945    11.9904
H    15.4997    23.6971    13.6518
H    15.8845    22.1517    14.4827
H    13.1307    23.1468    13.6448
H    14.1445    24.2864    15.6377
H    12.6536    23.361    16.0219
H    12.745    19.9536    18.8012
H    15.3054    17.0096    20.0613
H    15.7915    18.0787    18.7022
H    14.2465    17.1661    18.6189
H    13.2616    17.6744    21.5009
H    12.3119    17.8066    19.982
H    12.3892    19.1969    21.1169
H    15.4041    18.984    21.7519
H    14.4541    20.4687    21.406
H    15.9254    20.0994    20.4439
