33

O    13.749    48.411    40.676
C    13.802    47.17    40.463
O    13.009    46.598    39.681
C    14.892    46.387    41.176
C    14.725    44.853    41.234
C    16.031    44.122    41.646
C    16.975    44.314    40.437
O    16.87    43.568    39.392
O    17.884    45.206    40.459
N    16.714    44.835    42.72
C    17.945    44.448    43.06
O    18.393    43.406    42.549
N    18.66    45.223    43.879
C    19.969    44.88    44.399
C    20.123    45.482    45.779
O    20.649    44.778    46.672
O    19.67    46.641    45.976
C    20.872    45.685    43.453
S    22.584    45.533    43.937
C    23.065    45.726    42.241
H    14.9429    46.7552    42.2113
H    15.8424    46.5988    40.6643
H    14.4201    44.4946    40.2397
H    13.941    44.6121    41.967
H    15.8492    43.067    41.8987
H    16.2695    45.5969    43.191
H    18.2655    46.1003    44.1525
H    20.1718    43.7989    44.3935
H    20.5791    46.7447    43.4884
H    20.7512    45.3052    42.4277
H    24.1612    45.6786    42.1631
H    22.7128    46.6992    41.8684
H    22.6195    44.92    41.6395
