151

N    31.267    4.464    11.534
C    32.152    3.451    12.159
C    31.677    3.075    13.549
O    31.212    3.922    14.328
C    33.605    3.914    12.216
C    34.557    2.84    12.724
C    35.076    1.858    11.863
C    34.934    2.803    14.06
C    35.949    0.867    12.345
C    35.796    1.844    14.54
C    36.298    0.883    13.688
O    37.151    -0.046    14.199
N    31.774    1.781    13.819
C    31.498    1.21    15.108
C    30.253    0.344    15.057
O    30.201    -0.473    16.205
C    32.692    0.355    15.496
O    33.202    -0.413    14.667
P    28.877    -0.199    17.106
O    28.929    -1.284    18.296
O    28.882    1.278    17.713
O    27.547    -0.427    16.221
N    33.143    0.486    16.759
C    34.266    -0.293    17.278
C    33.966    -1.79    17.476
O    34.846    -2.547    17.895
C    34.586    0.409    18.602
C    33.26    0.985    19.039
C    32.609    1.426    17.763
N    32.742    -2.212    17.165
C    32.406    -3.635    17.159
C    32.214    -4.185    15.75
O    31.905    -5.36    15.594
C    31.136    -3.963    17.968
O    30.012    -3.262    17.418
C    31.316    -3.624    19.445
N    32.394    -3.349    14.729
C    32.126    -3.774    13.357
C    33.093    -4.88    12.946
O    34.262    -4.849    13.337
C    32.239    -2.6    12.399
O    33.565    -2.134    12.372
N    32.608    -5.873    12.17
C    33.502    -6.959    11.752
C    34.705    -6.475    10.932
O    34.588    -5.526    10.137
C    32.598    -7.865    10.914
C    31.402    -7.032    10.564
C    31.231    -6.066    11.682
N    35.857    -7.105    11.157
C    37.049    -6.853    10.342
C    36.892    -7.473    8.945
O    36.142    -8.451    8.787
C    38.291    -7.4    11.043
O    38.712    -6.512    12.064
N    37.56    -6.904    7.936
C    37.452    -7.451    6.571
C    38.354    -8.677    6.361
O    39.422    -8.776    6.949
C    37.623    -6.378    5.463
C    38.989    -5.705    5.386
C    40.066    -6.342    4.762
C    39.194    -4.418    5.908
C    41.318    -5.734    4.68
C    40.455    -3.799    5.839
C    41.513    -4.477    5.225
O    42.77    -3.916    5.132
N    37.887    -9.625    5.552
C    38.648    -10.844    5.242
C    38.511    -11.898    6.36
O    37.336    -12.676    6.223
C    38.193    -11.385    3.889
O    37.184    -10.916    3.362
P    37.359    -13.964    7.205
O    36.844    -13.483    8.647
O    36.406    -15.13    6.625
O    38.86    -14.56    7.324
N    38.942    -12.355    3.312
C    38.573    -12.938    2.025
C    37.378    -13.875    2.148
O    36.29    -13.549    1.681
C    39.818    -13.745    1.634
C    40.898    -13.293    2.548
C    40.193    -12.944    3.812
H    31.6118    4.6895    10.614
H    31.2558    5.2966    12.102
H    30.3321    4.0943    11.4611
H    32.1119    2.5476    11.5328
H    33.6689    4.7835    12.8868
H    33.9182    4.2082    11.2034
H    34.7999    1.8647    10.8148
H    34.5395    3.548    14.7415
H    36.3417    0.1056    11.6808
H    36.08    1.8439    15.5861
H    36.7125    -0.5323    14.8874
H    32.0558    1.1662    13.0823
H    31.3541    2.0124    15.8465
H    30.2832    -0.2888    14.1578
H    29.3607    0.9864    15.0235
H    35.1207    -0.2096    16.5906
H    35.3286    1.2066    18.4524
H    34.964    -0.3094    19.3443
H    33.4102    1.8394    19.7153
H    32.6505    0.2208    19.5435
H    31.5141    1.3463    17.8326
H    32.8864    2.4619    17.5181
H    32.0379    -1.5417    16.9306
H    33.2501    -4.1673    17.6217
H    30.9446    -5.0431    17.8864
H    30.1746    -2.3268    17.4547
H    30.394    -3.8694    19.9925
H    31.5308    -2.5504    19.5513
H    32.1528    -4.2078    19.8559
H    32.7166    -2.4187    14.9036
H    31.1002    -4.1681    13.3079
H    31.574    -1.7902    12.7336
H    31.9447    -2.9227    11.3894
H    33.8191    -1.8546    13.2437
H    33.8753    -7.4988    12.6348
H    32.2938    -8.7475    11.4959
H    33.1197    -8.1894    10.0016
H    30.509    -7.6672    10.4684
H    31.5735    -6.4958    9.619
H    30.8027    -5.1185    11.3232
H    30.5876    -6.4841    12.4702
H    35.9101    -7.7687    11.9031
H    37.167    -5.7656    10.2256
H    39.1006    -7.517    10.3076
H    38.0553    -8.3781    11.4876
H    38.9181    -5.667    11.682
H    38.1352    -6.1042    8.1079
H    36.4189    -7.8164    6.4749
H    36.8713    -5.5937    5.6357
H    37.4318    -6.8621    4.4939
H    39.9248    -7.3277    4.3337
H    38.3669    -3.8928    6.3718
H    42.1382    -6.2456    4.1896
H    40.6049    -2.8097    6.2561
H    43.3528    -4.5197    4.6866
H    36.9842    -9.5035    5.1394
H    39.7119    -10.5757    5.1642
H    38.4826    -11.3822    7.3311
H    39.384    -12.5664    6.3252
H    38.3545    -12.153    1.2861
H    37.4887    -14.8348    2.6505
H    40.0922    -13.5431    0.588
H    39.6327    -14.8215    1.7633
H    41.4145    -12.4139    2.1352
H    41.6262    -14.0996    2.7187
H    39.9979    -13.839    4.421
H    40.7689    -12.2167    4.403
