119

N    13.311    0.689    -0.666
C    12.813    1.427    -1.818
C    13.889    2.343    -2.365
O    14.266    3.311    -1.711
C    11.66    2.244    -1.233
C    11.142    1.406    -0.127
C    12.332    0.668    0.442
N    14.372    2.025    -3.561
C    15.484    2.734    -4.176
C    15.06    4.04    -4.839
O    13.921    4.174    -5.305
C    16.202    1.831    -5.189
O    15.29    1.209    -6.079
N    15.994    4.992    -4.871
C    15.798    6.282    -5.53
C    15.493    6.121    -7.018
O    16.125    5.318    -7.72
C    17.017    7.207    -5.34
C    16.831    8.574    -5.984
C    16.185    9.609    -5.3
C    17.264    8.817    -7.287
C    15.997    10.855    -5.888
C    17.078    10.069    -7.894
C    16.445    11.079    -7.186
O    16.258    12.308    -7.774
N    14.509    6.884    -7.483
C    14.215    6.971    -8.9
C    12.993    6.118    -9.263
O    12.558    6.416    -10.578
C    14.011    8.429    -9.315
O    13.287    9.171    -8.64
P    12.452    5.129    -11.55
O    10.993    4.466    -11.405
O    12.658    5.639    -13.065
O    13.59    4.037    -11.205
N    14.644    8.838    -10.438
C    14.532    10.204    -10.981
C    13.121    10.577    -11.443
O    12.833    11.761    -11.603
C    15.471    10.174    -12.194
C    15.538    8.741    -12.583
C    15.511    7.994    -11.283
N    12.268    9.577    -11.666
C    10.894    9.802    -12.136
C    9.951    10.263    -11.028
O    8.926    10.893    -11.299
C    10.268    8.527    -12.755
O    10.417    7.427    -11.848
C    10.905    8.184    -14.095
N    10.291    9.934    -9.785
C    9.401    10.177    -8.651
C    9.507    9.032    -7.641
O    10.861    8.752    -7.35
C    9.658    11.522    -7.966
O    10.811    11.961    -7.88
P    11.031    8.061    -5.904
O    10.572    6.515    -5.975
O    12.596    8.154    -5.522
O    10.124    8.822    -4.802
N    8.579    12.18    -7.484
C    8.675    13.465    -6.787
C    9.509    13.381    -5.511
O    9.754    14.403    -4.866
C    7.212    13.791    -6.44
C    6.4    12.99    -7.39
C    7.178    11.729    -7.593
H    14.1601    1.125    -0.3421
H    13.506    -0.2594    -0.9462
H    12.462    0.7475    -2.6086
H    10.8805    2.4155    -1.99
H    12.0211    3.211    -0.853
H    10.3975    0.6913    -0.5076
H    10.6814    2.0385    0.6461
H    12.7291    1.1854    1.3278
H    12.0632    -0.3644    0.7101
H    13.9536    1.266    -4.0599
H    16.1983    2.9844    -3.3779
H    16.754    1.0519    -4.6429
H    16.9082    2.4407    -5.7716
H    15.7689    0.6602    -6.6889
H    16.8701    4.8146    -4.4227
H    14.9299    6.7659    -5.0587
H    17.8971    6.7243    -5.7898
H    17.1864    7.3472    -4.2622
H    15.8241    9.4365    -4.2925
H    17.7533    8.0244    -7.8415
H    15.5037    11.648    -5.3377
H    17.4257    10.2443    -8.9057
H    15.7301    12.2061    -8.5572
H    13.9566    7.4122    -6.8381
H    15.0802    6.5766    -9.453
H    12.1788    6.3306    -8.5546
H    13.2629    5.0533    -9.2027
H    14.8701    10.9381    -10.2348
H    16.4686    10.5492    -11.9219
H    15.0627    10.7805    -13.0159
H    16.4676    8.5308    -13.1322
H    14.6739    8.467    -13.2062
H    15.0815    6.9896    -11.4122
H    16.5204    7.9088    -10.8541
H    12.5747    8.6385    -11.5075
H    10.9341    10.5845    -12.9081
H    9.1954    8.7094    -12.9171
H    11.3405    7.277    -11.6829
H    10.4361    7.276    -14.5021
H    11.982    8.0092    -13.955
H    10.757    9.0188    -14.7958
H    11.1809    9.5082    -9.6214
H    8.3711    10.1953    -9.037
H    9.034    8.1327    -8.0624
H    8.9893    9.3183    -6.7136
H    9.1039    14.2313    -7.4494
H    9.8876    12.4184    -5.1704
H    7.0138    14.8648    -6.5731
H    6.988    13.5026    -5.4024
H    6.2774    13.5266    -8.3424
H    5.4104    12.7697    -6.9632
H    6.9398    10.9884    -6.8154
H    6.9781    11.2968    -8.5846
