182

N    5.374    22.958    43.943
C    3.91    22.649    43.902
C    3.691    21.192    44.261
O    4.638    20.393    44.255
C    3.222    22.964    42.538
C    3.737    22.062    41.422
C    3.359    24.448    42.186
C    2.707    21.78    40.314
N    2.437    20.868    44.564
C    2.067    19.531    45.005
C    1.136    18.875    43.977
O    0.666    19.523    43.032
C    1.31    19.595    46.337
O    0.162    20.455    46.196
C    2.206    20.129    47.457
N    0.871    17.584    44.163
C    -0.03    16.861    43.271
C    -1.433    17.475    43.382
O    -2.155    17.571    42.404
C    -0.056    15.378    43.636
C    -0.942    14.555    42.761
C    -0.8    14.583    41.38
C    -1.924    13.746    43.315
C    -1.632    13.817    40.561
C    -2.746    12.971    42.49
C    -2.604    13.014    41.127
N    -1.793    17.887    44.59
C    -3.065    18.569    44.824
C    -3.25    19.814    43.956
O    -4.352    20.092    43.516
C    -3.19    18.917    46.308
C    -3.299    17.658    47.156
C    -3.323    17.96    48.652
O    -4.263    18.66    49.103
O    -2.406    17.501    49.368
N    -2.173    20.56    43.725
C    -2.19    21.734    42.826
C    -2.482    21.275    41.398
O    -3.217    21.939    40.664
C    -0.861    22.482    42.853
C    -0.541    23.067    44.224
O    -1.474    23.453    44.936
O    0.649    23.142    44.564
N    -1.904    20.141    41.004
C    -2.169    19.603    39.66
C    -3.629    19.208    39.551
O    -4.297    19.556    38.564
C    -1.261    18.418    39.334
C    0.237    18.763    39.221
C    1.059    17.506    39.051
C    0.496    19.7    38.036
N    -4.135    18.518    40.568
C    -5.557    18.11    40.565
C    -6.499    19.303    40.45
O    -7.522    19.243    39.72
C    -5.889    17.279    41.817
C    -5.269    15.88    41.868
C    -5.388    15.302    43.277
C    -5.888    14.947    40.835
N    -6.166    20.371    41.167
C    -6.954    21.602    41.149
C    -6.878    22.263    39.781
O    -7.867    22.816    39.297
C    -6.469    22.585    42.215
C    -6.889    22.195    43.638
O    -7.72    21.278    43.836
O    -6.359    22.835    44.572
N    -5.698    22.219    39.158
C    -5.46    22.958    37.912
C    -6.229    22.301    36.779
O    -6.916    22.973    36.0
C    -3.967    22.922    37.575
C    -3.543    23.771    36.385
C    -3.438    25.159    36.49
C    -3.195    23.179    35.171
C    -3.033    25.935    35.412
C    -2.769    23.95    34.085
C    -2.692    25.325    34.211
O    -2.289    26.117    33.146
N    -6.089    20.988    36.681
C    -6.664    20.229    35.574
C    -8.087    19.746    35.835
O    -8.818    19.448    34.886
C    -5.748    19.059    35.199
C    -4.448    19.514    34.566
C    -3.227    19.335    35.222
C    -4.437    20.143    33.318
C    -2.043    19.775    34.662
C    -3.251    20.584    32.739
C    -2.042    20.37    33.415
O    -0.84    20.792    32.877
N    -8.469    19.673    37.111
C    -9.821    19.275    37.528
C    -10.83    20.41    37.466
O    -10.652    21.343    36.673
H    5.7407    22.7274    44.8532
H    5.5154    23.9396    43.7626
H    5.8518    22.4151    43.2409
H    3.4214    23.2708    44.6666
H    2.1488    22.7534    42.6556
H    4.0382    21.1016    41.8657
H    4.6128    22.5451    40.9642
H    2.9764    25.0588    43.017
H    2.7805    24.6639    41.2757
H    4.4185    24.6874    42.0125
H    3.1571    21.1256    39.553
H    2.4012    22.7282    39.8477
H    1.8266    21.2846    40.7492
H    1.725    21.5659    44.4863
H    2.977    18.9246    45.124
H    0.9732    18.5822    46.6031
H    0.4491    21.327    45.952
H    1.6364    20.1632    48.3974
H    2.5503    21.1416    47.1999
H    3.0753    19.466    47.5788
H    1.297    17.1006    44.9278
H    0.3265    16.9645    42.2356
H    -0.4089    15.2828    44.6735
H    0.9683    14.9845    43.5595
H    -0.0345    15.2066    40.9326
H    -2.0546    13.7145    44.3907
H    -1.5158    13.8521    39.4838
H    -3.5013    12.3313    42.9319
H    -3.253    12.4192    40.4944
H    -1.1778    17.7269    45.3619
H    -3.8721    17.8669    44.5679
H    -4.0899    19.5313    46.4589
H    -2.3015    19.4852    46.6204
H    -2.4352    17.0119    46.9406
H    -4.2267    17.1314    46.8877
H    -1.3156    20.3165    44.1785
H    -2.9862    22.418    43.1549
H    -0.9046    23.3028    42.122
H    -0.0587    21.7836    42.5728
H    -1.2882    19.654    41.6234
H    -1.9678    20.3969    38.9257
H    -1.5871    17.991    38.3741
H    -1.3801    17.6669    40.1288
H    0.5492    19.269    40.1465
H    2.1235    17.7719    38.9723
H    0.7433    16.9823    38.1367
H    0.9085    16.8491    39.9204
H    -0.1006    20.6163    38.156
H    0.2102    19.1962    37.1009
H    1.5642    19.96    38.0008
H    -3.55    18.2728    41.3411
H    -5.7178    17.4723    39.6832
H    -6.982    17.1664    41.8681
H    -5.5364    17.8373    42.6967
H    -4.1993    15.9768    41.6305
H    -4.9394    14.2979    43.3005
H    -6.4495    15.236    43.5578
H    -4.8607    15.9558    43.9873
H    -5.7866    15.3901    39.8333
H    -6.9537    14.8006    41.065
H    -5.3707    13.9766    40.8607
H    -5.347    20.3312    41.7394
H    -8.0027    21.3455    41.3597
H    -6.8842    23.5781    41.9886
H    -5.3706    22.629    42.1752
H    -4.9593    21.67    39.5491
H    -5.7902    24.0004    38.0314
H    -3.6929    21.8783    37.3614
H    -3.4119    23.2738    38.4571
H    -3.6773    25.6404    37.4313
H    -3.2559    22.1017    35.0675
H    -2.983    27.0137    35.5071
H    -2.5006    23.4725    33.1496
H    -2.2951    27.0292    33.4111
H    -5.5738    20.5014    37.3865
H    -6.7096    20.9061    34.7083
H    -6.2787    18.4109    34.486
H    -5.515    18.4883    36.1101
H    -3.2085    18.8422    36.1873
H    -5.3721    20.2904    32.7899
H    -1.1116    19.653    35.2029
H    -3.262    21.0861    31.7784
H    -0.8619    21.734    32.7558
H    -7.8015    19.9007    37.8199
H    -9.7726    18.9077    38.5637
H    -10.1656    18.4656    36.8676
H    -11.7041    20.4021    38.1154
