70

C    -0.116    19.872    20.551
O    1.132    19.669    19.898
C    2.162    19.955    20.796
C    1.938    20.089    22.15
C    2.977    20.393    23.006
C    4.239    20.537    22.459
C    4.471    20.387    21.108
C    3.424    20.098    20.255
N    3.546    19.938    18.854
C    4.596    20.336    18.013
N    5.563    21.119    18.505
C    6.587    21.497    17.727
N    7.638    22.317    18.172
C    7.822    22.81    19.474
C    6.766    23.165    20.289
C    6.993    23.653    21.557
C    8.276    23.799    22.041
C    9.338    23.452    21.234
F    10.618    23.578    21.659
C    9.101    22.968    19.966
C    10.274    22.607    19.156
O    10.376    22.948    17.988
N    11.19    21.869    19.861
C    6.6    21.056    16.415
C    7.466    21.228    15.305
C    6.924    20.533    14.252
N    5.77    19.949    14.684
C    5.561    20.259    16.001
N    4.536    19.865    16.757
N    2.747    20.531    24.395
C    3.997    20.454    25.127
C    3.658    20.165    26.566
N    2.842    21.304    27.063
C    1.621    21.586    26.231
C    1.985    21.725    24.759
C    2.596    21.203    28.541
C    3.91    21.389    29.275
C    1.714    22.351    28.962
H    -0.9359    19.6494    19.8523
H    -0.1906    20.9182    20.8824
H    -0.1863    19.2052    21.423
H    0.9376    19.9545    22.5453
H    5.0709    20.775    23.112
H    5.4755    20.496    20.7154
H    2.7575    19.4656    18.3892
H    8.3452    22.5835    17.4721
H    5.7494    23.0588    19.9281
H    6.1513    23.9261    22.1831
H    8.4467    24.1809    23.041
H    12.0325    21.5624    19.418
H    11.0155    21.6375    20.818
H    8.3898    21.8045    15.2905
H    7.342    20.4609    13.249
H    5.1496    19.3634    14.1069
H    4.5362    21.4098    25.0523
H    4.623    19.6469    24.7186
H    4.5797    20.0746    27.1595
H    3.0828    19.2301    26.6372
H    3.4234    22.1194    26.9482
H    1.1579    22.5218    26.5771
H    0.9064    20.758    26.3483
H    1.0725    21.792    24.1485
H    2.5968    22.6259    24.6042
H    2.1359    20.2358    28.7916
H    3.7379    21.3163    30.359
H    4.327    22.3783    29.0355
H    4.6182    20.6073    28.963
H    1.5248    22.2904    30.0439
H    0.7588    22.2977    28.4192
H    2.215    23.3025    28.7302
