59

C    16.816    -8.109    1.334
N    15.822    -8.754    2.211
C    15.862    -8.601    3.541
N    16.733    -7.729    4.09
N    15.037    -9.328    4.325
C    15.069    -9.188    5.648
C    15.961    -8.285    6.232
C    16.812    -7.525    5.423
C    17.76    -6.609    5.936
C    18.823    -6.23    5.106
C    19.782    -5.339    5.583
C    19.683    -4.844    6.879
N    18.679    -5.21    7.671
C    17.722    -6.071    7.243
O    16.697    -6.426    8.076
C    16.489    -5.827    9.291
C    15.787    -4.619    9.357
C    15.542    -4.015    10.594
C    16.912    -6.452    10.471
C    17.604    -7.672    10.421
C    18.036    -8.29    11.593
C    17.778    -7.689    12.827
C    17.098    -6.471    12.888
C    16.66    -5.848    11.713
C    15.96    -4.632    11.777
N    15.748    -4.055    12.976
C    14.595    -3.564    13.457
N    13.423    -3.425    12.823
C    12.567    -2.895    13.707
C    11.221    -2.528    13.632
C    10.585    -1.986    14.757
C    9.115    -1.577    14.674
F    8.935    -0.855    13.573
F    8.754    -0.869    15.753
F    8.373    -2.664    14.604
C    11.286    -1.816    15.953
C    12.627    -2.186    16.03
C    13.259    -2.721    14.908
N    14.504    -3.14    14.716
H    16.6005    -8.364    0.2859
H    17.8231    -8.4639    1.5981
H    16.766    -7.0178    1.4635
H    15.0813    -9.3344    1.7922
H    14.4038    -9.7739    6.2719
H    15.9934    -8.1737    7.3098
H    18.8988    -6.627    4.1002
H    20.6034    -5.0323    4.9456
H    20.4321    -4.1525    7.2476
H    15.4319    -4.1498    8.4466
H    15.0251    -3.0631    10.6361
H    17.8041    -8.1375    9.4627
H    18.5696    -9.2325    11.5471
H    18.107    -8.17    13.741
H    16.9085    -6.006    13.8487
H    16.5669    -3.9821    13.5964
H    13.2194    -3.6768    11.8452
H    10.671    -2.6619    12.7075
H    10.7877    -1.397    16.8197
H    13.1756    -2.0588    16.9562
