55

C    -5.316    35.303    -9.167
C    -5.204    35.041    -10.534
C    -6.179    35.551    -11.395
C    -7.246    36.323    -10.93
C    -7.351    36.585    -9.569
C    -6.401    36.079    -8.692
C    -6.537    36.347    -7.333
C    -5.593    35.83    -6.448
C    -4.519    35.078    -6.902
C    -4.357    34.797    -8.269
N    -3.32    34.04    -8.711
C    -2.839    32.992    -8.01
O    -3.307    32.694    -6.907
N    -1.82    32.31    -8.562
C    -1.191    31.256    -7.99
C    -1.767    30.203    -7.382
C    -0.735    29.45    -6.968
C    -0.761    28.074    -6.221
C    -1.456    27.03    -7.112
C    0.667    27.619    -5.925
C    -1.457    28.153    -4.859
N    0.401    30.038    -7.335
N    0.148    31.098    -7.914
C    1.132    31.885    -8.395
C    1.186    33.246    -8.164
C    2.17    31.32    -9.149
C    3.23    32.082    -9.682
C    3.261    33.454    -9.439
C    2.233    34.025    -8.684
N    2.246    35.337    -8.428
H    -4.3779    34.4542    -10.9191
H    -6.1051    35.3412    -12.4559
H    -7.9834    36.7132    -11.6222
H    -8.1731    37.1833    -9.193
H    -7.363    36.9475    -6.9694
H    -5.6996    36.0187    -5.3859
H    -3.7932    34.7012    -6.1905
H    -2.8972    34.2675    -9.5882
H    -1.5025    32.6036    -9.4637
H    -2.8304    30.0058    -7.2544
H    -1.4774    26.0606    -6.5925
H    -0.9023    26.9274    -8.0569
H    -2.4852    27.3554    -7.3236
H    1.1648    28.3649    -5.2879
H    1.2217    27.5145    -6.8691
H    0.6427    26.6501    -5.4047
H    -2.4988    28.4776    -4.9979
H    -0.9299    28.8761    -4.2192
H    -1.4423    27.1621    -4.3817
H    0.4099    33.7192    -7.5734
H    2.1572    30.2513    -9.3301
H    4.0075    31.6087    -10.2707
H    4.0666    34.0661    -9.828
H    1.4897    35.7607    -7.8718
H    3.0123    35.9242    -8.7869
