52

F    16.143    19.456    40.358
C    17.078    18.612    39.992
F    18.107    18.626    40.804
C    17.673    19.205    38.776
C    18.486    18.014    38.348
C    16.642    17.173    39.626
N    17.476    16.963    38.458
C    17.44    16.036    37.503
O    16.675    15.108    37.488
C    18.511    16.214    36.43
N    18.751    15.033    35.611
C    19.386    15.536    34.391
C    18.182    17.304    35.412
C    19.173    17.05    34.313
N    18.767    17.468    32.935
C    19.966    17.409    32.059
C    19.535    17.503    30.596
N    18.733    18.712    30.412
C    17.8    19.23    31.435
C    18.223    18.844    32.868
C    18.855    19.341    29.207
N    19.718    18.831    28.27
C    19.882    19.411    27.062
C    19.171    20.564    26.775
C    18.287    21.073    27.741
N    18.131    20.465    28.936
H    18.3004    20.0799    39.0017
H    16.9126    19.4815    38.0308
H    19.3355    17.8358    39.0236
H    18.8536    18.1202    37.3167
H    15.571    17.1179    39.3813
H    16.872    16.4573    40.429
H    19.4432    16.4797    36.9499
H    17.8819    14.5713    35.3928
H    19.3626    14.3897    36.0886
H    18.9334    15.0532    33.5124
H    20.4632    15.315    34.4166
H    18.3209    18.3052    35.8459
H    17.15    17.2035    35.0447
H    20.1101    17.5747    34.5508
H    18.0661    16.8269    32.5976
H    20.4946    16.4587    32.2249
H    20.6361    18.2479    32.2981
H    18.936    16.6194    30.3306
H    20.4253    17.5496    29.9516
H    16.7985    18.8191    31.2398
H    17.7674    20.3269    31.36
H    18.9949    19.5481    33.212
H    17.3452    18.9112    33.5275
H    20.5575    18.9822    26.3306
H    19.2943    21.0651    25.8217
H    17.7197    21.9706    27.5227
