23

N    11.885    49.756    20.044
C    12.346    51.073    20.521
C    13.251    50.873    21.733
O    13.71    51.909    22.267
O    13.506    49.697    22.079
C    11.122    51.945    20.892
C    10.272    52.234    19.649
C    10.489    53.284    18.762
C    9.161    51.558    19.156
C    8.504    50.317    19.759
O    11.492    54.205    18.871
N    9.596    53.265    17.781
O    8.732    52.165    18.016
H    11.2861    49.8797    19.2427
H    11.3725    49.2932    20.7783
H    12.6813    49.1949    19.7848
H    12.9151    51.5725    19.7231
H    11.4715    52.8959    21.3206
H    10.5091    51.4118    21.6336
H    7.6454    50.019    19.1393
H    8.1592    50.5435    20.7787
H    9.2344    49.4952    19.7929
H    9.542    53.9077    17.0168
