18

N    5.951    -13.891    18.386
C    5.612    -15.247    18.912
C    4.122    -15.516    18.744
O    3.565    -16.521    19.202
C    5.999    -15.36    20.378
C    7.487    -15.583    20.603
C    7.983    -16.974    20.148
O    9.211    -17.16    19.968
O    7.155    -17.891    19.964
O    3.458    -14.701    18.139
H    6.9381    -13.7229    18.5017
H    5.4296    -13.1936    18.8938
H    5.7142    -13.8413    17.4075
H    6.1748    -15.9987    18.3392
H    5.4508    -16.2064    20.8175
H    5.7066    -14.4297    20.8869
H    7.6958    -15.4744    21.6775
H    8.0417    -14.8162    20.0423
