34

O    -3.57    16.335    18.594
C    -4.051    15.295    18.096
O    -3.375    14.455    17.454
C    -5.516    15.058    18.271
N    -5.885    13.77    17.676
C    -5.845    15.152    19.766
C    -7.339    15.363    20.02
C    -7.664    15.337    21.521
C    -7.796    16.674    19.412
O    -7.056    17.676    19.519
O    -8.899    16.687    18.826
O    -8.086    14.275    19.498
C    -8.116    13.251    20.491
C    -8.384    14.025    21.777
C    -9.11    12.145    20.129
C    -10.54    12.574    20.415
C    -10.639    13.167    21.82
O    -9.784    14.309    21.966
H    -6.106    15.8138    17.7526
H    -5.6413    13.7721    16.6855
H    -5.3804    13.0209    18.1499
H    -6.8891    13.624    17.78
H    -5.3082    16.0069    20.1772
H    -5.5514    14.2136    20.2364
H    -8.2852    16.1872    21.8029
H    -6.7566    15.4103    22.1204
H    -7.1958    12.6758    20.5929
H    -8.0621    13.4709    22.6587
H    -8.8845    11.2646    20.7308
H    -9.0181    11.9301    19.0644
H    -11.1947    11.7053    20.3463
H    -10.84    13.3274    19.6867
H    -10.3299    12.4083    22.539
H    -11.6686    13.4806    21.9921
