33

C    -24.89    1.614    -7.326
C    -25.747    1.293    -6.28
C    -25.349    0.379    -5.31
C    -24.093    -0.212    -5.389
C    -23.237    0.11    -6.436
C    -23.635    1.022    -7.408
C    -22.69    1.357    -8.565
C    -22.927    0.447    -9.774
C    -24.28    0.745    -10.425
O    -24.704    -0.096    -11.248
O    -24.858    1.802    -10.092
C    -21.821    0.653    -10.811
C    -20.867    -0.543    -10.772
O    -20.373    -0.737    -9.444
O    -21.587    -1.711    -11.176
C    -19.701    -0.319    -11.739
N    -20.18    -0.405    -13.126
O    -20.22    -1.664    -13.787
O    -20.594    0.768    -13.814
H    -25.2011    2.328    -8.08
H    -26.7258    1.755    -6.2201
H    -26.0169    0.1279    -4.4939
H    -23.781    -0.9243    -4.6338
H    -22.2575    -0.3505    -6.495
H    -21.6516    1.233    -8.2241
H    -22.8542    2.4016    -8.868
H    -22.915    -0.5999    -9.4366
H    -21.2661    1.5741    -10.5794
H    -22.2668    0.7357    -11.8132
H    -19.8935    0.0359    -9.1696
H    -21.0061    -2.4623    -11.1562
H    -18.9333    -1.0883    -11.5696
H    -19.2674    0.6766    -11.5637
