33

O    33.725    24.413    25.916
C    33.529    23.025    26.203
C    32.405    22.427    25.334
O    32.748    22.49    23.951
C    32.173    20.963    25.718
O    31.018    20.499    25.041
C    31.977    20.811    27.238
C    31.823    19.354    27.67
O    32.884    18.575    27.112
O    33.126    21.371    27.909
C    33.203    22.81    27.697
N    34.247    23.315    28.608
C    35.57    23.216    28.475
N    33.972    23.885    29.671
N    35.01    24.202    30.269
C    36.062    23.8    29.555
C    37.538    23.979    29.905
O    37.689    24.103    31.321
H    32.9213    24.8881    26.0914
H    34.4641    22.4936    25.9723
H    31.4805    22.9986    25.5031
H    32.8812    23.3965    23.6999
H    33.0438    20.3663    25.409
H    30.2694    21.0248    25.2973
H    31.0732    21.3638    27.5338
H    30.8573    18.9663    27.3135
H    31.8607    19.2914    28.7676
H    33.7176    18.9103    27.4205
H    32.2438    23.2928    27.9353
H    36.1233    22.7559    27.6576
H    37.9216    24.8867    29.4162
H    38.1054    23.105    29.5526
H    38.6087    24.214    31.5318
