32

F    -16.649    -8.261    3.19
C    -16.214    -8.921    4.282
C    -17.17    -9.464    5.154
O    -18.402    -9.488    4.912
N    -16.717    -10.012    6.322
C    -15.406    -10.088    6.624
O    -15.033    -10.556    7.729
C    -14.855    -8.909    4.582
N    -14.419    -9.511    5.805
C    -13.037    -10.03    5.922
O    -13.046    -11.458    6.173
C    -12.297    -9.446    7.12
O    -11.555    -8.283    6.724
C    -11.34    -10.548    7.55
O    -10.122    -10.523    6.793
C    -12.131    -11.806    7.215
C    -12.842    -12.357    8.466
O    -11.8    -12.818    9.321
P    -12.176    -13.426    10.787
O    -12.55    -14.88    10.539
O    -10.87    -13.295    11.505
O    -13.333    -12.662    11.377
H    -17.3833    -10.3696    6.9763
H    -14.1389    -8.4515    3.9009
H    -12.4922    -9.805    4.9933
H    -12.9957    -9.189    7.9298
H    -12.1523    -7.6304    6.3779
H    -11.1125    -10.4836    8.6243
H    -9.5521    -11.223    7.089
H    -11.4431    -12.5794    6.8427
H    -13.5119    -13.1861    8.1942
H    -13.4222    -11.5636    8.9598
