35

O    -1.007    -5.218    -2.931
C    -0.182    -4.104    -2.558
C    0.603    -4.491    -1.314
O    1.73    -3.607    -1.203
C    -0.348    -4.305    -0.134
O    0.339    -4.546    1.079
C    -0.417    -4.305    2.267
C    0.382    -4.836    3.455
O    0.344    -6.273    3.408
C    -0.186    -4.39    4.793
O    0.731    -4.737    5.849
C    -0.447    -2.886    4.792
O    0.797    -2.178    4.71
C    -1.333    -2.508    3.609
O    -0.689    -2.898    2.387
C    -1.566    -0.996    3.591
O    -2.077    -0.572    2.316
H    -1.6018    -5.4225    -2.2191
H    -0.8127    -3.2287    -2.3432
H    0.5122    -3.8638    -3.3768
H    0.9451    -5.5348    -1.372
H    2.2765    -3.6939    -1.9752
H    -1.1859    -5.0118    -0.2255
H    -0.735    -3.2753    -0.1359
H    -1.3734    -4.8453    2.2089
H    1.4214    -4.4854    3.3732
H    0.8362    -6.6258    4.14
H    -1.1389    -4.912    4.9645
H    0.8597    -5.6782    5.8586
H    -0.958    -2.6097    5.7261
H    1.3381    -2.4032    5.4576
H    -2.2994    -3.0259    3.6972
H    -0.6132    -0.4822    3.7862
H    -2.2914    -0.7338    4.3752
H    -1.4518    -0.7937    1.6359
