15

C          7.01600        0.81800       -1.79800
C          8.44500        0.53900       -2.16100
C          9.45400        1.14100       -1.41200
C         10.78700        0.89700       -1.72400
C         11.10100        0.05200       -2.78600
C         10.08600       -0.55600       -3.53700
C          8.74700       -0.30900       -3.22500
H          9.21261        1.76653       -0.62749
H          6.36859        0.28530       -2.46283
H          6.82567        1.86776       -1.87974
H          6.83476        0.49989       -0.79259
H          7.99202       -0.74825       -3.77462
H         10.32726       -1.18488       -4.31888
H         12.08950       -0.12780       -3.02174
H         11.53880        1.33910       -1.17231
