25

C    -17.167    61.343    105.691
C    -16.551    60.228    106.558
O    -15.257    60.58    107.086
C    -16.572    58.934    105.721
O    -15.734    57.855    106.194
C    -18.054    58.606    105.775
O    -18.293    57.27    105.38
C    -18.692    59.629    104.838
N    -18.555    60.997    105.372
C    -20.152    59.386    104.642
O    -20.586    60.398    103.742
H    -16.5905    61.4454    104.7598
H    -17.143    62.2938    106.2435
H    -17.2093    60.0721    107.4254
H    -14.6595    60.7529    106.3679
H    -16.2663    59.1553    104.6878
H    -15.8199    57.1099    105.611
H    -18.4386    58.7427    106.7965
H    -19.2248    57.0903    105.4223
H    -18.1841    59.5666    103.8643
H    -18.8996    61.6478    104.6838
H    -19.1073    61.0722    106.2118
H    -20.6876    59.467    105.5994
H    -20.3216    58.3886    104.2102
H    -21.5158    60.2956    103.5766
