70

O    95.88    7.094    63.786
S    96.412    8.335    64.328
O    95.997    8.765    65.64
C    98.185    8.238    64.426
N    96.248    9.644    63.218
C    96.073    9.435    61.808
C    95.36    10.382    61.069
C    96.609    8.314    61.153
C    96.426    8.15    59.773
S    97.083    6.72    58.977
O    98.409    6.484    59.499
O    96.037    5.721    59.1
N    97.157    7.259    57.375
C    96.34    8.323    56.902
N    95.489    8.984    57.63
C    95.704    9.087    59.017
C    95.182    10.213    59.688
C    96.549    8.645    55.473
C    97.159    7.646    54.512
O    97.021    6.435    54.71
N    97.845    8.193    53.426
C    98.551    7.316    52.487
C    99.95    7.782    52.059
C    100.094    7.378    50.591
C    97.75    7.072    51.208
C    98.674    7.372    50.033
C    97.863    9.643    53.189
C    96.553    10.341    53.606
C    96.795    11.873    53.522
C    96.198    9.869    55.018
O    95.509    10.79    55.79
C    95.434    9.923    52.622
C    94.057    10.472    52.982
C    92.898    9.725    52.3
C    91.56    10.144    52.905
C    92.902    9.987    50.786
H    98.5886    7.9131    63.4557
H    98.4702    7.5134    65.2029
H    98.5929    9.2275    64.6799
H    96.2757    10.5804    63.5678
H    94.9426    11.2509    61.5648
H    97.1657    7.5737    61.7162
H    97.7932    6.817    56.7426
H    94.6337    10.9607    59.1264
H    98.6722    6.3506    53.0002
H    100.7211    7.2889    52.6691
H    100.0396    8.8731    52.1663
H    100.5441    6.3777    50.5092
H    100.7171    8.1058    50.0506
H    96.8748    7.7377    51.1786
H    97.4157    6.0248    51.1667
H    98.572    6.595    49.2611
H    98.4316    8.3535    49.5996
H    98.0277    9.8202    52.1159
H    98.6916    10.0814    53.7645
H    95.8778    12.4056    53.8138
H    97.0651    12.1456    52.4911
H    97.6134    12.1528    54.2017
H    95.3314    10.4153    56.6448
H    95.3764    8.8246    52.6095
H    95.7008    10.2877    51.6191
H    94.0145    11.529    52.6806
H    93.9263    10.3958    54.0715
H    93.0338    8.6463    52.4673
H    90.7451    9.5999    52.405
H    91.4176    11.2259    52.7664
H    91.5533    9.9079    53.9793
H    93.8705    9.681    50.3635
H    92.7427    11.0592    50.599
H    92.0958    9.4083    50.3116
