38

O    -78.788    86.158    101.201
C    -77.849    85.357    101.08
O    -77.462    84.621    102.027
C    -77.104    85.359    99.782
C    -75.906    84.623    99.693
C    -75.165    84.638    98.509
C    -77.539    86.162    98.721
C    -76.794    86.159    97.544
C    -75.598    85.418    97.423
O    -74.88    85.456    96.235
C    -73.553    84.967    96.09
C    -73.322    84.675    94.621
C    -74.234    83.595    94.023
N    -75.54    84.128    93.705
C    -76.241    83.921    92.559
C    -77.434    84.743    92.234
N    -77.952    85.736    93.06
O    -77.374    86.223    94.015
C    -78.134    84.472    90.977
O    -79.158    85.145    90.713
N    -77.703    83.456    90.203
C    -76.607    82.752    90.519
N    -75.929    82.975    91.66
N    -76.143    81.801    89.705
H    -75.5596    84.0456    100.5425
H    -74.2583    84.0495    98.428
H    -78.4318    86.7699    98.8129
H    -77.1417    86.7411    96.6982
H    -73.4277    84.046    96.6783
H    -72.8354    85.7247    96.4377
H    -72.2792    84.3473    94.4981
H    -73.4823    85.6066    94.0586
H    -74.3478    82.7785    94.7512
H    -73.7726    83.2049    93.1038
H    -75.9835    84.7242    94.4183
H    -76.7878    85.4863    91.7441
H    -78.2122    83.2223    89.3747
H    -75.3175    81.2805    89.9571
