24

N    5.051    18.95    13.159
C    4.798    19.292    11.731
C    3.582    18.539    11.21
C    3.732    17.059    11.398
C    4.309    16.309    10.38
C    4.468    14.93    10.505
C    3.322    16.412    12.556
C    3.477    15.027    12.674
C    4.05    14.292    11.654
O    3.079    14.351    13.787
C    4.529    20.753    11.586
O    4.252    21.472    12.525
O    4.571    21.296    10.519
H    5.2308    17.9616    13.241
H    4.2426    19.1913    13.7106
H    5.8508    19.4657    13.4914
H    5.6817    19.0199    11.1353
H    3.4611    18.7529    10.1378
H    2.6894    18.8801    11.7549
H    4.6406    16.8044    9.4746
H    4.9193    14.3602    9.7008
H    2.8822    16.9798    13.3679
H    4.1704    13.2196    11.7563
H    2.704    14.9622    14.4102
