44

C    10.706    15.814    40.857
C    9.076    17.803    37.419
C    13.467    16.208    40.945
C    12.685    22.192    40.082
C    12.675    16.953    40.064
C    7.425    18.293    35.562
C    12.193    21.242    40.969
C    13.71    24.403    39.914
O    13.364    23.242    40.661
C    12.486    22.044    38.694
C    11.777    20.924    38.208
C    11.506    20.134    40.495
C    11.314    19.981    39.127
C    10.546    18.825    38.648
N    9.604    18.978    37.633
C    8.033    17.5    36.462
S    7.291    15.931    36.37
C    6.164    16.333    35.089
C    6.378    17.613    34.783
N    9.609    16.891    38.266
C    10.515    17.534    39.048
C    11.301    16.771    40.036
C    11.478    15.064    41.749
C    12.872    15.267    41.804
O    13.596    14.508    42.683
C    15.03    14.637    42.792
H    9.6358    15.6502    40.8032
H    14.5406    16.3565    40.9653
H    13.1377    17.6751    39.401
H    7.6836    19.3416    35.4226
H    12.3466    21.3672    42.0347
H    14.2439    25.1116    40.5642
H    12.7954    24.8769    39.5283
H    14.3582    24.1178    39.0723
H    12.8747    22.785    38.0048
H    11.5965    20.7994    37.1464
H    11.1217    19.3929    41.1865
H    9.3684    19.8531    37.1436
H    5.4325    15.6678    34.6326
H    5.8129    18.1237    34.0047
H    11.0077    14.3309    42.3944
H    15.4042    13.9372    43.5537
H    15.2844    15.6667    43.0835
H    15.4938    14.4053    41.8219
