17

C        -36.67300       24.38000      -15.24700
O        -37.80400       24.27900      -14.33100
C        -37.85100       25.21200      -13.32900
C        -38.53500       26.41500      -13.52300
C        -38.58500       27.36700      -12.50400
C        -37.96800       27.11500      -11.27900
C        -37.29900       25.91500      -11.07800
C        -37.24200       24.96100      -12.10100
O        -36.58300       23.79400      -11.88200
H        -36.84252       25.72584      -10.17198
H        -38.00850       27.81795      -10.52451
H        -39.07972       28.25963      -12.65725
H        -39.00481       26.60002      -14.42304
H        -36.73976       23.60605      -15.98283
H        -35.75992       24.27369      -14.69939
H        -36.68982       25.33433      -15.73060
H        -36.53769       23.14743      -12.55866
