21

C         32.25400      -12.12000        5.05600
C         32.04700       -8.07400        1.66200
C         32.43500       -9.27100        1.06500
C         33.51800      -11.25300        4.98600
C         31.98500       -7.97200        3.05300
C         33.09900       -8.76600        3.76500
O         32.75400      -10.34100        1.85100
O         34.05100      -11.15300        3.64500
C         33.66800       -9.95000        2.90900
H         31.90401      -12.15937        6.06637
H         32.48114      -13.10961        4.71840
H         31.49540      -11.69562        4.43204
H         33.27873      -10.26979        5.33377
H         34.26354      -11.71747        5.59702
H         34.57029       -9.53322        2.51268
H         33.90146       -8.09527        3.99103
H         32.66713       -9.19348        4.64571
H         31.03729       -8.34549        3.38049
H         32.11598       -6.94031        3.30471
H         31.80479       -7.26062        1.07483
H         32.48103       -9.34862        0.03695
