20

C         23.84800      -23.99200       -0.30800
C         23.53600      -23.97300       -1.80100
O         22.27500      -24.65700       -2.01400
C         22.25700      -25.44900       -3.11700
C         22.94100      -25.08600       -4.27800
C         22.90600      -25.93200       -5.39100
C         22.17700      -27.11900       -5.34800
C         21.48000      -27.47700       -4.19000
C         21.52100      -26.63800       -3.07400
O         20.84200      -26.98200       -1.94100
H         24.77671      -23.49083       -0.13130
H         23.91979      -25.00517        0.02850
H         23.06635      -23.49333        0.22609
H         23.46041      -22.96145       -2.14151
H         24.31619      -24.46226       -2.34582
H         20.93887      -28.35524       -4.16002
H         23.46870      -24.19989       -4.31494
H         23.42195      -25.67636       -6.24743
H         22.15152      -27.73646       -6.17451
H         20.34947      -27.77864       -1.91363
