12

C         37.94500      -27.45500      -10.61800
C         37.54800      -23.96800      -13.61900
C         38.48100      -27.29400      -11.83200
C         37.01400      -24.12900      -12.40600
S         37.02500      -26.07400      -10.31900
S         38.47600      -25.34400      -13.91800
C         38.17200      -26.14800      -12.47800
C         37.32000      -25.27800      -11.76400
H         37.41848      -23.16102      -14.24910
H         36.40116      -23.41512      -11.98194
H         39.09750      -28.00645      -12.25314
H         38.06952      -28.26362       -9.98899
