28

C    -3.302    40.052    15.662
N    -3.15    41.085    16.571
C    -2.858    40.775    17.892
C    -2.7    39.337    18.36
C    -2.868    38.275    17.373
C    -3.175    38.666    16.001
C    -2.727    36.821    17.766
C    -2.011    35.886    17.007
N    -2.105    34.718    17.656
N    -2.827    34.818    18.78
C    -3.226    36.075    18.89
C    -4.078    36.53    20.086
C    -3.597    36.253    21.413
C    -4.337    36.662    22.563
C    -5.583    37.362    22.394
C    -6.085    37.645    21.091
C    -5.342    37.235    19.941
F    -6.257    37.745    23.46
H    -3.5305    40.3069    14.6335
H    -2.7395    41.5793    18.609
H    -2.4698    39.1078    19.3942
H    -3.307    37.9073    15.2381
H    -1.4822    36.0722    16.0734
H    -3.0342    34.0544    19.4395
H    -2.6586    35.7258    21.5416
H    -3.9628    36.4467    23.5573
H    -7.0265    38.1691    20.9724
H    -5.7245    37.4517    18.9502
