67

F    0.632    7.275    18.298
C    0.636    8.442    17.6
C    -0.234    9.47    17.932
C    -0.211    10.625    17.202
C    1.566    8.567    16.568
C    1.573    9.758    15.85
C    0.712    10.813    16.175
C    0.74    12.088    15.414
C    -0.433    12.765    15.137
C    1.961    12.628    14.949
C    1.989    13.843    14.263
O    3.159    14.36    13.801
C    0.785    14.521    13.954
O    0.913    15.651    13.242
C    -0.402    13.978    14.421
C    -1.725    14.653    14.22
O    -2.788    14.034    14.389
N    -1.71    15.916    13.829
C    -2.962    16.664    13.743
C    -2.647    18.127    13.934
C    -3.455    18.964    14.533
C    -3.11    20.434    14.706
C    -3.745    21.016    15.98
O    -3.057    22.129    16.471
C    -5.128    21.378    15.43
O    -5.891    22.275    16.212
O    -3.632    21.21    13.616
C    -4.791    21.905    14.044
N    -5.836    21.722    13.061
C    -6.35    20.476    12.641
C    -6.213    22.634    12.097
N    -5.918    23.944    12.038
C    -6.396    24.594    10.98
N    -7.162    24.01    10.03
C    -7.5    22.703    10.12
C    -7.001    21.922    11.161
N    -7.097    20.601    11.551
N    -8.284    22.247    9.109
C    -8.96    20.947    9.088
C    -10.191    20.952    9.941
H    -0.9239    9.3585    18.7606
H    -0.9243    11.4099    17.4261
H    2.2576    7.7656    16.3343
H    2.2607    9.872    15.0199
H    -1.3812    12.3606    15.4723
H    2.8862    12.0921    15.1274
H    2.9881    15.1854    13.3629
H    1.327    15.4545    12.4099
H    -0.8445    16.3578    13.5929
H    -3.6534    16.3257    14.5288
H    -3.4231    16.5075    12.7566
H    -1.6992    18.5056    13.5541
H    -4.4042    18.5958    14.9196
H    -2.0161    20.5397    14.7527
H    -3.8131    20.26    16.7761
H    -3.0514    22.8128    15.8115
H    -5.7243    20.4586    15.3345
H    -5.4196    23.0948    16.302
H    -4.5742    22.9808    14.1196
H    -6.1578    19.5313    13.1475
H    -6.1593    25.6465    10.8737
H    -8.4135    22.8629    8.2936
H    -8.2683    20.1788    9.464
H    -9.2443    20.7091    8.0524
H    -10.6695    19.9624    9.9
H    -10.8919    21.7138    9.5689
H    -9.9158    21.1834    10.9806
