111

N    8.821    -18.045    14.572
C    8.37    -16.902    13.726
C    6.878    -16.591    13.864
O    6.243    -16.141    12.906
C    8.742    -17.14    12.252
C    8.069    -18.374    11.652
O    7.08    -18.885    12.221
O    8.528    -18.838    10.586
N    6.326    -16.811    15.057
C    4.892    -16.623    15.277
C    4.413    -15.195    14.976
O    4.924    -14.23    15.539
C    4.527    -17.032    16.7
N    3.447    -15.067    14.072
C    2.81    -13.786    13.776
C    1.626    -13.5    14.698
O    0.9    -14.406    15.103
C    2.277    -13.777    12.346
C    3.292    -13.51    11.258
C    2.603    -13.25    9.933
O    1.535    -13.848    9.668
O    3.113    -12.421    9.16
N    1.407    -12.225    15.01
C    0.251    -11.83    15.817
C    -0.957    -11.747    14.894
O    -0.815    -11.576    13.689
C    0.508    -10.491    16.532
C    -0.578    -10.097    17.496
C    -1.243    -8.89    17.363
C    -0.93    -10.939    18.541
C    -2.245    -8.514    18.249
C    -1.921    -10.574    19.431
C    -2.588    -9.37    19.288
N    -2.15    -11.868    15.464
C    -3.385    -11.883    14.682
C    -3.878    -10.484    14.3
O    -3.907    -9.585    15.137
C    -4.449    -12.635    15.49
C    -5.821    -12.663    14.851
C    -6.725    -13.55    15.687
N    -8.114    -13.44    15.258
C    -9.132    -13.955    15.94
N    -8.898    -14.614    17.066
N    -10.375    -13.815    15.497
N    -4.285    -10.309    13.042
C    -4.768    -9.016    12.559
C    -6.036    -9.083    11.703
O    -6.337    -8.155    10.945
C    -3.646    -8.278    11.825
C    -2.566    -7.799    12.74
N    -2.688    -6.646    13.486
C    -1.36    -8.328    13.052
C    -1.596    -6.482    14.212
N    -0.78    -7.492    13.972
N    -6.797    -10.159    11.859
C    -8.037    -10.34    11.112
C    -8.968    -11.226    11.92
O    -8.491    -11.96    12.784
C    -7.768    -10.993    9.757
O    -10.183    -11.222    11.719
H    9.8081    -18.1959    14.4343
H    8.3144    -18.8765    14.3112
H    8.6454    -17.8349    15.5421
H    8.9178    -16.0115    14.068
H    9.8323    -17.2684    12.1831
H    8.439    -16.2582    11.6683
H    6.9034    -17.1104    15.8166
H    4.3625    -17.2958    14.5864
H    3.4479    -16.8879    16.8575
H    5.0879    -16.4122    17.415
H    4.7818    -18.091    16.8539
H    3.1442    -15.88    13.5746
H    3.5588    -12.9889    13.8939
H    1.5027    -12.9984    12.2811
H    1.8254    -14.7606    12.1498
H    3.9509    -14.385    11.1565
H    3.8915    -12.6293    11.5319
H    2.0433    -11.5242    14.6875
H    0.0656    -12.6001    16.5803
H    0.5974    -9.7028    15.7699
H    1.4531    -10.5714    17.089
H    -0.9762    -8.2241    16.5503
H    -0.4236    -11.8901    18.6598
H    -2.7532    -7.5638    18.1309
H    -2.1787    -11.2368    20.2491
H    -3.3737    -9.0963    19.9828
H    -2.2054    -11.9515    16.459
H    -3.1946    -12.4353    13.75
H    -4.5384    -12.1513    16.4739
H    -4.1102    -13.6733    15.6212
H    -5.7466    -13.0665    13.8304
H    -6.2334    -11.6439    14.8133
H    -6.6501    -13.2464    16.7416
H    -6.3988    -14.5953    15.5822
H    -8.3167    -12.9377    14.3819
H    -9.6818    -15.0159    17.5999
H    -7.9324    -14.7242    17.4071
H    -10.5552    -13.3026    14.6218
H    -11.1596    -14.2187    16.0283
H    -4.2591    -11.0843    12.4109
H    -5.0242    -8.4227    13.4491
H    -4.0781    -7.4088    11.3076
H    -3.2019    -8.9612    11.0861
H    -0.9311    -9.2442    12.6489
H    -1.402    -5.6544    14.8927
H    0.1439    -7.63    14.406
H    -6.5124    -10.8656    12.5068
H    -8.5093    -9.3596    10.9515
H    -8.7172    -11.1178    9.2153
H    -7.3013    -11.9772    9.9104
H    -7.092    -10.3541    9.1698
