116

N    20.973    5.87    19.055
C    19.775    6.683    19.421
C    19.999    8.149    19.081
O    20.759    8.834    19.75
C    19.44    6.522    20.897
N    19.327    8.617    18.033
C    19.466    9.987    17.538
C    18.244    10.847    17.865
O    17.141    10.324    18.032
C    19.711    9.967    16.028
C    20.895    9.096    15.61
C    22.242    9.705    16.048
N    23.172    8.693    16.555
C    23.913    7.886    15.794
N    23.848    7.945    14.464
N    24.72    7.007    16.368
N    18.445    12.158    17.971
C    17.344    13.09    18.233
C    17.854    14.438    18.742
C    16.834    15.106    19.659
C    17.37    16.389    20.28
C    16.335    17.047    21.198
N    16.718    18.378    21.733
C    16.482    13.257    17.01
O    15.278    13.506    17.125
C    15.498    19.134    22.014
C    17.507    19.156    20.773
C    17.47    18.254    22.992
N    17.107    13.12    15.835
C    16.432    13.128    14.524
C    17.195    12.285    13.49
O    18.336    11.877    13.732
C    16.258    14.561    14.003
O    17.501    15.234    13.952
N    16.557    12.046    12.342
C    17.104    11.222    11.244
C    18.605    11.414    10.975
O    19.002    12.375    10.299
C    16.29    11.447    9.949
N    19.423    10.493    11.498
C    20.889    10.57    11.388
C    21.482    11.847    11.979
O    21.769    12.8    11.25
N    21.663    11.872    13.299
C    22.159    13.074    13.985
C    23.579    12.883    14.554
O    24.543    12.808    13.784
C    21.156    13.553    15.064
N    23.707    12.812    15.883
C    25.005    12.632    16.554
C    24.829    12.156    17.997
O    24.062    12.742    18.769
C    25.834    13.93    16.509
H    20.8066    4.9033    19.287
H    21.7751    6.2048    19.5655
H    21.1459    5.953    18.0654
H    18.9198    6.3191    18.8326
H    18.5559    7.1294    21.1407
H    20.2934    6.8562    21.5053
H    19.2285    5.4641    21.1117
H    18.6957    8.0024    17.56
H    20.3409    10.44    18.0273
H    19.9024    10.9972    15.6934
H    18.8061    9.5833    15.5342
H    20.8911    8.9929    14.5149
H    20.7868    8.1037    16.0721
H    22.055    10.4427    16.8422
H    22.7016    10.2058    15.1831
H    23.2604    8.5973    17.5767
H    24.4272    7.3143    13.8916
H    23.2185    8.6212    14.0086
H    24.7769    6.9541    17.3951
H    25.2908    6.3762    15.7874
H    19.3726    12.5175    17.8692
H    16.7188    12.6522    19.0251
H    18.0476    15.0959    17.8819
H    18.7884    14.28    19.3004
H    16.5707    14.4056    20.4653
H    15.9344    15.3454    19.073
H    17.6321    17.0923    19.4759
H    18.2692    16.1525    20.8678
H    16.1611    16.3748    22.0512
H    15.4016    17.1654    20.6282
H    15.7639    20.1245    22.4118
H    14.893    18.5915    22.7554
H    14.9196    19.2548    21.0862
H    18.4355    18.6151    20.5379
H    17.7535    20.1353    21.2092
H    16.924    19.3013    19.8516
H    16.8809    17.6707    23.715
H    17.6661    19.2556    23.4022
H    18.4249    17.743    22.7999
H    18.1002    13.0042    15.8466
H    15.4333    12.6862    14.6555
H    15.5795    15.1082    14.6739
H    15.8254    14.5267    12.9922
H    17.3687    16.1169    13.6273
H    15.651    12.4504    12.2171
H    16.9698    10.1715    11.5415
H    16.7078    10.8282    9.1412
H    16.3423    12.5078    9.6627
H    15.2409    11.165    10.1217
H    19.0205    9.718    11.9852
H    21.1605    10.5214    10.3232
H    21.3228    9.7085    11.9168
H    21.4566    11.0538    13.8356
H    22.2245    13.871    13.2297
H    21.5522    14.4515    15.5597
H    21.0111    12.7569    15.8091
H    20.1926    13.7908    14.5893
H    22.8841    12.8844    16.4465
H    25.5607    11.8555    16.008
H    25.3868    11.2894    18.3488
H    26.7966    13.768    17.0162
H    25.2828    14.735    17.0171
H    26.0146    14.2137    15.4617
