93

N    21.242    6.198    19.746
C    19.911    6.819    19.489
C    20.04    8.256    18.988
O    20.707    9.075    19.609
C    19.04    6.767    20.745
N    19.39    8.548    17.864
C    19.403    9.878    17.251
C    18.237    10.731    17.769
O    17.174    10.195    18.111
C    19.297    9.766    15.718
C    20.567    9.297    14.988
C    20.331    9.122    13.454
N    19.85    10.341    12.779
C    20.626    11.34    12.339
N    20.068    12.392    11.745
N    21.95    11.304    12.487
N    18.443    12.05    17.815
C    17.383    12.998    18.174
C    17.918    14.31    18.778
C    16.914    14.952    19.734
C    17.222    16.411    20.058
C    16.287    16.99    21.139
N    16.714    18.264    21.785
C    16.454    13.243    17.003
O    15.269    13.55    17.205
C    15.506    18.937    22.275
C    17.417    19.18    20.865
C    17.6    18.009    22.94
N    16.982    13.109    15.779
C    16.182    13.2    14.535
C    16.706    12.274    13.437
O    17.85    11.827    13.494
C    16.148    14.639    14.003
O    17.443    15.062    13.624
N    15.873    12.012    12.428
C    16.266    11.195    11.262
C    17.22    11.919    10.309
O    17.1904    13.1735    10.1956
C    15.033    10.711    10.464
O    13.919    11.586    10.711
C    14.66    9.28    10.865
O    18.0453    11.2522    9.6294
H    21.1143    5.2535    20.0741
H    21.7331    6.733    20.4451
H    21.7784    6.1876    18.8926
H    19.4124    6.2321    18.7036
H    18.0645    7.2294    20.5341
H    19.5372    7.315    21.559
H    18.8918    5.7192    21.0453
H    18.8667    7.8233    17.4157
H    20.3501    10.3742    17.5092
H    19.03    10.7583    15.3255
H    18.4928    9.0518    15.4873
H    20.8834    8.332    15.4107
H    21.3608    10.0428    15.1421
H    19.5843    8.3277    13.3072
H    21.2819    8.8217    12.9897
H    18.8343    10.4319    12.6339
H    20.6584    13.1641    11.4041
H    19.0457    12.4342    11.6262
H    22.3952    10.4959    12.9449
H    22.528    12.0843    12.1435
H    19.3525    12.4038    17.5968
H    16.7835    12.5164    18.9605
H    18.1318    15.0155    17.9616
H    18.8454    14.0949    19.3291
H    16.9145    14.3801    20.6736
H    15.9158    14.9016    19.2746
H    17.1101    17.0067    19.1401
H    18.2597    16.4806    20.4161
H    16.185    16.2333    21.9308
H    15.3069    17.1661    20.6717
H    15.785    19.8844    22.7594
H    14.9952    18.2896    23.0029
H    14.832    19.1418    21.4301
H    18.3273    18.6921    20.4864
H    17.6905    20.1003    21.4018
H    16.7571    19.43    20.0212
H    17.0989    17.3273    23.643
H    17.8239    18.9591    23.4472
H    18.5366    17.5508    22.5896
H    17.9644    12.9392    15.7011
H    15.1529    12.8957    14.7763
H    15.7661    15.3061    14.7898
H    15.4826    14.6851    13.1283
H    17.401    15.9533    13.2981
H    14.9453    12.3838    12.4627
H    16.7898    10.3086    11.6491
H    15.2738    10.7295    9.3909
H    13.165    11.2837    10.2184
H    13.7823    8.9544    10.2875
H    14.424    9.2498    11.939
H    15.5058    8.6084    10.6564
