53

N    10.255    -12.202    -11.97
C    11.213    -11.093    -11.767
C    12.001    -11.549    -10.561
O    12.144    -12.763    -10.353
N    12.501    -10.608    -9.753
C    13.176    -10.965    -8.505
C    14.039    -9.903    -7.843
O    14.905    -9.306    -8.498
O    14.665    -4.494    0.277
C    13.439    -5.134    0.41
C    12.413    -4.189    0.93
N    13.323    -6.503    0.032
C    13.251    -6.563    -1.435
C    13.764    -7.836    -2.047
C    14.027    -7.726    -3.545
C    13.89    -9.109    -4.166
C    14.676    -9.386    -5.441
N    13.705    -9.625    -6.571
C    15.516    -10.604    -5.089
O    14.983    -11.716    -4.902
N    16.824    -10.443    -4.957
C    17.712    -11.599    -5.176
C    17.592    -12.687    -4.13
O    17.495    -13.875    -4.497
C    19.185    -11.163    -5.355
H    9.6623    -11.9949    -12.7739
H    10.7687    -13.0669    -12.1387
H    9.6758    -12.3061    -11.1369
H    10.7231    -10.1312    -11.6152
H    11.8403    -10.9088    -12.6392
H    12.4103    -9.6253    -10.011
H    13.8565    -11.7767    -8.7621
H    12.3796    -11.1807    -7.7928
H    12.7261    -3.8151    1.9048
H    12.3049    -3.3547    0.237
H    11.4594    -4.7078    1.0277
H    13.2949    -7.3006    0.6672
H    13.8801    -5.7572    -1.8132
H    12.1964    -6.4899    -1.7006
H    13.0003    -8.6003    -1.9031
H    14.7118    -8.0737    -1.564
H    15.0316    -7.3399    -3.7177
H    13.3085    -7.0432    -3.9984
H    12.8397    -9.2052    -4.4412
H    14.2797    -9.8049    -3.4231
H    15.3143    -8.5688    -5.777
H    12.7105    -9.571    -6.3509
H    17.211    -9.5328    -4.7076
H    17.3637    -12.0461    -6.1071
O    17.5902    -12.3959    -2.9041
H    19.2643    -10.5005    -6.2169
H    19.5186    -10.6381    -4.4598
H    19.8066    -12.0441    -5.5139
