47

C    10.016    -15.834    25.904
N    11.337    -16.615    24.006
O    6.751    -15.32    22.739
Br    10.361    -13.819    30.039
C    9.498    -16.6    27.04
N    13.011    -16.465    22.709
Br    6.078    -10.465    27.319
C    9.553    -16.01    28.353
N    10.851    -15.314    21.949
C    10.126    -14.708    28.383
N    12.274    -17.291    24.634
C    10.628    -13.928    27.324
C    10.576    -14.514    26.036
C    7.557    -15.274    23.939
C    13.346    -17.196    23.807
C    9.014    -15.57    23.56
C    9.951    -16.406    24.543
C    11.746    -16.091    22.815
C    9.476    -15.115    22.355
C    9.134    -13.614    20.319
C    8.14    -12.955    19.488
C    6.738    -13.105    19.722
C    6.248    -13.925    20.809
C    7.208    -14.58    21.648
C    8.621    -14.432    21.411
C    6.273    -14.171    25.679
C    7.335    -13.99    24.72
C    8.04    -12.724    24.53
C    7.661    -11.588    25.326
C    6.59    -11.794    26.273
C    5.878    -13.041    26.482
H    9.0818    -17.5905    26.8956
H    9.1894    -16.5142    29.2411
H    11.1968    -14.9157    21.0643
H    11.0315    -12.9349    27.4855
H    10.9493    -13.981    25.169
H    7.225    -16.0932    24.5937
H    14.3241    -17.637    23.9934
H    9.4912    -17.401    24.6355
H    10.1969    -13.5034    20.1369
H    8.472    -12.331    18.6661
H    6.0314    -12.597    19.0757
H    5.1845    -14.0407    20.9839
H    5.7845    -15.132    25.7929
H    8.8369    -12.6425    23.7997
H    8.153    -10.6278    25.2209
H    5.0811    -13.1196    27.2126
