209

N    -11.336    0.657    8.738
C    -12.12    0.01    7.632
C    -11.403    0.04    6.287
O    -10.531    0.873    6.056
C    -13.479    0.687    7.53
C    -14.263    0.592    8.816
C    -14.257    -0.82    9.35
O    -13.217    -1.223    9.939
O    -15.273    -1.542    9.157
N    -11.793    -0.857    5.401
C    -11.174    -0.976    4.079
C    -11.638    0.081    3.117
O    -12.624    0.721    3.375
C    -11.481    -2.327    3.462
O    -12.888    -2.415    3.167
C    -11.117    -3.405    4.444
N    -10.92    0.244    2.003
C    -11.311    1.267    1.03
C    -12.735    0.967    0.536
O    -13.578    1.862    0.461
C    -10.355    1.289    -0.162
C    -10.858    2.111    -1.265
C    -10.851    3.504    -1.168
C    -11.493    1.506    -2.334
C    -11.482    4.285    -2.112
C    -12.136    2.278    -3.302
C    -12.131    3.691    -3.173
N    -12.978    -0.295    0.168
C    -14.292    -0.715    -0.305
C    -15.392    -0.374    0.707
O    -16.485    0.031    0.32
C    -14.293    -2.224    -0.615
C    -13.647    -2.593    -1.973
C    -13.105    -4.07    -2.027
O    -11.879    -4.245    -2.157
O    -13.886    -5.046    -1.926
N    -15.132    -0.562    1.997
C    -16.122    -0.223    3.038
C    -16.467    1.269    2.978
O    -17.652    1.645    2.9
C    -15.599    -0.554    4.449
C    -16.383    0.089    5.564
N    -17.537    -0.46    6.082
C    -16.193    1.252    6.236
C    -18.024    0.335    7.02
N    -17.228    1.382    7.134
N    -15.449    2.137    3.035
C    -15.742    3.56    2.943
C    -16.451    3.938    1.609
O    -17.385    4.719    1.583
C    -14.446    4.364    3.042
C    -13.762    4.153    4.355
C    -12.533    3.61    4.561
C    -14.304    4.437    5.636
N    -12.276    3.536    5.903
C    -13.344    4.037    6.586
C    -15.508    4.99    6.074
C    -13.552    4.164    7.956
C    -15.723    5.119    7.45
C    -14.74    4.706    8.373
N    -15.988    3.362    0.517
C    -16.542    3.744    -0.747
C    -17.977    3.294    -0.892
O    -18.824    4.057    -1.396
C    -15.665    3.233    -1.894
C    -16.019    4.006    -3.147
C    -16.949    3.676    -4.095
C    -15.535    5.305    -3.49
N    -17.078    4.709    -5.029
C    -16.233    5.723    -4.666
C    -14.573    6.166    -2.919
C    -16.006    6.973    -5.27
C    -14.341    7.409    -3.524
C    -15.06    7.796    -4.683
N    -18.276    2.087    -0.409
C    -19.637    1.539    -0.535
C    -20.651    2.482    0.137
O    -21.835    2.536    -0.246
C    -19.687    0.12    0.08
O    -19.557    0.224    1.496
N    -20.211    3.253    1.13
C    -21.132    4.196    1.755
C    -21.61    5.246    0.775
O    -22.735    5.749    0.893
C    -20.5    4.87    2.961
C    -20.106    3.888    4.03
C    -19.747    4.557    5.348
O    -19.442    3.874    6.333
N    -19.78    5.894    5.379
N    -20.773    5.612    -0.208
C    -21.208    6.601    -1.202
C    -22.278    6.031    -2.122
O    -22.909    6.783    -2.862
C    -20.026    7.031    -2.076
C    -19.095    8.075    -1.451
C    -17.725    8.076    -2.149
C    -19.742    9.45    -1.617
N    -22.478    4.708    -2.094
C    -23.458    4.075    -2.982
C    -24.738    3.711    -2.224
O    -25.669    3.093    -2.764
C    -22.838    2.816    -3.646
C    -21.491    2.987    -4.342
C    -20.979    1.645    -4.891
C    -21.631    3.948    -5.485
N    -24.731    4.08    -0.948
C    -25.804    3.868    -0.003
C    -26.809    5.022    -0.086
O    -26.604    5.995    -0.859
C    -25.224    3.834    1.416
O    -26.254    3.804    2.36
O    -27.795    4.94    0.668
H    -11.861    0.605    9.5969
H    -11.164    1.6231    8.5073
H    -10.4569    0.1771    8.852
H    -12.2765    -1.045    7.9011
H    -14.0557    0.204    6.7274
H    -13.3281    1.7487    7.2852
H    -15.3018    0.901    8.6277
H    -13.8111    1.261    9.5631
H    -12.5388    -1.4784    5.6412
H    -10.0855    -0.8798    4.2052
H    -10.8997    -2.4533    2.5368
H    -13.0771    -3.2621    2.7808
H    -11.3362    -4.3897    4.0054
H    -11.7038    -3.2752    5.3653
H    -10.0446    -3.3392    4.68
H    -10.1187    -0.3298    1.8336
H    -11.2942    2.2521    1.5192
H    -10.2167    0.2593    -0.5232
H    -9.3874    1.6947    0.1684
H    -10.3413    3.9784    -0.3372
H    -11.4912    0.4254    -2.4204
H    -11.4679    5.365    -2.0202
H    -12.6327    1.8047    -4.1413
H    -12.638    4.3038    -3.9095
H    -12.2401    -0.968    0.2183
H    -14.5077    -0.172    -1.237
H    -15.3358    -2.574    -0.6226
H    -13.7386    -2.7405    0.1824
H    -12.8075    -1.9067    -2.1577
H    -14.4021    -2.4697    -2.7633
H    -14.2471    -0.941    2.2678
H    -17.0345    -0.8089    2.8535
H    -14.5557    -0.2126    4.5193
H    -15.6378    -1.6449    4.5844
H    -15.3727    1.9535    6.0916
H    -18.9282    0.1563    7.6
H    -17.3598    2.1671    7.7875
H    -14.508    1.8148    3.1385
H    -16.4009    3.8324    3.7806
H    -14.6804    5.4329    2.9301
H    -13.7694    4.0503    2.2334
H    -11.854    3.2826    3.775
H    -11.4154    3.1624    6.328
H    -16.2603    5.3126    5.3633
H    -12.8003    3.8452    8.669
H    -16.6543    5.5406    7.8105
H    -14.9278    4.8195    9.4346
H    -15.2652    2.673    0.5704
H    -16.5385    4.8431    -0.7917
H    -15.8505    2.1607    -2.0542
H    -14.6042    3.389    -1.6485
H    -17.5088    2.7422    -4.1188
H    -17.7015    4.7071    -5.8489
H    -14.0251    5.872    -2.0311
H    -16.5486    7.2788    -6.1572
H    -13.6037    8.0818    -3.101
H    -14.8629    8.7667    -5.1234
H    -17.5667    1.5473    0.0445
H    -19.8895    1.4638    -1.603
H    -18.862    -0.486    -0.3227
H    -20.647    -0.3562    -0.1684
H    -18.7278    0.6366    1.7073
H    -19.2634    3.1864    1.4424
H    -22.0086    3.6286    2.1008
H    -21.2225    5.5824    3.3857
H    -19.6012    5.4118    2.6314
H    -19.2342    3.3173    3.6777
H    -20.948    3.2017    4.2032
H    -19.5521    6.3804    6.2225
H    -20.0326    6.4071    4.5587
H    -19.8577    5.2131    -0.2632
H    -21.6124    7.4776    -0.6746
H    -20.4287    7.4505    -3.0097
H    -19.4285    6.136    -2.3038
H    -18.9587    7.8527    -0.3824
H    -17.0766    8.8324    -1.6828
H    -17.8568    8.3128    -3.2151
H    -17.2615    7.0835    -2.0484
H    -20.7231    9.456    -1.1196
H    -19.8723    9.6671    -2.6874
H    -19.0962    10.2163    -1.1634
H    -21.9516    4.1432    -1.4584
H    -23.7203    4.7919    -3.774
H    -23.5544    2.4509    -4.3967
H    -22.7107    2.0563    -2.8607
H    -20.763    3.3825    -3.6185
H    -20.0088    1.7977    -5.3863
H    -21.7025    1.2458    -5.617
H    -20.8593    0.9315    -4.0624
H    -21.997    4.9146    -5.1086
H    -22.3462    3.5452    -6.2173
H    -20.6526    4.0891    -5.9674
H    -23.912    4.545    -0.6118
H    -26.3098    2.9167    -0.2249
H    -24.609    4.7314    1.5783
H    -24.5996    2.9358    1.5315
H    -25.881    3.7832    3.2335
