88

N    30.324    6.134    15.426
C    31.535    6.2    14.6
C    32.599    7.085    15.341
C    31.999    8.428    15.791
C    31.629    8.618    17.145
C    31.067    9.849    17.573
C    30.875    10.893    16.632
C    31.243    10.704    15.284
C    31.805    9.48    14.858
O    30.692    10.074    18.897
C    31.067    9.252    20.016
C    29.907    9.135    21.035
C    28.572    8.624    20.44
C    28.574    7.078    20.336
N    27.326    6.651    19.704
C    27.126    6.507    18.363
C    28.176    6.527    17.402
C    27.901    6.365    16.024
C    26.562    6.184    15.59
C    25.506    6.163    16.532
C    25.797    6.324    17.911
C    24.058    5.966    16.059
O    23.8    4.545    16.049
C    22.849    4.114    17.052
C    29.043    6.386    15.035
O    28.772    6.641    13.868
C    32.052    4.761    14.342
O    33.181    4.79    13.459
C    30.982    3.894    13.632
N    31.539    2.606    13.172
C    30.723    2.008    12.103
C    30.85    0.473    12.01
C    29.546    1.103    12.543
C    30.664    2.716    10.743
C    31.865    2.97    10.044
C    31.849    3.623    8.783
C    30.601    4.019    8.239
C    29.393    3.772    8.932
C    29.424    3.121    10.185
C    33.179    3.879    8.049
C    33.777    5.254    8.454
C    34.229    2.736    8.142
H    30.4531    5.8751    16.3832
H    31.2944    6.6678    13.6339
H    33.4398    7.2796    14.6589
H    32.9626    6.5416    16.2255
H    31.7763    7.8167    17.8601
H    30.4453    11.8363    16.9493
H    31.0934    11.5046    14.5687
H    32.0876    9.3444    13.8203
H    31.9393    9.6999    20.5145
H    31.3283    8.2473    19.6522
H    29.7301    10.1304    21.4685
H    30.2169    8.4392    21.8286
H    28.4365    9.0531    19.4362
H    27.7426    8.941    21.0893
H    28.649    6.639    21.3418
H    29.4291    6.7486    19.7274
H    26.531    6.4414    20.3244
H    29.1994    6.6682    17.7304
H    26.3476    6.0615    14.5345
H    24.9873    6.3066    18.6315
H    23.9329    6.3785    15.047
H    23.3647    6.4697    16.7486
H    22.7076    3.0255    16.9795
H    21.8867    4.6205    16.8865
H    23.2301    4.3684    18.052
H    32.3316    4.3015    15.3015
H    33.8761    5.3044    13.8524
H    30.5957    4.446    12.7625
H    30.1598    3.6958    14.3354
H    31.5732    1.9682    13.9518
H    32.4719    2.7601    12.8228
H    31.5204    -0.0653    12.6961
H    30.8603    -0.0188    11.0261
H    28.6278    1.0617    11.9387
H    29.2879    1.0151    13.6087
H    32.8107    2.6626    10.4756
H    30.5722    4.5186    7.2774
H    28.4468    4.0812    8.503
H    28.5007    2.9308    10.7202
H    32.9209    3.9542    6.9824
H    34.7243    5.414    7.9182
H    33.9621    5.2684    9.5382
H    33.0683    6.0535    8.1924
H    33.7623    1.7846    7.8471
H    34.5967    2.6591    9.1759
H    35.0708    2.9557    7.4688
