25

C    -0.684    -30.619    -12.33
S    -0.881    -34.399    -8.752
C    -0.17    -28.933    -10.513
N    -0.976    -36.112    -10.752
O    -1.111    -29.618    -11.335
C    -0.725    -28.846    -9.122
C    -0.765    -32.08    -11.99
C    -0.78    -32.453    -10.627
C    -0.855    -33.805    -10.3
C    -0.962    -36.012    -9.387
C    -0.915    -34.882    -11.358
C    -0.9    -34.469    -12.718
O    -0.276    -30.249    -13.428
N    -1.003    -37.103    -8.583
C    -0.826    -33.075    -13.026
H    0.0066    -27.9317    -10.9057
H    0.7765    -29.4735    -10.5021
H    -1.6682    -28.3001    -9.142
H    -0.8937    -29.8513    -8.736
H    -0.0149    -28.3236    -8.4809
H    -0.7337    -31.6954    -9.8447
H    -0.9445    -35.2079    -13.5181
H    -1.0459    -38.0365    -8.9918
H    -0.991    -36.9902    -7.5693
H    -0.8156    -32.7595    -14.0693
