22

C    8.205    11.981    4.04
O    7.765    12.613    3.021
O    8.233    10.745    4.247
C    8.892    12.902    5.08
C    9.542    14.069    4.264
C    10.072    15.15    5.241
C    10.785    14.57    6.432
C    10.969    15.276    7.694
N    12.019    14.78    8.656
H    9.6641    12.3456    5.6316
H    8.1495    13.2987    5.7881
H    8.7887    14.5146    3.5978
H    10.3761    13.6766    3.6638
H    9.2199    15.7462    5.5993
H    10.772    15.801    4.6967
H    11.7965    14.3182    6.0808
H    10.2435    13.6461    6.6832
H    10.0055    15.2478    8.224
H    11.2219    16.3179    7.448
H    12.0268    15.3659    9.4762
H    12.9234    14.8116    8.2119
H    11.8087    13.831    8.923
