15

N    28.259    45.343    16.179
C    28.566    46.549    16.733
N    28.937    46.347    18.035
C    28.868    45.027    18.285
C    29.129    44.284    19.442
N    29.544    44.943    20.683
N    28.971    42.939    19.411
C    28.546    42.315    18.252
N    28.285    43.052    17.108
C    28.448    44.403    17.131
H    27.9446    45.1798    15.2225
H    28.5234    47.5125    16.2251
H    29.6464    45.9574    20.7122
H    29.7305    44.3874    21.5178
H    28.4151    41.233    18.2385
