18

N    29.191    46.541    18.396
O    27.828    41.608    16.925
C    27.02    43.508    13.922
C    27.168    42.438    14.795
C    27.384    44.787    14.324
N    28.316    46.087    16.235
N    28.544    44.41    17.598
C    28.711    45.724    17.459
C    27.679    42.653    16.07
C    27.895    44.997    15.598
C    28.042    43.932    16.468
H    29.4637    46.1692    19.3058
H    29.2857    47.5382    18.2034
H    28.1898    41.9249    17.7559
H    26.6185    43.3443    12.922
H    26.8845    41.4332    14.4817
H    27.2684    45.6266    13.6386
H    28.334    47.0336    15.8555
