36

O    27.886    -32.89    19.179
O    21.158    -32.818    24.939
O    23.098    -33.3    18.904
O    28.817    -32.147    21.091
Br    15.94    -32.094    23.718
C    17.954    -33.128    20.11
C    16.94    -32.779    21.028
C    26.714    -32.964    22.586
C    19.304    -33.281    20.521
C    25.577    -33.053    23.377
C    25.341    -32.97    20.573
N    22.286    -33.083    19.96
N    19.081    -32.606    24.005
N    23.13    -33.196    23.352
C    27.898    -32.725    20.423
C    26.6    -32.923    21.201
C    17.257    -32.605    22.384
C    20.395    -32.837    23.956
C    22.173    -33.3    22.404
C    22.831    -33.114    21.177
C    20.796    -33.203    22.66
C    24.328    -33.118    22.788
C    19.635    -33.067    21.864
C    24.199    -33.065    21.398
C    18.584    -32.74    22.781
H    22.5918    -33.2517    18.1015
H    17.6961    -33.2825    19.0685
H    15.9198    -32.6458    20.6866
H    27.6933    -32.9264    23.0492
H    20.0682    -33.5598    19.8045
H    25.6684    -33.0715    24.457
H    25.2513    -32.9345    19.4933
H    21.2807    -32.8999    19.8306
H    18.5591    -32.3716    24.8252
H    22.9545    -33.1796    24.3668
H    20.6971    -34.293    22.7697
