48

N    45.194    16.593    59.627
C    44.969    15.342    59.792
N    44.394    14.947    61.067
C    44.105    15.772    62.013
N    44.391    17.168    61.739
C    44.898    17.583    60.64
N    45.232    14.447    58.877
N    43.585    15.383    63.162
C    45.16    18.965    60.43
C    43.299    13.955    63.447
C    44.064    13.557    64.744
N    43.727    14.524    65.834
C    44.04    15.95    65.509
C    43.264    16.362    64.229
N    44.902    20.048    61.253
C    46.161    14.669    57.757
C    47.646    14.514    58.211
C    48.631    14.737    57.017
C    48.307    13.733    55.858
C    46.814    13.859    55.406
C    45.844    13.653    56.618
H    44.7664    13.5418    58.9427
H    44.474    19.1733    59.609
H    46.2499    18.9632    60.4421
H    43.6249    13.3332    62.6132
H    42.2277    13.8065    63.5825
H    45.1374    13.5795    64.5556
H    43.7716    12.5512    65.0456
H    44.2904    14.2702    66.6455
H    42.7204    14.4648    65.9875
H    45.1111    16.0607    65.3398
H    43.7418    16.5892    66.34
H    42.1917    16.3672    64.4245
H    43.5556    17.3655    63.9189
H    45.2176    20.9036    60.796
H    43.8995    20.1065    61.4317
H    45.3995    19.929    62.1355
H    46.0287    15.6882    57.3941
H    47.7882    13.5035    58.5942
H    47.8545    15.2608    58.9771
H    49.6523    14.5708    57.3596
H    48.5216    15.7569    56.6483
H    48.4788    12.7182    56.2168
H    48.9497    13.9618    55.0079
H    46.6083    13.0931    54.6583
H    46.655    14.8561    54.9953
H    44.8198    13.8109    56.2802
H    45.9714    12.6413    57.003
