63

C    22.758    64.939    20.994
N    24.227    63.136    21.02
O    19.415    59.732    24.477
S    20.681    63.949    22.001
C    21.504    65.23    21.321
N    23.303    61.068    21.959
O    18.457    66.896    15.548
S    17.851    67.728    16.559
C    23.037    63.67    21.272
N    21.196    60.926    22.758
O    16.518    67.233    16.8
C    22.036    62.985    21.83
N    20.078    66.929    20.039
O    27.765    58.415    23.981
C    24.417    61.748    21.356
N    18.665    67.569    17.849
C    22.145    61.677    22.179
C    25.694    61.051    21.16
C    19.759    60.961    22.481
C    19.072    60.951    23.837
C    20.797    59.691    24.79
C    21.615    59.743    23.516
C    20.93    66.619    21.169
C    19.785    68.345    19.859
C    19.543    68.616    18.373
C    19.041    66.201    18.146
C    19.005    66.042    19.652
C    17.758    69.302    15.998
C    26.641    61.514    20.266
C    27.839    60.836    20.135
C    28.099    59.717    20.909
C    27.154    59.267    21.819
C    25.954    59.937    21.946
C    27.41    58.043    22.663
H    23.4631    65.6458    20.5566
H    27.0495    58.9208    24.3733
H    19.4521    60.1078    21.8761
H    19.4885    61.8475    21.9073
H    19.3966    61.8017    24.4362
H    17.9913    61.0295    23.7185
H    21.0181    58.7658    25.3221
H    21.0499    60.5473    25.4152
H    22.6774    59.8034    23.7522
H    21.4527    58.8406    22.9266
H    21.8007    67.2617    21.0391
H    20.2861    66.7453    22.0394
H    20.626    68.9428    20.2104
H    18.8973    68.6133    20.4318
H    19.077    69.5928    18.2433
H    20.4905    68.6121    17.8342
H    20.0379    65.9853    17.7615
H    18.3528    65.5024    17.6702
H    18.0426    66.2857    20.1019
H    19.1321    65.0148    19.9938
H    18.7609    69.6674    15.777
H    17.1525    69.3283    15.092
H    17.3003    69.9318    16.7609
H    26.4453    62.4053    19.6698
H    28.5831    61.1841    19.4185
H    29.047    59.1897    20.8028
H    25.2102    59.5911    22.6638
H    26.5022    57.4406    22.6975
H    28.2292    57.4745    22.2228
