50

C    -13.408    -6.431    6.851
C    -13.067    -5.632    7.928
C    -13.707    -5.864    5.619
C    -13.013    -4.258    7.826
C    -13.657    -4.466    5.505
C    -13.311    -3.669    6.595
C    -13.399    -7.784    7.174
C    -13.049    -7.979    8.502
S    -12.781    -6.552    9.2
C    -12.941    -9.269    9.194
N    -13.305    -10.386    8.63
N    -12.441    -9.284    10.477
O    -14.032    -6.714    4.596
C    -14.262    -6.451    3.212
C    -15.744    -6.589    2.915
C    -16.419    -5.624    2.177
C    -16.435    -7.669    3.444
C    -17.776    -5.759    1.946
C    -17.792    -7.807    3.212
C    -18.458    -6.852    2.468
C    -13.347    -7.386    2.445
O    -13.599    -8.461    1.912
N    -12.571    -8.928    1.396
N    -12.057    -7.07    2.324
C    -11.557    -8.077    1.634
C    -10.135    -8.171    1.234
C    -9.182    -7.319    1.804
C    -9.742    -9.098    0.28
C    -7.845    -7.395    1.425
C    -8.405    -9.172    -0.094
C    -7.459    -8.325    0.472
H    -12.7439    -3.6454    8.6864
H    -13.8922    -3.9965    4.5498
H    -13.2729    -2.5851    6.4866
H    -13.636    -8.5861    6.475
H    -13.6777    -10.3802    7.6805
H    -13.2172    -11.2661    9.138
H    -12.1563    -8.4123    10.9236
H    -12.3553    -10.1668    10.9807
H    -14.0201    -5.4332    2.906
H    -15.8804    -4.763    1.7813
H    -15.9078    -8.4108    4.0439
H    -18.3082    -5.0118    1.3573
H    -18.3325    -8.6641    3.6138
H    -19.5281    -6.9567    2.2887
H    -9.49    -6.5887    2.5522
H    -10.4763    -9.7639    -0.1733
H    -7.1078    -6.7291    1.8735
H    -8.0946    -9.9033    -0.8403
H    -6.4148    -8.392    0.1668
