22

O    -11.475    16.169    -33.54
P    -10.694    15.0    -33.981
O    -11.59    13.649    -33.96
O    -9.422    14.703    -33.11
C    -9.963    15.09    -35.692
P    -11.35    15.26    -36.879
O    -10.857    15.228    -38.262
O    -12.316    14.004    -36.497
O    -12.161    16.598    -36.528
O    -9.306    13.852    -35.984
C    -8.972    16.246    -35.787
N    -8.386    16.429    -37.126
C    -7.789    15.495    -37.85
N    -7.331    16.083    -38.949
C    -7.679    17.37    -38.898
C    -8.307    17.594    -37.753
H    -9.943    13.135    -35.9409
H    -8.1519    16.024    -35.1042
H    -9.5177    17.1585    -35.5469
H    -7.6916    14.4404    -37.5921
H    -7.4798    18.1134    -39.6698
H    -8.6856    18.5516    -37.3957
