58

C    6.724    31.041    8.34
N    8.453    29.566    7.488
O    6.673    28.523    6.597
C    7.696    29.937    8.671
N    8.015    27.473    4.594
O    9.876    26.183    4.37
C    8.743    30.462    9.641
N    5.631    22.282    6.415
C    9.15    29.375    10.621
O    9.736    32.164    3.212
C    10.1    29.966    11.64
O    6.902    22.612    5.879
C    7.85    28.863    6.533
C    8.664    28.548    5.321
C    8.491    29.793    4.461
O    10.37    31.193    11.593
C    9.325    29.828    3.191
N    7.043    31.818    7.398
O    5.68    31.171    8.963
C    9.133    31.223    2.647
C    8.679    26.397    4.182
C    7.826    25.395    3.47
C    8.049    24.113    4.227
C    5.476    23.944    4.886
C    4.773    23.115    5.793
C    3.315    23.067    6.091
C    2.393    23.694    5.259
C    1.041    23.629    5.558
C    0.626    22.925    6.689
C    1.544    22.291    7.522
C    2.895    22.362    7.22
C    6.836    23.602    4.956
O    8.364    31.385    1.673
O    10.584    29.195    12.501
H    9.4116    29.8346    7.393
H    7.1608    29.0715    9.0886
H    7.0372    27.5435    4.3965
H    8.3262    31.3142    10.1978
H    9.6279    30.7905    9.0762
H    9.65    28.5581    10.08
H    8.2572    28.9844    11.1313
H    9.7138    28.3197    5.5571
H    8.7637    30.6672    5.0704
H    7.4315    29.8625    4.1734
H    8.967    29.0777    2.4706
H    10.3853    29.6422    3.4175
H    6.4327    32.5667    7.139
H    7.906    31.685    6.9106
H    8.1421    25.2887    2.4218
H    6.7667    25.6894    3.5056
H    8.847    24.2834    4.9646
H    8.37    23.3421    3.511
H    5.0396    24.7107    4.2475
H    2.7306    24.2314    4.3802
H    0.3144    24.1195    4.9204
H    -0.4309    22.8707    6.9235
H    1.2059    21.7478    8.3971
H    3.622    21.8722    7.8577
