59

C    16.407    40.859    43.012
F    16.185    39.426    47.372
N    17.775    42.05    46.437
O    23.177    38.314    47.288
C    17.2    42.159    43.167
N    22.061    40.261    45.583
O    23.341    39.376    43.862
C    16.77    43.005    44.377
O    19.885    39.793    44.525
C    16.544    42.141    45.628
O    19.548    40.786    47.221
C    18.225    43.286    47.09
C    26.043    43.097    49.923
C    26.463    42.73    48.646
C    25.515    42.416    47.678
C    24.138    42.455    47.97
C    23.73    42.826    49.255
C    24.675    43.153    50.224
C    23.113    42.11    46.893
C    23.175    40.618    46.462
C    23.142    39.693    47.687
C    22.243    39.641    44.35
C    20.907    39.316    43.669
C    18.805    39.023    44.888
C    18.392    37.796    44.313
C    17.25    37.124    44.803
C    16.499    37.684    45.843
C    16.907    38.905    46.392
C    18.05    39.566    45.931
C    18.489    40.845    46.569
H    16.7697    40.3113    42.1297
H    15.3398    41.0934    42.8848
H    16.5416    40.2381    43.9099
H    22.4237    38.1246    46.7409
H    17.0624    42.7604    42.2563
H    18.2642    41.9051    43.2814
H    21.1297    40.4713    45.8805
H    15.8335    43.5271    44.1313
H    17.5562    43.7437    44.5921
H    15.7459    42.5911    46.2367
H    16.2422    41.1299    45.3172
H    19.1456    43.0864    47.658
H    17.4424    43.6449    47.7746
H    18.4241    44.0525    46.3266
H    26.7752    43.3395    50.6847
H    27.52    42.6896    48.409
H    25.8414    42.1367    46.6827
H    22.674    42.8592    49.4977
H    24.3517    43.4519    51.2146
H    23.3037    42.7392    46.0111
H    22.1069    42.3218    47.2839
H    24.118    40.4559    45.9194
H    24.0137    39.9063    48.323
H    22.2189    39.8804    48.2551
H    20.8479    39.8182    42.6921
H    20.8076    38.2294    43.5294
H    18.9561    37.3698    43.4913
H    16.955    36.1736    44.3731
H    15.6153    37.1799    46.2173
