54

N    -24.386    4.249    -4.166
N    -24.477    6.626    -4.108
N    -27.061    6.419    -7.964
C    -23.152    0.358    -0.235
C    -27.285    11.603    -10.356
C    -29.222    9.505    -11.171
O    -26.062    4.964    -6.479
O    -25.608    9.923    -2.732
S    -24.905    5.435    -1.814
C    -24.948    0.639    -4.034
C    -24.806    1.943    -4.513
C    -24.796    0.378    -2.675
C    -24.357    2.727    -2.281
C    -26.253    9.931    -8.746
C    -28.071    7.97    -9.516
C    -25.231    8.35    -7.17
C    -25.646    8.836    -3.66
C    -24.572    7.83    -3.241
C    -24.081    6.776    -5.531
O    -24.352    1.158    -0.465
C    -24.555    5.419    -3.503
C    -27.216    10.214    -9.718
C    -28.137    9.231    -10.101
C    -24.51    3.004    -3.648
C    -24.501    1.423    -1.795
C    -25.182    7.07    -6.58
C    -26.099    6.101    -6.984
C    -26.194    8.67    -8.148
C    -27.105    7.691    -8.551
H    -24.1409    4.3127    -5.1541
H    -27.7369    5.711    -8.251
H    -23.2352    -0.5837    -0.7775
H    -22.2784    0.9061    -0.5878
H    -23.0499    0.1567    0.8314
H    -27.1494    11.5135    -11.4338
H    -28.257    12.0497    -10.1467
H    -26.4976    12.2318    -9.9404
H    -29.8593    10.3245    -10.8388
H    -28.7425    9.7743    -12.1121
H    -29.8253    8.6083    -11.3127
H    -25.7847    9.5937    -1.8478
H    -25.1776    -0.1735    -4.7233
H    -24.9276    2.1385    -5.5784
H    -24.9068    -0.6388    -2.2982
H    -24.1233    3.5369    -1.5899
H    -25.5408    10.7018    -8.4515
H    -28.7786    7.1964    -9.8142
H    -24.5094    9.1072    -6.8634
H    -25.4567    9.194    -4.672
H    -26.6294    8.366    -3.654
H    -23.613    8.3441    -3.3056
H    -24.8355    7.4819    -2.2422
H    -23.6694    5.8075    -5.815
H    -23.4271    7.6478    -5.5535
