91

C    26.818    15.444    24.454
F    26.8    10.957    18.753
N    28.535    13.702    21.903
O    29.24    13.591    24.052
S    17.821    12.915    25.269
C    26.987    14.258    23.681
F    22.696    13.292    18.143
N    23.644    11.732    23.257
O    22.262    13.52    23.162
C    25.84    13.474    23.335
N    21.194    9.962    26.342
O    21.137    8.998    23.62
C    24.54    13.87    23.746
N    19.291    12.085    25.763
C    24.374    15.061    24.516
O    29.282    11.217    22.562
C    25.514    15.846    24.869
O    17.312    13.533    26.456
C    28.334    13.831    23.255
O    18.198    13.717    24.146
C    29.847    13.28    21.411
C    27.574    13.957    20.838
C    28.39    14.235    19.6
C    29.825    13.905    20.009
C    29.795    11.745    21.347
C    25.343    17.073    25.664
C    23.381    13.055    23.368
C    22.543    10.84    22.871
C    22.072    9.984    24.082
C    23.014    9.906    21.743
C    23.617    10.688    20.588
C    24.968    10.449    20.201
C    25.538    11.178    19.116
C    24.765    12.142    18.418
C    23.418    12.383    18.802
C    22.84    11.657    19.885
C    20.045    11.39    24.692
C    19.182    11.194    26.942
C    20.547    10.728    27.412
C    21.394    10.84    25.18
C    15.625    9.893    21.544
C    29.558    9.825    22.676
C    15.948    10.925    25.72
C    15.068    9.883    25.311
C    14.963    9.544    23.933
C    15.736    10.245    22.965
C    16.617    11.287    23.373
C    16.722    11.627    24.751
H    27.6811    16.0406    24.7265
H    24.5605    11.3726    23.4326
H    25.9655    12.5682    22.7529
H    20.6083    9.1842    26.0812
H    22.0854    9.6184    26.6635
H    21.5586    8.4403    22.9769
H    23.384    15.3691    24.8323
H    30.6904    13.6335    22.0223
H    26.9491    14.8272    21.0873
H    26.9324    13.077    20.6833
H    28.3024    15.2911    19.305
H    28.0652    13.5936    18.7675
H    30.2539    13.194    19.2876
H    30.4228    14.8283    20.0135
H    29.1441    11.4386    20.5149
H    30.8099    11.3544    21.1817
H    26.3247    17.5386    25.8353
H    24.8824    16.8222    26.6309
H    24.6942    17.7751    25.1198
H    21.6993    11.4476    22.5118
H    22.9472    9.4804    24.5184
H    22.1532    9.3294    21.3735
H    23.7726    9.217    22.1427
H    25.5619    9.7134    20.7313
H    25.2013    12.6937    17.5932
H    21.8115    11.841    20.1739
H    20.23    12.1009    23.8732
H    19.437    10.5522    24.3199
H    18.5774    10.3156    26.6721
H    18.6896    11.7409    27.7596
H    21.1663    11.6014    27.6645
H    20.4314    10.091    28.3013
H    22.0482    11.6809    25.4536
H    14.902    9.0726    21.4249
H    16.6078    9.573    21.1676
H    15.282    10.7695    20.9748
H    29.1493    9.4467    23.6246
H    30.6459    9.664    22.6554
H    29.092    9.2888    21.8362
H    16.0293    11.1845    26.7693
H    14.4792    9.349    26.048
H    14.2935    8.7509    23.6201
H    17.2063    11.82    22.6356
