42

N    25.028    -59.364    1.406
C    24.583    -58.466    0.455
C    24.726    -57.014    0.763
N    24.036    -58.851    -0.699
C    23.902    -60.219    -0.967
N    23.363    -60.532    -2.13
C    24.364    -61.217    0.026
C    24.915    -60.725    1.186
C    24.299    -62.722    -0.176
N    22.892    -63.293    -0.214
C    22.277    -63.63    -1.334
S    20.762    -64.279    -1.076
C    20.919    -64.104    0.632
C    22.133    -63.554    0.951
C    22.67    -63.251    2.319
C    19.816    -64.511    1.564
C    18.446    -64.244    0.989
O    17.476    -64.392    2.065
P    16.068    -63.595    2.073
O    15.28    -64.177    0.787
O    15.335    -63.993    3.293
O    16.329    -62.146    1.841
P    14.891    -65.637    0.217
O    13.46    -65.502    -0.39
O    15.847    -65.945    -0.876
O    14.843    -66.579    1.366
H    25.1947    -56.8932    1.7508
H    23.7331    -56.5407    0.7679
H    25.3558    -56.5371    -0.0024
H    23.2359    -61.5207    -2.3893
H    23.0694    -59.7876    -2.7785
H    25.2675    -61.4169    1.9424
H    24.8427    -63.2032    0.6503
H    24.7929    -62.9623    -1.129
H    22.7138    -63.4978    -2.3228
H    21.9223    -63.5292    3.0763
H    22.8886    -62.1758    2.3973
H    23.5927    -63.8259    2.4863
H    19.9208    -63.9468    2.5025
H    19.9081    -65.5874    1.771
H    18.2292    -64.9657    0.1877
H    18.4026    -63.2222    0.5839
