61

N    55.336    -17.504    -11.365
O    52.564    -20.63    -12.495
C    53.986    -17.467    -11.485
N    53.185    -18.583    -11.03
N    53.386    -16.335    -11.937
C    54.122    -15.261    -12.274
C    55.473    -15.304    -12.161
C    56.067    -16.441    -11.7
N    57.489    -16.504    -11.496
N    55.961    -14.132    -12.56
C    54.916    -13.357    -12.926
C    52.42    -13.606    -12.98
N    53.781    -14.061    -12.744
C    59.382    -17.839    -12.121
C    51.679    -14.328    -14.104
C    51.593    -13.467    -11.705
C    52.057    -19.299    -10.465
C    50.789    -18.439    -10.557
C    49.479    -19.114    -10.156
C    51.879    -20.558    -11.275
C    61.102    -19.734    -15.393
N    61.824    -18.944    -16.267
C    60.165    -17.11    -13.012
C    60.934    -21.108    -15.634
C    60.736    -17.767    -14.095
C    61.513    -21.667    -16.746
C    60.515    -19.137    -14.284
C    62.237    -20.874    -17.609
C    59.706    -19.863    -13.383
C    62.399    -19.498    -17.376
C    59.125    -19.207    -12.289
C    58.725    -17.063    -11.009
H    52.375    -21.471    -12.9177
H    53.8119    -19.3597    -11.24
H    57.8102    -15.6628    -11.9753
H    54.9801    -12.3366    -13.3039
H    52.5529    -12.5938    -13.3619
H    52.2197    -14.1911    -15.0405
H    51.6158    -15.3911    -13.8716
H    50.6747    -13.9152    -14.1991
H    51.5318    -14.4341    -11.2059
H    52.0684    -12.744    -11.0421
H    50.5902    -13.1239    -11.9595
H    52.2343    -19.5318    -9.415
H    50.6814    -18.1704    -11.6079
H    50.9311    -17.6151    -9.8576
H    49.3035    -19.9755    -10.8004
H    49.5434    -19.4418    -9.1185
H    48.6584    -18.4047    -10.264
H    52.2773    -21.366    -10.6614
H    50.8191    -20.6042    -11.5251
H    60.3272    -16.0425    -12.8626
H    60.3516    -21.7219    -14.947
H    61.3577    -17.2146    -14.7995
H    61.4005    -22.7327    -16.9451
H    62.6936    -21.3234    -18.4908
H    59.5341    -20.9282    -13.5374
H    62.9737    -18.8827    -18.0682
H    58.4896    -19.7467    -11.5868
H    58.5232    -17.7252    -10.1671
H    59.3863    -16.2621    -10.6782
