85

O    50.144    -1.476    22.504
S    51.233    -1.599    23.451
O    52.147    -0.439    23.416
C    50.57    -1.869    25.025
C    51.153    -2.761    25.88
C    50.599    -2.98    27.135
C    49.5    -2.267    27.538
C    48.892    -1.386    26.66
C    49.446    -1.159    25.387
C    52.186    -3.034    23.018
C    52.504    -3.128    21.505
C    51.907    -4.431    20.835
C    50.355    -4.393    20.962
C    49.765    -5.368    19.9
C    48.253    -5.443    19.944
C    47.681    -6.655    20.291
C    46.285    -6.781    20.338
C    45.509    -5.706    20.003
C    46.068    -4.493    19.674
C    47.458    -4.35    19.602
N    52.384    -5.613    21.546
C    53.288    -6.458    21.025
O    53.519    -6.204    19.607
C    53.814    -7.753    21.322
C    55.26    -7.369    21.699
C    55.861    -8.499    22.569
C    56.692    -9.456    21.712
N    57.069    -10.692    22.396
C    56.282    -11.748    22.519
N    56.812    -12.879    22.953
N    54.97    -11.674    22.235
N    53.675    -8.779    20.448
C    52.449    -9.112    20.086
O    51.475    -8.504    20.52
N    52.264    -10.145    19.282
C    50.912    -10.489    18.819
C    50.745    -11.99    18.929
C    53.393    -10.985    18.922
C    53.074    -12.447    18.972
N    51.837    -12.674    18.212
C    51.563    -14.127    18.307
H    52.0511    -3.2998    25.578
H    51.0398    -3.7214    27.8015
H    49.106    -2.3932    28.5464
H    47.9808    -0.8664    26.9562
H    48.9968    -0.4386    24.7033
H    51.5977    -3.9119    23.2852
H    53.1353    -2.9706    23.5499
H    53.5877    -3.1604    21.3923
H    52.0554    -2.2641    21.0146
H    52.2147    -4.4711    19.7901
H    49.9866    -3.3813    20.7922
H    50.0502    -4.6959    21.9637
H    50.1539    -6.3643    20.1104
H    50.0514    -5.0    18.9148
H    48.3146    -7.5099    20.5273
H    45.8249    -7.7227    20.6374
H    44.4242    -5.8126    19.9965
H    45.4241    -3.6379    19.4681
H    47.9076    -3.4084    19.2867
H    52.0153    -5.8051    22.4774
H    53.2254    -8.2551    22.0898
H    55.2617    -6.4318    22.2555
H    55.8566    -7.239    20.7961
H    55.0479    -9.057    23.0334
H    56.5053    -8.0551    23.3279
H    57.6142    -8.9374    21.4498
H    56.0808    -9.735    20.8537
H    58.0016    -10.7434    22.8059
H    57.8047    -12.9216    23.1835
H    56.2281    -13.7088    23.0573
H    54.5656    -10.7927    21.9186
H    54.379    -12.4992    22.3359
H    54.4874    -9.2761    20.0829
H    50.7764    -10.1706    17.7854
H    50.1652    -9.9821    19.4301
H    49.791    -12.2776    18.487
H    50.7716    -12.2773    19.9801
H    54.1908    -10.7945    19.6399
H    53.6747    -10.7415    17.8976
H    52.9423    -12.7664    20.0058
H    53.8911    -13.0236    18.5383
H    51.541    -14.4235    19.3557
H    50.5994    -14.3446    17.8463
H    52.3477    -14.6781    17.7887
