29

N    -5.93    7.837    11.248
C    -6.542    6.908    11.93
N    -5.837    6.16    12.774
C    -4.523    6.365    13.074
C    -3.836    7.333    12.288
C    -4.661    8.093    11.395
N    -3.762    5.436    13.872
C    -4.349    4.386    14.59
C    -3.501    3.409    15.089
C    -4.042    2.357    15.799
C    -5.408    2.254    16.009
C    -6.256    3.222    15.49
C    -5.731    4.292    14.719
S    -6.015    0.883    16.873
O    -5.448    0.949    18.235
O    -7.498    0.885    16.742
N    -5.333    -0.487    16.138
N    -2.37    7.457    12.516
O    -2.151    7.569    13.674
O    -1.891    7.325    11.439
Cl    -4.188    9.421    10.389
H    -7.6075    6.7485    11.8106
H    -2.7392    5.5496    13.9162
H    -2.4314    3.4707    14.9241
H    -3.3846    1.5947    16.2012
H    -7.3225    3.1609    15.6739
H    -6.3867    5.0136    14.2453
H    -5.5512    -1.4001    16.4826
H    -4.7131    -0.3809    15.3605
