25

C    -19.501    16.471    -5.281
C    -20.954    16.897    -5.592
C    -20.262    12.63    -5.604
C    -20.251    10.461    -5.645
C    -19.242    12.243    -6.598
C    -19.276    14.943    -5.158
C    -20.541    14.104    -5.331
N    -19.123    17.029    -4.028
N    -20.85    11.514    -5.049
N    -19.284    10.851    -6.577
N    -20.565    9.143    -5.365
O    -21.531    16.536    -6.691
O    -21.604    17.625    -4.76
H    -18.8504    16.86    -6.0781
H    -18.6086    12.8904    -7.2027
H    -18.859    14.7355    -4.1615
H    -18.5528    14.6384    -5.9288
H    -21.1378    14.1805    -4.4102
H    -21.116    14.5116    -6.1755
H    -19.2506    18.0286    -4.0532
H    -18.1544    16.8184    -3.8449
H    -19.6962    16.6354    -3.2982
H    -21.5891    11.4886    -4.3321
H    -20.0726    8.3814    -5.8532
H    -21.2912    8.9234    -4.6684
