34

P    26.499    -13.177    15.051
C    22.691    -8.218    15.015
N    21.452    -8.865    13.209
O    21.864    -5.794    14.971
C    21.889    -7.14    14.491
N    22.381    -9.247    14.192
O    19.987    -5.537    12.895
C    21.103    -7.559    13.359
N    19.877    -7.235    11.418
C    20.25    -6.709    12.54
C    23.624    -8.182    16.141
O    27.494    -12.801    14.002
C    23.373    -9.31    17.137
O    22.715    -8.81    18.318
O    25.228    -13.753    14.494
C    24.759    -9.82    17.474
O    25.344    -9.04    18.526
O    27.129    -13.932    16.153
C    25.531    -9.562    16.193
O    24.944    -8.402    15.599
C    25.406    -10.725    15.211
O    26.086    -11.814    15.81
H    21.0857    -9.4885    12.4756
H    22.7328    -5.4167    14.8978
H    20.1246    -8.1794    11.2018
H    19.3412    -6.697    10.7672
H    23.561    -7.2088    16.6498
H    22.7624    -10.1046    16.6834
H    21.882    -8.4231    18.0752
H    24.7466    -10.8863    17.744
H    26.2111    -9.3749    18.7224
H    26.5924    -9.3862    16.4223
H    25.8722    -10.4653    14.2491
H    24.3476    -10.9772    15.0493
