24

C    27.275    33.415    0.54
C    27.707    32.475    -0.421
C    26.764    31.829    -1.463
C    25.313    32.036    -0.976
C    25.018    33.519    -0.688
C    25.835    33.978    0.555
C    28.252    33.946    1.598
O    27.004    30.381    -1.552
O    25.126    31.294    0.262
O    25.283    34.365    -1.862
O    27.789    34.791    2.403
O    29.447    33.54    1.602
P    27.984    29.592    -2.675
O    27.291    28.47    -3.351
O    28.414    30.61    -3.902
O    29.284    29.194    -1.688
H    28.759    32.19    -0.4289
H    26.9389    32.2838    -2.438
H    24.6405    31.6889    -1.7605
H    23.9564    33.6297    -0.467
H    25.8938    35.0663    0.5419
H    25.3331    33.608    1.449
H    25.729    31.6298    0.9292
H    24.7626    34.0512    -2.6052
