36

C    -5.069    2.228    15.797
N    -5.385    -0.49    16.147
O    -7.31    1.161    16.655
S    -5.862    0.976    16.77
C    -5.765    3.308    15.332
O    -5.353    1.105    18.137
C    -5.127    4.298    14.612
C    -3.775    4.169    14.349
C    -3.09    3.103    14.808
C    -3.702    2.145    15.509
N    -2.926    5.123    13.677
C    -3.245    6.455    13.369
O    -4.304    6.934    13.648
N    -2.096    7.207    12.961
C    -2.106    8.558    12.895
C    -2.123    9.087    14.27
C    -0.718    9.112    14.77
C    0.15    9.057    13.539
C    -0.797    9.004    12.339
H    -5.7211    -1.3394    16.5539
H    -4.7621    -0.5223    15.3654
H    -6.8277    3.3881    15.5303
H    -5.6767    5.1628    14.2583
H    -2.0282    3.0221    14.6055
H    -3.1324    1.2919    15.8595
H    -2.019    4.803    13.4031
H    -1.2591    6.7171    12.717
H    -2.9555    8.9243    12.3
H    -2.7366    8.4382    14.9123
H    -2.5388    10.1054    14.2734
H    -0.5244    8.2427    15.4157
H    -0.5272    10.0372    15.3336
H    0.7845    8.1588    13.5617
H    0.7851    9.9533    13.482
H    -0.892    9.9983    11.8782
H    -0.4311    8.2862    11.5901
