53

N    21.694    12.44    63.667
C    22.859    13.1    63.633
N    22.925    14.429    63.639
C    21.803    15.168    63.619
C    20.576    14.53    63.646
C    20.54    13.122    63.692
N    19.41    12.435    63.732
N    21.543    16.488    63.589
N    20.336    16.73    63.623
N    23.493    19.711    59.936
C    13.299    15.472    65.477
C    13.889    15.841    64.266
C    17.642    14.382    67.267
C    18.249    14.737    66.056
C    14.1    15.015    66.518
C    16.274    14.472    67.406
C    15.274    15.745    64.123
C    24.65    19.185    60.69
C    22.472    18.646    59.776
C    24.171    18.886    62.132
C    21.929    18.268    61.166
C    18.138    15.561    63.677
C    22.529    17.557    63.552
C    17.469    15.184    64.995
C    19.651    15.589    63.657
C    15.488    14.928    66.36
C    16.082    15.284    65.165
C    23.065    17.808    62.116
H    23.7811    12.5311    63.5994
H    18.5069    12.9298    63.752
H    19.4334    11.4053    63.7431
H    23.7987    20.0209    59.0269
H    23.0911    20.4872    60.438
H    12.2248    15.5413    65.6045
H    13.2774    16.1983    63.4455
H    18.2489    14.0361    68.0959
H    19.3249    14.6635    65.9458
H    13.6461    14.7241    67.4585
H    15.8088    14.1836    68.3417
H    15.7321    16.0341    63.184
H    25.4564    19.9329    60.71
H    25.0175    18.262    60.2177
H    22.9289    17.7633    59.3048
H    21.6494    19.0139    59.1451
H    23.7728    19.808    62.5807
H    25.0211    18.5249    62.7294
H    21.2027    17.4493    61.0552
H    21.4296    19.1444    61.6047
H    17.784    16.5651    63.4006
H    17.8097    14.8349    62.9187
H    23.3727    17.284    64.2028
H    22.0636    18.4818    63.9235
H    23.4885    16.8679    61.7328
