142

N    -39.226    5.112    21.725
C    -39.389    6.254    20.779
C    -38.45    5.984    19.598
O    -37.522    6.747    19.352
C    -39.082    7.583    21.51
C    -38.617    8.9    20.869
C    -39.737    9.908    20.744
C    -37.498    9.52    21.7
N    -38.722    4.901    18.859
C    -37.682    4.183    18.089
C    -38.101    3.543    16.764
O    -39.285    3.551    16.428
C    -37.122    3.059    18.976
O    -38.152    2.274    19.532
N    -37.106    2.991    16.042
C    -37.283    1.838    15.119
C    -36.416    1.615    13.855
O    -35.94    2.553    13.197
C    -38.744    1.495    14.838
S    -39.547    0.85    16.289
N    -36.217    0.321    13.59
C    -35.534    -0.265    12.419
C    -34.002    -0.373    12.343
O    -33.301    0.633    12.258
C    -36.089    0.242    11.091
C    -35.946    -0.79    9.994
C    -36.089    -2.232    10.487
O    -35.093    -2.938    10.695
N    -37.329    -2.669    10.677
N    -33.537    -1.624    12.304
C    -32.148    -2.062    12.568
C    -30.952    -1.1    12.681
O    -30.918    -0.026    12.074
C    -31.788    -3.284    11.708
C    -31.858    -4.691    12.336
C    -30.631    -5.02    13.197
C    -33.154    -4.965    13.105
N    -29.956    -1.576    13.435
C    -28.85    -0.796    14.025
C    -28.252    0.363    13.222
O    -28.0    1.431    13.786
C    -27.75    -1.737    14.56
C    -26.947    -2.48    13.509
C    -25.592    -2.193    13.313
C    -27.528    -3.48    12.724
C    -24.839    -2.873    12.356
C    -26.784    -4.165    11.761
C    -25.443    -3.854    11.585
O    -24.702    -4.522    10.641
N    -28.015    0.168    11.928
C    -27.647    1.301    11.084
C    -28.917    2.094    10.775
O    -29.621    1.81    9.8
C    -26.909    0.855    9.809
C    -26.49    2.004    8.861
C    -26.018    3.263    9.59
O    -26.752    4.249    9.684
N    -24.797    3.227    10.116
N    -29.207    3.071    11.641
C    -30.433    3.885    11.572
C    -31.697    3.016    11.612
O    -32.7954    3.4705    12.0298
C    -30.421    4.771    10.322
C    -31.549    5.795    10.248
C    -31.888    6.14    8.809
N    -30.7    6.37    7.991
C    -30.726    6.695    6.7
N    -31.883    6.834    6.059
N    -29.588    6.886    6.046
O    -31.6352    1.8207    11.2182
H    -39.8281    5.2474    22.522
H    -38.2672    5.0646    22.0325
H    -39.4726    4.2525    21.2598
H    -40.4257    6.289    20.4129
H    -38.3001    7.3312    22.2415
H    -40.0117    7.8374    22.04
H    -38.234    8.6764    19.8624
H    -39.3518    10.8285    20.2811
H    -40.1356    10.139    21.7429
H    -40.5383    9.4899    20.1171
H    -36.6736    8.7988    21.801
H    -37.8825    9.7793    22.6974
H    -37.1309    10.4288    21.2008
H    -39.6632    4.5648    18.8262
H    -36.8825    4.9055    17.868
H    -36.535    3.5068    19.7914
H    -36.4713    2.4144    18.3669
H    -38.7155    2.8236    20.0639
H    -36.1899    3.3816    16.1325
H    -36.9481    1.0089    15.7596
H    -38.7877    0.7403    14.0389
H    -39.2695    2.4048    14.5122
H    -40.5074    0.6337    16.072
H    -36.5722    -0.3271    14.2637
H    -35.8502    -1.3175    12.467
H    -35.5415    1.1504    10.7993
H    -37.155    0.4814    11.2183
H    -34.9522    -0.6759    9.5365
H    -36.7218    -0.6028    9.237
H    -37.4863    -3.6028    10.9984
H    -38.1051    -2.0642    10.4986
H    -34.1959    -2.3397    12.0723
H    -32.2226    -2.456    13.5923
H    -30.7551    -3.1386    11.3588
H    -32.4704    -3.2825    10.8453
H    -31.8456    -5.3974    11.4929
H    -30.7377    -6.0314    13.6161
H    -30.5515    -4.2902    14.0162
H    -29.7243    -4.9743    12.5759
H    -34.0169    -4.7218    12.4676
H    -33.181    -4.3427    14.0117
H    -33.1949    -6.0272    13.3879
H    -29.9605    -2.5592    13.6178
H    -29.2933    -0.3147    14.9092
H    -28.2312    -2.4846    15.2077
H    -27.0494    -1.1329    15.1551
H    -25.1181    -1.4273    13.9165
H    -28.5738    -3.728    12.8651
H    -23.7904    -2.6364    12.2163
H    -27.2504    -4.9338    11.1556
H    -23.8111    -4.1924    10.648
H    -28.0884    -0.7489    11.5356
H    -26.9642    1.9497    11.6523
H    -27.571    0.1764    9.2511
H    -26.0004    0.314    10.112
H    -27.3541    2.2694    8.2342
H    -25.6698    1.645    8.2219
H    -24.4389    4.0233    10.6035
H    -24.237    2.4036    10.024
H    -28.5556    3.2594    12.376
H    -30.4501    4.5422    12.4539
H    -30.4944    4.1179    9.4399
H    -29.4648    5.3141    10.2976
H    -31.2367    6.7105    10.7718
H    -32.4426    5.3796    10.7368
H    -32.503    7.052    8.801
H    -32.4602    5.308    8.3728
H    -29.7797    6.2743    8.4435
H    -31.8914    7.0857    5.0603
H    -32.7706    6.69    6.5613
H    -28.6883    6.78    6.5361
H    -29.604    7.1403    5.048
