23

Cl    1.397    75.398    29.718
C    2.978    75.905    29.32
C    4.017    75.009    29.135
N    3.959    73.67    29.216
C    5.159    73.146    28.991
C    6.045    74.16    28.738
C    5.282    75.449    28.836
C    5.589    76.825    28.686
C    4.498    77.725    28.86
C    3.226    77.264    29.19
Cl    4.609    79.461    28.697
C    7.519    74.044    28.407
C    7.777    74.658    27.058
O    6.905    74.721    26.2
O    9.02    75.121    26.863
C    5.41    71.815    29.014
O    6.552    71.387    28.93
O    4.393    70.948    29.121
H    3.1079    73.1279    29.4225
H    6.5899    77.1704    28.4537
H    2.4218    77.9738    29.3468
H    7.8089    72.9831    28.389
H    8.1094    74.5726    29.1699
