47

P         54.06500       18.93500      112.86200
O         53.13500       18.72400      111.70400
O         53.43000       18.70500      114.20300
O         55.45700       18.33500      112.74500
O         54.37500       20.51700      112.75300
P         53.29500       21.71300      112.57000
O         51.97000       21.37800      113.20600
O         54.01100       22.98600      112.92800
O         53.05500       21.76600      110.99800
C         54.09200       22.18400      110.10800
C         53.48100       22.05700      108.72700
O         52.51500       23.09300      108.54000
C         54.48500       22.17100      107.60200
O         54.82600       20.85200      107.16500
C         53.71000       22.87000      106.51000
O         53.02300       21.85500      105.74700
C         52.60100       23.63100      107.22400
N         52.70700       25.10700      107.35100
C         51.70400       25.93200      107.00700
N         52.05900       27.20400      107.25700
C         53.29200       27.17400      107.77700
C         54.14100       28.16700      108.22300
O         53.78900       29.36100      108.18100
N         55.34900       27.84000      108.71600
C         55.73200       26.54600      108.77900
N         56.95600       26.24100      109.27800
N         54.92100       25.55300      108.35600
C         53.69900       25.84700      107.84800
P         56.32900       20.52500      106.66800
O         57.00000       21.82000      106.26100
O         56.99200       19.70100      107.75400
O         56.16700       19.55700      105.37500
P         54.80800       19.07700      104.63800
O         54.20200       20.34300      104.09000
O         53.97700       18.34800      105.67200
O         55.35300       18.14500      103.58100
H         54.97320       21.53280      110.20460
H         54.38180       23.22560      110.31060
H         52.98680       21.07670      108.65850
H         55.38190       22.73440      107.89900
H         54.34610       23.51480      105.88580
H         53.65920       21.25710      105.37250
H         51.66650       23.42270      106.68240
H         50.74870       25.61790      106.58920
H         55.96640       28.55800      109.03740
H         57.26010       25.25840      109.33150
H         57.58130       26.99200      109.60340
