26

O    52.709    -16.092    6.992
C    53.536    -16.478    7.816
C    54.496    -17.418    7.459
C    54.529    -17.929    6.167
C    55.49    -18.871    5.816
C    56.42    -19.3    6.755
C    56.384    -18.784    8.045
O    57.286    -19.194    8.97
C    55.426    -17.846    8.397
C    55.401    -17.339    9.691
O    56.226    -17.72    10.522
C    54.44    -16.399    10.045
C    53.51    -15.969    9.107
C    52.548    -15.031    9.456
C    52.52    -14.523    10.746
C    53.45    -14.95    11.686
C    54.412    -15.889    11.336
O    55.325    -16.308    12.254
H    53.8016    -17.5914    5.4287
H    55.5137    -19.2732    4.8032
H    57.1742    -20.0377    6.4812
H    57.1196    -18.7415    9.8001
H    51.818    -14.6953    8.7194
H    51.766    -13.7864    11.0235
H    53.4247    -14.5478    12.6988
H    55.911    -16.9521    11.8499
