70

C    -11.99    -24.688    -19.397
C    -13.915    -23.822    -20.454
C    -14.15    -22.104    -18.007
C    -13.329    -24.065    -19.043
C    -14.812    -19.974    -16.922
C    -15.243    -18.894    -17.897
C    -14.111    -19.466    -15.639
C    -13.757    -20.546    -14.676
C    -12.464    -21.016    -14.627
C    -14.722    -21.109    -13.823
C    -12.155    -22.08    -13.781
C    -14.448    -22.137    -12.947
C    -13.164    -22.63    -13.004
C    -16.341    -17.999    -17.319
C    -18.52    -18.282    -18.375
C    -18.244    -18.908    -19.756
C    -19.165    -17.565    -15.185
C    -18.5    -16.637    -14.399
C    -19.163    -15.469    -14.071
C    -20.416    -15.146    -14.47
C    -21.148    -16.132    -15.135
C    -20.464    -17.283    -15.56
C    -18.364    -20.425    -19.76
C    -19.33    -18.364    -20.73
C    -12.891    -24.302    -21.437
N    -13.863    -20.904    -17.562
N    -17.626    -18.676    -17.308
N    -21.046    -14.039    -14.048
O    -13.071    -22.743    -18.493
O    -15.262    -22.623    -17.967
O    -14.147    -18.006    -18.234
O    -17.194    -19.207    -14.859
O    -19.294    -20.014    -16.047
O    -11.683    -24.178    -20.715
S    -18.326    -18.954    -15.822
H    -12.0653    -25.7853    -19.4139
H    -11.2181    -24.3845    -18.6745
H    -14.1099    -22.7498    -20.6035
H    -14.8515    -24.3857    -20.5773
H    -13.9558    -24.6893    -18.3893
H    -15.7153    -20.5269    -16.6248
H    -15.6132    -19.3828    -18.8103
H    -14.7846    -18.7585    -15.1334
H    -13.1866    -18.9467    -15.932
H    -11.6935    -20.563    -15.2404
H    -15.7314    -20.7152    -13.8558
H    -11.1449    -22.4704    -13.7312
H    -15.1907    -22.5294    -12.2618
H    -12.9268    -23.5017    -12.4048
H    -16.4211    -17.0894    -17.9324
H    -16.0728    -17.7238    -16.2883
H    -19.5417    -18.5608    -18.0776
H    -18.4545    -17.1892    -18.4821
H    -17.2381    -18.619    -20.0946
H    -17.4899    -16.8216    -14.0517
H    -18.6386    -14.7558    -13.4453
H    -22.2099    -16.013    -15.3174
H    -20.9784    -17.9806    -16.211
H    -18.1559    -20.8066    -20.7705
H    -19.3829    -20.713    -19.4619
H    -17.6399    -20.852    -19.0506
H    -19.2797    -17.2655    -20.7587
H    -20.3253    -18.6764    -20.3809
H    -19.1524    -18.7656    -21.7385
H    -12.8806    -23.6714    -22.3383
H    -13.076    -25.3478    -21.7233
H    -12.9184    -20.5926    -17.6657
H    -20.5198    -13.3028    -13.556
H    -22.0558    -13.9254    -14.216
H    -13.8508    -17.5586    -17.4499
