135

N    26.721    41.694    24.324
C    26.041    42.991    24.547
C    25.345    43.486    23.296
O    25.839    43.295    22.175
N    24.189    44.127    23.495
C    23.393    44.662    22.409
C    24.061    45.883    21.746
O    24.917    46.532    22.333
C    22.008    45.092    22.937
C    21.041    44.012    23.428
C    19.826    44.647    24.158
C    20.587    43.142    22.293
N    23.64    46.173    20.518
C    24.121    47.343    19.777
C    23.297    48.536    20.231
O    22.089    48.41    20.446
C    23.933    47.131    18.275
S    24.401    48.552    17.251
N    23.933    49.685    20.402
C    23.21    50.891    20.85
C    22.47    51.592    19.703
O    21.555    52.345    19.942
C    24.176    51.917    21.509
O    25.183    52.301    20.573
C    24.844    51.318    22.727
N    22.77    51.198    18.465
C    22.213    51.869    17.261
C    20.665    51.853    17.162
O    20.047    50.808    17.089
C    22.801    51.245    15.98
C    22.981    52.224    14.783
C    23.22    51.436    13.495
C    21.813    53.158    14.612
N    20.08    53.036    17.079
C    18.645    53.183    16.922
C    18.383    53.649    15.501
O    18.73    54.769    15.141
C    18.069    54.233    17.903
C    16.585    54.55    17.558
C    18.211    53.754    19.349
N    17.81    52.774    14.682
C    17.513    53.111    13.284
C    16.1    52.584    12.871
O    15.921    51.401    12.65
C    18.591    52.542    12.372
N    15.12    53.498    12.778
C    13.716    53.132    12.411
C    13.512    52.78    10.951
O    13.994    53.467    10.06
C    12.727    54.271    12.755
C    12.092    54.208    14.159
S    13.131    54.715    15.487
C    13.384    56.441    15.057
N    12.705    51.755    10.716
C    12.363    51.35    9.372
C    11.612    52.497    8.688
O    11.068    53.394    9.37
C    11.482    50.093    9.4
C    12.168    48.752    9.7
C    13.19    48.879    10.795
C    11.133    47.705    10.046
O    11.548    52.578    7.448
H    27.1755    41.3969    25.1874
H    26.0336    40.9951    24.0423
H    27.4205    41.8001    23.5892
H    26.7928    43.7263    24.8336
H    25.2897    42.8538    25.3247
H    23.8534    44.2444    24.451
H    23.2969    43.8722    21.664
H    21.5096    45.5517    22.0835
H    22.2168    45.7051    23.8137
H    21.5736    43.3835    24.1418
H    20.178    45.2196    25.0161
H    19.2959    45.3073    23.4716
H    19.1544    43.8581    24.4968
H    20.0794    43.7546    21.5479
H    21.4519    42.6581    21.8393
H    19.901    42.3835    22.6702
H    22.9569    45.5583    20.0753
H    25.1819    47.5048    19.9675
H    22.8705    46.9537    18.1083
H    24.5801    46.3027    17.9862
H    24.198    48.2591    15.9696
H    24.9356    49.7371    20.2217
H    22.4789    50.5431    21.5797
H    23.5939    52.7872    21.8124
H    25.7762    52.9339    20.9845
H    24.0833    51.0329    23.4537
H    25.4137    50.4372    22.431
H    25.5146    52.0538    23.1708
H    23.4038    50.4087    18.3397
H    22.5047    52.9142    17.3635
H    22.0957    50.4806    15.6538
H    23.796    50.8827    16.2384
H    23.8502    52.8433    15.0044
H    24.12    50.8306    13.6026
H    22.3651    50.7875    13.3034
H    23.3446    52.13    12.6638
H    20.9079    52.5771    14.4345
H    21.6916    53.7551    15.5158
H    21.9967    53.8157    13.7624
H    20.658    53.875    17.127
H    18.1646    52.2273    17.1318
H    18.641    55.1549    17.7979
H    16.5254    54.944    16.5435
H    15.9936    53.6372    17.63
H    16.2003    55.29    18.2598
H    17.6683    52.8171    19.475
H    19.2655    53.5981    19.5769
H    17.8    54.5067    20.0218
H    17.5708    51.8464    15.0324
H    17.5053    54.1961    13.1815
H    19.5575    52.9648    12.6463
H    18.6229    51.458    12.4816
H    18.3618    52.7973    11.3374
H    15.3406    54.4763    12.9641
H    13.5198    52.2381    13.0031
H    11.9062    54.1914    12.0423
H    13.2999    55.1976    12.7178
H    11.8456    53.1619    14.3407
H    11.2464    54.8957    14.1475
H    13.858    56.5044    14.0775
H    12.4217    56.9523    15.0302
H    14.0253    56.9098    15.8034
H    12.3153    51.2387    11.5046
H    13.2736    51.1186    8.8194
H    11.0772    49.9963    8.3926
H    10.7745    50.249    10.2144
H    12.7    48.4392    8.8016
H    13.9549    49.5953    10.4951
H    12.703    49.2259    11.7064
H    13.6506    47.9076    10.9748
H    10.5732    48.0257    10.9246
H    10.4509    47.5785    9.2053
H    11.6315    46.7588    10.2566
