164

N    52.006    13.181    -12.583
C    51.18    12.029    -12.144
C    51.703    11.357    -10.871
O    52.905    11.013    -10.773
C    51.235    11.067    -13.339
C    52.623    11.344    -13.964
C    52.877    12.86    -13.739
N    50.792    11.185    -9.916
C    51.11    10.69    -8.567
C    50.338    9.373    -8.374
O    49.369    9.283    -7.592
C    50.699    11.737    -7.516
C    51.325    13.144    -7.706
C    50.884    14.176    -6.643
C    51.754    15.42    -6.674
N    50.962    16.672    -6.456
N    50.739    8.381    -9.159
C    49.949    7.19    -9.366
C    50.521    6.059    -8.535
O    51.651    6.13    -8.115
C    49.936    6.804    -10.847
C    49.369    7.732    -11.941
C    49.391    7.047    -13.295
C    47.969    8.244    -11.636
N    49.727    5.026    -8.271
C    50.235    3.817    -7.625
C    51.145    3.013    -8.584
O    51.005    3.137    -9.788
C    49.053    2.948    -7.196
C    48.461    3.317    -5.862
C    46.938    3.162    -5.863
O    46.359    2.8    -4.824
O    46.341    3.41    -6.916
N    52.026    2.133    -8.052
C    53.021    1.485    -8.914
C    52.443    0.664    -10.067
O    52.988    0.704    -11.167
C    53.779    0.601    -7.959
C    53.557    1.186    -6.594
C    52.176    1.741    -6.639
N    51.318    -0.028    -9.847
C    50.72    -0.891    -10.889
C    50.035    -0.109    -12.01
O    49.643    -0.689    -13.032
C    49.746    -1.88    -10.267
C    48.76    -1.254    -9.293
C    48.909    -1.165    -7.954
C    47.463    -0.685    -9.598
N    47.813    -0.553    -7.394
C    46.903    -0.255    -8.376
C    46.724    -0.504    -10.783
C    45.625    0.382    -8.288
C    45.399    0.134    -10.7
C    44.886    0.539    -9.459
N    49.901    1.215    -11.833
C    49.348    2.051    -12.886
C    50.271    2.147    -14.103
O    51.486    2.066    -13.97
C    49.064    3.471    -12.362
C    47.82    3.614    -11.502
C    46.548    3.234    -12.252
C    45.329    3.49    -11.382
N    45.03    4.913    -11.137
N    49.683    2.387    -15.274
C    50.468    2.605    -16.486
C    51.249    3.95    -16.477
O    50.631    5.037    -16.344
C    49.568    2.487    -17.726
C    50.321    2.187    -18.983
N    51.02    3.151    -19.682
C    50.51    1.02    -19.652
C    51.61    2.592    -20.723
N    51.313    1.301    -20.733
N    52.602    3.887    -16.623
C    53.451    5.105    -16.714
C    53.023    6.139    -17.787
O    51.9415    6.006    -18.4197
C    54.858    4.555    -17.035
C    54.659    3.115    -17.433
C    53.421    2.66    -16.683
O    53.7672    7.1263    -18.0299
H    52.5879    13.4714    -11.8129
H    51.3916    13.9365    -12.8434
H    50.1456    12.3572    -11.9644
H    50.4304    11.2853    -14.0566
H    51.1557    10.0217    -13.0059
H    52.6156    11.1097    -15.0387
H    53.3978    10.7448    -13.4634
H    53.9339    13.052    -13.502
H    52.5879    13.4442    -14.6251
H    49.8393    11.4041    -10.1266
H    52.1903    10.5006    -8.4825
H    50.9989    11.3619    -6.5264
H    49.6048    11.8437    -7.5516
H    51.0331    13.5217    -8.697
H    52.4195    13.0451    -7.6591
H    50.9564    13.715    -5.6469
H    49.8409    14.4655    -6.8382
H    52.2496    15.481    -7.6541
H    52.5142    15.34    -5.883
H    51.5786    17.4689    -6.4847
H    50.5084    16.6304    -5.5568
H    50.2659    16.7596    -7.1798
H    51.6205    8.4612    -9.6242
H    48.9161    7.3858    -9.0423
H    49.3625    5.8677    -10.9135
H    50.9837    6.6126    -11.1219
H    50.0315    8.6083    -11.9973
H    48.9827    7.7274    -14.0568
H    48.7796    6.1335    -13.2538
H    50.4266    6.7836    -13.5559
H    47.9653    8.7381    -10.6532
H    47.2642    7.3996    -11.6245
H    47.6654    8.9646    -12.4097
H    48.7599    5.0771    -8.5201
H    50.8176    4.1032    -6.737
H    49.395    1.9038    -7.1435
H    48.2653    3.038    -7.9585
H    48.7138    4.3634    -5.6357
H    48.8866    2.6613    -5.0881
H    53.6883    2.2481    -9.3409
H    54.8509    0.6013    -8.2058
H    53.3931    -0.4282    -8.0017
H    54.2882    1.982    -6.3898
H    53.6369    0.4076    -5.8209
H    51.4338    0.9792    -6.3585
H    52.0773    2.6116    -5.9739
H    50.8705    0.0404    -8.9553
H    51.5394    -1.4658    -11.3453
H    50.3263    -2.6432    -9.7278
H    49.175    -2.3577    -11.0768
H    49.7729    -1.526    -7.3979
H    47.6935    -0.3495    -6.3914
H    47.1225    -0.8279    -11.7376
H    45.242    0.7329    -7.3365
H    44.8181    0.2911    -11.6016
H    43.8977    0.9817    -9.4099
H    50.1843    1.6302    -10.9685
H    48.398    1.6009    -13.2099
H    48.954    4.137    -13.2305
H    49.9291    3.7903    -11.7623
H    47.7366    4.6602    -11.1726
H    47.9208    2.9598    -10.6234
H    46.5875    2.1671    -12.517
H    46.473    3.8371    -13.1689
H    45.4946    3.0032    -10.4096
H    44.456    3.0372    -11.8748
H    44.2108    4.9887    -10.5546
H    44.8615    5.3771    -12.0158
H    45.8132    5.3459    -10.6731
H    48.6847    2.4185    -15.3241
H    51.2154    1.7998    -16.5397
H    49.0326    3.4386    -17.8595
H    48.842    1.6788    -17.5537
H    50.1029    0.0463    -19.3834
H    52.2357    3.1061    -21.4511
H    51.6315    0.6187    -21.4358
H    53.4559    5.6132    -15.7385
H    55.5057    4.6206    -16.1484
H    55.3104    5.1214    -17.8624
H    55.5303    2.5105    -17.1409
H    54.5034    3.0333    -18.5189
H    52.8982    1.8616    -17.2299
H    53.6777    2.3058    -15.6737
