83

C    14.296    35.789    18.235
O    14.851    35.86    19.559
C    15.206    34.922    17.379
C    16.236    35.515    16.658
C    17.074    34.725    15.848
C    16.91    33.327    15.755
C    15.881    32.746    16.516
C    15.021    33.542    17.302
O    22.521    24.606    11.272
S    17.929    32.399    14.872
O    18.597    33.215    13.928
O    17.218    31.289    14.294
N    19.121    31.798    15.794
C    19.781    32.844    16.627
C    21.289    32.632    16.568
C    21.849    32.816    15.156
C    21.975    33.555    17.577
C    18.823    30.498    16.431
C    19.794    29.434    15.881
C    21.803    35.024    17.258
O    19.789    28.243    16.695
C    19.467    29.049    14.433
C    23.33    32.494    15.031
N    20.562    28.257    13.923
C    21.457    28.638    13.01
O    21.555    29.684    12.4
O    22.439    27.609    12.764
C    23.277    27.779    11.629
C    24.591    27.181    12.126
O    24.39    25.776    11.972
C    23.516    25.546    10.872
C    21.237    25.251    11.318
C    21.365    26.49    10.439
C    22.848    26.854    10.511
C    18.19    28.221    14.273
C    18.081    26.589    12.362
C    17.897    26.228    11.032
C    17.565    27.211    10.109
C    17.433    28.525    10.534
C    17.608    28.882    11.881
C    17.96    27.906    12.807
H    14.2324    36.7991    17.8042
H    13.2908    35.3442    18.2769
H    14.2927    36.3993    20.1067
H    16.394    36.5857    16.7194
H    17.865    35.2031    15.2816
H    15.7461    31.6706    16.4988
H    14.2099    33.0769    17.8505
H    19.4356    32.7613    17.6681
H    19.5314    33.8414    16.2359
H    21.4934    31.5936    16.8679
H    21.6964    33.8636    14.8572
H    21.2928    32.1556    14.4745
H    23.0503    33.3236    17.587
H    21.5491    33.3618    18.5726
H    17.7875    30.2048    16.2035
H    18.9489    30.5838    17.5204
H    20.8068    29.8628    15.902
H    22.3185    35.6274    18.0197
H    20.7321    35.2755    17.2541
H    22.2334    35.2372    16.2684
H    20.0544    28.4645    17.58
H    19.3642    29.9707    13.8415
H    23.6528    32.6507    13.9912
H    23.5024    31.4452    15.3143
H    23.9061    33.1532    15.697
H    20.6587    27.332    14.2905
H    23.3508    28.8269    11.3026
H    24.7686    27.4406    13.18
H    25.4378    27.5274    11.5153
H    24.0799    25.1577    10.011
H    20.9887    25.5375    12.3506
H    20.4574    24.5815    10.9256
H    20.7435    27.3098    10.8284
H    21.069    26.2653    9.4037
H    23.184    27.2527    9.5424
H    17.3339    28.7917    14.6622
H    18.2912    27.2817    14.8364
H    18.3282    25.8169    13.0816
H    18.0109    25.1959    10.7206
H    17.4106    26.9543    9.0672
H    17.1892    29.2938    9.8098
H    17.4698    29.9099    12.1963
