24

C    50.954    -16.547    -29.401
C    50.29    -17.748    -30.067
C    49.329    -17.395    -31.267
C    48.626    -18.648    -31.746
C    47.871    -19.283    -30.587
C    48.816    -19.552    -29.413
O    49.896    -15.705    -28.869
O    51.347    -18.587    -30.551
O    50.012    -16.877    -32.436
O    47.673    -18.302    -32.76
O    46.848    -18.366    -30.193
O    49.543    -18.408    -29.036
H    51.5449    -15.9862    -30.1402
H    51.6112    -16.8847    -28.5862
H    48.593    -16.656    -30.9175
H    49.364    -19.3574    -32.1485
H    47.4183    -20.2312    -30.9124
H    49.5251    -20.341    -29.704
H    48.2218    -19.8923    -28.5521
H    49.3883    -16.1986    -28.2357
H    51.9348    -18.7985    -29.8353
H    50.6289    -17.5256    -32.7543
H    48.1245    -17.9031    -33.4944
H    46.2676    -18.206    -30.9278
