40

N         11.83700        7.07400       16.72100
C         10.49700        7.16800       16.90300
N          9.66300        7.04000       15.84300
N         10.00300        7.39100       18.14300
C          8.66200        7.49000       18.34200
C          7.79400        7.35900       17.26900
C          8.32000        7.13100       16.00200
O          7.56400        7.00800       15.01600
N          6.54000        7.49500       17.74600
C          6.62900        7.70300       19.08000
N          7.92300        7.69700       19.43700
C          8.48100        7.89400       20.80000
C          8.30800        9.33700       21.24700
O          9.36400       10.17200       20.76500
C          8.29700        9.22200       22.75800
O          9.62400        9.36900       23.27700
C          7.78400        7.81300       23.04100
O          7.82500        7.10300       21.79600
C          6.35500        7.82700       23.58100
O          6.34800        7.81300       25.01100
P          5.22900        8.31800       25.78500
O          5.56700        8.39700       26.98700
O          4.90600        9.46500       25.38700
O          4.07300        7.44900       25.66400
P          4.08200        6.01600       25.90700
O          4.84500        5.72100       26.85200
O          2.92200        5.64500       26.18700
O          4.49800        5.32000       24.71400
H         12.46780        7.17130       17.51660
H         12.21450        6.90600       15.78840
H         10.05040        6.87320       14.91430
H          5.78640        7.85140       19.75540
H          9.52820        7.60260       20.71970
H          7.40590        9.80770       20.85620
H          9.22130       11.07230       21.06610
H          7.67990        9.99130       23.22210
H          9.96940       10.23000       23.03000
H          8.40370        7.33800       23.80160
H          5.83570        6.93930       23.21980
H          5.86000        8.73540       23.23750
