33

C    15.939    16.512    9.909
C    17.418    18.423    9.733
O    16.892    17.399    16.008
O    11.698    21.134    9.154
Br    19.653    17.192    14.644
Br    13.994    17.772    15.343
Br    14.217    22.785    9.569
Br    10.832    18.199    9.184
C    17.721    17.575    12.434
C    15.334    17.814    12.75
C    15.103    20.078    9.987
C    13.716    18.114    9.838
C    16.771    17.513    14.649
C    12.769    20.307    9.453
C    17.894    17.449    13.823
C    15.504    17.694    14.125
C    14.011    20.869    9.68
C    12.613    18.924    9.531
C    16.435    17.766    11.896
C    14.969    18.7    10.075
C    16.194    17.885    10.411
H    16.8071    15.885    10.1125
H    15.0649    16.099    10.4124
H    15.7584    16.547    8.8346
H    17.6533    19.4071    10.1382
H    18.2552    17.7471    9.9075
H    17.2324    18.5045    8.662
H    17.455    18.103    16.3382
H    10.9102    20.601    9.0239
H    18.5853    17.5246    11.7718
H    14.3338    17.9464    12.3374
H    16.0748    20.54    10.1609
H    13.6003    17.0315    9.8924
