81

P    24.222    2.167    20.842
O    24.717    3.55    20.431
O    25.328    1.195    21.2
O    23.219    2.196    22.101
P    23.318    3.153    23.397
O    24.684    3.738    23.58
O    22.739    2.383    24.533
O    22.309    4.291    22.925
P    22.075    5.799    23.379
O    21.458    6.508    22.213
O    23.329    6.545    23.778
O    21.01    5.579    24.486
P    20.256    6.642    25.443
O    20.668    8.084    25.209
O    20.381    6.074    26.829
O    18.751    6.524    24.884
P    17.647    5.444    25.352
O    18.303    4.107    25.552
O    16.452    5.516    24.404
O    23.261    1.636    19.673
C    22.501    0.439    19.839
C    22.165    -0.118    18.477
O    21.514    0.885    17.685
C    23.374    -0.498    17.627
O    23.764    -1.818    17.917
C    22.893    -0.278    16.222
O    22.132    -1.382    15.8
C    21.937    0.909    16.377
N    22.587    2.231    16.146
C    22.887    3.197    17.111
N    23.451    4.258    16.471
C    23.497    3.993    15.144
C    23.916    4.71    14.045
N    24.315    5.981    14.142
N    23.806    4.14    12.8
C    23.264    2.878    12.615
N    22.837    2.176    13.722
C    22.928    2.725    14.949
O    17.199    5.976    26.82
C    16.596    7.252    26.951
C    15.627    7.105    28.112
O    16.338    7.008    29.357
C    14.727    8.327    28.322
O    13.425    7.993    27.84
C    14.769    8.59    29.836
O    13.485    8.786    30.417
C    15.404    7.324    30.357
N    16.061    7.488    31.662
C    17.07    8.372    31.933
N    17.364    8.243    33.253
C    16.551    7.286    33.801
C    16.437    6.756    35.092
N    17.133    7.205    36.149
N    15.462    5.813    35.269
C    14.687    5.295    34.257
N    14.769    5.849    32.996
C    15.723    6.805    32.785
H    21.5731    0.6632    20.3856
H    23.0907    -0.2977    20.4042
H    21.5133    -0.9941    18.61
H    24.2227    0.1697    17.8367
H    24.5166    -2.0488    17.3851
H    23.719    -0.0717    15.5255
H    22.6689    -2.1652    15.8295
H    21.0883    0.7934    15.6869
H    22.7028    3.1155    18.1812
H    24.6226    6.4898    13.3009
H    24.3151    6.4523    15.0579
H    23.1777    2.4523    11.6218
H    16.0592    7.5235    26.0301
H    17.3537    8.0179    27.1731
H    15.0125    6.2082    27.9443
H    15.1082    9.2024    27.7758
H    12.8445    8.7357    27.9585
H    15.3953    9.4668    30.057
H    13.0656    9.5351    30.0103
H    14.6473    6.5305    30.4448
H    17.5462    9.0494    31.2257
H    17.0024    6.7706    37.0738
H    17.7974    7.9838    36.035
H    14.0202    4.4619    34.448
