28

C    -0.329    -11.536    -2.825
C    -1.499    -11.533    -3.563
C    -2.65    -12.077    -3.034
C    -2.718    -12.571    -1.745
C    -1.536    -12.553    -1.013
C    -0.358    -12.057    -1.544
O    -1.529    -13.003    0.309
O    -3.781    -12.046    -3.828
N    -1.574    -10.967    -4.87
C    -1.413    -9.601    -5.141
C    -1.455    -9.451    -6.502
N    -1.638    -10.703    -7.082
C    -1.735    -11.648    -6.054
C    -1.273    -8.532    -4.297
C    -1.168    -7.295    -4.894
C    -1.197    -7.143    -6.269
C    -1.343    -8.223    -7.114
O    -1.886    -12.853    -6.164
H    0.5898    -11.139    -3.2412
H    -3.6429    -12.9519    -1.3273
H    0.5493    -12.077    -0.9511
H    -2.3962    -13.3139    0.5411
H    -4.1127    -12.9292    -3.9393
H    -1.6909    -10.894    -8.0622
H    -1.2463    -8.6523    -3.22
H    -1.0596    -6.416    -4.269
H    -1.1026    -6.1497    -6.6928
H    -1.368    -8.112    -8.192
