15

H    16.4907    11.7242    39.5247
H    15.6202    9.3675    39.6357
H    12.6285    10.6332    42.4485
H    13.4615    12.9619    42.3229
C    15.649    13.899    40.931
O    16.581    14.247    40.237
O    15.156    14.784    41.634
C    15.067    12.48    40.964
C    15.654    11.482    40.17
C    15.151    10.156    40.213
C    14.038    9.887    41.015
C    13.461    10.876    41.798
C    13.948    12.18    41.751
O    13.583    8.64    41.04
H    12.8304    8.5902    41.6175
