56

N    18.376    5.887    -0.39
N    19.702    6.358    -0.459
C    17.645    5.614    -1.477
C    20.347    6.585    -1.708
C    19.661    6.331    -2.888
C    18.264    5.823    -2.813
C    15.563    5.103    -0.303
N    16.37    5.148    -1.399
C    15.901    5.296    0.965
N    13.753    4.859    0.897
N    14.254    4.821    -0.42
N    20.132    6.476    -6.466
C    20.207    6.52    -4.042
C    19.518    6.265    -5.193
C    14.793    5.151    1.697
C    17.618    5.579    -3.9
N    20.707    8.174    -8.713
O    21.529    7.012    -1.749
C    20.424    6.63    0.79
C    18.235    5.795    -5.122
C    21.117    7.576    -6.393
C    19.107    6.775    -7.491
C    19.737    7.078    -8.85
C    21.76    7.794    -7.76
C    21.329    8.462    -10.017
C    14.914    5.324    3.188
C    19.818    7.847    1.479
C    20.407    5.41    1.705
H    15.9659    4.7854    -2.2743
H    16.8966    5.5293    1.3396
H    13.7307    4.6207    -1.2842
H    21.2258    6.8859    -4.0983
H    16.6003    5.2078    -3.8595
H    20.2322    8.9978    -8.3783
H    21.4715    6.8577    0.5434
H    17.6919    5.5881    -6.0371
H    21.8966    7.3187    -5.6609
H    20.6089    8.4994    -6.0783
H    18.5227    7.6486    -7.1664
H    18.4408    5.9056    -7.593
H    20.2505    6.1797    -9.2234
H    18.9503    7.3725    -9.5602
H    22.509    8.5969    -7.6944
H    22.246    6.8655    -8.0942
H    20.5503    8.7479    -10.7395
H    21.8537    7.5655    -10.379
H    22.0473    9.2877    -9.9063
H    13.9291    5.1768    3.6553
H    15.2778    6.3378    3.4112
H    15.6233    4.5838    3.5867
H    20.3616    8.0474    2.4141
H    18.7594    7.6512    1.705
H    19.8957    8.7207    0.8153
H    20.9533    5.6392    2.6318
H    20.8889    4.5627    1.1954
H    19.3666    5.1482    1.9479
