38

C         80.79400       10.79000       -8.15100
N         81.50500       11.81300       -8.68700
C         82.83500       11.65000       -8.88600
C         83.44800       10.45500       -8.55500
C         82.76100        9.45500       -8.02300
C         81.40900        9.58100       -7.81400
C         83.71700        8.38200       -7.80900
C         84.92700        8.88100       -8.22800
O         84.76600       10.16800       -8.69700
C         86.32300        8.34500       -8.27800
O         87.29300        8.96100       -8.71500
O         86.38900        7.06900       -7.75400
C         87.69900        6.49100       -7.75400
N         83.52800        7.14100       -7.28900
C         82.34800        6.41000       -7.02300
C         82.25300        5.67100       -5.88100
C         81.10500        4.96200       -5.63700
C         80.07500        5.01800       -6.51900
C         80.15600        5.71000       -7.61700
C         81.27800        6.43300       -7.90800
C         78.92100        5.62600       -8.44900
C         78.01800        4.69500       -7.62800
C         78.85600        4.35400       -6.41900
N         78.53400        3.59800       -5.41400
O         77.24400        3.07700       -5.57900
H         79.72450       10.91280       -7.98010
H         83.42440       12.46370       -9.30860
H         80.82990        8.75790       -7.39540
H         88.06880        6.43220       -8.77770
H         88.36880        7.11230       -7.15950
H         87.65310        5.49010       -7.32490
H         84.38940        6.65060       -7.04820
H         83.07950        5.64420       -5.17080
H         81.01980        4.35440       -4.73610
H         81.33280        7.02110       -8.82410
H         77.02560        2.52200       -4.82670
H         78.72252        6.08146       -9.35354
H         77.06185        4.37660       -7.85030
