48

N    -14.223    35.83    -6.182
C    -14.457    37.155    -6.218
C    -15.231    37.719    -7.229
C    -15.766    36.887    -8.203
C    -15.504    35.52    -8.133
C    -14.721    35.019    -7.099
C    -13.894    37.957    -5.233
N    -13.132    37.554    -4.23
N    -12.795    38.526    -3.549
C    -13.303    39.628    -4.072
O    -14.031    39.315    -5.167
C    -13.086    41.018    -3.504
C    -14.272    41.925    -3.884
O    -11.873    41.51    -4.095
C    -14.151    43.333    -3.262
C    -15.337    44.235    -3.656
C    -15.338    44.496    -5.156
C    -16.527    45.326    -5.658
C    -16.306    45.509    -7.16
C    -17.428    46.192    -7.938
C    -17.153    46.707    -9.208
C    -18.165    47.294    -9.961
C    -19.46    47.339    -9.448
C    -19.739    46.803    -8.188
C    -18.727    46.216    -7.434
H    -15.4133    38.7933    -7.2551
H    -16.379    37.2949    -9.0067
H    -15.9115    34.8458    -8.8863
H    -14.5165    33.9498    -7.0443
H    -13.0141    41.0021    -2.4165
H    -15.1855    41.4649    -3.5073
H    -14.283    42.0328    -4.9686
H    -11.1434    40.9361    -3.8502
H    -13.2335    43.7927    -3.6293
H    -14.1444    43.2294    -2.177
H    -15.2457    45.1866    -3.1324
H    -16.2664    43.7344    -3.3844
H    -15.3968    43.5252    -5.6482
H    -14.4354    45.064    -5.3811
H    -16.5829    46.2868    -5.1464
H    -17.4733    44.8243    -5.4556
H    -16.2193    44.5052    -7.5759
H    -15.4341    46.1556    -7.2593
H    -16.1416    46.6485    -9.6101
H    -17.9471    47.7146    -10.9427
H    -20.2593    47.7946    -10.0325
H    -20.7543    46.8448    -7.7937
H    -18.9481    45.7798    -6.4599
