45

P         -5.12500       -3.09100       -0.97800
O         -4.16500       -2.83700        0.16600
O         -6.54400       -3.28100       -0.50900
O         -4.53600       -4.23600       -1.76100
N         -5.15000       -1.86400       -2.00100
P         -3.88000       -1.11300       -2.62100
O         -3.31100       -0.16300       -1.63900
O         -2.93700       -2.10200       -3.15500
O         -4.40500       -0.23000       -3.75100
P         -4.41300       -0.51200       -5.25500
O         -4.93900       -1.87400       -5.46500
O         -3.12600       -0.15700       -5.86900
O         -5.45100        0.49200       -5.85100
C         -6.75500        0.54600       -5.31900
C         -7.69600        1.12000       -6.36000
O         -7.41600        2.53900       -6.52100
C         -7.54100        0.48700       -7.73300
O         -8.83700        0.19000       -8.25000
C         -6.74800        1.52500       -8.54800
O         -7.09400        1.61800       -9.92300
C         -7.07800        2.84700       -7.85800
N         -5.97700        3.81200       -7.85000
C         -4.71500        3.63300       -7.34700
N         -3.95200        4.67700       -7.48900
C         -4.75200        5.60800       -8.12800
C         -4.46700        6.93100       -8.54200
O         -3.41800        7.56700       -8.42400
N         -5.55300        7.52400       -9.16000
C         -6.76700        6.91300       -9.35200
N         -7.70600        7.63800       -9.97100
N         -7.05000        5.68000       -8.96300
C         -6.00000        5.08600       -8.36000
H         -6.06820       -1.52500       -2.28800
H         -6.76170        1.17910       -4.43170
H         -7.08030       -0.45800       -5.04640
H         -8.70510        0.92150       -5.99890
H         -7.00750       -0.46340       -7.74550
H         -8.74990       -0.21070       -9.11800
H         -5.69410        1.24730       -8.56250
H         -8.01960        1.85990      -10.00330
H         -7.88830        3.31880       -8.41370
H         -4.38350        2.70810       -6.87500
H         -5.44430        8.48090       -9.49610
H         -7.49920        8.59050      -10.27160
H         -8.62860        7.23810      -10.14220
