45

N    10.692    -27.161    -24.535
C    11.036    -26.904    -25.843
O    10.26    -27.139    -26.748
N    12.236    -26.421    -26.089
C    13.095    -26.112    -25.148
N    14.27    -25.592    -25.471
C    12.764    -26.361    -23.851
C    11.531    -26.887    -23.587
C    9.386    -27.705    -24.208
C    9.483    -28.954    -23.394
O    9.541    -30.019    -24.276
C    8.198    -28.962    -22.681
O    7.384    -29.582    -23.631
C    6.479    -27.604    -19.473
O    5.547    -27.15    -20.029
C    6.372    -28.051    -18.108
N    5.049    -28.19    -17.469
C    5.336    -28.561    -16.254
N    6.662    -28.744    -16.002
C    7.307    -28.397    -17.147
S    3.981    -28.786    -15.37
C    2.9    -28.273    -16.647
C    3.697    -27.98    -17.781
C    7.833    -27.489    -22.557
O    8.78    -26.811    -23.334
C    7.907    -26.834    -21.202
N    7.644    -27.666    -20.062
H    12.5058    -26.2829    -27.0419
H    14.9459    -25.3487    -24.7329
H    14.5075    -25.431    -26.4602
H    13.464    -26.1464    -23.0448
H    11.2465    -27.0807    -22.5538
H    8.7945    -27.8663    -25.1213
H    10.3431    -28.9536    -22.7083
H    8.7555    -30.0295    -24.8102
H    8.2121    -29.4801    -21.7108
H    7.723    -30.4492    -23.8193
H    7.0879    -29.0766    -15.1251
H    8.387    -28.3919    -17.2864
H    1.8158    -28.1937    -16.582
H    3.319    -27.6439    -18.7454
H    6.8172    -27.3493    -22.9552
H    7.1752    -26.0128    -21.1897
H    8.9209    -26.4234    -21.0865
H    8.3478    -28.2891    -19.7207
