39

P    -41.018    -3.787    62.331
O    -42.049    -2.749    62.678
O    -39.755    -3.205    61.72
O    -40.757    -4.826    63.391
P    -41.14    -6.011    60.547
O    -40.403    -5.642    59.278
O    -40.347    -6.799    61.559
O    -41.754    -4.652    61.182
O    -42.483    -6.857    60.218
C    -43.426    -7.168    61.239
C    -43.827    -8.64    61.229
O    -44.471    -8.977    60.009
C    -42.66    -9.6    61.369
O    -42.463    -9.952    62.748
C    -43.098    -10.803    60.561
O    -43.872    -11.701    61.355
C    -44.034    -10.237    59.515
N    -43.204    -10.041    58.304
C    -42.376    -8.994    58.107
N    -41.722    -9.095    56.92
C    -42.139    -10.238    56.335
C    -41.848    -10.932    55.063
N    -40.956    -10.399    54.194
N    -42.479    -12.108    54.827
C    -43.35    -12.622    55.713
N    -43.679    -12.038    56.887
C    -43.11    -10.865    57.253
H    -44.322    -6.5725    61.0641
H    -42.9652    -6.9499    62.2024
H    -44.4837    -8.7478    62.0923
H    -41.7136    -9.1818    61.0261
H    -42.2785    -9.1588    63.2564
H    -42.2342    -11.3374    60.1655
H    -43.3454    -12.0047    62.0979
H    -44.8928    -10.8719    59.2973
H    -42.2479    -8.1715    58.8107
H    -40.4874    -9.5212    54.4184
H    -40.7529    -10.8754    53.3153
H    -43.8225    -13.5733    55.4683
