32

N        -65.32600      -82.00100      -86.06000
C        -66.32800      -81.16000      -86.41000
N        -66.73900      -81.08900      -87.68400
C        -66.84900      -80.40500      -85.35100
C        -67.86900      -79.45700      -85.45300
C        -68.39400      -78.63200      -84.30900
C        -69.78900      -78.47800      -84.07800
N        -70.22500      -77.70000      -83.01300
C        -69.35100      -77.05500      -82.14700
C        -67.95900      -77.17200      -82.33700
C        -67.48700      -77.96400      -83.42600
O        -68.44800      -79.21600      -86.64800
S        -66.03400      -80.81000      -83.87600
C        -65.05900      -81.92500      -84.75100
N        -64.08400      -82.68500      -84.19700
C        -63.77400      -82.56900      -82.77600
C        -62.41000      -81.97600      -82.58000
C        -62.19500      -80.53100      -82.53100
H        -67.50160      -80.44740      -87.94410
H        -66.29220      -81.67610      -88.40280
H        -70.50690      -78.96440      -84.72850
H        -69.73880      -76.46250      -81.32630
H        -67.26400      -76.67230      -81.67180
H        -66.41960      -78.06180      -83.58790
H        -63.55800      -83.34910      -84.78280
H        -63.80320      -83.56810      -82.31680
H        -64.52200      -81.92210      -82.29440
H        -61.78870      -82.35220      -83.40610
H        -62.03400      -82.37600      -81.62680
H        -61.12510      -80.32440      -82.38070
H        -62.77170      -80.10250      -81.69800
H        -62.52630      -80.07870      -83.47730
