38

C         94.69700       77.11500      -45.92800
N         91.58800       81.76700      -51.02100
S         91.99900       80.72500      -48.69700
C         94.64900       78.60400      -45.98500
N         93.17300       80.59600      -52.36600
C         94.40700       79.26000      -47.26100
N         90.14700       82.68000      -49.34300
O         94.64700       78.71500      -50.91200
C         94.25900       76.98400      -48.41300
C         94.50100       76.31000      -47.15600
O         94.83100       79.42900      -44.83900
C         95.06200       79.00200      -43.59000
C         94.20600       78.45800      -48.50100
C         93.95600       79.10400      -49.83300
C         92.91900       80.18500      -49.99800
C         92.58400       80.84600      -51.17200
C         91.16600       81.81300      -49.73600
C         89.38700       82.66700      -48.15800
C         89.53800       81.64800      -47.03200
C         88.72900       81.70500      -45.84500
C         87.73600       82.77100      -45.71100
C         87.56800       83.77100      -46.79200
C         88.37300       83.72000      -47.98700
H         94.87650       76.61800      -44.98150
H         93.92150       79.89160      -52.43360
H         92.87240       81.11030      -53.20630
H         94.37260       80.34230      -47.31020
H         89.91960       83.43140      -50.00980
H         94.11320       76.39420      -49.31080
H         94.53850       75.22750      -47.11320
H         95.15920       79.86790      -42.91860
H         95.99240       78.41560      -43.56910
H         94.22400       78.37210      -43.25690
H         90.27550       80.85960      -47.12990
H         88.85310       80.96800      -45.05980
H         87.12200       82.82960      -44.81950
H         86.82690       84.55440      -46.68220
H         88.23050       84.46190      -48.76440
