47

N    23.421    -29.478    10.42
C    23.434    -28.488    11.339
N    23.31    -28.75    12.649
C    23.185    -30.006    13.072
C    23.147    -31.045    12.151
C    23.287    -30.744    10.797
O    22.464    -36.547    15.342
O    22.086    -37.214    13.268
F    24.116    -31.123    20.289
F    22.009    -30.95    20.696
F    22.714    -32.258    19.128
C    22.594    -27.556    18.409
C    22.777    -27.761    17.049
C    22.658    -28.643    19.269
C    22.8    -34.725    12.202
C    22.968    -33.433    11.721
C    22.973    -30.13    17.4
C    22.708    -33.87    14.448
C    23.5    -24.762    11.531
C    24.834    -25.307    12.063
N    22.885    -31.52    14.849
N    22.985    -29.154    15.196
N    23.58    -27.216    10.98
C    22.486    -36.365    14.101
C    22.877    -29.044    16.527
C    22.708    -34.95    13.574
C    22.843    -29.925    18.771
C    23.093    -30.247    14.432
C    22.874    -32.568    13.978
C    22.996    -32.352    12.609
C    23.598    -26.197    12.04
C    22.914    -31.103    19.747
H    23.2865    -31.5371    10.058
H    22.4037    -26.5608    18.7942
H    22.8429    -26.9073    16.3843
H    22.5628    -28.4896    20.3379
H    22.7405    -35.5577    11.5106
H    23.0776    -33.2618    10.6562
H    23.1478    -31.1271    17.0123
H    22.5771    -34.0421    15.5102
H    23.3744    -24.5662    10.4559
H    22.9428    -24.0096    12.1083
H    25.2336    -24.9446    13.0216
H    25.6652    -25.5013    11.3692
H    22.9849    -28.261    14.6828
H    23.6776    -26.9524    9.9891
H    23.0996    -26.5352    12.9605
