93

C         24.58800       18.11500        4.48300
N         23.56800       16.04900        5.53800
O         23.74800       18.83000        4.91800
C         24.43500       16.60000        4.51100
C         23.78800       15.99600        3.20800
C         31.69200       13.46700        5.94100
O         26.68400       21.53900        8.28200
O         28.43300       14.86600        3.04100
O         24.53800       16.08300        9.64500
O         19.88900       15.59600        9.23800
O         23.73500       13.72700        7.89800
O         25.04700       17.72700        7.61500
O         22.15200       16.07800        7.80700
O         25.94700       14.84300        6.78700
C         25.79000       19.05800       11.53500
C         18.78000       14.91700        5.74600
C         25.96000       10.76900        7.56000
C         25.26500       17.74600       11.28200
C         18.74500       15.04300        7.16400
C         24.81300       11.55200        7.91600
C         26.06600       19.96000       10.44300
C         19.95300       15.19900        5.03100
C         27.07400       11.36800        6.91800
C         26.38500       21.00300        4.46900
C         27.99800       18.49300        2.65400
C         25.55000       21.34300        5.71500
C         29.16100       17.54500        2.27900
C         25.69900       20.10300        3.43900
C         26.71700       17.78700        3.13000
N         25.47400       20.31900        6.75400
N         29.64900       16.82900        3.45600
N         28.45300       14.75200        6.04100
O         29.33200       12.60800        5.68900
C         26.07900       20.55300        8.04500
C         29.18100       15.47200        3.75300
C         22.25400       16.06100        4.95000
C         25.02000       17.34000        9.93800
C         19.89300       15.46100        7.86200
C         24.82000       12.91300        7.62000
C         25.27300       18.19100        8.90200
C         21.00200       15.72700        7.16900
C         25.89800       13.48500        7.00000
C         25.82200       19.55700        9.17000
C         21.04500       15.57000        5.70700
C         27.07900       12.68700        6.65600
C         30.38100       13.53900        5.17800
C         28.17300       13.36000        5.87700
C         29.58400       14.93600        5.12100
N         25.70800       18.66600        3.72900
O         22.33900       15.88100        3.55300
C         24.46900       14.80800        2.54700
H         23.59160       16.62080        6.36780
H         23.84510       15.10810        5.77030
H         25.44650       16.18800        4.64160
H         23.85610       16.78320        2.44270
H         32.40890       14.17890        5.50600
H         32.10030       12.44780        5.87310
H         31.51650       13.72220        6.99650
H         23.69530       15.96200       10.06660
H         20.74580       15.88520        9.52920
H         23.92940       14.61600        7.62530
H         25.59380       16.96720        7.45290
H         22.41530       15.37680        8.39140
H         26.76010       15.06450        6.34850
H         25.98060       19.37360       12.55440
H         17.89060       14.59980        5.21370
H         25.97610        9.70850        7.78370
H         25.05710       17.07120       12.10450
H         17.83380       14.81680        7.70580
H         23.95980       11.09520        8.40440
H         26.46410       20.94930       10.63730
H         19.97380       15.11770        3.95030
H         27.92580       10.75930        6.63710
H         27.30190       20.49610        4.80400
H         26.64930       21.94730        3.97060
H         27.74780       19.09460        1.76770
H         28.34350       19.15550        3.46130
H         24.52380       21.55520        5.38070
H         25.98200       22.24700        6.16910
H         29.98360       18.13600        1.85000
H         28.80640       16.81620        1.53530
H         26.20270       20.25380        2.47280
H         24.64960       20.42290        3.35930
H         27.00140       17.03420        3.87990
H         26.26130       17.28670        2.26280
H         25.00310       19.45580        6.57170
H         30.30890       17.26930        4.06490
H         22.03660       17.13840        4.99430
H         30.63000       13.25610        4.14460
H         30.24660       15.70260        5.54910
H         23.89820       14.50720        1.65610
H         24.51110       13.96820        3.25620
H         25.49030       15.08910        2.25040
