73

C    -13.277    -6.316    42.757
O    -12.634    -7.022    43.537
C    -13.829    -4.98    43.188
N    -13.705    -6.772    41.58
C    -13.018    -7.855    40.873
C    -12.423    -7.429    39.522
O    -12.872    -6.458    38.915
C    -13.93    -9.096    40.67
C    -14.522    -9.57    42.026
C    -15.014    -8.838    39.626
N    -11.434    -8.2    39.068
C    -10.745    -7.963    37.797
C    -11.442    -8.603    36.589
O    -11.784    -9.787    36.623
C    -9.29    -8.388    37.947
C    -8.523    -7.438    38.824
O    -8.821    -6.235    38.689
O    -7.64    -7.843    39.634
N    -11.688    -7.825    35.543
C    -12.298    -8.343    34.296
C    -11.56    -7.839    33.052
O    -10.753    -6.909    33.141
C    -13.823    -7.996    34.162
C    -14.636    -8.488    35.387
C    -14.058    -6.496    33.883
N    -11.857    -8.441    31.901
C    -11.207    -8.114    30.61
C    -11.83    -6.955    29.818
O    -13.045    -6.919    29.621
C    -11.17    -9.359    29.711
N    -10.984    -6.052    29.313
C    -11.413    -5.008    28.372
C    -11.608    -5.514    26.943
O    -11.4983    -4.7492    25.9477
C    -10.438    -3.824    28.384
C    -10.966    -2.657    29.198
O    -10.144    -1.815    29.612
O    -12.206    -2.615    29.42
H    -14.515    -5.1239    44.0227
H    -13.0089    -4.3323    43.4977
H    -14.3606    -4.5218    42.354
H    -14.5352    -6.3545    41.1594
H    -12.1886    -8.1251    41.5266
H    -13.3142    -9.906    40.2792
H    -15.1928    -8.8043    42.4156
H    -15.0752    -10.497    41.8753
H    -13.7118    -9.7401    42.7351
H    -15.5727    -9.7571    39.4494
H    -15.6903    -8.0644    39.9898
H    -14.5501    -8.5089    38.6961
H    -11.1422    -8.996    39.6351
H    -10.7832    -6.8966    37.5747
H    -8.8292    -8.3927    36.9592
H    -9.2657    -9.3762    38.4063
H    -11.4487    -6.8351    35.5992
H    -12.204    -9.4268    34.3634
H    -14.1923    -8.5387    33.2918
H    -14.5374    -9.5699    35.4762
H    -14.2543    -8.0115    36.2899
H    -15.6859    -8.2274    35.2531
H    -13.647    -5.9066    34.7026
H    -13.5643    -6.2193    32.9515
H    -15.1281    -6.3067    33.7987
H    -12.5723    -9.1681    31.9089
H    -10.2087    -7.7775    30.8897
H    -10.6054    -10.1479    30.2081
H    -12.1879    -9.7012    29.5244
H    -10.6905    -9.1082    28.7648
H    -10.0034    -6.0889    29.5913
H    -12.391    -4.6784    28.7226
O    -11.8859    -6.7286    26.7553
H    -10.3002    -3.4869    27.3566
H    -9.5037    -4.1579    28.8353
