112

O    -21.246    -30.919    -21.398
P    -21.171    -29.589    -20.673
O    -20.131    -29.576    -19.571
O    -21.064    -28.415    -21.627
O    -22.603    -29.373    -19.924
C    -23.794    -29.552    -20.705
C    -25.084    -28.721    -20.43
N    -25.434    -28.315    -19.05
C    -25.813    -29.043    -17.994
C    -26.158    -28.273    -16.732
C    -27.488    -28.701    -16.102
O    -28.433    -29.052    -17.121
C    -28.036    -27.533    -15.283
C    -29.323    -27.863    -14.529
C    -30.376    -26.788    -14.79
C    -30.729    -25.966    -13.544
C    -29.532    -25.191    -12.978
C    -29.461    -23.761    -13.52
C    -28.511    -23.691    -14.722
C    -28.268    -22.251    -15.165
C    -27.748    -22.188    -16.598
C    -26.328    -21.637    -16.649
C    -25.789    -21.625    -18.062
O    -25.862    -30.256    -17.997
C    -26.361    -29.449    -20.916
C    -26.184    -30.557    -21.977
C    -24.825    -31.253    -22.011
O    -24.096    -30.94    -20.816
C    -24.047    -30.955    -23.305
O    -23.877    -29.738    -24.053
O    -27.19    -31.555    -21.776
O    -27.327    -28.463    -21.329
C    -27.664    -28.425    -22.753
O    -26.912    -27.843    -23.524
C    -28.924    -29.096    -23.266
C    -30.106    -28.134    -23.311
O    -30.296    -27.524    -22.031
C    -31.36    -28.907    -23.702
C    -31.507    -28.975    -25.222
C    -32.905    -29.373    -25.69
C    -34.025    -28.794    -24.831
C    -35.368    -29.402    -25.207
C    -36.332    -28.309    -25.643
C    -37.279    -28.823    -26.716
C    -37.768    -27.668    -27.577
C    -37.475    -27.916    -29.05
C    -36.529    -26.855    -29.595
C    -36.508    -26.871    -31.107
H    -23.4934    -29.2305    -21.7131
H    -24.9625    -27.7969    -21.0142
H    -25.3776    -27.3314    -18.8787
H    -26.2188    -27.2035    -16.9818
H    -25.3563    -28.4327    -15.996
H    -27.3213    -29.5679    -15.4458
H    -28.0884    -29.7716    -17.6366
H    -28.2386    -26.6947    -15.9658
H    -27.2717    -27.2331    -14.551
H    -29.1109    -27.9099    -13.4507
H    -29.7049    -28.8365    -14.8703
H    -31.2908    -27.2774    -15.1555
H    -29.9925    -26.1043    -15.5616
H    -31.1028    -26.6495    -12.7675
H    -31.5178    -25.247    -13.8103
H    -28.6067    -25.7196    -13.2507
H    -29.622    -25.1506    -11.8824
H    -29.0938    -23.0912    -12.7285
H    -30.466    -23.4419    -13.8334
H    -28.9527    -24.2518    -15.5589
H    -27.5489    -24.1455    -14.4432
H    -27.5267    -21.791    -14.4951
H    -29.2141    -21.6933    -15.1031
H    -28.4068    -21.5355    -17.1897
H    -27.7546    -23.2012    -17.0263
H    -25.6776    -22.2663    -16.0237
H    -26.3292    -20.6088    -16.2581
H    -24.7653    -21.2224    -18.0605
H    -26.4305    -20.9932    -18.6938
H    -25.779    -22.6507    -18.4594
H    -26.7751    -29.9556    -20.0318
H    -26.3379    -30.0913    -22.9616
H    -25.0116    -32.337    -22.0009
H    -24.479    -31.6535    -24.0367
H    -23.0177    -31.2623    -23.0681
H    -23.3294    -29.9072    -24.8107
H    -27.1603    -32.1812    -22.4897
H    -29.1749    -29.9358    -22.6014
H    -28.7361    -29.4753    -24.2813
H    -29.9103    -27.3516    -24.059
H    -31.0344    -26.9277    -22.0721
H    -32.2408    -28.4032    -23.2772
H    -31.293    -29.9289    -23.3006
H    -30.7892    -29.7143    -25.6069
H    -31.2714    -27.9842    -25.6377
H    -32.9804    -30.4701    -25.6662
H    -33.0401    -29.0185    -26.7225
H    -34.068    -27.7052    -24.9815
H    -33.8156    -29.01    -23.7729
H    -35.7853    -29.9293    -24.3365
H    -35.2267    -30.1137    -26.0338
H    -35.7582    -27.4607    -26.0444
H    -36.9181    -27.9767    -24.7735
H    -38.1411    -29.3107    -26.2375
H    -36.7508    -29.5509    -27.3493
H    -37.2602    -26.7449    -27.2608
H    -38.8537    -27.5542    -27.4415
H    -38.4176    -27.8849    -29.6162
H    -37.0111    -28.9068    -29.1644
H    -35.5139    -27.0512    -29.2193
H    -36.8624    -25.865    -29.2506
H    -35.8179    -26.0962    -31.4723
H    -37.5196    -26.671    -31.4899
H    -36.1711    -27.8573    -31.4586
