87

O    -0.398    33.683    -18.923
C    0.245    34.788    -19.709
C    1.279    35.66    -18.947
O    2.294    34.87    -18.456
C    2.068    36.624    -19.822
O    2.68    37.487    -18.849
C    1.23    37.382    -20.932
C    2.175    37.648    -22.1
O    1.591    37.324    -23.427
O    -0.034    36.719    -21.34
C    -0.688    35.695    -20.535
O    -1.433    34.746    -21.339
C    -2.722    35.159    -21.685
C    -3.76    34.055    -21.09
O    -5.053    34.281    -21.679
C    -4.032    34.005    -19.518
O    -5.018    33.044    -19.257
C    -2.689    35.146    -23.259
O    -1.96    36.337    -23.597
C    -4.132    35.184    -23.795
O    -4.241    35.226    -25.132
C    -5.163    34.192    -23.138
O    -6.526    34.392    -23.557
C    -7.281    33.23    -23.483
C    -8.26    33.599    -24.621
O    -9.364    32.757    -24.568
C    -7.81    33.575    -26.121
O    -6.985    32.448    -26.278
C    -8.088    33.37    -22.091
O    -7.344    33.229    -20.85
C    -9.367    32.577    -22.107
O    -10.199    32.971    -21.038
C    -10.139    32.972    -23.393
O    -11.234    32.097    -23.508
C    -12.256    32.475    -24.392
C    -12.608    31.18    -25.207
O    -11.475    30.836    -26.006
C    -13.945    31.297    -26.03
N    -15.107    31.738    -25.087
C    -14.652    33.096    -24.585
C    -13.527    32.911    -23.541
C    -13.424    34.17    -22.697
O    -12.736    35.211    -23.454
H    -1.0158    33.2096    -19.485
H    0.7927    34.1716    -20.4218
H    0.667    36.1814    -18.211
H    2.9269    35.4188    -17.9872
H    2.7868    36.1086    -20.4591
H    3.2383    36.9661    -18.2671
H    0.8605    38.3163    -20.5094
H    3.0485    37.0103    -21.964
H    2.4051    38.7134    -22.0967
H    1.3575    36.3932    -23.454
H    -1.3053    36.3126    -19.8826
H    -3.0255    36.1331    -21.3015
H    -3.2576    33.1191    -21.3345
H    -4.3694    34.9819    -19.1717
H    -3.1134    33.7414    -18.9938
H    -5.8253    33.2819    -19.7187
H    -2.2247    34.258    -23.688
H    -1.0805    36.2919    -23.2147
H    -4.4475    36.1624    -23.4328
H    -5.1693    35.2474    -25.3757
H    -4.9018    33.1919    -23.484
H    -6.7893    32.2591    -23.5434
H    -8.4147    34.6542    -24.396
H    -7.2735    34.4878    -26.3799
H    -8.6732    33.5195    -26.7843
H    -6.6859    32.3961    -27.1888
H    -8.3296    34.4325    -22.0628
H    -6.6602    33.9016    -20.81
H    -9.1291    31.515    -22.0462
H    -11.0103    32.4583    -21.0597
H    -10.4089    34.025    -23.3132
H    -11.9596    33.299    -25.0411
H    -12.8157    30.3668    -24.5115
H    -10.7201    30.6732    -25.4356
H    -14.1844    30.3286    -26.4694
H    -13.8194    32.0382    -26.8192
H    -15.2722    31.0745    -24.3301
H    -16.0074    31.7772    -25.5647
H    -15.4936    33.6128    -24.1237
H    -14.2769    33.685    -25.4219
H    -13.6867    32.1375    -22.7898
H    -12.8632    33.9522    -21.788
H    -14.4247    34.5137    -22.435
H    -13.2299    35.4023    -24.2547
