106

C         11.96700        9.23300       16.24900
N         13.17900       11.16000       16.66100
O         12.39300        9.07000       15.13300
C         11.88000       10.48000       16.78400
C         10.80700       11.32900       16.10400
C         14.05000       11.35400       17.65500
N         11.90500        4.98800       20.54000
C         13.97800        2.42600       21.87700
C         11.34100        3.21400       21.81200
C         17.50700       12.28100       17.98600
C         17.05700       10.92100       18.33900
C         16.12800       12.07900       18.40400
C          6.25800        1.87300       13.63000
C          7.53600        1.67500       14.30400
O          8.14500        3.03800       11.67500
S          7.85000        3.95800       12.72300
C         11.19300        6.05900       12.92500
O          9.99700        7.37700       14.96100
C         10.98100        6.76600       15.20200
C         10.53900       12.52300       16.91200
C         10.60700        7.95800       11.34200
C         13.61700        3.54500       21.18300
C         17.48600       10.34400       19.66600
N          9.10500        4.67600       13.21400
C         11.58900        7.34100       12.29300
C         15.80200        8.42200       19.72900
C         13.00200        1.71600       22.52700
O         12.45300        6.76100       19.22600
C          9.51600        1.21500       22.70100
O         10.79700        1.35200       23.16300
C         17.29400        8.83800       19.69600
C         15.60300        7.04200       20.26000
C         12.80100        5.68900       19.90100
C         14.13100        5.32500       19.90100
C         12.28800        3.92100       21.16300
N         14.51800        4.25500       20.56000
C         15.06100        6.06700       19.26600
C         11.68100        2.08000       22.49100
O          6.90400        4.91700       12.20600
C          6.98800        3.00600       14.14200
O          9.69000        5.42200       11.24400
C         12.25500        6.10900       11.87900
C          9.89800        5.36100       12.41600
N         11.60700        6.08400       14.30400
C         11.22600        8.76500       10.25900
O         13.73700       10.87300       18.70600
O         15.18300       12.04600       17.41100
C         10.78500        6.07600       17.50300
C         11.53300        6.82200       16.45200
N         11.50100        8.21400       16.93500
C         10.92000        8.24000       18.26400
C         11.08300        6.89100       18.76500
C          9.50700       10.64000       15.99700
C         11.27400       11.79000       14.74600
H         13.43100       11.50600       15.75720
H         11.62490       10.38340       17.84960
H         15.01310        2.10620       21.91320
H         10.30940        3.54640       21.79450
H         17.73050       12.52880       16.93790
H         18.20650       12.81470       18.64620
H         16.95930       10.13570       17.57500
H         15.73960       12.49030       19.34740
H          9.76640       13.13250       16.42050
H         11.46220       13.11260       17.01240
H         10.18730       12.21960       17.90910
H          9.93520        8.61200       11.91730
H         10.02300        7.14960       10.87780
H         16.88420       10.79870       20.46670
H         18.54900       10.57380       19.83070
H          9.33530        4.62380       14.18570
H         12.12950        8.11390       12.85910
H         15.40090        8.46700       18.70570
H         15.25330        9.12840       20.36930
H         13.28530        0.83420       23.09020
H          8.94290        0.57960       23.39230
H          9.53340        0.74970       21.70440
H          9.04210        2.20550       22.63510
H         17.78980        8.43860       20.59300
H         17.75900        8.40670       18.79720
H         14.90090        7.09710       21.10500
H         16.57450        6.66690       20.61430
H         15.86900        5.42020       18.89340
H         14.60280        6.60420       18.42250
H          6.64710        3.63590       14.97690
H         12.06250        5.68960       10.88050
H         13.30550        5.93350       12.15420
H         12.40960        5.55290       14.57540
H         10.43730        9.17720        9.61240
H         11.89340        8.12650        9.66160
H         11.80550        9.58880       10.70110
H         11.15640        5.04500       17.59890
H          9.70660        6.05870       17.28670
H         12.56640        6.44920       16.39630
H          9.85460        8.50950       18.21600
H         11.45150        8.95840       18.90540
H         10.38210        6.64930       19.57760
H          9.62540        9.72440       15.39890
H          8.77870       11.30470       15.50950
H          9.14750       10.37700       17.00280
H         12.24320       12.30070       14.84550
H         10.53520       12.48520       14.32070
H         11.38430       10.92040       14.08150
H          6.18038        1.71917       12.57396
H          5.26714        1.49008       13.75832
H          8.39765        1.37777       13.74354
H          7.87510        1.08877       15.13240
