104

C    -23.817    -9.539    13.465
C    -25.768    -8.73    12.537
C    -26.147    -10.036    12.219
C    -22.483    -9.269    14.18
C    -24.207    -10.841    13.141
O    -22.121    -8.124    14.428
N    -24.615    -8.505    13.155
N    -25.363    -11.06    12.525
N    -21.799    -10.352    14.496
C    -20.502    -10.262    15.186
C    -19.394    -10.161    14.147
O    -19.28    -11.013    13.262
C    -20.311    -11.49    16.067
C    -21.424    -11.561    17.125
C    -21.223    -12.757    18.053
C    -19.835    -12.723    18.712
C    -18.728    -12.644    17.656
C    -18.935    -11.434    16.74
N    -18.643    -9.074    14.263
C    -17.53    -8.803    13.343
C    -17.691    -7.434    12.656
C    -17.812    -6.256    13.62
C    -18.945    -7.456    11.766
C    -16.473    -7.182    11.743
C    -16.201    -8.933    14.117
O    -15.957    -8.199    15.093
C    -13.112    -8.882    14.031
N    -15.317    -9.856    13.746
O    -13.089    -8.531    12.85
C    -14.021    -10.027    14.437
C    -13.457    -11.366    13.971
C    -14.143    -11.661    12.629
C    -13.815    -12.508    14.902
C    -13.861    -13.725    13.98
C    -15.44    -10.818    12.611
C    -14.425    -13.168    12.665
N    -9.164    -6.143    13.099
N    -12.438    -8.272    15.009
C    -11.659    -7.055    14.701
C    -10.164    -7.184    14.997
C    -12.291    -5.861    15.443
C    -13.562    -5.422    14.676
C    -14.246    -4.237    15.34
C    -9.398    -6.015    14.398
C    -8.484    -5.093    12.345
C    -7.037    -5.401    12.027
C    -8.1    -5.489    10.926
O    -9.632    -8.378    14.454
O    -9.087    -5.046    15.081
H    -26.4192    -7.8952    12.2777
H    -27.0965    -10.2149    11.7144
H    -23.5598    -11.6805    13.3949
H    -22.1762    -11.2692    14.2576
H    -20.4711    -9.3759    15.82
H    -20.3654    -12.3863    15.4492
H    -22.3822    -11.6701    16.6171
H    -21.3984    -10.6485    17.7207
H    -21.3064    -13.6711    17.4651
H    -21.9805    -12.7207    18.8359
H    -19.7007    -13.6361    19.2919
H    -19.7726    -11.842    19.3508
H    -18.7537    -13.5507    17.0516
H    -17.7674    -12.5422    18.1609
H    -18.8733    -10.5252    17.3387
H    -18.1655    -11.4418    15.968
H    -18.8433    -8.4091    15.0101
H    -17.5288    -9.5366    12.5368
H    -18.6849    -6.3978    14.2572
H    -16.9154    -6.1997    14.2372
H    -17.9218    -5.3326    13.0513
H    -18.8388    -8.234    11.01
H    -19.8215    -7.6618    12.3804
H    -19.0604    -6.4877    11.279
H    -15.5632    -7.1873    12.3433
H    -16.417    -7.9673    10.9892
H    -16.5814    -6.214    11.2538
H    -14.1173    -10.0194    15.5227
H    -12.3703    -11.2961    13.9239
H    -13.5645    -11.4141    11.7388
H    -14.7598    -12.3422    15.4197
H    -13.0947    -12.6263    15.7115
H    -14.4735    -14.53    14.386
H    -12.8809    -14.1838    13.8496
H    -15.5605    -10.2968    11.6613
H    -16.3232    -11.4476    12.7193
H    -13.953    -13.6599    11.8145
H    -15.4979    -13.3518    12.6076
H    -9.4645    -6.9905    12.6174
H    -12.4607    -8.6425    15.9591
H    -11.7079    -6.8924    13.6243
H    -10.0547    -7.1947    16.0815
H    -11.5814    -5.0349    15.4904
H    -12.5526    -6.1518    16.4604
H    -14.261    -6.2583    14.6669
H    -13.2677    -5.1259    13.6691
H    -14.5364    -4.5086    16.3549
H    -13.5575    -3.3926    15.3715
H    -15.1326    -3.9635    14.7679
H    -9.0131    -4.2508    12.7908
H    -6.2223    -6.0045    12.4273
H    -6.0535    -4.9568    12.1806
H    -8.2568    -5.1429    9.9044
H    -8.4241    -6.1812    10.1488
H    -10.1018    -9.1314    14.8191
