43

C         -9.47600        1.16300        3.11500
N        -11.43500        1.17000        1.86300
O         -8.88200        1.50900        4.13700
C        -10.56500        2.05900        2.59300
N         -9.14200       -0.04100        2.39800
N        -14.70800       -0.62400        1.52100
N        -13.57100        2.40700        4.62400
Br       -16.33900       -4.00400       -1.86900
Br       -13.40400        6.33400        8.02100
C        -13.60200       -3.04800       -1.52200
C        -11.32700        5.46400        6.08400
C        -12.64900       -2.24300       -0.87700
C        -10.84900        4.61300        5.06300
C        -13.54600       -0.07200        1.82200
C        -12.77900        1.88800        3.70600
C        -15.39400       -2.22200       -0.10600
C        -13.39500        4.26600        6.16900
C         -9.84600       -0.49400        1.13900
C        -11.26300        0.00700        1.26100
C        -14.94800       -3.01600       -1.11900
C        -12.60700        5.28700        6.63800
C        -12.54400       -0.50200        1.03900
C        -11.60500        2.52700        3.65800
C        -14.47500       -1.44600        0.52400
C        -12.94100        3.43100        5.17500
C        -13.10500       -1.43300        0.16400
C        -11.66900        3.57600        4.59800
H        -10.06320        2.89830        2.11140
H         -8.38630       -0.62190        2.76100
H        -15.60550       -0.44720        1.97230
H        -14.50510        2.07670        4.86640
H        -13.29620       -3.70100       -2.33940
H        -10.69260        6.27180        6.44870
H        -11.60080       -2.25050       -1.17590
H         -9.85460        4.76100        4.64190
H        -13.41470        0.65630        2.62230
H        -13.04700        1.04590        3.06790
H        -16.44400       -2.21010        0.18640
H        -14.38990        4.11550        6.58820
H         -9.81540       -1.57860        1.03480
H         -9.35980       -0.09820        0.24740
H        -11.28996        0.37215        0.20461
H        -12.15455        1.76717        1.14296
