36

O    25.462    8.945    -10.527
O    21.788    13.227    -11.688
O    22.024    12.599    -9.186
O    21.039    14.813    -9.735
F    22.572    8.389    -6.228
F    24.168    9.136    -7.372
F    22.402    10.363    -7.086
C    21.44    7.233    -10.906
C    26.25    15.621    -10.361
C    21.087    6.76    -9.644
C    25.145    16.44    -10.089
C    22.291    8.349    -11.003
C    26.106    14.23    -10.587
C    21.538    7.369    -8.494
C    23.825    15.903    -10.052
C    25.621    11.357    -10.5
N    23.566    10.059    -10.008
O    24.55    12.382    -10.773
C    24.861    10.014    -10.336
C    22.774    8.956    -9.851
C    24.792    13.719    -10.557
C    22.38    8.484    -8.584
C    23.701    14.528    -10.253
C    22.869    9.124    -7.287
P    22.021    13.765    -10.281
H    21.0645    6.7483    -11.7999
H    27.239    16.0632    -10.3993
H    20.4422    5.8922    -9.5654
H    25.2967    17.4973    -9.9041
H    22.5697    8.7351    -11.9768
H    26.9618    13.5913    -10.7734
H    21.2424    6.9868    -7.5236
H    22.96    16.5322    -9.8763
H    26.1685    11.6061    -9.579
H    26.3264    11.3014    -11.3422
H    23.1497    10.9575    -9.8685
