42

O    -5.231    -26.021    8.89
O    -5.248    -27.517    6.149
O    -7.45    -26.051    8.921
Cl    4.782    -30.221    9.592
Cl    -3.939    -30.338    4.634
C    -7.044    -30.228    10.063
Cl    -0.294    -28.892    8.4
C    -6.306    -30.982    9.162
C    -0.153    -31.083    3.908
C    -1.526    -31.189    3.96
C    0.48    -29.991    4.481
C    -7.049    -28.841    9.985
C    -5.564    -30.342    8.18
C    4.064    -28.903    7.362
C    2.3    -29.506    8.881
C    3.143    -28.318    6.515
C    1.386    -28.919    8.033
C    -2.468    -28.051    5.839
N    -3.325    -28.605    6.888
S    0.578    -27.611    5.833
C    -6.324    -26.675    8.934
C    -4.716    -28.292    6.972
C    3.64    -29.496    8.542
C    -2.269    -30.203    4.583
C    1.808    -28.325    6.863
C    -0.265    -29.001    5.103
C    -6.308    -28.2    9.005
C    -5.565    -28.956    8.102
C    -1.643    -29.102    5.153
H    -7.6214    -30.7252    10.834
H    -6.3092    -32.0642    9.225
H    0.432    -31.8536    3.419
H    -2.0223    -32.0431    3.5137
H    1.5604    -29.9109    4.4426
H    -7.6323    -28.2604    10.6905
H    -4.9834    -30.9242    7.4736
H    5.117    -28.8987    7.1048
H    1.9717    -29.9705    9.8038
H    3.4654    -27.8587    5.5876
H    -1.7911    -27.3112    6.2911
H    -3.1033    -27.5568    5.0893
H    -2.9247    -29.2212    7.5663
