56

C    -43.704    14.592    10.192
Cl    -43.387    9.234    14.507
C    -43.972    15.287    9.02
N    -44.459    14.639    7.971
C    -44.695    13.324    8.024
N    -44.451    12.626    9.143
C    -43.973    13.239    10.234
C    -42.771    12.535    12.278
C    -43.749    12.377    11.296
N    -41.872    13.528    12.368
C    -41.935    14.799    11.94
C    -43.151    15.465    11.312
C    -44.476    10.317    12.3
C    -43.5    10.458    13.284
C    -42.639    11.564    13.274
C    -44.603    11.277    11.301
S    -40.511    15.809    12.138
N    -45.169    12.721    6.951
C    -45.661    11.478    6.964
C    -44.899    10.399    7.407
C    -45.474    9.131    7.387
C    -46.775    8.977    6.918
N    -47.479    10.01    6.504
C    -46.962    11.244    6.507
C    -44.702    7.88    7.855
C    -44.683    7.695    9.373
C    -43.952    6.409    9.792
N    -42.583    6.25    9.225
C    -41.629    7.351    9.513
C    -42.031    4.981    9.75
C    -47.836    12.39    6.006
H    -43.7831    16.359    8.9629
H    -43.919    15.5999    12.0736
H    -42.8583    16.4315    10.9017
H    -45.141    9.4535    12.3128
H    -41.87    11.6661    14.0397
H    -45.3646    11.169    10.5287
H    -40.7614    17.0244    11.6593
H    -45.1597    13.2288    6.0664
H    -43.8781    10.5438    7.7604
H    -47.2199    7.9823    6.8928
H    -43.6682    7.9967    7.5298
H    -45.2039    7.0113    7.4289
H    -45.7143    7.6272    9.7194
H    -44.1564    8.5427    9.8115
H    -44.5457    5.574    9.4201
H    -43.8413    6.4486    10.8756
H    -42.0197    8.2841    9.107
H    -41.5021    7.4474    10.5913
H    -40.6674    7.1269    9.0513
H    -41.9911    5.0263    10.8383
H    -42.6704    4.1535    9.4428
H    -41.0264    4.8319    9.3542
H    -48.1183    12.2038    4.9698
H    -48.7329    12.4572    6.6218
H    -47.279    13.3248    6.0698
