57

C    -88.664    -11.737    -83.751
C    -96.379    -7.005    -87.86
C    -95.498    -7.929    -88.451
C    -95.197    -7.255    -85.753
C    -90.925    -8.954    -82.594
C    -96.229    -6.671    -86.511
C    -94.329    -8.18    -86.351
C    -93.205    -8.908    -85.802
C    -92.669    -9.702    -86.832
C    -88.819    -9.66    -81.2
C    -91.417    -7.853    -81.691
C    -92.811    -8.721    -84.322
C    -89.726    -10.657    -83.508
C    -94.452    -8.523    -87.667
C    -91.534    -9.357    -83.792
C    -89.787    -9.748    -82.405
N    -90.791    -10.401    -84.335
N    -93.416    -9.465    -87.955
N    -89.341    -9.45    -79.849
O    -91.59    -10.559    -86.752
O    -87.578    -9.784    -81.378
F    -97.035    -5.814    -85.908
C    -88.441    -9.382    -78.742
C    -88.638    -8.337    -77.67
N    -88.881    -6.944    -78.059
C    -90.105    -6.45    -77.491
C    -87.784    -6.115    -77.68
C    -87.664    -5.705    -76.209
C    -90.897    -7.32    -76.572
H    -88.892    -12.2719    -84.6848
H    -88.6652    -12.4479    -82.9116
H    -87.6733    -11.2657    -83.831
H    -97.1703    -6.5542    -88.4479
H    -95.6087    -8.1921    -89.4967
H    -95.0733    -6.9904    -84.7091
H    -92.3358    -7.4176    -82.1108
H    -90.6456    -7.0731    -81.6098
H    -91.629    -8.2644    -80.6931
H    -93.4452    -8.1353    -83.6582
H    -91.0047    -10.8985    -85.2112
H    -93.2595    -9.8892    -88.8469
H    -90.3254    -9.3543    -79.7013
H    -87.4359    -9.2225    -79.1596
H    -88.4791    -10.3608    -78.2416
H    -87.7316    -8.3422    -77.0469
H    -89.5001    -8.6561    -77.0659
H    -88.9671    -6.9114    -79.0628
H    -90.7649    -6.1898    -78.3317
H    -89.8512    -5.5394    -76.9286
H    -87.8534    -5.1905    -78.2721
H    -86.8616    -6.6522    -77.9456
H    -86.7744    -5.0717    -76.0763
H    -87.5698    -6.6052    -75.5839
H    -88.5615    -5.1435    -75.9104
H    -91.7948    -6.7792    -76.2381
H    -90.2831    -7.5857    -75.6988
H    -91.1968    -8.2361    -77.1019
