80

N    4.29    -1.726    139.984
C    4.528    -0.469    140.472
C    5.007    -2.248    138.896
O    4.867    -3.386    138.469
N    5.898    -1.402    138.319
C    6.127    -0.08    138.637
O    6.885    0.615    137.927
C    5.403    0.361    139.874
C    5.615    1.765    140.436
C    0.364    -1.711    142.344
C    1.201    -2.578    141.488
O    2.085    -1.66    140.826
C    3.185    -2.527    140.501
C    3.454    -3.18    141.887
C    2.055    -3.485    142.359
O    1.861    -4.844    142.123
P    0.574    -0.215    144.523
O    -0.4    0.818    144.039
O    1.707    0.292    145.348
O    1.165    -1.171    143.389
O    -0.209    -1.292    145.372
P    -1.35    -1.2    146.558
O    -2.663    -1.69    146.073
O    -1.253    0.237    146.962
O    -0.864    -2.12    147.712
P    0.325    -3.053    148.089
O    -0.062    -4.467    148.018
O    1.697    -2.593    147.713
O    0.11    -2.5    149.654
P    0.987    -1.829    150.772
O    1.103    -0.345    150.569
O    2.148    -2.684    150.914
O    0.017    -1.963    152.137
P    -0.884    -0.952    152.978
O    0.052    -0.094    153.756
O    -1.825    -0.182    152.132
O    -1.645    -2.051    153.854
C    -2.591    -3.007    153.538
C    -3.333    -3.448    154.818
O    -2.514    -4.14    155.754
C    -2.484    -3.4    156.988
C    -3.008    -1.975    156.613
O    -3.638    -1.196    157.675
C    -4.017    -2.296    155.545
O    -5.134    -2.93    156.202
N    -1.067    -3.409    157.603
C    -0.526    -4.28    158.525
N    -1.137    -5.354    159.104
C    -0.278    -5.992    159.929
N    0.993    -5.65    160.24
C    1.511    -4.486    159.773
N    2.716    -4.026    160.165
C    0.729    -3.805    158.823
N    1.0    -2.673    158.104
C    -0.067    -2.517    157.362
H    3.9984    -0.1337    141.3625
H    6.4521    -1.7812    137.578
H    5.0004    1.8952    141.3389
H    5.3212    2.51    139.682
H    6.6761    1.9011    140.692
H    -0.4557    -2.3029    142.7773
H    -0.0544    -0.892    141.7406
H    0.5959    -3.1618    140.7788
H    2.9067    -3.2867    139.7557
H    3.9631    -2.4813    142.5672
H    4.0526    -4.0975    141.7884
H    1.9088    -3.2575    143.4252
H    0.953    -5.067    142.2909
H    -2.094    -3.8776    153.0853
H    -3.3133    -2.5847    152.8239
H    -4.1191    -4.1458    154.4937
H    -3.1719    -3.8579    157.714
H    -2.1799    -1.3776    156.2039
H    -4.3486    -1.6984    158.0558
H    -4.296    -1.4418    154.9105
H    -5.5012    -2.3349    156.845
H    -0.6553    -6.8918    160.4014
H    3.0756    -3.1375    159.7879
H    3.2771    -4.563    160.8416
H    -0.1486    -1.7339    156.6097
