212

N    -26.004    -24.478    37.415
C    -25.694    -23.087    37.11
C    -26.64    -22.514    36.059
O    -26.245    -22.301    34.916
C    -24.243    -22.951    36.636
C    -23.232    -23.194    37.712
N    -23.131    -22.393    38.83
C    -22.287    -24.153    37.846
C    -22.163    -22.847    39.606
N    -21.636    -23.915    39.033
N    -27.888    -22.254    36.449
C    -28.886    -21.785    35.487
C    -28.515    -20.459    34.82
O    -28.749    -20.274    33.627
C    -30.278    -21.711    36.121
C    -30.852    -23.094    36.421
C    -32.261    -23.003    36.996
C    -30.83    -23.945    35.153
N    -27.935    -19.548    35.593
C    -27.498    -18.258    35.068
C    -26.457    -18.427    33.966
O    -26.374    -17.608    33.044
C    -26.937    -17.389    36.201
C    -26.467    -16.011    35.758
C    -27.608    -15.124    35.297
O    -28.555    -14.873    36.043
N    -27.523    -14.646    34.062
N    -25.67    -19.497    34.051
C    -24.632    -19.772    33.05
C    -25.219    -20.048    31.658
O    -24.649    -19.662    30.624
C    -23.744    -20.939    33.512
C    -22.659    -21.333    32.508
C    -21.546    -22.181    33.128
N    -20.482    -22.391    32.147
C    -20.447    -23.401    31.284
N    -19.461    -23.483    30.408
N    -21.402    -24.325    31.289
N    -26.363    -20.717    31.634
C    -27.025    -21.028    30.383
C    -26.223    -21.978    29.522
O    -25.437    -22.784    30.021
N    -26.394    -21.891    28.211
C    -25.581    -22.736    27.356
C    -25.099    -22.024    26.102
O    -25.715    -21.056    25.641
C    -26.268    -24.061    27.027
S    -27.536    -23.969    25.778
N    -23.978    -22.509    25.591
C    -23.349    -21.939    24.414
C    -24.315    -21.968    23.244
O    -25.064    -22.931    23.081
C    -22.104    -22.72    24.07
N    -24.29    -20.921    22.421
C    -25.038    -20.958    21.172
C    -24.427    -22.033    20.281
O    -23.208    -22.091    20.116
C    -25.03    -19.603    20.466
C    -26.008    -18.611    21.078
O    -27.134    -19.029    21.429
O    -25.654    -17.421    21.205
N    -25.284    -22.892    19.735
C    -24.839    -23.969    18.881
C    -25.642    -25.23    19.112
O    -26.608    -25.24    19.883
N    -25.242    -26.296    18.428
C    -25.832    -27.622    18.622
C    -24.922    -28.645    17.967
O    -24.107    -28.298    17.108
C    -27.246    -27.712    18.045
C    -27.321    -27.604    16.529
C    -28.749    -27.424    16.039
O    -29.51    -26.622    16.587
N    -29.124    -28.176    15.006
N    -25.056    -29.906    18.366
C    -24.099    -30.935    17.952
C    -24.372    -31.539    16.572
O    -23.439    -31.908    15.849
C    -24.039    -32.057    18.991
O    -22.977    -32.949    18.7
N    -25.649    -31.661    16.222
C    -26.043    -32.261    14.953
C    -26.642    -31.203    14.039
O    -27.545    -30.453    14.447
C    -27.076    -33.376    15.181
C    -26.48    -34.748    15.434
C    -25.124    -34.919    15.646
C    -27.297    -35.867    15.443
C    -24.599    -36.185    15.873
C    -26.778    -37.133    15.665
C    -25.427    -37.287    15.88
N    -26.142    -31.147    12.806
C    -26.662    -30.232    11.796
C    -28.073    -30.628    11.401
O    -28.863    -29.778    10.978
C    -25.75    -30.19    10.551
C    -24.587    -29.198    10.648
C    -23.476    -29.525    9.643
N    -22.701    -30.656    10.138
C    -21.969    -31.467    9.389
N    -21.314    -32.469    9.967
N    -21.905    -31.289    8.076
N    -28.386    -31.914    11.546
C    -29.727    -32.417    11.197
C    -29.736    -33.93    10.904
O    -29.417    -34.672    12.086
N    -30.256    -31.472    13.376
C    -30.743    -32.094    12.306
O    -31.926    -32.421    12.187
H    -26.9721    -24.5485    37.7282
H    -25.8742    -25.0456    36.5775
H    -25.3819    -24.81    38.152
H    -25.8269    -22.516    38.0289
H    -24.1088    -21.9266    36.2887
H    -24.0817    -23.7017    35.8623
H    -22.0808    -24.9618    37.1449
H    -21.8519    -22.4144    40.5569
H    -20.8699    -24.4726    39.4106
H    -28.1495    -22.3831    37.4264
H    -28.9054    -22.5296    34.6912
H    -30.9446    -21.2136    35.4165
H    -30.1925    -21.1686    37.0626
H    -30.2293    -23.5699    37.1785
H    -32.2373    -22.4306    37.9233
H    -32.9138    -22.5068    36.2778
H    -32.6357    -24.0067    37.1965
H    -31.4313    -23.4623    34.3825
H    -29.8027    -24.047    34.8032
H    -31.2404    -24.9309    35.3715
H    -27.7909    -19.7556    36.5812
H    -28.3655    -17.762    34.6327
H    -26.069    -17.9097    36.6053
H    -27.7431    -17.2379    36.919
H    -25.7855    -16.1438    34.9177
H    -25.992    -15.5286    36.6122
H    -28.261    -14.0445    33.696
H    -26.7197    -14.8801    33.4787
H    -25.7912    -20.1424    34.8315
H    -24.0206    -18.8742    32.9593
H    -24.3922    -21.8054    33.6432
H    -23.2393    -20.6192    34.4236
H    -22.206    -20.4153    32.133
H    -23.1316    -21.9275    31.7261
H    -21.9531    -23.1455    33.4316
H    -21.1393    -21.664    33.9971
H    -19.7161    -21.7178    32.1236
H    -18.7295    -22.7723    30.3955
H    -19.4314    -24.257    29.7444
H    -22.169    -24.2621    31.9584
H    -21.368    -25.0972    30.6234
H    -26.7852    -21.0185    32.5122
H    -27.1504    -20.0976    29.8292
H    -27.9756    -21.5076    30.6164
H    -27.0784    -21.2476    27.8135
H    -24.6892    -22.9724    27.9364
H    -26.7546    -24.397    27.9427
H    -25.4959    -24.7263    26.6406
H    -27.0059    -23.5243    24.6422
H    -23.5404    -23.3129    26.0412
H    -23.0761    -20.9046    24.6231
H    -21.4074    -22.6782    24.9074
H    -22.3713    -23.7575    23.8696
H    -21.6374    -22.2863    23.1855
H    -23.7468    -20.0931    22.6656
H    -26.0807    -21.1925    21.3863
H    -25.3256    -19.7658    19.4295
H    -24.0281    -19.1842    20.5604
H    -26.2808    -22.7874    19.9243
H    -23.7939    -24.1795    19.108
H    -24.9698    -23.6624    17.8432
H    -24.4955    -26.1868    17.7415
H    -25.9208    -27.8181    19.6905
H    -27.8091    -26.8719    18.4516
H    -27.6367    -28.6936    18.3133
H    -26.9287    -28.5271    16.1023
H    -26.7432    -26.7325    16.221
H    -30.0726    -28.1013    14.6385
H    -28.4627    -28.8268    14.5822
H    -25.8374    -30.1611    18.9699
H    -23.1407    -30.4207    17.8793
H    -24.9792    -32.6082    18.9707
H    -23.873    -31.6189    19.9752
H    -22.1455    -32.4692    18.7108
H    -26.3723    -31.3258    16.8584
H    -25.1548    -32.6871    14.4865
H    -27.6697    -33.4504    14.2699
H    -27.6431    -33.1066    16.072
H    -24.4618    -34.0533    15.6349
H    -28.3672    -35.7497    15.2724
H    -23.5298    -36.3072    16.046
H    -27.4361    -38.0019    15.6693
H    -25.0124    -38.2796    16.0556
H    -25.369    -31.7651    12.5594
H    -26.6824    -29.2325    12.2304
H    -26.37    -29.8734    9.7122
H    -25.3138    -31.1829    10.4417
H    -24.1688    -29.2568    11.6529
H    -24.9673    -28.2008    10.4266
H    -22.8246    -28.6594    9.5227
H    -23.9171    -29.7774    8.6787
H    -22.7242    -30.8374    11.1415
H    -21.3787    -32.606    10.9757
H    -20.7468    -33.1008    9.4018
H    -22.4208    -30.5251    7.6392
H    -21.34    -31.916    7.5033
H    -27.6854    -32.5627    11.9049
H    -30.0175    -31.903    10.2808
H    -28.9911    -34.1467    10.1383
H    -30.7301    -34.2185    10.5625
H    -29.4271    -35.6108    11.8856
H    -30.8717    -31.2405    14.1556
H    -29.2668    -31.2265    13.417
