29

C    -33.188    76.537    -26.382
C    -32.982    76.334    -27.767
C    -34.127    75.848    -28.5
C    -35.337    75.588    -27.809
C    -35.401    75.838    -26.411
N    -34.342    76.305    -25.73
Br    -36.782    75.532    -25.417
N    -31.732    76.609    -28.269
C    -30.827    77.511    -27.547
C    -29.907    78.259    -28.52
N    -30.671    79.214    -29.331
C    -31.17    78.739    -30.655
C    -31.594    77.259    -30.831
C    -31.337    76.271    -29.656
H    -32.3514    76.9082    -25.8012
H    -34.0619    75.6834    -29.5695
H    -36.2012    75.204    -28.339
H    -30.2119    76.9222    -26.8507
H    -31.4232    78.2421    -26.9813
H    -29.4179    77.5318    -29.1848
H    -29.1425    78.8037    -27.9466
H    -30.0781    80.0117    -29.4989
H    -31.4721    79.4988    -28.7896
H    -30.3693    78.9301    -31.3847
H    -32.0475    79.3537    -30.9041
H    -31.0564    76.8686    -31.7077
H    -32.6756    77.2521    -31.0311
H    -31.8627    75.3392    -29.9116
H    -30.2528    76.0866    -29.6353
