36

C    51.535    22.143    102.084
C    50.536    22.43    100.962
N    51.258    22.817    99.734
C    51.398    24.286    99.565
C    52.5    24.87    100.462
C    52.275    24.589    101.968
N    52.573    23.179    102.27
C    56.357    21.856    103.29
N    55.28    21.085    103.574
C    54.057    21.525    103.236
C    53.831    22.771    102.59
C    54.97    23.564    102.311
C    56.27    23.122    102.66
Br    57.894    21.218    103.761
O    57.432    23.838    102.394
C    57.27    25.135    101.856
C    58.566    25.774    101.359
H    52.0382    21.1911    101.859
H    50.9742    22.0477    103.0255
H    49.87    23.2504    101.2675
H    49.9392    21.5272    100.7651
H    50.7557    22.4513    98.9403
H    52.1799    22.4104    99.7647
H    50.4415    24.765    99.8213
H    51.6455    24.5    98.5148
H    52.5329    25.9591    100.3109
H    53.4629    24.4292    100.1644
H    51.227    24.8024    102.2253
H    52.9375    25.236    102.5617
H    53.2016    20.9004    103.4667
H    54.8456    24.5239    101.823
H    56.8442    25.7817    102.6373
H    56.5699    25.0724    101.0099
H    58.3509    26.7757    100.9587
H    59.0029    25.1485    100.5666
H    59.2772    25.8578    102.1939
