25

O    47.101    -2.177    43.153
O    45.165    -4.994    39.768
N    47.015    -4.086    37.88
O    43.109    -7.866    36.508
C    48.004    -2.647    39.615
C    48.016    -2.178    40.928
C    47.079    -2.647    41.859
C    46.127    -3.587    41.47
C    46.111    -4.07    40.124
C    47.03    -3.609    39.217
C    46.024    -5.043    37.539
C    45.128    -5.472    38.485
C    44.13    -6.435    38.139
C    44.069    -6.938    36.84
C    44.986    -6.5    35.874
C    45.961    -5.559    36.21
H    46.3991    -2.596    43.6564
H    47.6901    -3.7539    37.1913
H    43.2043    -8.1066    35.5835
H    48.7362    -2.2797    38.8959
H    48.7594    -1.4413    41.2327
H    45.3957    -3.9536    42.1903
H    43.4173    -6.7758    38.89
H    44.9376    -6.8948    34.8592
H    46.6732    -5.2189    35.4582
