49

C    -0.8    1.773    20.822
O    0.241    1.624    21.499
O    -1.719    0.92    20.787
C    -0.967    3.042    20.013
C    -1.331    4.173    20.966
C    -2.047    5.302    20.235
C    -3.355    5.697    20.916
C    -4.101    6.716    20.063
C    -3.191    7.878    19.657
C    -4.006    9.117    19.315
C    -3.154    10.376    19.43
C    -3.793    11.507    18.646
C    -3.15    12.824    18.999
C    -3.934    13.942    18.353
C    -3.149    15.227    18.466
C    -4.011    16.44    18.155
C    -3.698    17.069    16.816
C    -4.5    18.325    16.561
H    -1.7687    2.9078    19.2719
H    -0.0257    3.2799    19.4959
H    -0.4111    4.5677    21.422
H    -1.9912    3.7801    21.7533
H    -2.2679    4.9744    19.2084
H    -1.3848    6.1798    20.2053
H    -3.1348    6.1372    21.8997
H    -3.9821    4.8027    21.0465
H    -4.9507    7.1113    20.639
H    -4.4731    6.2188    19.1551
H    -2.6007    7.5819    18.7773
H    -2.5135    8.1125    20.4912
H    -4.8558    9.1924    20.0094
H    -4.381    9.0286    18.2847
H    -2.1503    10.175    19.0272
H    -3.0732    10.6661    20.488
H    -4.8657    11.5524    18.8853
H    -3.665    11.3188    17.5698
H    -2.1138    12.8392    18.6303
H    -3.1526    12.9548    20.0912
H    -4.9017    14.0558    18.8634
H    -4.1044    13.7069    17.292
H    -2.3087    15.1953    17.7569
H    -2.7605    15.3188    19.491
H    -3.8504    17.1931    18.9405
H    -5.0659    16.1282    18.1561
H    -3.9233    16.3404    16.0234
H    -2.628    17.3226    16.7876
H    -4.2323    18.7375    15.577
H    -4.2779    19.0668    17.3423
H    -5.5733    18.0846    16.5781
