24

P    15.472    10.673    19.869
O    16.003    10.098    21.177
O    15.198    9.601    18.847
O    14.274    11.563    20.104
O    16.617    11.6    19.32
C    16.412    12.422    18.177
C    17.635    13.254    17.763
N    18.011    14.411    18.637
C    16.792    15.304    18.798
C    19.169    15.054    18.035
C    18.374    13.97    19.924
H    15.5842    13.1129    18.3947
H    16.1359    11.7735    17.3325
H    17.4379    13.6516    16.7565
H    18.499    12.5743    17.7261
H    17.0476    16.1615    19.4379
H    15.9761    14.7306    19.2621
H    16.47    15.6665    17.8106
H    19.9938    14.3299    17.9621
H    19.4817    15.9044    18.6587
H    18.907    15.4137    17.029
H    17.5123    13.4793    20.4
H    18.6873    14.8315    20.532
H    19.2059    13.2547    19.8454
