36

N    -9.936    10.771    13.652
N    -11.76    9.268    13.206
N    -11.372    10.03    15.375
N    -13.576    7.759    12.668
C    -8.977    9.775    10.146
C    -8.156    10.868    9.827
C    -7.944    11.865    10.76
C    -8.547    11.798    11.999
C    -9.376    10.737    12.331
C    -9.601    9.714    11.398
C    -7.46    11.016    8.509
C    -11.059    9.994    14.08
C    -12.824    8.536    13.605
C    -13.159    8.565    14.954
C    -12.412    9.329    15.85
C    -14.772    7.046    13.043
C    -15.836    7.711    13.649
C    -16.974    6.998    13.989
C    -17.082    5.638    13.713
C    -16.034    4.975    13.098
C    -14.886    5.685    12.767
O    -7.794    10.295    7.532
O    -6.521    11.858    8.385
Cl    -13.58    4.866    12.0
H    -9.4985    11.3993    14.341
H    -13.2518    7.7071    11.6917
H    -9.1276    8.9799    9.4247
H    -7.3011    12.7034    10.5173
H    -8.3704    12.5854    12.7228
H    -10.2524    8.8833    11.6442
H    -14.0058    7.9904    15.3114
H    -12.6655    9.3556    16.9036
H    -15.774    8.774    13.852
H    -17.7953    7.5085    14.4789
H    -17.9844    5.0995    13.979
H    -16.1077    3.9162    12.8775
