316

N    46.184    49.045    39.951
C    45.273    49.814    40.79
C    44.497    50.838    39.968
O    45.056    51.839    39.518
C    46.041    50.514    41.913
O    45.238    51.496    42.544
N    43.208    50.581    39.776
C    42.354    51.48    39.008
C    41.896    52.662    39.855
O    41.155    53.525    39.385
C    41.154    50.726    38.454
N    42.344    52.696    41.106
C    41.975    53.794    42.039
C    42.454    55.133    41.516
O    43.587    55.25    41.075
C    42.606    53.631    43.422
C    42.247    52.377    44.212
C    40.793    52.257    44.511
C    40.527    50.898    45.087
N    39.417    50.82    46.052
N    41.582    56.127    41.511
C    41.96    57.456    41.195
C    41.878    58.381    42.457
O    40.819    58.558    43.101
C    41.166    57.947    40.03
C    41.476    57.205    38.752
C    40.208    57.077    37.95
N    39.671    58.384    37.627
C    38.47    58.88    37.978
N    37.586    58.203    38.708
N    38.167    60.089    37.574
N    43.045    58.942    42.774
C    43.318    59.559    44.034
C    43.42    61.044    43.945
O    43.941    61.638    44.895
C    44.686    59.109    44.589
C    44.622    58.599    45.985
C    45.887    57.924    46.411
C    45.596    56.63    47.145
N    45.113    56.844    48.455
N    43.057    61.765    42.91
C    43.489    63.165    43.285
C    42.413    64.203    43.237
O    42.373    64.962    42.288
C    44.683    63.609    42.468
C    45.701    64.214    43.365
C    47.061    63.54    43.214
O    47.528    63.416    42.035
O    47.631    63.138    44.284
N    41.499    64.209    44.214
C    40.307    64.979    43.861
C    40.557    66.511    43.828
O    41.53    66.992    44.425
C    39.309    64.575    44.954
C    40.201    64.252    46.166
C    41.447    63.652    45.576
N    39.705    67.233    43.107
C    39.565    68.679    43.145
C    39.606    69.148    44.595
O    38.803    68.68    45.427
C    38.206    69.031    42.56
C    37.873    70.572    42.398
C    36.514    70.823    41.599
O    36.168    69.989    40.685
O    35.803    71.848    41.889
N    40.614    69.995    44.934
C    40.732    70.516    46.291
C    39.443    71.236    46.769
O    38.786    71.948    45.996
C    41.943    71.439    46.224
C    42.238    71.616    44.729
C    41.73    70.411    44.066
N    39.096    70.993    48.037
C    37.838    71.411    48.623
C    38.037    71.465    50.129
O    38.676    70.576    50.698
C    36.844    70.301    48.388
C    35.707    70.542    47.528
C    34.771    69.28    47.878
C    33.334    69.354    47.313
N    32.715    70.719    47.641
N    37.496    72.485    50.779
C    37.571    72.539    52.201
C    36.608    73.487    52.85
O    35.762    74.079    52.219
N    36.748    73.621    54.139
C    36.169    74.713    54.848
C    36.802    76.064    54.44
O    37.686    76.132    53.597
C    36.437    74.477    56.324
O    35.294    74.848    57.038
N    36.353    77.134    55.068
C    36.971    78.446    54.988
C    38.425    78.336    55.286
O    38.773    77.723    56.276
C    36.389    79.295    56.173
O    34.942    79.215    56.125
C    36.814    80.719    56.102
N    39.272    78.889    54.434
C    40.716    78.993    54.724
C    41.021    80.056    55.817
O    41.707    79.768    56.78
C    41.497    79.314    53.438
C    41.489    78.164    52.432
C    41.632    78.714    50.998
C    41.7    77.569    49.884
N    43.15    77.052    49.714
N    40.467    81.259    55.651
C    40.739    82.398    56.5
C    39.443    83.12    56.752
O    38.502    83.066    55.974
C    41.733    83.361    55.829
C    43.111    82.781    55.63
C    44.089    83.85    55.188
C    45.444    83.199    54.838
N    46.259    84.072    53.855
N    39.38    83.859    57.837
C    38.053    84.393    58.286
C    38.302    85.665    59.057
O    39.074    85.661    60.032
C    37.502    83.352    59.265
C    36.076    83.247    59.371
C    35.751    81.89    60.042
C    36.497    81.701    61.346
N    35.683    80.993    62.345
N    37.687    86.76    58.632
C    37.755    88.022    59.432
C    36.682    87.975    60.546
O    35.651    87.335    60.38
C    37.574    89.263    58.534
N    36.954    88.63    61.672
C    35.97    88.815    62.708
C    35.196    90.135    62.501
O    35.758    91.245    62.456
C    36.58    88.691    64.104
C    35.599    88.889    65.222
C    36.347    88.611    66.464
C    35.728    89.188    67.727
N    34.57    88.463    68.07
N    33.883    89.922    62.498
C    32.765    90.701    61.899
C    33.108    91.599    60.769
O    32.755    91.209    59.68
C    31.758    91.3    62.906
O    32.083    92.67    63.138
C    31.759    90.501    64.28
O    33.698    92.609    61.078
H    46.6821    48.378    40.5194
H    46.8421    49.6685    39.5102
H    45.6578    48.5568    39.2433
H    44.5523    49.1175    41.2432
H    46.9342    50.9974    41.4905
H    46.3471    49.7663    42.6594
H    44.9739    52.1465    41.9041
H    42.8131    49.7501    40.168
H    42.9386    51.87    38.1618
H    40.5208    51.417    37.8782
H    40.5719    50.3016    39.2853
H    41.5018    49.9144    37.798
H    42.9447    51.9644    41.4282
H    40.8797    53.8076    42.1398
H    42.3055    54.4994    44.0266
H    43.698    53.6365    43.2896
H    42.7974    52.3963    45.1642
H    42.5556    51.4976    43.6278
H    40.2135    52.3855    43.5849
H    40.5001    53.0297    45.237
H    41.4421    50.5617    45.5964
H    40.2994    50.2164    44.2542
H    39.3211    49.8709    46.3778
H    38.5616    51.1096    45.6043
H    39.6087    51.426    46.8344
H    40.6269    55.9353    41.737
H    43.0143    57.4371    40.8819
H    41.3877    59.0138    39.8789
H    40.0968    57.8233    40.2569
H    41.8663    56.2045    38.9899
H    42.2261    57.763    38.1723
H    39.4651    56.5164    38.5364
H    40.4239    56.535    37.0175
H    40.2755    59.0017    37.0667
H    36.6805    58.6313    38.948
H    37.8076    57.251    39.0327
H    38.8393    60.6266    37.0085
H    37.2565    60.5018    37.8219
H    43.7734    58.9304    42.0889
H    42.517    59.2841    44.736
H    45.3718    59.9687    44.5637
H    45.0772    58.3087    43.9437
H    43.7957    57.8766    46.0583
H    44.4301    59.4456    46.6606
H    46.4461    58.597    47.0777
H    46.4935    57.7029    45.5204
H    46.5239    56.0421    47.2036
H    44.8399    56.0664    46.5787
H    44.9361    55.9556    48.8972
H    44.2575    57.3756    48.4151
H    45.8006    57.3534    48.9876
H    42.6028    61.4609    42.0726
H    43.8177    63.1111    44.3333
H    44.3618    64.3528    41.724
H    45.1184    62.7399    41.9532
H    45.3651    64.1085    44.4071
H    45.8033    65.2812    43.1189
H    39.936    64.6696    42.8728
H    38.7292    63.6917    44.648
H    38.6222    65.4032    45.1828
H    39.703    63.533    46.8331
H    40.4398    65.1678    46.7266
H    42.335    63.9479    46.1538
H    41.377    62.5546    45.5474
H    39.105    66.7352    42.4807
H    40.3693    69.1576    42.567
H    37.4386    68.5922    43.2145
H    38.1441    68.571    41.5627
H    38.6971    71.0556    41.853
H    37.782    71.0203    43.3983
H    40.9359    69.6902    46.9885
H    42.8037    70.9824    46.7346
H    41.7135    72.4093    46.6885
H    43.3209    71.7146    44.5631
H    41.725    72.5089    44.3422
H    41.3757    70.6394    43.05
H    42.5042    69.6311    44.0177
H    39.7419    70.4939    48.6147
H    37.4939    72.3722    48.2134
H    36.4468    70.0117    49.3721
H    37.4011    69.4572    47.955
H    35.9983    70.5449    46.4673
H    35.2102    71.492    47.7745
H    34.7031    69.1991    48.9729
H    35.2506    68.3769    47.4726
H    32.723    68.5583    47.7642
H    33.3635    69.2195    46.2217
H    31.7786    70.7611    47.2702
H    33.2733    71.4493    47.2274
H    32.6863    70.8434    48.6409
H    37.0363    73.2149    50.2731
H    38.5905    72.8455    52.4777
H    37.3726    71.5301    52.5919
H    37.2763    72.9386    54.6442
H    35.0862    74.7457    54.6572
H    37.2936    75.0856    56.6493
H    36.656    73.4131    56.4977
H    35.442    74.7074    57.9658
H    35.5353    77.0354    55.6351
H    36.7897    78.9141    54.0092
H    36.7455    78.8699    57.1228
H    34.574    79.7247    56.8372
H    36.3837    81.2727    56.9494
H    36.4609    81.1604    55.1584
H    37.9116    80.7767    56.1458
H    38.9241    79.2473    53.5676
H    41.056    78.0163    55.0988
H    42.54    79.5366    53.7076
H    41.0442    80.1974    52.9641
H    40.5412    77.6124    52.5173
H    42.3283    77.4863    52.6472
H    42.5553    79.3094    50.9431
H    40.7667    79.3584    50.7835
H    41.3481    77.9774    48.9252
H    41.0523    76.7329    50.1863
H    43.1696    76.3324    49.0084
H    43.4765    76.6733    50.5892
H    43.7476    77.8137    49.4336
H    39.8251    81.3801    54.8939
H    41.1614    82.0494    57.4539
H    41.8233    84.2586    56.4584
H    41.3309    83.6424    54.8446
H    43.0637    81.996    54.8609
H    43.4585    82.3449    56.5782
H    44.231    84.5757    56.0024
H    43.6912    84.3664    54.3019
H    45.2598    82.2181    54.3755
H    46.025    83.0653    55.7624
H    47.135    83.6177    53.6492
H    46.4372    84.9717    54.2731
H    45.736    84.1954    53.0022
H    40.2089    84.0631    58.3579
H    37.371    84.5625    57.4397
H    37.8915    83.5975    60.264
H    37.8846    82.3688    58.9536
H    35.6221    83.2878    58.3698
H    35.6845    84.0715    59.985
H    36.0307    81.0789    59.3536
H    34.6705    81.8443    60.2428
H    36.7709    82.6886    61.7456
H    37.4094    81.1178    61.1526
H    36.2127    80.8871    63.196
H    35.4317    80.0836    61.9903
H    34.8466    81.523    62.5337
H    37.1755    86.7421    57.7729
H    38.7466    88.0834    59.9042
H    37.6288    90.1726    59.1502
H    36.5941    89.2158    58.0364
H    38.37    89.2857    57.7751
H    37.8712    89.006    61.8034
H    35.2398    87.9982    62.6097
H    37.373    89.4469    64.2027
H    37.0168    87.6862    64.2019
H    34.7543    88.192    65.119
H    35.2233    89.9228    65.2239
H    37.3575    89.0319    66.3558
H    36.4153    87.5198    66.5848
H    35.4607    90.2408    67.5536
H    36.4545    89.125    68.5505
H    34.1661    88.8517    68.9078
H    34.813    87.498    68.2306
H    33.9022    88.5205    67.3171
H    33.5974    89.095    62.9822
H    32.1734    89.9159    61.4054
H    30.7496    91.2417    62.4703
H    32.0373    93.1483    62.3185
H    31.0319    90.9556    64.969
H    32.7631    90.5419    64.7273
H    31.4826    89.4526    64.0947
