30

O    7.371    2.297    16.431
C    6.733    1.369    16.988
N    5.954    0.523    16.28
C    5.306    -0.5    16.892
O    4.59    -1.291    16.243
C    5.423    -0.669    18.366
C    4.737    -1.781    19.117
C    6.223    0.219    19.051
N    6.842    1.232    18.398
C    7.709    2.165    19.119
C    7.089    3.057    20.214
C    8.215    3.18    21.233
O    8.996    4.346    20.905
O    8.7    1.381    19.747
C    9.088    1.945    20.991
C    9.031    0.858    22.066
F    7.727    0.567    22.369
H    5.8536    0.652    15.2934
H    4.9712    -1.6986    20.1886
H    5.0899    -2.7515    18.7381
H    3.6492    -1.7045    18.9725
H    6.3589    0.1059    20.1256
H    8.1717    2.8298    18.3747
H    6.2036    2.5794    20.6588
H    6.8109    4.0421    19.8112
H    7.837    3.2263    22.265
H    9.704    4.4381    21.5317
H    10.1322    2.2841    20.922
H    9.5447    1.2136    22.9713
H    9.5296    -0.0491    21.6938
