50

C    -11.718    -5.31    -10.661
C    -10.644    -6.01    -11.23
C    -9.34    -5.739    -10.706
C    -9.106    -4.811    -9.666
C    -10.199    -4.11    -9.147
C    -11.493    -4.368    -9.611
C    -10.127    -3.139    -8.069
C    -7.67    -4.579    -9.197
O    -9.543    -3.382    -6.973
N    -10.775    -1.945    -8.318
C    -10.796    -7.017    -12.392
C    -13.102    -5.409    -11.131
C    -13.784    -4.218    -11.485
C    -15.084    -4.384    -11.949
N    -15.703    -5.552    -12.055
C    -14.966    -6.666    -11.698
N    -13.689    -6.595    -11.256
N    -15.544    -7.948    -11.756
C    -10.83    -0.871    -7.269
C    -11.979    0.101    -7.652
C    -13.35    -0.411    -7.221
N    -14.044    -1.339    -8.165
C    -14.891    -0.86    -9.153
C    -15.57    -1.879    -10.013
O    -15.091    0.372    -9.317
C    -15.354    -1.612    -11.532
S    -16.099    -3.034    -12.45
H    -8.4932    -6.2697    -11.1259
H    -12.3346    -3.8472    -9.1688
H    -6.9915    -5.2453    -9.7499
H    -7.5968    -4.7926    -8.1204
H    -7.388    -3.5322    -9.3832
H    -11.2117    -1.794    -9.2049
H    -11.8578    -7.1027    -12.6663
H    -10.4183    -8.0007    -12.0765
H    -10.2202    -6.6644    -13.2604
H    -13.322    -3.2411    -11.3995
H    -16.5135    -8.0614    -12.0848
H    -14.9975    -8.7728    -11.4696
H    -9.874    -0.3278    -7.2378
H    -11.0299    -1.3184    -6.2842
H    -11.9797    0.2325    -8.7441
H    -11.7966    1.0708    -7.166
H    -14.0013    0.4629    -7.0727
H    -13.2234    -0.9404    -6.2651
H    -13.8946    -2.3243    -8.0825
H    -16.6491    -1.8581    -9.8006
H    -15.1672    -2.8729    -9.7682
H    -14.2787    -1.5428    -11.7531
H    -15.8494    -0.6743    -11.8238
