92

C    27.577    -7.839    8.83
C    16.668    -15.563    11.037
C    29.808    -10.248    6.133
C    15.645    -12.039    6.984
C    17.145    -14.862    8.541
C    27.319    -10.781    10.777
O    27.575    -9.391    6.006
O    18.479    -7.919    8.093
O    21.691    -2.947    11.011
O    19.222    -5.498    10.38
O    21.758    -9.191    12.195
O    23.776    -3.608    10.837
O    19.655    -5.367    12.523
O    19.719    -8.443    11.914
O    21.907    -6.597    7.2
O    22.113    -5.89    12.343
C    18.16    -10.17    8.726
C    16.954    -10.28    8.168
C    25.13    -15.675    11.577
C    26.509    -15.5    11.457
C    24.269    -14.834    10.874
C    27.016    -14.499    10.632
C    24.78    -13.835    10.036
C    15.881    -14.326    10.667
C    25.295    -8.378    9.501
C    24.478    -7.598    8.503
C    26.736    -12.575    9.023
C    16.825    -12.511    9.231
O    28.129    -10.433    7.99
O    20.334    -8.949    9.049
O    23.275    -5.702    9.471
O    22.862    -7.721    10.403
C    28.437    -9.969    6.651
C    18.958    -8.941    8.571
C    26.614    -8.761    8.863
C    22.55    -3.79    10.669
C    20.008    -5.591    11.346
C    20.938    -8.436    11.638
C    26.158    -13.652    9.929
C    16.086    -11.509    8.347
C    16.199    -13.897    9.24
C    26.511    -11.146    9.525
C    22.064    -7.527    8.275
C    26.784    -10.174    8.377
C    22.113    -5.091    10.054
C    20.884    -7.645    9.224
C    21.434    -6.007    11.089
C    23.209    -7.099    9.176
C    21.482    -7.464    10.621
H    27.3813    -6.8337    9.2002
H    28.5591    -8.0914    8.4329
H    16.4254    -15.8569    12.0689
H    17.7443    -15.3495    10.96
H    16.4067    -16.3825    10.3514
H    29.9042    -9.8444    5.1143
H    29.979    -11.3345    6.1146
H    30.5517    -9.7708    6.7881
H    15.1257    -11.2422    6.4313
H    14.9641    -12.8913    7.1248
H    16.5276    -12.365    6.4142
H    16.7051    -15.8702    8.5396
H    18.1073    -14.8825    9.0735
H    17.3065    -14.531    7.5045
H    27.0971    -11.5003    11.5791
H    27.046    -9.7679    11.1072
H    28.3932    -10.8132    10.5425
H    21.7619    -5.7274    7.5537
H    21.6989    -6.4598    12.9804
H    18.5611    -11.0007    9.3048
H    16.5793    -9.4567    7.5616
H    24.7316    -16.4584    12.2116
H    27.1864    -16.1437    12.0064
H    23.1966    -14.954    10.9766
H    28.0887    -14.3764    10.5349
H    24.104    -13.2039    9.4705
H    16.1434    -13.5104    11.3569
H    14.8058    -14.5435    10.7483
H    24.7494    -9.2868    9.795
H    25.4813    -7.7583    10.3905
H    24.2138    -8.2479    7.6558
H    25.0628    -6.7404    8.1389
H    26.2683    -12.6702    8.032
H    27.8195    -12.7431    8.9348
H    16.8314    -12.1263    10.2615
H    17.8589    -12.5994    8.8662
H    15.1743    -11.2114    8.8858
H    15.2557    -13.8643    8.6751
H    25.4486    -11.0579    9.7963
H    22.2732    -8.5144    7.8378
H    26.0994    -10.3589    7.5361
H    21.3848    -4.8815    9.2566
H    20.1214    -6.878    9.0236
