29

O    1.563    -10.022    -0.451
C    -2.923    -7.231    -0.54
C    -2.834    -8.63    -0.195
C    -1.975    -6.635    -1.472
C    -1.817    -9.463    -0.757
C    -0.907    -7.516    -2.062
C    7.652    -8.974    0.587
C    7.399    -10.457    0.207
C    0.219    -9.894    -2.254
N    5.109    -10.302    0.501
N    3.926    -10.205    0.009
N    2.815    -10.073    -2.351
S    7.85    -7.85    0.0
S    5.459    -10.271    -1.97
C    1.602    -10.001    -1.671
C    -0.833    -8.902    -1.709
C    6.076    -10.35    -0.467
C    3.845    -10.168    -1.392
H    -3.7024    -6.6183    -0.1015
H    -3.5487    -9.0551    0.5003
H    -2.0373    -5.5849    -1.7335
H    -1.7665    -10.5109    -0.4843
H    -0.189    -7.0988    -2.7588
H    7.6655    -8.8508    1.6689
H    7.3487    -11.1003    1.0978
H    8.1721    -10.8373    -0.4768
H    -0.229    -10.8947    -2.1656
H    0.3531    -9.6449    -3.317
H    2.9347    -10.0597    -3.3437
