43

C          2.61500       14.50400      -34.36100
C          2.63700       13.18500      -34.91900
N          1.54300       15.26200      -34.50300
C          3.87800       14.85700      -33.69700
C          1.42700       12.73400      -35.59400
C          3.76700       12.43300      -34.79700
C          1.47900       16.48100      -33.97800
C          0.44500       14.84200      -35.12200
C          3.75600       16.14300      -33.00800
C          1.37000       11.49100      -36.14300
C          0.36000       13.59300      -35.67600
C          3.66700       11.21000      -35.35800
C          2.66600       17.09200      -33.32600
C          4.68600       16.48300      -32.14800
C          2.49300       10.74100      -36.02600
O          4.55900       10.24300      -35.39000
C          2.20300       17.84200      -32.12000
C          4.56800       17.76100      -31.48200
O          2.70800        9.50200      -36.46700
C          3.99300        9.11300      -36.03300
C          3.41100       18.40900      -31.48800
O          1.44700       18.90400      -32.65000
O          3.35000       19.68900      -30.86300
C          1.25700       19.97200      -31.76500
C          4.49000       19.99600      -30.12000
H          4.66200       12.78440      -34.29630
H          0.48150       11.12290      -36.64320
H          3.91770        8.27230      -35.32770
H          4.61090        8.81580      -36.89310
H          0.65960       20.75380      -32.25680
H          2.23390       20.38560      -31.47430
H          0.72810       19.61580      -30.86870
H          4.37570       20.99230      -29.66790
H          5.37000       19.99170      -30.78000
H          4.62330       19.24630      -29.32620
H         -0.46827       13.10292      -35.20835
H          0.28376       13.79262      -36.72445
H         -0.34687       14.90685      -34.40532
H          0.41634       15.47417      -35.98481
H          4.73241       14.27845      -33.71413
H          0.59396       17.00980      -34.02370
H          5.48105       15.85496      -31.95180
H          5.38499       18.16926      -31.00151
