53

C    19.489    3.555    63.076
C    26.306    5.34    53.537
C    26.519    4.715    54.749
C    20.145    2.82    62.116
C    18.231    4.039    62.812
C    25.081    5.887    53.212
C    22.846    6.323    53.819
C    25.485    4.643    55.654
C    16.728    3.537    56.193
C    19.543    2.559    60.897
C    17.612    3.773    61.614
C    17.765    4.366    55.824
C    21.838    6.221    54.755
C    18.916    4.184    57.952
C    24.069    5.788    54.14
C    24.242    5.174    55.373
C    16.795    3.038    57.483
C    17.864    3.365    58.299
C    18.272    3.029    60.66
C    18.828    4.678    56.665
C    22.076    5.605    55.961
C    16.442    2.026    59.327
C    15.797    -0.227    59.775
C    14.526    1.569    60.918
C    20.968    5.508    56.944
C    15.881    1.165    60.389
N    23.258    5.083    56.29
N    15.921    2.196    58.131
N    17.623    2.714    59.462
O    19.794    5.531    56.15
H    19.9606    3.7505    64.0323
H    27.1198    5.4028    52.8236
H    27.4867    4.2871    54.9845
H    21.1412    2.4422    62.3156
H    17.7203    4.6379    63.5573
H    24.9214    6.3777    52.2587
H    22.6786    6.8082    52.8642
H    25.6502    4.1583    56.6094
H    15.9149    3.2921    55.5192
H    20.0674    1.9905    60.1375
H    16.6125    4.1455    61.4211
H    17.7517    4.7962    54.8291
H    20.8564    6.6272    54.5394
H    19.7338    4.4181    58.6239
H    15.3843    -0.9294    60.5141
H    16.8029    -0.5576    59.4769
H    15.1432    -0.199    58.8909
H    14.5899    2.574    61.3605
H    14.2028    0.8504    61.6855
H    13.7979    1.5771    60.0935
H    20.9863    6.3615    57.6376
H    21.0342    4.5701    57.5149
H    16.5813    1.1561    61.2373
