32

C    -16.454    -9.494    70.678
C    -16.255    -9.859    71.953
C    -16.109    -8.094    70.277
C    -15.39    -7.663    72.563
C    -17.905    -12.156    67.597
C    -16.545    -12.355    68.254
C    -18.861    -11.394    68.485
C    -15.966    -11.083    68.886
C    -18.253    -10.123    69.068
C    -15.522    -9.452    74.28
N    -15.614    -7.281    71.264
N    -16.96    -10.371    69.721
N    -15.727    -8.985    72.902
N    -16.584    -11.142    72.295
O    -16.261    -7.649    69.147
O    -14.92    -6.842    73.333
H    -18.3384    -13.142    67.3736
H    -17.7676    -11.5952    66.6607
H    -15.8402    -12.7129    67.489
H    -16.6491    -13.116    69.0414
H    -19.1653    -12.0488    69.3148
H    -19.7455    -11.1186    67.8919
H    -15.6304    -10.4098    68.0834
H    -15.1075    -11.3595    69.5157
H    -18.9496    -9.7059    69.8101
H    -18.105    -9.3967    68.2552
H    -15.838    -10.5024    74.362
H    -16.1178    -8.8351    74.9687
H    -14.4567    -9.3682    74.5409
H    -15.3994    -6.3358    71.0181
H    -16.9735    -11.7801    71.5865
H    -16.4422    -11.47    73.261
