41

C    -32.476    -9.969    -0.878
N    -31.257    -10.029    -1.378
N    -33.448    -9.869    -1.813
C    -32.82    -9.89    -3.026
N    -33.393    -9.859    -4.245
C    -32.533    -9.99    -5.258
C    -31.465    -10.004    -2.75
C    -30.705    -10.129    -3.954
N    -31.206    -10.135    -5.211
N    -29.299    -10.313    -3.95
C    -28.466    -10.368    -2.745
C    -27.648    -9.087    -2.65
C    -26.718    -8.859    -3.862
C    -27.539    -9.024    -5.158
C    -28.481    -10.219    -5.166
C    -26.203    -7.371    -3.82
N    -25.21    -7.122    -2.72
C    -24.018    -7.984    -2.752
C    -24.461    -9.489    -2.783
C    -25.495    -9.802    -3.869
H    -32.6813    -9.9974    0.1911
H    -30.3623    -10.0819    -0.8704
H    -32.9697    -9.9769    -6.2501
H    -27.7901    -11.2339    -2.8029
H    -29.1079    -10.4626    -1.8567
H    -27.0302    -9.1349    -1.7412
H    -28.341    -8.2358    -2.5779
H    -26.8363    -9.136    -5.9969
H    -28.1393    -8.1135    -5.3016
H    -29.1515    -10.1309    -6.0336
H    -27.8818    -11.137    -5.2573
H    -27.0661    -6.7059    -3.6696
H    -25.7244    -7.1388    -4.7828
H    -25.6769    -7.2666    -1.8385
H    -24.9047    -6.1636    -2.7853
H    -23.4082    -7.7998    -1.8552
H    -23.4259    -7.7576    -3.651
H    -24.8958    -9.7437    -1.8052
H    -23.5707    -10.1099    -2.9613
H    -25.0022    -9.7221    -4.8492
H    -25.8515    -10.832    -3.7206
