250

N    -7.01    28.928    -55.476
C    -7.42    27.461    -55.477
C    -8.373    26.95    -54.359
O    -8.007    26.843    -53.16
C    -6.213    26.565    -55.667
O    -6.533    25.201    -55.503
N    -9.583    26.6    -54.785
C    -10.585    26.053    -53.875
C    -10.047    24.747    -53.25
O    -10.177    24.502    -52.04
C    -11.956    25.747    -54.612
C    -12.921    24.991    -53.745
C    -12.663    27.047    -55.224
N    -9.432    23.904    -54.073
C    -8.966    22.555    -53.698
C    -7.875    22.677    -52.647
O    -7.841    21.964    -51.622
C    -8.379    21.925    -54.977
C    -8.49    20.413    -55.087
C    -8.868    20.065    -56.52
C    -7.223    19.689    -54.659
N    -6.984    23.625    -52.883
C    -5.878    23.894    -51.984
C    -6.345    24.388    -50.625
O    -5.839    23.936    -49.58
C    -4.934    24.902    -52.609
N    -7.358    25.265    -50.653
C    -7.904    25.85    -49.414
C    -8.651    24.8    -48.626
O    -8.502    24.715    -47.415
C    -8.746    27.079    -49.695
N    -9.437    23.972    -49.305
C    -10.206    22.885    -48.623
C    -9.272    21.879    -47.997
O    -9.583    21.421    -46.912
C    -11.143    22.19    -49.635
C    -12.132    21.158    -49.035
C    -13.067    20.616    -50.12
N    -13.873    21.679    -50.721
C    -14.155    21.786    -52.01
N    -13.657    20.94    -52.893
N    -14.915    22.782    -52.391
N    -8.133    21.572    -48.647
C    -7.242    20.518    -48.155
C    -6.627    20.965    -46.865
O    -6.12    20.105    -46.115
C    -6.183    20.18    -49.178
N    -6.649    22.251    -46.539
C    -6.084    22.808    -45.364
C    -7.068    22.917    -44.206
O    -6.615    23.159    -43.074
C    -5.473    24.196    -45.585
C    -4.213    24.194    -46.432
C    -3.92    25.615    -46.965
N    -3.587    26.498    -45.833
C    -2.394    26.615    -45.236
N    -1.337    25.858    -45.569
N    -2.275    27.469    -44.209
N    -8.364    22.744    -44.453
C    -9.392    22.866    -43.459
C    -9.336    21.516    -42.668
O    -9.058    20.422    -43.213
C    -10.737    22.892    -44.12
C    -10.987    24.271    -44.846
S    -12.608    24.254    -45.677
C    -12.533    25.957    -46.317
N    -9.594    21.636    -41.369
C    -9.532    20.429    -40.483
C    -10.578    19.433    -40.883
O    -11.745    19.728    -41.147
C    -9.719    20.899    -39.064
C    -9.627    19.726    -38.07
C    -8.517    19.159    -37.624
C    -10.752    19.069    -37.44
N    -8.817    18.135    -36.764
C    -10.183    18.072    -36.595
C    -12.128    19.235    -37.466
C    -10.961    17.23    -35.818
C    -12.915    18.344    -36.668
C    -12.322    17.406    -35.875
N    -10.144    18.168    -40.797
C    -11.032    17.071    -41.007
C    -10.746    16.075    -39.879
O    -9.606    15.745    -39.617
C    -10.73    16.4    -42.386
C    -11.762    15.24    -42.749
S    -11.395    14.46    -44.339
C    -11.801    15.872    -45.469
N    -11.819    15.553    -39.302
C    -11.634    14.514    -38.293
C    -11.133    13.245    -38.92
O    -11.141    13.043    -40.105
C    -12.888    14.27    -37.42
C    -14.062    13.661    -38.193
C    -14.432    12.378    -38.131
C    -14.985    14.354    -39.086
N    -15.556    12.199    -38.948
C    -15.884    13.385    -39.556
C    -15.106    15.708    -39.517
C    -16.947    13.697    -40.466
C    -16.123    16.037    -40.422
C    -17.036    15.015    -40.863
N    -10.693    12.375    -38.036
C    -9.885    11.172    -38.46
C    -10.181    9.987    -37.567
O    -9.303    9.305    -37.033
C    -8.388    11.525    -38.557
C    -7.858    12.396    -37.446
N    -7.235    11.899    -36.355
C    -7.9    13.766    -37.335
C    -6.815    12.953    -35.601
N    -7.231    14.075    -36.182
N    -11.482    9.7    -37.494
C    -12.053    8.582    -36.717
C    -13.503    8.382    -37.159
O    -14.111    7.407    -36.635
C    -11.965    8.846    -35.168
C    -12.643    10.155    -34.824
C    -13.98    10.352    -34.579
C    -12.002    11.42    -34.552
N    -14.208    11.69    -34.252
C    -13.042    12.381    -34.275
C    -10.662    11.864    -34.642
C    -12.774    13.695    -33.892
C    -10.329    13.181    -34.325
C    -11.436    14.112    -33.918
O    -14.019    9.226    -37.933
H    -7.8371    29.5108    -55.347
H    -6.3524    29.0955    -54.7145
H    -6.567    29.1566    -56.3659
H    -8.0799    27.3981    -56.3423
H    -5.4697    26.8323    -54.9159
H    -5.8407    26.7071    -56.6815
H    -6.8756    25.058    -54.6176
H    -9.8167    26.7165    -55.771
H    -10.7769    26.8006    -53.1054
H    -11.6764    25.1098    -55.4509
H    -12.477    24.0391    -53.4538
H    -13.143    25.5776    -52.8536
H    -13.8411    24.8094    -54.3005
H    -12.8759    27.7545    -54.4226
H    -11.9988    27.511    -55.9531
H    -13.5939    26.7573    -55.7114
H    -9.2706    24.2113    -55.0321
H    -9.776    21.9488    -53.2923
H    -7.3133    22.1538    -54.9694
H    -8.9501    22.3351    -55.8099
H    -9.2623    20.0725    -54.3973
H    -9.823    20.5295    -56.7655
H    -8.0981    20.4343    -57.1974
H    -8.9526    18.9829    -56.6195
H    -6.3935    20.0066    -55.2908
H    -7.0022    19.9297    -53.6191
H    -7.3684    18.6136    -54.7614
H    -7.0779    24.1879    -53.7284
H    -5.3544    22.9517    -51.8227
H    -4.5459    24.5022    -53.5458
H    -5.4721    25.8297    -52.8036
H    -4.1076    25.0964    -51.9254
H    -7.7603    25.5338    -51.5509
H    -7.0729    26.1937    -48.7982
H    -8.1328    27.8328    -50.1888
H    -9.5799    26.8064    -50.3419
H    -9.1286    27.4783    -48.7557
H    -9.5182    24.0799    -50.316
H    -10.8061    23.3299    -47.8292
H    -10.5011    21.6393    -50.3226
H    -11.7508    22.9758    -50.0835
H    -12.7292    21.6466    -48.2651
H    -11.5647    20.3296    -48.6108
H    -13.7406    19.8917    -49.6621
H    -12.4584    20.1626    -50.9024
H    -14.2472    22.3942    -50.0974
H    -13.0422    20.186    -52.5865
H    -13.8871    21.0404    -53.8816
H    -15.2698    23.4453    -51.7021
H    -15.1522    22.8945    -53.3766
H    -7.8867    22.0815    -49.4956
H    -7.8183    19.6092    -47.9817
H    -6.6618    19.8334    -50.0938
H    -5.5887    21.0686    -49.3911
H    -5.5371    19.395    -48.7847
H    -7.1097    22.8907    -47.1862
H    -5.2989    22.0975    -45.1052
H    -5.2008    24.5872    -44.6047
H    -6.2153    24.7934    -46.1144
H    -4.3542    23.52    -47.2769
H    -3.3738    23.8645    -45.8193
H    -4.7985    25.9998    -47.483
H    -3.0812    25.5792    -47.6601
H    -4.3415    27.0788    -45.4673
H    -1.4232    25.1574    -46.3053
H    -0.4475    25.9833    -45.0858
H    -3.0822    28.0106    -43.8999
H    -1.3773    27.577    -43.7369
H    -8.6436    22.5107    -45.4058
H    -9.2521    23.7617    -42.8538
H    -11.5033    22.7557    -43.3569
H    -10.7762    22.0949    -44.8624
H    -10.2054    24.4318    -45.5885
H    -10.9713    25.0726    -44.1076
H    -12.4405    26.6533    -45.4835
H    -11.6698    26.0589    -46.9747
H    -13.444    26.1747    -46.8746
H    -9.8333    22.5467    -40.9769
H    -8.5703    19.9246    -40.5764
H    -10.7063    21.3524    -38.9756
H    -8.9321    21.6158    -38.8291
H    -7.5078    19.4634    -37.9014
H    -8.1373    17.5178    -36.3197
H    -12.5929    20.0137    -38.0706
H    -10.5128    16.4611    -35.1887
H    -14.0023    18.4163    -36.6946
H    -12.9561    16.768    -35.2594
H    -9.1644    17.9867    -40.5782
H    -12.0731    17.3938    -41.0084
H    -9.7358    15.9565    -42.3305
H    -10.8081    17.1685    -43.155
H    -12.7564    15.682    -42.8125
H    -11.6943    14.4751    -41.9754
H    -12.8463    16.1518    -45.3377
H    -11.163    16.7226    -45.2292
H    -11.6317    15.569    -46.5023
H    -12.7541    15.8704    -39.5574
H    -10.8721    14.8817    -37.6057
H    -13.2141    15.2372    -37.0377
H    -12.6099    13.5642    -36.6373
H    -13.9417    11.6017    -37.5436
H    -16.0559    11.3187    -39.0724
H    -14.4206    16.4717    -39.1494
H    -17.6433    12.938    -40.8228
H    -16.2224    17.0584    -40.7894
H    -17.8381    15.297    -41.5451
H    -10.9014    12.5158    -37.0475
H    -10.1839    10.8706    -39.4639
H    -8.2591    12.0865    -39.4823
H    -7.8412    10.5836    -38.5034
H    -7.1028    10.9117    -36.1353
H    -8.3712    14.4649    -38.0261
H    -6.2369    12.8881    -34.6792
H    -12.1282    10.2955    -38.012
H    -11.4768    7.677    -36.9094
H    -10.917    8.8976    -34.8729
H    -12.4639    8.0347    -34.638
H    -14.7476    9.5799    -34.6319
H    -15.1195    12.0895    -34.0283
H    -9.8833    11.1715    -34.9616
H    -13.5726    14.3703    -33.5849
H    -9.2957    13.5248    -34.3712
H    -11.1927    15.1364    -33.6362
