78

C    -11.198    48.636    5.765
C    -12.167    49.352    5.098
C    -10.134    48.143    5.02
C    -12.097    49.593    3.735
C    -11.433    45.761    -1.708
C    -7.511    45.057    -0.052
C    -9.086    44.128    1.474
C    -5.245    45.74    3.485
C    -6.862    44.158    4.205
C    -12.182    45.044    -2.695
C    -8.019    44.279    -1.1
C    -9.63    43.303    0.478
C    -4.369    45.191    4.419
C    -5.99    43.546    5.138
C    -10.047    48.37    3.658
C    -13.377    45.981    -0.234
C    -8.028    44.989    1.236
C    -6.524    45.211    3.362
C    -11.035    49.102    3.001
C    -12.013    46.219    -0.492
C    -13.513    44.86    -2.408
C    -14.081    45.291    -1.222
C    -9.062    43.371    -0.784
C    -4.734    44.116    5.222
C    -10.188    50.469    -1.841
C    -10.595    49.237    -1.487
C    -8.876    47.847    2.921
C    -14.103    46.347    1.041
C    -15.626    44.265    -2.377
C    -10.094    41.273    -1.577
C    -4.295    42.945    7.205
C    -10.989    49.402    1.539
C    -11.237    46.969    0.581
C    -11.872    49.04    -0.717
C    -7.456    45.879    2.354
N    -8.554    46.498    3.073
N    -11.766    48.441    0.652
O    -14.921    45.465    1.458
O    -8.234    48.643    2.23
O    -13.856    47.366    1.763
O    -14.435    44.23    -3.187
O    -15.447    44.991    -1.143
O    -9.561    42.589    -1.839
O    -3.748    43.655    6.094
H    -11.2631    48.4632    6.8332
H    -13.0113    49.7394    5.6568
H    -9.358    47.5702    5.5148
H    -12.8755    50.1667    3.2452
H    -10.3843    45.9627    -1.894
H    -6.6882    45.7338    -0.2521
H    -9.5113    44.0898    2.4704
H    -4.9325    46.57    2.8617
H    -7.8741    43.7749    4.143
H    -11.7297    44.6715    -3.607
H    -7.632    44.3669    -2.1087
H    -10.4611    42.6392    0.6873
H    -3.376    45.6133    4.5225
H    -6.2854    42.6948    5.7407
H    -9.2613    50.5971    -2.3984
H    -10.7852    51.3385    -1.5702
H    -9.993    48.3719    -1.7611
H    -15.9171    43.2318    -2.1368
H    -16.4286    44.7474    -2.9542
H    -10.433    40.8202    -2.5204
H    -10.9434    41.3529    -0.8827
H    -9.3117    40.6432    -1.1284
H    -3.4795    42.604    7.8597
H    -4.8613    42.075    6.8413
H    -4.9656    43.6089    7.7702
H    -9.9361    49.3816    1.2211
H    -11.3986    50.4114    1.3864
H    -10.1665    46.9729    0.3281
H    -11.3822    46.4769    1.554
H    -12.5201    48.3828    -1.3154
H    -12.3481    50.0258    -0.6098
H    -6.8742    46.6716    1.8609
H    -9.0982    45.9389    3.6985
H    -12.6968    48.3851    1.0349
