36

C    -30.83    28.906    0.853
C    -30.962    27.698    0.223
C    -31.7    29.944    0.569
C    -33.327    32.257    1.91
C    -31.992    27.506    -0.675
C    -32.636    32.946    2.927
C    -32.735    29.759    -0.319
C    -33.39    32.784    0.622
C    -32.769    34.027    0.31
C    -32.861    28.541    -0.932
C    -32.014    34.121    2.561
C    -32.097    34.655    1.326
C    -33.776    30.716    -0.795
C    -34.095    32.021    -0.451
C    -32.823    34.648    -1.066
C    -34.022    28.521    -1.88
C    -30.746    35.844    2.554
C    -34.439    29.996    -1.962
O    -31.86    35.314    -1.541
O    -33.915    34.514    -1.712
O    -31.307    34.913    3.425
O    -31.428    35.859    1.284
O    -35.822    30.192    -1.862
H    -30.0385    29.0506    1.5794
H    -30.2614    26.8967    0.4283
H    -31.5657    30.9071    1.0481
H    -33.8116    31.3129    2.131
H    -32.1149    26.5506    -1.1722
H    -32.5956    32.5719    3.9436
H    -34.9013    32.515    -0.9912
H    -34.8413    27.9016    -1.4862
H    -33.7179    28.1424    -2.867
H    -29.6892    35.5872    2.3889
H    -30.8139    36.8438    3.0077
H    -34.0878    30.4161    -2.916
H    -36.0141    31.1206    -1.9195
