96

N    -3.591    -44.781    30.114
C    -2.721    -44.646    31.28
C    -3.282    -43.665    32.313
O    -4.373    -43.128    32.136
C    -1.341    -44.226    30.848
N    -2.533    -43.438    33.389
C    -2.952    -42.507    34.437
C    -2.279    -41.151    34.282
O    -1.206    -41.05    33.692
C    -2.589    -43.04    35.827
C    -3.201    -44.366    36.207
C    -2.832    -44.712    37.641
N    -1.434    -44.394    37.934
C    -0.414    -45.224    37.728
N    -0.625    -46.431    37.222
N    0.821    -44.849    38.028
N    -2.905    -40.117    34.836
C    -2.23    -38.841    35.041
C    -3.243    -37.739    35.397
C    -2.527    -36.491    35.928
O    -4.031    -37.386    34.254
P    -5.484    -36.947    34.793
O    -6.542    -37.452    33.888
O    -5.674    -37.546    36.276
O    -5.597    -35.342    34.853
C    -1.217    -39.032    36.169
O    -1.533    -39.626    37.201
N    0.002    -38.544    35.967
C    1.07    -38.711    36.952
C    0.662    -38.236    38.348
O    -0.127    -37.297    38.494
C    2.344    -37.984    36.502
C    3.486    -38.07    37.506
C    4.565    -37.015    37.266
C    5.574    -37.036    38.412
N    6.538    -35.906    38.363
N    1.206    -38.892    39.368
C    0.937    -38.517    40.75
C    2.24    -38.175    41.476
O    3.266    -38.823    41.265
C    0.195    -39.647    41.466
N    2.193    -37.147    42.321
C    3.359    -36.703    43.091
C    4.463    -36.098    42.216
O    5.015    -35.036    42.531
C    3.947    -37.843    43.959
H    -4.5224    -45.0655    30.4173
H    -3.6488    -43.8856    29.629
H    -3.207    -45.4858    29.4846
H    -2.6675    -45.6213    31.7637
H    -1.3876    -43.2317    30.4038
H    -0.6802    -44.2076    31.7147
H    -0.9597    -44.9358    30.1139
H    -1.6427    -43.9262    33.4859
H    -4.0324    -42.4028    34.3374
H    -2.9683    -42.3111    36.5432
H    -1.5094    -43.1903    35.8251
H    -2.823    -45.1414    35.5407
H    -4.2855    -44.3004    36.1199
H    -2.9769    -45.7829    37.7833
H    -3.4639    -44.126    38.3084
H    -1.2271    -43.4738    38.3225
H    -1.5726    -46.7276    36.9885
H    0.1602    -47.0631    37.0662
H    0.992    -43.9221    38.4179
H    1.6006    -45.4872    37.869
H    -3.8783    -40.2186    35.1237
H    -1.7247    -38.5281    34.1273
H    -3.8981    -38.1308    36.1751
H    -1.9614    -36.7512    36.8227
H    -1.8477    -36.1111    35.1649
H    -3.2648    -35.7268    36.1725
H    0.1982    -38.0397    35.1024
H    1.2684    -39.7808    37.0168
H    2.0929    -36.9299    36.3839
H    2.6828    -38.4601    35.5819
H    3.9491    -39.0512    37.402
H    3.0705    -37.9029    38.4997
H    4.1005    -36.0303    37.2132
H    5.079    -37.2321    36.3296
H    6.1448    -37.9612    38.333
H    5.0163    -36.9546    39.345
H    7.1822    -35.9758    39.1508
H    7.0623    -35.9456    37.489
H    6.0288    -35.0238    38.4158
H    1.8277    -39.6781    39.1784
H    0.3041    -37.6296    40.7569
H    -0.7492    -39.8399    40.9566
H    0.8077    -40.5484    41.4519
H    -0.0004    -39.355    42.4978
H    1.3107    -36.6486    42.4372
H    2.9867    -35.9152    43.7458
O    4.8135    -36.6906    41.1608
H    3.1884    -38.1932    44.659
H    4.2562    -38.666    43.3147
H    4.8087    -37.4693    44.5121
