49

C    48.8    5.058    57.992
C    47.921    3.993    58.653
N    48.684    2.74    58.788
C    47.974    1.703    59.557
C    46.594    1.373    58.979
C    47.865    2.105    61.03
C    49.077    2.21    57.472
C    50.005    3.214    56.784
C    49.315    4.572    56.634
N    50.277    5.533    56.074
S    49.553    6.801    55.347
O    48.142    6.514    54.929
O    49.666    8.069    56.14
C    50.508    7.07    53.809
C    50.017    8.234    52.945
N    48.714    7.916    52.341
C    47.588    8.503    52.734
O    47.522    9.343    53.63
C    46.323    8.06    51.995
C    46.268    7.403    50.837
C    45.033    7.127    50.404
C    44.049    7.554    51.196
Cl    42.355    7.298    50.952
S    44.73    8.347    52.55
H    49.6573    5.2748    58.6462
H    48.2088    5.9741    57.8466
H    47.031    3.815    58.0316
H    47.6093    4.3414    59.6487
H    49.5277    2.9616    59.293
H    48.5781    0.7852    59.5043
H    46.1155    0.596    59.5933
H    46.7063    1.0075    57.9476
H    45.9694    2.2785    58.9812
H    47.3328    1.3192    61.5861
H    47.3106    3.0515    61.1117
H    48.8732    2.2331    61.4507
H    48.1799    2.0548    56.8546
H    49.6024    1.2525    57.6026
H    50.2739    2.8334    55.7876
H    50.9161    3.3365    57.388
H    48.463    4.4712    55.9456
H    51.269    5.4211    56.1326
H    50.4543    6.1507    53.2074
H    51.5543    7.2666    54.0856
H    50.7487    8.4253    52.1463
H    49.9154    9.1321    53.572
H    48.6739    7.235    51.6098
H    47.1608    7.1128    50.2851
H    44.8451    6.5931    49.4736
