110

N    25.522    9.344    14.311
C    25.56    8.73    12.945
C    24.982    7.302    12.949
O    24.907    6.675    14.016
C    26.997    8.722    12.414
C    27.107    9.027    10.919
C    28.138    8.135    10.231
N    29.45    8.247    10.864
C    30.367    9.158    10.547
N    30.13    10.049    9.588
N    31.525    9.179    11.194
N    24.562    6.785    11.765
C    24.034    5.421    11.668
C    25.007    4.347    12.146
O    26.231    4.517    12.058
C    23.77    5.244    10.16
C    24.539    6.338    9.493
C    24.441    7.472    10.468
N    24.443    3.249    12.643
C    25.212    2.117    13.133
C    25.247    1.048    12.049
O    24.198    0.637    11.552
C    24.562    1.554    14.392
C    24.206    2.575    15.467
C    25.27    2.634    16.548
C    26.206    3.796    16.358
N    25.634    5.043    16.921
N    26.447    0.592    11.7
C    26.646    -0.264    10.525
C    27.365    -1.595    10.848
O    28.068    -1.686    11.858
C    27.387    0.517    9.399
C    28.817    0.871    9.818
C    26.617    1.788    9.024
C    29.641    1.498    8.716
N    27.194    -2.632    9.997
C    27.896    -3.891    10.248
C    29.398    -3.739    10.011
O    29.814    -2.778    9.35
C    27.31    -4.852    9.194
C    26.191    -4.132    8.549
C    26.452    -2.681    8.727
N    30.211    -4.67    10.551
C    31.65    -4.652    10.302
C    31.976    -4.819    8.82
O    33.081    -4.505    8.397
C    32.164    -5.863    11.087
C    30.973    -6.683    11.391
C    29.844    -5.727    11.509
O    31.149    -5.265    8.023
H    25.9065    10.275    14.2717
H    26.0661    8.7824    14.9471
H    24.5679    9.3879    14.6333
H    24.9443    9.3467    12.2737
H    27.4284    7.7268    12.5971
H    27.5742    9.4789    12.9653
H    27.4045    10.0783    10.7913
H    26.1257    8.8639    10.4495
H    28.2233    8.4351    9.1762
H    27.8014    7.0894    10.2887
H    29.6816    7.5734    11.608
H    30.8451    10.7507    9.3488
H    29.2314    10.0372    9.0847
H    31.7123    8.4908    11.9371
H    32.2368    9.8835    10.9532
H    23.1002    5.3364    12.2431
H    22.696    5.3407    9.9431
H    24.1258    4.2604    9.8196
H    24.0846    6.6075    8.5282
H    25.587    6.0435    9.3352
H    25.2581    8.1939    10.3222
H    23.4744    7.9897    10.3805
H    23.4449    3.2004    12.6811
H    26.2372    2.4406    13.3657
H    25.2578    0.8262    14.8348
H    23.6358    1.0411    14.0935
H    23.2461    2.2933    15.9245
H    24.1132    3.5673    15.0016
H    25.8528    1.7014    16.5233
H    24.7767    2.7323    17.5262
H    26.3877    3.9383    15.2825
H    27.1574    3.577    16.8648
H    26.2809    5.803    16.7798
H    25.4689    4.9213    17.9079
H    24.7635    5.2524    16.4579
H    27.2395    0.8408    12.2568
H    25.6476    -0.5245    10.1438
H    27.439    -0.1304    8.5112
H    29.3203    -0.0508    10.145
H    28.7665    1.5791    10.6582
H    25.5925    1.5213    8.7252
H    27.124    2.2904    8.187
H    26.5817    2.4645    9.8906
H    30.6495    1.7216    9.0942
H    29.1596    2.4292    8.3827
H    29.7135    0.7993    7.8695
H    27.7103    -4.2518    11.2704
H    26.9436    -5.7695    9.6776
H    28.0757    -5.1114    8.4481
H    25.239    -4.4065    9.0269
H    26.1487    -4.3801    7.4782
H    27.058    -2.2838    7.8994
H    25.511    -2.1156    8.7967
H    32.0978    -3.7184    10.6734
H    32.6518    -5.537    12.0175
H    32.8791    -6.4373    10.4798
H    31.114    -7.2279    12.3361
H    30.7842    -7.4004    10.5788
H    28.8918    -6.2018    11.2298
H    29.7686    -5.327    12.5309
