59

C    -1.605    4.727    28.774
N    -1.504    3.993    27.469
C    -1.815    2.548    27.668
C    -1.778    1.782    26.335
N    -2.696    2.425    25.366
C    -2.377    3.858    25.168
C    -2.484    4.583    26.521
C    -2.81    1.654    24.192
C    -2.752    0.242    24.308
C    -2.894    -0.577    23.211
C    -3.098    0.022    21.945
N    -3.2    -0.729    20.805
C    -3.415    -0.236    19.604
N    -3.537    1.124    19.41
C    -3.855    1.679    18.154
C    -2.958    2.233    17.247
C    -3.482    2.773    16.052
N    -2.652    3.342    15.077
C    -1.363    2.984    14.912
O    -0.753    2.159    15.578
C    -0.72    3.659    13.799
C    0.368    3.115    12.96
C    0.531    4.11    12.058
O    -0.327    5.151    12.307
C    -1.088    4.894    13.338
C    -4.852    2.734    15.745
C    -5.72    2.135    16.644
C    -5.222    1.63    17.851
C    -6.275    1.014    18.778
C    -3.408    2.002    20.463
C    -3.182    1.445    21.828
C    -3.037    2.251    22.943
O    -3.478    3.207    20.263
H    -0.8853    4.3031    29.4897
H    -2.6243    4.6242    29.1746
H    -1.3794    5.7917    28.6143
H    -0.5714    4.0876    27.0983
H    -2.8189    2.4544    28.1077
H    -1.0726    2.1123    28.3528
H    -2.0927    0.7413    26.502
H    -0.754    1.7955    25.9334
H    -3.0886    4.2998    24.4549
H    -1.3544    3.958    24.7752
H    -2.2656    5.6523    26.3838
H    -3.5013    4.465    26.9223
H    -2.5921    -0.2028    25.2835
H    -2.8506    -1.6552    23.3142
H    -3.4976    -0.9102    18.7528
H    -1.8934    2.2497    17.4503
H    -3.033    4.0452    14.4767
H    0.897    2.1669    13.045
H    1.25    4.0875    11.2404
H    -1.864    5.5374    13.7501
H    -5.2235    3.1644    14.8221
H    -6.7766    2.0581    16.4144
H    -5.7881    0.6481    19.694
H    -6.7692    0.1755    18.2655
H    -7.0236    1.7761    19.0401
H    -3.098    3.3295    22.8527
