71

C    18.017    26.373    9.623
N    18.037    24.936    9.938
C    18.258    24.13    8.723
C    17.97    22.65    9.038
N    18.534    22.213    10.347
C    18.858    23.151    11.45
C    19.035    24.606    10.976
S    18.8    20.595    10.572
O    18.807    20.324    11.961
O    18.007    19.858    9.648
C    20.437    20.317    9.977
C    20.642    20.093    8.617
C    21.925    19.885    8.16
C    23.013    19.957    9.05
C    22.794    20.186    10.414
C    21.508    20.366    10.87
C    24.381    19.679    8.535
C    25.299    18.907    9.275
C    26.557    18.636    8.701
C    26.817    19.146    7.394
N    25.934    19.885    6.758
C    24.747    20.149    7.266
N    27.975    18.912    6.708
C    27.487    17.74    9.422
O    28.595    17.493    8.963
N    27.024    17.138    10.545
C    27.677    16.256    11.413
C    29.037    16.381    11.713
N    29.638    15.526    12.533
C    28.957    14.582    13.18
C    27.601    14.392    12.937
C    26.945    15.239    12.045
C    25.464    15.032    11.827
N    24.689    16.288    11.803
C    24.899    17.22    12.958
C    23.491    17.796    13.203
C    22.604    16.538    12.912
C    23.254    16.005    11.627
H    17.7703    26.9374    10.5223
H    18.9983    26.6776    9.2591
H    17.2676    26.5649    8.8551
H    19.2914    24.2397    8.3941
H    17.5918    24.4719    7.9309
H    18.4356    22.0476    8.258
H    16.8882    22.5245    9.0839
H    19.8018    22.8298    11.8906
H    18.027    23.1318    12.1551
H    18.8972    25.2748    11.8256
H    20.0344    24.7232    10.5569
H    19.7999    20.0825    7.9251
H    22.0979    19.6642    7.1067
H    23.6339    20.2214    11.1079
H    21.326    20.5469    11.9294
H    25.0427    18.5296    10.2649
H    24.0377    20.7429    6.6896
H    28.7113    18.3452    7.1286
H    28.1033    19.3041    5.7752
H    26.0599    17.3602    10.7931
H    29.6127    17.1922    11.2673
H    29.4679    13.9516    13.9078
H    27.0577    13.5907    13.4378
H    25.0917    14.4341    12.6588
H    25.3404    14.5531    10.8557
H    25.6392    17.9919    12.7473
H    25.3075    16.7184    13.8353
H    23.2518    18.6595    12.5824
H    23.3514    18.2152    14.1994
H    21.543    16.764    12.8061
H    22.5865    15.8151    13.7276
H    23.0597    14.9429    11.478
H    22.848    16.4794    10.7336
