40

C    6.215    36.594    4.737
C    6.451    37.064    3.427
C    6.559    38.407    3.216
C    6.46    39.362    4.238
C    6.199    38.858    5.53
C    6.088    37.505    5.762
N    6.059    35.26    5.013
C    5.86    34.217    4.145
C    4.815    33.28    4.23
C    4.728    32.234    3.285
C    5.704    32.104    2.272
C    6.761    33.02    2.227
C    6.803    34.055    3.129
C    3.79    33.349    5.294
N    2.672    32.627    5.234
O    4.146    33.808    6.381
O    1.931    32.431    6.42
C    0.731    31.642    6.505
C    1.889    31.065    8.656
O    0.06    29.671    7.838
O    1.854    32.407    9.113
C    0.574    31.013    7.902
I    6.661    41.476    3.996
F    5.847    37.086    7.034
F    7.825    34.909    3.017
F    7.756    32.983    1.306
H    6.5455    36.3641    2.5967
H    6.7316    38.7569    2.1982
H    6.0829    39.5536    6.3611
H    6.0961    35.0085    6.0008
H    3.9033    31.5232    3.3376
H    5.6348    31.3024    1.5366
H    2.3582    32.2246    4.3508
H    0.7889    30.8411    5.7679
H    -0.125    32.2903    6.3177
H    1.986    30.321    9.4467
H    2.7639    30.8149    8.0559
H    -0.7703    29.6702    7.3563
H    1.8114    32.9996    8.359
H    -0.1618    31.6027    8.4487
