42

F    25.924    -24.912    3.057
C    25.567    -23.658    3.175
C    24.601    -23.255    2.317
F    24.144    -24.227    1.534
C    24.143    -21.959    2.296
C    24.719    -21.065    3.18
C    25.759    -21.467    4.017
C    26.377    -20.466    4.929
O    26.851    -20.809    6.012
N    26.456    -19.186    4.593
C    26.112    -18.446    3.386
C    26.753    -17.27    4.128
O    28.059    -16.846    3.745
C    25.776    -16.111    4.193
N    26.338    -15.175    5.104
C    27.004    -18.082    5.367
C    26.221    -22.786    3.994
N    27.24    -23.214    4.788
C    28.334    -23.995    4.374
C    29.254    -24.368    5.351
F    29.024    -23.92    6.564
C    30.399    -25.157    5.146
C    28.596    -24.489    3.087
C    29.749    -25.308    2.898
C    30.663    -25.625    3.902
I    32.39    -26.913    3.663
H    23.356    -21.648    1.6089
H    24.357    -20.0378    3.2227
H    25.1097    -18.4178    2.9586
H    26.4006    -18.7578    2.3822
H    28.0492    -16.576    2.8238
H    24.7919    -16.4424    4.5245
H    25.6274    -15.6645    3.2098
H    25.7183    -14.3691    5.1871
H    26.4489    -15.6157    6.0172
H    27.2485    -14.8711    4.7589
H    27.9738    -18.1266    5.8627
H    26.6267    -17.7996    6.3499
H    27.2075    -22.9443    5.7712
H    31.0656    -25.3893    5.9765
H    27.9354    -24.253    2.2527
H    29.9272    -25.713    1.9019
