49

C          8.30900        3.86200      -16.20200
C          7.42600        3.51700      -17.37700
N          6.13800        3.60200      -17.37600
C          5.54200        3.24600      -18.53000
C          6.40800        2.85500      -19.50200
S          7.98400        2.93700      -18.88800
C          5.61800        2.50000      -20.74100
N          4.22500        2.72500      -20.31700
C          4.18500        3.15000      -19.09000
N          3.05000        3.43900      -18.37000
C          5.94700        3.43900      -21.89100
C          7.20100        4.05100      -22.02100
C          7.46100        4.89700      -23.10100
C          6.44300        5.23200      -24.00100
C          5.17600        4.61400      -23.88700
C          4.94700        3.74100      -22.82000
O          6.72400        6.07000      -25.02800
C          5.68800        6.85000      -25.65600
C          5.88000        1.03400      -21.10000
C          6.68800        0.66300      -22.18400
C          6.92200       -0.68100      -22.47900
C          6.38900       -1.67600      -21.67100
C          5.56900       -1.31600      -20.58700
C          5.37100        0.04000      -20.28700
C          5.04900       -2.35900      -19.65400
C          5.89000       -3.41000      -19.21800
N          5.44300       -4.29100      -18.32200
C          4.20300       -4.20600      -17.83600
N          3.39400       -3.22200      -18.20100
C          3.76200       -2.30200      -19.10100
H          7.68590        4.20880      -15.36450
H          9.01020        4.65850      -16.49160
H          8.87420        2.97010      -15.89370
H          3.12730        3.77170      -17.39830
H          2.12240        3.32280      -18.80230
H          7.97140        3.86710      -21.28090
H          8.45840        5.29710      -23.24330
H          4.39690        4.81380      -24.61380
H          3.96910        3.28650      -22.70990
H          6.12470        7.45910      -26.46120
H          5.22180        7.50950      -24.90920
H          4.92660        6.17700      -26.07720
H          7.13770        1.43150      -22.80230
H          7.52160       -0.94860      -23.34150
H          6.60260       -2.71930      -21.87350
H          4.80850        0.31260      -19.40140
H          6.89610       -3.49900      -19.61160
H          3.85260       -4.95260      -17.13260
H          3.07200       -1.52090      -19.39920
