93

N    -0.725    14.62    3.3
C    -0.6    16.065    3.345
C    0.636    16.458    2.552
O    1.472    15.602    2.288
N    1.12    17.751    2.214
C    2.383    17.864    1.486
C    3.624    17.492    2.291
O    3.618    17.493    3.528
N    4.361    16.605    1.593
C    5.6    15.944    1.958
C    5.353    14.509    2.397
O    6.284    13.717    2.549
C    2.599    12.221    1.897
C    3.753    12.784    2.676
C    3.62    12.569    4.161
C    2.688    13.471    4.934
C    2.612    13.224    6.414
C    2.775    10.919    7.44
C    4.084    11.209    8.105
N    3.857    14.179    2.324
N    2.093    11.898    6.659
O    2.208    12.807    0.873
O    0.952    11.58    6.103
O    2.27    9.82    7.538
C    -0.563    11.557    1.614
C    0.641    10.674    1.418
C    0.312    9.241    1.757
C    1.375    8.194    1.563
C    2.487    8.032    2.558
C    1.583    7.145    4.764
C    1.636    5.704    4.324
N    1.698    11.151    2.294
N    2.02    8.22    3.912
O    -1.388    11.721    0.718
O    1.96    9.444    4.354
O    1.184    7.406    5.903
C    -2.083    14.144    3.226
C    -2.183    12.647    3.157
C    -2.735    12.13    4.453
C    -3.289    10.745    4.323
C    -3.271    9.941    5.569
C    -1.622    9.512    7.391
C    -2.716    9.637    8.402
N    -0.891    12.03    2.954
N    -1.938    9.639    6.013
O    -3.094    14.83    3.388
O    -0.979    9.524    5.144
O    -0.481    9.246    7.735
H    0.0645    14.0065    3.3188
H    -0.4948    16.3977    4.3882
H    -1.4918    16.5303    2.8999
H    0.6055    18.5695    2.4697
H    2.4925    18.9062    1.1515
H    2.3328    17.201    0.6097
H    4.0008    16.3676    0.6908
H    6.0701    16.4958    2.7854
H    6.2743    15.9416    1.0889
H    4.6722    12.2736    2.3527
H    4.6227    12.6853    4.5981
H    3.2723    11.5362    4.3108
H    1.6769    13.3456    4.5193
H    3.0205    14.5085    4.7823
H    1.9465    13.9684    6.8755
H    3.6176    13.3099    6.8514
H    4.4241    10.3161    8.6501
H    3.96    12.044    8.8103
H    4.8301    11.48    7.3435
H    3.111    14.7999    2.0832
H    1.0825    10.8489    5.5106
H    0.9723    10.7315    0.3707
H    -0.5476    8.9496    1.1356
H    0.0225    9.2167    2.8179
H    1.8502    8.4057    0.5938
H    0.8557    7.2256    1.5131
H    3.2691    8.7752    2.3436
H    2.907    7.0198    2.4625
H    1.2547    5.0602    5.1303
H    2.6761    5.4284    4.0956
H    1.0158    5.572    3.4252
H    1.8088    10.7316    3.195
H    1.0592    9.6594    4.5654
H    -2.8522    12.3704    2.329
H    -3.5385    12.8022    4.7884
H    -1.9291    12.1197    5.2016
H    -2.6977    10.2112    3.5644
H    -4.3325    10.8257    3.9846
H    -3.8039    8.9962    5.3863
H    -3.7862    10.5056    6.36
H    -2.2979    9.5132    9.4119
H    -3.4732    8.8599    8.2209
H    -3.1819    10.6298    8.3173
H    -0.2427    11.9308    3.7089
H    -0.3244    10.1931    5.3061
