42

C    51.115    -20.723    -12.741
N    50.846    -19.497    -11.999
C    51.409    -18.248    -12.445
N    50.766    -17.359    -13.282
C    51.624    -16.191    -13.551
C    51.146    -15.155    -14.466
C    52.867    -16.271    -12.872
C    54.018    -15.342    -12.838
N    55.288    -15.838    -12.755
C    56.365    -14.944    -12.688
N    57.723    -15.399    -12.606
C    58.039    -16.803    -12.407
C    59.362    -17.112    -12.657
C    59.786    -18.44    -12.506
S    61.478    -18.764    -12.891
O    61.701    -20.182    -12.659
N    62.418    -17.885    -11.872
O    61.681    -18.349    -14.273
C    58.92    -19.469    -12.094
C    57.58    -19.164    -11.828
C    57.144    -17.822    -11.998
N    56.197    -13.587    -12.71
C    54.906    -13.126    -12.778
C    53.825    -13.992    -12.829
C    52.458    -13.42    -12.807
N    51.401    -12.97    -12.855
S    52.886    -17.636    -12.105
H    50.6047    -21.5664    -12.2529
H    52.1987    -20.9107    -12.7585
H    50.7445    -20.6169    -13.7713
H    50.2539    -19.5238    -11.1566
H    51.9047    -14.3631    -14.5518
H    50.2105    -14.726    -14.0777
H    50.9634    -15.5966    -15.4568
H    58.4897    -14.7163    -12.6899
H    60.0599    -16.3416    -12.9644
H    63.4143    -17.9388    -11.9392
H    61.9943    -17.2957    -11.184
H    59.2851    -20.4837    -11.9841
H    56.8907    -19.9336    -11.4999
H    56.1057    -17.5732    -11.8109
H    54.7272    -12.0569    -12.7922
