186

N    14.812    -5.323    -0.492
C    16.046    -4.556    -0.211
C    17.143    -4.935    -1.197
O    17.346    -4.251    -2.2
C    16.504    -4.776    1.223
N    17.841    -6.034    -0.927
C    18.854    -6.521    -1.848
C    18.192    -7.277    -3.001
O    18.685    -7.277    -4.127
C    19.895    -7.42    -1.137
O    20.919    -7.82    -2.059
C    19.244    -8.657    -0.53
N    17.054    -7.895    -2.714
C    16.284    -8.563    -3.738
C    15.073    -7.747    -4.115
O    13.962    -8.016    -3.657
N    15.292    -6.741    -4.94
C    14.244    -5.8    -5.251
C    14.374    -4.547    -4.414
O    14.203    -4.59    -3.192
N    14.703    -3.441    -5.062
C    14.883    -2.179    -4.364
C    13.537    -1.637    -3.888
O    12.589    -1.521    -4.667
C    15.616    -1.136    -5.247
C    14.888    -0.907    -6.564
C    15.799    0.177    -4.498
N    13.459    -1.34    -2.601
C    12.24    -0.843    -1.982
C    11.825    -1.789    -0.848
C    10.496    -1.45    -0.189
C    10.237    -2.362    1.003
C    8.897    -2.075    1.667
N    8.699    -2.861    2.928
C    12.48    0.565    -1.446
O    13.199    0.747    -0.457
C    9.708    -2.486    3.925
C    8.799    -4.3    2.632
C    7.382    -2.567    3.493
N    11.903    1.561    -2.102
C    12.178    2.946    -1.75
C    11.014    3.579    -0.99
O    9.862    3.515    -1.417
C    12.508    3.775    -2.998
C    11.416    3.779    -4.055
C    11.747    4.741    -5.182
C    10.728    4.662    -6.308
N    10.738    3.337    -6.979
N    11.311    4.174    0.174
C    10.342    4.936    0.943
C    10.354    6.414    0.56
O    11.383    6.947    0.137
C    10.834    4.747    2.373
C    12.319    4.591    2.26
C    12.617    4.125    0.852
N    9.215    7.072    0.698
C    9.112    8.493    0.376
C    7.922    9.133    1.08
O    7.1    8.441    1.683
C    9.006    8.697    -1.142
C    8.057    7.755    -1.826
N    8.518    6.736    -2.622
C    6.703    7.719    -1.802
C    7.445    6.104    -3.062
N    6.322    6.663    -2.592
N    7.835    10.453    1.0
C    6.734    11.19    1.602
C    5.61    11.388    0.595
O    5.296    12.518    0.221
C    7.214    12.546    2.126
C    8.112    12.448    3.346
C    7.355    11.902    4.543
N    8.205    11.771    5.722
C    7.76    11.402    6.921
N    6.467    11.164    7.113
N    8.602    11.276    7.936
N    5.034    10.273    0.151
C    3.915    10.276    -0.789
C    4.358    10.77    -2.169
O    4.638    9.924    -3.039
C    2.756    11.124    -0.247
C    1.501    11.05    -1.085
C    0.784    9.866    -1.188
C    1.033    12.163    -1.771
C    -0.361    9.792    -1.954
C    -0.114    12.097    -2.538
C    -0.805    10.909    -2.626
O    -1.945    10.835    -3.39
O    4.442    11.999    -2.38
H    14.5244    -5.1604    -1.457
H    14.9919    -6.3173    -0.3525
H    14.0722    -5.0181    0.1405
H    15.8278    -3.4951    -0.3335
H    16.7558    -5.8269    1.3655
H    17.3816    -4.1607    1.4212
H    15.7016    -4.4975    1.9061
H    17.6628    -6.5425    -0.061
H    19.3883    -5.6573    -2.2439
H    20.3374    -6.8354    -0.3304
H    20.5225    -8.3105    -2.7828
H    18.803    -9.2603    -1.3235
H    19.9984    -9.2419    -0.0038
H    18.4666    -8.3505    0.1699
H    16.7159    -7.8987    -1.7517
H    15.9523    -9.5281    -3.3551
H    16.9101    -8.6916    -4.621
H    16.2132    -6.6273    -5.3629
H    13.2818    -6.2651    -5.0368
H    14.3206    -5.5268    -6.3034
H    14.833    -3.475    -6.0731
H    15.5113    -2.3668    -3.4933
H    16.6015    -1.5395    -5.4796
H    14.8315    -1.8461    -7.1145
H    13.8811    -0.5414    -6.3623
H    15.4319    -0.1701    -7.155
H    14.8227    0.5752    -4.2215
H    16.3893    0.0015    -3.5986
H    16.3155    0.8909    -5.1396
H    14.2874    -1.4646    -2.0191
H    11.4374    -0.8038    -2.7185
H    12.5902    -1.7121    -0.0755
H    11.7169    -2.7809    -1.2867
H    9.6968    -1.5871    -0.9174
H    10.5286    -0.4173    0.1584
H    11.0232    -2.1905    1.7382
H    10.2246    -3.3917    0.6456
H    8.1091    -2.357    0.9686
H    8.8697    -1.016    1.9238
H    10.7024    -2.6919    3.5289
H    9.6178    -1.4232    4.1494
H    9.5508    -3.0654    4.8348
H    8.0318    -4.5749    1.9082
H    9.7842    -4.5171    2.2193
H    8.6547    -4.8694    3.5502
H    7.3134    -1.5024    3.7164
H    6.6102    -2.8389    2.7729
H    7.2446    -3.1414    4.4091
H    11.2573    1.3543    -2.8641
H    13.0467    2.9424    -1.0916
H    13.3926    3.3298    -3.4533
H    12.641    4.8063    -2.6713
H    10.4825    4.0957    -3.5899
H    11.3287    2.7745    -4.4691
H    12.7243    4.4746    -5.5845
H    11.7377    5.7547    -4.7815
H    10.9809    5.4202    -7.0491
H    9.7373    4.8196    -5.8816
H    10.0418    3.3295    -7.7244
H    11.6625    3.1641    -7.3738
H    10.5166    2.6107    -6.298
H    9.3156    4.6073    0.7803
H    10.3734    3.8793    2.8453
H    10.5656    5.593    3.0057
H    12.6843    3.8669    2.9882
H    12.8199    5.5373    2.4641
H    13.361    4.751    0.3594
H    13.0546    3.1269    0.8321
H    8.3904    6.5763    1.0367
H    10.0189    8.9815    0.7322
H    9.996    8.5156    -1.5604
H    8.6294    9.7068    -1.3049
H    6.0437    8.3972    -1.2603
H    7.47    5.2379    -3.7233
H    5.3667    6.3617    -2.7843
H    8.5612    10.9676    0.5018
H    6.3544    10.6069    2.4411
H    6.3301    13.1133    2.4176
H    7.7948    13.0145    1.3315
H    8.4764    13.4457    3.5906
H    8.936    11.772    3.1178
H    6.9807    10.9116    4.2838
H    6.5508    12.5981    4.7812
H    9.1994    11.9743    5.6213
H    5.8097    11.2638    6.3394
H    6.1317    10.8815    8.034
H    9.5957    11.462    7.8004
H    8.2566    10.993    8.8531
H    5.3897    9.3761    0.4818
H    3.5627    9.2506    -0.9007
H    3.0859    12.1629    -0.2475
H    2.5085    10.7407    0.7429
H    1.1311    8.9807    -0.6552
H    1.5794    13.1037    -1.7032
H    -0.9115    8.8541    -2.0269
H    -0.4698    12.9793    -3.07
H    -1.7327    11.0499    -4.3012
