67

C    -39.107    -13.126    16.137
C    -40.15    -14.174    16.099
C    -40.796    -14.507    14.825
C    -40.42    -13.756    13.577
C    -39.327    -12.712    13.623
C    -38.697    -12.409    14.878
C    -37.691    -11.382    14.642
C    -38.723    -11.843    12.598
N    -37.719    -11.044    13.243
O    -36.966    -10.897    15.466
N    -41.094    -14.12    12.363
C    -41.547    -13.223    11.309
O    -41.389    -12.005    11.376
C    -42.24    -13.936    10.094
N    -42.743    -12.951    9.132
C    -41.603    -12.569    8.29
C    -41.842    -11.447    7.286
N    -42.731    -10.405    7.766
C    -43.96    -10.97    8.192
C    -43.753    -11.946    9.324
C    -42.396    -8.975    7.84
C    -41.07    -8.454    7.373
C    -40.011    -8.532    8.456
C    -39.714    -7.15    8.759
C    -39.986    -6.494    7.476
O    -41.21    -7.078    6.996
O    -43.205    -8.157    8.288
O    -38.914    -9.245    8.007
O    -38.364    -6.97    9.272
N    -40.095    -5.086    7.518
C    -39.822    -2.968    6.892
C    -39.559    -4.25    6.547
C    -40.699    -4.312    8.452
N    -40.531    -3.001    8.084
N    -38.622    -2.114    4.797
C    -38.347    -3.459    4.444
N    -38.819    -4.54    5.313
C    -39.328    -1.829    5.978
N    -39.576    -0.493    6.313
H    -38.634    -12.8721    17.0787
H    -40.4352    -14.6928    17.0071
H    -41.5423    -15.2921    14.7829
H    -39.4927    -11.1932    12.1561
H    -38.2641    -12.4567    11.8089
H    -37.1364    -10.3659    12.7949
H    -41.2716    -15.0946    12.2263
H    -43.0806    -14.5421    10.4628
H    -41.5092    -14.5884    9.5937
H    -43.2652    -13.56    8.5217
H    -41.2909    -13.4605    7.7262
H    -40.7871    -12.2523    8.9564
H    -42.2805    -11.884    6.3767
H    -40.8722    -10.9889    7.0418
H    -44.4245    -11.4969    7.3454
H    -44.6262    -10.1634    8.532
H    -43.4811    -11.3664    10.2185
H    -44.7085    -12.4624    9.4981
H    -40.7419    -9.0449    6.5051
H    -40.4119    -9.0318    9.3501
H    -40.411    -6.7715    9.5211
H    -39.168    -6.7392    6.7826
H    -38.2382    -9.238    8.6747
H    -37.74    -7.3232    8.6489
H    -41.2243    -4.6674    9.3373
H    -37.793    -3.6855    3.5402
H    -39.2429    0.2627    5.6975
H    -40.0916    -0.2654    7.1751
