36

N    7.41    -3.05    33.822
C    8.442    -2.167    33.706
N    8.267    -0.946    34.141
C    7.073    -0.603    34.655
C    6.057    -1.41    34.773
C    6.191    -2.68    34.365
C    5.037    -3.387    34.552
C    9.723    -2.448    33.194
C    10.769    -1.521    33.274
C    12.06    -1.881    32.825
C    4.002    -2.706    35.093
S    4.519    -1.058    35.42
C    9.961    -3.7    32.736
C    11.191    -4.071    32.285
C    12.225    -3.159    32.284
C    5.49    1.112    35.186
N    6.871    0.615    35.057
C    8.026    1.468    35.14
C    5.427    2.23    36.087
O    6.423    3.085    35.601
C    7.594    2.463    36.044
H    4.9556    -4.4386    34.2809
H    10.5896    -0.5314    33.6785
H    12.8924    -1.1904    32.8977
H    3.0113    -3.1115    35.2932
H    9.1537    -4.4234    32.7283
H    11.3569    -5.0809    31.9276
H    13.1814    -3.4377    31.8567
H    4.8512    0.3035    35.5709
H    5.127    1.4267    34.1965
H    8.2746    1.9001    34.1595
H    8.8974    0.9233    35.5323
H    5.6435    1.918    37.1194
H    4.4392    2.7126    36.0492
H    8.3846    3.221    36.1457
H    7.4034    1.9983    37.0226
