33

C    -11.693    -3.73    -32.141
C    -10.502    -4.412    -32.158
C    -9.419    -3.795    -32.616
C    -9.414    -2.537    -33.07
C    -10.529    -1.834    -33.086
C    -11.701    -2.417    -32.618
C    -7.402    -3.335    -33.267
C    -7.629    -5.66    -32.406
N    -8.182    -4.282    -32.757
C    -4.508    -0.215    -35.321
C    -3.849    0.889    -35.867
C    -4.437    2.175    -35.83
C    -5.678    2.391    -35.246
C    -6.338    1.286    -34.713
C    -5.755    -0.013    -34.748
C    -7.7    -1.106    -33.93
N    -6.346    -1.115    -34.271
O    -8.412    -0.093    -33.842
C    -8.169    -2.266    -33.465
H    -12.5987    -4.1954    -31.7692
H    -10.4465    -5.4351    -31.8042
H    -10.532    -0.8161    -33.4587
H    -12.6251    -1.8503    -32.6232
H    -6.3377    -3.418    -33.482
H    -8.4369    -6.287    -32.0008
H    -6.8337    -5.5551    -31.6533
H    -7.2178    -6.1314    -33.3108
H    -4.058    -1.2009    -35.3444
H    -2.875    0.7586    -36.3247
H    -3.9058    3.0122    -36.2682
H    -6.1165    3.3815    -35.2063
H    -7.3151    1.4175    -34.2625
H    -5.8126    -1.9532    -34.1577
