58

C    9.949    5.065    12.235
C    10.904    6.086    11.715
N    10.582    7.348    11.779
O    11.672    8.062    11.216
C    12.605    7.175    10.845
C    13.833    7.735    10.229
C    12.176    5.919    11.123
C    12.892    4.653    10.852
C    13.256    4.323    9.537
C    14.212    2.374    10.107
C    14.914    1.183    9.755
N    15.22    0.888    8.432
C    15.461    1.78    7.352
C    16.65    2.51    7.335
C    16.926    3.374    6.29
C    16.039    3.515    5.247
C    14.856    2.795    5.229
C    14.529    1.923    6.265
C    13.195    1.137    6.176
C    12.209    1.804    5.201
C    13.452    -0.281    5.669
C    12.456    1.029    7.514
C    15.229    0.29    10.8
C    14.857    0.638    12.106
N    14.221    1.725    12.469
C    13.886    2.619    11.483
C    13.204    3.793    11.867
C    15.962    -0.991    10.583
C    13.642    5.354    7.431
O    16.374    -1.306    9.473
O    16.145    -1.723    11.644
O    12.879    5.253    8.637
N    13.883    3.262    9.115
H    10.378    4.0608    12.1028
H    9.0008    5.1344    11.6817
H    9.7639    5.2468    13.304
H    14.519    6.9155    9.9686
H    14.3251    8.4123    10.9425
H    13.5655    8.2923    9.3192
H    15.2804    -0.1143    8.2026
H    17.3617    2.3996    8.1452
H    17.8479    3.9442    6.2928
H    16.268    4.1944    4.4339
H    14.1734    2.9119    4.3951
H    11.2776    1.2199    5.1646
H    12.6564    1.8435    4.1969
H    11.988    2.8254    5.5445
H    14.1555    -0.79    6.3444
H    13.882    -0.2365    4.6575
H    12.5037    -0.8376    5.6401
H    12.2564    2.0376    7.9051
H    13.0771    0.4736    8.2322
H    11.504    0.4984    7.3653
H    15.1211    -0.0599    12.8923
H    12.9447    3.9991    12.8991
H    13.222    6.1487    6.7969
H    13.6039    4.396    6.8917
H    14.6867    5.595    7.6771
