68

C    2.095    -19.281    6.624
C    1.02    -18.46    6.409
F    0.182    -18.752    5.216
C    0.741    -17.406    7.278
C    1.545    -17.175    8.379
C    2.651    -17.982    8.577
C    2.976    -19.016    7.67
N    4.082    -19.805    8.01
C    4.533    -20.859    7.296
O    4.316    -21.136    6.104
C    5.652    -21.635    8.097
C    6.123    -22.855    7.247
C    7.389    -23.13    6.777
N    5.308    -23.822    6.885
N    6.004    -24.692    6.228
C    7.292    -24.306    6.111
N    8.19    -25.138    5.438
C    9.571    -25.059    5.545
N    10.171    -23.985    6.166
C    11.477    -24.01    6.321
N    12.367    -24.905    5.885
C    11.844    -26.006    5.24
C    12.748    -27.032    4.857
C    10.429    -26.103    5.063
C    10.026    -27.281    4.397
C    10.925    -28.289    3.974
C    12.324    -28.153    4.165
O    13.202    -29.101    3.697
C    14.612    -28.841    3.868
C    15.391    -29.941    3.184
C    14.871    -31.285    3.65
N    15.533    -32.454    2.997
C    16.951    -32.568    3.403
C    17.04    -33.636    4.513
C    15.451    -32.649    1.527
C    14.304    -31.843    0.858
O    14.464    -32.26    -0.508
H    2.2603    -20.1372    5.9801
H    -0.1115    -16.7636    7.0893
H    1.3129    -16.3763    9.0742
H    3.2803    -17.8182    9.4443
H    4.5764    -19.5696    8.8468
H    5.2435    -21.9878    9.0555
H    6.5037    -20.965    8.2858
H    8.2846    -22.5255    6.9131
H    4.2996    -23.8764    7.0877
H    7.7989    -25.8617    4.8181
H    11.8916    -23.1827    6.8855
H    13.7968    -26.9347    5.1132
H    8.9695    -27.4211    4.1987
H    10.5374    -29.1811    3.4954
H    14.8584    -28.8237    4.9399
H    14.8674    -27.8706    3.4173
H    16.457    -29.8504    3.4398
H    15.2669    -29.8565    2.0943
H    13.7936    -31.3327    3.4335
H    15.0305    -31.3597    4.7358
H    15.0584    -33.2533    3.3867
H    17.3097    -31.6008    3.7849
H    17.5635    -32.872    2.5414
H    18.0861    -33.7429    4.8359
H    16.6756    -34.5988    4.1255
H    16.4218    -33.3276    5.369
H    15.2883    -33.7182    1.3261
H    16.4051    -32.333    1.0801
H    14.4475    -30.7584    0.9724
H    13.3194    -32.1268    1.258
H    13.809    -31.8325    -1.0472
