153

C    -1.595    1.393    -15.639
C    -2.895    1.678    -14.889
C    -2.72    2.608    -13.691
C    -1.734    3.745    -13.965
C    -0.483    3.227    -14.67
C    0.49    4.335    -14.951
O    -0.792    0.496    -14.863
O    -3.828    2.255    -15.797
O    -2.289    1.828    -12.569
O    -2.385    4.761    -14.746
O    -0.88    2.603    -15.887
O    0.336    5.014    -15.988
O    1.421    4.533    -14.14
S    -3.711    1.908    -17.286
O    -3.759    3.125    -18.049
O    -4.946    0.925    -17.719
O    -2.461    1.236    -17.523
C    -3.042    5.662    -13.833
C    -3.971    6.636    -14.555
C    -3.177    7.517    -15.51
C    -2.074    8.222    -14.724
C    -1.258    7.226    -13.906
C    -0.232    7.97    -13.054
N    -5.05    5.959    -15.256
O    -4.052    8.473    -16.124
O    -1.187    8.938    -15.595
O    -2.109    6.429    -13.075
O    -0.885    8.817    -12.109
S    -6.531    6.589    -15.276
O    -7.476    5.619    -14.795
O    -6.569    7.757    -14.436
O    -6.934    7.007    -16.805
S    -0.516    8.714    -10.623
O    -1.283    7.661    -10.021
O    -0.825    10.127    -9.859
O    0.885    8.417    -10.499
C    -1.051    10.277    -15.076
C    0.11    10.996    -15.772
C    -0.271    11.341    -17.211
C    -1.66    11.969    -17.287
C    -2.692    11.109    -16.573
C    -4.067    11.716    -16.673
O    0.495    12.193    -15.074
O    -0.235    10.152    -18.01
O    -1.622    13.261    -16.673
O    -2.277    11.003    -15.212
O    -4.386    12.323    -17.718
O    -4.845    11.587    -15.705
S    1.612    12.219    -14.001
O    1.443    13.364    -13.144
O    3.109    12.309    -14.668
O    1.539    11.018    -13.216
C    -1.267    14.21    -17.685
C    -0.514    15.379    -17.058
C    -1.443    16.165    -16.15
C    -2.553    16.683    -17.051
C    -3.308    15.492    -17.645
C    -4.44    15.938    -18.569
N    0.667    14.923    -16.356
O    -0.754    17.241    -15.509
O    -3.424    17.569    -16.333
O    -2.412    14.675    -18.404
O    -4.105    17.187    -19.184
S    2.104    15.157    -17.02
O    3.117    15.029    -16.012
O    2.319    14.18    -18.047
O    2.153    16.646    -17.699
S    -4.123    17.373    -20.711
O    -3.551    18.646    -21.052
O    -5.663    17.315    -21.26
O    -3.354    16.326    -21.317
C    -3.746    18.692    -17.186
C    -4.923    19.49    -16.604
C    -4.703    21.018    -16.689
C    -3.333    21.486    -16.182
C    -2.365    20.304    -16.211
C    -0.924    20.731    -16.131
O    -6.144    19.109    -17.279
O    -5.697    21.699    -15.913
O    -2.845    22.597    -16.964
O    -2.618    19.546    -17.391
O    -0.208    20.635    -17.15
O    -0.488    21.153    -15.037
S    -6.954    17.84    -16.908
O    -8.249    17.862    -17.54
O    -7.135    17.754    -15.284
O    -6.261    16.661    -17.345
C    -2.503    23.713    -16.105
C    -3.479    24.871    -16.283
C    -3.395    25.384    -17.709
C    -2.02    26.01    -17.83
C    -0.955    24.958    -17.547
C    0.393    25.684    -17.575
N    -4.843    24.555    -15.913
O    -4.412    26.353    -17.982
O    -1.824    26.579    -19.131
O    -1.185    24.258    -16.308
O    1.428    24.961    -16.912
S    -5.696    25.705    -15.196
O    -7.092    25.489    -15.431
O    -5.439    25.694    -13.781
O    -5.271    27.161    -15.809
S    2.903    25.291    -17.209
O    3.423    26.189    -16.212
O    3.02    25.992    -18.68
O    3.661    24.071    -17.191
H    -1.8344    0.9195    -16.6025
H    -3.2957    0.7215    -14.5222
H    -3.6966    3.0563    -13.4558
H    -1.4298    4.1841    -13.0034
H    0.0085    2.4836    -14.0252
H    -0.5736    0.9049    -14.0338
H    -1.4336    1.4575    -12.7522
H    -3.6424    5.0558    -13.1387
H    -4.4272    7.2863    -13.7941
H    -2.7219    6.892    -16.2925
H    -2.547    8.939    -14.0369
H    -0.7235    6.5592    -14.5985
H    0.4058    8.5824    -13.7084
H    0.3894    7.2392    -12.5158
H    -4.8708    5.0963    -15.7288
H    -4.7299    8.0155    -16.6072
H    -0.8158    10.2079    -14.0037
H    0.9735    10.3148    -15.7909
H    0.4613    12.0606    -17.6059
H    -1.9492    12.0736    -18.3431
H    -2.7145    10.1082    -17.029
H    -0.8791    9.5339    -17.6852
H    -0.5972    13.7113    -18.401
H    -0.1851    16.0474    -17.8674
H    -1.8632    15.5026    -15.3789
H    -2.0979    17.2504    -17.8762
H    -3.7319    14.8994    -16.8209
H    -5.3635    16.0562    -17.9833
H    -4.5951    15.1778    -19.3487
H    0.586    14.4684    -15.469
H    -1.3673    17.7381    -14.9805
H    -4.0517    18.2952    -18.1653
H    -5.0192    19.225    -15.5408
H    -4.8016    21.3141    -17.7438
H    -3.4401    21.8232    -15.1405
H    -2.5726    19.6684    -15.3376
H    -6.5613    21.4311    -16.2022
H    -2.5662    23.3529    -15.0675
H    -3.1483    25.6807    -15.6159
H    -3.4969    24.5482    -18.4168
H    -1.9325    26.8122    -17.0825
H    -0.9709    24.2128    -18.356
H    0.2759    26.6603    -17.0819
H    0.6878    25.836    -18.6238
H    -5.2365    23.6545    -16.0979
H    -4.3418    27.0679    -17.3603
H    -2.4941    27.2324    -19.2939
