19

O    17.086    0.381    14.075
C    16.477    0.932    14.951
N    15.684    0.321    15.907
C    16.374    2.424    14.842
C    16.926    3.298    13.949
C    16.551    4.613    14.111
C    15.59    4.928    15.064
N    15.273    6.25    15.135
C    15.068    4.066    15.971
C    15.536    2.838    15.779
S    15.033    1.526    16.759
O    13.559    1.533    16.751
O    15.662    1.615    18.064
H    15.5443    -0.6601    16.0411
H    17.6092    2.9797    13.1699
H    16.999    5.3913    13.5038
H    14.5697    6.5752    15.8136
H    15.7365    6.925    14.5102
H    14.364    4.3418    16.7478
