59

C    -3.625    14.381    1.23
N    -3.583    15.574    0.39
O    -3.727    19.178    1.078
C    -4.797    16.369    0.563
N    -6.142    24.157    0.358
O    -3.478    23.96    0.426
C    -4.81    17.566    -0.387
N    -7.708    25.71    -0.436
C    -3.574    18.42    -0.181
N    -7.852    23.363    -0.929
C    -2.304    17.595    -0.234
N    -9.923    20.286    -2.934
C    -2.411    16.391    0.708
N    -13.12    21.504    -4.395
C    -4.328    20.408    0.907
C    -5.716    20.498    0.889
C    -6.327    21.727    0.72
C    -5.558    22.879    0.539
C    -4.146    22.774    0.575
C    -3.537    21.542    0.777
C    -2.061    23.964    0.614
C    -7.274    24.436    -0.355
C    -8.821    25.893    -1.171
C    -9.495    24.862    -1.799
C    -8.961    23.588    -1.649
C    -9.584    22.407    -2.265
C    -9.071    21.133    -2.278
C    -11.025    20.991    -3.368
C    -10.86    22.334    -2.976
C    -11.852    23.252    -3.31
C    -12.95    22.782    -4.019
C    -12.164    20.618    -4.076
H    -4.5123    13.7834    0.974
H    -3.6763    14.6788    2.2877
H    -2.7182    13.7817    1.0614
H    -3.5218    15.2838    -0.5734
H    -4.8436    16.7328    1.6
H    -5.6731    15.7368    0.3564
H    -5.6674    24.9531    0.8074
H    -5.7063    18.1732    -0.1922
H    -4.831    17.2039    -1.4255
H    -3.5218    19.1469    -1.0049
H    -1.4523    18.2202    0.072
H    -2.1461    17.2379    -1.2624
H    -9.7652    19.2788    -3.0805
H    -1.5055    15.7746    0.607
H    -2.4952    16.7519    1.7437
H    -6.3187    19.6048    1.0074
H    -7.4087    21.7968    0.728
H    -2.457    21.4666    0.8325
H    -1.6738    24.9822    0.4613
H    -1.593    23.2813    -0.1105
H    -1.8257    23.6317    1.6359
H    -9.2085    26.9    -1.2758
H    -10.3939    25.0385    -2.3786
H    -8.1227    20.839    -1.8307
H    -11.7704    24.2953    -3.0271
H    -13.7216    23.4947    -4.2869
H    -12.2819    19.5836    -4.3779
