54

C    -17.359    11.688    -4.727
O    -17.625    12.856    -4.256
O    -18.296    10.942    -5.121
C    -15.963    11.189    -4.861
C    -15.064    12.298    -5.209
O    -15.4    12.493    -6.595
C    -13.621    11.917    -5.18
O    -12.879    12.081    -4.174
N    -12.987    11.328    -6.291
C    -11.543    11.002    -6.222
C    -11.271    9.575    -6.627
C    -11.913    8.528    -5.72
C    -11.542    7.115    -6.088
C    -11.521    8.767    -4.249
C    -10.736    12.011    -7.042
O    -11.172    13.145    -7.273
N    -9.448    11.679    -7.531
C    -8.665    12.683    -8.303
C    -7.861    13.708    -7.501
C    -8.717    14.752    -6.769
C    -8.143    16.066    -6.249
N    -7.15    16.021    -5.178
C    -6.074    17.042    -5.146
N    -6.056    17.985    -6.093
N    -5.155    17.008    -4.203
H    -15.9233    10.4259    -5.6523
H    -15.6416    10.7452    -3.9072
H    -15.2472    13.1858    -4.5859
H    -14.8756    13.2011    -6.9502
H    -13.508    11.1309    -7.1215
H    -11.2292    11.1051    -5.1728
H    -10.1825    9.4165    -6.6183
H    -11.6548    9.4279    -7.6473
H    -13.0043    8.63    -5.8133
H    -12.036    6.4148    -5.3983
H    -10.4513    6.9918    -6.0166
H    -11.8679    6.9066    -7.1177
H    -11.7848    9.7955    -3.9617
H    -10.4375    8.6195    -4.1296
H    -12.0609    8.0567    -3.6056
H    -9.0654    10.7715    -7.3578
H    -9.3723    13.2389    -8.936
H    -7.9573    12.1323    -8.9401
H    -7.1901    14.2374    -8.1935
H    -7.2631    13.1672    -6.7526
H    -9.1435    14.2383    -5.8948
H    -9.5248    15.0257    -7.4637
H    -8.9885    16.6664    -5.882
H    -7.6748    16.576    -7.1038
H    -7.1964    15.2896    -4.4543
H    -5.3182    18.7037    -6.0901
H    -6.7799    17.993    -6.8257
H    -5.1847    16.2738    -3.4812
H    -4.4067    17.7156    -4.1874
