42

O    14.845    36.587    -7.94
P    15.058    35.328    -7.083
O    16.44    35.4    -6.424
O    14.078    35.15    -5.918
C    14.931    33.842    -8.151
P    16.154    33.855    -9.497
O    17.557    33.708    -8.773
O    15.972    32.58    -10.342
O    16.061    35.073    -10.399
N    15.178    32.683    -7.253
C    14.894    31.397    -7.564
C    15.694    30.34    -7.072
N    13.9    31.147    -8.495
C    13.639    29.868    -8.893
C    14.389    28.836    -8.36
C    15.433    29.041    -7.461
C    16.202    27.897    -6.968
C    16.198    26.736    -7.619
C    16.922    25.647    -7.095
C    16.96    28.009    -5.798
C    17.7    26.92    -5.245
C    17.63    25.704    -5.901
O    18.285    24.519    -5.498
C    19.173    24.62    -4.483
C    20.407    25.341    -4.951
C    19.627    23.153    -4.323
H    13.9222    33.7799    -8.5852
H    15.5942    32.8721    -6.33
H    16.5108    30.549    -6.3906
H    12.8566    29.6645    -9.6151
H    14.1536    27.82    -8.6555
H    15.6427    26.6294    -8.5439
H    16.9269    24.717    -7.6519
H    16.987    28.9652    -5.2881
H    18.2935    27.0415    -4.3461
H    18.7424    25.0641    -3.5734
H    21.1235    25.4188    -4.12
H    20.1341    26.3494    -5.2954
H    20.8661    24.7822    -5.7798
H    20.3676    23.0847    -3.5125
H    20.0792    22.8045    -5.2632
H    18.7577    22.5246    -4.0792
