29

C    21.884    0.156    -7.238
C    22.966    -0.712    -7.151
C    23.346    -1.215    -5.919
C    22.629    -0.835    -4.797
C    22.989    -1.326    -3.547
C    22.273    -0.947    -2.418
C    21.196    -0.078    -2.543
C    20.839    0.411    -3.794
C    21.552    0.036    -4.927
O    21.168    0.539    -6.138
O    24.301    -1.984    -5.823
O    24.044    -2.176    -3.429
O    20.492    0.295    -1.44
C    21.297    2.013    -8.653
C    20.93    2.508    -9.899
C    20.782    1.641    -10.976
C    21.002    0.279    -10.806
C    21.369    -0.216    -9.56
C    21.517    0.651    -8.484
H    23.5128    -0.9953    -8.0491
H    22.5538    -1.3281    -1.4428
H    19.9987    1.0895    -3.8869
H    24.4208    -2.3323    -4.287
H    20.8625    -0.1246    -0.6723
H    21.4116    2.689    -7.8134
H    20.7591    3.5703    -10.0311
H    20.4953    2.027    -11.9475
H    20.8873    -0.3973    -11.6454
H    21.5398    -1.2783    -9.4276
