23

C    -70.139    33.371    -45.747
C    -70.356    33.411    -47.12
C    -71.488    34.03    -47.635
C    -71.708    34.072    -49.112
C    -72.414    34.606    -46.77
C    -72.202    34.561    -45.395
C    -71.063    33.944    -44.878
C    -70.842    33.891    -43.397
N    -70.205    32.909    -42.711
S    -71.374    35.035    -42.265
C    -70.766    34.274    -40.875
C    -70.153    33.102    -41.35
C    -69.486    32.153    -40.424
O    -69.913    32.025    -39.266
O    -68.48    31.502    -40.772
H    -69.2493    32.8931    -45.3531
H    -69.6375    32.9564    -47.7925
H    -72.6493    34.5988    -49.3276
H    -71.7642    33.0457    -49.5037
H    -70.8726    34.6025    -49.5922
H    -73.2995    35.0892    -47.1668
H    -72.9257    35.0077    -44.7228
H    -70.8355    34.6176    -39.844
