36

C    22.045    8.241    -8.905
C    20.912    7.295    -9.311
C    20.989    7.144    -10.812
C    22.153    7.979    -11.318
C    23.002    8.255    -10.107
N    23.607    9.6    -10.27
C    24.927    9.732    -10.489
O    25.689    8.77    -10.638
C    25.582    11.112    -10.62
O    24.47    12.025    -10.816
C    24.668    13.369    -10.606
C    25.943    13.955    -10.583
C    26.032    15.358    -10.367
C    24.876    16.125    -10.181
C    23.602    15.517    -10.21
C    23.528    14.135    -10.425
P    21.83    13.405    -10.407
O    21.83    12.17    -9.46
O    21.621    12.954    -11.881
O    20.833    14.452    -9.903
H    22.558    7.8666    -8.0069
H    21.6544    9.2507    -8.7102
H    19.9401    7.7217    -9.0224
H    21.0421    6.317    -8.8245
H    20.0526    7.496    -11.2695
H    21.1493    6.0871    -11.0715
H    21.7898    8.9203    -11.7561
H    22.7278    7.4213    -12.0721
H    23.7872    7.4938    -9.9888
H    23.0288    10.4142    -10.2166
H    26.2636    11.1386    -11.483
H    26.1379    11.367    -9.7057
H    26.8347    13.3554    -10.7258
H    27.0039    15.8376    -10.3462
H    24.9594    17.1927    -10.0136
H    22.7027    16.1057    -10.0692
