33

O    20.961    14.769    -9.822
P    21.96    13.7    -10.381
O    21.614    13.241    -11.806
O    21.934    12.553    -9.4
C    23.649    14.489    -10.424
C    23.783    15.845    -10.088
C    25.094    16.386    -10.136
C    26.216    15.61    -10.484
C    26.053    14.235    -10.801
C    24.746    13.714    -10.763
O    24.49    12.395    -11.079
C    25.52    11.408    -10.883
C    24.837    10.039    -10.641
O    25.499    9.002    -10.733
N    23.526    10.116    -10.288
C    22.779    9.04    -9.97
C    22.5    8.016    -10.877
C    21.663    6.976    -10.428
Cl    21.361    5.71    -11.509
C    21.091    6.911    -9.152
C    21.364    7.935    -8.271
C    22.198    8.987    -8.697
H    22.928    16.4488    -9.806
H    25.2366    17.4335    -9.8963
H    27.2016    16.0606    -10.51
H    26.901    13.6121    -11.0617
H    26.1333    11.6777    -10.0106
H    26.1583    11.353    -11.7771
H    23.0938    11.0174    -10.263
H    22.9089    8.0211    -11.8809
H    20.4539    6.0819    -8.8661
H    20.9456    7.9309    -7.271
H    22.4003    9.7962    -8.0047
