29

B    26.31    4.964    16.297
O    25.341    4.07    16.93
O    26.5    6.089    17.225
C    25.72    5.432    14.917
N    24.258    5.555    14.878
S    23.472    6.006    13.545
O    24.095    7.194    13.002
O    22.128    6.305    13.876
C    23.528    4.758    12.371
C    22.738    4.99    11.11
C    23.206    5.899    10.158
C    22.453    6.082    8.992
C    21.267    5.392    8.756
C    20.839    4.503    9.725
C    19.556    3.703    9.513
O    19.099    3.03    10.46
O    18.994    3.704    8.385
C    21.572    4.301    10.882
H    25.6887    3.7679    17.7723
H    26.8313    5.7585    18.0632
H    25.9918    4.6721    14.1843
H    26.1249    6.425    14.7218
H    23.7224    5.3485    15.7211
H    23.0925    3.8777    12.8437
H    24.5709    4.6769    12.0645
H    24.1322    6.4508    10.3186
H    22.8077    6.7896    8.2426
H    20.6963    5.5469    7.8404
H    21.2184    3.5843    11.6232
