41

C    27.325    13.822    -6.107
O    26.578    14.08    -4.855
C    26.229    15.373    -4.568
C    26.508    16.392    -5.478
C    26.118    17.704    -5.182
C    25.488    18.028    -4.004
C    25.232    17.033    -3.079
C    25.552    15.714    -3.38
S    25.212    14.498    -2.169
O    24.425    13.374    -2.756
O    24.559    15.163    -1.013
N    26.717    13.977    -1.762
C    27.749    14.806    -1.487
C    27.682    15.743    -0.445
C    28.776    16.563    -0.128
C    28.582    17.548    1.011
N    29.743    18.457    1.177
C    29.67    19.555    2.194
C    30.91    18.304    0.44
O    31.793    19.121    0.642
N    31.05    17.297    -0.57
C    29.953    16.452    -0.869
C    30.023    15.536    -1.929
C    28.94    14.702    -2.217
H    26.7289    14.1503    -6.9585
H    28.266    14.3718    -6.087
H    27.5281    12.7546    -6.194
H    27.025    16.1693    -6.4114
H    26.3201    18.492    -5.9075
H    25.1936    19.0578    -3.8015
H    24.7813    17.2815    -2.1181
H    26.8816    12.9715    -1.7142
H    26.761    15.8361    0.1304
H    28.4652    16.9785    1.933
H    27.7067    18.1569    0.7847
H    28.8377    20.2165    1.9535
H    29.5182    19.1229    3.1831
H    30.6011    20.1215    2.1826
H    31.9327    17.1895    -1.0697
H    30.9288    15.4745    -2.5322
H    29.0223    13.9648    -3.0157
