45

C    41.383    -14.604    7.148
C    40.696    -15.805    7.161
Cl    41.548    -17.292    7.147
C    39.32    -15.835    7.17
C    38.613    -14.646    7.168
Cl    36.889    -14.769    7.178
C    39.282    -13.421    7.163
C    40.678    -13.413    7.136
C    41.468    -12.104    7.138
N    41.472    -11.679    8.533
C    42.864    -11.824    9.017
C    42.936    -11.197    10.421
C    43.816    -12.014    11.374
N    43.008    -13.002    12.108
C    43.538    -13.875    12.982
C    44.905    -13.905    13.304
C    45.403    -14.84    14.224
O    46.605    -14.879    14.501
C    44.53    -15.753    14.824
C    45.001    -16.7    15.736
C    44.112    -17.607    16.328
C    42.751    -17.591    16.025
C    42.29    -16.643    15.115
C    43.167    -15.733    14.514
N    42.675    -14.798    13.596
H    42.467    -14.5959    7.1472
H    38.7944    -16.783    7.1786
H    38.7264    -12.4903    7.1798
H    40.9751    -11.352    6.5044
H    42.4947    -12.2695    6.7796
H    40.8531    -12.261    9.0754
H    41.1777    -10.7176    8.6043
H    43.5538    -11.3022    8.3374
H    43.1346    -12.889    9.0675
H    41.9193    -11.1416    10.8371
H    43.3529    -10.1827    10.3354
H    44.2972    -11.3349    12.0932
H    44.588    -12.5391    10.7923
H    45.1567    -12.91    13.6996
H    45.4465    -14.0725    12.3613
H    46.0552    -16.7334    15.9861
H    44.4899    -18.3358    17.0358
H    42.07    -18.2976    16.4855
H    41.235    -16.6094    14.8682
H    41.6705    -14.7865    13.3684
