40

C    45.824    53.269    9.259
N    44.652    52.631    9.884
C    43.519    52.821    8.975
C    44.952    51.204    10.134
C    43.985    50.548    11.145
O    44.46    49.189    11.298
C    44.044    48.773    12.618
N    44.765    47.55    13.077
C    44.213    46.32    13.079
N    42.987    45.889    12.705
C    42.67    44.513    12.812
N    43.635    43.623    13.316
C    44.842    44.129    13.674
N    45.806    43.31    14.132
C    45.143    45.453    13.555
N    46.266    46.175    13.831
C    46.03    47.462    13.534
C    44.439    49.932    13.458
O    43.608    49.845    14.644
C    44.103    51.142    12.56
O    42.804    51.603    12.929
H    45.6066    54.3307    9.0707
H    46.0507    52.7668    8.307
H    46.6896    53.1859    9.9327
H    44.4477    53.0779    10.7641
H    42.6203    52.3568    9.4073
H    43.7438    52.3519    8.0058
H    43.3421    53.8969    8.8295
H    45.976    51.1256    10.528
H    44.8833    50.6598    9.1805
H    42.948    50.5963    10.7814
H    42.9586    48.598    12.6539
H    41.6946    44.1499    12.5089
H    46.7222    43.6944    14.4037
H    45.6279    42.2986    14.211
H    46.7333    48.2864    13.6425
H    45.5053    49.9214    13.7279
H    42.6932    49.8918    14.3924
H    44.8583    51.9391    12.6244
H    42.1724    50.9057    12.7971
