26

C    28.731    8.124    39.588
N    29.626    8.826    38.749
C    30.567    8.151    37.962
C    30.638    6.733    38.008
C    29.743    6.007    38.858
C    28.776    6.714    39.659
C    29.843    4.461    38.9
O    30.372    4.011    40.177
C    31.794    4.242    40.282
C    27.789    5.966    40.582
O    26.923    6.89    41.271
C    31.498    8.962    37.08
O    31.57    6.048    37.23
H    28.0061    8.6707    40.1802
H    30.5097    4.121    38.0939
H    28.8412    4.031    38.7533
H    32.1517    3.8881    41.2602
H    31.9989    5.3183    40.1842
H    32.3144    3.6955    39.4817
H    28.3588    5.3864    41.3232
H    27.1762    5.2833    39.9751
H    26.327    6.4063    41.8308
H    32.1687    8.2831    36.5329
H    32.0951    9.6423    37.705
H    30.9052    9.5485    36.3626
H    32.1455    5.5466    37.7955
