50

C    10.84    27.048    25.136
C    13.601    23.994    23.426
C    8.046    25.175    22.785
C    7.178    24.31    21.893
C    7.557    24.629    20.442
C    6.545    24.085    19.436
C    5.112    24.501    19.785
C    4.736    24.076    21.204
C    5.724    24.651    22.218
C    7.707    30.403    26.756
C    6.966    30.457    25.573
C    7.413    29.712    24.48
C    8.569    28.933    24.562
N    4.441    30.505    25.051
N    9.936    26.323    24.42
C    10.268    25.239    23.674
O    9.316    24.563    22.971
C    11.585    24.828    23.637
N    12.3    23.848    23.053
N    13.758    25.066    24.254
C    12.539    25.613    24.419
N    12.156    26.695    25.138
N    10.446    28.13    25.87
C    9.304    28.871    25.743
C    8.86    29.618    26.835
S    5.631    31.359    25.452
O    5.855    32.403    24.425
O    5.325    32.022    26.749
H    14.4106    23.3401    23.1051
H    7.555    25.2986    23.7615
H    8.1821    26.1605    22.3156
H    7.3583    23.2434    22.0925
H    8.5398    24.1833    20.2287
H    7.6166    25.7212    20.3257
H    6.6049    22.9867    19.4299
H    6.794    24.4714    18.4367
H    4.4189    24.027    19.0744
H    5.0277    25.5949    19.7053
H    4.7503    22.978    21.2682
H    3.7255    24.4437    21.4356
H    5.6151    25.7455    22.2319
H    5.4824    24.2458    23.2117
H    7.385    30.9744    27.6191
H    6.8532    29.7388    23.5521
H    8.898    28.3699    23.6961
H    3.5406    30.9246    24.936
H    4.5578    29.5231    24.9019
H    14.6399    25.3942    24.6728
H    11.0924    28.426    26.6153
H    9.4205    29.5886    27.7624
