147

N    -9.208    5.103    -1.947
C    -9.43    6.298    -2.749
C    -10.658    6.19    -3.675
O    -10.781    5.204    -4.412
C    -8.132    6.416    -3.58
C    -7.494    5.071    -3.494
C    -7.841    4.59    -2.116
N    -11.532    7.214    -3.65
C    -12.546    7.385    -4.697
C    -11.914    7.578    -6.085
O    -10.765    7.991    -6.243
C    -13.285    8.671    -4.284
C    -12.818    9.041    -2.916
C    -11.498    8.347    -2.696
N    -12.693    7.334    -7.107
C    -12.155    7.364    -8.45
C    -12.615    8.533    -9.28
O    -13.73    9.026    -9.152
C    -12.65    6.147    -9.176
C    -12.413    4.871    -8.477
C    -11.164    4.584    -7.929
C    -13.435    3.941    -8.359
C    -10.926    3.382    -7.273
C    -13.23    2.739    -7.713
C    -11.977    2.459    -7.173
O    -11.792    1.252    -6.523
N    -11.78    8.89    -10.235
C    -12.023    10.072    -11.044
C    -12.37    9.683    -12.48
O    -11.696    8.834    -13.049
C    -10.751    10.893    -11.024
C    -10.516    11.585    -9.702
C    -9.171    12.308    -9.804
C    -11.643    12.597    -9.545
N    -13.358    10.356    -13.09
C    -13.662    10.147    -14.507
C    -12.565    10.681    -15.471
O    -11.792    11.565    -15.112
C    -14.936    10.971    -14.688
C    -14.753    12.116    -13.752
C    -14.173    11.466    -12.533
N    -12.501    10.125    -16.676
C    -11.563    10.632    -17.666
C    -12.219    11.82    -18.361
O    -13.414    12.048    -18.177
C    -11.143    9.549    -18.662
C    -12.313    8.984    -19.443
C    -11.852    8.463    -20.781
N    -13.012    7.914    -21.473
C    -13.031    7.501    -22.731
N    -11.941    7.552    -23.478
N    -14.154    7.024    -23.235
N    -11.426    12.601    -19.113
C    -11.97    13.647    -19.992
C    -12.912    13.043    -21.043
O    -12.611    11.968    -21.576
C    -10.704    14.25    -20.633
C    -9.666    14.097    -19.543
C    -9.979    12.768    -18.895
N    -14.049    13.705    -21.307
C    -15.063    13.177    -22.238
C    -14.512    13.013    -23.656
O    -13.988    13.999    -24.2398
C    -16.3    14.081    -22.284
C    -17.411    13.704    -21.324
C    -18.245    14.934    -21.025
N    -19.267    14.727    -19.997
C    -19.146    15.071    -18.713
N    -18.028    15.627    -18.272
N    -20.145    14.854    -17.862
O    -14.5819    11.8972    -24.2371
H    -9.8628    4.3912    -2.2309
H    -9.3561    5.3277    -0.9756
H    -9.5552    7.1746    -2.0964
H    -7.4702    7.1854    -3.1559
H    -8.3639    6.6675    -4.6254
H    -6.4037    5.1471    -3.6181
H    -7.9038    4.3946    -4.2585
H    -7.8165    3.4918    -2.0583
H    -7.1599    5.0121    -1.3624
H    -13.2296    6.5235    -4.7204
H    -14.3705    8.4931    -4.2743
H    -13.0525    9.4807    -4.9913
H    -13.5492    8.7081    -2.1647
H    -12.688    10.1309    -2.8435
H    -10.6584    9.0219    -2.9187
H    -11.4131    7.9853    -1.6607
H    -13.6602    7.1268    -6.9603
H    -11.0565    7.3647    -8.3938
H    -12.1445    6.1015    -10.1519
H    -13.7337    6.2571    -9.3291
H    -10.3644    5.3108    -8.0159
H    -14.4091    4.1615    -8.7804
H    -9.9524    3.1635    -6.8493
H    -14.0363    2.0196    -7.6266
H    -10.8973    1.1969    -6.2083
H    -10.9643    8.3373    -10.4059
H    -12.8525    10.6535    -10.6152
H    -10.8143    11.6568    -11.813
H    -9.9001    10.2261    -11.2266
H    -10.5114    10.8692    -8.8667
H    -8.9611    12.8272    -8.8572
H    -9.2099    13.0409    -10.6233
H    -8.3752    11.5755    -10.0046
H    -12.6042    12.067    -9.4727
H    -11.6584    13.2669    -10.4173
H    -11.4806    13.188    -8.6316
H    -13.8372    9.0806    -14.7123
H    -15.8253    10.3824    -14.4184
H    -15.0306    11.324    -15.7255
H    -15.7153    12.5973    -13.5233
H    -14.0604    12.8614    -14.1699
H    -13.5443    12.1727    -11.9715
H    -14.9672    11.0805    -11.8769
H    -13.0989    9.3563    -16.9031
H    -10.6585    10.9825    -17.1474
H    -10.6617    8.7296    -18.1081
H    -10.4239    9.9839    -19.3717
H    -13.0595    9.7763    -19.6007
H    -12.7667    8.1613    -18.8709
H    -11.0969    7.6764    -20.6356
H    -11.4181    9.2831    -21.3719
H    -13.8897    7.8414    -20.9389
H    -11.9706    7.2273    -24.455
H    -11.0624    7.9165    -23.0828
H    -15.0033    6.984    -22.6537
H    -14.1809    6.6918    -24.2096
H    -12.5139    14.4068    -19.4116
H    -10.8561    15.3091    -20.8885
H    -10.4142    13.6929    -21.5361
H    -9.7494    14.914    -18.8112
H    -8.6528    14.0901    -19.9711
H    -9.4143    11.9555    -19.3755
H    -9.745    12.7916    -17.8204
H    -14.2136    14.5835    -20.8585
H    -15.3711    12.1864    -21.8723
H    -16.7073    14.0488    -23.3053
H    -15.9807    15.107    -22.0488
H    -16.9761    13.3177    -20.3904
H    -18.0458    12.9303    -21.7805
H    -18.7466    15.2455    -21.9531
H    -17.571    15.7345    -20.686
H    -20.1487    14.2808    -20.2876
H    -17.9403    15.8904    -17.2801
H    -17.2461    15.7961    -18.9209
H    -21.0193    14.4222    -18.1936
H    -20.0442    15.1178    -16.8715
