101

N    -9.419    32.339    -0.947
C    -10.794    31.889    -0.857
C    -11.054    30.947    0.305
O    -10.56    29.819    0.33
N    -11.829    31.417    1.276
C    -12.302    30.565    2.362
C    -13.639    31.088    2.864
O    -13.873    32.296    2.883
C    -11.287    30.507    3.507
O    -11.169    31.762    4.155
N    -14.518    30.181    3.271
C    -15.86    30.577    3.673
C    -16.378    29.758    4.853
O    -16.042    28.585    5.003
C    -16.813    30.463    2.483
O    -16.919    29.12    2.043
N    -17.203    30.382    5.688
C    -17.731    29.719    6.866
C    -19.217    29.428    6.791
O    -19.866    29.69    5.776
N    -19.754    28.878    7.876
C    -21.178    28.579    7.973
C    -21.634    28.575    9.429
O    -20.897    28.141    10.315
C    -21.493    27.232    7.317
O    -20.524    26.259    7.666
N    -22.848    29.066    9.666
C    -23.413    29.115    11.002
C    -24.931    29.158    10.995
O    -25.557    29.151    9.936
N    -25.522    29.204    12.185
C    -26.975    29.221    12.327
C    -27.455    30.477    13.047
O    -26.744    31.038    13.879
C    -27.449    27.98    13.089
O    -28.842    28.034    13.347
N    -28.665    30.917    12.721
C    -29.269    32.058    13.396
C    -30.435    31.64    14.283
O    -30.907    32.418    15.111
C    -29.72    33.117    12.389
C    -28.555    33.803    11.707
O    -27.431    33.789    12.21
N    -28.818    34.415    10.557
N    -30.895    30.407    14.101
C    -32.024    29.891    14.853
C    -33.355    30.377    14.313
O    -34.305    29.604    14.186
N    -33.422    31.667    13.999
C    -34.614    32.263    13.411
C    -34.351    32.685    11.969
O    -35.2217    33.316    11.3124
C    -35.074    33.466    14.236
C    -35.789    33.062    15.51
O    -35.84    31.85    15.808
O    -36.298    33.957    16.217
O    -33.2496    32.3991    11.4279
H    -9.319    32.9577    -1.7365
H    -8.812    31.543    -1.0649
H    -9.1699    32.8293    -0.1023
H    -11.0503    31.3672    -1.7908
H    -11.4409    32.7709    -0.7403
H    -12.0955    32.3807    1.2624
H    -12.4438    29.5461    1.9725
H    -10.3057    30.2195    3.1017
H    -11.6158    29.7551    4.2395
H    -10.5343    31.6954    4.8586
H    -14.2561    29.2164    3.3019
H    -15.8227    31.6309    3.9857
H    -16.4332    31.0828    1.6575
H    -17.8082    30.8224    2.7836
H    -17.2503    28.581    2.7517
H    -17.4654    31.3285    5.5004
H    -17.5477    30.3638    7.7381
H    -17.1973    28.766    6.9959
H    -19.1612    28.6621    8.6519
H    -21.7326    29.364    7.4381
H    -21.5001    27.3569    6.2241
H    -22.4831    26.8906    7.6535
H    -20.5167    26.1451    8.6091
H    -23.3882    29.4123    8.899
H    -23.0378    30.0156    11.51
H    -23.0889    28.2206    11.5542
H    -24.9541    29.2277    13.0078
H    -27.4194    29.2068    11.3209
H    -26.9096    27.9194    14.0458
H    -27.2306    27.0852    12.4876
H    -29.106    27.2531    13.8194
H    -29.1735    30.4541    11.995
H    -28.5007    32.5091    14.0411
H    -30.3154    33.8757    12.918
H    -30.3418    32.6322    11.622
H    -28.0871    34.8848    10.0621
H    -29.7468    34.4057    10.1866
H    -30.4506    29.8175    13.4265
H    -31.9285    30.2161    15.8995
H    -32.0053    28.7921    14.8072
H    -32.6269    32.2481    14.1724
H    -35.4161    31.5103    13.4134
H    -35.7595    34.0709    13.6243
H    -34.1926    34.0677    14.5027
