47

O    -5.216    -22.211    150.648
C    -4.098    -22.599    150.899
N    -3.446    -23.445    150.024
C    -3.965    -23.947    148.743
C    -2.934    -23.759    147.629
O    -1.693    -23.238    148.114
N    -3.416    -22.268    152.062
C    -3.857    -21.378    153.086
C    -5.132    -20.9    153.339
C    -5.004    -20.028    154.394
C    -6.088    -19.205    155.083
C    -6.811    -18.33    154.048
C    -7.115    -20.117    155.756
C    -5.426    -18.298    156.127
N    -3.708    -20.008    154.735
N    -3.054    -20.791    153.996
C    -1.593    -20.911    154.184
C    -1.088    -21.048    155.476
C    -0.701    -20.816    153.107
C    0.667    -20.89    153.317
C    1.163    -21.046    154.613
C    2.654    -21.138    154.863
C    0.279    -21.119    155.688
H    -2.5296    -23.7463    150.2877
H    -4.8808    -23.3955    148.4838
H    -4.1974    -25.0175    148.8425
H    -3.3428    -23.0605    146.884
H    -2.7461    -24.7332    147.154
H    -1.0874    -23.139    147.3888
H    -2.5231    -22.698    152.1958
H    -6.0478    -21.1612    152.8107
H    -7.5915    -17.7385    154.5491
H    -7.272    -18.9721    153.283
H    -6.0874    -17.6528    153.5708
H    -6.6107    -20.7502    156.5007
H    -7.5932    -20.7536    154.997
H    -7.8797    -19.5031    156.2543
H    -4.6899    -17.6468    155.6329
H    -4.9195    -18.917    156.8821
H    -6.1936    -17.6794    156.6149
H    -1.7681    -21.0992    156.3186
H    -1.0842    -20.6836    152.1017
H    1.35    -20.827    152.4776
H    2.8383    -21.2576    155.9408
H    3.1429    -20.2191    154.5072
H    3.0637    -22.0041    154.3227
H    0.6632    -21.2319    156.6953
