56

O    -4.815    -22.349    153.923
C    -3.715    -22.79    154.139
N    -3.082    -23.599    153.194
C    -3.646    -23.968    151.879
C    -5.057    -24.555    151.85
C    -5.29    -25.12    150.438
C    -6.782    -25.161    150.083
C    -6.946    -25.156    148.565
O    -8.197    -25.742    148.246
N    -3.067    -22.561    155.355
C    -3.503    -21.701    156.41
N    -2.685    -21.065    157.277
N    -3.323    -20.3    158.031
C    -4.627    -20.365    157.731
C    -5.747    -19.6    158.447
C    -6.547    -20.617    159.289
C    -6.676    -18.964    157.381
C    -5.171    -18.514    159.394
C    -4.788    -21.262    156.687
C    -1.224    -21.158    157.381
C    -0.447    -21.052    156.228
C    0.938    -21.116    156.297
C    1.555    -21.259    157.524
C    3.058    -21.318    157.569
C    0.784    -21.345    158.687
C    -0.606    -21.286    158.618
H    -2.177    -23.9565    153.4247
H    -2.9716    -24.7117    151.4294
H    -3.6555    -23.0594    151.259
H    -5.7958    -23.7696    152.0675
H    -5.1456    -25.3585    152.596
H    -4.8841    -26.1413    150.3911
H    -4.7673    -24.4838    149.7086
H    -7.2842    -24.2798    150.5086
H    -7.2322    -26.0753    150.4971
H    -6.1351    -25.7375    148.1022
H    -6.9148    -24.1217    148.1917
H    -8.22    -26.6339    148.5723
H    -2.2075    -23.0503    155.503
H    -7.3603    -20.0971    159.8165
H    -5.8789    -21.0918    160.0226
H    -6.9719    -21.3867    158.6279
H    -6.1046    -18.2397    156.7819
H    -7.5097    -18.4494    157.8812
H    -7.0727    -19.7516    156.7235
H    -4.5164    -18.988    160.1402
H    -5.9969    -17.9982    159.9057
H    -4.5914    -17.786    158.8075
H    -5.7144    -21.5555    156.1956
H    -0.93    -20.9181    155.2668
H    1.532    -21.054    155.3924
H    3.3894    -21.4325    158.6116
H    3.4741    -20.3891    157.152
H    3.4092    -22.1756    156.9764
H    1.2711    -21.4583    159.6488
H    -1.2006    -21.3396    159.5228
