60

N    19.339    -2.373    14.858
O    23.784    -2.861    9.563
O    22.201    -1.935    13.132
O    22.097    -1.212    10.805
O    19.415    -4.406    13.996
O    19.231    -3.054    11.512
C    23.422    -7.165    11.82
C    23.513    -5.64    11.688
C    22.949    -4.93    10.667
C    23.202    -3.41    10.796
C    21.901    -2.633    11.066
C    21.396    -2.823    12.503
C    19.92    -2.523    12.628
C    22.665    -7.782    10.613
C    24.826    -7.663    11.797
C    22.66    -7.386    13.149
C    19.54    -3.226    13.878
C    18.982    -2.964    16.2
C    19.221    -2.024    17.398
C    19.845    -2.994    18.435
C    20.084    -4.272    17.924
C    19.681    -4.283    16.468
C    20.198    -2.762    19.79
C    20.785    -3.784    20.571
C    21.047    -5.049    20.016
C    20.713    -5.33    18.666
C    17.91    -2.528    11.369
H    19.4184    -1.3855    14.7215
H    24.6116    -3.2924    9.3854
H    22.0527    -1.067    12.7754
H    21.2873    -0.7452    10.9754
H    24.5874    -5.4062    11.6568
H    23.0759    -5.2334    12.6119
H    21.8637    -5.1089    10.6696
H    23.376    -5.2797    9.7155
H    23.8994    -3.2457    11.6306
H    21.1302    -3.0121    10.3789
H    21.5777    -3.8461    12.8638
H    19.7319    -1.442    12.7057
H    22.6137    -8.8744    10.7319
H    23.1988    -7.5392    9.6824
H    21.6461    -7.3697    10.5696
H    25.3803    -7.2365    12.646
H    25.3073    -7.3598    10.8555
H    24.8271    -8.7604    11.8726
H    21.6401    -6.9841    13.0581
H    23.1867    -6.8683    13.9642
H    22.6115    -8.4626    13.3692
H    17.9018    -3.169    16.1653
H    18.2774    -1.5952    17.7664
H    19.9163    -1.212    17.1388
H    20.5713    -4.3771    15.8289
H    18.9972    -5.1216    16.2702
H    20.0153    -1.789    20.2316
H    21.0355    -3.5904    21.6077
H    21.5088    -5.8172    20.6256
H    20.9217    -6.2942    18.2168
H    17.4296    -2.978    10.4877
H    17.9617    -1.4367    11.2412
H    17.3218    -2.7645    12.268
