50

C    1.199    7.656    43.311
O    2.544    8.008    43.735
C    3.147    9.122    43.193
C    2.502    9.97    42.275
C    4.454    9.419    43.581
O    5.049    8.583    44.474
C    6.422    8.949    44.798
C    5.106    10.552    43.071
C    4.453    11.389    42.153
C    3.147    11.097    41.761
N    2.504    11.893    40.878
C    3.073    12.968    40.366
C    4.37    13.322    40.716
C    5.079    12.522    41.62
O    6.371    12.802    42.015
C    7.056    13.881    41.546
C    7.445    13.99    40.207
C    7.388    14.869    42.465
C    8.105    15.975    42.043
C    8.489    16.081    40.709
O    9.176    17.05    40.064
C    8.161    15.101    39.77
N    8.644    15.481    38.572
C    9.26    16.663    38.764
N    9.89    17.467    37.901
C    10.213    17.184    36.645
C    9.334    16.509    35.804
C    9.674    16.247    34.484
C    10.902    16.674    34.009
Cl    11.325    16.335    32.37
C    11.787    17.363    34.839
C    11.443    17.621    36.162
H    0.8741    6.7474    43.8391
H    1.1928    7.4718    42.2266
H    0.5122    8.4823    43.5465
H    1.4889    9.7454    41.9616
H    6.8321    8.2295    45.5219
H    6.4391    9.9585    45.2346
H    7.0311    8.9352    43.8821
H    6.1172    10.7815    43.387
H    2.5215    13.5825    39.6636
H    4.8284    14.2087    40.2934
H    7.1875    13.2048    39.5054
H    7.0883    14.7744    43.5024
H    8.3665    16.7556    42.7483
H    10.1514    18.4016    38.2462
H    8.3723    16.1839    36.1841
H    8.9878    15.7157    33.8345
H    12.7431    17.6974    34.4527
H    12.1263    18.1572    36.8105
