44

O    -9.581    8.427    53.971
C    -9.229    7.792    52.864
C    -8.937    6.333    52.921
C    -9.044    5.603    54.241
C    -8.808    4.101    54.082
C    -7.722    3.787    53.057
C    -8.231    4.153    51.67
C    -8.548    5.63    51.678
C    -8.473    6.438    50.44
C    -8.778    7.883    50.499
N    -8.694    8.589    49.35
C    -8.341    8.005    48.19
N    -8.051    6.698    48.072
C    -8.088    5.864    49.132
N    -7.799    4.548    49.017
N    -9.149    8.486    51.725
C    -9.443    9.857    51.79
C    -8.57    10.719    52.424
C    -8.868    12.068    52.49
O    -8.007    12.91    53.12
C    -10.046    12.567    51.932
C    -10.962    11.742    51.289
C    -10.694    10.385    51.198
C    -11.646    9.452    50.509
H    -9.5958    7.8131    54.6958
H    -10.0503    5.763    54.6554
H    -8.293    6.0096    54.9343
H    -9.7468    3.6285    53.7576
H    -8.5057    3.6861    55.0549
H    -7.4818    2.7141    53.0907
H    -6.819    4.3723    53.285
H    -9.138    3.5755    51.4383
H    -7.4577    3.9389    50.9175
H    -9.6028    5.3959    51.4716
H    -8.2876    8.6233    47.3012
H    -7.5319    4.1574    48.1021
H    -7.846    3.9362    49.8443
H    -7.6562    10.3404    52.8675
H    -8.3475    13.796    53.0819
H    -10.2528    13.6288    52.002
H    -11.8712    12.1534    50.8656
H    -11.248    8.4273    50.5482
H    -11.7654    9.7591    49.4595
H    -12.6225    9.4855    51.0142
