36

C    -6.768    -6.029    -15.496
C    -7.363    -4.756    -15.587
C    -6.592    -3.626    -15.825
C    -8.762    -9.186    -16.028
C    -7.648    -7.169    -15.163
C    -9.576    -9.514    -14.923
C    -10.448    -10.596    -15.033
C    -5.379    -6.153    -15.688
C    -5.225    -3.757    -16.003
C    -4.622    -5.012    -15.935
Cl    -9.078    -4.602    -15.447
O    -8.14    -7.216    -14.031
N    -7.915    -8.078    -16.116
N    -10.484    -11.323    -16.149
C    -9.728    -11.061    -17.216
C    -8.864    -9.963    -17.181
N    -9.832    -11.877    -18.364
C    -8.875    -11.98    -19.336
O    -7.842    -11.339    -19.271
C    -9.094    -12.903    -20.528
C    -8.448    -12.543    -21.873
C    -7.9    -13.709    -21.055
Cl    -4.581    -7.696    -15.677
H    -7.057    -2.6479    -15.8712
H    -9.5243    -8.9363    -14.0072
H    -11.1011    -10.8476    -14.2052
H    -4.6202    -2.8784    -16.1964
H    -3.5508    -5.1    -16.0762
H    -7.4524    -7.9458    -16.9927
H    -8.2709    -9.7146    -18.0537
H    -10.6654    -12.4186    -18.4743
H    -10.1002    -13.3457    -20.4891
H    -7.8622    -11.6172    -21.971
H    -8.9884    -12.7361    -22.8114
H    -8.0456    -14.7417    -21.4046
H    -6.9194    -13.6228    -20.5642
