37

C    -9.639    -10.852    -17.286
C    -4.616    -4.875    -16.164
C    -8.846    -9.703    -17.25
C    -8.734    -8.964    -16.07
C    -7.31    -4.503    -15.489
C    -7.598    -6.954    -15.129
C    -6.75    -5.794    -15.484
C    -6.525    -3.412    -15.814
C    -5.177    -3.59    -16.152
N    -10.328    -11.208    -16.199
C    -9.487    -9.384    -14.955
C    -10.274    -10.523    -15.06
N    -7.933    -7.812    -16.123
O    -7.963    -7.085    -13.971
C    -5.398    -5.97    -15.837
Cl    -4.691    -7.55    -15.882
C    -4.367    -2.462    -16.488
N    -3.716    -1.572    -16.752
Cl    -8.985    -4.269    -15.094
N    -9.753    -11.635    -18.447
C    -8.777    -11.863    -19.371
O    -7.665    -11.359    -19.285
C    -9.123    -12.758    -20.543
C    -8.429    -12.548    -21.892
C    -8.081    -13.766    -21.031
H    -3.5735    -5.0108    -16.4284
H    -8.316    -9.3838    -18.1401
H    -6.9537    -2.4164    -15.8072
H    -9.4521    -8.8247    -14.0271
H    -10.8504    -10.8575    -14.205
H    -7.5558    -7.5934    -17.023
H    -10.6389    -12.0685    -18.6121
H    -10.1883    -13.0296    -20.5054
H    -7.6991    -11.7342    -22.0145
H    -8.9932    -12.6784    -22.8272
H    -8.3949    -14.7714    -21.3482
H    -7.1008    -13.8271    -20.5355
