34

O    -4.764    -4.402    21.848
C    -4.51    -5.165    22.767
N    -3.94    -4.757    23.896
O    -3.822    -3.393    24.152
C    -4.846    -6.635    22.657
C    -3.958    -7.325    21.624
C    -2.579    -6.676    21.582
C    -1.714    -7.37    20.536
C    -3.803    -8.792    22.001
C    -2.942    -9.508    20.963
C    -3.602    -9.393    19.594
C    -1.57    -8.843    20.903
C    -4.632    -7.237    20.262
C    -3.768    -7.925    19.212
C    -2.398    -7.253    19.178
H    -3.5981    -5.4247    24.5573
H    -3.3965    -3.2652    24.9918
H    -5.8983    -6.7416    22.3549
H    -4.6955    -7.1124    23.6365
H    -2.1022    -6.7671    22.5691
H    -2.6836    -5.6123    21.322
H    -0.7216    -6.897    20.4969
H    -4.7953    -9.2651    22.0405
H    -3.3219    -8.8661    22.9874
H    -2.8325    -10.5676    21.2374
H    -4.5905    -9.8745    19.6253
H    -2.9732    -9.895    18.8439
H    -1.0825    -8.9266    21.8855
H    -0.9544    -9.348    20.144
H    -4.7661    -6.18    19.9887
H    -5.6136    -7.7313    20.3079
H    -4.2459    -7.8478    18.2243
H    -1.774    -7.7409    18.4147
H    -2.5222    -6.1897    18.9252
