41

C    0.651    -13.519    -4.167
C    0.102    -12.292    -3.931
N    -1.201    -12.444    -3.51
C    -0.387    -14.515    -3.874
C    -1.538    -13.798    -3.457
N    -2.651    -14.481    -3.106
C    -2.668    -15.808    -3.159
C    -1.538    -16.499    -3.58
N    -0.42    -15.834    -3.922
C    2.002    -13.859    -4.644
N    2.185    -15.177    -4.897
O    2.887    -13.018    -4.808
C    3.424    -15.735    -5.433
C    3.876    -16.933    -4.573
C    3.112    -16.172    -6.9
C    1.86    -17.069    -7.011
C    2.784    -14.957    -7.754
O    4.272    -16.868    -7.424
C    -1.572    -18.012    -3.641
C    -1.043    -18.711    -4.896
C    -0.207    -18.74    -3.608
H    0.6149    -11.3395    -4.0562
H    -1.8358    -11.6695    -3.2688
H    -3.5618    -16.3512    -2.8743
H    1.4293    -15.8034    -4.7061
H    4.2153    -14.971    -5.4315
H    4.809    -17.3473    -4.9829
H    3.095    -17.7076    -4.5838
H    4.0465    -16.5986    -3.539
H    1.6958    -17.3407    -8.0642
H    0.9832    -16.5234    -6.6322
H    2.0091    -17.982    -6.4158
H    3.6306    -14.255    -7.7333
H    1.8864    -14.4608    -7.3564
H    2.5979    -15.2764    -8.79
H    5.0358    -16.3078    -7.3509
H    -2.4465    -18.4062    -3.1026
H    -0.7054    -18.1132    -5.7554
H    -1.5268    -19.6308    -5.2565
H    -0.0959    -19.6778    -3.044
H    0.7255    -18.1603    -3.5429
