49

Cl    -10.252    -2.058    -11.633
C    -11.439    -3.219    -12.383
C    -12.836    -3.285    -11.944
C    -13.516    -2.386    -10.947
C    -14.522    -3.18    -10.133
N    -13.37    -4.305    -12.649
C    -11.137    -4.257    -13.371
C    -10.028    -4.816    -14.203
N    -8.743    -4.29    -14.33
C    -8.408    -2.932    -13.918
C    -7.46    -2.514    -15.045
N    -8.205    -1.884    -16.123
C    -6.856    -3.807    -15.581
C    -7.737    -4.976    -15.136
N    -10.335    -5.859    -14.996
C    -11.568    -6.405    -15.023
N    -12.602    -5.944    -14.305
C    -12.468    -4.901    -13.459
S    -11.863    -7.778    -15.951
C    -10.603    -8.107    -17.053
C    -9.986    -7.045    -17.718
N    -9.001    -7.22    -18.612
C    -8.577    -8.47    -18.9
N    -7.585    -8.672    -19.807
C    -7.173    -9.913    -20.079
C    -7.758    -11.014    -19.453
N    -8.745    -10.869    -18.551
C    -9.198    -9.638    -18.229
C    -10.223    -9.43    -17.301
H    -14.0367    -1.5776    -11.4812
H    -12.762    -1.9537    -10.2727
H    -15.0134    -2.5148    -9.4077
H    -14.0034    -3.9882    -9.5965
H    -15.2781    -3.6121    -10.805
H    -14.3553    -4.5963    -12.5773
H    -7.9045    -2.9185    -12.9401
H    -9.2998    -2.2891    -13.8802
H    -6.6808    -1.8346    -14.6693
H    -7.5696    -1.614    -16.8575
H    -8.6786    -1.0667    -15.7712
H    -8.8832    -2.5345    -16.4877
H    -5.8394    -3.9354    -15.1809
H    -6.8157    -3.7701    -16.6796
H    -8.1919    -5.4872    -15.9972
H    -7.1686    -5.7024    -14.5367
H    -10.3173    -6.0356    -17.5025
H    -6.374    -10.0667    -20.7952
H    -7.4087    -12.0101    -19.6995
H    -10.7032    -10.2596    -16.7948
