45

P         21.37900       -2.42200      -49.05300
O         20.92100       -3.07700      -50.33800
O         20.48700       -1.33600      -48.50200
O         21.59100       -3.39900      -47.92100
N         22.80500       -1.75600      -49.35500
P         24.03000       -2.48900      -50.07400
O         23.50700       -3.13700      -51.29300
O         24.74800       -3.36400      -49.11200
O         25.03300       -1.37600      -50.49500
P         25.06500       -0.65600      -51.86500
O         25.76600       -1.54200      -52.83500
O         23.70700       -0.19300      -52.27500
O         25.92200        0.66700      -51.72800
C         25.76100        1.51500      -50.60100
C         26.82300        2.60900      -50.56900
O         28.11500        2.03900      -50.25200
C         27.03500        3.41500      -51.85200
O         27.11400        4.81500      -51.50300
C         28.37900        2.89800      -52.37100
O         29.06100        3.88300      -53.12200
C         29.11300        2.65300      -51.06300
N         30.19400        1.67000      -51.08800
C         30.35200        0.63400      -51.98000
N         31.39100       -0.10900      -51.71500
C         31.95700        0.44900      -50.58100
C         33.09800        0.04800      -49.84300
O         33.86900       -0.91200      -50.05000
N         33.31600        0.89100      -48.75300
C         32.52300        1.96800      -48.41500
N         32.89800        2.66400      -47.31800
N         31.45100        2.34500      -49.10600
C         31.22300        1.54300      -50.17400
H         22.93910       -0.80660      -49.07110
H         25.84180        0.91140      -49.68500
H         24.76660        1.98330      -50.64500
H         26.53310        3.31270      -49.77480
H         26.23020        3.24660      -52.58270
H         27.84240        4.95140      -50.90860
H         28.26440        1.97930      -52.96500
H         29.22260        4.64200      -52.57390
H         29.47810        3.60400      -50.64800
H         29.68070        0.45350      -52.81830
H         34.10750        0.70000      -48.17240
H         32.34780        3.47940      -47.01240
H         33.73380        2.37880      -46.78800
