51

O         35.06400       88.94800       72.06900
C         34.00300       88.69900       71.44400
O         33.15800       89.58300       71.13100
C         33.72600       87.26600       71.05100
N         32.28700       87.13800       70.76500
C         34.48600       86.87300       69.78500
C         35.96600       86.55700       69.96900
C         36.58900       86.08800       68.64200
C         36.92100       87.25200       67.70500
B         37.26500       86.73600       66.23800
O         37.92300       87.68900       65.26300
O         36.26900       85.80200       65.59800
O         38.44000       85.78400       66.52600
C         34.09900       86.38000       72.23600
C         33.14200       86.67400       73.38400
N         33.31700       85.75300       74.51400
C         32.19100       85.91900       75.45500
C         32.29600       84.88900       76.58100
C         33.59800       85.10900       77.33700
O         33.75800       84.08300       78.32300
C         34.77900       85.08300       76.36300
C         34.58800       86.05900       75.20200
H         32.08030       86.18760       70.50030
H         32.03780       87.75860       70.01080
H         31.75800       87.38010       71.58810
H         34.40530       87.70590       69.07100
H         34.00050       85.98040       69.36360
H         36.07500       85.76130       70.72060
H         36.48860       87.46140       70.31390
H         35.87740       85.41960       68.13530
H         37.51560       85.53780       68.86260
H         35.57790       86.30960       65.18910
H         39.06780       85.17720       66.03850
H         35.13100       86.59590       72.54960
H         34.01720       85.32170       71.94750
H         32.10990       86.58560       73.01390
H         33.31870       87.70110       73.73590
H         33.33700       84.80350       74.17640
H         31.24220       85.77560       74.91720
H         32.22020       86.93170       75.88350
H         32.28430       83.87490       76.15490
H         31.44600       85.00750       77.26910
H         33.56470       86.08850       77.83640
H         34.57130       84.22200       78.79390
H         34.88230       84.06560       75.95780
H         35.69470       85.35530       76.90830
H         34.55880       87.08860       75.58800
H         35.42360       85.95640       74.49400
H         37.76462       87.78274       68.09426
H         36.06516       87.89144       67.64539
H         38.54838       88.25766       65.73885
