42

C         20.80100       40.26800       -7.95900
C         20.47600       39.76000       -9.17900
C         19.15800       39.49500       -9.48900
C         18.14700       39.77700       -8.59900
C         18.45400       40.26800       -7.36800
C         16.73500       39.54100       -8.99300
C         16.76500       38.11500       -9.49300
C         16.29700       40.62600      -10.04400
C         16.08100       42.01000       -9.42500
C         15.10000       40.69100       -7.67500
N         15.76400       39.59700       -7.92400
C         19.76100       40.49300       -7.04900
F         18.84100       39.05500      -10.73300
O         15.20300       41.87400       -8.29300
F         15.03700       40.31900      -10.51900
N         14.19200       40.68600       -6.66200
N         19.95000       41.06500       -5.82000
C         21.06400       41.65300       -5.35900
C         20.94000       42.28500       -4.04000
O         22.08000       41.68500       -6.00300
N         19.80700       42.03600       -3.36200
C         19.55300       42.57600       -2.17600
C         20.48600       43.50200       -1.65900
C         21.69700       43.82500       -2.38800
C         21.92100       43.20400       -3.60400
C         20.24600       44.11300       -0.37500
N         20.08500       44.60900        0.64700
F         15.44200       37.78400       -9.76100
H         21.82990       40.49080       -7.70060
H         21.25370       39.56330       -9.90810
H         17.66980       40.47780       -6.64960
H         17.17940       37.44710       -8.72350
H         17.37180       38.04160      -10.40760
H         17.03770       40.67090      -10.85600
H         15.62640       42.68160      -10.16810
H         17.04600       42.42450       -9.09790
H         13.65560       41.53860       -6.44690
H         14.04090       39.82960       -6.11010
H         19.16950       41.04200       -5.19520
H         18.65850       42.31470       -1.62230
H         22.41070       44.53690       -1.98940
H         22.80630       43.41240       -4.19380
