45

C         14.65200       40.98900       -9.79800
C         16.03000       40.35400       -9.99200
O         14.54600       41.39500       -8.41000
C         14.68100       40.39100       -7.56200
N         15.45800       39.38300       -7.77300
C         16.26300       39.20900       -8.96700
C         17.68000       39.39200       -8.53900
C         17.95600       39.95100       -7.31900
C         19.29700       40.12600       -6.97800
C         20.36200       39.85900       -7.86000
C         20.05300       39.31600       -9.08600
C         18.73200       39.10100       -9.42100
F         18.50000       38.57400      -10.63200
N         13.96000       40.46100       -6.39500
C         15.95100       37.85700       -9.65100
N         19.57500       40.73000       -5.78000
C         20.75400       41.27300       -5.40000
C         20.71000       41.98400       -4.11000
O         21.77400       41.25700       -6.08100
N         19.65900       41.77600       -3.32100
C         19.50400       42.39600       -2.16900
C         20.45000       43.33800       -1.77900
C         21.59500       43.63700       -2.59500
C         21.71700       42.92500       -3.79600
C         20.25900       43.98000       -0.52200
N         20.08600       44.47900        0.47400
C         14.62700       42.29800      -10.59400
F         14.71500       41.97300      -11.93800
F         13.34500       42.83600      -10.42200
F         15.68200       43.20200      -10.19200
H         13.84340       40.30500      -10.09510
H         16.80370       41.12360       -9.85410
H         16.09760       39.94450      -11.01070
H         17.16130       40.24640       -6.64360
H         21.38790       40.07350       -7.58310
H         20.84190       39.05900       -9.78360
H         14.02980       39.70380       -5.70030
H         13.34950       41.27070       -6.21460
H         16.11240       37.03790       -8.93480
H         16.61510       37.72250      -10.51750
H         14.90360       37.84910       -9.98700
H         18.82770       40.77400       -5.11700
H         18.65270       42.17550       -1.53520
H         22.32840       44.37710       -2.29600
H         22.55600       43.09050       -4.46220
