55

C    7.57    10.41    -14.18
C    6.805    10.641    -11.927
C    6.135    10.875    -9.625
C    5.171    10.159    -6.036
C    6.43    10.089    -3.887
C    3.605    10.492    1.031
C    3.656    10.627    2.576
C    6.033    10.02    2.201
C    7.561    10.526    -6.092
C    4.711    13.03    -14.202
C    5.73    11.968    -13.783
C    6.615    11.382    -14.699
O    8.366    9.852    -14.87
N    7.64    10.067    -12.885
C    6.987    10.32    -10.585
C    6.259    10.602    -8.163
C    5.113    10.313    -7.41
C    6.389    10.231    -5.37
O    7.397    10.54    -3.302
N    5.386    9.621    -3.183
C    5.39    9.559    -1.7
C    4.754    10.871    -1.174
N    4.786    11.082    0.305
O    4.993    10.463    3.11
C    6.121    10.971    0.981
C    7.52    10.703    -7.467
Cl    9.028    11.064    -8.248
C    5.179    11.841    -10.014
C    4.99    12.21    -11.328
C    5.824    11.61    -12.34
H    4.2605    9.981    -5.4753
H    2.6961    10.9979    0.6733
H    3.5508    9.4218    0.7828
H    3.0045    9.8586    3.0177
H    3.2865    11.6251    2.854
H    5.8012    9.0028    1.8523
H    6.9984    10.0158    2.7283
H    8.5055    10.6158    -5.5677
H    4.7643    13.18    -15.2904
H    4.9367    13.977    -13.6899
H    3.6995    12.6964    -13.927
H    6.5902    11.6424    -15.7561
H    8.3091    9.3811    -12.5989
H    7.7819    9.646    -10.2867
H    4.1597    10.2077    -7.9152
H    4.5764    9.3027    -3.6762
H    6.4224    9.4686    -1.3312
H    4.8018    8.6942    -1.3592
H    3.7005    10.8818    -1.4902
H    5.2862    11.7117    -1.6429
H    4.606    12.071    0.3795
H    6.8573    10.5755    0.2658
H    6.4388    11.9677    1.3209
H    4.5709    12.3097    -9.2487
H    4.2306    12.9359    -11.5954
