38

O    48.423    -76.259    12.184
C    48.247    -76.59    13.364
O    48.546    -77.751    13.732
C    47.647    -75.56    14.247
C    47.265    -75.748    15.52
C    46.647    -74.565    16.22
C    47.463    -77.048    16.221
C    47.162    -77.227    17.509
C    47.398    -78.552    18.189
O    48.056    -79.464    17.316
C    48.262    -78.428    19.447
C    49.575    -77.729    19.121
C    48.63    -79.812    19.981
C    47.542    -77.63    20.528
C    46.036    -79.108    18.483
C    45.294    -79.803    17.379
C    45.484    -78.972    19.701
C    46.177    -78.234    20.774
O    45.639    -78.11    21.861
H    47.5042    -74.5658    13.8262
H    46.3793    -74.8467    17.2491
H    45.7425    -74.2502    15.679
H    47.3681    -73.7347    16.243
H    47.8703    -77.8871    15.6589
H    46.7384    -76.4014    18.0789
H    48.1929    -80.2891    17.7665
H    50.1836    -77.6477    20.0337
H    49.3671    -76.7228    18.7282
H    50.1229    -78.3115    18.3657
H    47.7123    -80.3634    20.2337
H    49.2526    -79.704    20.8814
H    49.1899    -80.3647    19.2122
H    47.4276    -76.5866    20.199
H    48.129    -77.659    21.4578
H    44.3197    -80.1498    17.7537
H    45.8804    -80.6655    17.0294
H    45.138    -79.1032    16.5448
H    44.5087    -79.4141    19.8991
