148

N    49.998    -14.425    31.403
C    49.272    -13.203    31.816
C    49.993    -11.946    31.342
O    51.034    -11.593    31.874
C    49.178    -13.156    33.318
C    48.503    -11.899    33.871
C    47.012    -11.912    33.709
O    46.471    -12.944    33.273
O    46.372    -10.931    34.129
N    49.381    -11.229    30.388
C    49.943    -10.001    29.887
C    49.895    -8.917    30.951
O    49.072    -8.958    31.876
C    49.157    -9.519    28.654
C    49.28    -10.311    27.364
C    48.09    -10.044    26.432
C    50.557    -10.013    26.694
N    50.764    -7.947    30.807
C    50.791    -6.804    31.683
C    49.542    -6.051    31.434
O    49.149    -5.884    30.285
C    51.952    -5.942    31.369
N    48.868    -5.643    32.51
C    47.655    -4.881    32.402
C    47.851    -3.451    32.905
O    46.903    -2.721    33.047
N    49.082    -3.137    33.294
C    49.478    -1.823    33.743
C    50.952    -1.567    33.255
O    51.606    -2.471    32.731
C    49.443    -1.713    35.267
C    50.442    -2.691    35.912
C    47.989    -1.954    35.815
C    50.446    -2.651    37.45
N    51.402    -0.323    33.335
C    52.778    0.03    32.96
C    53.119    -0.022    31.484
O    54.328    0.084    31.108
N    52.076    -0.108    30.626
C    52.255    -0.136    29.185
C    51.765    1.198    28.562
O    50.554    1.392    28.362
C    51.437    -1.268    28.555
C    51.846    -2.621    29.137
C    51.586    -1.251    27.064
C    53.334    -2.934    29.026
N    52.692    2.081    28.213
C    52.324    3.36    27.657
C    53.038    3.657    26.345
O    54.061    3.078    26.058
C    52.658    4.49    28.619
C    52.247    4.447    30.064
C    52.109    5.919    30.509
C    50.95    3.703    30.288
N    52.535    4.658    25.62
C    53.127    5.074    24.372
C    54.49    5.747    24.668
O    54.701    6.32    25.777
C    52.243    6.084    23.616
O    50.914    5.584    23.507
C    52.786    6.314    22.223
N    55.419    5.629    23.731
C    56.729    6.222    23.901
C    56.615    7.719    23.77
O    57.576    8.472    24.137
C    57.71    5.704    22.904
C    57.793    4.143    23.001
C    57.335    6.142    21.504
O    55.502    8.236    23.386
H    49.4997    -15.2382    31.7292
H    50.924    -14.4164    31.801
H    50.0646    -14.4526    30.3976
H    48.2605    -13.2248    31.3843
H    50.1974    -13.2076    33.7281
H    48.6028    -14.0313    33.6541
H    48.9051    -11.0234    33.3403
H    48.7379    -11.8181    34.9426
H    48.5124    -11.5552    30.015
H    50.9901    -10.18    29.6015
H    49.4881    -8.4925    28.4381
H    48.0922    -9.5105    28.93
H    49.2732    -11.3805    27.6209
H    48.2084    -10.6306    25.509
H    48.0519    -8.9731    26.1835
H    47.1569    -10.337    26.9355
H    51.3891    -10.2134    27.385
H    50.5758    -8.9547    26.3947
H    50.6601    -10.6483    25.8019
H    51.4309    -8.0021    30.0639
H    50.8424    -7.129    32.7326
H    51.9584    -5.0748    32.0457
H    51.8796    -5.5942    30.328
H    52.8811    -6.5161    31.5
H    49.217    -5.8742    33.4182
H    46.8716    -5.3675    33.0016
H    47.3437    -4.8504    31.3474
H    49.7775    -3.8553    33.2746
H    48.8026    -1.0706    33.3098
H    49.7437    -0.6909    35.5405
H    51.4521    -2.4398    35.5561
H    50.1838    -3.7114    35.5924
H    47.2958    -1.2444    35.3398
H    47.9781    -1.8033    36.9046
H    47.6759    -2.9829    35.584
H    51.1814    -3.3735    37.8336
H    49.4456    -2.9112    37.8262
H    50.7139    -1.6397    37.7898
H    50.7875    0.3959    33.6599
H    53.4535    -0.6635    33.4822
H    52.965    1.0563    33.3087
H    51.1487    -0.1539    30.9975
H    53.3214    -0.2821    28.9582
H    50.3766    -1.1006    28.7947
H    51.2893    -3.4063    28.6047
H    51.5708    -2.6341    30.2019
H    51.2847    -0.2666    26.6766
H    50.9469    -2.0299    26.6227
H    52.6358    -1.4439    26.7982
H    53.535    -3.9211    29.4678
H    53.9111    -2.1673    29.5637
H    53.6295    -2.9395    27.9665
H    53.6586    1.8567    28.3371
H    51.2392    3.3521    27.4749
H    52.2061    5.3994    28.1962
H    53.7536    4.5878    28.6123
H    53.0355    3.9532    30.6508
H    51.8077    5.9557    31.5663
H    51.3466    6.4184    29.893
H    53.0743    6.4317    30.3848
H    51.0666    2.6577    29.9659
H    50.1485    4.1793    29.7043
H    50.6913    3.7306    31.3568
H    51.7215    5.1351    25.9525
H    53.2809    4.1884    23.7379
H    52.2323    7.0364    24.1663
H    50.3774    6.2134    23.0398
H    52.1463    7.0363    21.6948
H    52.7968    5.3621    21.6718
H    53.8097    6.7109    22.2894
H    55.2125    5.1228    22.8937
H    57.0954    5.9775    24.9089
H    58.7003    6.12    23.141
H    58.5178    3.7679    22.2635
H    56.8031    3.7097    22.7954
H    58.1165    3.8551    24.0122
H    57.284    7.2401    21.4647
H    56.3548    5.7197    21.2379
H    58.0937    5.7845    20.7923
