66

C    11.333    -14.297    -17.904
N    8.985    -14.018    -18.144
O    12.418    -14.044    -17.388
C    10.192    -13.697    -17.33
C    10.056    -14.145    -15.883
C    19.094    -13.106    -17.674
C    15.911    -9.651    -20.399
O    6.223    -11.608    -25.534
O    8.424    -11.481    -17.828
O    6.618    -13.183    -17.309
C    15.598    -14.432    -19.412
C    16.812    -14.009    -18.864
C    6.094    -13.518    -20.111
C    5.55    -13.541    -21.384
C    15.171    -12.189    -20.148
C    7.704    -11.975    -20.847
C    9.731    -15.625    -15.86
C    13.226    -15.226    -20.721
C    8.383    -15.868    -16.517
C    9.271    -16.36    -18.836
C    12.695    -15.675    -19.356
C    10.169    -15.503    -19.734
N    5.655    -12.704    -23.624
O    18.36    -12.159    -18.452
O    16.807    -10.484    -19.659
O    13.564    -13.86    -20.615
S    7.517    -11.253    -23.465
C    14.771    -13.517    -20.06
C    7.18    -12.742    -19.818
C    17.196    -12.674    -18.955
C    16.371    -11.771    -19.6
C    6.392    -11.866    -24.347
C    6.076    -12.794    -22.346
C    7.145    -12.018    -22.069
C    8.432    -15.395    -17.969
N    11.356    -15.12    -18.974
S    7.787    -12.795    -18.178
H    10.3274    -12.6054    -17.3383
H    9.2471    -13.581    -15.3955
H    11.0012    -13.9655    -15.3497
H    20.0151    -12.6365    -17.2984
H    19.3531    -13.9726    -18.3
H    18.479    -13.438    -16.8246
H    16.3007    -8.6226    -20.4216
H    14.9219    -9.6578    -19.9176
H    15.8211    -10.0316    -21.4271
H    15.3    -15.4712    -19.3329
H    17.4574    -14.7235    -18.366
H    5.65    -14.1271    -19.332
H    4.693    -14.1703    -21.595
H    14.5346    -11.4711    -20.6526
H    8.5643    -11.3407    -20.6664
H    9.6972    -15.975    -14.8177
H    10.5086    -16.1779    -16.4074
H    12.4508    -15.3627    -21.4893
H    14.1162    -15.8136    -20.9897
H    7.6051    -15.3097    -15.9755
H    8.1498    -16.9426    -16.4891
H    9.8877    -17.0045    -18.1923
H    8.6081    -16.9845    -19.4529
H    13.4217    -15.3656    -18.5904
H    12.6175    -16.7722    -19.3659
H    9.6245    -14.6012    -20.0506
H    10.4672    -16.0816    -20.6207
H    4.8742    -13.2118    -23.988
H    7.3992    -15.3943    -18.3475
