33

C    9.703    -3.023    7.251
N    9.146    -0.933    8.789
C    8.814    -3.631    6.479
C    7.695    -2.0    4.875
C    15.955    -2.478    10.678
C    15.263    -1.483    11.376
C    14.006    -1.073    10.988
C    13.446    -1.652    9.887
C    14.149    -2.633    9.2
C    15.405    -3.063    9.585
C    13.475    -3.264    7.951
N    12.115    -2.745    7.946
C    11.111    -3.533    7.259
C    9.384    -1.828    8.131
C    7.581    -2.941    5.924
C    6.501    -1.402    4.401
N    5.306    -1.697    4.905
C    5.173    -2.587    5.889
C    6.288    -3.248    6.442
O    11.425    -4.581    6.712
H    8.9762    -4.6787    6.2301
H    8.659    -1.7457    4.4495
H    16.9393    -2.7842    11.0135
H    15.7261    -1.0239    12.2419
H    13.475    -0.3089    11.5441
H    12.4608    -1.349    9.5513
H    15.9292    -3.8365    9.0355
H    13.4685    -4.3612    8.0295
H    14.005    -2.965    7.0346
H    11.8836    -1.8828    8.3967
H    6.5639    -0.677    3.5976
H    4.1834    -2.8074    6.2728
H    6.1662    -3.9711    7.2404
