97

C    59.615    81.491    154.956
O    59.225    80.957    153.92
C    59.331    82.936    155.288
N    60.298    80.837    155.904
C    60.672    79.431    155.641
C    59.487    78.491    155.525
O    59.461    77.626    154.659
C    61.59    78.968    156.808
C    61.914    77.509    156.676
C    62.968    77.083    155.852
N    63.277    75.801    155.67
C    62.56    74.859    156.31
C    61.516    75.181    157.174
C    61.186    76.525    157.348
N    58.487    78.62    156.405
C    57.398    77.663    156.42
C    56.492    77.782    155.211
O    55.771    76.842    154.893
C    56.548    77.768    157.687
C    57.246    77.258    158.941
O    58.208    76.438    158.875
O    56.727    77.659    160.028
O    55.087    78.593    150.511
C    56.112    79.244    150.805
C    56.763    79.01    152.163
C    55.768    79.073    153.301
N    56.501    78.944    154.562
C    54.874    80.251    153.342
C    53.772    80.021    154.44
C    52.964    81.286    154.541
C    52.753    78.902    154.222
N    56.708    80.115    150.029
C    56.166    80.394    148.7
C    57.292    80.539    147.727
O    58.441    80.744    148.084
C    55.286    81.569    148.745
C    56.035    82.753    149.147
C    55.075    83.926    149.2
C    55.6    85.042    150.064
C    53.792    83.656    149.939
N    56.936    80.414    146.46
C    57.887    80.445    145.337
C    57.829    81.733    144.537
O    58.221    81.775    143.388
C    57.649    79.218    144.476
C    58.226    77.968    145.125
O    57.747    76.857    144.806
O    59.198    78.087    145.928
C    57.156    82.891    145.111
H    59.7792    83.1834    156.2616
H    58.2435    83.0948    155.3341
H    59.7634    83.5827    154.5104
H    60.5472    81.2853    156.7625
H    61.2339    79.3903    154.6963
H    61.0737    79.1388    157.7641
H    62.5236    79.5493    156.7864
H    63.5584    77.8339    155.3395
H    62.803    73.8151    156.1478
H    60.9721    74.4044    157.6995
H    60.3679    76.8044    158.0021
H    58.4909    79.3798    157.0551
H    57.8505    76.6606    156.4011
H    55.63    77.1805    157.5382
H    56.2859    78.825    157.8419
H    57.5315    79.7805    152.3233
H    57.2348    78.0163    152.1616
H    55.1147    78.1941    153.1974
H    57.0051    79.7238    154.9332
H    54.3946    80.3842    152.361
H    55.4589    81.1492    153.5894
H    54.2888    79.8258    155.3912
H    52.1805    81.1607    155.3029
H    52.4982    81.5023    153.5682
H    53.6224    82.1199    154.8258
H    53.2781    77.9391    154.1384
H    52.1899    79.094    153.2968
H    52.058    78.8679    155.0739
H    57.5309    80.5875    150.3445
H    55.5574    79.5335    148.3853
H    54.4781    81.3886    149.4694
H    54.8536    81.7358    147.7474
H    56.831    82.9562    148.4155
H    56.4813    82.5921    150.1394
H    54.8774    84.2643    148.1721
H    54.8753    85.8695    150.0745
H    56.5585    85.3992    149.6593
H    55.7497    84.6726    151.0893
H    53.2465    82.8409    149.4409
H    53.1719    84.5645    149.9411
H    54.0198    83.3651    150.9751
H    55.9654    80.2914    146.2528
H    58.9018    80.373    145.7553
H    58.1288    79.368    143.4976
H    56.5664    79.0823    144.3366
H    57.2067    83.7322    144.4041
H    57.6502    83.173    146.0524
H    56.1032    82.642    145.3097
