97

C    29.724    26.552    -6.664
O    30.637    25.791    -6.938
C    28.686    26.152    -5.641
N    29.518    27.625    -7.421
C    29.926    29.028    -7.145
C    30.478    29.192    -5.749
O    31.679    29.12    -5.55
C    28.732    29.96    -7.312
C    29.232    31.386    -7.369
C    29.978    31.818    -8.46
N    30.427    33.079    -8.521
C    30.171    33.954    -7.54
C    29.429    33.575    -6.427
C    28.95    32.274    -6.339
N    29.597    29.364    -4.762
C    29.986    29.696    -3.391
C    30.786    28.606    -2.671
O    31.059    28.727    -1.475
C    28.736    30.022    -2.57
C    27.808    30.989    -3.281
O    26.985    30.53    -4.101
O    27.9    32.206    -3.018
O    35.477    26.538    -1.916
C    34.689    26.027    -2.742
C    33.643    26.904    -3.391
C    32.277    26.672    -2.75
N    31.302    27.574    -3.335
C    31.833    25.231    -2.98
C    30.469    24.953    -2.359
C    30.069    23.497    -2.567
C    30.442    25.319    -0.879
N    34.985    24.845    -3.278
C    36.205    24.293    -2.723
C    37.219    24.094    -3.824
O    37.041    24.579    -4.93
C    35.918    22.96    -2.041
C    34.577    22.396    -2.495
C    34.48    20.9    -2.228
C    35.079    20.102    -3.38
C    33.036    20.489    -1.976
N    38.301    23.388    -3.504
C    39.37    23.148    -4.456
C    39.641    21.672    -4.518
O    40.604    21.261    -5.145
C    40.623    23.893    -4.003
C    40.495    25.371    -4.296
O    39.626    25.753    -5.108
O    41.271    26.164    -3.719
C    38.706    20.734    -3.812
H    27.9496    26.9615    -5.5301
H    29.1764    25.9674    -4.6738
H    28.1764    25.236    -5.9745
H    29.0297    27.47    -8.2798
H    30.706    29.3112    -7.867
H    28.0483    29.8417    -6.4585
H    28.2006    29.7169    -8.2439
H    30.1981    31.1292    -9.2676
H    30.5462    34.9683    -7.6145
H    29.2263    34.2876    -5.6357
H    28.3666    31.9576    -5.4819
H    28.6241    29.2611    -4.9691
H    30.6185    30.5948    -3.4369
H    29.0483    30.4706    -1.6154
H    28.1891    29.0878    -2.3746
H    33.5849    26.6649    -4.4631
H    33.927    27.9593    -3.2655
H    32.3471    26.8627    -1.6689
H    31.0054    27.4135    -4.2764
H    32.5738    24.554    -2.5297
H    31.776    25.0444    -4.0626
H    29.7299    25.5841    -2.8742
H    29.0835    23.3189    -2.1119
H    30.8149    22.8408    -2.0948
H    30.0198    23.2806    -3.6444
H    30.7339    26.3725    -0.7565
H    31.1463    24.6771    -0.3296
H    29.4263    25.1716    -0.4833
H    34.4328    24.3928    -3.9784
H    36.6116    24.9955    -1.9806
H    35.8956    23.11    -0.9515
H    36.7145    22.2456    -2.2965
H    34.4614    22.5744    -3.5743
H    33.7708    22.909    -1.9501
H    35.0611    20.6772    -1.321
H    34.9967    19.0268    -3.163
H    36.1386    20.3715    -3.5009
H    34.5341    20.3316    -4.3075
H    32.6274    21.0781    -1.1417
H    32.9981    19.4193    -1.7226
H    32.4391    20.6727    -2.8815
H    38.3797    23.012    -2.5807
H    39.069    23.5087    -5.4506
H    41.4961    23.4921    -4.5386
H    40.7586    23.7489    -2.921
H    39.047    19.6983    -3.957
H    37.6925    20.8474    -4.2241
H    38.6933    20.9687    -2.7374
