256

N    -16.117    9.133    -39.305
C    -16.506    8.287    -38.137
C    -16.6    9.101    -36.847
O    -16.737    10.337    -36.863
C    -15.528    7.112    -37.986
N    -16.503    8.406    -35.739
C    -16.641    9.011    -34.427
C    -15.89    8.05    -33.539
O    -16.001    6.817    -33.716
C    -18.113    9.238    -34.133
S    -18.963    8.272    -32.879
N    -15.05    8.641    -32.694
C    -14.033    7.938    -31.927
C    -14.445    7.953    -30.469
O    -15.514    8.474    -30.118
C    -12.664    8.634    -32.091
O    -12.661    9.942    -31.548
N    -13.58    7.419    -29.613
C    -13.86    7.301    -28.181
C    -13.749    8.626    -27.462
O    -14.098    8.686    -26.286
C    -12.864    6.341    -27.528
C    -11.429    6.869    -27.467
C    -10.378    5.754    -27.617
N    -9.389    6.07    -28.653
C    -9.615    6.046    -29.975
N    -10.807    5.727    -30.486
N    -8.635    6.361    -30.802
N    -13.222    9.661    -28.135
C    -13.106    11.024    -27.566
C    -14.321    11.874    -27.831
O    -14.336    13.049    -27.481
C    -11.919    11.755    -28.183
C    -10.647    10.997    -27.994
C    -10.036    10.967    -26.757
C    -10.069    10.285    -29.053
C    -8.872    10.263    -26.533
C    -8.893    9.572    -28.849
C    -8.3    9.576    -27.563
O    -7.139    8.89    -27.305
N    -15.315    11.294    -28.483
C    -16.46    12.054    -28.896
C    -17.236    12.509    -27.67
O    -17.448    11.764    -26.699
C    -17.396    11.285    -29.837
C    -18.669    12.083    -30.097
C    -19.173    12.017    -31.496
O    -19.288    10.891    -32.0
O    -19.496    13.081    -32.069
N    -17.63    13.765    -27.737
C    -18.499    14.348    -26.728
C    -19.911    13.844    -26.935
O    -20.406    13.854    -28.052
C    -18.468    15.886    -26.803
C    -19.462    16.511    -25.803
C    -17.08    16.379    -26.466
N    -20.568    13.419    -25.855
C    -22.001    13.102    -25.856
C    -22.364    12.32    -27.128
O    -23.206    12.726    -27.942
C    -22.809    14.409    -25.705
C    -24.316    14.196    -25.552
O    -24.752    13.06    -25.184
O    -25.074    15.145    -25.795
N    -21.693    11.198    -27.301
C    -21.803    10.455    -28.579
C    -23.227    9.982    -28.99
O    -23.488    9.658    -30.162
C    -20.851    9.286    -28.483
S    -21.402    7.956    -27.362
N    -24.131    9.878    -28.013
C    -25.512    9.482    -28.23
C    -26.484    10.621    -28.091
O    -27.704    10.407    -28.003
C    -25.932    8.376    -27.278
C    -25.165    7.131    -27.502
C    -25.666    5.97    -26.682
N    -24.949    4.763    -27.07
C    -25.301    3.866    -28.007
N    -24.51    2.87    -28.195
N    -26.362    3.997    -28.802
N    -25.961    11.831    -28.003
C    -26.777    13.007    -27.92
C    -27.44    13.352    -29.21
O    -27.132    12.771    -30.264
N    -28.369    14.286    -29.103
C    -29.084    14.809    -30.218
C    -28.093    15.501    -31.107
O    -27.261    16.232    -30.643
C    -30.242    15.709    -29.747
C    -29.842    17.001    -29.112
C    -31.072    17.755    -28.654
N    -31.979    18.085    -29.736
C    -32.948    18.971    -29.621
N    -33.179    19.535    -28.46
N    -33.742    19.231    -30.657
N    -28.176    15.246    -32.398
C    -27.194    15.778    -33.286
C    -26.15    14.739    -33.668
O    -25.507    14.895    -34.667
C    -27.921    16.351    -34.501
O    -28.621    15.288    -35.157
N    -25.94    13.683    -32.884
C    -24.778    12.858    -33.137
C    -24.972    11.86    -34.268
O    -26.08    11.342    -34.511
C    -24.283    12.151    -31.876
O    -25.061    11.011    -31.561
N    -23.856    11.582    -34.931
C    -23.773    10.554    -35.959
C    -23.771    9.172    -35.31
O    -22.83    8.416    -35.482
C    -22.499    10.763    -36.779
N    -24.798    8.854    -34.531
C    -24.851    7.56    -33.854
C    -26.097    6.823    -34.292
O    -27.206    7.313    -34.16
C    -24.8    7.71    -32.337
S    -24.995    6.161    -31.415
N    -25.881    5.633    -34.827
C    -26.929    4.818    -35.404
C    -26.348    4.013    -36.545
O    -27.04    3.202    -37.157
N    -25.059    4.219    -36.82
C    -20.68    6.279    -29.451
C    -19.761    6.531    -30.486
C    -20.077    6.232    -31.845
C    -21.358    5.761    -32.141
C    -22.289    5.553    -31.117
C    -21.963    5.822    -29.776
C    -20.4    6.569    -28.051
C    -19.152    6.464    -32.911
C    -23.529    5.086    -31.527
H    -16.0664    8.5601    -40.1328
H    -15.2171    9.5525    -39.1312
H    -16.805    9.8573    -39.4393
H    -17.5042    7.872    -38.3406
H    -15.8244    6.4968    -37.1236
H    -14.5108    7.4996    -37.8276
H    -15.5486    6.4982    -38.8986
H    -16.3276    7.4234    -35.8004
H    -16.14    9.9898    -34.3965
H    -18.6509    9.068    -35.0773
H    -18.2145    10.2928    -33.838
H    -15.122    9.6317    -32.5785
H    -13.9569    6.899    -32.28
H    -12.4234    8.6947    -33.1626
H    -11.8981    8.0351    -31.5766
H    -11.8034    10.3323    -31.6698
H    -12.7039    7.0848    -29.9606
H    -14.8808    6.9104    -28.0565
H    -12.8619    5.4031    -28.1027
H    -13.2014    6.1407    -26.5004
H    -11.2781    7.3665    -26.4976
H    -11.2873    7.5974    -28.279
H    -10.8887    4.8179    -27.8868
H    -9.8577    5.6242    -26.6566
H    -8.4434    6.3318    -28.3397
H    -10.9443    5.7189    -31.5068
H    -11.589    5.4891    -29.8593
H    -7.7074    6.6103    -30.4301
H    -8.7981    6.3574    -31.819
H    -12.8916    9.5044    -29.0658
H    -12.9599    10.9346    -26.4794
H    -11.8206    12.7415    -27.7065
H    -12.1004    11.8845    -29.2602
H    -10.4852    11.514    -25.936
H    -10.5381    10.29    -30.0303
H    -8.4166    10.2556    -25.5493
H    -8.4364    9.0207    -29.663
H    -6.8972    9.0103    -26.3942
H    -15.2681    10.3168    -28.6901
H    -16.0984    12.9432    -29.4331
H    -17.6608    10.322    -29.3761
H    -16.8807    11.1051    -30.792
H    -18.4674    13.137    -29.8555
H    -19.4558    11.6983    -29.4315
H    -17.3232    14.3316    -28.5018
H    -18.1491    14.036    -25.7329
H    -18.7334    16.2009    -27.823
H    -19.4179    17.6075    -25.879
H    -19.1962    16.2034    -24.7809
H    -20.4809    16.168    -26.0359
H    -16.3553    15.9434    -27.1696
H    -16.8224    16.0765    -25.4403
H    -17.0518    17.4759    -26.5429
H    -20.0585    13.3109    -25.0014
H    -22.2213    12.4615    -24.9893
H    -22.6363    15.0274    -26.5982
H    -22.4429    14.9408    -24.8144
H    -21.1089    10.8478    -26.5687
H    -21.4533    11.1246    -29.3785
H    -19.8816    9.6604    -28.1224
H    -20.7279    8.8589    -29.4892
H    -23.841    10.0844    -27.0785
H    -25.5848    9.098    -29.2582
H    -27.0014    8.166    -27.4273
H    -25.7655    8.7146    -26.2447
H    -24.113    7.3163    -27.2395
H    -25.2357    6.8635    -28.5666
H    -26.7426    5.8314    -26.8603
H    -25.4942    6.1725    -25.6146
H    -24.0696    4.5749    -26.5677
H    -24.7385    2.1573    -28.9026
H    -23.6478    2.7848    -27.638
H    -27.0098    4.7869    -28.6704
H    -26.5345    3.3083    -29.5483
H    -24.9659    11.9297    -27.994
H    -26.1425    13.8524    -27.6156
H    -27.5549    12.8403    -27.1604
H    -28.5805    14.6434    -28.1933
H    -29.5231    13.9726    -30.7816
H    -30.8344    15.1416    -29.0142
H    -30.8665    15.9418    -30.6221
H    -29.2918    17.6114    -29.8432
H    -29.1963    16.7965    -28.2452
H    -30.7492    18.6895    -28.1719
H    -31.611    17.1331    -27.9242
H    -31.8603    17.6034    -30.6387
H    -33.9352    20.2279    -28.3654
H    -32.6043    19.2851    -27.6426
H    -33.5605    18.7879    -31.5689
H    -34.538    19.8753    -30.5468
H    -28.9227    14.6832    -32.7526
H    -26.6719    16.6006    -32.7754
H    -27.1916    16.7971    -35.1931
H    -28.6364    17.1208    -34.176
H    -29.2481    14.9044    -34.5551
H    -26.57    13.4654    -32.1385
H    -23.9774    13.5421    -33.4549
H    -24.3304    12.856    -31.033
H    -23.2407    11.8361    -32.0325
H    -24.7197    10.6038    -30.7734
H    -23.0315    12.1044    -34.7137
H    -24.6456    10.6354    -36.6237
H    -22.4325    9.9882    -37.557
H    -21.6223    10.6952    -36.1181
H    -22.5259    11.7559    -37.2517
H    -25.5443    9.5078    -34.406
H    -23.974    6.9728    -34.1638
H    -25.6066    8.3934    -32.033
H    -23.8274    8.1482    -32.0686
H    -24.9461    5.2781    -34.8333
H    -27.7351    5.4647    -35.7807
H    -27.3318    4.1377    -34.6392
H    -24.6197    3.7153    -37.5638
H    -24.532    4.8772    -36.2823
H    -18.7948    6.9603    -30.2466
H    -21.6326    5.5554    -33.1693
H    -22.7022    5.6761    -28.9966
H    -20.6087    5.6643    -27.4612
H    -19.3356    6.8304    -27.9574
H    -18.1926    5.9603    -32.7218
H    -19.5611    6.1238    -33.8737
H    -23.4259    4.8001    -32.5842
H    -23.7455    4.1914    -30.9246
