131

N    13.853    25.156    82.261
C    13.52    25.687    80.942
C    14.144    27.063    80.703
O    14.601    27.364    79.596
C    12.0    25.747    80.755
O    11.65    26.519    79.616
N    14.157    27.895    81.742
C    14.794    29.204    81.666
C    16.297    29.037    81.479
O    16.957    29.876    80.864
C    14.533    30.008    82.946
C    13.123    30.574    83.059
C    12.803    31.016    84.482
N    13.506    32.233    84.883
C    13.017    33.466    84.749
N    11.817    33.666    84.212
N    13.73    34.506    85.157
N    16.826    27.947    82.029
C    18.263    27.726    82.057
C    18.67    26.733    80.97
O    18.1    25.648    80.869
C    18.71    27.214    83.433
C    20.22    27.089    83.485
C    18.215    28.151    84.54
N    19.655    27.11    80.147
C    20.057    26.291    78.998
C    20.87    25.05    79.38
O    21.51    25.014    80.435
C    20.93    27.251    78.182
C    21.523    28.157    79.205
C    20.428    28.361    80.23
N    20.829    24.056    78.499
C    21.631    22.845    78.622
C    22.42    22.674    77.343
O    21.884    22.877    76.248
C    20.739    21.62    78.802
O    19.991    21.768    80.012
C    21.576    20.333    78.878
N    23.687    22.285    77.467
C    24.502    21.969    76.298
C    25.108    20.588    76.468
O    25.55    20.228    77.562
C    25.626    22.991    76.11
O    25.113    24.268    75.752
N    25.116    19.821    75.383
C    25.768    18.517    75.327
C    27.208    18.763    74.896
O    27.436    19.414    73.871
C    25.086    17.605    74.278
C    23.604    17.416    74.602
C    25.787    16.265    74.203
C    22.792    16.831    73.437
N    28.177    18.262    75.668
C    29.598    18.523    75.407
C    30.501    17.304    75.628
O    30.077    16.243    76.104
C    30.147    19.697    76.268
C    30.067    19.383    77.763
C    29.415    21.005    75.954
C    30.757    20.443    78.632
O    31.699    17.368    75.331
H    13.4237    24.2514    82.3772
H    13.5116    25.7837    82.9719
H    14.8535    25.0662    82.3443
H    13.9294    24.9973    80.1892
H    11.5468    26.2011    81.6485
H    11.6141    24.7249    80.6273
H    10.7045    26.538    79.5261
H    13.7188    27.615    82.5962
H    14.3807    29.7525    80.8068
H    15.2436    30.8471    82.9758
H    14.7086    29.348    83.8083
H    12.403    29.7994    82.7564
H    13.0325    31.441    82.3881
H    13.0864    30.2065    85.1708
H    11.7207    31.1981    84.5557
H    14.4434    32.1311    85.2975
H    11.4498    34.6233    84.1137
H    11.2547    32.8636    83.8944
H    14.6605    34.3607    85.5741
H    13.3537    35.4596    85.0569
H    16.2198    27.2622    82.4335
H    18.7659    28.6846    81.8617
H    18.2707    26.2187    83.5951
H    20.5235    26.7214    84.4763
H    20.6759    28.0735    83.3036
H    20.5562    26.3813    82.7129
H    17.1191    28.2315    84.4894
H    18.6624    29.1468    84.4048
H    18.5081    27.7473    85.5204
H    19.172    25.9763    78.4256
H    20.3206    27.8186    77.4633
H    21.7163    26.7021    77.6431
H    21.8111    29.1166    78.751
H    22.4049    27.6914    79.6691
H    20.85    28.4983    81.2365
H    19.8032    29.229    79.9728
H    20.2175    24.1431    77.7125
H    22.3126    22.9364    79.4805
H    20.0478    21.5488    77.9493
H    19.456    22.5512    79.9585
H    20.9083    19.4685    79.0075
H    22.2662    20.3943    79.7323
H    22.1525    20.2151    77.9486
H    24.0886    22.2077    78.3795
H    23.8604    21.977    75.4045
H    26.2991    22.64    75.314
H    26.1876    23.0823    77.0514
H    24.534    24.5791    76.438
H    24.6513    20.1546    74.5628
H    25.737    18.0352    76.3154
H    25.1646    18.092    73.2948
H    23.1778    18.395    74.8664
H    23.5196    16.735    75.4617
H    26.8506    16.4202    73.9694
H    25.3242    15.6526    73.4151
H    25.6956    15.7487    75.17
H    21.7403    16.7234    73.7408
H    23.1979    15.8453    73.1656
H    22.8561    17.5053    72.5703
H    27.9259    17.6905    76.4492
H    29.6804    18.8112    74.3487
H    31.2074    19.8333    76.0092
H    30.55    18.4115    77.9443
H    29.0077    19.3257    78.0537
H    29.4833    21.2137    74.8762
H    29.8781    21.8287    76.517
H    28.3578    20.9121    76.2432
H    30.6666    20.1636    79.6921
H    30.2783    21.4197    78.4682
H    31.8207    20.5055    78.3587
