81

C    36.051    2.689    54.992
N    35.622    3.632    54.014
O    36.882    1.883    54.622
C    35.537    2.677    56.399
N    38.52    9.819    60.236
O    37.083    5.58    59.972
C    35.648    3.793    57.229
N    39.34    6.036    60.673
O    37.007    8.168    59.35
C    35.186    3.79    58.668
O    36.317    9.677    60.895
C    34.891    5.198    59.116
O    30.208    9.336    58.083
C    36.127    6.037    59.078
O    29.953    6.719    59.254
C    35.837    7.453    59.446
O    38.778    5.621    58.512
C    34.822    8.076    58.536
O    34.232    8.162    53.202
C    33.639    8.499    59.135
O    31.19    5.573    56.965
C    32.545    9.256    58.434
C    31.185    8.734    58.844
C    31.079    7.234    58.676
C    31.031    6.927    57.208
C    29.003    9.739    58.662
C    31.124    5.14    55.642
C    32.421    5.395    54.952
C    32.71    6.739    54.374
C    33.904    6.953    53.764
C    34.908    5.868    53.643
C    34.648    4.653    54.176
C    33.338    4.392    54.846
C    34.937    1.413    56.921
C    38.431    5.534    59.684
C    37.209    9.253    60.174
C    35.157    8.256    57.078
C    32.657    10.691    58.809
C    29.768    6.848    60.612
C    34.901    8.033    51.995
H    36.0542    3.568    53.1145
H    38.6969    10.6072    60.8254
H    39.2603    9.4268    59.69
H    36.0856    4.7039    56.8232
H    40.325    6.0197    60.501
H    38.9889    6.4024    61.5347
H    35.9759    3.3632    59.3036
H    34.2745    3.1807    58.757
H    34.5022    5.1751    60.1447
H    34.1358    5.6381    58.4483
H    36.5376    6.0029    58.0581
H    35.4618    7.4874    60.4794
H    33.4951    8.2645    60.1887
H    32.6624    9.1463    57.3458
H    31.0209    8.982    59.903
H    31.9627    6.7603    59.1284
H    30.0587    7.2499    56.8074
H    31.8374    7.4777    56.7016
H    28.3612    10.1945    57.8935
H    29.2049    10.4748    59.4543
H    28.4935    8.8652    59.0942
H    30.3222    5.6839    55.1211
H    30.9081    4.0616    55.6228
H    31.9766    7.5345    54.44
H    35.8456    6.0483    53.1297
H    33.1178    3.4089    55.2462
H    34.9356    0.6523    56.1264
H    33.904    1.6047    57.2469
H    35.5294    1.0509    57.7741
H    34.3062    8.7242    56.5614
H    35.3657    7.2752    56.6259
H    36.0436    8.9001    56.9823
H    33.6452    11.0716    58.5115
H    32.5361    10.7961    59.8973
H    31.8727    11.2665    58.2956
H    28.8156    6.3782    60.8985
H    29.7456    7.9148    60.8793
H    30.5949    6.3541    61.1433
H    35.1351    9.0314    51.597
H    34.2644    7.4929    51.2788
H    35.8345    7.4725    52.1512
