69

C    11.781    10.738    -1.043
C    12.414    11.957    -0.431
N    11.556    12.817    0.22
C    12.033    14.023    0.89
C    12.241    15.149    -0.123
C    12.646    16.423    0.616
O    11.5    17.054    1.182
C    13.403    17.385    -0.31
O    12.564    17.825    -1.369
O    13.634    12.192    -0.479
N    10.35    10.632    -0.589
C    12.467    9.466    -0.549
C    13.595    9.007    -1.435
C    13.601    9.292    -2.802
C    14.641    8.817    -3.613
C    14.63    8.269    -0.877
C    15.669    7.801    -1.685
Cl    16.985    6.894    -0.955
C    15.678    8.063    -3.063
C    11.33    8.456    -0.438
C    10.965    7.977    -1.78
N    10.689    7.604    -2.82
C    11.662    7.293    0.469
C    12.218    7.516    1.745
C    12.538    6.429    2.561
C    11.426    5.988    0.024
C    11.742    4.901    0.841
C    12.299    5.122    2.104
Cl    12.718    3.745    3.119
C    10.187    9.303    0.095
C    8.816    8.67    -0.208
C    7.72    9.186    0.758
C    7.803    10.724    0.897
C    7.901    8.544    2.142
C    6.336    8.796    0.21
H    11.8367    10.803    -2.1397
H    10.578    12.6087    0.2338
H    12.9877    13.8056    1.3912
H    11.2906    14.3403    1.6371
H    11.3054    15.3253    -0.674
H    13.035    14.8658    -0.8297
H    13.3216    16.1411    1.4371
H    10.8889    17.2779    0.4899
H    14.2767    16.8673    -0.7325
H    13.7387    18.2566    0.271
H    11.8095    18.2751    -1.0076
H    9.7323    10.6875    -1.3836
H    10.1375    11.3781    0.0546
H    12.8886    9.6473    0.4507
H    12.8011    9.8808    -3.2362
H    14.6395    9.037    -4.6745
H    14.6319    8.0559    0.1858
H    16.4776    7.6858    -3.6903
H    12.3965    8.5275    2.0915
H    12.9687    6.5927    3.5422
H    10.9969    5.8204    -0.9572
H    11.5562    3.8898    0.4975
H    10.2845    9.425    1.1839
H    8.8969    7.5779    -0.1044
H    8.5281    8.9201    -1.2398
H    7.019    11.0728    1.5853
H    7.6588    11.1896    -0.0891
H    8.7901    11.0036    1.2938
H    7.8428    7.4495    2.0489
H    7.1073    8.8973    2.8167
H    8.8825    8.8255    2.5513
H    6.1932    9.2497    -0.7819
H    5.5551    9.1583    0.8947
H    6.2703    7.7012    0.1253
