79

O    31.05    80.977    64.274
C    30.119    80.283    64.662
C    28.905    80.128    63.774
C    28.559    81.159    62.905
C    27.437    81.041    62.085
C    26.651    79.898    62.122
C    27.001    78.873    62.985
O    26.246    77.743    63.028
C    28.114    78.987    63.802
O    28.415    77.954    64.636
N    30.154    79.69    65.864
C    31.217    79.71    66.866
C    30.567    79.626    68.252
C    30.356    78.18    68.725
N    30.177    78.063    70.184
C    30.321    76.922    70.881
O    30.136    76.915    72.087
C    30.671    75.588    70.268
C    32.181    75.32    70.257
C    32.612    74.355    71.355
O    32.489    74.75    68.986
N    30.328    75.388    68.866
C    31.296    74.95    68.195
C    31.251    74.662    66.726
C    30.231    75.155    65.927
O    29.234    75.939    66.414
C    30.201    74.862    64.587
O    29.19    75.385    63.842
C    31.191    74.069    64.019
C    32.221    73.571    64.812
C    32.248    73.87    66.17
C    29.809    79.274    70.927
C    28.347    79.133    71.36
C    27.379    79.723    70.335
N    26.824    78.607    69.578
C    25.567    78.165    69.618
O    24.76    78.67    70.385
C    25.147    76.992    68.769
C    25.875    76.579    67.66
O    27.001    77.239    67.282
C    25.476    75.469    66.932
O    26.201    75.066    65.848
C    24.328    74.772    67.289
C    23.584    75.187    68.385
C    23.995    76.292    69.12
H    29.1642    82.0574    62.8655
H    27.1764    81.85    61.4122
H    25.7777    79.8089    61.4861
H    26.6144    77.1414    63.6643
H    28.5685    77.1691    64.1234
H    29.3409    79.1615    66.1081
H    31.7927    80.6434    66.7802
H    31.8871    78.8507    66.7159
H    29.5894    80.1288    68.2126
H    31.2155    80.1412    68.9759
H    31.234    77.5854    68.4324
H    29.4595    77.7782    68.2301
H    30.162    74.8208    70.8698
H    32.7209    76.2698    70.3853
H    33.6996    74.1996    71.3004
H    32.0969    73.3925    71.2202
H    32.3507    74.7764    72.3369
H    28.6403    76.1688    65.7089
H    29.2224    76.3333    63.8875
H    31.1611    73.8387    62.9602
H    32.9972    72.954    64.3738
H    33.0464    73.4854    66.7943
H    29.9245    80.1578    70.2824
H    30.4528    79.3795    71.8127
H    28.2098    79.6559    72.318
H    28.1177    78.0649    71.4891
H    27.9145    80.4073    69.6605
H    26.5733    80.2691    70.8475
H    27.4504    78.1239    68.9663
H    27.3666    76.8229    66.5102
H    27.0863    74.8558    66.1209
H    24.0149    73.908    66.7141
H    22.6851    74.6505    68.6665
H    23.4127    76.613    69.9761
