51

O    60.253    59.237    0.624
C    60.964    59.507    -0.323
N    61.308    60.73    -0.75
C    61.636    58.52    -1.245
C    62.378    59.375    -2.239
C    62.127    60.687    -1.873
C    62.667    61.724    -2.619
C    63.461    61.422    -3.701
Br    64.195    62.856    -4.683
C    63.723    60.113    -4.062
C    63.172    59.081    -3.322
C    63.436    57.637    -3.687
N    64.106    57.514    -4.989
C    65.429    57.336    -5.197
O    66.26    57.273    -4.312
C    63.469    57.522    -6.218
C    64.457    57.36    -7.194
C    64.085    57.343    -8.532
C    62.753    57.471    -8.879
C    61.782    57.634    -7.903
C    62.13    57.66    -6.569
N    65.681    57.249    -6.52
C    67.02    57.077    -7.11
C    67.373    58.243    -8.048
C    66.882    59.577    -7.547
O    66.282    60.428    -8.394
O    67.029    59.896    -6.394
C    67.077    55.777    -7.91
C    67.073    54.577    -6.963
C    67.542    53.344    -7.744
H    61.0095    61.5774    -0.3108
H    60.8892    57.8925    -1.7534
H    62.334    57.8793    -0.6862
H    62.4666    62.7558    -2.3538
H    64.354    59.8971    -4.9166
H    62.477    57.0998    -3.7286
H    64.0757    57.1861    -2.914
H    64.8382    57.2295    -9.3033
H    62.4651    57.4437    -9.9237
H    60.7424    57.7417    -8.1905
H    61.3714    57.7861    -5.8051
H    67.7601    57.0351    -6.2973
H    66.9194    58.0503    -9.0314
H    68.4671    58.2896    -8.1516
H    67.9965    55.7611    -8.5135
H    66.2017    55.7195    -8.5738
H    66.0557    54.4093    -6.5797
H    67.7555    54.7655    -6.1212
H    67.546    52.4681    -7.0785
H    68.5582    53.5176    -8.1276
H    66.8583    53.1614    -8.5861
