30

N    2.424    -1.797    0.335
C    3.038    -2.215    -0.802
C    1.843    -2.772    1.095
C    1.867    -4.16    0.788
C    2.479    -4.496    -0.39
N    2.979    -3.527    -1.207
C    1.309    -5.138    1.72
C    -0.05    -5.138    2.105
C    -0.534    -6.067    3.067
C    0.426    -6.964    3.634
C    1.811    -6.968    3.334
C    2.188    -6.062    2.33
N    1.221    -2.337    2.235
N    3.638    -1.38    -1.572
C    2.571    -5.908    -0.978
C    4.05    -6.366    -1.0
Cl    -0.181    -8.116    4.794
H    -0.7322    -4.4214    1.662
H    -1.5783    -6.0942    3.3564
H    2.5195    -7.6159    3.8373
H    3.2208    -6.0716    2.001
H    0.7597    -3.0133    2.8601
H    1.2145    -1.3336    2.4673
H    3.7036    -0.3877    -1.3039
H    4.0535    -1.7028    -2.4575
H    2.1737    -5.9041    -2.0037
H    1.9823    -6.6013    -0.3594
H    4.1137    -7.3797    -1.4224
H    4.4478    -6.3705    0.0255
H    4.6392    -5.6733    -1.6188
