129

C       -113.39300       26.64900        9.23200
C       -112.22300       26.32500        8.46500
C       -110.95600       26.71000        8.89800
C       -110.76100       27.42100       10.09900
C       -111.96800       28.52400       12.27100
C       -113.06800       28.84300       12.86900
C       -114.53800       28.51200       12.38800
C       -114.42600       27.68000       11.21900
C       -113.24500       27.40300       10.51000
C       -111.98000       27.77700       10.94600
C       -111.02600       28.96600       13.00700
C       -111.31300       29.70400       14.08000
C       -110.48900       29.51700       15.36900
C       -115.76300       28.55600       13.29900
C       -112.74600       26.38400        6.04400
C       -112.96500       25.69800        4.65700
C       -113.50900       26.55200        3.49900
C       -112.52700       27.42500        2.71400
C       -111.17700       27.72300        3.37800
C       -110.72800       29.16700        3.14000
C       -111.01100       30.04100        4.39100
C       -109.95300       31.11500        4.75200
C       -110.49100       31.96400        5.93300
C       -109.73400       31.76300        7.27600
C       -110.20700       32.83000        8.28100
C       -110.60700       32.16700        9.60700
C       -110.54500       33.21600       10.73400
C       -111.09100       32.71900       12.05800
C       -110.87200       31.39200       12.39900
C       -112.27100       24.35500        4.42200
C       -109.27700       29.10700        2.72800
C       -109.60700       32.01100        3.58800
C       -108.22900       31.84300        7.13600
C       -111.97900       31.66200        9.43000
C       -109.21800       34.98000        7.65600
C       -107.89000       35.73500        7.42800
C       -110.96200       35.48900       11.16000
N       -112.38000       25.59900        7.23000
O       -109.88400       26.33200        8.05200
C       -108.58200       26.70100        8.45500
C       -108.37200       27.40600        9.63900
N       -109.45800       27.74900       10.42800
O       -114.48400       26.29600        8.81300
O       -115.64600       27.16800       10.69400
O       -112.81400       29.62600       14.24300
O       -109.86400       28.73000       12.77500
O       -111.10900       31.02100       13.76500
O       -111.32000       34.33500       10.41100
O       -109.21900       33.82100        8.49200
O       -110.25800       35.52900        7.38200
O       -111.82200       31.62300        6.13300
O       -112.23700       30.67600        4.21100
O       -112.85900       27.58800        6.16700
C       -107.55900       26.31200        7.59500
C       -106.24200       26.63300        7.91400
C       -105.96400       27.34200        9.09100
C       -107.00400       27.72700        9.95100
O       -106.72600       28.46200       11.16700
C       -105.33100       28.73100       11.53000
C       -105.26600       29.18300       12.98500
N       -105.65200       28.08800       13.89100
C       -105.06000       28.34300       15.18300
C       -105.26300       27.15600       16.13700
C       -107.08600       28.00300       14.03200
C       -107.56700       26.62500       13.55500
H       -110.86140       30.20210       16.14480
H       -109.43100       29.73670       15.16300
H       -110.58650       28.47880       15.71920
H       -115.58720       29.27200       14.11540
H       -115.94250       27.55600       13.72060
H       -116.64150       28.87180       12.71720
H       -111.30560       29.58960        2.30460
H       -111.08670       29.35980        5.25140
H       -109.03430       30.60160        5.07190
H       -110.42040       33.02570        5.65410
H       -109.98800       30.76640        7.66630
H       -111.09630       33.32300        7.86140
H       -109.92660       31.33490        9.84080
H       -109.49480       33.51570       10.86570
H       -112.17950       32.87660       12.04220
H       -110.64230       33.33770       12.84910
H       -109.82150       31.15990       12.17000
H       -111.52960       30.77500       11.76910
H       -111.96720       23.92530        5.38800
H       -111.38190       24.50690        3.79240
H       -112.96490       23.66710        3.91680
H       -109.17470       28.46860        1.83800
H       -108.67920       28.68770        3.55070
H       -108.91980       30.12090        2.49490
H       -109.22660       31.40050        2.75580
H       -108.83540       32.73160        3.89670
H       -110.50680       32.55390        3.26300
H       -107.88650       31.08240        6.41890
H       -107.75960       31.66220        8.11420
H       -107.94710       32.84240        6.77310
H       -111.99380       30.91660        8.62120
H       -112.64660       32.49710        9.17120
H       -112.32140       31.19500       10.36530
H       -108.06630       36.59510        6.76540
H       -107.15840       35.05790        6.96300
H       -107.49950       36.08980        8.39320
H       -111.60310       36.33220       10.86320
H       -109.90960       35.74170       10.96360
H       -111.09640       35.28610       12.23270
H       -112.24630       24.60910        7.18290
H       -115.78760       27.52070        9.82340
H       -107.78500       25.76510        6.68680
H       -105.43470       26.33570        7.25450
H       -104.93920       27.59440        9.33840
H       -104.92880       29.52290       10.88110
H       -104.73530       27.81510       11.40300
H       -105.95240       30.03010       13.13040
H       -104.23870       29.49910       13.21880
H       -105.30520       27.21530       13.52480
H       -105.52720       29.23760       15.62050
H       -103.98170       28.51820       15.05430
H       -104.80100       27.38360       17.10900
H       -104.79390       26.25760       15.70950
H       -106.33940       26.97690       16.27570
H       -107.56120       28.78750       13.42480
H       -107.35930       28.14110       15.08850
H       -108.65980       26.56070       13.66260
H       -107.09200       25.84040       14.16220
H       -107.29390       26.48680       12.49850
H       -112.18043       31.27953        3.45374
H       -112.31397       31.74136        5.30544
H       -114.51215       26.53668        3.25717
H       -112.76258       27.79623        1.78034
H       -110.63561       27.03212        3.92077
