23

C    53.214    -0.284    22.344
C    53.19    0.908    21.725
S    51.613    1.58    21.8
C    51.094    0.382    22.876
C    52.021    -0.62    23.114
S    51.92    -1.972    24.1
O    51.643    -1.627    25.449
O    53.035    -2.813    23.795
N    50.624    -3.026    23.853
C    50.099    -3.395    22.588
C    50.478    -2.557    21.406
C    51.105    -3.939    21.599
C    49.612    0.492    23.346
O    49.014    1.553    23.238
O    49.215    -0.596    23.794
H    54.0683    -0.9559    22.2756
H    54.0467    1.3792    21.2454
H    50.1921    -3.4217    24.6635
H    49.0895    -3.8219    22.6808
H    51.0874    -1.652    21.5458
H    49.7538    -2.3898    20.5951
H    50.8305    -4.7687    20.931
H    52.1641    -4.0309    21.8817
