25

C    -8.732    51.672    12.134
C    -7.532    50.934    11.983
C    -6.309    51.413    12.442
C    -7.511    53.447    13.252
C    -5.559    54.717    14.211
C    -5.119    53.455    13.692
B    -4.626    55.869    14.846
C    -6.301    52.698    13.115
S    -7.227    54.931    14.029
C    -8.735    52.901    12.764
C    -3.808    52.855    13.605
C    -2.835    53.611    13.124
C    -1.691    52.798    12.746
O    -3.856    56.336    13.636
O    -5.538    56.945    15.473
O    -0.756    53.359    12.132
O    -1.733    51.55    12.916
H    -9.6608    51.2663    11.7496
H    -7.5678    49.9667    11.495
H    -5.3954    50.8466    12.3018
H    -9.6628    53.4479    12.887
H    -3.629    51.8282    13.9207
H    -2.8843    54.6944    13.0248
H    -4.4653    56.612    12.9614
H    -5.9872    56.5784    16.2255
