84

N    -22.955    6.451    -10.469
C    -24.41    6.274    -10.276
C    -22.547    7.826    -10.813
C    -21.027    7.966    -10.711
C    -23.008    8.205    -12.194
O    -23.322    7.335    -13.011
N    -23.12    9.498    -12.48
C    -23.571    10.007    -13.77
C    -22.485    10.938    -14.289
O    -21.639    11.382    -13.496
C    -24.93    10.783    -13.685
C    -24.729    12.08    -12.863
C    -26.088    12.805    -12.713
C    -27.095    11.873    -12.035
C    -27.333    10.618    -12.904
C    -26.009    9.844    -13.107
N    -22.365    11.243    -15.597
C    -23.38    10.81    -16.631
C    -22.718    10.615    -17.986
C    -23.715    10.43    -19.158
C    -22.855    10.913    -20.359
C    -21.39    10.454    -20.435
C    -21.746    11.819    -19.773
N    -22.031    11.895    -18.34
C    -20.864    12.061    -17.477
C    -21.324    12.201    -16.005
C    -21.818    13.59    -15.69
O    -23.018    13.82    -15.515
N    -20.863    14.52    -15.581
C    -21.144    15.911    -15.208
C    -21.557    16.671    -16.484
C    -20.327    17.233    -17.22
O    -19.57    18.064    -16.305
C    -19.222    17.534    -15.087
C    -18.102    18.054    -14.415
C    -17.712    17.538    -13.178
C    -18.398    16.49    -12.61
C    -19.503    15.984    -13.273
C    -19.922    16.497    -14.504
H    -22.6593    5.8392    -11.2135
H    -22.4897    6.1891    -9.6141
H    -24.6214    5.2243    -10.024
H    -24.9381    6.542    -11.2029
H    -24.7531    6.9238    -9.4574
H    -23.0114    8.5149    -10.0921
H    -20.7354    8.9946    -10.9696
H    -20.5464    7.2627    -11.407
H    -20.7062    7.7414    -9.6831
H    -22.8812    10.1601    -11.7696
H    -23.6957    9.1618    -14.4629
H    -25.2392    11.0707    -14.7007
H    -24.0168    12.7379    -13.3825
H    -24.3355    11.827    -11.8674
H    -26.4635    13.0884    -13.7073
H    -25.9552    13.7086    -12.0999
H    -28.0476    12.4057    -11.8983
H    -26.7024    11.5662    -11.0543
H    -27.7273    10.925    -13.8839
H    -28.0623    9.9638    -12.4039
H    -25.6667    9.4484    -12.1394
H    -26.178    9.0107    -13.8048
H    -24.1589    11.5818    -16.7176
H    -23.8373    9.8615    -16.3129
H    -22.0158    9.7697    -17.9373
H    -24.6121    11.053    -19.0273
H    -24.0131    9.3774    -19.2723
H    -23.4392    11.1272    -21.2661
H    -20.8701    10.4317    -21.4041
H    -21.0435    9.6151    -19.8136
H    -21.3893    12.7672    -20.2015
H    -22.6513    12.6728    -18.1776
H    -20.3128    12.9647    -17.776
H    -20.2087    11.1829    -17.574
H    -20.4388    12.0093    -15.3807
H    -19.9156    14.2557    -15.7617
H    -21.9881    15.9349    -14.5031
H    -22.2206    17.5034    -16.2069
H    -22.0925    15.9825    -17.1542
H    -20.6549    17.8352    -18.0801
H    -19.6967    16.4032    -17.5723
H    -17.5359    18.8633    -14.8617
H    -16.8614    17.9669    -12.6608
H    -18.0801    16.069    -11.663
H    -20.0584    15.1678    -12.8254
