128

C    6.491    17.257    15.46
O    6.676    18.137    14.616
C    5.154    17.114    16.166
N    7.453    16.383    15.788
C    8.781    16.422    15.173
C    8.781    15.797    13.78
O    7.919    14.984    13.462
C    9.63    15.635    16.164
C    8.676    14.563    16.597
C    7.388    15.334    16.825
N    9.75    16.184    12.955
C    9.86    15.659    11.599
C    10.825    14.483    11.517
O    11.009    13.888    10.457
C    10.303    16.768    10.642
C    9.271    17.887    10.477
C    9.774    18.91    9.468
C    7.952    17.291    10.015
N    11.451    14.162    12.643
C    12.38    13.042    12.711
C    12.468    12.606    14.161
O    12.035    13.331    15.06
C    13.766    13.445    12.183
C    14.367    14.627    12.879
N    14.752    14.598    14.203
C    14.653    15.873    12.431
C    15.251    15.775    14.54
N    15.203    16.566    13.483
N    13.013    11.419    14.392
C    13.14    10.91    15.75
C    14.225    11.667    16.519
O    14.856    12.583    15.99
C    13.445    9.405    15.725
O    14.621    9.105    14.979
N    14.45    11.29    17.784
C    15.073    12.207    18.736
C    14.956    11.692    20.192
C    15.492    12.68    21.201
O    13.536    11.549    20.377
P    12.795    10.157    20.63
O    13.504    9.308    21.644
O    12.769    9.549    19.233
O    11.43    10.623    21.071
C    16.56    12.354    18.413
O    17.249    11.389    18.157
N    17.048    13.592    18.44
C    18.463    13.952    18.493
C    18.939    14.174    19.924
O    18.164    14.579    20.794
C    18.716    15.224    17.686
C    18.309    15.15    16.235
S    18.79    16.67    15.396
C    19.752    16.021    14.031
N    20.22    13.919    20.18
C    4.903    18.058    17.505
C    5.201    19.482    17.052
C    4.898    20.454    18.193
C    5.764    20.112    19.398
C    5.466    18.688    19.851
C    3.995    18.573    20.237
C    3.124    18.918    19.032
C    3.429    17.946    17.889
C    5.77    17.717    18.712
C    3.426    20.344    18.579
H    5.0543    16.0638    16.4775
H    4.3667    17.3566    15.4372
H    9.1416    17.4583    15.0946
H    9.9405    16.2621    17.0127
H    10.52    15.2077    15.6789
H    9.0176    14.0788    17.5237
H    8.5497    13.8035    15.8114
H    6.5085    14.6888    16.6827
H    7.3613    15.7733    17.8331
H    10.4214    16.8532    13.2734
H    8.8655    15.3067    11.2878
H    10.4908    16.3205    9.6549
H    11.2341    17.2085    11.028
H    9.1202    18.3852    11.4461
H    9.0281    19.7105    9.3545
H    9.9352    18.4188    8.4971
H    10.7221    19.34    9.8233
H    7.6033    16.555    10.7544
H    8.0939    16.7955    9.0432
H    7.2039    18.0909    9.913
H    11.2802    14.7034    13.4662
H    11.9959    12.2112    12.1009
H    13.6716    13.6854    11.1138
H    14.4453    12.5889    12.3078
H    14.4797    16.2542    11.4257
H    15.6361    16.0463    15.5219
H    15.5255    17.5437    13.4522
H    13.3403    10.8675    13.6247
H    12.1813    11.0616    16.2676
H    12.5932    8.8787    15.2696
H    13.5825    9.0545    16.7585
H    15.3641    9.5503    15.3688
H    14.189    10.3713    18.0803
H    14.5798    13.1872    18.6585
H    15.4753    10.7292    20.3075
H    15.3844    12.2646    22.2138
H    14.9269    13.621    21.1287
H    16.555    12.8739    20.9953
H    16.3874    14.3425    18.4224
H    19.0457    13.1291    18.0533
H    19.7925    15.446    17.7275
H    18.154    16.0442    18.1566
H    17.2185    15.023    16.1664
H    18.8086    14.2942    15.7575
H    20.1218    16.8536    13.4145
H    19.1197    15.3628    13.417
H    20.6052    15.4482    14.4233
H    20.5808    14.0491    21.1035
H    20.8216    13.5974    19.4488
H    4.5732    19.7294    16.1833
H    6.2619    19.5636    16.7729
H    5.1151    21.4815    17.8657
H    5.5435    20.8112    20.2181
H    6.8255    20.194    19.1216
H    6.0933    18.4413    20.7202
H    3.7761    19.2702    21.0592
H    3.7805    17.5442    20.5618
H    2.0628    18.8375    19.3101
H    3.2119    16.9179    18.2143
H    2.8035    18.1952    17.0191
H    6.8315    17.7982    18.4351
H    5.554    16.6893    19.0395
H    2.7994    20.593    17.7099
H    3.209    21.0432    19.4
