50

C    28.582    28.022    24.857
C    29.939    28.279    24.992
C    27.811    26.73    24.587
C    27.2    31.394    28.137
C    28.72    25.515    24.764
C    27.276    26.738    23.156
C    26.641    26.606    25.563
C    26.315    32.263    28.688
C    25.114    30.455    28.944
N    30.129    29.596    25.308
C    28.907    30.119    25.354
O    27.922    29.214    25.074
C    28.542    31.489    25.762
S    28.838    31.581    27.534
N    25.146    31.738    29.171
N    23.948    29.752    29.183
C    23.678    28.477    28.765
O    24.464    27.799    28.109
C    22.283    27.969    29.123
C    21.59    27.437    27.868
C    22.416    26.939    30.238
C    22.729    25.609    29.975
C    22.757    24.672    30.997
C    22.49    25.056    32.297
C    22.216    26.38    32.576
C    22.178    27.316    31.553
S    26.523    29.784    28.175
H    30.7322    27.5436    24.8655
H    28.1476    24.5969    24.5657
H    29.1047    25.4918    25.7943
H    29.5622    25.5814    24.0595
H    26.6191    27.609    23.015
H    26.7059    25.8154    22.9725
H    28.1177    26.7955    22.4502
H    27.0231    26.6    26.5945
H    26.0982    25.6695    25.3676
H    25.9599    27.4594    25.4293
H    26.5251    33.3301    28.7436
H    27.4818    31.6826    25.5421
H    29.1665    32.2236    25.2325
H    23.2367    30.2176    29.7095
H    21.6857    28.8097    29.5058
H    21.533    28.236    27.1141
H    20.5742    27.1016    28.1243
H    22.1643    26.5908    27.4628
H    22.9535    25.3018    28.9599
H    22.9888    23.6365    30.7755
H    22.4956    24.3213    33.094
H    22.0299    26.6892    33.5982
H    21.9602    28.3528    31.7826
