35

C    10.644    8.799    22.73
C    9.947    8.098    23.758
C    8.883    7.285    23.451
C    8.449    7.124    22.083
C    9.149    7.855    21.051
C    10.26    8.685    21.407
C    8.725    7.771    19.679
C    7.644    6.988    19.33
C    6.938    6.236    20.31
C    7.337    6.286    21.655
N    6.636    5.417    22.574
C    7.243    4.671    23.595
C    6.211    3.968    24.204
C    5.01    4.35    23.485
N    5.308    5.232    22.509
C    3.628    3.933    23.772
O    3.408    3.283    24.777
N    2.579    4.33    22.925
N    6.254    3.054    25.253
C    7.432    2.688    25.999
O    8.571    3.175    25.83
N    7.234    1.733    26.989
H    11.4864    9.4298    22.9897
H    10.2594    8.2076    24.7902
H    8.3638    6.7588    24.2439
H    10.8007    9.2247    20.638
H    9.2577    8.3259    18.9152
H    7.3279    6.9451    18.294
H    6.092    5.6244    20.018
H    8.3002    4.6478    23.8554
H    1.6412    4.0448    23.1231
H    2.7704    4.8977    22.1243
H    5.3941    2.6136    25.5112
H    8.0035    1.4271    27.5497
H    6.3221    1.3517    27.1407
