36

S    15.171    3.545    15.672
C    16.127    2.152    15.896
C    17.444    2.225    15.27
C    17.46    3.551    14.682
C    18.724    3.918    13.927
C    18.824    5.397    13.595
C    17.588    5.955    12.958
S    16.29    5.918    14.202
C    16.345    4.302    14.826
S    15.447    0.82    16.83
O    15.934    0.922    18.204
O    13.999    0.966    16.723
N    16.07    -0.559    16.244
N    18.683    3.128    12.703
C    17.873    7.356    12.502
O    16.598    6.76    15.324
O    14.996    6.215    13.635
C    19.907    3.118    11.939
C    20.038    2.084    10.852
H    18.2256    1.467    15.2495
H    19.6018    3.637    14.5274
H    19.667    5.5417    12.9033
H    19.0148    5.9501    14.5265
H    17.2928    5.3415    12.094
H    15.806    -1.4366    16.644
H    16.718    -0.5312    15.4828
H    17.952    3.4989    12.1164
H    18.4632    2.1765    12.9528
H    18.6696    7.3398    11.7436
H    18.1966    7.9625    13.3608
H    16.9618    7.7927    12.0673
H    20.7354    2.9606    12.6454
H    20.0097    4.1066    11.4678
H    21.0143    2.1938    10.3573
H    19.2349    2.2245    10.1136
H    19.9606    1.0785    11.2912
