17

N    79.79    6.517    -38.611
C    79.144    5.44    -37.867
C    79.671    5.479    -36.36
C    78.971    4.414    -35.511
S    80.004    4.056    -33.997
C    77.541    5.588    -37.961
O    76.848    4.616    -37.631
O    77.129    6.69    -38.414
H    80.7909    6.4164    -38.5467
H    79.5159    7.4056    -38.2219
H    79.5093    6.4727    -39.5781
H    79.4279    4.4752    -38.3126
H    79.4676    6.4719    -35.9325
H    80.7548    5.2913    -36.3521
H    78.8521    3.4932    -36.101
H    77.9815    4.782    -35.2022
H    79.545    3.3551    -33.4366
