57

O    18.962    16.818    5.298
P    17.814    16.028    4.649
O    18.166    14.577    3.902
O    17.168    16.99    3.673
O    16.645    15.703    5.756
C    16.879    15.051    6.937
C    16.025    13.76    7.014
C    14.527    14.122    7.12
C    16.494    13.011    8.253
C    16.304    12.85    5.754
O    17.726    12.634    5.561
C    15.65    11.487    5.886
O    14.413    11.371    5.846
N    16.467    10.446    6.052
C    15.997    9.094    6.149
C    15.463    8.852    7.609
C    14.76    7.514    7.674
O    13.588    7.403    7.37
N    15.494    6.465    7.997
C    14.9    5.124    8.0
C    15.915    4.046    8.226
C    16.256    4.116    9.66
C    15.77    2.835    10.284
C    17.019    2.366    10.952
C    16.618    1.623    12.189
C    17.7    1.97    13.217
H    16.6147    15.712    7.7756
H    17.9447    14.786    7.0008
H    13.9299    13.1998    7.1741
H    14.2264    14.702    6.235
H    14.358    14.7219    8.0264
H    17.5616    12.7661    8.1512
H    15.9137    12.0829    8.362
H    16.3458    13.6426    9.1413
H    15.8952    13.3573    4.8677
H    18.1574    13.4704    5.4309
H    17.4508    10.6154    6.1115
H    16.8223    8.3986    5.9362
H    15.1845    8.9312    5.4255
H    14.7562    9.6508    7.878
H    16.3075    8.8569    8.3138
H    16.4566    6.5851    8.24
H    14.4134    4.9518    7.0286
H    14.1478    5.0734    8.8011
H    16.8085    4.2246    7.6098
H    15.4907    3.0614    7.9799
H    15.7568    4.978    10.1266
H    17.3446    4.21    9.7865
H    15.4228    2.1194    9.5241
H    14.9648    3.0174    11.0109
H    17.648    3.2279    11.2193
H    17.5774    1.6994    10.2783
H    16.5947    0.5395    12.0007
H    15.6295    1.9558    12.5385
H    17.4806    1.4599    14.1666
H    17.7155    3.0577    13.3802
H    18.6806    1.6414    12.8423
