10

C    -39.681    -5.365    12.29
O    -40.671    -5.143    11.529
O    -39.576    -4.858    13.429
C    -38.676    -6.298    11.829
O    -37.584    -6.385    12.365
C    -39.069    -7.129    10.632
O    -38.422    -8.396    10.655
H    -38.7819    -6.5954    9.714
H    -40.1583    -7.2814    10.6421
H    -37.4805    -8.2698    10.6426
