31

C    -21.793    0.774    -23.62
C    -22.101    -0.121    -22.612
C    -23.4    -0.537    -22.428
C    -26.39    -0.67    -21.645
C    -25.787    -0.087    -20.532
C    -27.442    -0.996    -19.008
C    -30.615    -1.582    -19.58
O    -30.548    -0.371    -19.547
O    -31.811    -2.161    -19.519
C    -29.372    -2.422    -19.681
C    -28.139    -1.609    -20.042
C    -26.29    -0.254    -19.247
C    -27.625    -1.471    -21.437
N    -28.246    -2.051    -22.501
C    -25.82    -0.505    -23.027
O    -26.483    -0.809    -24.006
C    -24.411    -0.042    -23.243
Br    -20.01    1.293    -23.837
C    -22.787    1.266    -24.459
C    -24.1    0.852    -24.267
H    -21.3168    -0.4963    -21.9645
H    -23.6346    -1.2511    -21.647
H    -24.8973    0.516    -20.6729
H    -27.8044    -1.0984    -17.9915
H    -29.5272    -3.1876    -20.4554
H    -29.1987    -2.9113    -18.7112
H    -25.7726    0.2045    -18.412
H    -27.861    -1.9331    -23.449
H    -29.1007    -2.6076    -22.3578
H    -22.5412    1.963    -25.252
H    -24.8845    1.2252    -24.9153
