38

C    -10.548    9.329    19.283
C    -10.425    9.021    17.93
C    -9.287    9.372    17.226
C    -8.25    10.037    17.881
C    -8.369    10.416    19.232
C    -9.531    10.046    19.908
C    -7.27    11.178    20.018
C    -7.806    11.686    21.369
C    -6.084    10.254    20.327
C    -6.752    12.412    19.26
O    -7.031    10.266    17.298
C    -6.805    9.761    15.978
C    -11.709    8.847    20.078
C    -12.177    7.476    19.873
O    -11.701    6.659    19.077
N    -13.252    7.11    20.695
C    -13.834    7.92    21.62
C    -13.388    9.186    21.809
C    -12.313    9.651    21.02
H    -11.2297    8.5007    17.4233
H    -9.2016    9.1319    16.1724
H    -9.6459    10.3243    20.9493
H    -7.0067    12.221    21.9028
H    -8.1431    10.8317    21.9744
H    -8.6511    12.3683    21.1951
H    -5.6671    9.8655    19.3861
H    -6.4257    9.4148    20.9507
H    -5.3092    10.8194    20.8655
H    -7.5937    13.0826    19.0326
H    -6.2742    12.0924    18.3222
H    -6.0177    12.9436    19.8831
H    -5.7877    10.0253    15.6535
H    -7.537    10.2029    15.286
H    -6.9165    8.6667    15.98
H    -13.6181    6.1849    20.5939
H    -14.6668    7.5475    22.2148
H    -13.8495    9.8318    22.5546
H    -11.9528    10.6692    21.1594
