61

N    -10.159    9.689    2.56
S    -10.567    8.451    1.585
O    -10.344    8.904    0.247
O    -9.87    7.288    2.047
C    -12.285    8.197    1.793
C    -9.762    9.709    3.94
C    -9.123    10.86    4.383
C    -8.706    10.966    5.697
C    -8.916    9.929    6.612
C    -8.503    10.022    7.99
C    -8.718    9.026    8.854
O    -9.329    7.844    8.434
C    -9.784    7.643    7.118
O    -10.299    6.569    6.878
C    -9.566    8.752    6.17
C    -9.991    8.659    4.833
C    -8.557    9.041    10.322
C    -7.453    9.611    10.991
C    -7.373    9.66    12.415
C    -8.444    9.115    13.127
C    -9.535    8.54    12.483
C    -9.585    8.516    11.095
C    -10.628    7.912    13.268
C    -11.058    6.578    12.87
O    -10.59    5.934    11.927
N    -12.124    6.073    13.618
C    -12.749    6.74    14.624
C    -12.354    7.988    14.977
C    -11.269    8.579    14.287
C    -6.178    10.243    13.224
C    -6.523    10.395    14.715
C    -4.934    9.328    13.158
C    -5.78    11.637    12.734
O    -6.443    10.197    10.252
C    -5.424    9.351    9.727
H    -10.1901    10.5884    2.124
H    -12.613    7.3656    1.1517
H    -12.8275    9.112    1.5131
H    -12.495    7.9535    2.8449
H    -8.9503    11.6796    3.6948
H    -8.2065    11.8706    6.0246
H    -8.0036    10.9261    8.3351
H    -10.5007    7.7651    4.4921
H    -8.4246    9.1407    14.2105
H    -10.446    8.0775    10.6037
H    -13.5757    6.267    15.152
H    -12.0791    7.9514    16.0415
H    -13.2214    8.6514    14.8448
H    -10.936    9.5774    14.5667
H    -5.6563    10.8085    15.2516
H    -6.7784    9.4107    15.1345
H    -7.3809    11.0745    14.8255
H    -4.6404    9.1836    12.1078
H    -5.1712    8.3535    13.6097
H    -4.1051    9.7958    13.7094
H    -6.6544    12.3032    12.774
H    -5.4161    11.5715    11.698
H    -4.9835    12.0384    13.3778
H    -4.6969    9.9571    9.1667
H    -5.8757    8.6064    9.0551
H    -4.9126    8.8364    10.5538
