41

F    -33.363    14.624    16.207
C    -33.399    13.342    16.568
F    -34.303    13.147    17.544
F    -33.777    12.59    15.518
C    -32.039    12.92    17.045
C    -31.991    11.95    18.018
C    -30.769    11.524    18.504
C    -29.624    12.067    17.994
C    -29.672    13.049    17.0
C    -30.895    13.467    16.529
O    -28.361    11.623    18.475
C    -28.384    10.345    19.023
C    -27.138    10.039    19.808
C    -26.096    11.194    19.547
N    -25.515    11.687    20.764
C    -26.353    12.687    21.378
C    -28.521    9.243    17.975
C    -29.633    8.415    18.005
C    -29.755    7.387    17.04
C    -28.753    7.21    16.08
C    -27.637    8.03    16.063
C    -27.51    9.06    17.022
H    -32.9088    11.5204    18.403
H    -30.72    10.7686    19.28
H    -28.7569    13.4756    16.6054
H    -30.9525    14.2238    15.7551
H    -29.2494    10.2926    19.7
H    -26.7177    9.077    19.4796
H    -27.3766    9.988    20.8806
H    -26.6075    12.0238    19.0374
H    -25.2928    10.8073    18.9026
H    -24.6162    12.0938    20.5574
H    -25.3966    10.9189    21.4059
H    -25.8801    13.0426    22.3053
H    -27.3349    12.2495    21.6116
H    -26.4833    13.5317    20.6856
H    -30.3997    8.5535    18.7587
H    -30.6232    6.738    17.0447
H    -28.8511    6.4226    15.3415
H    -26.8643    7.8823    15.3172
H    -26.6376    9.7034    17.0205
