45

O    19.321    10.636    -0.933
C    18.208    11.124    -1.03
O    17.877    12.341    -0.902
C    17.226    10.129    -1.547
N    15.774    10.349    -1.384
C    15.02    10.257    -2.486
C    15.41    10.053    -3.763
C    14.448    9.966    -4.766
C    13.104    10.152    -4.442
O    12.233    10.051    -5.474
C    10.878    9.807    -5.004
C    12.72    10.373    -3.071
C    13.714    10.431    -2.129
C    13.705    10.637    -0.787
C    14.967    10.566    -0.321
C    15.464    10.72    0.953
O    16.453    10.075    1.322
N    14.881    11.628    1.761
S    15.589    11.991    3.13
O    16.934    11.583    3.455
O    15.163    13.29    3.759
C    14.991    10.69    4.197
C    13.642    10.44    4.425
C    13.3    9.439    5.362
C    14.249    8.663    6.073
C    13.795    7.718    7.056
F    14.652    7.551    8.079
F    12.677    8.349    7.676
F    13.428    6.55    6.627
C    15.593    8.923    5.821
C    15.942    9.932    4.891
H    17.4566    9.1736    -1.053
H    17.4107    10.0371    -2.6275
H    16.4624    9.9579    -4.0049
H    14.7406    9.7558    -5.7884
H    10.1991    9.7307    -5.8661
H    10.5586    10.6382    -4.3583
H    10.8517    8.8676    -4.4324
H    11.6786    10.4896    -2.7935
H    12.819    10.829    -0.1836
H    14.0191    12.0634    1.5011
H    12.875    10.997    3.8991
H    12.2483    9.2535    5.5481
H    16.3648    8.3586    6.3317
H    16.9926    10.1264    4.7081
