27

O    23.422    76.248    11.776
C    24.41    75.53    11.973
O    24.512    74.481    12.624
C    25.672    75.973    11.23
C    26.144    77.336    11.749
C    27.082    77.243    12.906
C    27.872    76.177    13.062
C    27.803    75.068    12.137
O    26.712    78.078    10.715
C    26.779    74.943    11.261
C    26.767    73.821    10.306
O    25.786    73.752    9.523
C    27.887    72.8    10.293
C    29.136    73.313    9.646
C    30.204    72.296    9.284
O    29.931    71.085    9.412
O    31.242    72.88    8.878
H    25.3934    76.1046    10.1741
H    25.252    77.8765    12.0986
H    27.123    78.0538    13.6318
H    28.5744    76.1431    13.8935
H    28.5918    74.3172    12.1453
H    26.9063    78.9545    11.0254
H    27.5456    71.9116    9.7415
H    28.1191    72.5204    11.3312
H    29.5914    74.038    10.3365
H    28.8406    73.8255    8.7186
