302

C    29.776    -7.613    19.055
C    29.445    -8.956    19.628
C    29.29    -8.908    21.076
C    28.316    -7.833    21.412
O    27.071    -7.978    21.114
N    28.73    -6.625    21.971
C    27.863    -5.466    22.185
C    27.786    -4.512    20.995
O    26.711    -4.003    20.674
C    28.311    -4.681    23.419
C    28.048    -5.427    24.717
O    27.153    -6.277    24.789
N    28.84    -5.127    25.745
N    28.921    -4.251    20.352
C    28.96    -3.197    19.325
C    28.089    -3.564    18.114
O    27.349    -2.735    17.606
C    30.409    -2.829    18.927
C    31.027    -1.973    20.017
C    30.453    -2.005    17.661
C    30.347    -0.601    20.19
N    28.148    -4.815    17.676
C    27.321    -5.252    16.566
C    25.837    -5.124    16.853
O    25.046    -4.75    15.972
C    28.963    -7.025    18.179
C    29.31    -5.693    17.616
N    25.448    -5.433    18.087
C    24.057    -5.243    18.49
C    23.704    -3.767    18.47
O    22.606    -3.414    18.068
C    23.768    -5.843    19.867
O    24.269    -5.033    20.901
N    24.62    -2.906    18.91
C    24.374    -1.451    18.832
C    24.084    -0.966    17.401
O    23.18    -0.126    17.172
C    25.53    -0.652    19.467
C    25.326    0.872    19.477
C    24.135    1.262    20.368
C    26.592    1.616    19.946
N    24.824    -1.485    16.429
C    24.558    -1.12    15.025
C    23.155    -1.482    14.59
O    22.554    -0.784    13.777
C    25.545    -1.815    14.091
C    26.713    -0.933    13.674
C    27.581    -0.589    14.857
C    27.538    -1.623    12.594
N    22.633    -2.591    15.101
C    21.287    -2.983    14.727
C    20.271    -2.033    15.359
O    19.254    -1.699    14.743
C    21.021    -4.443    15.13
C    22.037    -5.427    14.579
C    22.134    -5.303    13.1
N    20.799    -5.244    12.512
C    20.479    -4.571    11.414
N    21.425    -3.903    10.756
N    19.21    -4.575    10.98
N    20.552    -1.577    16.578
C    19.709    -0.567    17.229
C    19.707    0.743    16.445
O    18.655    1.332    16.176
C    20.188    -0.304    18.689
C    19.409    0.831    19.33
C    20.056    -1.574    19.54
N    20.89    1.189    16.052
C    21.012    2.458    15.36
C    20.378    2.321    13.983
O    19.775    3.261    13.476
C    22.487    2.876    15.272
C    23.084    3.252    16.634
C    24.604    3.188    16.662
O    25.212    2.323    16.022
N    25.233    4.111    17.413
N    20.464    1.129    13.403
C    19.873    0.908    12.084
C    18.35    1.003    12.129
O    17.703    1.583    11.237
C    20.338    -0.413    11.508
N    17.756    0.433    13.167
C    16.294    0.473    13.271
C    15.832    1.86    13.622
O    14.758    2.272    13.211
C    15.768    -0.571    14.256
C    15.778    -1.947    13.684
N    14.777    -2.395    12.856
C    16.686    -2.944    13.776
C    15.055    -3.633    12.475
N    16.192    -3.996    13.032
N    16.645    2.598    14.372
C    16.299    3.99    14.656
C    16.328    4.808    13.359
O    15.463    5.648    13.133
C    17.215    4.606    15.753
C    16.856    4.047    17.124
C    17.093    6.122    15.791
C    17.857    4.418    18.191
N    17.31    4.571    12.495
C    17.376    5.337    11.259
C    16.242    4.984    10.321
O    15.746    5.827    9.57
C    18.747    5.162    10.578
C    19.891    5.885    11.307
C    21.109    6.042    10.398
N    22.099    6.909    11.028
C    23.036    6.486    11.87
N    23.124    5.195    12.153
N    23.878    7.354    12.428
N    15.848    3.725    10.362
C    14.674    3.257    9.633
C    13.408    3.985    10.072
O    12.618    4.398    9.239
C    14.487    1.751    9.862
C    13.162    1.218    9.323
C    12.796    -0.144    9.977
C    12.379    0.034    11.446
N    12.119    -1.276    12.122
N    13.208    4.131    11.38
C    12.055    4.882    11.904
C    12.048    6.367    11.511
O    10.974    6.955    11.354
C    12.002    4.761    13.435
C    11.691    3.365    13.96
C    10.207    3.023    13.769
N    13.229    6.974    11.363
C    13.33    8.392    10.977
C    12.738    8.568    9.607
O    11.948    9.478    9.35
C    14.791    8.834    10.871
C    15.495    9.171    12.162
S    17.252    9.452    11.79
C    18.017    8.547    13.133
N    13.155    7.684    8.714
C    12.619    7.632    7.365
C    11.209    7.089    7.394
O    11.011    5.876    7.371
C    13.444    6.684    6.516
C    13.005    6.744    5.088
C    14.911    7.039    6.637
H    30.6933    -7.1104    19.3583
H    30.2555    -9.6573    19.3806
H    28.5042    -9.3106    19.1817
H    30.2603    -8.6895    21.5459
H    28.9152    -9.8755    21.4413
H    29.6883    -6.5448    22.2454
H    26.8482    -5.8485    22.3692
H    27.7658    -3.726    23.4455
H    29.3904    -4.4849    23.3385
H    28.7136    -5.5863    26.6243
H    29.5611    -4.4425    25.6376
H    29.7479    -4.7709    20.5663
H    28.5173    -2.2956    19.7738
H    30.9918    -3.7518    18.7904
H    32.0857    -1.8066    19.7691
H    30.9547    -2.5185    20.9694
H    30.0145    -2.5813    16.833
H    31.4974    -1.756    17.4217
H    29.8791    -1.078    17.8067
H    30.8484    -0.0421    20.9939
H    29.2882    -0.7467    20.45
H    30.4191    -0.0348    19.2497
H    27.548    -6.3069    16.3525
H    27.5627    -4.6393    15.685
H    28.0424    -7.5206    17.8745
H    30.1315    -5.2523    18.1999
H    29.6259    -5.81    16.5689
H    26.1107    -5.7969    18.7415
H    23.4194    -5.7592    17.7572
H    24.2398    -6.8347    19.9303
H    22.6798    -5.9461    19.99
H    25.2098    -4.9435    20.8041
H    25.4782    -3.2458    19.2949
H    23.4718    -1.2475    19.4275
H    26.4487    -0.8713    18.9033
H    25.6489    -0.9889    20.5074
H    25.1048    1.1895    18.4473
H    24.0116    2.355    20.3573
H    24.3215    0.9242    21.3981
H    23.2199    0.786    19.986
H    27.4411    1.3341    19.3061
H    26.8124    1.3435    20.9887
H    26.426    2.7012    19.8779
H    25.5617    -2.1234    16.6486
H    24.6832    -0.0316    14.927
H    25.0052    -2.1284    13.1853
H    25.9448    -2.7016    14.6048
H    26.3088    0.002    13.2588
H    28.4151    0.0476    14.5269
H    27.9788    -1.5134    15.3011
H    26.9827    -0.0501    15.6064
H    26.8911    -1.8673    11.7385
H    27.9736    -2.5478    13.0001
H    28.3446    -0.9519    12.2639
H    23.1629    -3.151    15.7379
H    21.1941    -2.9076    13.6335
H    20.0255    -4.7289    14.7595
H    21.0362    -4.5077    16.228
H    21.7264    -6.4503    14.8367
H    23.0209    -5.2191    15.0248
H    22.6709    -6.1741    12.6964
H    22.6835    -4.3842    12.8473
H    20.0475    -5.765    12.986
H    21.1858    -3.3778    9.9028
H    22.3957    -3.9116    11.1004
H    18.4896    -5.0963    11.4997
H    18.9558    -4.0567    10.1269
H    21.354    -1.9299    17.06
H    18.679    -0.9515    17.2642
H    21.2495    -0.0177    18.6546
H    19.7708    0.9901    20.3565
H    18.3397    0.5742    19.3538
H    19.5523    1.7509    18.7441
H    20.6226    -2.3911    19.0695
H    18.9958    -1.8578    19.6133
H    20.4551    -1.3836    20.5472
H    21.7089    0.6448    16.2343
H    20.4665    3.2285    15.9246
H    22.566    3.7451    14.6024
H    23.0649    2.038    14.855
H    22.6911    2.5577    17.3913
H    22.773    4.2779    16.8806
H    26.2315    4.1153    17.4675
H    24.7018    4.7924    17.9165
H    20.9345    0.3803    13.87
H    20.2332    1.7064    11.4186
H    19.8836    -0.5612    10.5173
H    20.0344    -1.2318    12.1768
H    21.4337    -0.4055    11.4114
H    18.2998    -0.0204    13.8732
H    15.8825    0.226    12.2812
H    14.7352    -0.3097    14.5298
H    16.4004    -0.5579    15.1559
H    13.9452    -1.8556    12.5768
H    17.6239    -2.9215    14.329
H    14.4461    -4.247    11.813
H    17.4874    2.2037    14.7393
H    15.2688    4.0078    15.0412
H    18.2577    4.3418    15.5229
H    16.808    2.9503    17.0541
H    15.8706    4.4393    17.4158
H    17.3505    6.5354    14.8047
H    17.7803    6.5263    16.5487
H    16.0601    6.4005    16.047
H    17.5437    3.987    19.1534
H    17.9097    5.5132    18.2795
H    18.8471    4.0241    17.9178
H    17.9976    3.8723    12.6925
H    17.2682    6.3999    11.5211
H    18.6805    5.5593    9.5544
H    18.9823    4.0881    10.54
H    20.1776    5.3012    12.1942
H    19.5451    6.8813    11.6196
H    20.7941    6.485    9.4417
H    21.5556    5.0536    10.2149
H    22.0697    7.9143    10.8057
H    23.8474    4.8588    12.8046
H    22.4691    4.5274    11.7215
H    23.8062    8.3571    12.2053
H    24.601    7.0222    13.0823
H    16.3704    3.0715    10.9098
H    14.8324    3.4409    8.5601
H    14.5282    1.5546    10.9435
H    15.3078    1.2171    9.3608
H    13.246    1.0823    8.2346
H    12.3669    1.946    9.5415
H    13.6705    -0.8096    9.9313
H    11.9618    -0.5958    9.4203
H    11.4618    0.64    11.4831
H    13.1852    0.5557    11.9825
H    11.8495    -1.1124    13.0794
H    12.9558    -1.8375    12.0998
H    11.3765    -1.7602    11.6421
H    13.8561    3.721    12.0218
H    11.1457    4.4237    11.4881
H    11.2245    5.4457    13.8048
H    12.98    5.0661    13.8355
H    11.9351    3.3211    15.0317
H    12.3023    2.6311    13.4144
H    10.011    2.0121    14.1558
H    9.9568    3.0608    12.6985
H    9.5896    3.7509    14.3158
H    14.0673    6.4514    11.5185
H    12.798    9.0139    11.712
H    14.8226    9.7284    10.2315
H    15.3512    8.019    10.3895
H    15.3929    8.3365    12.8713
H    15.0565    10.08    12.5996
H    19.1112    8.6214    13.0488
H    17.7163    7.4902    13.0812
H    17.6934    8.9737    14.0939
H    13.8636    7.0294    8.9774
H    12.6283    8.6402    6.9251
O    10.232    7.8832    7.442
H    13.2966    5.6584    6.8854
H    13.6133    6.0512    4.488
H    13.1333    7.7681    4.7076
H    11.9455    6.4568    5.0177
H    15.2144    6.9892    7.6932
H    15.0743    8.058    6.2563
H    15.5101    6.3276    6.0496
