27

C    5.101    -1.399    43.544
C    6.074    -2.384    42.89
C    4.601    -2.779    43.111
N    3.556    -3.007    42.046
C    4.016    -4.021    41.071
N    3.507    -3.725    39.703
S    1.863    -3.813    39.676
O    1.413    -5.267    39.786
O    1.332    -3.155    38.417
C    1.318    -2.966    41.11
C    2.245    -2.66    42.151
C    1.792    -1.994    43.304
C    0.445    -1.638    43.419
C    -0.454    -1.952    42.396
F    -1.759    -1.597    42.549
C    -0.049    -2.631    41.228
H    4.7778    -0.5015    42.9963
H    5.1973    -1.161    44.6136
H    6.8665    -2.8555    43.4897
H    6.447    -2.196    41.8724
H    4.3983    -3.5187    43.8995
H    3.6504    -5.0104    41.3832
H    5.1158    -4.0261    41.0509
H    4.081    -3.5045    38.9144
H    2.4862    -1.7571    44.1022
H    0.097    -1.1172    44.3037
H    -0.7599    -2.8861    40.4504
