29

C    0.723    75.994    15.376
C    2.359    74.548    18.949
N    3.09    78.09    12.854
C    2.297    77.364    13.731
N    0.989    77.355    13.491
C    0.156    76.697    14.302
C    -1.291    76.632    13.957
C    -1.614    76.28    12.64
C    -2.953    76.218    12.239
C    -3.97    76.392    13.158
C    -3.625    76.7    14.46
Cl    -4.774    76.915    15.737
C    -2.303    76.793    14.844
Cl    -1.95    77.209    16.47
C    2.109    76.033    15.595
N    2.72    75.371    16.699
C    1.942    74.454    17.519
C    1.09    75.191    18.511
N    2.887    76.684    14.734
H    0.0879    75.4183    16.0395
H    3.0724    74.3154    19.7383
H    2.6559    78.6155    12.0818
H    4.1128    78.1034    12.9751
H    -0.8256    76.0554    11.9308
H    -3.1945    76.0319    11.1988
H    -5.0089    76.2898    12.8659
H    3.7122    75.5414    16.9168
H    1.6422    73.5231    17.0156
H    0.1976    75.771    18.7414
