35

C    30.688    21.429    -5.825
C    28.929    26.697    -6.727
C    31.072    20.794    -4.661
C    29.141    24.337    -6.35
N    29.456    24.162    -7.632
C    29.518    25.17    -8.482
C    29.256    26.463    -8.054
C    28.858    25.613    -5.847
N    29.072    23.258    -5.485
C    29.27    21.892    -5.971
C    32.368    20.347    -4.532
C    33.275    20.542    -5.558
C    32.903    21.175    -6.737
C    31.592    21.624    -6.866
O    31.191    22.255    -8.006
F    34.53    20.091    -5.405
C    28.523    25.804    -4.413
N    28.185    24.756    -3.666
C    27.881    24.904    -2.382
C    27.918    26.166    -1.813
C    28.272    27.242    -2.619
N    28.565    27.033    -3.898
H    28.7316    27.704    -6.3776
H    30.3603    20.6487    -3.8564
H    29.7748    24.9864    -9.519
H    29.3067    27.2883    -8.755
H    28.8787    23.419    -4.4862
H    28.6178    21.2162    -5.3983
H    28.9943    21.8531    -7.0352
H    32.6781    19.8413    -3.6247
H    33.6182    21.3162    -7.5392
H    30.2748    22.4938    -7.9289
H    27.6058    24.0432    -1.7834
H    27.6771    26.3111    -0.7661
H    28.3087    28.244    -2.2071
