68

O    -24.175    -18.486    -36.078
C    -24.81    -17.489    -36.423
N    -25.813    -17.536    -37.348
C    -26.289    -18.762    -37.983
C    -27.809    -18.905    -37.887
C    -28.3    -19.361    -36.517
C    -29.842    -19.257    -36.515
C    -30.694    -19.941    -35.4
N    -32.068    -19.679    -35.757
C    -32.797    -20.47    -36.557
O    -32.317    -21.482    -37.046
N    -34.068    -20.146    -36.82
C    -34.654    -20.679    -38.045
C    -33.688    -20.461    -39.198
O    -33.846    -21.303    -40.211
O    -32.8    -19.612    -39.254
C    -35.985    -19.969    -38.411
C    -35.731    -18.443    -38.537
C    -36.873    -17.717    -39.198
O    -37.714    -18.247    -39.958
O    -36.981    -16.423    -39.004
C    -30.51    -19.358    -34.016
O    -30.01    -20.014    -33.082
O    -31.063    -18.207    -33.773
N    -24.512    -16.279    -35.912
C    -23.789    -15.989    -34.788
C    -23.949    -14.726    -34.194
C    -23.242    -14.38    -33.045
C    -22.341    -15.298    -32.504
C    -22.154    -16.56    -33.098
C    -22.875    -16.91    -34.238
O    -24.839    -13.822    -34.707
C    -24.477    -12.855    -35.69
C    -25.742    -12.19    -36.23
N    -25.488    -11.445    -37.448
C    -25.011    -11.935    -38.611
O    -25.404    -12.977    -39.203
C    -23.927    -11.039    -39.16
H    -26.2502    -16.6749    -37.6076
H    -25.8193    -19.6242    -37.487
H    -26.0002    -18.7474    -39.0443
H    -28.1358    -19.6421    -38.6353
H    -28.2638    -17.9288    -38.1109
H    -27.8794    -18.7138    -35.7333
H    -27.9941    -20.402    -36.3362
H    -30.1847    -19.6772    -37.472
H    -30.0828    -18.1843    -36.4783
H    -30.4802    -21.0198    -35.3782
H    -32.502    -18.8583    -35.3853
H    -34.5948    -19.5623    -36.2021
H    -34.8409    -21.7549    -37.9126
H    -36.7297    -20.1542    -37.6229
H    -36.3594    -20.36    -39.3686
H    -34.821    -18.2857    -39.1346
H    -35.5848    -18.0261    -37.5296
H    -24.8643    -15.4924    -36.4191
H    -23.3893    -13.4128    -32.5783
H    -21.7783    -15.0358    -31.6154
H    -21.4479    -17.2611    -32.668
H    -22.7341    -17.8817    -34.6975
H    -23.9415    -13.3501    -36.5134
H    -23.8266    -12.0935    -35.235
H    -26.1337    -11.5007    -35.4676
H    -26.4903    -12.9684    -36.4397
H    -25.6873    -10.4654    -37.4233
H    -23.5519    -11.4551    -40.1066
H    -23.1021    -10.9751    -38.4352
H    -24.3372    -10.0341    -39.3383
