57

C    84.159    2.818    12.957
C    84.004    3.075    11.587
C    85.029    3.861    11.249
N    88.416    -1.003    9.973
C    85.123    0.498    6.797
C    85.88    0.802    7.958
C    87.631    0.018    9.638
C    87.75    1.107    10.546
C    88.694    0.701    11.454
C    89.146    1.378    12.682
C    88.142    1.228    13.867
C    88.627    1.942    15.084
C    89.391    1.255    16.045
C    89.865    1.896    17.186
C    88.34    3.298    15.251
C    87.287    5.86    16.388
C    91.424    4.381    18.367
O    90.04    4.002    18.415
C    89.568    3.252    17.369
C    88.801    3.962    16.386
O    88.588    5.316    16.652
N    89.052    -0.558    11.124
N    86.8    -0.122    8.493
C    84.216    1.468    6.379
N    84.062    2.659    7.039
N    85.749    1.986    8.613
C    84.813    2.855    8.14
N    84.627    4.023    8.803
C    85.427    4.471    9.96
O    85.804    4.093    12.353
N    85.213    3.402    13.437
C    83.279    1.998    13.852
H    83.2123    2.7095    10.9346
H    88.5256    -1.9076    9.4929
H    85.2443    -0.4384    6.2646
H    87.211    2.053    10.5246
H    89.2742    2.4487    12.4649
H    90.1118    0.947    12.9845
H    88.0226    0.1601    14.1022
H    87.1704    1.6486    13.5685
H    89.6151    0.2052    15.8938
H    90.453    1.3556    17.919
H    87.763    3.8302    14.5035
H    87.2773    6.9292    16.6464
H    86.5378    5.3295    16.9941
H    87.0483    5.7385    15.3211
H    91.6726    4.9752    19.2587
H    91.6088    4.9808    17.4636
H    92.051    3.4775    18.342
H    86.8809    -1.0161    7.9881
H    83.6106    1.2744    5.5009
H    83.8725    4.643    8.4755
H    86.4802    4.2173    9.7694
H    85.323    5.5625    10.0487
H    83.6888    2.0021    14.8728
H    83.2369    0.9644    13.4779
H    82.2657    2.4259    13.862
