27

C    12.964    85.087    19.268
C    9.651    86.831    28.066
C    12.668    84.225    21.554
C    12.685    81.799    21.935
C    11.742    84.177    25.65
C    12.373    83.395    23.831
C    12.593    83.12    22.417
C    11.048    85.075    26.554
C    10.144    85.984    25.993
C    11.248    85.058    27.942
C    10.535    85.961    28.721
N    13.044    85.958    18.498
N    11.636    84.362    24.292
C    12.862    83.991    20.189
N    12.497    83.156    26.027
N    9.455    86.855    26.736
O    12.923    82.616    24.798
C    12.872    81.582    20.57
C    12.954    82.671    19.703
H    9.0881    87.531    28.6728
H    12.5777    85.2352    21.9366
H    12.6112    80.9604    22.6179
H    9.9977    85.9815    24.9189
H    11.9409    84.3585    28.3954
H    10.6577    85.992    29.7976
H    12.9532    80.5719    20.1851
H    13.0903    82.5003    18.6412
