50

O          7.08100       12.15400       41.71400
P          8.02500       13.20000       40.92400
O          7.10800       14.53100       40.82700
O          8.47600       12.74400       39.58000
O          9.22100       13.53800       41.94900
C         10.49400       12.87300       41.88900
C         11.43300       13.68300       42.53700
C         11.69400       14.95000       42.01800
C         11.03400       15.39700       40.88300
O         10.16300       16.26400       40.96600
C         12.61600       15.76100       42.66400
O         12.87100       16.99600       42.14800
C         13.28100       15.33400       43.81000
C         14.20700       16.14200       44.46500
N         13.01200       14.10600       44.29300
C         12.13400       13.28300       43.68300
N         11.84200       12.08900       44.19300
N         12.67200       11.37800       44.72000
C         12.15500       10.28900       45.28600
C         12.82200        9.64300       46.32100
C         12.25700        8.50000       46.91900
C         12.90800        7.82500       47.96200
S         14.52200        8.34800       48.57200
O         15.49800        8.35100       47.41600
O         15.04700        7.36200       49.60100
O         14.46400        9.76600       49.15100
C         12.30700        6.70300       48.54100
C         11.06000        6.22900       48.10500
N         10.46900        5.14500       48.65300
O          9.40163        4.76232       48.27390
O         11.00817        4.54656       49.53548
C         10.42800        6.90300       47.07300
C         11.00800        8.02700       46.48000
C         10.33100        8.68900       45.44700
S          8.71900        8.13000       44.83200
O          8.26200        8.98300       43.65100
O          7.72200        8.21300       45.97600
O          8.79000        6.68000       44.35400
C         10.90700        9.81200       44.86700
H         10.78910       12.72460       40.83980
H         10.43040       11.89760       42.39350
H         11.28790       14.97800       39.91040
H         12.06840       17.50410       42.13420
H         14.60620       15.60740       45.33960
H         13.71590       17.06940       44.79490
H         15.03030       16.38730       43.77800
H         13.77750       10.01940       46.66780
H         12.81670        6.18660       49.34640
H          9.46550        6.55170       46.71900
H         10.37970       10.32960       44.07390
