23

N    -45.915    1.644    -32.635
C    -46.053    3.063    -32.938
C    -45.475    3.372    -34.31
C    -45.368    3.902    -31.868
O    -44.46    3.428    -31.186
N    -46.003    4.988    -31.512
C    -45.302    5.833    -30.546
C    -46.296    6.931    -30.206
C    -43.999    6.431    -31.064
O    -43.821    6.618    -32.269
O    -43.096    6.743    -30.29
H    -46.3726    1.1016    -33.3508
H    -46.3397    1.4482    -31.742
H    -44.9373    1.4008    -32.6027
H    -47.1236    3.3155    -32.9464
H    -45.5875    4.4455    -34.5219
H    -46.0113    2.7894    -35.0735
H    -44.4081    3.1047    -34.3271
H    -46.9045    5.2242    -31.8747
H    -45.0724    5.2419    -29.6472
H    -45.8457    7.6202    -29.4765
H    -47.2039    6.4833    -29.7755
H    -46.5579    7.4844    -31.1199
