48

C    -17.227    -5.505    27.759
C    -16.336    -4.511    28.057
C    -15.546    -4.579    29.226
C    -15.674    -5.717    30.062
C    -16.639    -6.682    29.74
C    -17.43    -6.588    28.619
C    -18.442    -7.632    28.336
C    -19.031    -7.759    27.071
C    -20.012    -8.721    26.835
C    -20.425    -9.564    27.865
C    -19.865    -9.386    29.104
C    -18.884    -8.464    29.366
N    -20.627    -8.823    25.563
C    -21.951    -8.854    25.291
O    -22.834    -8.648    26.123
C    -22.291    -9.197    23.853
N    -23.54    -9.946    23.739
C    -23.594    -11.063    22.793
C    -25.074    -11.385    22.692
C    -25.794    -10.147    23.127
C    -24.705    -9.128    23.395
C    -14.766    -5.77    31.188
N    -13.954    -4.751    31.455
C    -13.957    -3.707    30.617
N    -14.675    -3.554    29.503
N    -14.644    -6.899    31.918
F    -20.36    -10.106    30.148
H    -17.7892    -5.4516    26.8337
H    -16.2351    -3.6628    27.3896
H    -16.7662    -7.5333    30.3989
H    -18.7204    -7.1018    26.2668
H    -21.1658    -10.3363    27.6921
H    -18.4577    -8.3825    30.3593
H    -20.0118    -8.8784    24.7766
H    -21.4757    -9.8039    23.4324
H    -22.3859    -8.2628    23.28
H    -23.697    -10.3318    24.6569
H    -23.0308    -11.9271    23.1752
H    -23.1904    -10.7663    21.8137
H    -25.3282    -12.2273    23.3522
H    -25.3406    -11.6382    21.6553
H    -26.3753    -10.3397    24.0407
H    -26.4668    -9.7926    22.3322
H    -24.5072    -8.5209    22.4993
H    -24.982    -8.4689    24.231
H    -13.2964    -2.8871    30.8747
H    -13.9954    -6.9277    32.7176
H    -15.1995    -7.7317    31.6754
