214

N    -5.42    -25.873    2.017
C    -5.609    -26.757    0.865
C    -5.326    -28.221    1.194
O    -4.431    -28.533    1.989
C    -4.696    -26.35    -0.299
C    -4.985    -24.989    -0.86
C    -6.163    -24.746    -1.555
C    -4.067    -23.959    -0.718
C    -6.431    -23.497    -2.08
C    -4.329    -22.701    -1.241
C    -5.511    -22.471    -1.922
N    -6.088    -29.112    0.563
C    -5.786    -30.537    0.591
C    -5.392    -30.969    -0.823
O    -4.212    -31.183    -1.099
C    -6.953    -31.362    1.169
C    -7.217    -30.929    2.615
C    -6.632    -32.843    1.135
C    -8.267    -31.744    3.34
N    -6.36    -31.038    -1.731
C    -6.048    -31.329    -3.13
C    -6.18    -30.112    -4.058
O    -5.923    -30.208    -5.258
C    -6.924    -32.477    -3.641
C    -6.525    -33.831    -3.113
C    -5.349    -34.435    -3.536
C    -7.335    -34.512    -2.212
C    -4.98    -35.685    -3.067
C    -6.97    -35.772    -1.736
C    -5.786    -36.354    -2.171
N    -6.554    -28.968    -3.496
C    -6.928    -27.814    -4.298
C    -5.888    -26.771    -4.688
O    -6.201    -25.886    -5.489
N    -4.669    -26.849    -4.152
C    -3.657    -25.827    -4.453
C    -3.314    -25.772    -5.939
O    -3.208    -24.689    -6.516
C    -2.4    -26.045    -3.63
N    -3.161    -26.946    -6.55
C    -2.783    -27.057    -7.96
C    -3.768    -26.382    -8.914
O    -3.437    -26.113    -10.068
C    -2.594    -28.527    -8.349
C    -1.361    -29.17    -7.735
C    -1.364    -30.679    -7.913
N    -0.263    -31.318    -7.197
C    -0.101    -32.635    -7.1
N    -0.973    -33.455    -7.673
N    0.931    -33.134    -6.431
N    -4.975    -26.108    -8.427
C    -5.987    -25.434    -9.228
C    -6.305    -24.03    -8.722
O    -6.8    -23.194    -9.476
C    -7.272    -26.263    -9.264
C    -7.076    -27.608    -9.927
O    -6.285    -27.743    -10.861
N    -7.797    -28.616    -9.446
N    -6.005    -23.77    -7.453
C    -6.522    -22.579    -6.785
C    -5.514    -21.479    -6.408
O    -5.842    -20.623    -5.598
C    -7.33    -22.974    -5.539
C    -8.644    -23.696    -5.829
C    -9.311    -24.155    -4.537
C    -10.614    -24.889    -4.816
N    -11.232    -25.438    -3.577
N    -4.315    -21.475    -6.984
C    -3.374    -20.374    -6.726
C    -2.895    -19.683    -8.022
O    -2.486    -20.359    -8.964
C    -2.194    -20.867    -5.863
C    -1.091    -19.844    -5.776
C    -2.687    -21.234    -4.471
N    -2.992    -18.348    -8.072
C    -2.413    -17.529    -9.148
C    -1.103    -16.914    -8.652
O    -1.076    -16.304    -7.59
C    -3.334    -16.364    -9.527
C    -4.653    -16.774    -10.099
N    -4.772    -17.458    -11.29
C    -5.915    -16.556    -9.663
C    -6.05    -17.664    -11.552
N    -6.765    -17.123    -10.581
N    -0.036    -17.04    -9.433
C    1.283    -16.57    -9.018
C    1.751    -15.378    -9.852
O    1.794    -15.449    -11.08
C    2.304    -17.71    -9.118
C    1.81    -18.906    -8.301
C    3.678    -17.24    -8.651
C    2.687    -20.125    -8.392
N    2.106    -14.279    -9.191
C    2.477    -13.078    -9.93
C    3.929    -12.68    -9.73
O    4.559    -12.152    -10.648
C    1.537    -11.92    -9.581
C    0.088    -12.267    -9.809
C    -0.434    -12.308    -11.097
C    -0.762    -12.555    -8.751
C    -1.751    -12.635    -11.326
C    -2.094    -12.879    -8.975
C    -2.578    -12.912    -10.273
O    -3.891    -13.235    -10.525
N    4.46    -12.937    -8.537
H    -5.6187    -24.9223    1.7472
H    -4.4668    -25.9388    2.3382
H    -6.0443    -26.1493    2.7586
H    -6.6565    -26.669    0.5409
H    -4.8156    -27.0882    -1.1057
H    -3.6556    -26.3622    0.058
H    -6.8812    -25.5471    -1.687
H    -3.1357    -24.1387    -0.1932
H    -7.3575    -23.319    -2.6139
H    -3.6092    -21.9001    -1.1163
H    -5.7182    -21.4892    -2.3321
H    -6.8894    -28.7945    0.0561
H    -4.9182    -30.6923    1.2489
H    -7.8542    -31.1779    0.5657
H    -7.5463    -29.8795    2.6033
H    -6.2735    -31.0111    3.1745
H    -6.4426    -33.1533    0.0968
H    -7.4827    -33.4119    1.5383
H    -5.7378    -33.0385    1.7451
H    -8.3859    -31.3608    4.3642
H    -7.9526    -32.7974    3.3769
H    -9.2253    -31.6659    2.8057
H    -7.3098    -30.8897    -1.4554
H    -4.9992    -31.6584    -3.1692
H    -6.8587    -32.5004    -4.7388
H    -7.9634    -32.2803    -3.3396
H    -4.7096    -33.9206    -4.2442
H    -8.2606    -34.0593    -1.8753
H    -4.0552    -36.1382    -3.4054
H    -7.6068    -36.2937    -1.0308
H    -5.4964    -37.3329    -1.8063
H    -6.5789    -28.8987    -2.4987
H    -7.7121    -27.2827    -3.7386
H    -7.3482    -28.2055    -5.2362
H    -4.4424    -27.6078    -3.5414
H    -4.0793    -24.8509    -4.1722
H    -1.6617    -25.2674    -3.8754
H    -1.9792    -27.0353    -3.8586
H    -2.6483    -25.9902    -2.5598
H    -3.3102    -27.784    -6.0251
H    -1.8145    -26.5491    -8.078
H    -2.5081    -28.5878    -9.4439
H    -3.4795    -29.0898    -8.0188
H    -1.3365    -28.9383    -6.66
H    -0.4646    -28.7561    -8.2199
H    -1.272    -30.9101    -8.9845
H    -2.315    -31.0794    -7.5318
H    0.4315    -30.7111    -6.7385
H    -0.8474    -34.4745    -7.5978
H    -1.7754    -33.0719    -8.1929
H    1.6101    -32.5011    -5.9848
H    1.0528    -34.1542    -6.358
H    -5.1929    -26.3715    -7.4873
H    -5.6    -25.3455    -10.2539
H    -8.0373    -25.7032    -9.8216
H    -7.6159    -26.4255    -8.2319
H    -7.7091    -29.5287    -9.8451
H    -8.4272    -28.4615    -8.6851
H    -5.4156    -24.4005    -6.9478
H    -7.2211    -22.117    -7.4975
H    -7.5604    -22.0575    -4.9761
H    -6.705    -23.6361    -4.9218
H    -8.4408    -24.5735    -6.4604
H    -9.3214    -23.0111    -6.36
H    -9.5226    -23.2754    -3.9112
H    -8.6274    -24.8302    -4.0015
H    -10.4105    -25.7199    -5.5075
H    -11.3215    -24.1881    -5.2831
H    -12.0893    -25.9135    -3.8114
H    -11.4299    -24.6842    -2.9377
H    -10.5951    -26.0879    -3.1434
H    -4.0525    -22.2225    -7.5942
H    -3.9137    -19.6153    -6.1403
H    -1.7815    -21.7713    -6.3344
H    -0.2742    -20.2376    -5.1532
H    -1.4826    -18.9199    -5.3259
H    -0.711    -19.6278    -6.7854
H    -3.4908    -21.9806    -4.5517
H    -3.0717    -20.334    -3.9691
H    -1.855    -21.6528    -3.8859
H    -3.4853    -17.8824    -7.3372
H    -2.2294    -18.1608    -10.0295
H    -2.8144    -15.7444    -10.2727
H    -3.5229    -15.7676    -8.6222
H    -6.2031    -16.0295    -8.7543
H    -6.4466    -18.1895    -12.4194
H    -7.7933    -17.1261    -10.5222
H    -0.1388    -17.4688    -10.3305
H    1.2179    -16.2498    -7.9677
H    2.3857    -18.0178    -10.1709
H    0.8061    -19.1768    -8.6598
H    1.7524    -18.6016    -7.2455
H    3.9985    -16.3818    -9.26
H    4.4032    -18.0596    -8.7621
H    3.6232    -16.9396    -7.5942
H    2.2592    -20.9311    -7.7779
H    3.6947    -19.88    -8.0251
H    2.7483    -20.4553    -9.4394
H    2.1183    -14.2768    -8.1911
H    2.3471    -13.3011    -10.9993
H    1.7956    -11.0539    -10.2079
H    1.6753    -11.6599    -8.5212
H    0.2097    -12.0776    -11.9382
H    -0.3817    -12.5268    -7.7363
H    -2.1323    -12.6729    -12.34
H    -2.7494    -13.1041    -8.1414
H    -4.4589    -12.6099    -10.0899
H    5.4125    -12.6956    -8.3511
H    3.9065    -13.3715    -7.8265
