43

C    -15.325    9.06    -13.27
C    -16.095    10.384    -13.178
C    -18.091    9.107    -12.163
C    -17.369    7.789    -12.508
C    -16.3    7.925    -13.611
N    -17.167    10.278    -12.151
O    -16.56    12.213    -11.235
C    -17.311    11.237    -11.231
C    -18.403    11.128    -10.165
C    -17.991    11.868    -8.969
N    -17.651    12.464    -8.057
C    -16.934    8.076    -15.0
N    -14.198    9.174    -14.222
C    -14.113    10.278    -15.196
C    -13.165    8.311    -14.243
C    -12.89    7.359    -13.247
C    -13.467    7.008    -12.096
C    -12.76    6.011    -11.552
N    -11.734    5.717    -12.357
C    -11.783    6.536    -13.403
N    -11.002    6.668    -14.486
C    -11.28    7.575    -15.411
N    -12.327    8.382    -15.293
H    -14.8968    8.8439    -12.2801
H    -16.5472    10.6113    -14.1546
H    -15.4011    11.1905    -12.8986
H    -18.5486    9.0085    -11.1676
H    -18.8768    9.2853    -12.9118
H    -18.1217    7.061    -12.8448
H    -16.8791    7.415    -11.5969
H    -15.7193    6.9909    -13.6243
H    -18.5593    10.0703    -9.9064
H    -19.34    11.5526    -10.5546
H    -16.1411    8.1699    -15.7567
H    -17.5668    8.9756    -15.0184
H    -17.5485    7.1908    -15.2208
H    -13.1998    10.1656    -15.7988
H    -14.0828    11.2382    -14.6602
H    -14.993    10.2537    -15.8556
H    -14.3631    7.4577    -11.6709
H    -12.984    5.5188    -10.6068
H    -11.0287    4.984    -12.1951
H    -10.6395    7.6596    -16.2815
