225

N    48.26    -8.335    38.164
C    47.775    -8.523    36.809
C    46.619    -9.501    36.744
O    46.78    -10.639    36.299
N    45.447    -9.055    37.185
C    44.263    -9.906    37.214
C    43.438    -9.781    35.936
O    42.21    -9.728    35.981
C    43.398    -9.575    38.43
O    42.941    -8.235    38.378
N    44.121    -9.734    34.798
C    43.446    -9.671    33.509
C    43.283    -11.066    32.924
O    44.167    -11.911    33.056
C    44.233    -8.79    32.535
C    45.657    -9.274    32.327
O    46.256    -9.802    33.289
O    46.179    -9.127    31.202
N    42.144    -11.311    32.285
C    41.956    -12.548    31.544
C    42.648    -12.404    30.199
O    42.25    -11.585    29.374
C    40.48    -12.842    31.356
N    43.696    -13.19    29.982
C    44.434    -13.122    28.727
C    43.726    -13.901    27.627
O    42.962    -14.828    27.899
C    45.865    -13.629    28.912
C    46.706    -12.752    29.824
C    48.085    -13.344    30.041
N    48.83    -12.626    31.07
C    49.935    -13.084    31.649
N    50.425    -14.267    31.304
N    50.546    -12.363    32.578
N    43.981    -13.513    26.384
C    43.353    -14.155    25.239
C    44.376    -14.401    24.138
O    45.432    -13.769    24.107
C    42.207    -13.291    24.704
C    42.657    -11.99    24.099
C    42.98    -10.909    24.904
C    42.751    -11.844    22.724
C    43.395    -9.712    24.35
C    43.165    -10.649    22.164
C    43.487    -9.582    22.979
N    44.062    -15.327    23.241
C    44.891    -15.558    22.068
C    44.192    -15.006    20.835
O    42.967    -14.876    20.811
C    45.177    -17.05    21.887
C    46.024    -17.721    22.971
C    46.225    -19.195    22.657
C    47.363    -17.013    23.121
N    44.975    -14.67    19.817
C    44.423    -14.2    18.556
C    44.693    -15.227    17.468
O    45.766    -15.828    17.424
C    45.023    -12.846    18.176
C    44.557    -12.305    16.832
C    44.806    -10.813    16.743
N    44.08    -10.1    17.79
C    44.528    -9.011    18.405
N    45.706    -8.498    18.079
N    43.795    -8.435    19.348
N    43.711    -15.436    16.599
C    43.861    -16.377    15.509
C    44.854    -15.884    14.479
O    44.991    -14.679    14.263
N    45.558    -16.82    13.852
C    46.474    -16.494    12.769
C    45.693    -16.377    11.469
O    44.616    -16.955    11.332
C    47.546    -17.574    12.629
C    48.46    -17.705    13.826
C    48.81    -16.595    14.583
C    48.97    -18.94    14.2
C    49.647    -16.712    15.677
C    49.806    -19.068    15.292
C    50.14    -17.951    16.026
O    50.973    -18.077    17.114
N    46.235    -15.627    10.516
C    45.605    -15.495    9.21
C    45.715    -16.805    8.444
O    46.757    -17.459    8.467
C    46.259    -14.373    8.404
C    46.167    -13.027    9.054
N    45.036    -12.245    8.99
C    47.073    -12.325    9.775
C    45.245    -11.117    9.648
N    46.473    -11.141    10.133
N    44.637    -17.19    7.769
C    44.666    -18.379    6.931
C    45.546    -18.114    5.714
O    45.871    -16.962    5.422
C    43.254    -18.791    6.52
C    42.346    -19.196    7.685
C    40.973    -19.577    7.181
C    42.955    -20.339    8.481
N    45.927    -19.179    5.014
C    46.942    -19.101    3.962
C    46.711    -18.011    2.913
O    47.415    -17.0    2.9
C    47.13    -20.463    3.286
C    48.06    -20.419    2.095
C    49.326    -19.856    2.198
C    47.675    -20.946    0.869
C    50.179    -19.81    1.113
C    48.523    -20.907    -0.222
C    49.773    -20.339    -0.094
O    50.621    -20.298    -1.177
N    45.735    -18.216    2.035
C    45.484    -17.265    0.956
C    44.075    -17.396    0.392
O    43.817    -17.009    -0.748
C    46.518    -17.436    -0.151
H    49.0255    -7.6793    38.1589
H    48.5764    -9.218    38.5332
H    47.515    -7.9771    38.741
H    48.5983    -8.9063    36.1883
H    47.4399    -7.5522    36.415
H    45.3752    -8.1105    37.5055
H    44.5982    -10.95    37.3019
H    43.9931    -9.7169    39.3442
H    42.5301    -10.2506    38.4488
H    42.4233    -8.1084    37.5915
H    45.1206    -9.742    34.8268
H    42.4487    -9.231    33.6565
H    44.2643    -7.7654    32.9339
H    43.716    -8.7899    31.5641
H    41.4067    -10.6361    32.3141
H    42.4142    -13.3782    32.1014
H    40.3617    -13.7803    30.7942
H    40.0103    -12.0187    30.7978
H    39.9975    -12.9404    32.3396
H    43.9826    -13.8369    30.6887
H    44.4827    -12.0672    28.4187
H    46.3497    -13.6709    27.9255
H    45.8231    -14.6401    29.3432
H    46.2    -12.6572    30.7961
H    46.8113    -11.7571    29.3668
H    48.646    -13.2944    29.0961
H    47.9766    -14.3946    30.3484
H    48.4767    -11.7051    31.3666
H    51.2815    -14.6207    31.7536
H    49.949    -14.8322    30.5864
H    50.1678    -11.4438    32.848
H    51.3991    -12.7218    33.03
H    44.621    -12.7602    26.2301
H    42.9431    -15.1235    25.5615
H    41.5235    -13.0679    25.5364
H    41.6713    -13.8645    23.9333
H    42.9064    -11.0031    25.9814
H    42.4967    -12.6773    22.079
H    43.648    -8.8761    24.9921
H    43.2366    -10.5503    21.0869
H    43.8114    -8.6441    22.543
H    43.238    -15.8778    23.3741
H    45.8471    -15.0308    22.2015
H    45.7013    -17.1756    20.9282
H    44.2101    -17.5729    21.8474
H    45.485    -17.6432    23.9267
H    46.8351    -19.6582    23.4465
H    46.7384    -19.2971    21.6895
H    45.247    -19.6961    22.6079
H    47.1924    -15.9502    23.3474
H    47.9316    -17.1015    22.1835
H    47.9326    -17.4756    23.9405
H    45.9672    -14.7417    19.9194
H    43.3352    -14.0814    18.6686
H    46.1174    -12.952    18.143
H    44.7484    -12.1179    18.9535
H    43.4804    -12.4993    16.7176
H    45.1088    -12.8123    16.027
H    44.47    -10.4498    15.7606
H    45.883    -10.6202    16.8565
H    43.1589    -10.4658    18.0706
H    46.0503    -7.6536    18.5579
H    46.277    -8.9438    17.3468
H    42.8794    -8.8319    19.6029
H    44.1413    -7.5907    19.8256
H    42.8519    -14.9341    16.6993
H    42.8843    -16.5193    15.0234
H    44.2131    -17.3377    15.9128
H    45.4558    -17.7746    14.1318
H    46.9611    -15.5322    12.9874
H    48.1625    -17.3351    11.7499
H    47.0432    -18.5398    12.4727
H    48.4205    -15.6205    14.3117
H    48.7075    -19.8204    13.6247
H    49.9137    -15.8355    16.2563
H    50.1965    -20.0404    15.5695
H    51.8087    -18.4302    16.8323
H    47.0914    -15.1442    10.6989
H    44.5415    -15.254    9.3541
H    45.7654    -14.3182    7.4225
H    47.3222    -14.6194    8.2665
H    48.0856    -12.639    10.0242
H    44.5272    -10.307    9.7691
H    46.9108    -10.3932    10.6898
H    43.7947    -16.6554    7.8379
H    45.1089    -19.2039    7.5083
H    43.332    -19.6458    5.8321
H    42.7865    -17.9425    5.999
H    42.2399    -18.3296    8.3544
H    40.337    -19.8642    8.0313
H    41.0599    -20.4247    6.4854
H    40.5228    -18.7194    6.6596
H    43.9525    -20.0453    8.8398
H    43.0434    -21.2272    7.8382
H    42.3098    -20.5715    9.341
H    45.5054    -20.0636    5.2133
H    47.8887    -18.8526    4.464
H    46.1472    -20.823    2.9477
H    47.5432    -21.1651    4.0252
H    49.6501    -19.4453    3.1474
H    46.6938    -21.3951    0.766
H    51.161    -19.3611    1.2095
H    48.2071    -21.3206    -1.1729
H    51.4351    -19.8783    -0.9246
H    45.1642    -19.0333    2.1144
H    45.5883    -16.251    1.3693
O    43.1648    -17.9053    1.0989
H    46.3163    -16.7138    -0.9558
H    46.4595    -18.4584    -0.5527
H    47.5243    -17.2591    0.2566
