57

F    -7.462    45.903    -43.442
C    -8.164    46.56    -42.528
C    -9.224    45.924    -41.814
C    -9.925    46.653    -40.864
C    -7.859    47.951    -42.237
C    -8.549    48.671    -41.271
C    -9.576    48.034    -40.562
C    -10.41    48.779    -39.57
N    -11.818    48.436    -39.807
C    -12.63    47.963    -38.755
O    -12.205    47.867    -37.647
C    -14.081    47.587    -39.021
C    -14.121    46.135    -39.226
C    -15.468    45.702    -39.724
N    -16.619    46.104    -38.853
C    -16.393    47.373    -38.097
C    -14.997    47.941    -37.919
C    -18.095    45.992    -39.428
C    -19.272    46.112    -38.534
C    -18.227    44.575    -40.14
C    -18.302    43.47    -39.357
C    -18.395    42.122    -39.963
C    -18.382    41.997    -41.319
C    -18.313    43.194    -42.166
C    -18.223    44.439    -41.609
C    -18.299    43.047    -43.566
C    -18.199    44.206    -44.386
C    -18.112    45.464    -43.829
C    -18.108    45.609    -42.446
H    -9.4771    44.8885    -42.0108
H    -10.7484    46.1853    -40.3364
H    -7.0676    48.4419    -42.7918
H    -8.298    49.7061    -41.0692
H    -10.2635    49.8616    -39.6984
H    -10.1226    48.4886    -38.5487
H    -12.2051    48.5388    -40.7233
H    -14.4189    48.1008    -39.933
H    -13.9107    45.6305    -38.2714
H    -13.3564    45.8544    -39.9653
H    -15.4667    44.605    -39.8045
H    -15.6225    46.1426    -40.72
H    -16.6065    45.3949    -38.1367
H    -16.7951    47.2102    -37.0862
H    -16.9834    48.1491    -38.6059
H    -15.07    49.0372    -37.8633
H    -14.5789    47.553    -36.9784
H    -18.1925    46.7871    -40.1819
H    -20.1937    46.0062    -39.1251
H    -19.2616    47.0969    -38.0443
H    -19.2339    45.3219    -37.7696
H    -18.2938    43.5746    -38.2781
H    -18.4727    41.2431    -39.3332
H    -18.4226    41.0135    -41.773
H    -18.3637    42.0622    -44.0144
H    -18.1911    44.0979    -45.4646
H    -18.0469    46.3377    -44.4673
H    -18.0192    46.5931    -42.0001
