22

C    20.689    28.139    -8.696
C    21.042    29.568    -8.932
N    22.284    31.281    -9.199
C    21.03    31.748    -9.29
C    20.199    30.668    -9.128
C    18.723    30.716    -9.16
C    16.673    31.822    -9.779
C    15.982    30.787    -9.223
C    16.591    29.722    -8.635
C    17.97    29.686    -8.6
N    22.322    29.94    -8.979
C    18.055    31.787    -9.756
F    14.623    30.821    -9.253
H    21.6097    27.5475    -8.5846
H    20.1099    27.7584    -9.5502
H    20.0871    28.0566    -7.779
H    20.7302    32.7812    -9.4592
H    16.149    32.6566    -10.2306
H    16.0053    28.9186    -8.2031
H    18.4728    28.8475    -8.1319
H    23.1548    29.3434    -8.8723
H    18.6225    32.5952    -10.203
