36

O    29.818    -32.047    1.168
N    29.027    -32.134    2.386
O    28.915    -33.324    3.024
C    28.46    -30.998    2.833
C    28.614    -29.845    2.068
C    28.056    -28.642    2.466
C    27.317    -28.589    3.635
C    27.145    -29.742    4.39
C    27.684    -30.962    3.997
S    27.42    -32.324    5.061
C    26.113    -31.721    6.122
O    26.564    -30.803    7.179
C    25.443    -30.396    7.977
C    25.95    -29.429    9.048
O    26.544    -28.293    8.417
C    24.782    -31.607    8.647
O    25.723    -32.294    9.478
C    24.334    -32.531    7.551
O    23.666    -33.716    8.074
C    25.561    -32.945    6.76
O    25.085    -33.805    5.745
H    29.1805    -29.8899    1.1449
H    28.1967    -27.7494    1.8672
H    26.8753    -27.6537    3.9592
H    26.5751    -29.6894    5.3106
H    25.3469    -31.2159    5.5154
H    24.7041    -29.8888    7.3393
H    26.6995    -29.9348    9.6744
H    25.108    -29.1019    9.6757
H    27.2707    -28.5771    7.8751
H    23.9214    -31.2821    9.2502
H    26.4524    -32.5933    8.948
H    23.6356    -31.9943    6.8921
H    23.3992    -34.2724    7.3518
H    26.3116    -33.4396    7.394
H    24.4629    -33.3367    5.2007
