65

C    30.191    -21.103    16.75
C    27.701    -15.961    19.657
C    26.505    -16.129    17.123
C    26.34    -14.974    17.923
C    30.015    -23.779    17.574
C    31.265    -23.218    17.341
C    27.878    -17.095    18.866
C    27.3    -17.17    17.59
C    28.915    -21.661    16.994
C    31.348    -21.875    16.953
C    28.843    -23.015    17.372
C    26.951    -14.9    19.175
C    27.441    -18.413    16.753
C    24.497    -20.18    16.969
C    32.755    -20.104    15.958
C    33.613    -21.529    17.785
C    34.197    -19.917    15.497
C    35.037    -21.364    17.235
C    37.58    -19.732    17.106
C    36.852    -18.459    15.621
C    26.535    -23.069    16.891
C    27.656    -20.849    16.788
C    36.529    -19.909    15.999
C    26.372    -21.603    17.215
C    22.549    -18.798    16.445
N    32.63    -21.346    16.705
N    35.178    -20.042    16.591
N    27.63    -19.564    17.468
N    23.589    -19.718    16.051
O    27.378    -18.39    15.528
O    24.526    -19.869    18.157
O    27.647    -23.643    17.627
O    37.883    -18.385    16.657
O    25.334    -21.092    16.369
F    26.778    -13.813    19.948
H    30.2771    -20.0786    16.406
H    28.1474    -15.9093    20.6435
H    26.0176    -16.2017    16.1575
H    25.739    -14.1467    17.5633
H    29.9385    -24.8062    17.9119
H    32.164    -23.8123    17.4581
H    28.4666    -17.9251    19.2396
H    32.0932    -20.1385    15.0801
H    32.4659    -19.2605    16.6022
H    33.4363    -20.7779    18.569
H    33.502    -22.537    18.2112
H    34.2948    -18.9155    15.0526
H    34.4225    -20.6792    14.7366
H    35.2357    -22.1531    16.4949
H    35.7587    -21.4459    18.0611
H    38.4289    -20.427    17.0262
H    37.1638    -19.7767    18.1232
H    36.0151    -17.7624    15.7768
H    37.2406    -18.3425    14.5986
H    26.7212    -23.1807    15.8127
H    25.6114    -23.6021    17.1608
H    27.5897    -20.6525    15.7077
H    36.7241    -20.6769    15.2359
H    26.1471    -21.452    18.2811
H    21.929    -18.5494    15.571
H    23.0039    -17.8798    16.845
H    21.9214    -19.2637    17.2192
H    35.0284    -19.3159    17.274
H    27.7505    -19.5215    18.4598
H    23.648    -20.0213    15.0999
