131

C    15.2    -9.856    -6.181
C    16.564    -7.054    -4.532
C    18.246    -5.192    -4.841
C    18.802    -2.788    -4.234
C    20.687    -4.304    -0.531
C    20.264    -4.672    0.905
C    20.779    -6.799    2.213
C    21.829    -7.779    2.732
P    26.469    -14.062    6.687
P    26.584    -13.963    9.579
P    30.304    -17.96    12.555
C    20.216    -18.526    -5.931
C    19.099    -17.486    -5.863
C    19.602    -16.088    -6.234
C    18.561    -14.982    -5.979
C    19.186    -13.566    -6.193
C    18.119    -12.429    -6.113
C    18.75    -11.02    -6.428
C    17.736    -9.858    -6.166
C    16.347    -10.176    -6.819
C    15.242    -9.2    -4.8
C    15.209    -7.663    -4.917
C    16.756    -5.584    -4.929
C    18.527    -3.784    -5.39
C    19.795    -3.367    -3.2
O    20.939    -3.498    -3.48
S    19.205    -3.86    -1.525
N    21.225    -5.644    1.437
O    19.634    -6.981    2.448
C    21.466    -9.227    2.365
N    22.002    -10.111    3.4
C    23.419    -10.464    3.318
O    24.073    -10.04    2.431
C    24.022    -11.39    4.385
O    23.024    -11.722    5.288
C    25.156    -10.703    5.162
C    24.674    -9.367    5.746
C    26.41    -10.481    4.293
C    25.536    -11.655    6.298
O    25.989    -12.833    5.691
O    25.269    -14.925    7.006
O    27.53    -14.89    5.999
O    27.059    -13.414    8.089
O    25.508    -15.014    9.408
O    26.044    -12.814    10.4
O    27.894    -14.641    10.353
C    29.142    -14.637    9.687
C    30.257    -15.059    10.656
O    31.121    -14.115    10.777
C    30.955    -13.539    12.169
C    29.707    -14.272    12.767
O    29.873    -14.504    14.262
C    29.662    -15.362    12.159
O    30.509    -16.361    12.861
O    31.191    -18.767    13.477
O    30.678    -18.25    11.122
O    28.863    -18.341    12.785
N    30.753    -12.208    12.095
C    29.631    -11.617    11.716
N    29.785    -10.3    11.756
C    31.038    -10.039    12.168
C    31.778    -8.862    12.403
N    31.162    -7.557    12.188
N    33.033    -8.948    12.819
C    33.595    -10.139    13.018
N    32.936    -11.27    12.806
C    31.658    -11.249    12.384
H    14.241    -10.0661    -6.6522
H    17.3535    -7.6442    -5.0202
H    16.6727    -7.1285    -3.4399
H    18.835    -5.9185    -5.42
H    18.5563    -5.2259    -3.7862
H    17.8528    -2.5603    -3.727
H    19.2244    -1.8632    -4.6539
H    21.1926    -5.1641    -0.9942
H    21.3757    -3.4469    -0.5001
H    19.2567    -5.1138    0.8937
H    20.2616    -3.7697    1.5342
H    21.892    -7.6912    3.8267
H    22.8037    -7.5296    2.2874
H    19.8148    -19.5133    -5.6584
H    21.0175    -18.2497    -5.2301
H    20.6199    -18.564    -6.9534
H    18.698    -17.4602    -4.839
H    18.3005    -17.7745    -6.5624
H    19.8635    -16.0825    -7.3024
H    20.4988    -15.8688    -5.6359
H    18.197    -15.062    -4.9441
H    17.7192    -15.1127    -6.6749
H    19.6617    -13.5355    -7.1843
H    19.9455    -13.3935    -5.4163
H    17.6919    -12.4106    -5.0995
H    17.3223    -12.6348    -6.843
H    19.0553    -10.9947    -7.4845
H    19.6324    -10.8737    -5.7877
H    18.1334    -8.9278    -6.5981
H    17.6044    -9.7315    -5.0813
H    16.3063    -10.6586    -7.7944
H    16.1667    -9.5018    -4.2864
H    14.3721    -9.535    -4.216
H    14.9718    -7.3861    -5.9548
H    14.4328    -7.2676    -4.2454
H    16.1728    -4.9459    -4.2488
H    16.4035    -5.4384    -5.9608
H    17.6537    -3.4393    -5.9631
H    19.4064    -3.8228    -6.0496
H    22.2016    -5.5141    1.2658
H    21.9062    -9.4854    1.3906
H    20.3725    -9.3348    2.3135
H    21.4217    -10.4606    4.1355
H    24.4101    -12.2982    3.9007
H    23.3809    -12.2955    5.956
H    25.4972    -8.8898    6.2979
H    23.8311    -9.5482    6.4291
H    24.3485    -8.7059    4.9293
H    26.7455    -11.444    3.8807
H    27.2111    -10.047    4.9093
H    26.1681    -9.7937    3.469
H    24.6592    -11.8646    6.9283
H    26.3332    -11.2134    6.914
H    29.3506    -13.6247    9.3106
H    29.1068    -15.3419    8.8433
H    30.746    -15.9633    10.2647
H    31.8467    -13.7399    12.781
H    28.7924    -13.688    12.5868
H    30.6428    -15.0393    14.4147
H    28.6273    -15.7301    12.0972
H    28.72    -12.1333    11.4168
H    31.703    -6.6975    12.3598
H    30.1861    -7.4952    11.8644
H    34.6214    -10.1851    13.3635
