53

C    10.933    -5.197    -8.998
C    11.465    -6.563    -8.638
C    11.983    -7.264    -9.868
C    12.733    -8.578    -9.465
O    13.917    -8.436    -9.084
O    12.151    -9.693    -9.557
C    10.842    -7.534    -10.804
C    9.929    -6.435    -10.83
C    9.961    -5.355    -10.013
C    8.94    -4.534    -10.361
C    8.511    -3.348    -9.865
C    7.405    -2.694    -10.421
Br    6.72    -1.059    -9.791
C    6.75    -3.293    -11.489
C    7.215    -4.512    -11.963
C    8.29    -5.101    -11.398
N    8.898    -6.254    -11.669
C    8.502    -7.2    -12.751
C    7.497    -8.287    -12.293
O    7.278    -9.24    -13.031
N    6.865    -8.157    -11.109
C    5.895    -9.185    -10.664
C    6.276    -9.777    -9.294
O    7.24    -9.276    -8.676
O    5.571    -10.723    -8.887
C    4.493    -8.566    -10.578
C    4.185    -8.207    -11.905
C    3.69    -9.178    -12.781
C    3.392    -8.851    -14.103
C    3.582    -7.548    -14.56
C    4.078    -6.578    -13.695
C    4.378    -6.9    -12.364
H    11.7536    -4.5623    -9.3638
H    10.4751    -4.7306    -8.1133
H    10.6565    -7.1615    -8.1928
H    12.2833    -6.4537    -7.9111
H    12.6991    -6.6018    -10.3766
H    10.3089    -8.4364    -10.4703
H    11.2386    -7.696    -11.8171
H    9.0313    -2.8996    -9.0264
H    5.8897    -2.8165    -11.945
H    6.7112    -4.9943    -12.7928
H    9.4081    -7.7001    -13.1235
H    8.0409    -6.6222    -13.5655
H    7.0516    -7.3639    -10.5291
H    5.8828    -9.9976    -11.4052
H    4.4984    -7.6797    -9.9266
H    3.7672    -9.2984    -10.1948
H    3.5369    -10.192    -12.4297
H    3.0121    -9.6109    -14.7763
H    3.3441    -7.2914    -15.586
H    4.2335    -5.5665    -14.0525
H    4.7583    -6.1385    -11.6928
