45

C    -24.251    -7.15    10.883
C    -24.66    -7.643    9.6
C    -24.627    -9.038    9.359
C    -24.197    -9.927    10.377
C    -23.777    -9.457    11.665
C    -23.815    -8.055    11.904
S    -24.027    -11.633    10.451
C    -23.442    -11.774    12.044
N    -23.378    -10.477    12.553
C    -23.387    -7.505    13.236
O    -23.005    -8.262    14.083
N    -23.423    -6.123    13.455
F    -25.068    -6.828    8.62
N    -23.118    -13.06    12.658
C    -22.369    -13.205    13.835
C    -21.239    -14.071    13.831
C    -20.498    -14.239    15.003
C    -20.871    -13.553    16.201
C    -21.974    -12.718    16.189
C    -22.749    -12.541    14.98
C    -20.056    -13.736    17.465
C    -20.842    -13.138    18.584
N    -19.63    -15.114    17.67
C    -19.618    -15.506    19.04
C    -18.258    -15.347    17.171
H    -24.272    -6.0846    11.0816
H    -24.9311    -9.4274    8.3941
H    -23.1399    -5.7492    14.3383
H    -23.7318    -5.5095    12.7282
H    -23.4616    -13.9145    12.1969
H    -20.956    -14.5958    12.9257
H    -19.6342    -14.8939    15.0045
H    -22.26    -12.1921    17.0927
H    -23.6183    -11.8935    14.9756
H    -19.1353    -13.1435    17.3594
H    -21.1123    -12.1025    18.3298
H    -20.2359    -13.1439    19.502
H    -21.7571    -13.7268    18.745
H    -20.2696    -15.7093    17.1674
H    -19.2881    -16.5524    19.1191
H    -20.6306    -15.4082    19.4583
H    -18.9259    -14.8601    19.6002
H    -18.2003    -15.0618    16.1102
H    -18.0046    -16.412    17.2786
H    -17.5483    -14.7406    17.7528
