27

O    19.171    8.308    14.618
S    18.222    7.682    13.664
O    17.212    8.543    12.962
C    19.534    7.433    12.379
C    20.661    6.336    12.488
O    22.057    6.426    12.0
C    17.324    6.332    14.43
C    15.96    6.229    14.511
F    15.188    7.146    13.953
C    15.346    5.181    15.219
F    14.009    5.188    15.186
C    15.987    4.146    15.782
S    15.26    2.754    16.729
O    13.867    2.897    16.545
N    15.772    1.425    16.032
O    15.817    2.954    18.011
C    17.402    4.273    15.681
F    18.148    3.314    16.224
C    18.017    5.335    15.069
F    19.382    5.371    15.101
H    20.0589    8.396    12.2946
H    18.9999    7.2231    11.4406
H    20.2432    5.4527    11.9828
H    20.7525    6.1332    13.5653
H    22.0544    6.5649    11.0602
H    15.4937    0.5336    16.3898
H    16.3732    1.4782    15.2346
