43

C    24.575    51.209    -4.473
C    23.225    51.778    -4.638
C    22.896    51.82    -6.114
C    24.31    49.826    -6.494
O    22.335    47.741    0.275
C    23.444    48.085    0.781
C    24.339    47.079    1.421
N    23.827    49.346    0.761
C    23.01    50.428    0.25
C    23.496    50.932    -1.095
C    24.881    51.506    -1.049
C    25.311    52.254    -2.297
N    25.431    51.383    -3.452
C    25.097    50.31    -5.348
O    24.601    48.805    -7.14
N    23.188    50.511    -6.74
C    26.36    49.895    -4.859
C    26.555    50.578    -3.652
C    27.684    50.434    -2.864
C    28.65    49.54    -3.271
C    28.506    48.82    -4.48
C    27.378    48.984    -5.286
H    23.1989    52.7965    -4.2234
H    22.4911    51.1493    -4.1125
H    23.5028    52.5984    -6.5996
H    21.8288    52.0539    -6.2419
H    25.2447    47.5791    1.7947
H    24.6207    46.3154    0.681
H    23.8121    46.6003    2.2595
H    24.7337    49.5688    1.1191
H    23.0349    51.2599    0.9692
H    21.9761    50.0689    0.1403
H    22.8057    51.7137    -1.445
H    23.4897    50.0922    -1.8055
H    25.5874    50.6784    -0.8878
H    24.9327    52.203    -0.1996
H    26.2867    52.7253    -2.1075
H    24.5647    53.0315    -2.5173
H    22.5185    50.1226    -7.3732
H    27.8046    51.0083    -1.9526
H    29.5305    49.3866    -2.6577
H    29.284    48.1298    -4.7856
H    27.2754    48.4338    -6.2143
