130

N    10.682    16.672    -10.788
C    11.632    16.985    -9.676
C    12.352    15.768    -9.123
O    11.882    15.132    -8.189
N    13.506    15.44    -9.699
C    14.102    14.112    -9.52
C    13.494    13.005    -10.413
O    14.07    11.916    -10.509
O    7.681    9.413    -8.6
C    8.074    10.181    -7.708
C    8.305    9.737    -6.296
N    8.276    11.49    -7.917
C    8.107    12.103    -9.211
C    9.416    12.096    -9.965
C    9.417    13.163    -11.055
C    10.285    12.818    -12.276
C    11.673    12.307    -11.913
N    12.372    13.287    -11.093
C    12.398    11.939    -13.182
O    13.102    12.74    -13.779
N    12.199    10.701    -13.624
C    12.795    10.193    -14.861
C    11.697    9.376    -15.555
O    11.723    8.161    -15.57
C    14.004    9.316    -14.532
N    10.686    10.058    -16.056
C    9.494    9.357    -16.501
C    9.803    8.405    -17.616
O    10.613    8.715    -18.526
C    8.566    10.477    -17.04
C    9.43    11.675    -17.18
C    10.616    11.513    -16.279
N    9.151    7.252    -17.557
C    9.255    6.308    -18.671
C    8.554    6.878    -19.911
O    8.963    6.613    -21.021
C    8.619    4.964    -18.334
C    9.133    4.267    -17.099
C    8.442    2.911    -16.914
N    8.895    2.291    -15.677
C    10.062    1.658    -15.528
N    10.896    1.52    -16.59
N    10.369    1.108    -14.318
N    7.471    7.612    -19.695
C    6.676    8.175    -20.794
C    7.011    9.678    -20.872
O    6.816    10.401    -19.913
C    5.177    7.925    -20.53
C    4.258    8.253    -21.709
C    2.826    8.499    -21.25
C    1.932    9.036    -22.365
N    2.278    10.418    -22.802
N    7.552    10.139    -21.997
C    7.872    11.563    -22.17
C    9.184    11.92    -21.472
O    10.142    11.151    -21.52
C    6.733    12.451    -21.634
C    6.692    13.841    -22.233
C    6.408    13.816    -23.724
O    6.114    12.762    -24.297
N    6.489    14.984    -24.362
O    9.292    12.979    -20.857
H    10.2427    17.5224    -11.1039
H    9.9767    16.0323    -10.4573
H    11.1863    16.2504    -11.5522
H    11.0656    17.454    -8.8579
H    12.3857    17.6921    -10.0527
H    13.9776    16.1146    -10.2669
H    13.9694    13.8157    -8.469
H    15.1757    14.1847    -9.7478
H    8.6493    10.5913    -5.6947
H    9.0694    8.9462    -6.2807
H    7.366    9.3476    -5.8758
H    8.5544    12.0628    -7.1461
H    7.7684    13.1414    -9.08
H    7.3544    11.5414    -9.7839
H    9.5613    11.1083    -10.4268
H    10.2383    12.2969    -9.2625
H    9.7924    14.1006    -10.6192
H    8.3817    13.3066    -11.3977
H    10.3976    13.7239    -12.8897
H    9.7703    12.041    -12.8601
H    11.5628    11.3923    -11.3121
H    11.9986    14.2128    -11.034
H    11.6166    10.0899    -13.0879
H    13.1121    11.0266    -15.5048
H    14.4472    8.9376    -15.4649
H    13.6834    8.4686    -13.9083
H    14.751    9.9111    -13.9863
H    9.0246    8.8162    -15.666
H    7.7486    10.6735    -16.3306
H    8.1446    10.191    -18.015
H    8.8662    12.5749    -16.8931
H    9.7665    11.7701    -18.2229
H    11.5317    11.8802    -16.7654
H    10.4645    12.0488    -15.3304
H    8.5927    7.029    -16.7579
H    10.3198    6.1506    -18.8977
H    8.7835    4.2925    -19.1896
H    7.5398    5.1292    -18.1997
H    8.9333    4.8968    -16.2195
H    10.217    4.1091    -17.1984
H    8.6896    2.2562    -17.7625
H    7.3529    3.0591    -16.8706
H    8.2716    2.3442    -14.8588
H    11.7963    1.0324    -16.4778
H    10.6285    1.9029    -17.508
H    9.7251    1.2221    -13.5222
H    11.2447    0.5787    -14.2002
H    7.1862    7.788    -18.7527
H    6.9544    7.6909    -21.7417
H    4.8714    8.545    -19.6743
H    5.0457    6.8623    -20.2783
H    4.267    7.4092    -22.4146
H    4.6319    9.1565    -22.2129
H    2.8408    9.2303    -20.4284
H    2.4047    7.5495    -20.8882
H    0.8923    9.0362    -22.0058
H    2.02    8.3659    -23.2329
H    1.6499    10.7053    -23.5362
H    3.2257    10.4346    -23.1449
H    2.1923    11.0489    -22.0205
H    7.7455    9.5013    -22.7426
H    7.9878    11.7599    -23.246
H    6.8555    12.5486    -20.5452
H    5.7765    11.9535    -21.8523
H    7.6644    14.3273    -22.066
H    5.9019    14.4193    -21.7318
H    6.3124    15.03    -25.3452
H    6.7263    15.814    -23.8573
