39

N    13.789    -7.453    13.075
C    13.197    -6.217    12.575
C    12.25    -6.447    11.412
O    12.53    -7.234    10.51
C    14.292    -5.245    12.129
C    14.84    -4.414    13.273
S    16.423    -3.613    12.895
C    16.353    -3.472    11.113
N    11.133    -5.736    11.428
C    10.222    -5.726    10.3
C    10.84    -4.84    9.232
O    11.503    -3.853    9.575
C    8.877    -5.144    10.728
C    7.725    -6.053    11.157
C    8.213    -7.362    11.729
C    6.795    -5.316    12.127
O    10.695    -5.072    8.022
H    14.4066    -7.2429    13.8434
H    14.3109    -7.8983    12.3366
H    13.0586    -8.0718    13.3906
H    12.6287    -5.7569    13.3968
H    13.8729    -4.5669    11.371
H    15.1171    -5.8232    11.6877
H    14.982    -5.0713    14.1435
H    14.1052    -3.6333    13.5189
H    17.2726    -2.9923    10.7468
H    15.4829    -2.8627    10.8273
H    16.2605    -4.4742    10.6692
H    10.9123    -5.1926    12.238
H    10.0809    -6.7467    9.9151
H    8.5078    -4.552    9.8776
H    9.0816    -4.4766    11.5781
H    7.1406    -6.2912    10.256
H    7.3503    -7.9785    12.0217
H    8.8396    -7.1657    12.6115
H    8.8046    -7.8957    10.9706
H    6.4644    -4.371    11.6713
H    7.3343    -5.1033    13.0618
H    5.9188    -5.9447    12.344
