69

C    15.988    -2.065    3.17
C    14.452    0.913    8.121
C    13.44    1.681    7.564
C    15.924    -1.154    4.212
C    16.93    -1.883    2.168
C    17.705    0.135    3.264
C    15.581    0.634    7.374
C    13.518    2.153    6.254
C    16.782    -0.075    4.268
C    15.662    1.074    6.064
C    14.648    1.839    5.522
C    17.752    -0.773    2.223
C    11.453    -1.125    2.147
C    11.838    -1.875    1.097
C    11.62    -1.291    -0.249
C    10.732    0.763    0.824
C    16.67    -0.179    7.952
C    9.276    0.888    5.435
C    9.652    0.057    4.216
C    10.561    1.42    6.044
C    11.701    1.49    3.919
C    10.482    0.887    3.23
C    12.441    -3.243    1.231
C    13.767    5.786    5.612
C    12.523    6.293    7.695
C    12.018    4.174    6.516
C    12.448    3.018    5.596
C    13.107    5.185    6.839
N    11.088    -0.003    -0.268
N    10.891    0.136    2.044
N    11.267    2.282    5.073
O    11.899    -1.899    -1.282
O    10.332    1.92    0.708
O    17.164    -1.155    7.41
O    17.035    0.317    9.162
O    16.79    0.866    5.303
F    14.802    2.276    4.248
Cl    18.898    -0.494    0.979
H    15.3099    -2.9101    3.1381
H    14.3583    0.5352    9.1327
H    12.5676    1.92    8.1613
H    15.1879    -1.2912    4.9959
H    17.0197    -2.5974    1.3576
H    18.374    0.9875    3.2909
H    11.5932    -1.5384    3.1447
H    8.7459    0.261    6.167
H    8.6297    1.7253    5.133
H    8.7344    -0.2864    3.7159
H    10.2408    -0.8138    4.5401
H    11.2098    0.5753    6.3189
H    10.3214    2.0063    6.9434
H    12.2394    2.1376    3.2114
H    12.3675    0.6831    4.2577
H    9.8455    1.7164    2.888
H    12.5243    -3.5042    2.2963
H    13.4409    -3.2495    0.7726
H    11.7997    -3.9779    0.7224
H    14.5393    6.5037    5.9256
H    13.0099    6.304    5.005
H    14.2303    4.986    5.0159
H    12.0449    5.8561    8.5841
H    11.7745    6.8504    7.1128
H    13.3262    6.9759    8.0089
H    11.664    3.7412    7.4633
H    11.1915    4.7094    6.0259
H    12.9296    3.4754    4.7192
H    13.8854    4.6667    7.4181
H    10.9494    0.4101    -1.1681
H    10.6024    2.9701    4.7555
