139

P    -24.035    46.574    -12.017
O    -25.423    46.068    -12.306
O    -23.591    46.071    -10.67
O    -23.043    46.044    -13.144
C    -18.731    37.03    -3.989
C    -18.226    38.048    -4.98
C    -18.531    37.615    -6.444
C    -19.438    38.621    -7.159
C    -20.788    37.955    -7.628
C    -22.008    38.852    -7.372
C    -23.24    38.053    -6.918
C    -24.376    38.078    -7.942
C    -23.893    37.828    -9.382
C    -25.015    37.309    -10.294
C    -24.504    36.954    -11.723
C    -24.992    37.945    -12.794
C    -24.78    39.436    -12.393
C    -24.524    40.35    -13.624
C    -23.12    41.009    -13.593
C    -23.034    42.246    -14.506
O    -23.898    42.421    -15.352
O    -21.748    42.934    -14.636
C    -21.652    44.262    -14.038
C    -22.978    44.624    -13.345
C    -25.282    48.793    -12.337
C    -25.248    49.343    -13.753
C    -26.612    49.898    -14.091
C    -27.0    50.991    -13.099
C    -26.999    50.447    -11.681
C    -25.623    49.901    -11.354
O    -24.052    48.158    -12.021
O    -24.313    50.386    -13.808
O    -26.633    50.389    -15.429
O    -28.265    51.54    -13.443
O    -27.355    51.431    -10.783
O    -25.573    49.421    -9.997
P    -28.332    53.038    -13.853
O    -27.799    53.193    -15.253
O    -29.763    53.509    -13.805
O    -27.496    53.86    -12.899
P    -28.327    51.052    -9.593
O    -27.523    50.813    -8.344
O    -29.301    52.188    -9.354
O    -29.092    49.796    -9.947
C    -21.208    45.275    -15.115
O    -20.182    44.659    -15.942
C    -18.946    44.312    -15.266
O    -18.595    44.926    -14.262
C    -17.923    43.373    -15.975
C    -18.304    41.893    -15.853
C    -18.614    41.466    -14.42
C    -18.991    39.985    -14.346
C    -18.656    39.351    -13.008
C    -19.681    38.256    -12.615
C    -19.222    37.433    -11.402
C    -19.824    36.008    -11.404
C    -19.819    35.362    -10.019
C    -20.54    34.016    -10.02
C    -20.935    33.561    -8.603
C    -21.963    34.492    -7.98
C    -22.889    33.767    -6.989
C    -23.357    34.667    -5.852
C    -24.306    33.953    -4.9
H    -18.4996    37.3665    -2.9676
H    -18.2422    36.0625    -4.1759
H    -19.8196    36.9184    -4.1004
H    -17.1382    38.1571    -4.8583
H    -18.7157    39.0131    -4.7828
H    -19.0298    36.6347    -6.4285
H    -17.5831    37.5355    -6.9963
H    -18.9096    39.0149    -8.0397
H    -19.6681    39.4468    -6.4697
H    -20.9239    37.0105    -7.0807
H    -20.7229    37.7479    -8.7063
H    -22.2559    39.3846    -8.302
H    -21.752    39.581    -6.589
H    -23.6085    38.482    -5.9745
H    -22.9393    37.0079    -6.7529
H    -24.8627    39.0636    -7.9017
H    -25.1047    37.298    -7.6763
H    -23.0837    37.0834    -9.3589
H    -23.5104    38.7728    -9.7954
H    -25.789    38.086    -10.3788
H    -25.4498    36.4062    -9.8402
H    -24.8637    35.9481    -11.9851
H    -23.4041    36.9594    -11.7144
H    -26.0661    37.7775    -12.9618
H    -24.4407    37.7519    -13.7261
H    -23.9133    39.5007    -11.7187
H    -25.6794    39.7923    -11.8694
H    -25.2858    41.1434    -13.6388
H    -24.6087    39.7432    -14.5376
H    -22.3755    40.271    -13.9264
H    -22.8958    41.3153    -12.5606
H    -20.8714    44.2378    -13.2634
H    -23.8203    44.3044    -13.9762
H    -23.0342    44.1134    -12.3723
H    -26.0768    48.0347    -12.2812
H    -24.974    48.5487    -14.4629
H    -27.3473    49.0837    -14.0117
H    -26.2504    51.7939    -13.1577
H    -27.7314    49.629    -11.6137
H    -24.8857    50.7099    -11.4635
H    -24.304    50.7559    -14.683
H    -27.5076    50.6946    -15.6393
H    -25.7691    50.1353    -9.4022
H    -20.8016    46.1753    -14.6309
H    -22.0698    45.552    -15.74
H    -16.9329    43.5213    -15.5192
H    -17.8794    43.6395    -17.0413
H    -17.4664    41.2848    -16.2252
H    -19.1942    41.7093    -16.4725
H    -19.4532    42.0679    -14.0411
H    -17.7259    41.6405    -13.7948
H    -18.4467    39.4454    -15.135
H    -20.0735    39.8904    -14.5168
H    -18.6561    40.1326    -12.234
H    -17.6562    38.8965    -13.07
H    -19.819    37.578    -13.4701
H    -20.6387    38.7394    -12.372
H    -19.5367    37.9496    -10.4833
H    -18.125    37.3545    -11.4212
H    -19.2354    35.3786    -12.0876
H    -20.8627    36.0656    -11.7613
H    -20.3227    36.0354    -9.3099
H    -18.7772    35.2078    -9.7015
H    -19.8749    33.2592    -10.4615
H    -21.4513    34.1038    -10.6297
H    -20.036    33.5474    -7.9693
H    -21.3594    32.5477    -8.6592
H    -22.5766    34.9276    -8.7823
H    -21.434    35.295    -7.4458
H    -22.3448    32.9128    -6.5599
H    -23.7717    33.4026    -7.5349
H    -23.8754    35.5373    -6.2808
H    -22.4775    35.0066    -5.2853
H    -24.6126    34.6442    -4.101
H    -23.7967    33.0841    -4.4577
H    -25.1946    33.6148    -5.4532
