37

C    8.943    -11.794    -4.453
C    9.419    -12.891    -3.529
C    9.443    -12.297    -2.18
C    8.485    -11.193    -2.197
C    8.471    -10.664    -3.573
N    9.36    -9.574    -3.644
S    8.686    -8.084    -3.591
O    7.521    -7.999    -4.478
O    9.741    -7.132    -3.956
C    8.21    -7.703    -1.923
C    9.095    -6.949    -1.159
C    7.007    -8.112    -1.331
Cl    5.818    -9.051    -2.176
C    6.727    -7.759    -0.013
C    7.616    -7.006    0.738
C    8.813    -6.613    0.161
C    9.805    -5.776    0.896
C    9.516    -4.933    1.991
S    10.971    -4.173    2.409
C    11.903    -4.883    1.192
O    13.23    -4.699    0.96
N    11.117    -5.715    0.49
H    8.1155    -12.158    -5.0797
H    9.7683    -11.4548    -5.0962
H    10.4262    -13.2254    -3.8183
H    8.7263    -13.7449    -3.5593
H    10.4507    -11.9224    -1.9473
H    9.1476    -13.0452    -1.4297
H    8.7985    -10.4084    -1.4926
H    7.484    -11.5556    -1.9203
H    7.459    -10.3447    -3.8627
H    10.3485    -9.7035    -3.7225
H    10.0261    -6.6156    -1.6028
H    5.7936    -8.0801    0.4351
H    7.379    -6.7294    1.759
H    8.5484    -4.798    2.4721
H    11.4631    -6.2546    -0.2775
