53

N    62.388    -132.949    35.942
C    61.732    -134.103    36.166
C    61.569    -135.034    35.143
N    62.096    -134.768    33.87
C    62.779    -133.566    33.636
C    62.924    -132.651    34.676
C    61.216    -134.354    37.429
O    60.446    -133.551    37.956
N    61.616    -135.505    37.992
C    61.189    -135.895    39.342
C    60.532    -137.257    39.334
C    59.31    -137.118    38.647
C    59.1    -137.754    37.42
C    57.884    -137.612    36.752
C    56.865    -136.84    37.301
C    57.065    -136.207    38.523
C    58.279    -136.35    39.194
C    62.448    -135.932    40.201
O    63.557    -136.003    39.676
N    62.254    -135.83    41.523
C    63.398    -135.835    42.452
C    63.615    -134.488    43.113
C    63.439    -133.332    42.103
C    62.97    -132.087    42.871
C    64.748    -133.033    41.352
B    63.17    -136.858    43.579
O    61.936    -136.569    44.259
O    63.117    -138.186    43.047
H    61.0373    -135.9601    35.3294
H    63.1898    -133.3512    32.6561
H    63.4463    -131.7156    34.511
H    62.2211    -136.1133    37.4784
H    60.4806    -135.1533    39.7395
H    60.35    -137.5953    40.3648
H    61.1756    -137.9844    38.8176
H    59.8863    -138.3606    36.9855
H    57.7319    -138.1061    35.7992
H    55.9209    -136.7326    36.7794
H    56.2761    -135.6016    38.9545
H    58.4243    -135.8602    40.15
H    61.3243    -135.7497    41.8825
H    64.306    -136.1035    41.8921
H    64.6341    -134.4513    43.5255
H    62.8853    -134.3667    43.9271
H    62.6707    -133.6142    41.3681
H    62.8385    -131.2508    42.1685
H    63.7229    -131.8166    43.6259
H    62.0127    -132.302    43.3684
H    65.0717    -133.9321    40.8072
H    65.5259    -132.7412    42.0729
H    64.5823    -132.212    40.6389
H    61.8124    -137.1909    44.9664
H    62.9915    -138.8053    43.7563
