114

C         59.13800     -135.59300       31.70000
O         59.94500     -134.74100       31.32900
C         58.72900     -136.78400       30.81500
N         58.42700     -136.43200       29.40600
O         58.46000     -135.02300       27.11900
C         59.65200     -136.33000       28.56900
C         57.57500     -135.22000       29.27600
C         59.18500     -136.24300       27.15100
C         57.21600     -135.05800       27.87400
N         58.55500     -135.59200       32.90100
C         58.85500     -134.57400       33.90500
C         60.10900     -135.02900       34.63800
O         60.44600     -136.21300       34.62700
C         57.73100     -134.52300       34.90900
C         56.95400     -133.25700       34.60600
C         55.68000     -133.32800       35.22500
C         54.56500     -132.82400       34.55100
C         55.49300     -133.86200       36.50800
C         53.29900     -132.86800       35.13200
C         54.22900     -133.90800       37.08600
C         53.12900     -133.41000       36.40100
N         60.76600     -134.06800       35.29200
C         61.95200     -134.38500       36.08700
C         61.48400     -134.62800       37.51600
O         60.67000     -133.87100       38.04300
C         62.90400     -133.22400       36.09600
C         63.70500     -133.29900       34.78300
C         64.47300     -131.98300       34.59400
C         64.69300     -134.47900       34.79900
N         62.00700     -135.70800       38.11100
C         61.65700     -136.05700       39.49300
C         62.93300     -136.01900       40.32100
O         64.03700     -136.01700       39.77900
C         61.00800     -137.41000       39.55000
C         59.69000     -137.19300       39.11700
C         59.30200     -137.52100       37.81500
C         58.75200     -136.64000       39.99000
C         57.99000     -137.30100       37.39500
C         57.44400     -136.41700       39.57000
C         57.06100     -136.74900       38.27300
N         62.72300     -135.95800       41.64000
C         63.79500     -135.77000       42.61700
C         63.50700     -134.37000       43.13500
C         64.59900     -133.33100       42.77800
C         63.98300     -131.93100       42.96100
C         65.15600     -133.44700       41.34500
C         63.70700     -136.74400       43.81300
C         64.08800     -138.29800       43.55300
C         65.11900     -138.43100       42.39300
C         62.84900     -139.03400       43.02300
O         61.77500     -138.75800       43.93100
O         62.37800     -136.64200       44.34400
H         57.83150     -137.24480       31.25330
H         59.55340     -137.51220       30.81740
H         57.88900     -137.19890       29.03390
H         60.28360     -137.21980       28.70810
H         60.22320     -135.42920       28.83790
H         58.13130     -134.33610       29.62140
H         56.66420     -135.33960       29.88110
H         60.03770     -136.21280       26.45670
H         58.53560     -137.09380       26.89740
H         56.59620     -135.90400       27.54230
H         56.66100     -134.11890       27.73200
H         57.89340     -136.30920       33.11980
H         59.00330     -133.59060       33.43510
H         58.13400     -134.48800       35.93190
H         57.08190     -135.40440       34.80060
H         56.82840     -133.15470       33.51800
H         57.50330     -132.38700       34.99510
H         54.68600     -132.39330       33.56360
H         56.34580     -134.24440       37.05710
H         52.44350     -132.47810       34.59240
H         54.10220     -134.33410       38.07460
H         52.14410     -133.44350       36.85250
H         60.44420     -133.12280       35.23770
H         62.45180     -135.27850       35.68460
H         63.58250     -133.29670       36.95870
H         62.34670     -132.27700       36.14650
H         63.00540     -133.43430       33.94500
H         65.04920     -132.02590       33.65800
H         65.15940     -131.83420       35.44060
H         63.76070     -131.14610       34.54800
H         64.13870     -135.41940       34.93460
H         65.40470     -134.35020       35.62780
H         65.24160     -134.51090       33.84610
H         62.64690     -136.28640       37.60500
H         60.94960     -135.31260       39.88710
H         61.01880     -137.80220       40.57760
H         61.52400     -138.11590       38.88260
H         60.02380     -137.94830       37.12840
H         59.04410     -136.38250       41.00170
H         57.69370     -137.55990       36.38490
H         56.72240     -135.98430       40.25340
H         56.04130     -136.57800       37.94750
H         61.78510     -136.04540       41.97570
H         64.78410     -135.84480       42.14160
H         63.41920     -134.41740       44.23050
H         62.55300     -134.03110       42.70490
H         65.43700     -133.45700       43.47940
H         64.73350     -131.16530       42.71520
H         63.66010     -131.80610       44.00510
H         63.11560     -131.82190       42.29340
H         65.59870     -134.44400       41.20330
H         65.92660     -132.67790       41.18770
H         64.34010     -133.30200       40.62160
H         64.41250     -136.37800       44.57340
H         64.46740     -138.75610       44.47830
H         65.36040     -139.49280       42.23700
H         66.03560     -137.88090       42.65220
H         64.68910     -138.01330       41.47060
H         63.04110     -140.11640       42.98360
H         62.59530     -138.66970       42.01660
H         61.74132     -136.96114       43.68545
H         60.97128     -139.20842       43.62761
