114

C         59.45200     -135.62000       31.71600
O         60.18500     -134.70800       31.33300
C         59.06100     -136.79500       30.80100
N         58.63800     -136.40400       29.43200
O         58.56300     -134.93800       27.17100
C         59.78500     -136.34200       28.48900
C         57.82000     -135.15900       29.38700
C         59.19600     -136.20300       27.12200
C         57.37900     -134.91400       28.01900
N         58.93800     -135.70300       32.94900
C         59.22700     -134.70900       33.98400
C         60.45400     -135.19500       34.74200
O         60.76600     -136.38500       34.73800
C         58.08600     -134.66000       34.96700
C         57.27300     -133.42200       34.63500
C         55.98700     -133.51800       35.23400
C         54.90900     -132.87000       34.62300
C         55.74300     -134.21400       36.42900
C         53.63100     -132.92700       35.17300
C         54.46500     -134.27300       36.97800
C         53.40600     -133.62800       36.35300
N         61.10800     -134.25000       35.41900
C         62.27700     -134.58600       36.23600
C         61.78300     -134.80900       37.66200
O         60.93600     -134.06400       38.15600
C         63.24900     -133.44200       36.20100
C         64.02700     -133.64100       34.87900
C         64.51700     -132.28800       34.33600
C         65.22200     -134.59300       35.09400
N         62.30900     -135.87900       38.27700
C         61.95200     -136.22300       39.66000
C         63.22900     -136.17100       40.48300
O         64.32200     -136.10700       39.92200
C         61.32200     -137.58400       39.72900
C         59.98300     -137.37900       39.36400
C         59.56200     -137.60800       38.05400
C         59.05800     -136.93700       40.31100
C         58.23000     -137.40200       37.69700
C         57.72800     -136.72900       39.95400
C         57.31100     -136.96200       38.64600
N         63.03700     -136.17800       41.81200
C         64.12700     -135.98100       42.77300
C         63.86900     -134.56800       43.26800
C         64.96100     -133.54600       42.85600
C         64.32800     -132.14200       42.92100
C         65.56400     -133.75700       41.45200
C         64.06800     -136.91700       44.00000
C         64.41200     -138.47500       43.75800
C         65.43300     -138.64600       42.59800
C         63.14500     -139.19100       43.27000
O         62.11300     -138.91800       44.23200
O         62.75800     -136.79000       44.58000
H         58.22860     -137.33570       31.27500
H         59.92980     -137.46390       30.71280
H         58.03820     -137.14470       29.10370
H         60.38250     -137.26330       28.55460
H         60.42150     -135.47500       28.71960
H         58.42650     -134.30950       29.73400
H         56.94210     -135.27370       30.03980
H         59.98000     -136.22240       26.35070
H         58.46650     -137.00200       26.92350
H         56.67480     -135.69830       27.70450
H         56.88800     -133.93200       27.95210
H         58.33610     -136.47020       33.17070
H         59.40020     -133.71880       33.53730
H         58.47390     -134.59390       35.99420
H         57.46200     -135.56040       34.86790
H         57.16270     -133.33880       33.54370
H         57.79010     -132.53080       35.02030
H         55.07080     -132.31430       33.70640
H         56.56300     -134.71340       36.93210
H         52.80800     -132.42290       34.67940
H         54.29610     -134.82410       37.89610
H         52.41120     -133.67050       36.78160
H         60.79680     -133.30100       35.36840
H         62.76080     -135.49750       35.85510
H         63.93010     -133.48300       37.06380
H         62.71740     -132.47900       36.19890
H         63.34920     -134.09120       34.13880
H         65.06740     -132.44740       33.39710
H         65.18110     -131.81530       35.07460
H         63.65300     -131.63370       34.14790
H         64.85840     -135.55590       35.48210
H         65.92090     -134.14680       35.81680
H         65.73860     -134.75510       34.13650
H         62.95920     -136.45590       37.78260
H         61.23640     -135.48320       40.04810
H         61.38750     -137.98990       40.74930
H         61.81330     -138.27430       39.02750
H         60.27360     -137.94770       37.31020
H         59.37680     -136.75440       41.33090
H         57.90900     -137.58490       36.67790
H         57.01620     -136.38510       40.69570
H         56.27560     -136.80160       38.36790
H         62.11140     -136.32370       42.16120
H         65.10490     -136.07660       42.27860
H         63.81350     -134.59090       44.36630
H         62.90580     -134.22870       42.85920
H         65.78080     -133.61020       43.58660
H         65.07650     -131.38870       42.63400
H         63.98180     -131.94290       43.94590
H         63.47410     -132.09240       42.22940
H         66.01880     -134.75690       41.39480
H         66.33310     -132.99320       41.26460
H         64.77020     -133.67150       40.69530
H         64.80660     -136.54290       44.72420
H         64.79390     -138.92570       44.68590
H         65.64940     -139.71490       42.45460
H         66.36300     -138.11380       42.84660
H         65.00900     -138.23030       41.67200
H         63.32420     -140.27430       43.20510
H         62.85130     -138.80800       42.28160
H         61.29171     -139.35542       43.95806
H         62.09374     -137.11618       43.95290
