225

C    32.315    9.127    41.186
O    33.297    9.753    41.593
C    31.883    9.243    39.761
N    31.591    8.361    42.006
C    30.375    7.595    41.727
C    29.11    8.444    41.944
O    28.689    8.684    43.071
C    30.355    6.362    42.632
C    29.143    5.486    42.41
O    28.287    5.787    41.567
N    29.072    4.374    43.153
N    28.499    8.872    40.849
C    27.359    9.788    40.877
C    25.992    9.099    41.004
O    24.966    9.769    41.089
C    27.379    10.604    39.608
N    25.969    7.775    40.991
C    24.705    7.048    41.018
C    23.884    7.383    42.247
O    22.691    7.63    42.153
C    24.967    5.554    40.996
C    23.725    4.691    41.048
C    23.212    4.129    39.895
C    23.068    4.449    42.241
C    22.098    3.337    39.926
C    21.94    3.637    42.287
C    21.454    3.109    41.12
O    20.345    2.294    41.151
N    24.524    7.385    43.406
C    23.801    7.469    44.663
C    23.286    8.863    44.976
O    22.198    9.001    45.535
C    24.687    6.947    45.786
C    25.078    5.501    45.569
O    24.22    4.638    45.393
N    26.377    5.229    45.542
N    24.042    9.889    44.597
C    23.753    11.232    45.083
C    23.545    12.284    44.007
O    23.287    13.436    44.346
C    24.843    11.684    46.048
C    24.784    10.938    47.38
S    25.679    11.815    48.669
C    27.355    11.649    48.056
N    23.619    11.929    42.725
C    23.268    12.926    41.712
C    21.754    13.13    41.622
O    21.295    14.099    41.011
C    23.894    12.642    40.343
O    23.391    11.466    39.759
N    20.992    12.222    42.227
C    19.579    12.471    42.54
C    19.355    12.129    44.011
O    20.124    11.371    44.592
C    18.6    11.66    41.654
C    18.696    10.158    41.94
C    18.859    11.932    40.189
C    17.568    9.336    41.319
N    18.31    12.687    44.619
C    17.923    12.305    45.974
C    17.092    11.024    45.916
O    16.062    10.986    45.247
C    17.124    13.426    46.643
C    16.609    13.087    48.035
C    15.86    14.266    48.649
N    14.823    13.839    49.583
C    13.981    14.665    50.194
N    14.047    15.972    49.976
N    13.068    14.184    51.027
N    17.558    9.977    46.596
C    16.902    8.671    46.57
C    16.188    8.302    47.868
O    15.759    7.162    48.032
C    17.932    7.578    46.265
C    18.547    7.692    44.898
C    19.495    6.535    44.597
N    20.136    6.706    43.294
C    19.668    6.235    42.14
N    18.546    5.53    42.092
N    20.332    6.47    41.021
N    16.06    9.242    48.794
C    15.43    8.919    50.073
C    13.971    8.483    49.913
O    13.482    7.637    50.664
C    15.549    10.081    51.059
O    14.98    11.257    50.523
N    13.281    9.05    48.929
C    11.889    8.687    48.671
C    11.488    9.033    47.238
O    10.551    9.796    47.006
C    10.96    9.378    49.676
C    11.006    10.901    49.633
S    10.544    11.659    51.202
C    11.992    11.278    52.184
N    12.198    8.451    46.278
C    12.028    8.818    44.875
C    10.83    8.148    44.202
O    10.613    8.329    43.003
C    13.308    8.535    44.091
N    10.062    7.375    44.968
C    8.839    6.766    44.441
C    7.664    6.91    45.396
O    6.769    6.069    45.42
C    9.07    5.293    44.084
C    10.225    5.116    43.114
C    10.268    3.757    42.428
O    9.311    2.97    42.541
O    11.282    3.491    41.759
N    7.669    7.986    46.177
C    6.584    8.256    47.111
C    5.404    8.905    46.396
O    4.958    8.423    45.354
C    7.068    9.154    48.25
O    7.525    10.4    47.755
O    4.877    9.922    46.848
H    30.9959    8.6143    39.5945
H    32.6981    8.9087    39.1023
H    31.6367    10.2913    39.5367
H    31.9279    8.3022    42.9457
H    30.3968    7.2672    40.6772
H    30.3587    6.6962    43.68
H    31.2586    5.7669    42.4337
H    28.2941    3.7538    43.0518
H    29.7969    4.1638    43.809
H    28.8329    8.5538    39.9617
H    27.4816    10.4588    41.7401
H    26.5285    11.3016    39.6072
H    27.3038    9.9332    38.7395
H    28.3192    11.1722    39.5522
H    26.8298    7.2669    40.9623
H    24.1268    7.3237    40.1238
H    25.5941    5.3037    41.8644
H    25.5108    5.3155    40.07
H    23.7023    4.3197    38.9472
H    23.4384    4.8996    43.1547
H    21.7233    2.89    39.0123
H    21.4527    3.4251    43.2318
H    20.136    2.0118    40.2683
H    25.5223    7.3277    43.4162
H    22.9245    6.8088    44.586
H    24.141    7.029    46.7374
H    25.5997    7.5592    45.833
H    26.6882    4.2891    45.4016
H    27.0444    5.964    45.6621
H    24.8115    9.7385    43.9763
H    22.8111    11.1672    45.6475
H    24.7216    12.7603    46.2398
H    25.8237    11.5025    45.5841
H    25.23    9.9408    47.2509
H    23.7321    10.8327    47.6841
H    28.0498    12.146    48.749
H    27.4303    12.1166    47.0632
H    27.6136    10.5826    47.9797
H    23.9061    11.0079    42.4622
H    23.6943    13.8804    42.0546
H    24.9821    12.538    40.4664
H    23.6801    13.4885    39.6739
H    23.5768    10.7273    40.3267
H    21.3948    11.3414    42.4766
H    19.3724    13.5401    42.3839
H    17.5767    11.9876    41.8897
H    18.6722    10.0108    43.0298
H    19.6527    9.79    41.541
H    18.7869    13.013    39.9985
H    18.1121    11.4018    39.5799
H    19.8664    11.5792    39.923
H    17.708    8.2739    41.5687
H    17.5822    9.4606    40.2262
H    16.6016    9.6815    41.715
H    17.7784    13.3833    44.1368
H    18.8312    12.1169    46.5655
H    16.2598    13.6609    46.0043
H    17.7727    14.3108    46.7223
H    17.4618    12.8287    48.68
H    15.9277    12.2262    47.9657
H    15.3907    14.8463    47.8409
H    16.5798    14.9011    49.1862
H    14.7385    12.8318    49.7813
H    13.3913    16.6074    50.4528
H    14.7539    16.3513    49.33
H    13.012    13.1702    51.2002
H    12.4149    14.8242    51.5008
H    18.3869    10.0889    47.1442
H    16.1536    8.6895    45.7641
H    17.4338    6.6003    46.3412
H    18.7356    7.6394    47.0136
H    19.1093    8.6356    44.8395
H    17.7435    7.6968    44.1468
H    18.925    5.5942    44.5964
H    20.2703    6.4936    45.3762
H    21.0205    7.2331    43.2667
H    18.1997    5.1739    41.1897
H    18.0207    5.3384    42.957
H    21.2048    7.0163    41.0451
H    19.9764    6.1067    40.1252
H    16.3931    10.1684    48.6183
H    15.9796    8.0669    50.4995
H    16.6121    10.2619    51.2759
H    15.0243    9.8189    51.9896
H    15.0655    11.9639    51.1519
H    13.7228    9.7385    48.3538
H    11.7885    7.5994    48.8011
H    11.2456    9.0538    50.6876
H    9.9284    9.0591    49.4663
H    10.3115    11.2517    48.8554
H    12.0293    11.2146    49.3792
H    11.8643    11.6839    53.1984
H    12.8803    11.7291    51.7178
H    12.1209    10.187    52.2392
H    12.8638    7.7458    46.5216
H    11.8498    9.903    44.8447
H    13.1627    8.8168    43.0377
H    13.5473    7.4632    44.1541
H    14.1358    9.1212    44.5165
H    10.3248    7.2078    45.9183
H    8.5787    7.2986    43.5144
H    8.1552    4.8917    43.6235
H    9.2919    4.735    45.0056
H    11.1647    5.2507    43.6697
H    10.1439    5.8909    42.3375
H    8.436    8.6253    46.122
H    6.2487    7.2997    47.5389
H    7.8925    8.6525    48.778
H    6.2367    9.3278    48.9491
H    6.8151    10.8388    47.3011
