68

C    108.006    17.626    141.386
C    108.236    16.392    141.982
C    108.886    18.099    140.411
C    109.353    15.64    141.614
C    110.001    17.344    140.065
C    110.238    16.103    140.654
C    106.816    18.427    141.724
C    106.069    18.268    142.992
C    104.545    19.999    142.254
C    105.514    23.35    140.817
C    107.235    22.169    139.672
C    106.367    24.433    140.977
C    108.087    23.252    139.822
C    107.652    24.381    140.504
N    109.918    21.899    138.924
C    111.669    24.007    139.339
C    111.255    21.746    138.67
O    113.44    22.552    138.576
C    116.095    21.685    138.232
C    115.716    21.827    140.681
C    117.506    21.126    138.515
C    117.123    21.257    140.976
C    118.918    19.885    140.045
C    109.553    14.366    142.219
N    109.644    13.303    142.672
N    106.405    19.287    140.836
N    105.27    20.057    141.088
O    103.57    20.711    142.405
C    104.985    19.02    143.243
C    105.001    21.017    140.013
C    105.933    22.209    140.161
C    109.477    23.122    139.402
C    112.127    22.782    138.874
N    110.335    24.165    139.623
C    114.461    23.378    139.107
C    115.771    22.632    139.375
N    117.562    20.432    139.826
H    107.5495    16.0142    142.731
H    108.7008    19.0506    139.9259
H    110.6963    17.726    139.3263
H    111.0992    15.511    140.3661
H    106.4009    17.5359    143.7267
H    104.5058    23.4002    141.212
H    107.5883    21.2777    139.1662
H    106.0142    25.3263    141.4797
H    108.325    25.2161    140.6612
H    112.3586    24.8319    139.4768
H    111.6266    20.7957    138.304
H    115.3614    20.8661    138.197
H    116.0855    22.2269    137.2748
H    115.4025    22.483    141.5064
H    114.9972    21.001    140.5759
H    118.2259    21.9577    138.5196
H    117.7742    20.4132    137.7213
H    117.0861    20.6353    141.8827
H    117.8316    22.0846    141.1275
H    119.2137    19.2791    139.1758
H    118.9184    19.2561    140.9475
H    119.6308    20.7127    140.1745
H    106.9174    19.398    139.9494
H    105.1872    19.5727    144.1723
H    104.1454    18.3277    143.4033
H    103.9567    21.3567    140.0762
H    105.1717    20.5356    139.0388
H    114.1043    23.8071    140.055
H    114.6618    24.188    138.3904
H    116.5772    23.3758    139.4571
H    116.9256    19.6522    139.7717
