50

O    17.59    32.243    8.675
P    16.804    33.097    9.713
O    17.848    33.824    10.66
O    15.985    34.113    9.01
C    15.692    31.988    10.729
C    16.388    30.994    11.636
O    15.655    30.459    12.698
C    15.751    31.012    13.954
C    14.708    30.547    14.984
N    13.295    30.923    14.751
C    12.465    30.459    15.851
C    12.664    31.12    17.216
P    11.371    30.862    18.496
O    10.305    31.978    18.375
O    10.732    29.537    18.291
O    12.025    30.918    19.925
C    12.803    30.332    13.488
C    11.352    30.675    13.123
N    10.787    30.149    11.867
C    10.021    29.003    11.752
N    9.574    28.058    12.662
C    8.826    27.033    12.246
N    8.367    26.051    13.2
N    8.48    26.877    10.922
C    8.881    27.75    10.001
O    8.512    27.563    8.671
C    9.683    28.87    10.398
N    10.252    29.939    9.725
C    10.914    30.701    10.626
Br    11.895    32.334    10.212
H    15.0575    31.42    10.0327
H    15.0604    32.6319    11.3586
H    17.2659    31.4994    12.0647
H    16.7189    30.153    11.0089
H    15.6547    32.1027    13.8484
H    16.7471    30.7686    14.3523
H    15.0018    30.9622    15.9593
H    14.7532    29.4487    15.0244
H    13.2312    31.9272    14.6906
H    12.6553    29.3828    15.9757
H    11.4157    30.6146    15.5599
H    12.7443    32.2038    17.0461
H    13.6116    30.7421    17.6275
H    12.8826    29.2381    13.5713
H    13.4509    30.6858    12.6725
H    11.2829    31.7717    13.073
H    10.7176    30.3046    13.9417
H    8.6128    26.1461    14.1957
H    7.7938    25.2554    12.8848
H    7.9189    26.0958    10.6485
