24

N    17.099    -12.931    -22.995
C    16.23    -12.775    -23.749
C    15.129    -12.587    -24.708
N    14.439    -11.303    -24.593
C    13.322    -11.033    -23.915
O    12.73    -11.873    -23.255
O    12.771    -9.688    -23.939
C    11.502    -9.451    -23.331
C    11.355    -7.195    -24.448
C    10.636    -6.221    -25.132
C    9.298    -6.432    -25.45
C    8.684    -7.62    -25.081
C    9.404    -8.591    -24.394
C    10.74    -8.383    -24.08
H    14.3928    -13.3884    -24.5477
H    15.5414    -12.6658    -25.7247
H    14.854    -10.5351    -25.081
H    11.6552    -9.1233    -22.2922
H    10.9183    -10.3833    -23.3391
H    12.3971    -7.026    -24.202
H    11.1196    -5.2941    -25.4185
H    8.7383    -5.6721    -25.9833
H    7.6426    -7.7913    -25.3283
H    8.9193    -9.5156    -24.102
