68

N    3.539    8.265    13.945
C    4.961    14.479    8.529
C    1.728    13.055    17.68
C    1.135    10.4    18.366
C    2.342    12.333    15.474
C    2.494    11.307    14.545
C    4.697    13.293    9.198
C    1.593    10.708    17.092
C    6.55    13.624    10.581
C    2.384    8.97    13.909
C    7.826    10.453    15.088
C    6.675    9.596    15.572
C    7.293    11.612    14.253
C    5.841    9.127    14.394
C    4.589    8.461    14.964
C    3.293    5.874    13.503
C    1.271    12.743    18.956
C    0.976    11.424    19.294
C    6.053    15.233    8.923
C    6.842    14.771    9.967
C    1.755    9.689    16.16
C    1.888    12.033    16.749
C    2.217    9.978    14.875
C    5.482    12.887    10.199
C    7.202    12.973    11.634
C    5.412    11.737    10.998
C    5.433    10.315    13.549
C    6.079    12.212    12.257
C    3.807    7.208    12.962
N    6.573    11.099    13.083
O    1.525    8.774    13.049
O    1.869    5.911    13.512
C    1.404    4.766    14.23
H    4.3256    14.8085    7.7149
H    1.9566    14.0807    17.4141
H    0.9044    9.3753    18.6339
H    2.5763    13.3561    15.203
H    2.8347    11.5446    13.5438
H    3.8451    12.6898    8.9054
H    8.5031    9.8416    14.4734
H    8.3752    10.8498    15.9546
H    6.0435    10.1859    16.2526
H    7.0729    8.7211    16.1069
H    8.1343    12.2364    13.9178
H    6.6083    12.2172    14.8653
H    6.4116    8.4119    13.7832
H    4.868    7.4801    15.3763
H    4.1867    9.0955    15.7675
H    3.667    5.719    14.5258
H    3.6392    5.0532    12.8576
H    1.1438    13.5297    19.6909
H    0.6187    11.1932    20.291
H    6.2875    16.167    8.4253
H    7.7029    15.3474    10.286
H    1.5216    8.6661    16.4324
H    7.6402    13.6927    12.3411
H    7.9876    12.298    11.2637
H    5.9594    10.8976    10.5444
H    4.3697    11.4379    11.1828
H    4.7815    10.9662    14.1502
H    4.8776    9.9485    12.6731
H    5.4204    12.8551    12.8592
H    4.89    7.139    12.7824
H    3.2932    7.4445    12.0186
H    7.1881    10.5188    12.5343
H    0.3042    4.7692    14.2526
H    1.792    4.7959    15.2589
H    1.7578    3.8517    13.7311
