56

C    -45.259    15.079    28.284
C    -46.094    13.935    28.405
C    -47.473    14.07    28.154
N    -47.96    15.288    27.83
C    -47.199    16.4    27.695
C    -45.82    16.338    27.924
C    -43.799    14.896    28.507
C    -42.974    14.852    27.372
C    -41.606    14.641    27.536
C    -41.064    14.485    28.818
C    -41.878    14.547    29.959
C    -43.263    14.735    29.8
C    -45.051    17.509    27.793
C    -45.663    18.714    27.427
C    -47.045    18.749    27.194
C    -47.83    17.605    27.332
C    -48.505    12.936    28.264
C    -45.497    12.591    28.763
C    -45.913    12.188    30.171
O    -45.938    13.071    31.047
O    -46.24    11.005    30.426
O    -45.937    11.581    27.833
C    -45.327    11.436    26.551
C    -43.789    11.401    26.68
C    -45.75    12.569    25.63
C    -45.833    10.099    25.974
O    -39.713    14.302    28.95
C    -39.141    13.758    30.16
C    -39.728    14.539    31.334
C    -41.276    14.377    31.357
H    -43.3952    14.9804    26.3814
H    -40.9588    14.5975    26.6675
H    -43.9137    14.7559    30.6667
H    -43.983    17.4782    27.9757
H    -45.0707    19.616    27.3242
H    -47.5118    19.6825    26.9012
H    -48.9002    17.6425    27.1639
H    -49.5034    13.3232    28.0125
H    -48.5118    12.5448    29.2921
H    -48.2384    12.1286    27.5662
H    -44.4005    12.6663    28.7193
H    -43.3398    11.2889    25.6822
H    -43.4933    10.5511    27.3127
H    -43.4379    12.338    27.137
H    -45.2712    12.4414    24.6479
H    -45.4416    13.5306    26.0661
H    -46.8433    12.5548    25.5095
H    -45.3902    9.9376    24.9801
H    -46.9291    10.1288    25.8865
H    -45.5407    9.2766    26.6435
H    -38.047    13.8712    30.1426
H    -39.398    12.6924    30.2513
H    -39.4743    15.604    31.2269
H    -39.3071    14.1546    32.2747
H    -41.525    13.3741    31.7341
H    -41.7052    15.1373    32.0261
