43

O    16.195    -0.442    0.493
C    15.271    0.261    0.019
O    14.649    0.045    -1.056
C    14.886    1.52    0.808
C    15.907    2.612    0.472
C    15.595    3.963    1.002
N    14.758    4.818    0.445
C    14.749    5.925    1.298
C    14.016    7.112    1.248
C    14.188    8.063    2.245
C    15.087    7.803    3.259
F    15.217    8.715    4.262
C    15.823    6.639    3.352
C    15.624    5.695    2.359
N    16.124    4.425    2.154
N    13.522    1.939    0.501
C    12.739    2.501    1.434
O    13.102    2.604    2.606
C    11.434    3.085    0.975
C    10.823    4.03    1.804
C    9.664    4.646    1.432
C    9.056    4.367    0.189
C    7.897    5.044    -0.266
C    7.369    4.771    -1.491
C    7.95    3.822    -2.315
C    9.067    3.144    -1.916
C    9.656    3.402    -0.656
C    10.846    2.766    -0.229
H    14.9429    1.2992    1.8841
H    15.9767    2.6854    -0.6233
H    16.8802    2.3037    0.8816
H    13.3184    7.2898    0.4376
H    13.6275    8.9907    2.2271
H    16.5227    6.4721    4.163
H    16.7806    3.9221    2.7679
H    13.1641    1.8045    -0.423
H    11.2769    4.2772    2.7569
H    9.2022    5.3618    2.1023
H    7.4261    5.7867    0.3677
H    6.4848    5.302    -1.8245
H    7.5145    3.615    -3.2859
H    9.5063    2.4009    -2.5716
H    11.3033    2.0137    -0.8614
