41

O    112.176    85.938    28.599
C    111.681    87.046    28.85
N    111.788    87.609    30.052
C    110.924    87.778    27.781
C    110.807    89.144    27.822
C    110.312    87.076    26.601
N    110.405    85.744    26.517
N    109.635    87.719    25.656
C    109.522    89.077    25.75
N    108.828    89.662    24.73
C    108.693    90.984    24.816
C    107.884    91.622    23.653
C    107.808    93.151    23.751
C    106.449    91.071    23.618
C    108.54    91.276    22.311
C    110.075    89.825    26.821
C    109.85    91.243    26.768
N    109.166    91.808    25.755
C    110.336    92.247    27.724
N    110.033    93.558    27.448
C    110.567    94.363    28.4
C    111.208    93.584    29.315
C    111.103    92.252    28.878
H    111.3773    88.5046    30.223
H    112.2791    87.1362    30.7837
H    111.2765    89.7031    28.6233
H    109.9908    85.2484    25.7147
H    110.8908    85.2141    27.2547
H    107.2257    93.5441    22.9046
H    108.8242    93.5712    23.7235
H    107.3195    93.4341    24.695
H    106.4792    89.9737    23.5477
H    105.9204    91.4799    22.7443
H    105.9208    91.3651    24.537
H    109.5723    91.6559    22.2987
H    107.9689    91.7398    21.4933
H    108.5496    90.1841    22.1782
H    109.4828    93.8812    26.6394
H    110.4953    95.4493    28.4281
H    111.7092    93.9291    30.2181
H    111.5449    91.381    29.3597
