31

C    -55.165    -43.463    19.592
C    -54.895    -43.393    20.96
C    -53.78    -42.71    21.474
C    -53.508    -42.635    22.893
F    -54.131    -43.607    23.588
F    -53.899    -41.413    23.456
F    -52.206    -42.771    23.1
C    -52.937    -42.087    20.544
C    -53.199    -42.155    19.186
C    -54.334    -42.827    18.673
C    -54.581    -42.916    17.28
N    -55.497    -43.792    16.781
C    -55.73    -43.889    15.453
C    -56.691    -44.795    14.962
O    -57.384    -45.511    15.868
C    -56.933    -44.947    13.598
C    -56.197    -44.176    12.705
C    -55.246    -43.262    13.175
C    -55.001    -43.111    14.532
C    -54.039    -42.187    15.014
O    -53.385    -41.437    14.298
N    -53.842    -42.1    16.378
H    -56.0286    -44.017    19.2422
H    -55.5707    -43.8838    21.6511
H    -52.0664    -41.5435    20.893
H    -52.5135    -41.6787    18.4944
H    -57.9962    -46.0813    15.4181
H    -57.6775    -45.6497    13.2416
H    -56.3604    -44.2832    11.6388
H    -54.6904    -42.6607    12.4645
H    -53.1694    -41.4533    16.7377
