56

O    29.982    -6.238    11.112
S    29.535    -5.241    12.039
O    29.892    -3.873    11.781
C    27.782    -5.343    12.227
C    27.332    -6.66    12.838
C    30.071    -5.675    13.664
C    29.374    -6.879    14.26
C    27.853    -6.899    14.238
N    27.273    -5.943    15.186
C    26.032    -6.11    15.67
O    25.283    -7.008    15.282
C    25.615    -5.224    16.776
C    26.275    -4.266    17.471
S    23.982    -5.393    17.328
C    24.187    -4.132    18.488
C    25.467    -3.627    18.449
C    25.901    -2.537    19.266
O    27.02    -2.036    19.233
N    24.909    -2.023    20.104
C    25.271    -0.903    20.968
C    23.649    -2.526    20.139
C    23.217    -3.558    19.372
C    21.809    -4.028    19.488
C    21.172    -4.034    20.727
C    19.885    -4.521    20.867
C    21.126    -4.487    18.364
C    19.836    -4.984    18.487
O    19.109    -5.505    17.449
C    19.698    -5.506    16.156
C    19.207    -4.999    19.754
O    17.934    -5.503    19.791
C    17.19    -5.335    21.0
H    27.3153    -5.2372    11.2366
H    27.4498    -4.5214    12.8786
H    27.6845    -7.4787    12.1934
H    26.2326    -6.6676    12.8722
H    29.8925    -4.814    14.3249
H    31.1492    -5.8888    13.6234
H    29.6882    -6.9532    15.3115
H    29.722    -7.7657    13.7098
H    27.5318    -7.9047    14.5468
H    27.8114    -5.1523    15.4774
H    27.3195    -4.0117    17.2972
H    24.398    -0.6051    21.5673
H    25.5984    -0.054    20.35
H    26.0893    -1.2061    21.6377
H    22.9384    -2.0714    20.8278
H    21.6939    -3.6504    21.5962
H    19.4084    -4.5294    21.8406
H    21.6031    -4.4559    17.3911
H    18.9979    -5.9526    15.4346
H    20.6275    -6.0939    16.1769
H    19.9245    -4.4724    15.8554
H    16.1937    -5.7863    20.8831
H    17.0832    -4.2623    21.2188
H    17.7205    -5.8272    21.8284
