124

C    24.524    -17.932    1.746
C    23.152    -18.553    2.023
C    23.158    -19.63    3.087
C    25.334    -18.72    0.715
Cl    16.138    -9.825    -5.499
C    15.365    -8.409    -6.103
C    14.74    -7.412    -5.262
Cl    14.708    -7.496    -3.539
C    14.236    -6.448    -6.135
C    13.553    -5.15    -5.838
N    14.516    -6.832    -7.427
C    15.221    -8.011    -7.427
C    15.704    -8.655    -8.666
O    15.43    -8.179    -9.761
N    16.433    -9.769    -8.489
C    17.364    -10.383    -9.485
C    18.825    -9.86    -9.255
C    17.193    -11.99    -9.494
C    17.818    -12.715    -8.278
O    15.78    -12.203    -9.386
C    17.821    -12.633    -10.838
O    16.971    -12.2    -11.894
C    17.915    -14.154    -10.849
C    18.798    -14.671    -11.959
O    18.519    -14.625    -9.627
C    17.886    -14.222    -8.42
O    18.555    -14.771    -7.3
C    18.441    -16.202    -7.1
C    17.067    -16.442    -6.489
C    16.931    -17.867    -5.949
C    18.059    -18.186    -5.009
C    17.865    -18.431    -3.724
C    19.409    -18.107    -5.722
C    19.629    -16.637    -6.188
C    21.003    -16.43    -6.788
C    22.032    -17.267    -6.668
C    21.975    -18.583    -5.941
C    22.098    -19.737    -6.942
C    20.706    -18.618    -5.048
C    20.528    -20.007    -4.378
O    19.73    -20.927    -4.956
C    21.109    -20.365    -3.18
C    21.943    -19.51    -2.325
O    22.283    -18.338    -2.484
C    20.972    -21.666    -2.536
O    20.445    -22.677    -2.965
C    21.699    -21.614    -1.176
C    20.801    -21.866    0.06
C    19.349    -21.44    -0.166
C    20.883    -23.313    0.513
N    22.314    -20.287    -1.18
C    23.29    -19.882    -0.097
C    24.549    -19.139    -0.521
O    25.303    -20.06    -1.306
C    26.089    -19.471    -2.342
O    22.546    -19.092    0.829
O    25.278    -17.857    2.977
C    26.167    -16.83    3.301
O    26.488    -16.653    4.457
N    26.592    -16.117    2.259
O    25.978    -19.865    1.318
C    27.319    -19.997    1.162
O    27.995    -19.223    0.536
C    27.815    -21.217    1.858
H    24.3687    -16.9141    1.3591
H    22.5075    -17.739    2.3864
H    22.1377    -20.0188    3.2209
H    23.5162    -19.2055    4.0365
H    23.8244    -20.4483    2.7767
H    26.1304    -18.0462    0.366
H    13.2923    -4.6486    -6.7817
H    14.2274    -4.5058    -5.2547
H    12.6373    -5.3415    -5.2594
H    14.2374    -6.3111    -8.2708
H    16.3447    -10.232    -7.607
H    17.0605    -10.0318    -10.4822
H    19.4991    -10.3188    -9.9933
H    19.1551    -10.1283    -8.2406
H    18.8453    -8.7662    -9.3699
H    17.215    -12.4794    -7.3887
H    18.8409    -12.3353    -8.1386
H    15.3402    -11.7768    -10.1122
H    18.8342    -12.23    -10.983
H    16.088    -12.5133    -11.737
H    16.9025    -14.5702    -10.9565
H    18.8301    -15.7699    -11.9203
H    19.8148    -14.27    -11.8356
H    18.3925    -14.35    -12.9298
H    16.8567    -14.6096    -8.4341
H    18.5098    -16.7352    -8.0597
H    16.2999    -16.278    -7.2602
H    16.9146    -15.7315    -5.6632
H    16.9499    -18.5757    -6.79
H    15.9755    -17.9605    -5.412
H    18.7125    -18.658    -3.079
H    16.8577    -18.4058    -3.3109
H    19.2936    -18.7275    -6.6229
H    19.588    -16.0011    -5.2914
H    21.1636    -15.5211    -7.3659
H    22.9772    -16.9799    -7.1264
H    22.8452    -18.6436    -5.2709
H    23.0249    -19.6212    -7.5229
H    21.2344    -19.7251    -7.6232
H    22.1231    -20.6929    -6.3983
H    20.9034    -17.9102    -4.2294
H    19.726    -21.7172    -4.4287
H    22.4873    -22.3811    -1.1628
H    21.1958    -21.244    0.8769
H    18.762    -21.6422    0.742
H    18.9274    -22.0071    -1.009
H    19.3136    -20.3644    -0.3935
H    21.9364    -23.5898    0.667
H    20.4416    -23.9637    -0.2563
H    20.3305    -23.4338    1.4565
H    23.6224    -20.8022    0.4057
H    24.2919    -18.2499    -1.1155
H    26.629    -20.2599    -2.886
H    26.812    -18.7697    -1.9
H    25.4316    -18.9296    -3.0383
H    27.2315    -15.3608    2.398
H    26.2716    -16.338    1.3379
H    28.9026    -21.3025    1.7176
H    27.3202    -22.1053    1.4384
H    27.5886    -21.1441    2.932
