52

C         18.75700      -16.88400      -24.49700
N         18.16100      -15.69100      -24.15900
N         18.01000      -18.07000      -24.63500
C         16.74400      -15.59400      -23.93400
N         20.22600      -16.88700      -24.69600
C         16.56800      -18.02000      -24.47700
C         15.96800      -16.77000      -24.09800
C         20.82800      -18.14400      -25.18200
C         20.90500      -18.18200      -26.69400
N         16.28100      -14.37100      -23.73500
C         18.66600      -19.40800      -24.83100
C         20.16900      -19.37700      -24.54100
O         15.98000      -19.05300      -24.77000
F         21.40100      -19.33500      -27.13800
F         19.72300      -18.02000      -27.28000
F         21.68900      -17.22200      -27.15900
O         15.31300      -11.88400      -22.82200
C         20.98400      -16.23000      -23.62900
C         17.20500      -13.23500      -23.53400
C         14.86400      -13.99600      -23.91600
C         21.20500      -14.75500      -23.74500
O         21.45700      -14.22300      -22.44300
C         14.45100      -13.01600      -22.84900
C         16.64400      -12.29000      -22.50200
C         21.13500      -12.84100      -22.20600
C         22.08500      -12.00500      -23.00900
C         21.30400      -12.61200      -20.75500
H         21.87000      -18.14480      -24.82950
H         18.51520      -19.72460      -25.87360
H         18.19210      -20.13480      -24.15490
H         20.32480      -19.34330      -23.45260
H         20.63320      -20.28660      -24.94990
H         21.97340      -16.70870      -23.58510
H         20.44760      -16.40940      -22.68550
H         17.33580      -12.69910      -24.48570
H         18.17860      -13.61390      -23.18980
H         14.23670      -14.89690      -23.84580
H         14.73280      -13.53400      -24.90560
H         20.30950      -14.27950      -24.17160
H         22.06920      -14.56090      -24.39720
H         13.42370      -12.67880      -23.05110
H         14.48680      -13.51660      -21.87020
H         16.63710      -12.79400      -21.52430
H         17.28550      -11.39800      -22.45020
H         20.09940      -12.62260      -22.50550
H         21.86250      -10.93990      -22.84760
H         21.97270      -12.24530      -24.07650
H         23.11700      -12.21610      -22.69220
H         21.06850      -11.56360      -20.51940
H         22.34390      -12.82750      -20.46840
H         20.62530      -13.27440      -20.19770
H         14.94883      -16.72714      -23.94155
