58

C    -5.721    33.697    -4.12
C    -5.672    34.288    -2.712
C    -5.144    35.73    -2.83
C    -4.752    33.424    -1.828
C    -7.078    34.262    -2.179
C    -7.075    34.734    -0.689
O    -6.853    35.911    -0.407
N    -7.362    33.813    0.26
C    -7.721    32.367    0.1
C    -8.547    32.045    1.309
O    -9.903    32.411    1.082
C    -7.927    32.905    2.385
C    -7.488    34.196    1.701
C    -6.315    34.675    2.322
O    -5.22    34.243    1.999
N    -6.506    35.524    3.343
C    -5.428    36.082    4.153
C    -5.262    35.277    5.309
C    -4.05    35.325    5.994
C    -3.831    34.536    7.132
C    -6.25    34.409    5.802
C    -6.023    33.616    6.935
C    -4.819    33.669    7.629
C    -4.609    32.901    8.726
S    -5.014    31.268    8.896
C    -4.439    31.09    10.414
N    -3.935    32.262    10.804
C    -4.027    33.252    9.894
C    -3.483    34.645    10.237
H    -4.7095    33.6955    -4.5524
H    -6.3879    34.3043    -4.7496
H    -6.1007    32.6657    -4.0718
H    -5.0963    36.1859    -1.8301
H    -5.8203    36.317    -3.4687
H    -4.1383    35.717    -3.2754
H    -5.1571    32.4032    -1.7651
H    -4.6977    33.8597    -0.8195
H    -3.7445    33.3921    -2.2684
H    -7.4748    33.2378    -2.239
H    -7.7099    34.9357    -2.7764
H    -6.8155    31.7432    0.0713
H    -8.303    32.2111    -0.8203
H    -8.4852    30.9774    1.5666
H    -10.419    32.2038    1.8523
H    -7.0591    32.3944    2.8278
H    -8.665    33.1224    3.1712
H    -8.2652    34.968    1.8006
H    -7.4444    35.7908    3.5624
H    -5.6834    37.1095    4.4515
H    -4.4945    36.0905    3.5712
H    -3.2638    35.9828    5.6416
H    -2.8759    34.5962    7.6411
H    -7.207    34.3513    5.2962
H    -6.8033    32.9463    7.2781
H    -4.4628    30.1752    11.0043
H    -3.0669    34.6356    11.2552
H    -4.2984    35.3811    10.181
H    -2.6936    34.917    9.5208
