33

C    9.513    48.71    11.373
C    10.786    48.053    11.924
C    10.756    47.612    13.4
O    12.068    47.213    13.889
C    13.081    47.138    12.85
O    12.836    46.022    11.972
C    14.456    46.728    13.373
O    15.386    46.866    12.297
C    14.284    45.23    13.619
O    14.083    44.927    15.01
C    12.983    44.919    12.87
C    13.076    43.613    12.074
O    13.966    43.78    10.96
C    11.701    43.257    11.523
O    11.864    42.245    10.52
H    9.6653    48.9755    10.3164
H    9.2898    49.6189    11.9509
H    8.6716    48.0064    11.4566
H    11.6093    48.7733    11.8084
H    10.991    47.1608    11.3141
H    10.0681    46.7595    13.4996
H    10.3916    48.4506    14.0115
H    13.1199    48.0943    12.3078
H    14.7649    47.2863    14.269
H    15.123    46.303    11.5784
H    15.1374    44.6589    13.2247
H    13.301    45.3689    15.3194
H    12.1365    44.8621    13.5701
H    13.4405    42.807    12.7278
H    14.0176    42.9662    10.4726
H    11.2364    44.1494    11.0783
H    11.0626    42.8768    12.3341
H    11.0138    42.0117    10.166
