101

N    30.096    -10.275    41.499
C    28.981    -11.219    41.462
C    27.647    -10.472    41.463
O    27.144    -10.036    42.51
C    29.052    -12.192    42.64
O    28.146    -13.28    42.473
N    27.063    -10.35    40.279
C    25.953    -9.442    40.08
C    24.566    -10.106    40.039
O    24.355    -11.07    39.305
C    26.193    -8.646    38.807
N    23.625    -9.564    40.812
C    22.231    -9.907    40.675
C    21.571    -10.091    42.002
O    21.622    -8.942    42.762
C    21.528    -8.866    39.837
O    22.197    -7.961    39.266
P    21.127    -8.941    44.242
O    19.692    -9.422    44.35
O    21.202    -7.504    44.747
O    21.996    -9.799    45.136
N    20.205    -8.979    39.711
C    19.413    -8.08    38.874
C    19.468    -6.613    39.369
O    19.284    -5.674    38.586
C    17.961    -8.581    38.77
C    17.062    -7.929    37.708
C    17.646    -8.099    36.314
C    15.646    -8.477    37.756
N    19.721    -6.439    40.665
C    19.916    -5.122    41.287
C    20.736    -4.157    40.436
O    20.55    -2.95    40.506
C    20.584    -5.264    42.663
O    19.616    -5.519    43.665
N    21.644    -4.7    39.639
C    22.399    -3.905    38.679
C    21.629    -3.636    37.37
O    21.604    -4.475    36.472
C    23.731    -4.598    38.394
C    24.634    -4.629    39.611
O    25.363    -3.669    39.878
N    24.584    -5.722    40.363
N    20.99    -2.47    37.274
C    20.254    -2.097    36.059
C    20.054    -0.583    35.932
O    19.942    -0.048    34.827
C    18.91    -2.86    35.945
C    17.745    -2.72    36.951
C    16.931    -1.4    36.787
C    16.817    -3.967    36.901
O    20.0    0.136    36.932
H    30.9666    -10.7831    41.4979
H    30.0348    -9.7153    42.3351
H    30.0558    -9.6756    40.6896
H    29.0516    -11.7998    40.5305
H    28.7974    -11.6533    43.5647
H    30.0756    -12.5875    42.716
H    28.2139    -13.8645    43.2188
H    27.3953    -10.8951    39.5093
H    25.9486    -8.7414    40.928
H    25.3551    -7.9519    38.6452
H    26.2688    -9.3347    37.9527
H    27.1286    -8.0755    38.9022
H    23.8941    -8.8989    41.5086
H    22.1708    -10.8667    40.1408
H    22.0818    -10.9    42.5448
H    20.5179    -10.3652    41.8411
H    19.7361    -9.7082    40.2093
H    19.847    -8.1011    37.8635
H    17.4855    -8.4198    39.7487
H    17.9986    -9.6588    38.5537
H    17.0142    -6.852    37.9266
H    16.9817    -7.6231    35.5776
H    17.7403    -9.1706    36.0841
H    18.6383    -7.6262    36.272
H    15.2369    -8.3475    38.7688
H    15.6578    -9.5466    37.4994
H    15.0179    -7.9338    37.0346
H    19.7816    -7.2498    41.2472
H    18.9204    -4.6771    41.4312
H    21.1163    -4.3321    42.904
H    21.3004    -6.0981    42.6324
H    20.048    -5.6035    44.5069
H    21.8163    -5.6833    39.6977
H    22.6102    -2.9303    39.143
H    24.2452    -4.0578    37.5855
H    23.5312    -5.6316    38.0752
H    25.159    -5.795    41.1779
H    23.9713    -6.4723    40.1146
H    21.0123    -1.8352    38.0464
H    20.8733    -2.4085    35.205
H    19.1735    -3.9279    35.9419
H    18.4925    -2.5825    34.9659
H    18.195    -2.6898    37.9543
H    16.1235    -1.3721    37.5334
H    16.498    -1.3593    35.7766
H    17.5973    -0.5375    36.9354
H    17.4211    -4.8786    37.0193
H    16.2943    -3.9966    35.9336
H    16.0792    -3.9079    37.7147
