81

P    -18.768    13.685    -33.592
O    -17.44    13.623    -32.904
O    -19.664    14.656    -32.887
O    -18.603    14.072    -35.105
P    -18.266    15.55    -35.694
O    -17.423    15.367    -36.947
O    -17.518    16.375    -34.67
O    -19.61    16.236    -36.048
P    -19.805    17.821    -36.21
O    -18.475    18.475    -36.627
O    -20.28    18.416    -34.868
O    -20.895    18.048    -37.396
P    -22.225    18.949    -37.275
O    -23.362    18.059    -36.89
O    -22.504    19.583    -38.627
O    -22.06    20.031    -36.157
P    -21.3    21.422    -36.242
O    -19.928    21.26    -36.859
O    -21.157    21.973    -34.838
O    -19.43    12.211    -33.6
C    -20.745    12.049    -34.102
C    -21.482    10.98    -33.253
O    -21.016    9.808    -33.52
C    -21.218    11.221    -31.76
O    -22.336    10.943    -31.025
C    -20.061    10.26    -31.405
O    -20.179    9.806    -29.996
C    -20.173    9.281    -32.23
N    -18.908    8.828    -32.684
C    -17.778    9.564    -32.835
N    -16.801    8.742    -33.299
C    -17.331    7.491    -33.44
C    -16.787    6.299    -33.869
N    -15.425    5.965    -34.327
N    -17.555    5.18    -33.913
C    -18.865    5.226    -33.536
N    -19.405    6.399    -33.113
C    -18.628    7.541    -33.066
O    -22.162    22.45    -37.096
C    -23.415    22.858    -36.554
C    -23.805    24.266    -37.151
O    -23.013    25.189    -36.699
C    -23.592    24.264    -38.671
O    -24.692    23.813    -39.29
C    -23.349    25.754    -38.959
O    -24.683    26.462    -39.052
C    -22.698    26.201    -37.923
N    -21.305    26.22    -38.11
C    -20.389    25.594    -37.355
N    -19.15    25.87    -37.865
C    -19.316    26.675    -38.946
C    -18.404    27.244    -39.814
N    -16.977    27.247    -39.979
N    -18.836    28.028    -40.834
C    -20.166    28.254    -40.996
N    -21.069    27.692    -40.132
C    -20.643    26.902    -39.107
H    -20.7014    11.7209    -35.151
H    -21.2842    13.0057    -34.0391
H    -22.5611    11.0203    -33.4625
H    -20.9178    12.2645    -31.584
H    -22.1553    11.0972    -30.1052
H    -19.0912    10.7609    -31.5415
H    -20.1448    10.5591    -29.4179
H    -20.7048    8.4506    -31.7427
H    -17.6728    10.6267    -32.6217
H    -15.1998    5.0017    -34.6138
H    -14.6992    6.6951    -34.36
H    -19.4734    4.3296    -33.5737
H    -23.3359    22.9317    -35.4593
H    -24.1874    22.1202    -36.817
H    -24.8515    24.4973    -36.9033
H    -22.7246    23.6525    -38.9601
H    -24.5492    23.816    -40.2292
H    -22.7719    25.8942    -39.8849
H    -25.1953    26.0789    -39.7543
H    -23.0456    27.2167    -37.6834
H    -20.5965    24.9726    -36.4851
H    -16.5486    27.7825    -40.7475
H    -16.3823    26.7136    -39.3288
H    -20.5133    28.8799    -41.8101
