13

C    -28.999    2.202    45.803
C    -28.941    3.643    45.498
C    -30.101    5.442    44.324
C    -30.964    5.8    43.12
O    -29.752    1.487    45.043
O    -28.221    1.725    46.682
O    -28.063    4.374    45.998
O    -31.328    6.995    43.123
N    -29.831    4.047    44.6
O    -31.278    4.956    42.198
H    -30.5988    5.8566    45.213
H    -29.129    5.9374    44.1835
H    -30.3397    3.3539    44.0893
