64

C    -8.156    -22.22    -20.133
C    -3.902    -21.122    -17.595
C    -2.432    -25.926    -18.042
C    -6.764    -27.074    -20.359
N    -5.959    -22.068    -18.82
C    -7.017    -21.534    -19.462
C    -6.919    -20.147    -19.401
C    -5.743    -19.864    -18.707
C    -5.173    -21.074    -18.362
C    -5.185    -18.515    -18.381
C    -7.847    -19.116    -19.955
C    -7.526    -18.571    -21.299
C    -7.71    -19.549    -22.404
O    -6.746    -19.844    -23.155
O    -8.842    -20.078    -22.568
N    -3.526    -23.608    -17.995
C    -3.15    -22.401    -17.547
C    -1.882    -22.482    -16.989
C    -1.49    -23.808    -17.115
C    -2.533    -24.477    -17.743
C    -1.086    -21.374    -16.378
N    -4.749    -26.157    -19.068
C    -3.497    -26.568    -18.848
C    -3.293    -27.764    -19.506
C    -4.482    -28.073    -20.15
C    -5.372    -27.056    -19.853
C    -2.037    -28.563    -19.536
N    -7.112    -24.574    -20.049
C    -7.481    -25.788    -20.487
C    -8.73    -25.7    -21.107
C    -9.093    -24.371    -21.027
C    -8.075    -23.691    -20.376
C    -9.534    -26.787    -21.746
C    -10.333    -23.768    -21.59
C    -10.056    -23.116    -22.905
C    -11.178    -22.85    -23.84
O    -12.323    -23.261    -23.554
O    -10.972    -22.219    -24.918
H    -9.0313    -21.6594    -20.4406
H    -3.5316    -20.2422    -17.0814
H    -1.5924    -26.5064    -17.6768
H    -7.2449    -28.0073    -20.6287
H    -5.851    -17.7363    -18.7811
H    -4.1874    -18.4119    -18.8328
H    -5.1064    -18.4047    -17.2894
H    -7.8636    -18.2717    -19.2501
H    -8.8487    -19.567    -20.0107
H    -6.4762    -18.2425    -21.2982
H    -8.1803    -17.7073    -21.4881
H    -0.5509    -24.2384    -16.7866
H    -1.6634    -20.4389    -16.4246
H    -0.1436    -21.251    -16.9318
H    -0.8654    -21.6167    -15.3281
H    -4.6764    -28.943    -20.7667
H    -1.2687    -28.0613    -18.9293
H    -1.6839    -28.6523    -20.5739
H    -2.2303    -29.5656    -19.1269
H    -8.9948    -27.7417    -21.6584
H    -9.6908    -26.5507    -22.8088
H    -10.5077    -26.8682    -21.2408
H    -10.7184    -23.0141    -20.8878
H    -11.0862    -24.5573    -21.7304
H    -9.3418    -23.761    -23.4377
H    -9.5836    -22.1466    -22.6882
