135

C    23.476    4.926    18.465
O    24.059    5.921    18.841
C    22.989    3.869    19.494
N    23.233    4.733    17.05
C    23.695    5.725    16.135
C    22.851    6.957    16.232
O    21.893    7.029    16.99
C    23.597    5.206    14.693
C    24.476    3.983    14.436
C    23.652    2.825    13.825
N    24.493    1.67    13.61
C    24.655    0.684    14.688
N    25.402    -0.353    14.505
N    23.981    0.876    15.942
N    23.2    8.097    15.379
C    22.412    9.284    15.428
C    21.06    8.981    14.848
O    20.952    8.348    13.823
C    23.046    10.3    14.507
O    24.364    10.589    14.949
C    22.235    11.57    14.514
N    19.859    9.476    15.486
C    18.537    9.219    14.969
C    18.267    9.938    13.692
O    18.587    11.098    13.451
C    17.573    9.666    16.001
C    18.364    10.229    17.143
C    19.793    10.239    16.721
N    17.558    9.199    12.652
C    17.211    9.796    11.423
C    17.384    8.815    10.27
O    16.586    7.678    10.566
C    15.723    10.221    11.533
O    15.08    10.085    12.574
P    16.783    6.356    9.666
O    16.446    6.732    8.245
O    15.835    5.313    10.211
O    18.233    5.94    9.785
N    15.068    10.782    10.386
C    13.677    11.208    10.449
C    12.823    10.011    10.845
O    12.856    8.961    10.264
C    13.319    11.745    9.113
C    11.92    12.446    9.025
C    11.897    13.755    9.756
C    11.571    12.647    7.559
N    11.957    10.13    12.016
C    11.145    9.039    12.512
C    9.776    8.908    11.846
O    9.056    7.968    12.135
C    10.991    9.384    13.985
C    10.95    10.879    14.008
C    11.832    11.298    12.853
N    9.365    9.919    10.922
C    8.07    9.863    10.318
C    8.118    9.081    9.041
O    9.178    8.809    8.513
C    7.656    11.301    10.087
O    8.643    11.944    9.277
C    7.536    12.053    11.39
N    6.858    8.657    8.435
C    6.882    7.928    7.219
C    5.9    8.474    6.186
C    5.1    9.673    6.673
C    4.555    9.494    8.083
C    5.597    8.978    9.055
H    22.4866    3.0461    18.9644
H    22.2837    4.3382    20.1957
H    23.8518    3.4742    20.0504
H    22.7511    3.9207    16.7213
H    24.7407    5.9731    16.3694
H    23.9072    6.0101    14.0095
H    22.5508    4.9344    14.4888
H    24.9144    3.6489    15.3879
H    25.2806    4.2587    13.7384
H    23.2282    3.1493    12.8631
H    22.8368    2.5572    14.5132
H    24.9748    1.5387    12.7092
H    25.5165    -1.0448    15.2594
H    25.8834    -0.4885    13.6046
H    23.3857    1.7042    16.0852
H    24.0931    0.1854    16.6979
H    23.9876    8.0422    14.7653
H    22.3325    9.6647    16.4569
H    23.0822    9.8936    13.4855
H    24.8807    9.7918    14.9431
H    22.7007    12.3061    13.8422
H    22.1995    11.9768    15.5354
H    21.2129    11.3543    14.1695
H    18.422    8.1389    14.7952
H    16.9701    8.8132    16.3462
H    16.9102    10.4395    15.5859
H    18.2384    9.5993    18.0361
H    18.029    11.2527    17.3661
H    20.1322    11.2712    16.5496
H    20.4212    9.7699    17.4926
H    17.3118    8.2437    12.8157
H    17.8432    10.6785    11.2457
H    18.4402    8.5214    10.1795
H    17.0496    9.276    9.3289
H    15.5749    10.882    9.5298
H    13.5575    11.9999    11.203
H    13.3256    10.9091    8.398
H    14.0856    12.4796    8.8255
H    11.1685    11.7853    9.4819
H    10.8984    14.2076    9.6662
H    12.6467    14.4317    9.3201
H    12.1288    13.5861    10.8179
H    11.5931    11.6771    7.0405
H    12.303    13.3261    7.0976
H    10.5644    13.0831    7.4781
H    11.6823    8.0871    12.389
H    11.8464    9.008    14.5655
H    10.0593    8.9617    14.3895
H    11.3454    11.2645    14.9593
H    9.9218    11.2424    13.8641
H    11.3662    12.1228    12.2939
H    12.8195    11.6151    13.2195
H    9.9866    10.6693    10.697
H    7.3578    9.3787    11.0022
H    6.6853    11.3176    9.5698
H    8.3893    12.8473    9.128
H    7.2346    13.0914    11.1876
H    8.5066    12.0472    11.9075
H    6.7792    11.5687    12.0246
H    6.6229    6.8803    7.4315
H    7.8976    7.9768    6.7993
H    5.1956    7.6723    5.9194
H    6.4676    8.7753    5.2932
H    4.2539    9.831    5.9881
H    5.7528    10.5583    6.6597
H    3.721    8.7776    8.049
H    4.1887    10.4663    8.4442
H    5.7719    9.7499    9.8189
H    5.2045    8.0694    9.535
