9

C    13.725    51.407    17.846
C    14.889    50.48    17.378
O    15.482    50.907    16.145
Cl    12.736    50.656    19.161
Cl    14.414    52.889    18.542
Cl    12.695    51.883    16.457
H    14.4944    49.4621    17.2434
H    15.6659    50.4721    18.1566
H    16.1817    50.3098    15.9079
