29

O    20.78    52.851    34.134
C    20.114    52.697    35.23
O    20.157    53.163    36.398
C    19.363    51.591    35.226
N    19.718    50.827    34.104
C    19.17    49.585    33.979
C    19.537    48.725    32.948
C    18.955    47.479    32.84
C    17.991    47.118    33.759
I    17.076    45.267    33.559
C    17.626    47.972    34.798
C    18.208    49.216    34.902
C    17.827    50.074    35.944
C    18.362    51.281    36.213
C    17.675    51.789    37.373
C    17.73    52.965    38.163
C    16.844    53.083    39.258
C    15.928    52.085    39.583
C    15.865    50.941    38.806
Cl    14.713    49.632    39.153
C    16.729    50.824    37.727
N    16.862    49.8    36.831
H    20.2838    49.0359    32.2264
H    19.2488    46.7977    32.0497
H    16.8847    47.6575    35.5237
H    18.4352    53.7554    37.9326
H    16.8785    53.9803    39.8653
H    15.2705    52.2032    40.4367
H    16.2984    48.9379    36.8374
