19

C    66.126    8.237    18.55
C    61.413    7.783    19.937
C    62.744    7.125    18.058
C    62.5    8.326    20.556
N    67.269    9.375    20.334
C    66.118    8.847    19.808
C    64.922    8.877    20.499
C    63.768    8.301    19.933
C    63.889    7.696    18.659
N    65.08    7.672    17.977
C    61.536    7.176    18.693
H    67.0623    8.2274    18.0039
H    60.4435    7.8253    20.4201
H    62.8251    6.6449    17.0895
H    62.3904    8.7805    21.534
H    67.2534    9.8225    21.2616
H    68.1492    9.3241    19.8015
H    64.8718    9.3436    21.4762
H    60.6636    6.7382    18.2215
