71

C    10.294    32.588    27.306
C    4.215    33.158    23.338
C    10.737    32.251    29.747
C    8.926    34.945    27.791
C    9.46    34.223    28.841
C    3.354    32.173    22.755
C    7.861    38.058    22.414
C    7.228    39.002    23.172
C    9.052    34.483    26.485
C    9.752    33.304    26.25
C    9.541    38.108    18.5
C    2.879    35.318    30.668
C    10.263    37.63    19.576
C    5.561    36.188    27.063
C    6.191    35.884    25.865
C    5.508    35.075    24.966
C    4.236    34.616    25.265
C    3.604    34.971    26.447
C    4.278    35.759    27.369
O    3.563    33.689    24.51
C    7.621    36.337    25.586
N    8.467    35.163    25.413
C    7.553    37.198    24.362
C    10.171    33.042    28.618
N    8.05    36.925    23.173
N    7.025    38.441    24.388
F    6.242    36.915    27.972
O    3.742    36.174    28.576
C    2.644    35.428    29.206
C    1.404    36.174    28.897
C    8.415    38.096    21.047
N    11.199    31.086    29.495
N    10.659    32.762    30.993
C    9.708    37.609    20.842
C    8.257    38.595    18.679
C    7.68    38.595    19.951
C    6.275    39.095    20.082
N    5.315    38.363    19.534
O    6.046    40.163    20.693
H    10.8211    31.6616    27.1085
H    4.3986    33.9668    22.6154
H    5.1718    32.6954    23.6216
H    8.4063    35.8761    27.9859
H    9.3247    34.5796    29.8557
H    3.8319    31.7534    21.8575
H    2.3979    32.6403    22.4767
H    3.1711    31.3689    23.4829
H    6.9433    40.0059    22.8605
H    9.8743    32.9431    25.2352
H    9.9819    38.1019    17.5097
H    2.0528    34.7585    31.1311
H    2.9317    36.3249    31.1077
H    3.8264    34.789    30.8483
H    11.2738    37.2681    19.4265
H    5.9729    34.8015    24.0257
H    2.593    34.6361    26.6489
H    8.0041    36.93    26.4296
H    8.6417    34.8189    24.458
H    6.5525    38.8832    25.1893
H    2.582    34.4164    28.7785
H    1.2719    36.2299    27.8064
H    1.4752    37.1909    29.3102
H    0.5431    35.6558    29.3446
H    11.5969    30.5145    30.2539
H    11.1733    30.7188    28.533
H    10.2776    33.7076    31.1389
H    10.9809    32.2066    31.7985
H    10.2767    37.2143    21.6762
H    7.6994    38.9765    17.8313
H    4.3621    38.6595    19.5976
H    5.5438    37.5143    19.0571
