60

C    -72.136    17.425    -18.197
C    -70.436    18.913    -17.304
C    -72.892    18.534    -18.594
C    -71.192    20.021    -17.703
C    -67.25    22.908    -14.535
C    -66.893    21.555    -14.508
C    -67.76    22.725    -16.888
C    -70.909    17.622    -17.555
C    -72.418    19.831    -18.351
C    -67.689    23.498    -15.725
C    -66.969    20.783    -15.674
C    -67.405    21.373    -16.863
C    -73.373    22.102    -16.587
C    -73.602    24.315    -13.569
C    -72.292    25.118    -13.687
C    -71.412    26.531    -15.607
C    -73.579    22.994    -14.342
C    -72.652    24.451    -16.14
C    -69.891    26.537    -15.862
C    -70.345    24.345    -15.13
C    -71.698    25.098    -15.116
C    -70.09    16.442    -17.117
C    -73.242    21.02    -18.779
C    -68.08    24.964    -15.751
N    -73.209    23.138    -15.755
N    -73.033    22.165    -17.876
N    -69.518    25.126    -16.055
O    -73.866    21.047    -16.129
Cl    -66.53    19.101    -15.651
Cl    -67.512    20.435    -18.321
H    -72.4986    16.421    -18.3856
H    -69.4861    19.0556    -16.8016
H    -73.8451    18.39    -19.0899
H    -70.8289    21.0241    -17.5107
H    -67.1861    23.5012    -13.63
H    -66.5567    21.1033    -13.5818
H    -68.0926    23.1771    -17.8154
H    -74.4252    24.9321    -13.9583
H    -73.7805    24.0937    -12.5064
H    -71.5535    24.6881    -12.9943
H    -72.4941    26.1621    -13.4059
H    -71.9653    26.7454    -16.5332
H    -71.6832    27.2698    -14.8385
H    -74.582    22.5452    -14.2907
H    -72.8521    22.3235    -13.8603
H    -72.099    24.3206    -17.0819
H    -73.4934    25.141    -16.3012
H    -69.3582    26.9605    -14.9979
H    -69.6546    27.1235    -16.7621
H    -70.4738    23.315    -15.4941
H    -69.8972    24.3255    -14.1255
H    -70.6094    15.5125    -17.3931
H    -69.9531    16.4753    -16.0261
H    -69.1077    16.4737    -17.611
H    -74.3063    20.7424    -18.7662
H    -72.9509    21.3099    -19.7994
H    -67.4894    25.4797    -16.5225
H    -67.8682    25.4098    -14.768
H    -72.6285    23.0058    -18.2359
H    -69.697    24.84    -17.0048
