18

C    76.496    111.788    -93.681
C    76.126    113.446    -92.14
C    74.885    113.284    -92.989
C    75.112    111.952    -93.676
N    77.124    112.603    -92.834
O    78.529    112.655    -92.631
O    77.078    110.972    -94.395
O    76.55    114.811    -92.171
O    75.132    110.621    -91.28
O    74.777    109.244    -93.426
O    72.879    110.771    -92.548
P    74.344    110.621    -92.694
H    75.9599    113.1154    -91.1041
H    74.7998    114.0981    -93.7238
H    73.9798    113.2574    -92.3647
H    74.7063    111.9554    -94.6984
H    78.9528    112.0168    -93.1927
H    76.6324    115.0954    -93.0737
