25

C    -1.307    3.997    10.353
C    -1.308    2.481    10.312
O    -5.047    0.233    10.712
C    0.086    4.605    10.32
C    -2.654    1.859    10.631
C    0.846    4.306    9.041
C    -2.682    0.363    10.37
N    2.214    4.841    9.064
C    -3.962    -0.311    10.763
O    -3.786    -1.539    11.173
H    -1.8058    4.3204    11.2785
H    -1.8696    4.3689    9.484
H    -0.5744    2.1141    11.045
H    -1.0092    2.1615    9.3027
H    0.6608    4.205    11.1683
H    -0.0077    5.6962    10.4224
H    -3.4214    2.34    10.0067
H    -2.8812    2.0358    11.6926
H    0.3051    4.7557    8.1954
H    0.8955    3.2154    8.9063
H    -1.8612    -0.1005    10.937
H    -2.5231    0.1986    9.294
H    2.6766    4.618    8.1966
H    2.7226    4.4303    9.8313
H    2.1815    5.8418    9.1798
