61

C    13.403    46.481    47.104
C    11.34    45.32    46.294
C    10.848    45.104    47.584
C    14.105    44.773    39.749
C    13.124    43.56    41.605
C    15.601    43.564    41.355
C    18.149    43.683    40.81
C    18.537    44.262    42.163
C    18.978    44.33    39.712
C    18.394    42.186    40.803
C    11.607    47.204    43.907
C    11.113    48.291    43.182
C    11.048    49.537    43.769
C    11.47    49.746    45.065
C    11.972    48.676    45.794
C    12.029    47.393    45.242
Cl    10.385    50.869    42.856
N    12.387    46.277    46.062
C    14.333    45.3    47.282
C    11.612    45.851    43.295
N    11.213    44.728    43.886
C    10.718    44.68    45.203
C    9.581    43.894    45.418
C    9.13    43.734    46.704
F    8.038    42.941    46.909
C    9.738    44.307    47.794
N    12.071    45.804    42.011
C    12.137    44.631    41.137
N    14.36    43.927    40.925
C    12.59    44.957    39.751
O    15.763    42.937    42.397
N    16.715    43.943    40.551
H    12.8896    46.6665    48.059
H    14.0057    47.3609    46.8347
H    11.3426    45.5669    48.4302
H    14.4372    44.2727    38.8274
H    14.617    45.7418    39.8453
H    12.7902    42.5565    41.3023
H    13.2506    43.5904    42.6973
H    19.6029    44.0675    42.353
H    17.932    43.7899    42.951
H    18.3567    45.3471    42.1628
H    18.6914    43.9061    38.7382
H    20.0451    44.1369    39.8962
H    18.7972    45.415    39.7071
H    17.7962    41.7129    41.596
H    19.4613    41.9883    40.9811
H    18.1021    41.7712    39.8269
H    10.7811    48.1551    42.159
H    11.4106    50.7331    45.5091
H    12.3249    48.8381    46.8061
H    15.0626    45.524    48.0742
H    14.8642    45.1061    46.3385
H    13.7481    44.4117    47.5627
H    9.068    43.4222    44.5878
H    9.3568    44.1385    48.7947
H    12.4084    46.6918    41.6124
H    11.1274    44.1963    41.096
H    12.1213    44.2757    39.0257
H    12.3309    45.9958    39.4987
H    16.5026    44.4442    39.7121
