164

N    -34.37    -25.729    -44.205
C    -33.343    -26.236    -45.176
C    -32.959    -25.118    -46.129
O    -33.797    -24.618    -46.84
C    -33.853    -27.437    -45.957
N    -31.691    -24.714    -46.14
C    -31.318    -23.583    -46.993
C    -31.282    -23.958    -48.479
O    -31.226    -25.158    -48.772
C    -29.904    -23.234    -46.518
C    -29.65    -24.035    -45.293
C    -30.55    -25.21    -45.358
N    -31.275    -22.958    -49.38
C    -31.161    -23.213    -50.824
C    -29.845    -23.889    -51.102
O    -28.864    -23.636    -50.393
C    -31.182    -21.814    -51.467
C    -31.648    -20.877    -50.356
C    -31.193    -21.514    -49.075
N    -29.808    -24.732    -52.115
C    -28.579    -25.425    -52.432
C    -27.635    -24.489    -53.159
O    -28.046    -23.576    -53.878
C    -28.871    -26.657    -53.277
C    -29.814    -27.629    -52.59
C    -30.213    -28.765    -53.577
C    -29.136    -28.175    -51.344
N    -26.345    -24.694    -52.962
C    -25.383    -23.824    -53.637
C    -25.166    -24.258    -55.086
O    -25.476    -25.406    -55.458
C    -24.102    -23.995    -52.806
C    -24.249    -25.313    -52.111
C    -25.703    -25.692    -52.099
N    -24.623    -23.35    -55.902
C    -24.293    -23.703    -57.282
C    -23.424    -24.977    -57.375
O    -22.495    -25.181    -56.593
C    -23.509    -22.481    -57.776
C    -23.982    -21.326    -56.899
C    -24.287    -21.951    -55.567
N    -23.711    -25.817    -58.359
C    -22.943    -27.031    -58.554
C    -21.499    -26.699    -58.946
O    -21.205    -25.6    -59.438
C    -23.636    -27.913    -59.598
C    -24.886    -28.606    -59.052
C    -24.511    -29.833    -58.218
N    -25.654    -30.397    -57.492
C    -25.636    -31.557    -56.835
N    -24.549    -32.321    -56.832
N    -26.721    -31.974    -56.21
N    -20.59    -27.628    -58.666
C    -19.198    -27.534    -59.077
C    -19.127    -27.626    -60.597
O    -19.977    -28.28    -61.223
C    -18.334    -28.663    -58.493
C    -18.322    -28.706    -56.964
O    -18.784    -27.79    -56.272
N    -17.778    -29.782    -56.439
N    -18.091    -27.033    -61.18
C    -17.879    -27.123    -62.62
C    -17.649    -28.569    -63.014
O    -16.932    -29.279    -62.302
C    -16.66    -26.335    -63.042
C    -16.795    -24.829    -62.994
C    -15.538    -24.239    -63.615
N    -15.309    -24.771    -64.956
C    -14.133    -24.784    -65.57
N    -13.047    -24.313    -64.968
N    -14.047    -25.288    -66.784
N    -18.23    -29.007    -64.15
C    -17.98    -30.363    -64.659
C    -16.495    -30.611    -64.954
O    -15.877    -29.756    -65.599
C    -18.798    -30.408    -65.962
C    -19.863    -29.387    -65.768
C    -19.21    -28.291    -64.989
O    -15.982    -31.655    -64.534
H    -34.627    -26.4692    -43.5708
H    -35.1862    -25.4205    -44.7097
H    -33.9863    -24.9571    -43.6826
H    -32.4504    -26.5436    -44.6116
H    -33.0744    -27.7778    -46.6553
H    -34.7527    -27.1519    -46.5219
H    -34.1007    -28.2501    -45.2588
H    -32.0086    -22.7399    -46.8443
H    -29.8363    -22.1603    -46.2886
H    -29.1697    -23.4898    -47.2961
H    -29.8714    -23.4372    -44.3966
H    -28.6003    -24.3627    -45.2653
H    -30.0607    -26.0543    -45.8656
H    -30.8666    -25.5209    -44.3515
H    -31.9935    -23.832    -51.1898
H    -31.8831    -21.7881    -52.3142
H    -30.1768    -21.5326    -51.8141
H    -32.7437    -20.7806    -50.3691
H    -31.191    -19.8835    -50.4744
H    -30.1621    -21.2187    -48.8301
H    -31.8589    -21.2467    -48.2413
H    -30.6288    -24.892    -52.6634
H    -28.1027    -25.7477    -51.4945
H    -27.9226    -27.1742    -53.4846
H    -29.3275    -26.3339    -54.2242
H    -30.7258    -27.0928    -52.2884
H    -30.8957    -29.4652    -53.0734
H    -29.31    -29.3028    -53.9014
H    -30.7153    -28.3296    -54.4534
H    -28.8715    -27.3422    -50.6758
H    -28.2238    -28.7186    -51.6312
H    -29.822    -28.8592    -50.8232
H    -25.723    -22.778    -53.6189
H    -24.0087    -23.1815    -52.0715
H    -23.2175    -24.0018    -53.46
H    -23.8797    -25.2301    -51.0782
H    -23.6709    -26.0804    -52.6467
H    -25.8448    -26.7053    -52.5028
H    -26.1098    -25.6438    -51.0781
H    -25.2092    -23.8481    -57.8731
H    -23.7333    -22.2798    -58.8339
H    -22.4275    -22.6407    -57.6544
H    -24.884    -20.8616    -57.3241
H    -23.1917    -20.5676    -56.7986
H    -23.4107    -21.9066    -54.9037
H    -25.1381    -21.4485    -55.0843
H    -24.4695    -25.6101    -58.9769
H    -22.9171    -27.5827    -57.6027
H    -22.9261    -28.6828    -59.9349
H    -23.9275    -27.284    -60.452
H    -25.5188    -28.9229    -59.8941
H    -25.4432    -27.8983    -58.4206
H    -23.741    -29.5406    -57.4889
H    -24.1059    -30.6042    -58.8897
H    -26.5323    -29.859    -57.4896
H    -24.5492    -33.2148    -56.3202
H    -23.7062    -32.0195    -57.3415
H    -27.5694    -31.39    -56.2058
H    -26.7194    -32.8834    -55.7264
H    -20.8781    -28.4324    -58.1463
H    -18.7945    -26.5663    -58.7443
H    -17.3006    -28.5252    -58.8438
H    -18.7221    -29.6233    -58.8635
H    -17.732    -29.885    -55.4454
H    -17.4103    -30.4972    -57.0334
H    -17.444    -26.5149    -60.6206
H    -18.7665    -26.7322    -63.1392
H    -16.4176    -26.6184    -64.0769
H    -15.8292    -26.6197    -62.3797
H    -16.892    -24.4934    -61.951
H    -17.6804    -24.5126    -63.5649
H    -14.6747    -24.4854    -62.9795
H    -15.6478    -23.1463    -63.6769
H    -16.117    -25.1634    -65.4601
H    -12.14    -24.3289    -65.4558
H    -13.1118    -23.9318    -64.0133
H    -14.8893    -25.6533    -67.2508
H    -13.1374    -25.3168    -67.2664
H    -18.3376    -31.1171    -63.9425
H    -19.2378    -31.4052    -66.1109
H    -18.1672    -30.1526    -66.8262
H    -20.7076    -29.8112    -65.2052
H    -20.2204    -29.0118    -66.7383
H    -18.7082    -27.577    -65.6585
H    -19.9447    -27.7574    -64.3682
