44

C    -43.045    11.733    10.467
C    -42.61    12.495    9.162
C    -41.031    12.268    7.266
C    -40.275    13.575    7.277
C    -38.881    13.612    7.328
C    -38.229    14.831    7.3
C    -38.92    16.027    7.252
N    -42.625    13.534    12.189
N    -42.008    15.245    13.721
N    -44.994    16.297    15.187
N    -44.135    14.641    13.618
C    -40.298    15.965    7.207
Cl    -41.205    17.441    7.119
Cl    -36.475    14.863    7.291
C    -40.98    14.768    7.213
N    -41.435    11.814    8.601
C    -44.137    10.715    10.15
C    -43.612    12.668    11.566
C    -42.918    14.428    13.141
C    -44.002    15.655    14.541
C    -42.687    16.036    14.628
C    -44.644    17.367    15.918
C    -43.343    17.824    16.039
C    -42.329    17.144    15.383
H    -42.1635    11.2105    10.8668
H    -42.3547    13.5365    9.4069
H    -43.4322    12.481    8.4314
H    -40.3876    11.4975    6.8163
H    -41.9355    12.3942    6.6528
H    -38.3128    12.6909    7.3892
H    -38.3993    16.9778    7.2498
H    -41.6454    13.4554    11.8807
H    -45.0012    14.1503    13.3537
H    -42.063    14.7584    7.1679
H    -41.6415    10.8289    8.5465
H    -40.6599    11.9607    9.2285
H    -44.4293    10.1917    11.0723
H    -43.7575    9.9857    9.4192
H    -45.0113    11.2339    9.7301
H    -44.0636    12.0423    12.3499
H    -44.3871    13.3022    11.1111
H    -45.4251    17.9041    16.4438
H    -43.1207    18.7001    16.6375
H    -41.2963    17.4652    15.4568
