22

O    0.813    23.557    31.029
N    1.47    24.268    30.028
C    2.697    24.594    30.336
O    3.175    24.261    31.425
C    3.451    25.319    29.268
C    3.164    26.8    29.19
C    3.835    27.301    27.914
C    3.885    28.811    27.872
N    4.809    29.195    26.822
H    0.777    24.0839    31.8186
H    1.0429    24.5065    29.1558
H    3.192    24.8679    28.2988
H    4.5265    25.1876    29.4579
H    3.5818    27.3155    30.0673
H    2.0791    26.9756    29.1437
H    3.267    26.9377    27.0449
H    4.8615    26.9079    27.8716
H    4.2348    29.2009    28.8393
H    2.8842    29.2127    27.655
H    4.8617    30.2004    26.7719
H    4.4849    28.8312    25.9396
H    5.7226    28.8204    27.0248
