22

O    6.365    112.695    100.762
S    7.725    113.157    100.724
O    8.614    112.036    100.943
N    8.065    113.823    99.32
C    7.916    114.25    101.883
C    6.838    114.745    102.604
C    7.056    115.693    103.613
C    8.346    116.153    103.886
C    9.432    115.662    103.159
C    9.199    114.711    102.167
C    10.84    116.11    103.402
N    12.005    115.806    102.807
N    13.02    116.519    103.502
N    12.425    117.299    104.49
N    11.057    117.007    104.379
H    7.5452    114.6167    99.0041
H    8.7986    113.448    98.7533
H    5.8333    114.4003    102.3879
H    6.2172    116.0719    104.1856
H    8.5042    116.892    104.6631
H    10.0378    114.3203    101.6023
H    12.8836    117.9425    105.1506
