39

Cl    33.72    17.683    -7.444
C    32.816    17.122    -5.998
C    32.702    15.763    -5.733
C    32.232    18.043    -5.145
C    31.543    17.574    -4.039
C    31.442    16.209    -3.795
C    30.683    15.744    -2.581
C    32.016    15.257    -4.629
N    31.917    13.945    -4.39
C    30.892    13.22    -4.826
C    29.718    13.685    -5.618
N    29.748    14.902    -6.154
O    28.76    12.943    -5.757
C    31.158    11.932    -4.379
C    32.838    13.278    -3.7
C    32.365    11.969    -3.681
C    33.033    10.808    -3.027
N    32.522    9.562    -3.157
C    33.11    8.504    -2.576
N    34.224    8.651    -1.847
N    34.754    9.936    -1.711
C    34.187    10.994    -2.278
C    35.852    10.272    -1.026
C    36.021    11.641    -1.148
C    34.992    12.131    -1.93
H    33.1683    15.0627    -6.4166
H    32.3122    19.1066    -5.3384
H    31.0783    18.2774    -3.3575
H    30.2963    16.6165    -2.034
H    31.3547    15.1692    -1.9265
H    29.8434    15.1067    -2.8954
H    28.9701    15.2321    -6.6887
H    30.5484    15.4868    -6.0222
H    30.5368    11.0528    -4.5437
H    33.7518    13.6666    -3.2529
H    32.6754    7.5131    -2.6991
H    36.4971    9.5917    -0.472
H    36.824    12.2286    -0.7054
H    34.8259    13.1668    -2.2222
