22

C    -13.821    -13.923    26.962
C    -13.056    -14.621    27.984
C    -11.943    -13.895    28.626
C    -11.582    -12.507    28.249
C    -12.361    -11.839    27.223
C    -13.509    -12.535    26.548
C    -11.803    -10.447    27.028
C    -10.586    -10.324    27.986
C    -10.468    -11.608    28.793
N    -9.36    -10.262    27.23
H    -14.6487    -14.4367    26.4865
H    -13.2956    -15.6403    28.2645
H    -11.3699    -14.3933    29.3995
H    -14.0913    -12.0367    25.7814
H    -12.5635    -9.6934    27.2805
H    -11.4817    -10.3086    25.9851
H    -10.6979    -9.445    28.6378
H    -9.4832    -12.0738    28.6405
H    -10.6175    -11.4088    29.8644
H    -9.3578    -9.4298    26.6612
H    -9.2892    -11.0743    26.6373
H    -8.5758    -10.2384    27.8629
