56

C    -16.597    6.154    -13.67
C    -17.901    6.084    -14.063
Cl    -18.71    7.425    -14.818
C    -18.71    4.955    -13.74
Cl    -20.272    4.846    -14.242
C    -18.103    3.878    -13.154
C    -16.793    3.945    -12.82
C    -15.996    5.044    -13.083
C    -14.572    5.084    -12.681
N    -13.836    6.11    -13.074
C    -13.795    4.216    -11.713
N    -13.604    2.807    -12.193
C    -13.79    1.719    -11.141
C    -12.63    1.704    -10.146
C    -13.17    2.588    -13.457
O    -13.043    3.51    -14.317
C    -12.935    1.066    -13.818
O    -12.419    0.848    -15.152
C    -12.451    4.909    -11.647
N    -12.602    6.073    -12.55
C    -11.654    6.92    -13.001
N    -10.42    6.892    -12.531
C    -9.305    7.543    -12.946
N    -8.343    8.095    -13.294
N    -12.108    7.763    -13.962
C    -11.43    8.792    -14.408
C    -10.842    8.885    -15.667
C    -11.376    9.915    -13.527
C    -10.692    11.079    -13.931
C    -10.106    11.177    -15.214
C    -10.197    10.057    -16.073
O    -9.677    10.054    -17.307
C    -8.6    10.979    -17.649
F    -9.31    12.021    -18.152
F    -7.939    10.474    -18.704
H    -16.0322    7.068    -13.8138
H    -18.669    2.9745    -12.9579
H    -16.3456    3.0932    -12.3206
H    -14.2869    4.2002    -10.7293
H    -13.8445    0.7414    -11.6424
H    -14.7272    1.9043    -10.5958
H    -12.7947    0.91    -9.4027
H    -12.5715    2.677    -9.6362
H    -11.6889    1.5141    -10.6828
H    -13.8955    0.5375    -13.7286
H    -12.2174    0.6469    -13.0974
H    -13.0329    1.1953    -15.7885
H    -11.6499    4.2425    -11.9993
H    -12.2304    5.2369    -10.6205
H    -10.2821    6.2758    -11.7173
H    -13.0392    7.584    -14.3643
H    -10.885    8.0373    -16.3412
H    -11.8568    9.8723    -12.5564
H    -10.6137    11.9149    -13.2453
H    -9.6021    12.0833    -15.5298
H    -7.9421    11.2339    -16.8051
