60

C    19.196    38.868    35.332
C    19.336    38.113    36.443
C    20.526    37.482    37.047
N    8.483    39.13    37.322
C    25.453    36.264    37.695
C    25.154    37.586    37.991
C    23.916    38.13    37.646
C    23.604    39.566    37.989
C    14.78    38.712    36.871
C    13.491    39.264    36.84
C    12.589    38.781    37.802
C    14.182    37.361    38.64
C    14.581    36.313    39.625
C    10.367    38.446    38.71
C    10.718    39.808    36.626
C    7.04    39.377    37.246
C    6.219    38.142    37.543
N    15.761    39.1    35.967
C    17.092    38.829    35.986
N    17.91    39.278    35.076
S    17.831    37.869    37.223
N    21.733    37.862    36.565
C    23.001    37.329    36.959
C    23.31    36.002    36.683
C    24.533    35.468    37.04
Cl    22.17    35.002    35.843
O    20.415    36.653    37.945
N    12.931    37.825    38.688
N    15.103    37.764    37.77
N    11.271    39.26    37.877
C    8.933    38.944    38.699
C    9.262    40.223    36.746
O    4.85    38.488    37.692
H    20.0356    39.1309    34.6902
H    8.6781    38.2883    36.8029
H    26.4148    35.8528    37.9795
H    25.8893    38.2025    38.4953
H    24.4561    40.0081    38.5261
H    22.7087    39.6045    38.6268
H    23.4199    40.1323    37.0641
H    13.2076    40.0192    36.1159
H    13.7267    36.0784    40.277
H    15.4175    36.6833    40.2358
H    14.8928    35.4049    39.0882
H    10.7354    38.4642    39.7463
H    10.381    37.4124    38.3339
H    10.7991    39.0405    35.8423
H    11.31    40.6894    36.3387
H    6.7958    39.7261    36.2319
H    6.7778    40.1574    37.9755
H    6.5805    37.6804    38.4737
H    6.325    37.427    36.7138
H    15.4346    39.671    35.1743
H    21.7387    38.581    35.87
H    24.7684    34.4354    36.8087
H    8.2868    38.2066    39.1977
H    8.8757    39.9032    39.2344
H    9.1866    41.1074    37.3957
H    8.868    40.4663    35.7482
H    4.3451    37.7051    37.878
