42

C    -37.296    18.095    33.405
C    -38.576    18.607    33.546
C    -40.386    20.227    33.007
C    -35.995    24.906    33.426
C    -34.48    26.08    35.481
F    -34.569    23.051    33.552
C    -34.967    24.233    34.059
C    -34.201    24.789    35.048
C    -33.559    26.771    36.454
O    -32.469    26.215    36.753
O    -33.884    27.913    36.839
C    -35.599    26.743    34.939
O    -36.037    27.931    35.412
C    -36.331    26.171    33.913
C    -36.803    24.32    32.331
C    -37.604    25.015    31.357
N    -37.644    26.298    30.949
C    -38.348    26.57    29.837
N    -37.016    23.011    32.329
N    -37.957    22.793    31.326
C    -38.293    23.977    30.689
C    -39.004    24.29    29.534
C    -39.028    25.609    29.101
C    -38.486    21.515    31.052
O    -39.229    21.353    30.096
C    -38.081    20.335    31.911
C    -38.983    19.719    32.808
F    -40.45    21.558    33.079
F    -40.945    19.755    34.12
F    -41.192    19.89    32.016
C    -36.399    18.691    32.533
C    -36.792    19.808    31.81
Cl    -35.621    20.595    30.809
H    -36.9955    17.2256    33.9786
H    -39.268    18.1389    34.2366
H    -33.385    24.228    35.4891
H    -35.3478    28.5789    35.3247
H    -37.1698    26.7079    33.4851
H    -38.3871    27.598    29.4953
H    -39.5292    23.5183    28.9828
H    -39.5689    25.884    28.2028
H    -35.3994    18.2882    32.4168
