64

C    -52.73    1.34    -19.787
C    -53.719    2.297    -19.976
C    -50.784    -1.278    -21.336
C    -53.997    1.67    -22.213
C    -53.006    0.7    -22.134
C    -52.366    0.534    -20.895
C    -49.345    -0.935    -21.697
C    -51.086    -2.742    -21.057
N    -51.962    0.961    -18.729
C    -50.214    -0.647    -18.126
C    -51.181    -0.015    -19.096
N    -54.305    2.429    -21.16
N    -51.389    -0.307    -20.431
N    -54.696    1.935    -23.378
C    -54.786    1.117    -24.482
C    -55.927    1.206    -25.285
C    -55.987    0.384    -26.402
N    -54.971    -0.431    -26.658
C    -53.891    -0.473    -25.891
N    -53.8    0.286    -24.816
N    -52.852    -1.345    -26.179
C    -52.566    -1.657    -27.597
C    -51.931    -3.049    -27.618
C    -50.676    -3.108    -26.717
C    -50.932    -2.54    -25.3
C    -51.646    -1.169    -25.354
C    -50.263    -4.579    -26.557
C    -49.713    -5.127    -27.885
N    -49.176    -6.481    -27.712
O    -49.649    -2.351    -27.394
C    -48.432    -2.084    -26.681
H    -54.0135    2.9386    -19.1534
H    -51.3222    -1.1045    -22.2795
H    -52.7377    0.096    -22.9932
H    -48.9455    -1.7005    -22.3785
H    -48.7348    -0.9042    -20.7823
H    -49.3151    0.0473    -22.1911
H    -52.1519    -2.8559    -20.8101
H    -50.4746    -3.0877    -20.2105
H    -50.8501    -3.3415    -21.9486
H    -50.3161    -0.1672    -17.1414
H    -49.1859    -0.5138    -18.4938
H    -50.4348    -1.7208    -18.0353
H    -55.1985    2.8329    -23.4236
H    -56.733    1.8899    -25.0448
H    -56.8513    0.4073    -27.0559
H    -51.8696    -0.9157    -28.0159
H    -53.4979    -1.656    -28.1814
H    -51.6426    -3.2957    -28.6505
H    -52.6659    -3.7835    -27.257
H    -49.9678    -2.4197    -24.7845
H    -51.5612    -3.2478    -24.7404
H    -51.9255    -0.8483    -24.3396
H    -50.9845    -0.4161    -25.8074
H    -51.1395    -5.1712    -26.2555
H    -49.485    -4.6553    -25.7831
H    -48.9109    -4.4648    -28.2429
H    -50.5247    -5.1539    -28.6269
H    -48.8225    -6.8174    -28.594
H    -49.9077    -7.0938    -27.3876
H    -48.4288    -6.4623    -27.0357
H    -47.7519    -1.5029    -27.3212
H    -47.9527    -3.0348    -26.4048
H    -48.6588    -1.5097    -25.7707
