45

O    7.886    7.521    -2.673
C    11.771    8.212    -1.56
C    5.844    2.211    0.106
C    5.968    4.181    -0.908
C    4.623    4.048    -1.489
C    5.48    6.059    -2.176
C    6.432    5.524    -1.377
C    8.383    6.903    -1.76
C    10.318    8.39    -1.871
N    9.627    7.196    -1.337
C    4.584    1.953    -0.415
C    3.985    2.875    -1.159
C    2.004    -0.663    0.407
N    7.735    5.911    -1.044
C    2.834    -1.771    0.563
C    4.671    -0.44    0.094
C    3.885    0.66    -0.042
N    6.584    3.307    -0.116
C    2.524    0.583    0.105
N    4.135    -1.715    0.337
N    4.44    5.161    -2.231
C    3.3    5.434    -2.927
N    3.091    6.692    -3.442
C    1.993    7.129    -4.137
C    1.018    6.185    -4.291
C    1.193    4.878    -3.883
C    2.379    4.461    -3.231
H    12.3354    9.0774    -1.9376
H    12.1397    7.2949    -2.0427
H    11.906    8.133    -0.4712
H    6.2708    1.4543    0.7543
H    5.5284    7.0222    -2.6818
H    10.1677    8.4619    -2.9583
H    9.934    9.3    -1.3868
H    10.0812    6.6101    -0.6659
H    2.9753    2.7003    -1.5127
H    0.9326    -0.7791    0.5242
H    8.2031    5.4661    -0.2805
H    2.3979    -2.7112    0.8806
H    5.7463    -0.3298    0.0123
H    1.8882    1.4535    -0.0095
H    1.9063    8.1356    -4.5299
H    0.0775    6.4711    -4.7478
H    0.4059    4.1554    -4.0655
H    2.5524    3.4201    -2.9828
