123

C    32.737    32.658    -6.013
C    32.924    31.162    -5.786
O    34.046    30.663    -5.756
N    31.821    30.438    -5.632
C    31.906    29.016    -5.298
C    32.551    28.175    -6.413
O    33.153    27.132    -6.142
C    30.514    28.489    -4.952
C    29.994    29.071    -3.648
C    28.494    28.982    -3.524
O    27.749    29.553    -4.333
N    28.034    28.274    -2.5
N    32.461    28.664    -7.649
C    33.094    28.009    -8.794
C    34.482    28.556    -9.137
O    35.049    28.156    -10.154
C    32.225    28.128    -10.064
O    32.144    29.506    -10.453
C    30.832    27.587    -9.808
N    35.01    29.476    -8.322
C    36.384    29.972    -8.512
C    37.376    28.83    -8.709
O    37.463    27.931    -7.869
C    36.822    30.807    -7.333
N    38.141    28.871    -9.799
C    39.131    27.83    -10.056
C    40.427    28.373    -10.652
O    40.427    29.388    -11.333
C    38.554    26.757    -10.982
C    37.411    25.961    -10.39
C    37.077    24.758    -11.254
N    38.131    23.753    -11.22
C    38.264    22.853    -10.25
N    37.41    22.841    -9.233
N    39.245    21.965    -10.3
O    44.617    29.796    -3.942
C    45.755    29.794    -4.447
C    46.933    30.508    -3.808
N    45.965    29.125    -5.637
C    44.909    28.421    -6.305
C    45.125    28.205    -7.797
C    43.795    28.089    -8.506
C    44.02    27.73    -9.957
C    42.832    28.027    -10.893
N    41.524    27.673    -10.38
C    43.173    27.17    -12.112
O    42.796    25.996    -12.243
N    43.943    27.769    -13.024
C    44.463    27.048    -14.187
C    45.616    26.107    -13.806
O    46.412    26.422    -12.926
C    44.929    28.031    -15.264
O    45.559    27.341    -16.333
N    45.704    24.959    -14.479
C    46.74    23.963    -14.183
C    47.902    23.981    -15.188
O    48.072    24.931    -15.958
C    46.15    22.524    -14.144
O    45.415    22.269    -15.349
C    45.229    22.344    -12.942
O    48.705    23.046    -15.26
H    31.6637    32.8988    -6.0045
H    33.1679    32.938    -6.9856
H    33.2444    33.2166    -5.2127
H    30.9254    30.8683    -5.7452
H    32.5399    28.9196    -4.4042
H    30.5617    27.394    -4.8583
H    29.8206    28.7578    -5.7625
H    30.2887    30.1294    -3.5935
H    30.4488    28.5202    -2.8115
H    27.0484    28.1766    -2.3621
H    28.673    27.838    -1.8663
H    31.9437    29.5066    -7.7991
H    33.2009    26.9437    -8.5418
H    32.691    27.5486    -10.8747
H    31.7519    30.01    -9.7495
H    30.2286    27.6802    -10.723
H    30.3592    28.1604    -8.9971
H    30.8975    26.5279    -9.5183
H    34.4602    29.8347    -7.5676
H    36.3972    30.603    -9.4129
H    37.8489    31.1649    -7.4985
H    36.7895    30.1962    -6.4188
H    36.1469    31.6684    -7.2227
H    38.0356    29.6239    -10.4486
H    39.3756    27.359    -9.0925
H    39.3618    26.0566    -11.2406
H    38.1909    27.2512    -11.8952
H    36.5239    26.6071    -10.3156
H    37.697    25.6139    -9.3862
H    36.9396    25.0936    -12.2925
H    36.1433    24.306    -10.8881
H    38.8127    23.7386    -11.992
H    37.5133    22.1438    -8.4819
H    36.6443    23.5289    -9.1953
H    39.9078    21.9736    -11.0884
H    39.3453    21.2657    -9.5505
H    47.8287    30.3675    -4.4309
H    47.1143    30.092    -2.806
H    46.7094    31.5818    -3.7243
H    46.8784    29.1317    -6.044
H    43.9797    28.9948    -6.174
H    44.8014    27.4351    -5.8292
H    45.7004    27.2802    -7.9506
H    45.6838    29.0575    -8.2104
H    43.2635    29.0501    -8.4455
H    43.1914    27.3052    -8.0249
H    44.2372    26.6531    -10.0124
H    44.8896    28.2985    -10.3184
H    42.8209    29.0955    -11.1539
H    41.4428    26.866    -9.7951
H    44.1705    28.736    -12.9093
H    43.6467    26.439    -14.6026
H    45.6435    28.7403    -14.821
H    44.059    28.581    -15.652
H    45.8406    27.9667    -16.99
H    45.0444    24.7715    -15.2069
H    47.1471    24.1976    -13.1884
H    46.978    21.8038    -14.0682
H    45.057    21.3895    -15.3201
H    44.8265    21.3203    -12.9386
H    44.3996    23.0638    -13.0045
H    45.7965    22.5179    -12.0159
