59

C    -11.056    7.585    12.499
C    -10.773    8.924    12.349
C    -11.839    9.749    11.957
N    -13.052    9.231    11.689
N    -12.285    7.05    12.254
F    -5.162    7.651    12.42
C    -6.42    7.584    12.133
F    -6.724    6.332    11.859
F    -6.653    8.29    11.072
C    -7.24    8.121    13.321
C    -8.7    8.082    12.982
S    -9.682    6.754    13.026
C    -9.458    9.183    12.631
C    -13.314    7.875    11.853
N    -11.647    11.081    11.783
C    -12.721    12.044    11.364
C    -12.623    13.17    12.353
C    -13.665    14.252    12.037
C    -12.485    12.519    9.962
C    -13.351    13.771    9.66
N    -13.231    14.834    10.703
C    -14.157    15.962    10.291
C    -14.048    17.19    11.12
C    -15.16    17.727    11.821
C    -15.111    18.847    12.538
C    -16.07    19.5    13.272
C    -15.474    20.582    13.79
C    -16.013    21.66    14.663
N    -16.422    22.455    15.308
N    -14.193    20.632    13.409
C    -13.955    19.556    12.64
C    -12.843    19.145    11.993
C    -12.881    17.954    11.218
O    -11.822    17.442    10.53
C    -10.528    18.042    10.644
H    -6.941    9.158    13.5334
H    -7.053    7.4966    14.2071
H    -9.0388    10.1869    12.582
H    -14.305    7.4759    11.6696
H    -10.7024    11.4565    11.9492
H    -13.7111    11.5683    11.4223
H    -11.6163    13.6105    12.3022
H    -12.8017    12.7795    13.3657
H    -13.6654    15.0284    12.8162
H    -14.6696    13.8108    11.9584
H    -12.7508    11.7165    9.2582
H    -11.4223    12.776    9.8408
H    -14.4044    13.4607    9.5965
H    -13.0336    14.1912    8.6942
H    -12.2814    15.1663    10.765
H    -15.1923    15.5961    10.3555
H    -13.9273    16.2306    9.2493
H    -16.1026    17.1942    11.7691
H    -17.1078    19.1986    13.4063
H    -13.512    21.363    13.6597
H    -11.9269    19.72    12.0643
H    -9.8114    17.4898    10.0182
H    -10.1997    18.0091    11.6933
H    -10.578    19.0882    10.308
