84

C    21.087    27.732    14.924
C    19.707    27.745    14.664
C    18.932    26.607    14.966
C    19.517    25.48    15.518
C    20.885    25.456    15.779
C    21.682    26.581    15.484
S    18.524    24.065    15.891
O    17.448    24.007    14.884
O    19.451    22.913    16.077
N    17.814    24.311    17.37
C    18.698    24.617    18.474
C    18.38    23.862    19.775
C    18.468    22.339    19.607
C    19.368    24.286    20.884
C    16.542    25.017    17.399
C    15.448    24.082    17.926
O    14.274    24.84    18.262
C    15.059    22.994    16.927
N    14.189    22.0    17.561
C    14.458    20.703    17.702
O    15.571    20.194    17.496
O    13.367    19.968    18.073
C    13.63    18.577    18.279
C    13.869    18.407    19.782
O    11.429    18.013    20.188
C    11.19    17.978    18.78
O    10.625    19.231    18.384
C    10.852    19.423    16.984
C    11.805    18.312    16.529
C    12.378    17.792    17.876
C    14.336    23.556    15.68
C    12.786    21.914    14.571
C    12.499    20.852    13.736
C    13.522    20.156    13.071
C    14.797    20.679    13.134
C    15.094    21.779    13.981
C    14.084    22.386    14.702
O    21.773    28.869    14.604
C    23.106    28.844    15.058
O    10.972    17.27    15.97
C    10.76    17.468    14.571
C    12.605    18.75    20.546
H    19.241    28.6242    14.234
H    17.867    26.6143    14.764
H    21.3379    24.5704    16.2099
H    22.7468    26.5621    15.6863
H    18.6317    25.6958    18.6782
H    19.7249    24.3634    18.1721
H    17.3571    24.1226    20.0845
H    18.2322    21.8504    20.5639
H    19.4861    22.0627    19.2953
H    17.7488    22.0124    18.8415
H    19.3202    25.3765    21.0203
H    20.3893    23.997    20.5953
H    19.098    23.7866    21.8262
H    16.283    25.3471    16.3822
H    16.6243    25.893    18.0591
H    15.8279    23.5938    18.8356
H    13.956    25.289    17.4876
H    15.9815    22.4951    16.595
H    13.3141    22.3247    17.9204
H    14.5027    18.2437    17.6983
H    14.6812    19.077    20.1006
H    14.1504    17.3644    19.9913
H    10.4776    17.1629    18.5848
H    11.308    20.4082    16.8067
H    9.9018    19.3545    16.4341
H    12.5807    18.6542    15.8282
H    12.6437    16.7266    17.8096
H    14.9652    24.3174    15.1959
H    13.3775    24.0069    15.9765
H    11.9865    22.385    15.1314
H    11.4678    20.5507    13.5915
H    13.3169    19.2407    12.5277
H    15.5834    20.2438    12.528
H    16.1122    22.1422    14.0619
H    23.6079    29.7806    14.7734
H    23.6327    27.9927    14.6022
H    23.1186    28.7393    16.1529
H    10.1245    16.6605    14.1786
H    11.728    17.4595    14.0486
H    10.2642    18.4364    14.4087
H    12.3942    19.8174    20.384
H    12.7999    18.5727    21.614
