61

C    22.043    14.35    -5.977
C    20.708    13.866    -7.92
C    23.279    14.559    -5.402
C    24.459    14.483    -6.073
C    18.672    14.209    -3.556
C    14.668    13.13    -2.152
C    17.553    14.253    -2.752
C    16.282    14.424    -3.287
C    17.863    14.154    -1.241
C    13.81    13.291    -0.876
C    12.261    14.794    0.21
C    14.719    14.605    -5.311
C    17.218    14.472    -5.462
C    23.197    14.015    -8.057
C    12.085    14.363    -2.163
C    16.072    14.538    -4.69
C    24.412    14.021    -10.214
O    20.519    13.47    -9.106
C    22.04    14.038    -7.369
O    23.184    13.794    -9.455
C    24.434    14.183    -7.451
O    25.72    14.613    -5.632
C    25.852    14.891    -4.219
N    19.6    13.961    -7.128
C    19.707    14.298    -5.788
N    20.911    14.476    -5.271
C    18.483    14.38    -4.962
O    15.162    14.431    -2.492
N    13.03    14.514    -1.023
C    10.685    14.515    -1.591
C    10.905    14.189    -0.129
H    23.3118    14.7997    -4.3456
H    19.6591    14.0505    -3.1369
H    14.053    12.7331    -2.9731
H    15.5075    12.4459    -1.9589
H    18.9454    14.0213    -1.0967
H    17.3278    13.2938    -0.8125
H    17.5365    15.0764    -0.7385
H    14.4612    13.365    0.0074
H    13.1373    12.4279    -0.7645
H    12.1824    15.8751    0.397
H    12.7122    14.3025    1.0845
H    14.8206    14.6902    -6.403
H    14.1806    15.4824    -4.9233
H    14.1571    13.6918    -5.0653
H    17.1021    14.495    -6.5395
H    12.2011    13.3706    -2.6231
H    12.2731    15.1412    -2.9173
H    24.2311    13.8049    -11.2773
H    25.2049    13.3593    -9.8351
H    24.7244    15.0696    -10.101
H    25.3523    14.0867    -8.0189
H    26.9176    14.9788    -3.9606
H    25.4007    14.0716    -3.6403
H    25.3382    15.8341    -3.9813
H    18.6974    13.7847    -7.5208
H    13.6546    15.2838    -1.2053
H    9.9838    13.8072    -2.0571
H    10.31    15.5411    -1.7196
H    10.1151    14.6388    0.4905
H    10.9176    13.1001    0.0266
