44

N    6.151    8.097    19.716
C    5.744    7.918    18.454
C    4.469    7.25    18.154
C    3.687    6.787    19.193
C    5.375    7.639    20.751
C    4.139    6.97    20.545
C    3.377    6.507    21.632
C    3.836    6.705    22.907
C    5.068    7.366    23.143
C    5.822    7.825    22.098
C    2.421    6.091    18.934
C    2.431    4.686    19.038
C    1.231    6.769    18.58
C    0.069    6.02    18.33
C    1.269    3.962    18.801
C    0.094    4.633    18.449
C    4.021    7.086    16.761
O    3.788    6.049    16.144
O    3.82    8.297    16.143
N    6.548    8.413    17.353
C    6.668    7.495    16.218
C    7.866    8.856    17.823
C    8.672    7.692    18.419
C    7.82    6.504    16.413
C    8.17    6.369    17.881
Cl    2.912    6.167    24.229
H    2.435    5.9981    21.4625
H    5.4152    7.5088    24.1599
H    6.761    8.3312    22.2906
H    3.3463    4.1692    19.3032
H    1.2159    7.8501    18.5028
H    -0.848    6.5225    18.0442
H    1.2734    2.8816    18.8886
H    -0.8109    4.065    18.266
H    6.8508    8.0793    15.3041
H    5.7281    6.9333    16.1123
H    7.7294    9.628    18.5946
H    8.424    9.2797    16.975
H    8.5657    7.7013    19.5138
H    9.7324    7.8121    18.1525
H    8.7023    6.8638    15.8634
H    7.5201    5.5206    16.0218
H    7.2744    6.0641    18.4421
H    8.9541    5.6067    17.9996
