66

C    10.708    33.454    69.208
C    10.754    34.405    68.042
C    11.244    33.589    66.825
C    9.974    33.057    66.199
N    10.161    32.3    64.911
C    10.584    32.948    63.789
O    10.965    34.11    63.804
N    10.644    32.244    62.593
C    10.276    30.869    62.526
O    10.388    30.27    61.427
C    9.826    30.28    63.649
N    9.363    29.009    63.931
C    9.258    27.829    63.072
C    10.659    27.356    62.814
C    9.769    31.013    64.8
N    9.275    30.202    65.734
C    9.038    28.999    65.212
C    8.457    27.913    66.031
S    6.616    27.789    65.577
C    5.869    26.92    66.962
N    4.584    26.555    67.055
N    6.529    26.608    68.079
N    5.626    26.029    68.891
C    5.881    25.55    70.121
C    7.184    25.657    70.676
C    4.446    25.98    68.253
N    3.423    25.457    68.926
C    3.579    24.985    70.181
C    2.454    24.365    70.781
C    4.849    24.97    70.8
C    5.055    24.503    72.106
C    4.616    25.498    73.156
C    4.756    24.956    74.607
C    4.475    26.236    75.417
H    10.363    33.9897    70.1047
H    11.7136    33.0464    69.3887
H    10.0138    32.631    68.9828
H    11.4516    35.2292    68.2519
H    9.7518    34.8138    67.846
H    11.8962    32.7634    67.1459
H    11.7878    34.2322    66.1175
H    9.3102    33.9109    65.9982
H    9.4946    32.3822    66.9234
H    10.9511    32.7108    61.7637
H    8.7666    28.093    62.1239
H    8.6796    27.0421    63.5782
H    10.6323    26.4655    62.1689
H    11.1422    27.1025    63.7691
H    11.2292    28.1534    62.3149
H    8.5664    28.1476    67.1001
H    8.9642    26.9622    65.8105
H    7.192    25.2109    71.6815
H    7.468    26.7176    70.7432
H    7.9011    25.1253    70.0333
H    2.7177    24.029    71.7947
H    2.1465    23.4992    70.1762
H    1.6249    25.0857    70.8377
H    6.1272    24.2979    72.2417
H    4.4837    23.5728    72.2416
H    3.5608    25.7524    72.9777
H    5.2329    26.4036    73.0597
H    5.7673    24.5683    74.7993
H    4.0156    24.1708    74.8198
H    4.5386    26.0111    76.4919
H    3.467    26.6067    75.1791
H    5.2187    27.0042    75.1585
