185

N    17.684    -34.009    -28.719
C    18.107    -35.39    -28.505
C    19.534    -35.62    -29.005
O    19.914    -35.159    -30.083
C    17.118    -36.362    -29.16
C    17.524    -37.828    -29.121
C    16.331    -38.764    -29.241
O    15.195    -38.38    -28.957
N    16.585    -40.001    -29.66
N    20.309    -36.34    -28.201
C    21.737    -36.538    -28.425
C    22.056    -37.209    -29.755
O    21.37    -38.138    -30.171
C    22.305    -37.368    -27.275
C    23.797    -37.507    -27.296
C    24.609    -36.421    -27.024
C    24.387    -38.733    -27.555
C    25.981    -36.548    -27.029
C    25.761    -38.868    -27.56
C    26.56    -37.775    -27.296
N    23.103    -36.731    -30.419
C    23.571    -37.35    -31.654
C    24.944    -37.975    -31.441
O    25.906    -37.283    -31.114
C    23.62    -36.33    -32.794
C    24.111    -36.936    -34.098
O    23.962    -38.164    -34.28
O    24.642    -36.186    -34.943
N    25.022    -39.288    -31.633
C    26.258    -40.037    -31.429
C    27.388    -39.583    -32.347
O    28.563    -39.715    -32.007
C    26.006    -41.529    -31.641
C    25.028    -42.183    -30.669
C    24.622    -43.557    -31.17
C    25.653    -42.276    -29.288
N    27.028    -39.056    -33.512
C    28.016    -38.651    -34.505
C    28.804    -37.419    -34.067
O    30.033    -37.408    -34.12
C    27.342    -38.388    -35.854
O    26.647    -39.535    -36.309
N    28.089    -36.387    -33.63
C    28.71    -35.111    -33.289
C    28.861    -34.899    -31.784
O    29.476    -33.923    -31.35
C    27.905    -33.934    -33.87
O    26.53    -34.056    -33.481
C    27.992    -33.926    -35.384
N    28.299    -35.815    -31.0
C    28.227    -35.673    -29.545
C    27.521    -34.382    -29.136
O    27.784    -33.827    -28.07
C    29.613    -35.761    -28.899
C    30.382    -37.015    -29.263
C    31.52    -37.264    -28.292
N    32.228    -38.505    -28.592
C    33.217    -38.997    -27.855
N    33.618    -38.353    -26.766
N    33.805    -40.133    -28.204
N    26.622    -33.913    -29.995
C    25.86    -32.701    -29.733
C    24.367    -32.991    -29.769
O    23.932    -33.984    -30.352
C    26.196    -31.625    -30.766
C    27.64    -31.16    -30.738
C    27.957    -30.422    -29.449
N    26.986    -29.367    -29.176
C    27.005    -28.165    -29.744
N    27.946    -27.857    -30.627
N    26.078    -27.27    -29.431
N    23.586    -32.117    -29.143
C    22.135    -32.231    -29.163
C    21.582    -31.573    -30.422
O    21.997    -30.474    -30.788
C    21.533    -31.575    -27.92
C    22.008    -32.123    -26.573
C    21.515    -31.249    -25.428
C    21.553    -33.562    -26.385
N    20.65    -32.251    -31.084
C    20.056    -31.736    -32.313
C    18.868    -30.824    -32.026
O    19.016    -29.604    -31.951
C    19.633    -32.885    -33.232
C    20.799    -33.671    -33.809
C    20.332    -34.756    -34.766
C    19.592    -35.863    -34.035
N    19.214    -36.968    -34.958
O    17.741    -31.292    -31.864
H    16.7422    -33.8897    -28.38
H    17.716    -33.7965    -29.7038
H    18.3016    -33.3874    -28.2208
H    18.0987    -35.5809    -27.4217
H    17.0018    -36.0696    -30.214
H    16.1519    -36.2632    -28.6434
H    18.035    -38.0277    -28.1676
H    18.2134    -38.0259    -29.955
H    15.8384    -40.6591    -29.7575
H    17.5225    -40.2726    -29.8774
H    19.8914    -36.7689    -27.4
H    22.222    -35.5507    -28.4215
H    21.8641    -38.3745    -27.3254
H    22.0166    -36.8883    -26.3281
H    24.1609    -35.4587    -26.8043
H    23.763    -39.5963    -27.756
H    26.6061    -35.6865    -26.8237
H    26.2111    -39.8313    -27.771
H    27.6391    -37.8777    -27.2978
H    23.5814    -35.928    -30.0636
H    22.8647    -38.146    -31.9323
H    24.2987    -35.5132    -32.5073
H    22.6082    -35.928    -32.9511
H    24.2035    -39.7809    -31.9282
H    26.5803    -39.8796    -30.3891
H    26.9705    -42.0502    -31.5508
H    25.6105    -41.6631    -32.6586
H    24.1265    -41.5561    -30.6033
H    23.918    -44.0134    -30.4586
H    25.515    -44.1928    -31.2611
H    24.1386    -43.4607    -32.1534
H    25.9386    -41.2702    -28.9463
H    26.5467    -42.9157    -29.3323
H    24.9263    -42.7094    -28.5851
H    26.056    -38.9341    -33.7129
H    28.7271    -39.4808    -34.6306
H    28.1106    -38.1171    -36.5929
H    26.63    -37.5568    -35.7439
H    27.2583    -40.2552    -36.4095
H    27.0989    -36.4877    -33.5323
H    29.7147    -35.1009    -33.7367
H    28.3133    -32.9904    -33.4791
H    26.0348    -33.3292    -33.8402
H    27.4118    -33.0796    -35.7801
H    27.5836    -34.8676    -35.7797
H    29.0436    -33.8249    -35.6903
H    27.9099    -36.6339    -31.4219
H    27.6289    -36.5132    -29.1626
H    29.488    -35.7364    -27.8064
H    30.201    -34.8887    -29.2206
H    30.7941    -36.9013    -30.2765
H    29.6967    -37.8751    -29.2401
H    31.1112    -37.325    -27.2726
H    32.2297    -36.4258    -28.3529
H    31.942    -39.0328    -29.429
H    34.3852    -38.7352    -26.1948
H    33.162    -37.471    -26.492
H    33.4957    -40.6347    -29.0487
H    34.5711    -40.5138    -27.6304
H    26.464    -34.4088    -30.8489
H    26.1252    -32.3283    -28.7327
H    25.5503    -30.7544    -30.5787
H    25.9842    -32.0302    -31.7665
H    27.816    -30.486    -31.5893
H    28.3002    -32.0359    -30.8211
H    28.9573    -29.9722    -29.5329
H    27.9464    -31.14    -28.6157
H    26.2364    -29.5669    -28.4985
H    27.9565    -26.9245    -31.0643
H    28.6661    -28.5504    -30.8752
H    25.3457    -27.5051    -28.7459
H    26.0903    -26.3397    -29.8729
H    24.007    -31.3595    -28.644
H    21.8623    -33.2966    -29.1686
H    20.4414    -31.7018    -27.9683
H    21.7795    -30.5035    -27.9527
H    23.1079    -32.1078    -26.5662
H    21.8688    -31.6629    -24.4722
H    20.4153    -31.2248    -25.4324
H    21.9048    -30.2279    -25.552
H    21.9195    -34.1747    -27.2218
H    20.454    -33.5985    -26.3577
H    21.9565    -33.9536    -25.4396
H    20.3483    -33.1365    -30.7307
H    20.821    -31.1427    -32.8354
H    19.0511    -32.4657    -34.066
H    19.001    -33.5759    -32.6548
H    21.3551    -34.1398    -32.9838
H    21.4608    -32.9794    -34.351
H    21.208    -35.1863    -35.2733
H    19.659    -34.3087    -35.5124
H    18.6794    -35.4459    -33.5842
H    20.2414    -36.2649    -33.2433
H    18.7261    -37.684    -34.4428
H    20.0456    -37.3594    -35.3719
H    18.6143    -36.6089    -35.6842
