48

C    -13.627    18.873    38.629
O    -13.827    20.088    38.598
O    -14.586    17.888    38.497
C    -16.003    18.244    38.393
C    -16.708    17.596    39.574
C    -17.361    18.392    40.533
C    -17.865    17.801    41.697
C    -17.693    16.427    41.941
C    -17.068    15.629    40.957
C    -16.581    16.212    39.776
N    -12.469    18.3    38.944
C    -11.245    18.962    39.274
C    -10.737    19.763    38.091
O    -10.811    19.305    36.936
C    -10.208    17.917    39.648
N    -10.325    20.987    38.435
C    -9.807    21.946    37.427
C    -10.629    23.197    37.316
C    -10.869    23.967    38.677
C    -11.928    22.827    36.637
C    -11.066    25.486    38.497
B    -8.161    22.365    37.631
O    -7.219    21.847    36.802
H    -16.4202    17.8645    37.4486
H    -16.1227    19.3367    38.434
H    -17.4731    19.4579    40.3709
H    -18.395    18.4104    42.42
H    -18.035    15.9865    42.8706
H    -16.9639    14.5615    41.1144
H    -16.1076    15.5946    39.0212
H    -12.4523    17.3002    38.9508
H    -11.4136    19.6376    40.1255
H    -9.2613    18.4152    39.9041
H    -10.047    17.2391    38.7968
H    -10.5646    17.34    40.514
H    -10.3667    21.2637    39.3951
H    -9.8815    21.4307    36.458
H    -10.0858    23.8898    36.6566
H    -9.9976    23.8036    39.3281
H    -11.7682    23.5537    39.1572
H    -11.7126    22.2955    35.6983
H    -12.5005    23.7404    36.418
H    -12.5161    22.1759    37.3004
H    -11.2268    25.9538    39.4795
H    -11.9412    25.6689    37.8562
H    -10.1705    25.9188    38.0271
H    -7.8902    22.9974    38.3678
H    -7.2248    20.8995    36.8707
