201

N    14.954    -32.492    -28.188
C    16.323    -32.662    -28.661
C    16.816    -34.077    -28.373
O    16.522    -34.641    -27.322
C    17.251    -31.637    -28.004
S    16.814    -29.902    -28.279
N    17.563    -34.654    -29.312
C    18.162    -35.972    -29.144
C    19.674    -35.881    -29.299
O    20.182    -35.134    -30.142
C    17.596    -36.988    -30.151
C    16.372    -37.749    -29.655
C    16.293    -39.173    -30.192
O    16.976    -39.529    -31.151
N    15.46    -39.996    -29.564
N    20.388    -36.644    -28.474
C    21.838    -36.703    -28.567
C    22.248    -37.475    -29.813
O    21.618    -38.472    -30.179
C    22.418    -37.361    -27.316
C    23.893    -37.611    -27.388
C    24.79    -36.562    -27.301
C    24.387    -38.899    -27.528
C    26.152    -36.79    -27.361
C    25.75    -39.133    -27.588
C    26.633    -38.078    -27.506
N    23.311    -37.008    -30.465
C    23.793    -37.589    -31.712
C    25.211    -38.109    -31.503
O    26.12    -37.332    -31.193
C    23.735    -36.552    -32.836
C    24.307    -37.059    -34.141
O    24.428    -38.29    -34.322
O    24.631    -36.21    -34.995
N    25.4    -39.42    -31.69
C    26.688    -40.053    -31.416
C    27.77    -39.635    -32.395
O    28.956    -39.684    -32.046
C    26.543    -41.57    -31.45
C    25.55    -42.085    -30.45
C    25.109    -43.484    -30.771
O    25.106    -43.841    -31.969
O    24.774    -44.224    -29.828
N    27.388    -39.266    -33.618
C    28.371    -38.861    -34.616
C    29.076    -37.579    -34.203
O    30.31    -37.498    -34.225
C    27.692    -38.669    -35.972
O    27.116    -39.874    -36.438
N    28.304    -36.558    -33.835
C    28.842    -35.252    -33.485
C    28.977    -35.043    -31.985
O    29.611    -34.067    -31.57
C    27.958    -34.137    -34.057
O    26.714    -34.097    -33.345
C    27.677    -34.387    -35.525
N    28.394    -35.923    -31.171
C    28.355    -35.757    -29.718
C    27.689    -34.444    -29.325
O    28.002    -33.86    -28.285
C    29.75    -35.862    -29.1
C    30.392    -37.218    -29.297
C    31.599    -37.367    -28.413
N    32.376    -38.55    -28.759
C    33.458    -38.94    -28.099
N    33.883    -38.24    -27.057
N    34.112    -40.028    -28.479
N    26.769    -33.975    -30.161
C    26.001    -32.771    -29.912
C    24.519    -33.109    -29.938
O    24.094    -34.1    -30.541
C    26.303    -31.69    -30.957
C    27.735    -31.201    -30.951
C    28.071    -30.483    -29.652
N    27.063    -29.487    -29.305
C    26.952    -28.295    -29.882
N    27.787    -27.939    -30.85
N    25.999    -27.46    -29.491
N    23.734    -32.274    -29.269
C    22.29    -32.422    -29.327
C    21.79    -31.923    -30.674
O    22.203    -30.858    -31.144
C    21.629    -31.647    -28.191
C    22.001    -32.061    -26.767
C    21.3    -31.17    -25.755
C    21.656    -33.522    -26.529
N    20.915    -32.695    -31.303
C    20.284    -32.3    -32.551
C    18.807    -32.064    -32.274
O    18.091    -32.993    -31.884
C    20.48    -33.364    -33.629
C    20.642    -32.795    -35.025
C    21.147    -33.847    -35.988
C    21.707    -33.216    -37.249
N    20.669    -32.441    -37.989
N    18.365    -30.825    -32.443
C    16.975    -30.479    -32.187
C    16.236    -30.205    -33.492
O    16.83    -29.809    -34.495
C    16.883    -29.262    -31.268
S    17.988    -29.316    -29.83
O    15.021    -30.375    -33.576
H    14.6443    -31.5534    -28.3858
H    14.9193    -32.6548    -27.1938
H    14.3521    -33.1503    -28.6575
H    16.3382    -32.5006    -29.749
H    18.2657    -31.7974    -28.3972
H    17.2448    -31.8203    -26.9194
H    17.7197    -34.1624    -30.1686
H    17.9331    -36.3277    -28.1286
H    18.3848    -37.7186    -30.3833
H    17.3168    -36.4462    -31.0667
H    15.4699    -37.2052    -29.972
H    16.4078    -37.7911    -28.5564
H    15.366    -40.9429    -29.8716
H    14.9271    -39.6685    -28.7837
H    19.9184    -37.1866    -27.7775
H    22.2307    -35.6782    -28.641
H    21.9106    -38.3253    -27.1654
H    22.22    -36.7042    -26.4561
H    24.4208    -35.5495    -27.1844
H    23.6974    -39.7329    -27.5912
H    26.8437    -35.958    -27.2943
H    26.1224    -40.1449    -27.6994
H    27.7009    -38.2575    -27.555
H    23.8002    -36.2242    -30.0823
H    23.1448    -38.4346    -31.9855
H    24.3066    -35.6654    -32.5242
H    22.684    -36.2717    -32.9999
H    24.6421    -39.9798    -32.0251
H    27.0053    -39.7522    -30.4066
H    27.5231    -42.021    -31.2354
H    26.2144    -41.8686    -32.4564
H    24.6697    -41.4254    -30.4503
H    26.0132    -42.0779    -29.4523
H    26.4161    -39.267    -33.8536
H    29.1231    -39.6585    -34.7079
H    28.4404    -38.3251    -36.7011
H    26.9018    -37.9103    -35.872
H    27.7942    -40.5326    -36.5311
H    27.3141    -36.6945    -33.7977
H    29.8435    -35.1712    -33.9327
H    28.4753    -33.1727    -33.9451
H    26.2701    -34.9318    -33.4381
H    27.0427    -33.5795    -35.9196
H    27.1583    -35.3502    -35.6402
H    28.6259    -34.4127    -36.0808
H    27.9643    -36.7324    -31.5712
H    27.7463    -36.5763    -29.3078
H    29.669    -35.6678    -28.0203
H    30.3948    -35.1001    -29.5623
H    30.6989    -37.3232    -30.3481
H    29.6626    -38.0027    -29.0477
H    31.2673    -37.4513    -27.3676
H    32.2354    -36.4769    -28.5252
H    32.0671    -39.1158    -29.5623
H    34.7232    -38.5408    -26.5426
H    33.3732    -37.3952    -26.7615
H    33.7809    -40.5714    -29.289
H    34.9515    -40.3304    -27.9644
H    26.5972    -34.4795    -31.0072
H    26.2643    -32.3825    -28.9172
H    25.6446    -30.8303    -30.7636
H    26.0841    -32.1028    -31.9528
H    27.8795    -30.5064    -31.7916
H    28.4081    -32.0631    -31.0678
H    29.0432    -29.9809    -29.7643
H    28.1325    -31.2241    -28.8415
H    26.3909    -29.7241    -28.5614
H    27.6965    -27.0139    -31.2938
H    28.5256    -28.5877    -31.1575
H    25.35    -27.7346    -28.7398
H    25.9077    -26.5368    -29.9385
H    24.138    -31.5401    -28.7229
H    22.0349    -33.4869    -29.223
H    20.5404    -31.7634    -28.2978
H    21.8979    -30.5871    -28.3105
H    23.087    -31.9378    -26.6426
H    21.5785    -31.4814    -24.7374
H    20.2108    -31.259    -25.8805
H    21.6033    -30.1248    -25.9145
H    22.1737    -34.1467    -27.2718
H    20.5693    -33.6626    -26.6253
H    21.9754    -33.8142    -25.5178
H    20.6806    -33.5815    -30.9041
H    20.7382    -31.3617    -32.9021
H    19.6034    -34.0285    -33.6245
H    21.3816    -33.9446    -33.384
H    21.3611    -31.9632    -34.9925
H    19.668    -32.4242    -35.3769
H    20.3149    -34.5132    -36.2597
H    21.9394    -34.4313    -35.4973
H    22.0921    -34.0112    -37.9043
H    22.5283    -32.5381    -36.9734
H    21.0777    -32.0383    -38.8178
H    20.3139    -31.7056    -37.3981
H    19.9142    -33.0554    -38.2511
H    18.9985    -30.1157    -32.752
H    16.4929    -31.3314    -31.6861
H    15.8483    -29.1853    -30.9028
H    17.131    -28.3672    -31.8578
