34

N    21.879    32.516    22.218
C    22.324    31.26    22.251
C    20.472    32.826    22.628
C    18.816    31.856    20.959
C    27.211    35.055    20.519
C    26.817    36.386    20.526
C    25.519    36.746    20.872
C    24.597    35.759    21.194
C    24.975    34.402    21.216
C    26.291    34.062    20.857
C    26.703    32.664    20.888
C    24.04    33.355    21.553
C    24.526    32.017    21.541
N    25.802    31.713    21.198
C    22.702    33.549    21.924
C    23.594    30.957    21.882
C    19.426    31.757    22.343
C    19.656    31.123    19.933
O    27.88    32.336    20.584
F    27.706    37.329    20.211
O    19.086    30.376    19.095
O    20.892    31.265    19.936
H    21.6573    30.464    22.5795
H    20.1652    33.7415    22.1011
H    20.4736    33.0101    23.7125
H    18.7459    32.9159    20.6733
H    17.8088    31.4142    20.979
H    28.2274    34.7887    20.2525
H    25.229    37.7903    20.8902
H    23.5759    36.0354    21.4309
H    22.3122    34.5645    21.9773
H    23.9149    29.9171    21.8415
H    18.6201    31.8528    23.0855
H    19.9015    30.7702    22.4432
