24

O    11.78    49.378    -53.782
C    12.83    49.305    -53.156
C    13.635    48.087    -53.056
C    13.271    46.927    -53.729
C    14.113    45.843    -53.596
N    15.23    45.841    -52.854
N    13.32    50.371    -52.481
C    14.463    50.319    -51.758
N    15.222    49.255    -51.617
C    14.799    48.116    -52.278
C    15.574    46.947    -52.177
C    16.72    46.815    -51.266
N    17.13    45.525    -50.956
C    17.415    47.803    -50.65
S    18.63    47.16    -49.631
C    18.129    45.558    -50.106
N    18.747    44.475    -49.627
H    12.3696    46.8767    -54.329
H    13.8551    44.9331    -54.1258
H    12.816    51.2339    -52.5181
H    14.7789    51.2307    -51.2531
H    17.2248    48.8666    -50.786
H    18.4393    43.5359    -49.9172
H    19.5313    44.579    -48.9675
