74

C    -17.772    -5.896    -0.78
O    -18.025    -7.094    -1.085
C    -17.393    -5.5    0.661
N    -17.8    -4.865    -1.637
C    -18.062    -4.962    -3.07
C    -17.098    -5.987    -3.709
O    -16.053    -6.297    -3.114
C    -17.905    -3.594    -3.768
C    -18.334    -3.704    -5.199
C    -18.774    -2.53    -3.136
N    -17.484    -6.562    -4.862
C    -16.587    -7.385    -5.672
C    -16.507    -6.837    -7.065
O    -17.513    -6.404    -7.609
C    -17.015    -8.807    -5.671
C    -16.791    -9.429    -4.323
C    -17.183    -10.869    -4.408
N    -16.992    -11.515    -3.128
C    -15.877    -12.131    -2.768
N    -14.82    -12.194    -3.587
N    -15.831    -12.675    -1.567
N    -15.29    -6.803    -7.624
C    -15.034    -6.162    -8.934
C    -15.036    -7.248    -10.0
O    -14.419    -8.332    -9.814
C    -13.739    -5.347    -8.981
C    -13.561    -4.414    -7.79
S    -12.086    -3.34    -7.857
C    -10.873    -4.561    -8.481
N    -15.813    -6.955    -11.061
C    -16.005    -7.822    -12.19
C    -15.259    -7.103    -13.306
O    -15.628    -6.013    -13.796
C    -17.505    -8.006    -12.485
O    -14.211    -7.539    -13.832
H    -17.2144    -4.4156    0.7083
H    -16.4799    -6.0353    0.9603
H    -18.2143    -5.7664    1.3425
H    -17.627    -3.9537    -1.2634
H    -19.0958    -5.3097    -3.2127
H    -16.8504    -3.286    -3.7145
H    -18.2204    -2.7272    -5.6919
H    -19.3878    -4.0165    -5.2429
H    -17.7089    -4.449    -5.713
H    -18.4966    -2.4106    -2.0783
H    -19.8301    -2.8295    -3.2065
H    -18.6274    -1.5759    -3.6634
H    -18.4222    -6.421    -5.178
H    -15.5821    -7.3354    -5.2275
H    -16.434    -9.3593    -6.4242
H    -18.0849    -8.862    -5.9205
H    -17.4078    -8.9181    -3.569
H    -15.7297    -9.3468    -4.0456
H    -16.5617    -11.3707    -5.1645
H    -18.242    -10.9409    -4.6968
H    -17.7716    -11.4944    -2.4552
H    -13.9628    -12.6788    -3.2852
H    -14.8639    -11.7577    -4.519
H    -16.6503    -12.6205    -0.9452
H    -14.9758    -13.1543    -1.2511
H    -14.5255    -7.2266    -7.1381
H    -15.864    -5.4702    -9.14
H    -13.7425    -4.7415    -9.8993
H    -12.8895    -6.0453    -9.0054
H    -13.4917    -5.0309    -6.8819
H    -14.4494    -3.7683    -7.7278
H    -9.8901    -4.0791    -8.5889
H    -11.2045    -4.9405    -9.4588
H    -10.7955    -5.397    -7.7703
H    -16.2879    -6.0749    -11.0626
H    -15.5562    -8.8092    -12.0055
H    -17.6292    -8.6721    -13.3515
H    -17.9578    -7.0283    -12.7063
H    -17.9995    -8.4491    -11.608
