138

N    2.649    2.55    -11.827
C    2.141    3.896    -12.089
C    0.773    3.825    -12.752
O    0.546    2.982    -13.617
C    3.121    4.676    -12.965
N    -0.139    4.7    -12.341
C    -1.453    4.765    -12.972
C    -1.358    5.335    -14.383
O    -0.499    6.166    -14.687
C    -2.402    5.624    -12.132
C    -2.707    4.997    -10.766
C    -3.596    5.888    -9.919
N    -2.976    7.194    -9.725
C    -3.539    8.358    -10.03
N    -4.765    8.41    -10.542
N    -2.87    9.482    -9.817
N    -2.28    4.912    -15.242
C    -2.258    5.319    -16.637
C    -3.672    5.572    -17.142
O    -4.653    5.049    -16.605
C    -1.569    4.261    -17.509
O    -1.458    4.741    -18.849
C    -2.363    2.953    -17.505
N    -3.77    6.397    -18.186
C    -5.036    6.561    -18.89
C    -4.749    6.978    -20.322
O    -3.69    7.516    -20.633
C    -5.957    7.583    -18.211
C    -5.39    9.007    -18.137
C    -6.468    9.954    -17.604
C    -5.92    11.305    -17.176
N    -7.059    12.187    -16.735
N    -5.72    6.729    -21.187
C    -5.656    7.1    -22.592
C    -6.542    8.324    -22.801
O    -7.729    8.281    -22.481
C    -6.131    5.94    -23.469
C    -5.987    6.18    -24.949
C    -4.546    6.111    -25.387
O    -3.736    5.414    -24.768
N    -4.206    6.842    -26.449
N    -5.966    9.411    -23.318
C    -6.702    10.641    -23.589
C    -6.646    10.956    -25.077
O    -5.85    10.387    -25.827
C    -6.149    11.827    -22.781
O    -4.844    12.179    -23.263
C    -6.057    11.471    -21.318
N    -7.493    11.891    -25.504
C    -7.677    12.152    -26.925
C    -8.156    13.58    -27.136
O    -9.021    14.076    -26.404
C    -8.681    11.175    -27.556
N    -7.581    14.229    -28.139
C    -8.047    15.524    -28.592
C    -9.458    15.417    -29.166
O    -10.397    15.991    -28.622
C    -7.077    16.082    -29.629
C    -7.641    17.15    -30.526
C    -6.61    17.534    -31.56
N    -7.19    18.321    -32.642
C    -6.476    18.917    -33.591
N    -5.15    18.814    -33.587
N    -7.085    19.617    -34.541
O    -9.67    14.756    -30.178
H    3.5544    2.6121    -11.3884
H    2.7307    2.0465    -12.6964
H    2.0121    2.0636    -11.2156
H    2.0366    4.4227    -11.129
H    2.7233    5.6845    -13.1516
H    3.2544    4.1515    -13.9226
H    4.0905    4.7535    -12.4512
H    0.0783    5.3223    -11.589
H    -1.8605    3.7451    -13.0332
H    -3.3464    5.7477    -12.6822
H    -1.9388    6.6089    -11.9726
H    -1.7598    4.8296    -10.2323
H    -3.2149    4.0339    -10.9224
H    -3.755    5.414    -8.9392
H    -4.5641    6.0187    -10.4246
H    -2.029    7.2154    -9.3205
H    -5.1883    9.32    -10.7734
H    -5.2914    7.5402    -10.7072
H    -1.9199    9.4486    -9.4206
H    -3.3001    10.389    -10.0478
H    -3.0039    4.301    -14.9217
H    -1.6876    6.2564    -16.7139
H    -0.5625    4.0696    -17.1087
H    -0.9439    5.5398    -18.8565
H    -1.8508    2.2113    -18.1355
H    -3.3729    3.1358    -17.9008
H    -2.436    2.5715    -16.4759
H    -2.966    6.9086    -18.489
H    -5.554    5.5907    -18.9011
H    -6.1535    7.2387    -17.1849
H    -6.9019    7.6192    -18.7729
H    -5.0798    9.3316    -19.1412
H    -4.5215    9.022    -17.4621
H    -6.9501    9.4814    -16.7356
H    -7.2147    10.1146    -18.3956
H    -5.398    11.7748    -18.0226
H    -5.2165    11.1686    -16.3415
H    -6.6984    13.0842    -16.4504
H    -7.5372    11.7557    -15.9595
H    -7.7035    12.3112    -17.5
H    -6.5402    6.2615    -20.8572
H    -4.6183    7.3493    -22.8586
H    -7.1937    5.7572    -23.2519
H    -5.5442    5.0474    -23.2065
H    -6.3852    7.1769    -25.189
H    -6.5616    5.4151    -25.4919
H    -3.2629    6.8325    -26.7814
H    -4.8941    7.3998    -26.9131
H    -4.9889    9.3812    -23.5285
H    -7.7522    10.4865    -23.3005
H    -6.8239    12.6873    -22.9007
H    -4.5088    12.9117    -22.7598
H    -5.6602    12.3294    -20.756
H    -5.386    10.6085    -21.192
H    -7.0576    11.2156    -20.9391
H    -8.0125    12.424    -24.8362
H    -6.7068    12.0266    -27.428
H    -8.7923    11.4039    -28.6261
H    -9.6555    11.2769    -27.056
H    -8.314    10.1448    -27.4377
H    -6.7982    13.81    -28.599
H    -8.0733    16.2092    -27.7319
H    -6.7403    15.2485    -30.2629
H    -6.2151    16.5074    -29.0942
H    -7.9039    18.0328    -29.9248
H    -8.5412    16.7682    -31.0299
H    -6.1719    16.6177    -31.9824
H    -5.8216    18.1265    -31.0728
H    -8.2147    18.4209    -32.6725
H    -4.5954    19.2755    -34.3221
H    -4.6777    18.2727    -32.8488
H    -8.1119    19.6966    -34.5439
H    -6.5305    20.0803    -35.275
