71

C    -6.339    9.97    -46.934
C    -5.926    12.114    -47.764
C    -4.115    10.748    -47.485
C    -4.973    9.687    -46.992
C    -5.213    7.792    -45.465
C    -4.616    6.455    -44.976
C    -3.766    5.706    -45.787
C    -3.516    6.25    -47.214
C    -3.323    7.749    -47.138
C    -4.888    6.062    -43.627
C    -4.291    4.863    -43.129
C    -3.416    4.081    -43.942
C    -3.14    4.485    -45.257
C    -4.655    4.439    -41.754
C    -4.526    2.633    -40.037
C    -5.711    2.981    -39.36
C    -5.95    2.488    -38.057
C    -4.999    1.613    -37.442
C    -3.823    1.258    -38.128
C    -3.608    1.731    -39.456
C    -7.265    2.967    -37.321
C    -2.795    0.324    -37.498
N    -6.785    11.175    -47.311
N    -4.637    11.916    -47.85
N    -4.446    8.422    -46.501
N    -4.229    3.142    -41.301
C    -0.607    0.254    -37.951
C    0.736    0.528    -37.274
C    -0.17    2.345    -36.157
C    -1.477    2.118    -36.906
C    1.941    1.896    -36.093
C    -2.356    5.546    -47.942
N    -1.638    0.811    -37.248
N    0.892    1.815    -36.825
O    -5.352    5.182    -41.08
F    -7.491    2.2    -36.244
F    -7.134    4.209    -36.885
F    -8.325    2.974    -38.151
H    -7.0361    9.2168    -46.585
H    -6.3237    13.0749    -48.0699
H    -3.0452    10.5885    -47.5562
H    -5.2711    8.4801    -44.6088
H    -6.2252    7.6    -45.8504
H    -4.4243    6.0593    -47.8044
H    -3.2083    8.1426    -48.1588
H    -2.4113    7.9588    -46.5595
H    -5.5338    6.6617    -42.9958
H    -2.9664    3.1782    -43.5447
H    -2.4701    3.9014    -45.878
H    -6.4392    3.6264    -39.8378
H    -5.1848    1.2237    -36.4475
H    -2.7424    1.3991    -40.0178
H    -2.6556    -0.5251    -38.1832
H    -3.2145    -0.0369    -36.5474
H    -3.6914    2.5753    -41.9254
H    -0.7618    -0.8332    -38.0139
H    -0.5917    0.6814    -38.9644
H    1.5361    0.3172    -37.9988
H    0.8324    -0.1506    -36.4136
H    -0.24    1.872    -35.1664
H    -0.0114    3.4268    -36.0365
H    -1.4748    2.7286    -37.8209
H    -2.315    2.4244    -36.2626
H    2.7986    1.4679    -36.6327
H    1.7802    1.3381    -35.1587
H    2.1446    2.9515    -35.8595
H    -2.5443    4.4626    -47.9699
H    -1.415    5.7409    -47.4067
H    -2.2801    5.9315    -48.9694
H    -1.4829    0.3926    -36.3442
H    1.0376    2.3896    -37.6403
