43

C         15.60600       30.90600       18.28400
C         15.98700       31.55000       16.96100
C         15.21400       32.84000       16.78000
C         13.75100       32.48300       16.79900
C         13.39000       31.81900       18.13900
N         14.16700       30.58500       18.36700
C         13.82600       30.02400       19.53900
C         14.16600       28.77500       19.91900
C         15.32900       28.06100       19.76700
C         14.68400       26.72700       19.79300
N         14.11700       26.95500       21.13400
C         13.81300       28.27700       21.11100
N         13.11900       28.79800       22.19500
C         12.87400       27.99000       23.30600
O         12.32500       28.47000       24.29100
C         13.22300       26.64700       23.26700
C         13.84500       26.13200       22.13500
C         14.19700       24.77700       22.10200
C         13.92400       23.94700       23.19300
C         13.29900       24.48500       24.31300
C         12.94900       25.82900       24.35500
H         15.85950       31.59960       19.09920
H         16.18150       29.97600       18.40150
H         15.74780       30.86170       16.13700
H         17.06550       31.76630       16.95680
H         15.47660       33.30610       15.81890
H         15.44360       33.53620       17.60010
H         13.53540       31.78500       15.97660
H         13.15130       33.39630       16.67160
H         12.31870       31.56940       18.13540
H         13.59880       32.52680       18.95470
H         13.94890       29.92740       17.63490
H         12.72690       30.05330       19.57140
H         14.23360       30.68940       20.31430
H         13.50140       28.24410       19.22160
H         16.03320       28.21060       20.59860
H         15.83690       28.27070       18.81410
H         15.39960       25.89250       19.75500
H         13.92200       26.59250       19.01120
H         14.68470       24.36890       21.22410
H         14.19580       22.89800       23.16660
H         13.08240       23.84830       25.16310
H         12.46370       26.23750       25.23410
