26

O          4.75500      -12.86400        0.67100
C          4.24600      -11.66700        1.24900
C          5.31200      -11.20600        2.28900
O          5.50200      -12.21300        3.26300
C          6.68900      -10.88300        1.61300
O          6.49500       -9.87700        0.64800
C          7.64300      -10.32800        2.68800
O          8.87400       -9.87500        2.10200
C          7.79900      -11.39500        3.79000
C          6.41100      -11.93500        4.30800
S          5.96100      -10.65900        5.50500
N          8.37800      -10.83800        5.03400
C          7.57600      -10.32400        5.99600
N          8.02100       -9.63900        7.19400
H          4.87640      -13.51600        1.35120
H          3.28490      -11.86160        1.74730
H          4.10870      -10.89710        0.47540
H          4.94280      -10.29550        2.78360
H          7.11100      -11.78700        1.14970
H          5.87800      -10.18240       -0.00660
H          7.16730       -9.44900        3.14750
H          8.68990       -9.18680        1.47360
H          8.41910      -12.21630        3.40160
H          6.56170      -12.88210        4.84670
H          9.02750       -9.50460        7.36660
H          7.33060       -9.28680        7.87240
