10

N    9.13    43.132    90.326
C    8.147    43.324    89.441
O    7.145    42.616    89.427
O    8.309    44.409    88.47
P    7.096    44.867    87.517
O    6.564    43.54    87.027
O    7.627    45.591    86.293
O    6.314    45.701    88.532
H    9.0561    42.4013    91.0047
H    9.9394    43.719    90.3094
