50

C         35.21900        9.29500       -1.21700
O         36.65100        9.40000       -1.47700
C         37.48500        9.09800       -0.42900
C         38.42000        8.05700       -0.50200
C         39.25700        7.77700        0.59100
C         37.40500        9.85200        0.74200
C         38.23400        9.57100        1.82900
C         39.18800        8.53700        1.78700
N         39.96600        8.28500        2.89700
C         40.24200        6.84800        3.27800
C         41.43500        6.75200        4.24600
C         40.52500        9.36500        3.80300
C         40.68900        8.85300        5.31800
N         40.90900        7.39500        5.43700
C         41.88800        7.13100        6.54600
C         41.52400        6.04500        7.48600
C         40.36600        5.23100        7.36700
C         40.02400        4.19400        8.24100
O         38.97100        3.59200        8.02300
O         40.85200        3.87800        9.27800
C         42.03900        4.58000        9.40500
C         42.38500        5.65800        8.54800
C         43.63400        6.27600        8.78500
C         44.49900        5.88200        9.81300
C         44.13700        4.83400       10.63700
O         44.96300        4.43000       11.63900
C         42.90100        4.18600       10.42300
O         42.48400        3.15000       11.20000
H         34.97770        8.27240       -0.92710
H         34.94640        9.97640       -0.41110
H         34.66700        9.55810       -2.11930
H         38.49840        7.46140       -1.41150
H         39.97400        6.95920        0.51870
H         36.68720       10.66950        0.80870
H         38.14010       10.16880        2.73560
H         40.47940        6.28650        2.37440
H         39.35880        6.44150        3.77080
H         42.34020        7.22420        3.86420
H         41.76940        5.72910        4.41930
H         39.83120       10.20570        3.80010
H         41.50930        9.64770        3.42990
H         39.76110        9.08470        5.84090
H         41.56600        9.34840        5.73460
H         43.93800        7.09800        8.13690
H         45.44820        6.39680        9.96160
H         43.14990        2.96240       11.86560
H         45.78180        4.86473       11.77517
H         41.99315        8.03292        7.11203
H         42.78866        6.80894        6.06644
H         39.72952        5.41879        6.57665
