54

C    -5.75    -62.974    -82.544
O    3.196    -51.753    -74.809
O    4.642    -53.347    -74.273
O    4.624    -60.381    -76.16
C    0.453    -54.285    -71.369
C    0.556    -52.958    -71.737
C    1.342    -55.178    -71.921
C    1.511    -52.532    -72.616
C    3.545    -58.958    -74.564
C    2.249    -60.51    -75.912
C    1.142    -59.067    -74.307
C    -4.591    -63.855    -82.075
C    -4.302    -63.581    -80.594
C    -2.965    -62.809    -80.421
C    -2.252    -63.062    -79.07
C    -0.924    -62.302    -79.0
C    -0.428    -62.204    -77.564
C    -0.427    -60.746    -77.069
C    2.43    -57.438    -72.867
O    -0.167    -60.605    -75.624
S    3.372    -55.963    -73.441
C    3.491    -52.81    -74.177
C    3.482    -59.954    -75.55
C    2.368    -58.513    -73.944
C    1.065    -60.068    -75.292
C    2.304    -54.743    -72.815
C    2.397    -53.404    -73.178
H    -5.955    -63.1727    -83.6063
H    -5.4816    -61.9152    -82.4142
H    -6.647    -63.2006    -81.9489
H    4.4094    -61.0523    -76.797
H    -0.305    -54.6129    -70.6668
H    -0.1373    -52.2374    -71.3185
H    1.2885    -56.2273    -71.6542
H    1.5659    -51.4801    -72.8721
H    4.5015    -58.5331    -74.2818
H    2.2061    -61.2825    -76.6713
H    0.2352    -58.7218    -73.8236
H    -3.6946    -63.6282    -82.6708
H    -4.8599    -64.9136    -82.2056
H    -4.2363    -64.5388    -80.0571
H    -5.1214    -62.98    -80.1728
H    -3.1759    -61.7325    -80.5026
H    -2.2852    -63.1119    -81.231
H    -2.0562    -64.1391    -78.9626
H    -2.9034    -62.7242    -78.2505
H    -1.068    -61.2879    -79.401
H    -0.1735    -62.8322    -79.6046
H    0.5966    -62.6006    -77.5113
H    -1.0863    -62.8015    -76.9162
H    -1.4106    -60.3052    -77.2884
H    0.3521    -60.1951    -77.6163
H    1.4058    -57.1303    -72.6095
H    2.9233    -57.8528    -71.9757
