29

C    14.85    -9.544    -7.727
C    14.29    -9.595    -9.009
C    14.533    -8.622    -9.992
C    13.936    -8.657    -11.267
C    13.049    -9.678    -11.562
C    12.771    -10.658    -10.601
C    13.39    -10.634    -9.33
C    13.111    -11.647    -8.391
O    12.356    -12.601    -8.607
O    13.678    -11.582    -7.145
C    14.53    -10.504    -6.83
N    15.196    -10.288    -5.685
N    15.856    -9.261    -5.805
C    15.714    -8.768    -7.027
C    16.406    -7.492    -7.46
C    17.224    -7.009    -6.275
C    17.95    -5.688    -6.629
H    15.21    -7.8081    -9.7591
H    14.1671    -7.8973    -12.0049
H    12.571    -9.7188    -12.5341
H    12.0684    -11.4494    -10.8359
H    15.1591    -10.8846    -4.8461
H    15.6601    -6.7332    -7.739
H    17.0648    -7.6915    -8.318
H    17.9694    -7.774    -6.0121
H    16.556    -6.838    -5.4179
H    18.5381    -5.3495    -5.7633
H    17.2072    -4.92    -6.8905
H    18.6205    -5.856    -7.4846
