40

O    30.754    -182.688    31.851
C    30.23    -183.056    30.832
C    30.973    -183.407    29.75
C    30.362    -183.813    28.598
N    28.906    -183.126    30.748
C    28.298    -183.538    29.611
O    27.114    -183.598    29.575
N    29.034    -183.867    28.524
C    28.395    -184.348    27.312
C    27.785    -183.426    26.576
C    28.04    -183.86    25.037
O    27.187    -184.946    24.705
O    29.531    -184.958    26.382
C    29.34    -184.277    25.03
C    30.263    -183.072    24.97
O    31.501    -183.422    25.504
P    32.863    -182.953    24.705
O    32.855    -181.455    24.502
O    34.055    -183.401    25.515
N    32.925    -183.846    23.254
P    32.401    -183.311    21.727
O    31.589    -184.414    21.088
O    31.554    -182.064    21.797
O    33.755    -183.042    20.841
P    34.565    -181.612    20.883
O    34.292    -180.88    19.588
O    36.051    -181.835    21.053
O    34.007    -180.762    21.991
H    32.06    -183.3644    29.8015
H    30.9644    -184.094    27.7354
H    28.3491    -182.87    31.5382
H    27.6645    -185.123    27.5871
H    28.2149    -182.4325    26.7711
H    26.7075    -183.4092    26.7968
H    27.8801    -183.0195    24.3457
H    27.3369    -185.2004    23.802
H    29.5394    -184.9637    24.1942
H    29.8299    -182.2462    25.5535
H    30.3887    -182.7555    23.9241
H    33.3046    -184.7697    23.3055
