18

C    2.929    101.98    24.118
C    3.264    101.03    25.085
C    2.295    100.733    26.071
C    1.031    101.395    26.04
C    0.833    102.307    25.049
C    -0.482    103.022    24.985
O    4.588    100.328    25.135
O    2.608    99.774    27.074
O    1.76    102.569    24.151
O    -0.245    104.218    24.248
H    3.6419    102.2317    23.3342
H    0.2586    101.1799    26.777
H    1.2414    103.0978    25.6953
H    -0.8361    103.2618    25.9985
H    -1.2305    102.3997    24.4727
H    5.1311    100.627    24.4152
H    3.4875    99.4442    26.9318
H    0.0678    103.9963    23.3788
