86

C    13.608    37.388    -12.746
C    12.376    38.295    -12.68
C    12.371    39.303    -13.84
C    11.16    37.395    -12.742
C    12.366    39.055    -11.353
C    11.12    39.929    -11.143
N    11.327    40.749    -9.96
C    11.58    42.035    -10.038
O    11.636    42.623    -11.105
C    11.846    42.74    -8.709
C    13.335    43.001    -8.417
C    14.135    41.714    -8.61
C    14.122    40.611    -7.739
N    14.857    39.523    -8.027
N    13.386    40.633    -6.621
C    14.933    41.668    -9.76
C    15.677    40.534    -10.047
C    16.489    40.483    -11.191
C    15.607    39.457    -9.158
C    16.34    38.307    -9.457
C    17.156    38.277    -10.591
C    17.219    39.336    -11.485
C    18.087    39.266    -12.602
C    17.827    38.568    -13.787
C    18.78    38.557    -14.831
C    20.002    39.231    -14.699
C    20.271    39.917    -13.503
C    19.323    39.924    -12.454
C    19.72    40.728    -11.178
C    20.287    39.831    -10.073
C    20.175    40.429    -8.669
C    18.932    40.588    -8.07
C    18.848    41.131    -6.792
N    21.272    40.774    -7.984
C    21.238    41.295    -6.756
C    20.009    41.485    -6.102
N    19.86    42.004    -4.877
C    20.843    42.409    -4.07
O    22.036    42.346    -4.314
C    20.45    42.96    -2.707
C    19.304    42.548    -2.044
C    19.007    43.061    -0.785
C    19.854    43.992    -0.2
F    19.564    44.49    1.018
C    21.019    44.401    -0.854
C    21.316    43.878    -2.107
H    13.6115    36.8433    -13.7017
H    13.5789    36.6688    -11.9142
H    14.5186    38.0003    -12.6697
H    11.4773    39.9402    -13.7681
H    12.3587    38.7607    -14.797
H    13.2734    39.9296    -13.7852
H    11.1868    36.6841    -11.903
H    11.162    36.8409    -13.6922
H    10.2478    38.0061    -12.6758
H    13.2534    39.7041    -11.3194
H    12.4164    38.3222    -10.5342
H    10.237    39.2887    -11.0009
H    10.9673    40.5748    -12.0203
H    11.275    40.3197    -9.0583
H    11.4409    42.1144    -7.9
H    11.3227    43.7075    -8.7215
H    13.448    43.3487    -7.3795
H    13.7122    43.7718    -9.1052
H    13.3838    39.8191    -5.9898
H    12.8219    41.4638    -6.3921
H    14.969    42.5214    -10.4275
H    16.5475    41.3424    -11.8491
H    16.2763    37.4391    -8.8107
H    17.7601    37.3967    -10.7784
H    16.8912    38.0337    -13.9046
H    18.5627    38.0196    -15.747
H    20.7264    39.223    -15.5054
H    21.2107    40.444    -13.3836
H    18.8269    41.2413    -10.7922
H    20.4811    41.4731    -11.4529
H    21.3502    39.6478    -10.2873
H    19.7403    38.8766    -10.0873
H    18.0319    40.2905    -8.5957
H    17.8784    41.2797    -6.3306
H    22.1617    41.5726    -6.2613
H    18.925    42.0969    -4.5346
H    18.6398    41.8267    -2.5062
H    18.1156    42.734    -0.262
H    21.6846    45.1191    -0.3888
H    22.2211    44.1828    -2.6198
