56

C    -27.946    -5.308    -25.12
O    -27.104    -6.468    -25.249
C    -26.131    -6.404    -26.204
C    -26.047    -5.348    -27.124
C    -25.226    -7.473    -26.233
C    -25.243    -8.541    -25.315
O    -24.737    -9.643    -25.615
O    -25.64    -8.372    -24.142
C    -24.222    -7.45    -27.188
C    -24.153    -6.408    -28.11
C    -25.039    -5.34    -28.087
N    -24.82    -4.402    -29.036
C    -25.428    -3.213    -29.159
N    -26.557    -2.869    -28.516
N    -24.865    -2.353    -30.041
C    -25.427    -1.091    -30.262
C    -26.575    -0.749    -29.567
C    -27.033    0.528    -29.896
N    -27.272    1.311    -28.667
C    -27.123    -1.666    -28.681
C    -28.283    -1.457    -27.947
C    -29.015    -2.621    -27.713
C    -30.223    -2.531    -27.024
C    -30.676    -1.294    -26.566
Cl    -32.19    -1.149    -25.698
C    -29.925    -0.145    -26.789
C    -28.738    -0.223    -27.505
C    -28.066    0.999    -27.648
C    -28.043    1.898    -26.58
C    -27.465    1.537    -25.353
F    -26.923    0.23    -25.136
C    -27.438    2.446    -24.296
C    -27.967    3.723    -24.471
C    -28.524    4.094    -25.695
C    -28.544    3.176    -26.736
O    -29.058    3.446    -27.955
C    -28.759    4.781    -28.329
H    -28.6857    -5.4786    -24.324
H    -28.4669    -5.1253    -26.0715
H    -27.329    -4.4335    -24.8659
H    -26.7663    -4.5379    -27.086
H    -23.4871    -8.2463    -27.2177
H    -23.3814    -6.4322    -28.871
H    -24.1061    -4.6258    -29.7439
H    -24.9744    -0.397    -30.961
H    -27.9721    0.4435    -30.4624
H    -26.2779    1.0384    -30.5119
H    -28.6501    -3.5804    -28.0615
H    -30.8113    -3.4235    -26.8438
H    -30.2657    0.8096    -26.4046
H    -27.0076    2.1606    -23.3429
H    -27.9456    4.4322    -23.6515
H    -28.9362    5.0872    -25.8315
H    -29.1832    4.9871    -29.3228
H    -27.668    4.9174    -28.3606
H    -29.194    5.474    -27.5938
