73

O         17.50200      -10.73800       -6.82700
O         16.17700        2.05600        3.70600
C         20.07300       -8.43000       -5.26000
C         19.48800       -9.54900       -6.12400
C         17.98400       -9.76600       -5.90500
C         17.18200       -8.49600       -6.13100
C         17.82600       -7.34800       -5.39600
C         17.19500       -6.70600       -4.41600
C         17.70800       -5.43700       -3.91200
C         16.88900       -4.59400       -3.31200
C         15.43000       -4.60900       -3.63400
C         19.26600       -7.20200       -5.52700
C         14.67700       -4.16300       -2.43200
C         15.10600       -2.77800       -2.01700
C         16.54200       -2.78300       -1.63900
C         17.33600       -3.23300       -2.88600
C         18.75900       -3.11900       -2.40400
C         18.71100       -1.90200       -1.45600
C         17.24600       -1.48400       -1.36200
C         16.72500       -3.72500       -0.49200
C         19.75200       -6.23900       -6.25900
C         16.98600       -0.85500       -0.02000
C         15.50000       -0.67800        0.13000
C         17.70400        0.48800        0.02400
C         17.28500        1.39000        1.17600
C         17.96000        0.99200        2.46700
C         17.54600        1.83200        3.65900
C         17.90000        1.09900        4.91400
C         18.26900        3.15800        3.67800
H         17.98940      -11.55690       -6.71100
H         15.96750        2.59020        4.47560
H         21.12170       -8.26230       -5.50560
H         20.03010       -8.69670       -4.20400
H         19.99630      -10.47400       -5.85180
H         19.63070       -9.26720       -7.16720
H         17.85960      -10.09030       -4.87180
H         16.16770       -8.63900       -5.75830
H         17.15510       -8.27160       -7.19730
H         18.76220       -5.18640       -4.03030
H         15.12110       -5.61610       -3.91410
H         15.22660       -3.93980       -4.47000
H         14.87870       -4.85410       -1.61360
H         13.61320       -4.14590       -2.66910
H         14.51100       -2.45970       -1.16100
H         14.95700       -2.09160       -2.85050
H         17.19420       -2.64660       -3.79380
H         19.47100       -2.99030       -3.21920
H         19.11030       -4.02470       -1.90960
H         19.32610       -1.08640       -1.83620
H         19.10820       -2.15660       -0.47340
H         16.90490       -0.71350       -2.05340
H         16.11830       -3.39220        0.35020
H         16.41440       -4.72570       -0.79230
H         17.77530       -3.74120       -0.20080
H         17.35390       -1.47660        0.79630
H         15.13000       -0.03290       -0.66690
H         15.01150       -1.65050        0.06830
H         15.28540       -0.22280        1.09690
H         17.45600        1.01280       -0.89860
H         18.76580        0.27810        0.15300
H         16.20690        1.30050        1.30910
H         17.57590        2.41270        0.93620
H         19.03230        1.13040        2.32890
H         17.67260       -0.03770        2.67980
H         17.37560        0.14370        4.93550
H         18.97570        0.92510        4.94060
H         17.60570        1.69600        5.77720
H         19.34350        2.98370        3.73390
H         18.03610        3.71040        2.76770
H         17.94730        3.73340        4.54610
H         16.33626       -7.10896       -4.00953
H         19.18871       -5.39331       -6.43936
H         20.70004       -6.32233       -6.65813
