47

O    -22.801    18.8    8.501
C    -23.542    19.366    7.654
O    -24.246    20.358    7.972
C    -23.582    18.832    6.228
C    -23.758    19.69    5.149
C    -23.432    17.472    6.009
C    -23.473    17.016    4.707
N    -23.646    17.838    3.648
C    -23.788    19.163    3.864
C    -23.981    20.077    2.657
N    -23.335    19.543    1.473
C    -21.933    19.907    1.407
C    -21.819    21.187    0.586
O    -22.751    21.59    -0.025
N    -20.64    21.844    0.567
C    -19.473    21.392    1.304
C    -18.519    20.662    0.362
C    -20.475    23.067    -0.201
C    -21.287    24.224    0.377
N    -21.171    25.47    -0.354
C    -21.393    26.576    0.56
C    -22.184    25.498    -1.394
H    -23.8704    20.7564    5.308
H    -23.2867    16.7864    6.836
H    -23.3617    15.953    4.5259
H    -23.5506    21.0635    2.884
H    -25.0577    20.1835    2.4586
H    -23.8033    19.9034    0.6564
H    -23.4097    18.5379    1.487
H    -21.36    19.1014    0.9246
H    -21.5431    20.0777    2.4213
H    -19.7892    20.7084    2.1056
H    -18.9596    22.2599    1.7435
H    -17.6371    20.3218    0.9246
H    -18.2014    21.3449    -0.4397
H    -19.031    19.7933    -0.0776
H    -20.8049    22.8839    -1.2343
H    -19.4108    23.3455    -0.1997
H    -20.9476    24.3991    1.4085
H    -22.3466    23.9287    0.3847
H    -20.2538    25.5439    -0.7656
H    -21.3068    27.5265    0.0131
H    -20.6412    26.5452    1.3624
H    -22.3992    26.4944    0.9969
H    -22.0193    24.6613    -2.0889
H    -22.1195    26.4489    -1.9433
H    -23.1806    25.4049    -0.9378
