31

C    -25.953    23.921    4.307
C    -27.443    25.165    5.488
C    -25.822    22.994    5.349
O    -22.648    18.465    8.415
C    -23.412    19.114    7.679
O    -24.119    20.094    8.064
C    -23.528    18.766    6.194
C    -23.078    17.516    5.761
C    -23.172    17.18    4.404
N    -23.68    18.032    3.472
C    -24.105    19.249    3.92
C    -24.051    19.658    5.272
N    -24.514    20.929    5.67
C    -24.902    21.978    4.923
C    -24.493    22.34    3.656
N    -25.14    23.522    3.266
C    -24.986    24.22    1.982
N    -26.752    25.028    4.339
C    -27.375    24.299    6.563
C    -26.555    23.187    6.507
H    -28.103    26.0204    5.5758
H    -22.6591    16.8111    6.47
H    -22.8267    16.2036    4.084
H    -24.5091    19.9452    3.194
H    -24.5625    21.0766    6.6882
H    -23.775    21.7902    3.0493
H    -25.623    25.1167    1.9735
H    -25.2849    23.5501    1.1623
H    -23.9349    24.5157    1.8491
H    -27.9654    24.4918    7.4514
H    -26.4889    22.4936    7.3376
