39

N    49.429    54.407    22.252
C    49.078    58.064    20.262
C    48.963    57.999    21.648
C    49.079    56.772    22.298
C    49.312    55.594    21.581
C    50.54    53.604    22.399
C    52.85    53.031    21.933
C    50.465    50.148    24.817
C    49.318    52.06    23.933
C    48.179    51.015    27.187
O    46.725    51.201    25.123
S    47.858    50.471    25.636
O    47.799    49.037    25.665
C    49.318    50.939    24.719
C    51.626    50.49    24.138
C    50.47    52.431    23.231
C    51.652    51.627    23.345
N    52.811    51.93    22.703
C    51.753    53.877    21.767
C    49.434    55.651    20.184
C    49.687    54.422    19.331
O    48.731    59.138    22.368
C    49.31    56.892    19.554
H    48.5707    54.0675    22.7092
H    48.9881    59.0124    19.7448
H    48.9871    56.7298    23.3773
H    53.7734    53.272    21.4189
H    50.4481    49.2552    25.4315
H    48.4208    52.6632    23.8542
H    48.2285    52.1139    27.1872
H    49.141    50.6046    27.5278
H    47.3784    50.6839    27.8648
H    52.5104    49.8697    24.2274
H    51.8445    54.7564    21.1398
H    49.744    54.7158    18.2725
H    48.8646    53.7045    19.4685
H    50.6358    53.9547    19.6334
H    48.6795    59.8799    21.7769
H    49.398    56.9417    18.4747
