63

C    -22.03    -50.892    -22.23
N    -21.875    -51.368    -21.027
C    -22.268    -50.478    -20.061
C    -21.256    -49.346    -19.826
C    -20.6    -51.88    -20.813
C    -19.544    -50.787    -20.585
N    -19.912    -49.857    -19.538
C    -18.905    -49.024    -18.845
C    -19.323    -48.082    -17.869
C    -18.379    -47.291    -17.203
C    -17.556    -49.156    -19.14
C    -16.61    -48.363    -18.477
C    -17.027    -47.426    -17.501
N    -16.052    -46.601    -16.809
C    -14.848    -47.198    -16.224
N    -14.015    -46.419    -15.533
C    -12.869    -46.917    -14.966
C    -12.588    -48.248    -15.125
C    -11.387    -48.469    -14.455
C    -10.975    -47.261    -13.911
N    -11.879    -46.341    -14.228
C    -13.503    -49.061    -15.886
O    -13.245    -50.443    -16.053
C    -13.337    -50.895    -17.391
C    -14.478    -51.531    -17.828
C    -14.566    -51.997    -19.149
C    -13.504    -51.819    -20.02
N    -13.571    -52.309    -21.409
C    -14.84    -52.283    -22.197
C    -14.832    -52.822    -23.648
C    -15.978    -53.055    -24.291
O    -15.853    -51.855    -21.717
C    -12.358    -51.194    -19.578
C    -12.271    -50.729    -18.258
N    -14.602    -48.501    -16.397
H    -23.0527    -50.5025    -22.3412
H    -21.8603    -51.692    -22.9656
H    -21.3079    -50.0795    -22.3987
H    -22.5036    -52.1526    -20.954
H    -22.4039    -51.0257    -19.1168
H    -23.2256    -50.0315    -20.367
H    -21.5947    -48.7391    -18.9734
H    -21.2107    -48.7181    -20.728
H    -20.3076    -52.4716    -21.6931
H    -20.6279    -52.5307    -19.9265
H    -19.4116    -50.2261    -21.5219
H    -18.5945    -51.2686    -20.3086
H    -20.3767    -47.9746    -17.6384
H    -18.7013    -46.5744    -16.4562
H    -17.233    -49.8741    -19.885
H    -15.5569    -48.4671    -18.7118
H    -16.2084    -45.5861    -16.7286
H    -10.8643    -49.4208    -14.3728
H    -10.0705    -47.0963    -13.3274
H    -11.8381    -45.3478    -13.9582
H    -15.3112    -51.6721    -17.149
H    -15.4662    -52.4968    -19.4879
H    -12.742    -52.6696    -21.8365
H    -13.8836    -53.0126    -24.1482
H    -15.9623    -53.4342    -25.3117
H    -16.9289    -52.8659    -23.795
H    -11.5206    -51.0614    -20.2534
H    -11.3669    -50.2385    -17.9159
