27

C    13.962    7.697    -6.517
C    15.287    7.351    -5.886
C    15.491    6.054    -5.421
C    17.734    6.604    -4.725
C    17.533    7.894    -5.199
C    16.326    8.289    -5.774
C    16.839    10.099    -7.424
C    16.743    11.404    -7.872
C    16.023    12.336    -7.155
C    15.396    11.971    -5.98
C    15.491    10.667    -5.533
C    16.695    5.682    -4.847
N    18.925    6.25    -4.149
C    16.208    9.707    -6.244
Cl    14.691    10.236    -4.061
H    13.3048    6.8152    -6.4965
H    14.1228    8.0103    -7.5591
H    13.4918    8.5178    -5.9557
H    14.6945    5.3241    -5.5099
H    18.3385    8.615    -5.1195
H    17.4094    9.3752    -7.9948
H    17.2366    11.6957    -8.792
H    15.9491    13.3562    -7.514
H    14.8329    12.7027    -5.412
H    16.8307    4.6674    -4.4902
H    19.683    6.9425    -4.0662
H    19.0628    5.2913    -3.7986
