55

O    -10.203    -14.675    -4.058
P    -10.721    -16.066    -4.652
O    -11.352    -16.997    -3.594
O    -9.627    -16.812    -5.405
O    -11.897    -15.722    -5.712
C    -11.693    -15.054    -6.916
C    -12.505    -13.763    -6.98
C    -14.018    -14.165    -7.023
C    -12.116    -13.117    -8.301
C    -12.198    -12.842    -5.767
O    -10.773    -12.661    -5.621
C    -12.881    -11.474    -5.929
O    -14.115    -11.352    -5.929
N    -12.041    -10.463    -6.1
C    -12.565    -9.082    -6.243
C    -13.038    -8.81    -7.679
C    -13.794    -7.496    -7.665
O    -14.972    -7.457    -7.329
N    -13.104    -6.392    -7.994
C    -13.729    -5.1    -7.942
C    -12.813    -3.965    -8.304
C    -12.533    -3.911    -9.797
C    -11.858    -2.613    -10.189
C    -11.645    -2.393    -11.649
O    -10.919    -3.465    -12.282
C    -10.583    -3.176    -13.632
H    -11.997    -15.7096    -7.7453
H    -10.6248    -14.8103    -7.0138
H    -14.6374    -13.2572    -7.0697
H    -14.2717    -14.7357    -6.1175
H    -14.2077    -14.7844    -7.912
H    -11.0534    -12.8342    -8.2719
H    -12.73    -12.2192    -8.465
H    -12.2832    -13.8304    -9.1214
H    -12.5874    -13.3227    -4.8574
H    -10.3603    -13.5053    -5.4816
H    -11.0557    -10.6306    -6.1326
H    -11.7682    -8.3682    -5.9871
H    -13.4127    -8.9474    -5.5551
H    -13.6997    -9.621    -8.0171
H    -12.1718    -8.7384    -8.3532
H    -12.1481    -6.47    -8.2772
H    -14.0976    -4.9346    -6.9189
H    -14.5772    -5.0972    -8.6423
H    -11.8606    -4.0932    -7.7688
H    -13.2819    -3.0187    -7.9965
H    -13.4843    -3.9979    -10.3424
H    -11.8767    -4.7511    -10.0681
H    -10.8735    -2.586    -9.699
H    -12.4779    -1.7859    -9.8125
H    -11.0789    -1.4595    -11.7835
H    -12.6269    -2.2998    -12.136
H    -10.0325    -4.0254    -14.0627
H    -9.9534    -2.2748    -13.6683
H    -11.5029    -3.0042    -14.2101
