120

N    -23.477    -15.402    -14.083
C    -22.602    -14.3    -14.59
C    -23.354    -12.972    -14.758
O    -24.398    -12.878    -15.464
C    -21.849    -14.669    -15.882
O    -21.103    -13.548    -16.398
N    -22.768    -11.964    -14.073
C    -23.108    -10.562    -14.237
C    -23.05    -10.197    -15.708
O    -24.067    -9.762    -16.295
C    -22.142    -9.657    -13.453
C    -22.693    -8.449    -12.646
C    -21.6    -7.53    -12.146
C    -23.751    -7.602    -13.364
N    -21.872    -10.419    -16.299
C    -21.613    -10.028    -17.658
C    -22.666    -10.511    -18.679
O    -23.12    -9.684    -19.487
C    -20.175    -10.386    -18.044
C    -19.81    -10.072    -19.477
C    -19.524    -8.603    -19.74
O    -19.457    -7.763    -18.828
N    -19.325    -8.289    -21.013
N    -23.086    -11.79    -18.626
C    -24.198    -12.268    -19.505
C    -25.572    -11.534    -19.355
O    -26.353    -11.405    -20.318
C    -24.417    -13.799    -19.46
C    -25.684    -14.239    -20.196
C    -26.889    -14.484    -19.495
C    -25.718    -14.321    -21.603
C    -28.066    -14.843    -20.188
C    -26.891    -14.676    -22.29
C    -28.063    -14.941    -21.588
N    -25.884    -11.097    -18.145
C    -27.137    -10.379    -17.873
C    -27.078    -8.937    -18.432
O    -28.025    -8.449    -19.084
C    -27.336    -10.35    -16.37
C    -28.624    -10.751    -15.694
C    -29.388    -11.908    -16.342
C    -28.172    -11.082    -14.272
N    -25.954    -8.262    -18.168
C    -25.687    -6.942    -18.733
C    -25.912    -6.981    -20.252
O    -26.552    -6.069    -20.781
C    -24.304    -6.425    -18.349
C    -24.192    -4.933    -18.689
C    -25.365    -4.088    -18.096
C    -22.812    -4.374    -18.328
N    -25.43    -8.056    -20.905
C    -25.97    -8.554    -22.202
C    -27.264    -9.365    -21.88
O    -28.095    -9.689    -22.734
C    -24.976    -9.49    -22.914
C    -23.483    -9.076    -22.728
O    -22.598    -9.99    -22.653
O    -23.179    -7.853    -22.661
O    -27.562    -9.749    -20.745
H    -22.9346    -16.2467    -13.9918
H    -24.2328    -15.5564    -14.7318
H    -23.8532    -15.1456    -13.1837
H    -21.8374    -14.1344    -13.8168
H    -22.5773    -14.9928    -16.64
H    -21.1527    -15.493    -15.6669
H    -20.6517    -13.8081    -17.1924
H    -22.0556    -12.199    -13.4118
H    -24.1297    -10.399    -13.8635
H    -21.4244    -9.2516    -14.1815
H    -21.6124    -10.3025    -12.7369
H    -23.1838    -8.88    -11.7609
H    -22.0492    -6.6975    -11.5846
H    -21.0351    -7.1324    -13.002
H    -20.921    -8.0919    -11.4878
H    -24.5544    -8.2557    -13.7345
H    -23.2865    -7.0759    -14.211
H    -24.1709    -6.8671    -12.6615
H    -21.1475    -10.8716    -15.7792
H    -21.6722    -8.9297    -17.6752
H    -20.0354    -11.4652    -17.8833
H    -19.4939    -9.8262    -17.3862
H    -20.646    -10.3813    -20.1215
H    -18.9117    -10.6504    -19.7388
H    -19.1308    -7.3423    -21.27
H    -19.3692    -8.9989    -21.7159
H    -22.6491    -12.4275    -17.9914
H    -23.8583    -12.043    -20.5267
H    -24.495    -14.1121    -18.4084
H    -23.551    -14.2917    -19.926
H    -26.9086    -14.3951    -18.4148
H    -24.8183    -14.1052    -22.1678
H    -28.9767    -15.044    -19.6355
H    -26.8831    -14.7438    -23.3719
H    -28.9662    -15.2208    -22.1182
H    -25.2467    -11.2607    -17.392
H    -27.975    -10.912    -18.3459
H    -27.1446    -9.3118    -16.0611
H    -26.5592    -11.0064    -15.9509
H    -29.3019    -9.8849    -15.6755
H    -30.3037    -12.1104    -15.767
H    -28.7541    -12.807    -16.3503
H    -29.6554    -11.6383    -17.3743
H    -27.6296    -10.2229    -13.8504
H    -27.5093    -11.9597    -14.2928
H    -29.0518    -11.3015    -13.6493
H    -25.2732    -8.6752    -17.5632
H    -26.4212    -6.2418    -18.3079
H    -23.5378    -6.9845    -18.9056
H    -24.1487    -6.5657    -17.2692
H    -24.2815    -4.8558    -19.7826
H    -25.2314    -3.0314    -18.3713
H    -25.3685    -4.1838    -17.0002
H    -26.3208    -4.4539    -18.4991
H    -22.0315    -5.0091    -18.7723
H    -22.696    -4.3616    -17.2342
H    -22.7176    -3.35    -18.7184
H    -24.6634    -8.55    -20.4948
H    -26.2046    -7.7022    -22.8573
H    -25.2058    -9.4875    -23.9897
H    -25.1073    -10.506    -22.5133
