27

N    6.952    117.698    -6.567
C    6.88    118.287    -5.248
C    5.506    118.725    -4.759
C    4.401    118.215    -5.512
C    4.565    117.322    -6.683
C    5.905    116.72    -6.852
S    5.009    119.653    -3.585
C    3.451    119.573    -3.769
C    3.098    118.762    -4.859
C    1.645    118.497    -5.353
O    0.669    118.816    -4.623
O    1.476    117.993    -6.537
N    2.396    120.152    -3.048
C    2.593    121.003    -1.975
C    1.299    121.491    -1.372
O    1.18    122.711    -0.994
O    0.36    120.656    -1.292
O    3.734    121.322    -1.566
H    7.8448    117.239    -6.6585
H    6.8839    118.4391    -7.2468
H    7.5312    119.1735    -5.2448
H    7.2658    117.546    -4.5325
H    4.3417    117.9071    -7.5873
H    3.837    116.503    -6.5872
H    6.0081    115.8697    -6.1619
H    6.0137    116.3667    -7.888
H    1.4581    119.9398    -3.3223
