27

N    31.423    -30.58    -0.915
C    31.591    -30.373    -2.338
C    32.995    -30.08    -2.854
C    34.063    -30.391    -1.952
C    33.838    -30.985    -0.602
C    32.458    -31.373    -0.239
S    33.557    -29.47    -4.198
C    35.105    -29.492    -3.97
C    35.407    -30.005    -2.68
C    36.844    -30.155    -2.087
O    37.01    -30.368    -0.812
O    37.845    -30.041    -2.859
N    36.168    -29.053    -4.798
C    36.047    -28.594    -6.117
C    37.342    -28.142    -6.759
O    38.382    -28.819    -6.542
O    37.354    -27.064    -7.472
O    34.951    -28.572    -6.731
H    30.5406    -31.0469    -0.776
H    31.3964    -29.6734    -0.4751
H    30.953    -29.5235    -2.6233
H    31.2385    -31.283    -2.8455
H    34.1775    -30.2483    0.141
H    34.4613    -31.8888    -0.5335
H    32.3137    -32.4306    -0.5048
H    32.3368    -31.248    0.8471
H    37.0877    -29.0724    -4.4058
