14

C    31.47    2.764    -13.071
C    30.358    2.495    -12.277
C    29.092    2.462    -12.867
O    27.925    2.208    -12.192
C    28.977    2.704    -14.225
O    27.714    2.634    -14.698
C    30.079    2.994    -15.036
C    31.318    3.009    -14.435
H    32.4584    2.783    -12.6264
H    30.4732    2.3135    -11.2145
H    27.8023    2.864    -11.5159
H    27.1746    3.2779    -14.2541
H    29.9626    3.1985    -16.0941
H    32.1956    3.2162    -15.0366
