68

P    -23.248    -5.058    5.829
O    -24.351    -5.204    4.794
O    -22.231    -4.059    5.395
O    -22.587    -6.401    6.16
C    -23.381    -7.482    6.393
C    -22.682    -8.558    7.18
O    -21.548    -9.062    6.49
C    -22.126    -8.064    8.523
O    -23.124    -8.103    9.534
C    -21.237    -9.164    8.643
O    -21.601    -10.425    9.183
C    -20.549    -9.378    7.411
N    -19.423    -8.502    6.946
C    -19.405    -7.456    6.116
N    -18.264    -7.025    5.935
C    -17.362    -7.739    6.612
C    -15.987    -7.77    6.803
O    -15.176    -6.879    6.241
N    -15.45    -8.714    7.619
C    -16.22    -9.66    8.232
N    -15.554    -10.643    9.086
N    -17.547    -9.692    8.13
C    -18.104    -8.783    7.31
P    -22.817    -7.285    10.895
O    -23.996    -7.722    11.721
O    -21.473    -7.662    11.354
O    -22.899    -5.787    10.562
C    -24.149    -5.293    10.149
C    -24.067    -3.994    9.391
O    -23.449    -2.963    10.271
C    -23.206    -4.029    8.174
O    -23.994    -4.476    7.131
C    -22.755    -2.613    8.063
O    -23.695    -1.762    7.543
C    -22.581    -2.198    9.512
N    -21.234    -2.389    10.012
C    -20.745    -3.329    10.778
N    -19.514    -3.187    11.013
C    -18.99    -2.119    10.43
C    -17.757    -1.431    10.308
O    -16.643    -1.833    10.878
N    -17.7    -0.303    9.554
C    -18.796    0.164    8.954
N    -18.757    1.341    8.158
N    -20.002    -0.413    9.014
C    -20.115    -1.536    9.74
H    -23.6964    -7.9018    5.4264
H    -24.2666    -7.1531    6.9565
H    -23.4009    -9.3712    7.3582
H    -21.6374    -7.0793    8.4846
H    -20.4818    -8.7945    9.3524
H    -21.8925    -10.3119    10.0801
H    -20.2248    -10.428    7.3617
H    -20.295    -7.0327    5.6527
H    -14.4623    -8.716    7.7751
H    -16.1068    -11.3697    9.5626
H    -14.5322    -10.6085    9.2108
H    -24.7721    -5.1353    11.0416
H    -24.622    -6.0445    9.4997
H    -25.0856    -3.6937    9.1042
H    -22.3423    -4.6992    8.2962
H    -21.8195    -2.5446    7.4884
H    -23.9311    -2.0489    6.6687
H    -22.8419    -1.1338    9.6089
H    -21.3401    -4.151    11.173
H    -16.8311    0.1805    9.4479
H    -19.6153    1.6841    7.7036
H    -17.8704    1.8508    8.0356
