51

O    15.628    -2.007    0.496
C    15.54    -2.301    -0.688
C    14.634    -3.389    -1.13
C    14.657    -3.768    -2.439
C    15.522    -3.049    -3.448
C    15.839    -1.59    -3.097
C    14.597    -0.725    -3.083
C    16.833    -1.071    -4.143
C    16.448    -1.607    -1.696
C    13.777    -4.063    -0.08
C    14.607    -4.83    0.939
C    12.781    -3.12    0.56
C    12.64    -2.939    1.959
C    11.638    -2.096    2.448
C    10.792    -1.425    1.598
C    10.922    -1.613    0.207
C    11.904    -2.451    -0.302
C    13.017    -5.129    -0.761
C    12.045    -6.109    -0.254
C    11.468    -6.22    1.103
C    11.623    -7.408    2.01
C    10.307    -7.178    1.255
N    11.625    -6.933    -1.358
N    12.315    -6.528    -2.532
C    13.103    -5.519    -2.152
N    13.972    -4.809    -3.022
H    15.0016    -3.0629    -4.417
H    16.4731    -3.5948    -3.5347
H    14.873    0.3087    -2.8273
H    13.8895    -1.1113    -2.3346
H    14.126    -0.7436    -4.0769
H    17.7303    -1.7072    -4.1435
H    17.1169    -0.037    -3.8978
H    16.3649    -1.0966    -5.1381
H    17.4099    -2.1394    -1.7332
H    16.6151    -0.5702    -1.3687
H    15.2241    -4.1246    1.5148
H    15.2589    -5.5458    0.4168
H    13.938    -5.374    1.622
H    13.305    -3.4511    2.6451
H    11.5261    -1.969    3.5187
H    10.0334    -0.7588    1.9926
H    10.2496    -1.099    -0.4703
H    11.9925    -2.5884    -1.3736
H    11.4372    -5.2204    1.5611
H    11.6644    -7.2669    3.1001
H    12.2852    -8.2379    1.7222
H    10.0243    -7.8399    0.4232
H    9.4035    -6.869    1.8011
H    12.2262    -6.9282    -3.4769
H    14.0815    -5.0551    -4.0162
