188

C    11.003    -36.834    -42.248
C    9.68    -37.452    -42.672
C    8.747    -37.538    -41.473
C    9.394    -38.371    -40.378
C    7.419    -38.162    -41.884
C    7.646    -39.361    -42.796
C    7.202    -40.645    -42.11
C    5.81    -40.474    -41.521
C    5.874    -40.7    -40.023
O    6.932    -40.566    -39.419
N    4.721    -41.044    -39.434
C    4.667    -41.309    -38.008
C    3.252    -41.155    -37.474
O    2.381    -41.976    -37.741
C    5.145    -42.733    -37.76
C    4.669    -43.651    -38.877
N    5.173    -44.998    -38.701
N    3.031    -40.098    -36.683
C    1.715    -39.882    -36.106
C    1.491    -38.41    -35.816
C    2.745    -37.798    -35.213
O    0.404    -38.296    -34.894
C    1.587    -40.681    -34.816
O    2.471    -40.611    -33.964
N    0.464    -41.427    -34.733
C    0.056    -42.339    -33.656
C    0.894    -42.266    -32.373
O    0.51    -41.597    -31.412
C    -1.413    -42.126    -33.306
C    -1.904    -43.319    -32.498
N    -3.211    -43.079    -31.918
N    2.022    -43.008    -32.346
C    2.502    -43.796    -33.472
C    3.897    -43.791    -33.519
O    4.487    -44.742    -34.024
C    1.97    -45.228    -33.44
C    2.195    -45.974    -32.123
N    1.012    -46.014    -31.258
N    4.612    -42.697    -32.995
C    6.069    -42.594    -33.014
C    6.611    -42.998    -34.226
O    6.849    -42.191    -35.12
C    6.707    -43.393    -31.89
C    7.065    -42.434    -30.768
N    6.007    -41.46    -30.588
N    6.873    -44.347    -34.435
C    7.456    -44.755    -35.69
C    6.925    -45.994    -36.052
O    6.027    -46.048    -36.89
C    8.969    -44.777    -35.518
C    9.679    -44.977    -36.705
C    11.063    -45.07    -36.638
C    9.052    -45.085    -37.944
C    11.812    -45.278    -37.791
C    9.799    -45.3    -39.094
C    11.181    -45.393    -39.02
N    7.43    -47.176    -35.488
C    6.927    -48.488    -35.875
C    6.389    -49.178    -34.778
O    6.523    -50.397    -34.696
C    8.066    -49.307    -36.478
C    8.652    -48.608    -37.701
C    10.106    -49.014    -37.889
C    7.87    -49.009    -38.941
N    5.658    -48.522    -33.768
C    5.157    -49.295    -32.634
C    3.969    -49.984    -32.918
O    3.596    -50.156    -34.077
C    5.016    -48.438    -31.374
C    6.396    -47.994    -30.902
N    6.324    -47.226    -29.672
N    3.23    -50.543    -31.861
C    2.019    -51.311    -32.094
C    0.955    -50.434    -32.237
O    -0.084    -50.81    -32.784
C    1.754    -52.283    -30.953
C    0.983    -53.49    -31.471
N    -0.409    -53.437    -31.068
N    1.086    -49.103    -31.8
C    -0.029    -48.191    -31.988
C    -0.241    -47.869    -33.461
C    -1.089    -46.618    -33.601
O    -0.879    -48.987    -34.082
C    0.022    -47.038    -31.183
O    -0.898    -46.883    -30.379
H    11.6746    -36.7735    -43.1171
H    11.4663    -37.4578    -41.4694
H    10.8253    -35.8237    -41.851
H    9.8588    -38.462    -43.0694
H    9.2178    -36.8279    -43.451
H    8.5617    -36.5236    -41.0901
H    8.7162    -38.4304    -39.5137
H    10.34    -37.9014    -40.0705
H    9.5938    -39.3839    -40.7575
H    6.8173    -37.4115    -42.4176
H    6.8804    -38.4907    -40.983
H    8.7162    -39.4326    -43.04
H    7.067    -39.2264    -43.7216
H    7.9096    -40.8894    -41.3041
H    7.187    -41.463    -42.8453
H    5.1255    -41.2057    -41.975
H    5.4463    -39.4561    -41.7247
H    3.8884    -41.119    -39.9828
H    5.3273    -40.6024    -37.4839
H    4.7419    -43.0894    -36.8006
H    6.2443    -42.7458    -37.7233
H    5.0255    -43.2579    -39.8405
H    3.5693    -43.6767    -38.8758
H    4.8423    -45.5815    -39.4535
H    4.8464    -45.3667    -37.8215
H    6.1809    -44.9829    -38.7056
H    3.7727    -39.456    -36.4889
H    0.9518    -40.2249    -36.8201
H    1.242    -37.8835    -36.7491
H    2.5701    -36.7316    -35.0074
H    3.5808    -37.9028    -35.9204
H    2.9915    -38.3166    -34.2748
H    -0.376    -38.6801    -35.2767
H    -0.1701    -41.3485    -35.5023
H    0.1648    -43.36    -34.0505
H    -2.0038    -42.037    -34.2296
H    -1.5217    -41.2071    -32.7112
H    -1.1871    -43.5192    -31.6881
H    -1.9642    -44.1958    -33.1595
H    -3.4995    -43.8896    -31.3928
H    -3.8772    -42.9004    -32.6531
H    -3.165    -42.2803    -31.3048
H    2.5593    -43.0167    -31.5027
H    2.1304    -43.3226    -34.3927
H    2.4667    -45.7942    -34.2416
H    0.8874    -45.1939    -33.6318
H    3.0083    -45.4749    -31.5759
H    2.49    -47.0078    -32.3556
H    0.8841    -45.2313    -30.6489
H    4.0922    -41.947    -32.5861
H    6.3253    -41.5346    -32.8656
H    7.616    -43.8917    -32.2574
H    5.9977    -44.1486    -31.5214
H    8.0003    -41.9126    -31.0197
H    7.2005    -43.0003    -29.8348
H    6.2545    -40.8291    -29.8418
H    5.1489    -41.9351    -30.3556
H    5.8818    -40.9383    -31.4414
H    6.6613    -45.0223    -33.7285
H    7.2003    -44.0235    -36.4707
H    9.225    -45.5896    -34.8222
H    9.2811    -43.8139    -35.0879
H    11.5628    -44.9798    -35.6804
H    7.9733    -45.0006    -38.0107
H    12.8918    -45.3504    -37.7287
H    9.3012    -45.3955    -40.0522
H    11.7648    -45.5548    -39.9189
H    8.1549    -47.1162    -34.8017
H    6.1382    -48.3553    -36.6301
H    7.6813    -50.2932    -36.7769
H    8.8561    -49.4349    -35.7235
H    8.59    -47.5186    -37.562
H    10.5176    -48.5045    -38.7727
H    10.1671    -50.1029    -38.032
H    10.6847    -48.7281    -36.9983
H    6.8155    -48.7209    -38.8185
H    7.9387    -50.0978    -39.0817
H    8.2898    -48.4985    -39.8203
H    5.4841    -47.539    -33.8266
H    5.9185    -50.0583    -32.4162
H    4.5303    -49.0275    -30.5825
H    4.4037    -47.5525    -31.5998
H    6.8566    -47.372    -31.6836
H    7.0171    -48.8853    -30.7293
H    7.2527    -46.9513    -29.3926
H    5.9082    -47.7901    -28.9475
H    5.7612    -46.4033    -29.822
H    3.5468    -50.4082    -30.9221
H    2.1367    -51.8869    -33.0238
H    1.1629    -51.7792    -30.1741
H    2.712    -52.6169    -30.5279
H    1.4384    -54.4065    -31.0676
H    1.0378    -53.5061    -32.5695
H    -0.8929    -54.2463    -31.4242
H    -0.8344    -52.6014    -31.438
H    -0.4673    -53.4265    -30.0618
H    1.9317    -48.7903    -31.3676
H    -0.9247    -48.7401    -31.6621
H    0.7334    -47.6954    -33.941
H    -1.2371    -46.3929    -34.6675
H    -0.579    -45.773    -33.1153
H    -2.0655    -46.7814    -33.1218
H    -0.3322    -49.7576    -33.9827
