32

O    -30.7    -7.852    -1.039
C    -24.599    -7.251    0.692
C    -25.966    -6.835    0.671
C    -28.955    -9.71    -1.273
C    -24.759    -11.009    0.748
C    -25.195    -9.496    0.715
C    -26.598    -9.189    0.694
N    -27.608    -10.268    0.686
C    -28.953    -9.919    0.23
C    -30.047    -11.025    0.709
C    -31.375    -11.212    -0.221
C    -31.706    -10.149    -1.278
S    -30.467    -9.099    -1.722
O    -30.471    -8.899    -3.137
C    -26.978    -7.811    0.67
N    -24.282    -8.56    0.712
H    -23.8107    -6.507    0.6918
H    -26.2193    -5.7811    0.656
H    -28.775    -10.6683    -1.7821
H    -28.1673    -8.994    -1.5501
H    -23.661    -11.0739    0.7612
H    -25.1459    -11.5217    -0.145
H    -25.1655    -11.4881    1.6509
H    -27.3746    -11.2245    0.9885
H    -29.2288    -8.9626    0.6981
H    -30.3858    -10.7407    1.7162
H    -29.5357    -11.9978    0.7551
H    -32.2379    -11.2685    0.4589
H    -31.2632    -12.1689    -0.7519
H    -32.5335    -9.5388    -0.8869
H    -32.0357    -10.6754    -2.1858
H    -28.0234    -7.5249    0.6514
