35

P    17.864    -29.617    20.677
O    17.137    -30.584    19.77
O    16.871    -28.92    21.578
O    18.615    -28.601    19.852
C    21.882    -33.503    19.42
O    22.719    -32.438    19.033
C    21.033    -33.077    20.606
O    21.823    -32.441    21.593
C    19.954    -32.094    20.189
O    18.689    -32.681    20.399
C    20.163    -30.865    21.058
O    18.937    -30.407    21.585
C    21.121    -31.338    22.143
N    22.066    -30.304    22.624
C    21.984    -29.639    23.82
N    23.034    -28.788    23.92
C    23.794    -28.904    22.812
C    24.966    -28.271    22.411
N    25.548    -27.357    23.187
N    25.525    -28.601    21.194
C    24.92    -29.549    20.392
N    23.76    -30.17    20.803
C    23.202    -29.858    21.993
H    22.4982    -34.3691    19.7029
H    21.2267    -33.7778    18.5803
H    23.2846    -32.2014    19.7587
H    20.5613    -33.972    21.0379
H    20.0609    -31.8277    19.1271
H    18.0102    -32.0692    20.1393
H    20.6228    -30.0544    20.4737
H    20.5304    -31.6769    23.0069
H    21.2031    -29.7726    24.5672
H    26.4156    -26.896    22.8778
H    25.1302    -27.1117    24.0959
H    25.3595    -29.8058    19.4349
