37

C    -5.816    56.578    80.467
C    -9.787    52.001    76.816
C    -5.751    56.06    84.824
C    -5.568    56.455    83.563
C    -8.726    50.87    79.089
C    -7.829    54.264    79.979
C    -9.378    50.052    78.154
C    -9.382    46.98    80.068
O    -9.441    48.378    79.8
C    -9.492    48.66    78.381
C    -9.905    50.635    77.0
C    -9.137    52.808    77.753
C    -8.576    52.247    78.896
N    -7.954    52.909    79.891
O    -8.217    55.112    79.171
C    -7.323    54.661    81.145
C    -7.673    54.12    82.305
C    -7.021    54.769    83.25
S    -6.812    54.814    84.821
C    -6.273    55.73    82.68
N    -6.483    55.656    81.373
H    -6.1173    56.3576    79.4323
H    -4.7263    56.4634    80.5638
H    -6.1    57.6102    80.7196
H    -10.2078    52.4548    75.926
H    -5.2763    56.4921    85.7037
H    -4.9151    57.2792    83.2796
H    -8.3255    50.4201    79.9903
H    -9.3449    46.8163    81.1551
H    -8.4806    46.5551    79.6023
H    -10.275    46.4892    79.6537
H    -8.6631    48.1409    77.8776
H    -10.4495    48.3029    77.974
H    -10.4017    50.0233    76.2556
H    -9.0693    53.8773    77.5886
H    -7.5511    52.362    80.6249
H    -8.3685    53.2946    82.4496
