60

C    -2.166    -4.214    18.425
C    -0.987    -4.408    17.746
C    -0.194    -3.272    17.522
C    -1.903    -6.334    17.892
N    -0.634    -2.073    17.983
N    -2.637    -3.039    18.898
O    -5.469    -10.929    23.384
C    -4.56    -10.072    23.344
C    -3.76    -9.956    22.035
N    -2.875    -8.752    22.091
C    -4.653    -9.911    20.803
C    -3.901    -10.202    19.522
C    -4.761    -10.219    18.261
N    -4.254    -11.339    17.373
C    -4.97    -11.557    16.08
C    -4.484    -12.804    15.363
C    -5.152    -13.023    14.029
C    -4.745    -8.875    17.513
C    -5.201    -7.655    18.307
O    -4.166    -7.196    19.207
C    -5.517    -6.445    17.414
O    -6.843    -6.535    16.914
C    -5.258    -5.262    18.367
O    -6.373    -5.033    19.206
C    -4.029    -5.775    19.154
N    -2.753    -5.45    18.518
N    -0.829    -5.745    17.415
C    -1.813    -2.032    18.633
N    0.974    -3.312    16.877
O    -4.247    -9.3    24.28
H    -2.0986    -7.4015    17.8021
H    -3.1218    -10.8479    21.9507
H    -2.3524    -8.6789    21.2321
H    -2.2367    -8.8399    22.8662
H    -3.4392    -7.9256    22.2123
H    -5.0988    -8.9082    20.7286
H    -5.4508    -10.6592    20.9198
H    -3.4231    -11.1876    19.6228
H    -3.1272    -9.4302    19.3973
H    -5.8006    -10.4343    18.5487
H    -4.3124    -12.1957    17.901
H    -3.2893    -11.1426    17.1568
H    -4.8021    -10.6857    15.43
H    -6.046    -11.6611    16.2832
H    -4.6867    -13.6759    16.0023
H    -3.4    -12.713    15.1999
H    -4.7553    -13.9387    13.5663
H    -4.9506    -12.1636    13.3726
H    -6.2373    -13.1265    14.175
H    -5.404    -8.9707    16.6375
H    -3.7139    -8.6903    17.1774
H    -6.0978    -7.9323    18.8804
H    -4.8265    -6.3962    16.5591
H    -7.0248    -5.7818    16.3644
H    -5.0223    -4.341    17.8136
H    -6.5428    -5.8107    19.7244
H    -4.0399    -5.3499    20.1685
H    -2.1283    -1.0558    18.9833
H    1.5165    -2.4472    16.7399
H    1.3328    -4.2076    16.5164
