132

N    16.468    15.183    11.846
C    17.545    15.357    12.814
C    18.646    16.294    12.284
O    19.137    16.14    11.164
C    18.113    13.994    13.284
C    19.168    14.053    14.413
C    18.597    14.351    15.798
N    19.659    14.435    16.811
C    19.483    14.836    18.069
N    18.281    15.203    18.496
N    20.511    14.878    18.907
N    19.013    17.269    13.12
C    19.993    18.319    12.867
C    21.433    17.773    12.877
O    21.693    16.667    13.345
C    19.744    19.514    13.853
C    20.86    20.076    14.722
C    20.999    19.394    16.073
N    21.984    18.315    16.012
C    22.71    17.889    17.036
N    22.578    18.448    18.232
N    23.574    16.9    16.875
N    22.349    18.554    12.325
C    23.754    18.207    12.262
C    24.585    19.201    13.062
O    24.274    20.388    13.136
C    24.213    18.201    10.817
N    25.628    18.699    13.68
C    26.603    19.519    14.384
C    26.552    19.409    15.912
O    27.004    18.125    16.283
C    27.927    19.251    13.664
O    27.993    18.311    12.854
P    26.924    17.798    17.777
O    26.9    16.309    17.909
O    28.246    18.26    18.357
O    25.651    18.259    18.51
N    28.948    20.103    13.897
C    30.298    19.985    13.291
C    30.836    18.53    13.285
O    30.736    17.831    14.305
C    31.269    20.905    14.001
N    31.351    18.035    12.135
C    31.844    16.655    12.095
C    33.197    16.456    12.788
O    33.812    17.417    13.255
C    31.913    16.367    10.597
C    32.258    17.687    9.997
C    31.552    18.712    10.836
N    33.663    15.199    12.855
C    34.949    14.875    13.46
C    36.12    15.333    12.573
O    36.095    15.08    11.359
C    35.042    13.357    13.732
C    35.023    12.846    15.177
C    35.024    13.961    16.189
C    33.898    11.915    15.395
N    37.172    15.962    13.171
C    38.34    16.374    12.361
C    39.203    15.215    11.836
O    38.877    14.035    11.997
C    39.135    17.267    13.315
C    38.76    16.8    14.694
C    37.341    16.325    14.6
O    40.261    15.413    11.23
H    15.7692    14.5653    12.2283
H    16.8397    14.7855    10.9976
H    16.0507    16.0778    11.6432
H    17.1081    15.8446    13.6979
H    18.5771    13.5049    12.4149
H    17.2708    13.3836    13.6419
H    19.8942    14.8408    14.164
H    19.6813    13.081    14.4548
H    17.8991    13.548    16.0774
H    18.0585    15.3096    15.7642
H    20.6109    14.1633    16.5266
H    18.1527    15.5119    19.4702
H    17.4766    15.1789    17.8532
H    21.4483    14.5956    18.5868
H    20.3716    15.193    19.8777
H    18.568    17.2802    14.0155
H    19.8121    18.7002    11.8511
H    18.9499    19.188    14.5408
H    19.3775    20.3505    13.2399
H    20.6596    21.1439    14.8934
H    21.8101    19.9637    14.1792
H    20.025    18.9766    16.368
H    21.3217    20.1348    16.8193
H    22.1245    17.8503    15.1036
H    23.1455    18.1118    19.0231
H    21.908    19.2182    18.3694
H    23.685    16.4584    15.9511
H    24.1356    16.5717    17.6736
H    22.0565    19.426    11.9324
H    23.893    17.2022    12.6876
H    25.28    17.9372    10.7723
H    24.0636    19.1996    10.3806
H    23.6285    17.4617    10.2497
H    25.759    17.7077    13.6667
H    26.3495    20.5695    14.1788
H    25.5187    19.5537    16.2603
H    27.2011    20.1751    16.3612
H    28.7834    20.8667    14.5212
H    30.2212    20.313    12.2439
H    32.2652    20.8096    13.5443
H    31.3252    20.6288    15.0643
H    30.9221    21.9449    13.9101
H    31.1157    15.9856    12.576
H    30.9434    16.0075    10.2219
H    32.6909    15.6211    10.3767
H    31.9087    17.7377    8.9552
H    33.3455    17.8496    10.0275
H    32.1718    19.6127    10.9564
H    30.5872    18.9883    10.3858
H    33.1081    14.4583    12.4763
H    35.0196    15.4051    14.4213
H    35.9832    13.0085    13.2819
H    34.1923    12.8868    13.2154
H    35.9515    12.276    15.3287
H    35.01    13.5355    17.2033
H    34.1333    14.5897    16.0428
H    35.9294    14.5722    16.0603
H    33.9308    11.1168    14.6388
H    32.9475    12.462    15.3096
H    33.9775    11.4725    16.3989
H    37.9956    16.9577    11.4946
H    38.8583    18.3226    13.1764
H    40.2153    17.146    13.147
H    38.8382    17.6293    15.4124
H    39.4179    15.9772    15.0106
H    37.179    15.4499    15.2465
H    36.6422    17.1254    14.8844
