37

C    27.702    0.35    -0.415
C    27.506    1.258    -1.644
C    27.226    0.393    -2.889
C    26.236    4.784    -1.043
C    25.477    5.341    -2.232
C    24.047    6.958    -4.126
C    23.268    7.719    -4.974
C    22.556    8.78    -4.475
C    22.593    9.115    -3.13
C    21.853    10.217    -2.614
C    26.345    2.267    -1.407
N    26.981    3.578    -1.36
O    24.851    6.574    -1.841
C    24.109    7.266    -2.769
F    21.793    9.524    -5.31
N    21.251    11.113    -2.195
C    23.384    8.342    -2.273
C    28.292    3.567    -1.638
O    29.004    4.56    -1.697
C    28.75    2.155    -1.866
H    26.8089    -0.2769    -0.2762
H    27.8562    0.9716    0.4793
H    28.5808    -0.2931    -0.5706
H    27.0866    1.0445    -3.7643
H    26.3148    -0.2011    -2.7254
H    28.0767    -0.2815    -3.0658
H    25.5156    4.5514    -0.2449
H    26.9421    5.5491    -0.6881
H    24.7093    4.621    -2.5516
H    26.1741    5.5267    -3.0624
H    24.6115    6.1192    -4.5168
H    23.219    7.4792    -6.03
H    25.8348    2.0516    -0.4566
H    25.6188    2.2201    -2.2319
H    23.4312    8.5839    -1.2174
H    29.1272    2.0372    -2.8926
H    29.5434    1.891    -1.1513
