13

N    -2.405    -14.191    -17.815
C    -1.842    -15.363    -17.48
C    -1.308    -15.587    -16.192
C    -1.352    -14.548    -15.277
C    -1.906    -13.344    -15.633
C    -2.42    -13.218    -16.89
N    -1.81    -16.319    -18.434
H    -0.8758    -16.5451    -15.9268
H    -0.949    -14.6859    -14.2802
H    -1.9343    -12.5157    -14.9342
H    -2.8704    -12.2697    -17.1601
H    -1.3893    -17.2367    -18.2296
H    -2.2063    -16.1302    -19.3658
