22

C    13.833    30.172    -17.817
C    15.077    29.647    -17.421
C    15.667    28.766    -18.267
C    16.747    27.983    -18.126
C    16.893    27.339    -19.292
C    15.609    30.138    -16.204
C    14.932    31.072    -15.412
F    19.07    26.584    -18.968
C    17.972    26.322    -19.652
F    18.219    26.425    -20.993
F    17.555    25.089    -19.382
N    15.96    27.695    -20.162
O    15.201    28.583    -19.552
C    13.155    31.108    -17.039
Br    11.508    31.775    -17.562
C    13.702    31.551    -15.843
Br    15.624    31.747    -13.765
O    16.803    29.698    -15.74
H    13.3916    29.8402    -18.7498
H    17.3774    27.8896    -17.2429
H    13.1655    32.2757    -15.2413
H    17.3956    30.4344    -15.6454
