35

N    18.839    20.431    9.612
N    19.151    19.22    11.577
C    19.632    18.193    12.263
C    17.788    21.216    10.012
C    17.545    22.092    9.018
C    18.467    21.835    7.998
C    18.809    19.138    14.335
C    17.648    21.166    15.861
C    17.015    21.164    11.312
C    17.13    19.876    15.91
C    18.763    21.433    15.075
C    18.54    22.536    6.687
C    19.411    19.363    10.288
N    19.243    20.855    8.349
N    20.097    18.435    9.61
C    20.363    17.207    11.578
N    19.378    18.07    13.618
C    20.586    17.356    10.218
Cl    21.011    15.815    12.387
Cl    16.951    22.427    16.838
C    19.356    20.425    14.327
C    17.706    18.869    15.147
H    16.7725    22.8595    9.01
H    16.2335    21.9381    11.3051
H    17.7004    21.3425    12.1536
H    16.5491    20.1737    11.4222
H    16.2777    19.6571    16.5431
H    19.1727    22.4362    15.0459
H    19.3662    22.1179    6.0932
H    18.715    23.609    6.8542
H    17.5928    22.399    6.1447
H    19.607    17.1913    14.1042
H    21.1452    16.6118    9.6626
H    20.2413    20.6351    13.7379
H    17.2959    17.8662    15.1822
