54

C    2.042    -12.462    -4.123
C    -4.691    -6.162    -4.057
C    1.256    -11.224    -3.795
C    -0.638    -10.336    -5.242
C    -2.371    -7.544    -4.765
C    -1.175    -8.009    -5.344
C    -0.932    -7.219    -6.367
C    -2.032    -5.249    -7.558
C    -2.871    -6.488    -5.541
C    -3.115    -7.948    -3.653
C    -4.271    -7.251    -3.329
N    0.12    -11.324    -4.707
N    -0.393    -9.103    -4.929
C    1.052    -13.487    -4.423
N    -1.958    -6.274    -6.54
O    -2.013    -12.765    -3.568
C    -1.477    -13.234    -4.54
C    -0.133    -12.727    -4.95
N    -0.911    -5.1    -8.263
O    -3.038    -4.633    -7.745
C    -4.029    -5.797    -5.223
O    -1.548    -10.575    -6.032
N    -2.023    -14.215    -5.277
C    -3.244    -14.807    -5.098
C    -3.648    -15.201    -3.829
C    -4.848    -15.898    -3.686
C    -5.604    -16.227    -4.8
C    -5.145    -15.838    -6.054
O    -5.863    -16.194    -7.201
C    -6.744    -15.304    -7.628
F    -7.508    -14.915    -6.654
F    -7.519    -15.716    -8.589
F    -6.137    -14.217    -8.024
C    -3.943    -15.173    -6.208
H    2.6589    -12.764    -3.2638
H    2.6889    -12.2862    -4.9951
H    -5.544    -5.5848    -3.7189
H    1.8445    -10.3154    -3.9903
H    0.9257    -11.2285    -2.7458
H    -0.0483    -7.2882    -6.9996
H    -2.7945    -8.7921    -3.0531
H    -4.8596    -7.5741    -2.478
H    0.4041    -8.9163    -4.3548
H    0.7826    -14.0446    -3.5139
H    1.434    -14.1856    -5.182
H    -0.1154    -12.855    -6.0424
H    -0.865    -4.4151    -8.9902
H    -0.1158    -5.6731    -8.0648
H    -4.4038    -5.003    -5.8587
H    -1.4754    -14.551    -6.0434
H    -3.0396    -14.9702    -2.962
H    -5.191    -16.1838    -2.6982
H    -6.5331    -16.7757    -4.6962
H    -3.5625    -14.9462    -7.1974
