25

N    -6.03    -24.426    -32.216
N    -5.082    -25.145    -29.126
C    -6.656    -26.143    -30.672
C    -6.258    -26.142    -29.165
C    -5.412    -23.05    -31.921
C    -9.223    -25.499    -30.677
C    -5.822    -27.472    -28.473
C    -7.81    -25.249    -31.17
N    -7.466    -24.319    -31.992
C    -4.324    -25.366    -30.438
C    -5.459    -25.631    -31.455
O    -9.445    -26.562    -30.05
O    -6.602    -28.447    -28.529
O    -10.093    -24.631    -30.93
O    -4.717    -27.543    -27.88
H    -4.4845    -25.334    -28.3365
H    -5.4231    -24.1981    -29.0702
H    -6.8866    -27.1824    -30.9484
H    -7.1093    -25.7491    -28.5897
H    -4.3246    -23.0947    -32.0806
H    -5.6182    -22.7716    -30.877
H    -5.8508    -22.299    -32.5943
H    -3.6495    -26.2317    -30.3639
H    -3.7451    -24.4728    -30.7155
H    -5.1061    -26.3798    -32.1794
