74

C    18.421    -6.929    -0.766
C    18.068    -8.15    -1.571
C    19.001    -9.229    -1.214
C    20.431    -8.83    -1.301
O    21.711    -5.191    -0.088
O    26.701    -12.767    -2.627
C    27.358    -11.881    -2.062
C    28.863    -11.743    -2.227
N    26.712    -10.914    -1.274
C    25.243    -11.069    -1.088
C    24.78    -10.223    0.134
N    25.208    -10.901    1.372
C    26.434    -10.572    1.846
C    26.816    -11.454    3.004
O    27.132    -9.637    1.423
O    24.558    -10.495    -2.167
C    23.157    -10.579    -2.171
C    22.643    -10.035    -3.519
O    22.835    -8.618    -3.736
C    22.66    -9.69    -1.001
C    23.236    -10.206    0.267
O    22.955    -9.351    1.411
O    21.292    -9.835    -0.836
O    18.814    -10.294    -2.218
O    18.008    -7.119    0.665
C    19.905    -6.569    -0.873
C    20.329    -5.395    -0.012
O    20.693    -7.699    -0.439
O    16.755    -8.51    -1.295
C    15.821    -7.801    -2.121
C    14.454    -8.485    -2.037
C    13.371    -7.91    -2.653
C    12.134    -8.572    -2.548
C    11.966    -9.785    -1.877
C    13.034    -10.394    -1.313
C    14.29    -9.731    -1.396
O    12.835    -11.618    -0.646
C    13.913    -12.312    0.063
H    17.8472    -6.0836    -1.1735
H    18.1635    -7.9275    -2.644
H    18.7767    -9.593    -0.2005
H    20.6696    -8.5811    -2.3456
H    22.1621    -5.9703    0.2148
H    29.2202    -10.8891    -1.6327
H    29.1019    -11.5769    -3.2878
H    29.3559    -12.6631    -1.8798
H    27.2153    -10.1569    -0.8575
H    24.9839    -12.1311    -0.966
H    25.186    -9.2031    0.0636
H    24.6248    -11.5675    1.8365
H    27.813    -11.1674    3.3699
H    26.8339    -12.5036    2.6753
H    26.0805    -11.3357    3.8133
H    22.8255    -11.6186    -2.0318
H    21.5646    -10.2432    -3.5788
H    23.1657    -10.5741    -4.3228
H    22.4885    -8.3794    -4.5878
H    22.9336    -8.6387    -1.1736
H    22.8496    -11.2187    0.4546
H    23.3217    -8.4881    1.2577
H    19.3873    -11.0236    -2.0146
H    17.0695    -7.2604    0.7065
H    20.1296    -6.3369    -1.9245
H    19.8119    -4.4886    -0.3598
H    20.0521    -5.597    1.0332
H    16.1724    -7.8081    -3.1633
H    15.7346    -6.762    -1.7703
H    13.4651    -6.9793    -3.2007
H    11.2665    -8.1169    -3.012
H    10.9831    -10.237    -1.8083
H    15.1571    -10.2028    -0.9481
H    13.5232    -13.2416    0.5033
H    14.3036    -11.6638    0.8613
H    14.7215    -12.5517    -0.6432
