29

C    59.786    67.055    60.67
C    59.219    66.835    59.27
C    57.046    65.875    60.272
C    58.607    67.131    61.668
C    57.682    65.825    61.656
C    58.192    65.691    59.242
C    60.794    68.222    60.706
O    61.554    68.186    61.957
O    57.941    68.33    61.369
O    56.105    64.853    60.206
O    57.663    65.635    57.929
O    60.33    66.532    58.363
S    57.1    69.054    62.446
O    58.15    69.559    63.394
O    56.337    68.064    63.193
O    56.341    70.0    61.65
H    60.3609    66.1557    60.9359
H    58.7225    67.7589    58.9385
H    56.5507    66.8431    60.1066
H    59.0182    67.214    62.6849
H    58.283    64.9126    61.7832
H    56.9175    65.8736    62.4454
H    58.7084    64.7464    59.4679
H    60.2503    69.1758    60.6369
H    61.4864    68.1322    59.856
H    62.0246    67.3629    62.0168
H    56.5291    64.0216    60.3834
H    58.3726    65.5224    57.3075
H    59.9971    66.4311    57.479
