25

C    90.667    95.47    -44.747
C    90.76    94.298    -45.51
C    91.246    93.104    -44.963
C    91.651    93.07    -43.614
C    91.571    94.244    -42.837
C    91.082    95.435    -43.415
N    92.176    91.91    -42.994
C    91.497    90.815    -42.509
C    92.411    89.935    -41.967
C    93.693    90.509    -42.119
C    93.522    91.718    -42.753
I    92.168    94.239    -40.79
I    91.275    91.476    -46.313
C    90.141    96.738    -45.366
O    89.745    96.516    -46.715
O    90.967    96.608    -42.713
H    90.4484    94.3162    -46.5481
H    90.4186    90.668    -42.5468
H    92.1856    88.9742    -41.5065
H    94.6384    90.0761    -41.7953
H    94.3184    92.4107    -43.0211
H    90.9297    97.5044    -45.3433
H    89.2728    97.088    -44.7884
H    90.493    96.2165    -47.2182
H    91.8226    96.87    -42.3939
