68

O    0.532    -4.98    -15.159
P    1.271    -4.496    -13.973
O    2.458    -3.723    -14.433
O    0.305    -3.801    -13.087
O    1.818    -5.759    -13.178
C    2.786    -6.633    -13.747
C    2.84    -7.939    -12.994
O    3.309    -7.662    -11.645
C    1.487    -8.639    -12.86
O    1.61    -10.056    -13.006
C    1.016    -8.26    -11.453
O    0.203    -9.233    -10.826
C    2.329    -8.031    -10.689
N    2.216    -6.922    -9.731
C    1.87    -5.631    -10.056
N    1.809    -4.805    -9.034
C    2.139    -5.606    -7.959
C    2.245    -5.308    -6.589
N    2.021    -4.084    -6.098
N    2.586    -6.312    -5.758
C    2.802    -7.526    -6.277
N    2.73    -7.932    -7.545
C    2.389    -6.912    -8.358
P    0.5    -10.885    -13.846
O    -0.814    -10.672    -13.191
O    0.976    -12.258    -14.136
O    0.39    -10.131    -15.245
C    1.533    -9.907    -16.056
C    1.261    -8.846    -17.091
O    2.528    -8.415    -17.648
C    0.406    -9.3    -18.272
O    -0.368    -8.2    -18.757
C    1.453    -9.693    -19.308
O    1.007    -9.627    -20.645
C    2.568    -8.681    -19.033
N    3.904    -9.204    -19.338
C    4.86    -8.679    -20.172
N    5.955    -9.397    -20.246
C    5.706    -10.471    -19.404
C    6.474    -11.588    -19.037
N    7.696    -11.849    -19.496
N    5.931    -12.464    -18.17
C    4.7    -12.232    -17.696
N    3.881    -11.222    -17.965
C    4.448    -10.364    -18.837
H    3.7744    -6.152    -13.7052
H    2.5192    -6.8324    -14.7953
H    3.5409    -8.6135    -13.5077
H    0.7828    -8.2618    -13.6162
H    0.4416    -7.3231    -11.5001
H    -0.5762    -9.378    -11.3496
H    2.6222    -8.9516    -10.1631
H    1.663    -5.3176    -11.0782
H    2.1102    -3.9105    -5.0866
H    1.7594    -3.315    -6.7313
H    3.0759    -8.2926    -5.5612
H    1.8029    -10.8445    -16.5642
H    2.3684    -9.5819    -15.4185
H    0.7593    -8.0013    -16.5963
H    -0.2473    -10.1444    -18.007
H    -0.8982    -8.4867    -19.4913
H    1.8053    -10.7172    -19.1158
H    1.7127    -9.8852    -21.2262
H    2.3899    -7.7643    -19.6144
H    4.7215    -7.7497    -20.7227
H    8.1965    -12.6913    -19.1782
H    8.141    -11.2087    -20.169
H    4.3206    -12.9692    -16.9976
