88

C    -9.041    17.332    17.307
C    -9.529    15.886    17.376
C    -8.802    14.963    16.381
C    -9.748    18.169    18.376
C    -22.651    9.197    17.44
C    -22.863    9.532    16.099
C    -22.212    8.827    15.088
C    -21.346    7.786    15.419
C    -21.139    7.454    16.76
C    -21.784    8.153    17.778
C    -21.553    7.799    19.112
O    -20.25    8.255    19.499
C    -19.919    7.903    20.843
C    -18.778    8.791    21.341
C    -17.554    8.404    21.65
N    -18.863    10.097    21.54
N    -17.767    10.485    21.948
N    -16.94    9.523    22.024
C    -15.562    9.637    22.508
C    -14.877    10.943    22.119
O    -14.553    10.896    20.727
O    -15.791    9.612    23.919
C    -14.581    9.67    24.685
C    -14.906    9.456    26.172
O    -16.2    9.967    26.454
C    -13.909    11.01    24.429
O    -12.683    11.097    25.172
C    -13.604    11.129    22.943
O    -13.089    12.45    22.716
C    -11.873    12.502    21.984
C    -11.538    13.968    21.759
O    -12.578    14.581    20.978
O    -10.843    11.896    22.766
C    -9.572    11.887    22.099
C    -8.598    11.163    23.033
O    -8.493    11.861    24.278
C    -9.118    13.329    21.821
O    -7.907    13.298    21.05
C    -10.194    14.081    21.046
O    -9.814    15.463    20.969
C    -10.043    16.067    19.686
O    -9.26    15.394    18.693
O    -7.425    14.824    16.75
O    -9.334    17.885    16.018
O    -9.159    19.475    18.414
C    -9.614    17.525    19.753
O    -10.431    18.237    20.684
H    -7.9549    17.3577    17.479
H    -10.6097    15.8592    17.1728
H    -8.8657    15.3951    15.3715
H    -9.2814    13.973    16.387
H    -10.8144    18.2539    18.1199
H    -23.161    9.7491    18.2211
H    -23.536    10.3429    15.8448
H    -22.3784    9.0871    14.0489
H    -20.8345    7.2355    14.6377
H    -20.4673    6.6414    17.012
H    -21.607    6.7054    19.2177
H    -22.3131    8.2675    19.7545
H    -19.6048    6.8494    20.8785
H    -20.8002    8.0447    21.4859
H    -17.141    7.3972    21.6081
H    -14.9487    8.788    22.1717
H    -15.5584    11.7854    22.309
H    -13.9694    10.1644    20.5634
H    -13.9043    8.8676    24.356
H    -14.1622    9.9817    26.7888
H    -14.8789    8.3806    26.4018
H    -16.8418    9.5124    25.9211
H    -14.5821    11.824    24.7361
H    -12.2718    11.937    25.0051
H    -12.8598    10.3738    22.6501
H    -11.9775    11.9792    21.0218
H    -11.4716    14.4781    22.7313
H    -13.404    14.5113    21.4422
H    -9.6484    11.3431    21.1459
H    -7.6068    11.1163    22.5584
H    -8.964    10.1425    23.2188
H    -9.3478    11.9008    24.6906
H    -8.9325    13.843    22.7757
H    -7.6215    14.187    20.875
H    -10.2807    13.661    20.033
H    -11.1099    16.0009    19.4266
H    -7.368    14.4492    17.6211
H    -9.0241    18.7823    15.9817
H    -8.2359    19.3989    18.6255
H    -8.5644    17.5767    20.0782
H    -10.342    17.8461    21.5453
