42

C         48.63700       25.49200       52.58900
O         50.01900       24.23700       51.18600
C         53.66100       22.66600       57.08900
C         49.80300       24.73600       52.27700
C         48.23300       26.03500       53.79100
O         50.55600       24.64400       53.41300
C         50.74500       23.29300       56.06100
C         51.38300       24.67500       56.25800
N         53.12100       23.09300       55.79600
C         52.79000       24.53000       55.66500
C         52.83800       24.86900       54.16400
C         51.84800       22.46400       55.38100
C         51.78400       22.56200       53.84800
C         51.88200       24.00900       53.33900
C         45.57900       27.14700       50.24800
C         46.66800       26.61600       52.30800
C         47.65100       25.87100       51.62100
C         47.59500       25.79400       50.22600
C         46.56500       26.43600       49.55000
N         47.05000       26.69200       53.63100
C         45.62500       27.24900       51.63600
H         54.58550       23.20670       57.29160
H         52.93450       22.87940       57.87310
H         53.86340       21.59530       57.06110
H         48.77950       25.95090       54.73030
H         49.83620       23.34040       55.46110
H         50.41920       22.85150       57.00280
H         51.40790       24.97000       57.30700
H         50.81120       25.46450       55.77030
H         53.91710       22.81040       55.22440
H         53.47270       25.20580       56.18000
H         53.85120       24.68060       53.80900
H         52.54080       25.91090       54.04490
H         51.74410       21.41570       55.66100
H         50.82290       22.15990       53.52770
H         52.63030       22.00750       53.44250
H         52.25760       23.95040       52.31740
H         44.76790       27.62500       49.69860
H         48.35170       25.23600       49.67460
H         46.52300       26.38620       48.46200
H         44.86550       27.80890       52.18170
H         46.54849       27.14776       54.34515
