21

O    26.212    15.961    -8.457
C    25.132    16.441    -8.152
N    23.945    15.823    -8.266
C    24.949    17.823    -7.573
C    24.96    18.875    -8.684
C    26.233    18.931    -9.514
C    26.017    18.173    -6.564
C    23.543    17.674    -6.967
C    23.044    16.36    -7.563
O    21.923    15.882    -7.376
H    23.7912    15.0229    -8.8458
H    24.8137    19.8613    -8.2195
H    24.1211    18.6612    -9.3627
H    26.1374    19.7153    -10.2794
H    26.3949    17.9591    -10.0031
H    27.0875    19.1592    -8.8599
H    26.0201    17.4238    -5.7586
H    25.8093    19.1664    -6.1398
H    26.9994    18.1836    -7.0587
H    22.8951    18.5124    -7.2626
H    23.5905    17.6165    -5.8695
