297

N         18.16300      -35.89700       24.48200
C         17.45900      -35.48700       23.27100
C         16.53800      -34.33100       23.61600
O         16.26400      -34.09200       24.79000
C         16.65300      -36.64700       22.69200
O         15.57600      -36.95200       23.58000
C         17.52000      -37.89400       22.55300
C         15.56700      -30.49600       21.32300
C         16.89800      -30.93800       20.70900
C         17.61200      -29.73300       20.07500
C         17.88600      -28.68000       21.15000
C         16.56500      -28.22700       21.77300
C         15.84600      -29.43900       22.39700
O         13.29200      -32.39300       24.49300
N         16.03800      -33.59700       22.62000
C         15.12900      -32.51200       22.96900
C         13.83600      -33.03000       23.58700
C         14.80000      -31.68700       21.77300
C         14.69400      -29.86700       20.22500
C         15.40900      -28.66900       19.60700
C         15.67700      -27.62100       20.68900
C         16.72200      -29.13400       18.99000
N         13.30800      -34.15800       23.09400
C         12.11200      -34.73500       23.70300
C         12.35100      -35.07600       25.17000
O         11.50300      -34.80900       26.03600
C         11.68300      -35.98500       22.93600
C         10.44500      -36.65200       23.50400
C         10.50700      -37.92200       24.08000
C          9.20200      -36.01100       23.46400
C          9.35500      -38.53400       24.59200
C          8.05300      -36.61100       23.98200
C          8.13600      -37.86900       24.53400
O          7.00500      -38.46900       25.04100
N         13.48900      -35.69800       25.46900
C         13.80600      -35.99800       26.85600
C         13.94000      -34.71600       27.66600
O         13.51900      -34.66000       28.82800
C         15.07900      -36.83400       26.93100
N         14.50700      -33.66300       27.06400
C         14.57200      -32.38100       27.75900
C         13.18000      -31.83500       28.02900
O         12.93900      -31.22400       29.07600
C         15.36300      -31.35400       26.94800
C         16.84400      -31.62500       26.93300
O         17.31700      -32.53700       27.65500
O         17.53800      -30.89200       26.19400
N         12.26000      -32.01700       27.07800
C         10.89100      -31.55400       27.27000
C         10.25500      -32.27500       28.44800
O          9.64200      -31.64900       29.31500
C         10.10600      -31.77900       25.98400
C          8.63600      -31.39200       26.04000
C          7.67300      -32.30000       25.64000
C          8.22400      -30.11900       26.41900
C          6.30700      -31.95200       25.62600
C          6.86700      -29.78200       26.41400
C          5.91900      -30.70500       26.01900
N         10.41500      -33.60000       28.50800
C          9.86800      -34.36100       29.63100
C         10.50200      -33.90300       30.94300
O          9.81800      -33.77800       31.96800
C         10.06200      -35.87200       29.39300
C          9.44600      -36.31100       28.05100
C          9.47800      -36.69300       30.55100
C          7.99600      -35.91100       27.84200
N         11.81200      -33.62200       30.92700
C         12.51000      -33.20100       32.13400
C         12.03900      -31.84600       32.63900
O         12.17200      -31.56100       33.83100
C         14.01500      -33.14400       31.87500
N         11.50600      -30.99600       31.75600
C         11.07900      -29.66000       32.16500
C          9.90300      -29.69900       33.12200
O          9.65500      -28.71000       33.81700
C         10.67700      -28.81500       30.95200
O          9.41700      -29.22000       30.45500
N          9.15800      -30.79700       33.13300
C          7.93200      -30.87200       33.88900
C          6.81500      -29.99900       33.36900
O          5.79900      -29.84900       34.05200
N          6.95400      -29.43100       32.17500
C          5.90900      -28.60200       31.59200
C          5.28100      -29.27200       30.36900
O          5.04200      -28.63300       29.34000
C          6.45900      -27.21800       31.26800
C          6.91200      -26.51000       32.56900
C          7.43000      -25.11000       32.35500
N          6.42100      -24.23600       31.75400
C          5.55100      -23.50000       32.44300
N          4.67400      -22.74200       31.79900
N          5.54400      -23.52700       33.77600
N          4.97400      -30.57500       30.48900
C          4.30300      -31.31000       29.42400
C          2.78400      -31.28200       29.55100
O          2.09100      -31.68600       28.60900
C          4.75400      -32.77400       29.36400
O          4.27500      -33.48200       30.51400
C          6.29300      -32.90100       29.25200
N          2.25500      -30.84500       30.69000
C          0.82700      -30.76600       30.89500
C          0.27300      -29.41400       30.49100
O          0.96200      -28.55900       29.92600
N         -1.01200      -29.22400       30.78000
C         -1.63700      -27.96000       30.42200
C         -0.97000      -26.82000       31.17400
O         -0.67500      -26.92600       32.36900
C         -3.12800      -27.99600       30.71500
C         -3.86400      -28.93400       29.81500
C         -5.35500      -28.97600       30.07300
N         -5.98100      -29.49200       28.87400
C         -6.08400      -30.78700       28.56000
N         -5.62200      -31.73100       29.40100
N         -6.63700      -31.13500       27.39100
N         -0.71500      -25.73100       30.45500
C          0.03800      -24.60500       30.97600
C         -0.89700      -23.46100       31.33200
O         -1.73000      -23.05400       30.51500
C          1.06600      -24.15600       29.94800
C          2.09700      -25.22500       29.67900
C          2.75500      -25.11000       28.31600
N          1.82300      -25.39200       27.22500
C          2.17700      -25.77000       26.00400
N          3.46000      -25.91600       25.66500
N          1.24300      -25.99100       25.09700
N         -0.73500      -22.93200       32.54300
C         -1.51900      -21.79100       32.97700
C         -0.96100      -20.48800       32.43200
O          0.24200      -20.34400       32.20200
C         -1.54900      -21.69900       34.49900
C         -2.20900      -22.88300       35.12500
O         -3.17200      -23.42900       34.58200
N         -1.68500      -23.31500       36.25600
N         -1.86000      -19.53000       32.25000
C         -1.46000      -18.15300       32.02100
C         -0.72200      -17.60700       33.23700
O         -0.92200      -18.05400       34.36800
C         -2.68300      -17.29000       31.74500
N          0.13000      -16.62200       32.99500
C          0.87900      -15.97800       34.06900
C         -0.01800      -15.02800       34.84700
O          0.31700      -14.63900       35.97500
C          2.10000      -15.25200       33.52100
C          1.68800      -14.16500       32.53500
C          3.01000      -16.23500       32.83700
C          2.83800      -13.28300       32.07600
O         -1.08300      -14.62600       34.37900
H         18.69320      -35.10700       24.84960
H         17.48590      -36.20730       25.17890
H         18.80010      -36.66220       24.26090
H         18.18370      -35.17700       22.51820
H         16.28290      -36.35400       21.70950
H         15.01710      -36.17800       23.68110
H         17.90790      -38.17620       23.53180
H         16.91950      -38.70940       22.14980
H         18.35010      -37.68450       21.87840
H         16.70670      -31.68630       19.93990
H         17.53080      -31.35870       21.49050
H         18.55590      -30.05600       19.63590
H         18.38610      -27.82320       20.69850
H         18.52280      -29.10930       21.92350
H         16.76470      -27.48400       22.54510
H         16.48090      -29.87280       23.16950
H         14.90100      -29.11050       22.82970
H         16.28320      -33.78840       21.64860
H         15.64540      -31.89760       23.70650
H         14.95930      -32.38930       20.95480
H         13.83750      -31.25450       22.04610
H         13.75310      -29.53440       20.66340
H         14.50520      -30.60940       19.44960
H         14.78550      -28.22440       18.83130
H         16.17890      -26.76070       20.24610
H         14.73200      -27.30200       21.12880
H         16.51850      -29.88870       18.23030
H         17.22910      -28.28410       18.53320
H         13.74180      -34.61500       22.29190
H         11.31500      -33.99300       23.65350
H         12.49980      -36.70390       23.00030
H         11.44990      -35.67840       21.91630
H         11.46260      -38.44370       24.13210
H          9.12910      -35.01930       23.01760
H          9.41480      -39.52840       25.03430
H          7.09760      -36.08730       23.94960
H          6.25360      -37.88310       24.92420
H         14.13690      -35.96350       24.72730
H         12.98970      -36.57720       27.28750
H         14.93230      -37.76660       26.38620
H         15.90410      -36.27780       26.48610
H         15.30740      -37.05310       27.97410
H         14.89180      -33.75620       26.12400
H         15.07950      -32.55580       28.70770
H         15.20990      -30.37880       27.41020
H         15.00780      -31.40100       25.91860
H         12.51780      -32.48450       26.20890
H         10.88480      -30.48820       27.49820
H         10.13830      -32.84990       25.78320
H         10.56540      -31.14640       25.22450
H          7.97480      -33.30060       25.33060
H          8.96430      -29.37860       26.72210
H          5.56200      -32.67850       25.30160
H          6.55550      -28.78450       26.72380
H          4.86240      -30.43740       26.02130
H         10.92150      -34.08370       27.76650
H          8.79670      -34.17380       29.70500
H         11.13450      -36.06150       29.34850
H          9.47500      -37.40050       28.03540
H         10.02190      -35.81920       27.26710
H          9.97980      -36.41820       31.47880
H          8.41120      -36.48730       30.63870
H          9.62980      -37.75440       30.35490
H          7.38150      -36.35450       28.62550
H          7.91050      -34.82510       27.88240
H          7.65880      -36.26730       26.86860
H         12.33050      -33.70450       30.05250
H         12.28380      -33.93920       32.90340
H         14.36950      -34.13200       31.58130
H         14.21810      -32.43130       31.07570
H         14.52710      -32.82820       32.78390
H         11.39590      -31.28390       30.78370
H         11.93510      -29.21380       32.67110
H         11.42330      -28.94660       30.16850
H         10.61620      -27.76990       31.25570
H          9.18440      -28.67900       29.69680
H          9.45990      -31.60820       32.59340
H          8.16000      -30.52780       34.89780
H          7.58380      -31.90300       33.82690
H          7.81730      -29.58030       31.65270
H          5.10990      -28.48300       32.32370
H          5.67920      -26.62510       30.79000
H          7.31340      -27.31930       30.59880
H          7.72860      -27.09680       32.98960
H          6.03980      -26.43690       33.21860
H          8.28200      -25.16240       31.67720
H          7.70370      -24.69640       33.32560
H          6.38160      -24.18740       30.73590
H          4.66730      -22.72400       30.77920
H          4.86690      -22.96690       34.29390
H          6.21570      -24.10780       34.27790
H          5.21770      -31.06380       31.35050
H          4.58960      -30.79760       28.50570
H          4.32660      -33.21690       28.46440
H          4.56210      -34.39690       30.46760
H          6.63240      -32.40160       28.34460
H          6.75890      -32.43540       30.12050
H          6.56740      -33.95520       29.21240
H          2.87810      -30.55590       31.44410
H          0.62480      -30.91560       31.95560
H          0.35020      -31.52890       30.27960
H         -1.55100      -29.95400       31.24580
H         -1.50810      -27.79670       29.35200
H         -3.52680      -26.99410       30.55590
H         -3.26140      -28.33930       31.74090
H         -3.47260      -29.93510       29.99560
H         -3.71880      -28.58700       28.79190
H         -5.73300      -27.98060       30.30610
H         -5.57930      -29.61320       30.92850
H         -6.37340      -28.81570       28.21890
H         -5.69220      -32.71690       29.14920
H         -5.20170      -31.46040       30.29010
H         -6.97390      -30.41510       26.75180
H         -1.06310      -25.68500       29.49730
H          0.55760      -24.91330       31.88320
H          1.57890      -23.27720       30.33880
H          0.54500      -23.94120       29.01500
H          1.58540      -26.18690       29.71350
H          2.88060      -25.11770       30.42900
H          3.56330      -25.83970       28.26780
H          3.11390      -24.08750       28.19870
H          0.82650      -25.29040       27.41740
H          3.70810      -26.19490       24.71580
H          4.19210      -25.74860       26.35520
H          0.25930      -25.87070       25.33820
H         -0.04660      -23.33660       33.17770
H         -2.52730      -21.94070       32.59100
H         -2.11780      -20.81050       34.77310
H         -0.51990      -21.65740       34.85570
H         -2.07710      -24.13470       36.71950
H         -0.88770      -22.82930       36.66700
H         -2.85230      -19.76520       32.27130
H         -0.79640      -18.12740       31.15670
H         -3.19830      -17.66450       30.86050
H         -3.35490      -17.32940       32.60240
H         -2.36860      -16.26020       31.57510
H          0.26580      -16.30610       32.03470
H          1.23140      -16.75040       34.75260
H          2.62450      -14.78350       34.35370
H          0.96860      -13.52230       33.04250
H          1.28820      -14.66280       31.65160
H          3.33010      -16.99130       33.55370
H          2.47500      -16.71340       32.01660
H          3.88200      -15.71020       32.44680
H          3.28010      -12.78600       32.93950
H          3.59160      -13.89770       31.58370
H          2.46400      -12.53510       31.37680
H          3.98358      -22.16719       32.30479
H         -6.72686      -32.12414       27.11560
H          1.47964      -26.28137       24.13642
