55

N    13.541    24.055    1.937
C    16.04    22.473    3.038
C    12.998    22.746    2.064
C    16.025    23.965    2.52
C    12.795    25.242    2.253
C    16.659    20.441    4.038
C    11.393    25.191    2.748
C    9.157    26.016    2.658
C    8.787    25.148    3.656
C    9.701    24.289    4.221
C    15.896    24.935    3.703
C    18.355    22.142    4.326
C    10.958    19.266    0.837
C    9.787    19.723    0.071
O    11.818    20.501    1.168
C    12.829    20.342    2.048
O    13.011    19.326    2.672
C    13.677    21.573    2.147
C    14.932    24.215    1.458
C    17.341    24.289    1.801
C    14.959    21.437    2.84
N    15.4    20.247    3.467
C    17.446    19.526    4.748
C    18.681    19.932    5.239
C    19.132    21.227    5.032
C    17.113    21.764    3.823
O    13.325    26.331    2.121
C    11.009    24.315    3.767
F    7.505    25.141    4.087
F    8.231    26.844    2.127
C    10.448    26.057    2.192
H    12.3409    22.6286    1.1897
H    12.3882    22.7826    2.9787
H    9.4029    23.6045    5.0069
H    15.8867    25.9696    3.3295
H    16.7492    24.7986    4.3837
H    14.9596    24.7319    4.2433
H    18.7181    23.151    4.1677
H    11.5426    18.5534    0.2366
H    10.6296    18.779    1.767
H    9.1532    18.8596    -0.1798
H    10.1228    20.2126    -0.855
H    9.2098    20.4382    0.6754
H    14.0803    21.5743    1.1236
H    15.0478    25.2437    1.0859
H    15.0914    23.5062    0.6321
H    18.1834    24.1363    2.4917
H    17.3273    25.3365    1.4654
H    17.456    23.6265    0.9304
H    14.8686    19.3652    3.4975
H    17.0962    18.5133    4.9126
H    19.2975    19.2301    5.7888
H    20.0968    21.5294    5.4228
H    11.7427    23.649    4.2066
H    10.7291    26.7491    1.4065
