44

C    6.993    9.635    5.965
C    5.78    9.755    5.3
C    2.389    7.3    3.288
C    8.029    11.092    4.562
C    6.859    11.304    3.803
C    5.726    10.605    4.193
C    -0.068    6.0    1.93
C    4.774    7.498    3.107
C    4.682    6.816    1.908
C    10.392    11.493    4.832
C    4.108    9.252    7.215
C    2.903    8.556    7.306
C    2.189    8.564    8.512
C    2.727    9.276    9.577
C    3.944    9.941    9.402
N    4.639    9.943    8.245
C    4.576    9.093    5.857
C    3.654    8.299    5.205
N    2.638    7.981    6.089
C    3.607    7.73    3.833
N    3.521    6.368    1.379
C    2.386    6.6    2.068
N    8.108    10.289    5.618
N    1.218    6.029    1.459
O    -0.418    6.559    2.949
C    -1.058    5.212    1.116
O    9.145    11.717    4.125
H    7.0399    8.9694    6.8193
H    1.4573    7.5053    3.8026
H    6.8459    11.9804    2.956
H    4.8007    10.7182    3.6398
H    5.733    7.8448    3.4746
H    5.5971    6.6288    1.3579
H    11.195    12.071    4.3513
H    10.6429    10.4224    4.8027
H    10.2836    11.8158    5.878
H    1.2492    8.0329    8.6105
H    2.2107    9.3152    10.5293
H    4.3533    10.4868    10.2444
H    1.8137    7.4042    5.8683
H    1.3629    5.5934    0.5706
H    -2.0481    5.2637    1.5924
H    -0.733    4.1627    1.0588
H    -1.1168    5.6335    0.1017
