73

C        43.2290  -24.4340   29.7970
C        42.7290  -21.3310   29.0740
C        44.0960  -21.3530   28.8000
C        44.4890  -21.0690   27.4920
C        49.1240  -22.1880   33.1210
C        50.9780  -22.3430   34.5790
C        39.9330  -22.7350   27.5670
C        40.6780  -23.9900   28.0260
C        40.3480  -21.4250   28.2540
C        35.4900  -15.1920   28.3680
C        34.8800  -14.0000   28.6920
Cl       33.5210  -13.9930   29.7620
C        44.8610  -22.8010   30.7560
C        45.0880  -21.7530   29.8380
C        46.2950  -21.0540   29.9230
C        47.2320  -21.3490   30.8990
C        46.9900  -22.3640   31.8240
C        45.8130  -23.1030   31.7290
N        43.6480  -23.5420   30.7260
N        47.8800  -22.6940   32.8860
C        41.8190  -21.1290   28.0410
N        39.5610  -20.3160   27.7410
N        42.1980  -20.8400   26.7860
C        43.5200  -20.8080   26.5380
O        49.7270  -21.4040   32.4200
O        49.6220  -22.7240   34.2450
C        40.6720  -24.2510   29.5460
C        41.8690  -25.0540   30.0690
O        43.8670  -24.7010   28.7810
C        41.8420  -26.4920   29.5460
C        39.3870  -19.2040   28.4700
O        39.9140  -19.0200   29.5630
C        36.4230  -12.8270   27.2990
C        35.3380  -12.8100   28.1590
C        36.5610  -15.2160   27.4930
C        37.0500  -14.0210   26.9740
N        37.3450  -16.4040   27.3800
C        38.1100  -16.9800   28.3690
C        38.5230  -18.1770   27.8420
N        38.0060  -18.3650   26.5690
C        37.3230  -17.2740   26.3280
C        38.2510  -16.4010   29.7380
F        35.1060  -16.3200   28.9880
H        42.3741  -21.4717   30.0950
H        45.5455  -21.0528   27.2244
H        51.6478  -22.6458   33.7742
H        51.0289  -21.2619   34.7084
H        51.2748  -22.8354   35.5051
H        38.8827  -22.8927   27.8120
H        40.1581  -22.6126   26.5075
H        41.7208  -23.8526   27.7400
H        40.1702  -24.8371   27.5648
H        40.1674  -21.5450   29.3222
H        46.5033  -20.2599   29.2060
H        48.1636  -20.7849   30.9444
H        45.6345  -23.9252   32.4219
H        43.0103  -23.3808   31.5056
H        47.5467  -23.3926   33.5503
H        39.1363  -20.3843   26.8161
H        43.8471  -20.5624   25.5277
H        39.7798  -24.8390   29.7613
H        40.7091  -23.2767   30.0332
H        41.7472  -25.0442   31.1521
H        40.9246  -26.9799   29.8754
H        41.8787  -26.4818   28.4567
H        42.7035  -27.0349   29.9347
H        36.7883  -11.8926   26.8730
H        34.8506  -11.8687   28.4128
H        37.9195  -14.0231   26.3167
H        36.7964  -17.0821   25.3931
H        38.6807  -15.4019   29.6660
H        37.2699  -16.3428   30.2093
H        38.9049  -17.0371   30.3345
