32

C    0.202    9.516    84.9
C    0.781    10.671    84.46
C    0.236    11.911    84.781
C    0.832    13.085    84.338
C    1.968    13.027    83.556
C    2.51    11.794    83.226
C    1.92    10.616    83.68
N    2.462    9.432    83.352
C    1.906    8.275    83.779
C    0.745    8.312    84.544
C    0.121    7.038    85.085
C    1.049    5.91    85.537
C    0.541    4.821    86.058
C    -0.962    4.712    86.21
S    -1.595    3.188    86.951
O    -3.067    3.228    86.967
O    -1.218    3.232    88.376
N    -0.941    1.817    86.166
C    -1.771    5.684    85.839
C    -1.179    6.953    85.24
H    -0.6816    9.5525    85.5269
H    -0.6637    11.9611    85.3835
H    0.4057    14.045    84.606
H    2.4336    13.9397    83.202
H    3.4004    11.7461    82.6095
H    2.3626    7.3248    83.5265
H    2.1226    6.0112    85.4267
H    1.1864    4.0101    86.3756
H    -1.199    0.8986    86.466
H    -0.3006    1.9336    85.4069
H    -2.8435    5.5816    85.9586
H    -1.8226    7.7742    84.9459
