255

C    16.043    47.097    2.128
O    16.188    48.2    2.656
C    14.713    46.758    1.48
N    14.779    45.75    0.377
C    15.439    45.986    -0.779
O    16.105    47.002    -0.915
C    15.397    44.927    -1.843
C    14.173    44.475    0.78
C    13.993    44.639    2.28
C    13.76    46.118    2.49
N    17.011    46.185    2.067
C    18.284    46.432    2.683
C    19.389    46.591    1.683
O    20.529    46.354    2.017
C    18.58    45.348    3.722
C    17.753    45.503    4.959
N    17.658    44.518    5.916
C    16.988    46.537    5.397
C    16.856    44.929    6.887
N    16.445    46.152    6.597
N    19.049    47.014    0.462
C    20.082    47.465    -0.484
C    20.858    48.657    0.09
O    20.335    49.456    0.886
C    19.468    47.911    -1.815
C    19.04    46.78    -2.724
C    18.18    47.304    -3.86
N    16.857    47.741    -3.39
C    15.879    48.152    -4.169
N    16.025    48.141    -5.492
N    14.72    48.516    -3.621
N    22.122    48.774    -0.31
C    22.907    49.964    0.027
C    23.827    50.229    -1.127
O    24.07    49.32    -1.957
C    23.7    49.783    1.331
C    24.365    48.428    1.557
C    25.648    48.163    1.084
C    23.735    47.423    2.284
C    26.266    46.944    1.308
C    24.356    46.183    2.497
C    25.633    45.966    2.007
O    26.316    44.792    2.167
N    24.381    51.445    -1.177
C    25.075    51.85    -2.371
C    26.613    51.85    -2.209
O    27.124    51.731    -1.061
C    24.572    53.213    -2.879
C    23.102    53.532    -2.754
C    22.913    55.01    -3.045
N    23.394    55.371    -4.378
C    23.285    56.585    -4.901
N    23.761    56.817    -6.115
N    22.7    57.565    -4.221
N    27.358    51.94    -3.348
C    28.823    52.086    -3.308
C    29.242    53.516    -3.085
O    28.999    54.39    -3.917
C    29.307    51.582    -4.67
C    28.099    51.366    -5.498
C    26.883    51.668    -4.703
N    29.818    53.75    -1.926
C    30.152    55.068    -1.521
C    31.502    55.102    -0.849
O    31.747    54.29    0.055
N    32.29    56.114    -1.188
C    33.562    56.332    -0.485
C    33.752    57.753    -0.027
O    33.035    58.661    -0.393
C    34.75    55.982    -1.345
O    34.785    56.894    -2.402
C    34.669    54.497    -1.93
N    34.715    57.928    0.884
C    35.066    59.246    1.35
C    36.187    59.725    0.48
O    37.261    59.172    0.59
C    35.5    59.191    2.832
C    35.971    60.55    3.305
C    34.354    58.681    3.665
N    35.954    60.723    -0.385
C    36.909    61.121    -1.403
C    37.877    62.194    -0.868
O    37.509    63.358    -0.662
C    36.152    61.622    -2.633
N    39.059    61.753    -0.504
C    40.109    62.637    0.004
C    41.197    62.927    -1.04
O    41.343    62.24    -2.046
C    40.74    62.039    1.256
C    39.802    61.536    2.379
C    40.606    61.016    3.538
C    38.832    62.613    2.799
N    41.987    63.949    -0.741
C    42.996    64.455    -1.641
C    44.199    64.575    -0.76
O    44.161    65.343    0.157
C    42.616    65.854    -2.154
N    45.251    63.838    -1.018
C    46.478    63.933    -0.217
C    47.085    65.354    -0.323
O    47.234    65.896    -1.427
C    47.435    62.835    -0.682
C    48.791    62.818    -0.121
C    48.834    62.732    1.384
O    48.563    61.62    1.937
O    49.219    63.776    1.962
N    47.433    65.954    0.803
C    48.023    67.279    0.788
C    49.416    67.19    0.236
O    49.767    68.011    -0.629
C    48.001    67.96    2.162
C    46.575    68.305    2.553
C    48.914    69.186    2.177
C    46.505    68.592    4.067
N    50.179    66.182    0.65
C    51.56    66.07    0.229
C    52.299    65.03    1.12
C    52.389    65.453    2.589
C    53.846    65.421    3.072
N    54.004    65.537    4.519
C    55.154    65.752    5.146
N    55.186    65.85    6.462
N    56.277    65.884    4.458
C    51.533    65.723    -1.347
O    50.728    64.892    -1.825
N    52.392    66.387    -2.103
H    14.2809    47.692    1.0915
H    15.9755    45.2619    -2.7166
H    14.3534    44.7478    -2.141
H    15.8314    43.9957    -1.4508
H    14.8405    43.6309    0.5522
H    13.205    44.3223    0.2804
H    14.896    44.3106    2.8154
H    13.1272    44.0582    2.6307
H    12.7156    46.3888    2.2759
H    14.013    46.4169    3.5179
H    16.8502    45.3217    1.5886
H    18.2055    47.3876    3.2221
H    19.6432    45.4045    3.9985
H    18.3686    44.3646    3.2767
H    16.835    47.4896    4.892
H    16.582    44.3575    7.7726
H    15.8172    46.7245    7.1792
H    18.0869    47.0242    0.1895
H    20.7767    46.6321    -0.6675
H    20.2136    48.5173    -2.3502
H    18.5837    48.5272    -1.5951
H    18.4624    46.047    -2.1417
H    19.9339    46.2939    -3.1419
H    18.0469    46.5042    -4.6033
H    18.691    48.1583    -4.328
H    16.6826    47.7242    -2.375
H    15.2568    48.4636    -6.0976
H    16.9061    47.8099    -5.9102
H    14.6142    48.5222    -2.5965
H    13.9301    48.7912    -4.222
H    22.5405    48.0413    -0.8466
H    22.2265    50.819    0.1525
H    23.0067    49.9556    2.1673
H    24.491    50.5472    1.3468
H    26.1754    48.9292    0.5273
H    22.7471    47.6011    2.6931
H    27.2637    46.7686    0.9221
H    23.8399    45.4004    3.0412
H    27.1683    44.8639    1.7535
H    24.314    52.0648    -0.3951
H    24.8358    51.1062    -3.1453
H    24.8279    53.2757    -3.947
H    25.1205    53.9885    -2.3243
H    22.7569    53.3058    -1.7343
H    22.5279    52.9335    -3.4767
H    23.4692    55.5935    -2.2966
H    21.8421    55.2515    -2.9763
H    23.8445    54.6384    -4.9448
H    23.6806    57.7568    -6.5288
H    24.2116    56.0576    -6.6453
H    22.3292    57.3866    -3.2768
H    22.6173    58.5032    -4.638
H    29.2408    51.4643    -2.5025
H    30.34    51.4147    -4.9715
H    28.1023    51.035    -6.5355
H    26.3652    52.5479    -5.1124
H    26.1992    50.8064    -4.7047
H    30.0247    52.9834    -1.318
H    29.3901    55.4315    -0.8158
H    30.1742    55.7213    -2.4057
H    32.0171    56.7316    -1.9256
H    33.5648    55.6792    0.4003
H    35.6672    56.0744    -0.7448
H    33.9805    56.8276    -2.9028
H    35.5575    54.297    -2.5469
H    33.7639    54.3947    -2.5467
H    34.6299    53.7772    -1.0991
H    35.1992    57.1322    1.2476
H    34.2032    59.9213    1.2522
H    36.3392    58.4861    2.926
H    36.2741    60.4861    4.3605
H    35.1528    61.278    3.202
H    36.8283    60.8733    2.6963
H    34.0403    57.6947    3.2924
H    33.5104    59.3837    3.5975
H    34.674    58.5919    4.7136
H    35.0849    61.2141    -0.3261
H    37.5004    60.2396    -1.6917
H    36.8714    61.9251    -3.408
H    35.5288    62.4844    -2.3539
H    35.5112    60.8171    -3.0222
H    39.2494    60.774    -0.5768
H    39.6396    63.5939    0.2762
H    41.389    62.8112    1.6948
H    41.3529    61.1836    0.9356
H    39.2135    60.6978    1.9776
H    39.9257    60.6626    4.3269
H    41.2406    61.822    3.935
H    41.2398    60.1829    3.2002
H    38.2683    62.9614    1.921
H    39.3869    63.456    3.2366
H    38.1337    62.2067    3.5455
H    41.8788    64.3901    0.1499
H    43.1682    63.7697    -2.4841
H    43.3975    66.219    -2.8367
H    42.5218    66.5438    -1.3023
H    41.657    65.8    -2.69
H    45.2174    63.193    -1.7814
H    46.2287    63.7503    0.8387
H    47.5341    62.9285    -1.7735
H    46.9681    61.8695    -0.4376
H    49.3038    63.7411    -0.4289
H    49.3239    61.9479    -0.532
H    47.2875    65.4883    1.6759
H    47.4268    67.903    0.106
H    48.3894    67.2455    2.9027
H    45.9147    67.4593    2.3105
H    46.2489    69.1961    1.9967
H    49.9327    68.888    1.8882
H    48.9312    69.618    3.1884
H    48.5351    69.9341    1.4651
H    45.4705    68.8414    4.3454
H    47.1643    69.4381    4.3107
H    46.8302    67.7013    4.6245
H    49.793    65.4911    1.2613
H    52.0619    67.0399    0.3608
H    53.3193    64.8978    0.7308
H    51.7582    64.0738    1.0637
H    51.7899    64.763    3.2013
H    51.9951    66.4744    2.6959
H    54.3837    66.256    2.5991
H    54.2937    64.4685    2.7523
H    53.1572    65.4448    5.0982
H    56.0806    66.0169    6.9444
H    54.3163    65.7596    7.0065
H    56.2635    65.8093    3.4308
H    57.1645    66.0614    4.9498
H    52.4256    66.2182    -3.0881
H    53.0077    67.0577    -1.6894
