47

C    -18.061    21.714    -6.096
C    -18.723    26.393    -4.198
C    -17.329    26.956    -4.19
C    -16.337    26.111    -4.949
C    -17.421    28.29    -4.869
C    -16.864    27.163    -2.773
N    -20.879    22.59    -2.271
O    -15.325    24.048    -4.481
C    -16.356    24.66    -4.586
C    -17.673    23.997    -4.438
C    -18.704    24.95    -3.85
C    -17.591    22.592    -3.781
C    -17.248    21.568    -4.839
C    -18.894    22.252    -3.144
C    -19.33    21.012    -2.8
N    -20.555    21.227    -2.262
C    -19.828    23.157    -2.813
N    -19.613    24.494    -3.076
C    -16.625    22.556    -2.65
C    -15.883    21.432    -2.35
C    -15.005    21.421    -1.294
C    -14.875    22.54    -0.516
C    -15.616    23.657    -0.8
C    -16.494    23.664    -1.861
H    -17.7608    20.9409    -6.8187
H    -17.8881    22.7094    -6.531
H    -19.1286    21.5983    -5.8577
H    -19.1578    26.5176    -5.2007
H    -19.3361    26.9344    -3.4625
H    -15.3284    26.5022    -4.7499
H    -16.5596    26.2    -6.0226
H    -18.1405    28.9258    -4.3322
H    -17.7579    28.1508    -5.9068
H    -16.4322    28.772    -4.8659
H    -16.7928    26.1901    -2.2647
H    -17.5832    27.8029    -2.2408
H    -15.8763    27.6471    -2.7782
H    -21.7406    23.041    -1.9315
H    -18.0194    23.8014    -5.4635
H    -16.1842    21.676    -5.097
H    -17.4247    20.5648    -4.4238
H    -18.813    20.0621    -2.9275
H    -15.9951    20.542    -2.9586
H    -14.4201    20.5342    -1.0784
H    -14.1878    22.5423    0.3223
H    -15.5102    24.5428    -0.1842
H    -17.0822    24.5501    -2.0706
