42

C    10.773    14.419    33.006
C    13.142    14.862    33.205
C    10.895    13.347    33.892
C    17.188    17.951    30.554
C    16.67    17.616    29.325
C    11.895    15.175    32.664
C    12.142    13.033    34.435
C    13.264    13.791    34.094
C    15.425    16.641    30.753
C    14.271    15.7    32.81
C    8.974    15.699    30.174
C    10.449    15.012    28.232
C    8.045    14.321    28.283
C    8.622    16.711    27.889
C    9.436    14.759    32.414
C    9.034    15.441    28.651
N    15.572    16.799    29.455
N    16.381    17.322    31.459
N    14.434    15.881    31.428
N    9.434    14.66    30.97
O    15.014    16.22    33.652
O    8.544    16.753    30.635
Cl    14.783    13.355    34.796
H    10.0234    12.7598    34.1576
H    18.0525    18.5802    30.7606
H    17.0765    17.9538    28.3729
H    11.7973    16.0073    31.9764
H    12.2394    12.2001    35.1219
H    10.4717    14.8333    27.1468
H    10.7239    14.0879    28.7616
H    11.1642    15.8077    28.4876
H    7.028    14.6181    28.5789
H    8.3249    13.3969    28.8099
H    8.075    14.1475    27.1972
H    9.3157    17.5281    28.1361
H    7.6002    16.9973    28.1788
H    8.6553    16.5164    26.8069
H    9.1747    15.789    32.6984
H    8.6837    14.0652    32.8172
H    14.9928    16.3992    28.703
H    13.7679    15.4158    30.845
H    9.7716    13.8244    30.5366
