78

C    4.339    59.786    -13.08
C    4.475    61.339    -11.257
C    3.978    62.478    -11.879
C    3.387    63.493    -11.134
C    3.305    63.394    -9.75
C    2.104    65.489    -9.646
C    1.986    66.692    -8.702
C    3.242    67.567    -8.821
C    6.034    69.294    -6.444
C    7.159    70.16    -6.917
C    7.946    69.569    -8.1
C    8.623    68.302    -7.599
C    9.697    67.794    -8.539
C    10.706    68.887    -8.874
C    10.023    70.151    -9.397
C    8.954    70.652    -8.453
C    5.591    69.852    -5.076
C    5.72    69.74    -2.529
C    4.957    68.631    -1.759
C    3.595    68.231    -2.397
C    2.887    67.376    -1.704
C    1.431    69.171    -2.635
C    2.651    69.59    -2.542
C    7.004    70.138    -1.8
C    3.812    62.259    -9.14
C    4.392    61.23    -9.881
N    4.964    69.404    -7.412
N    6.117    69.232    -3.842
N    1.379    67.865    -1.79
O    5.088    60.317    -12.019
O    2.715    64.419    -8.953
O    3.23    66.383    -1.155
O    7.592    71.193    -2.502
O    4.876    70.79    -5.038
O    3.736    67.452    -6.195
O    2.384    69.224    -6.91
S    3.554    68.435    -7.262
H    4.9249    59.0059    -13.5881
H    4.0968    60.5865    -13.7946
H    3.4081    59.3493    -12.6892
H    4.0517    62.5764    -12.956
H    2.9878    64.3669    -11.636
H    2.7175    65.7624    -10.5171
H    1.1021    65.1855    -9.9838
H    1.8852    66.3357    -7.6662
H    1.1002    67.2848    -8.9738
H    3.0956    68.3046    -9.6239
H    4.1063    66.9304    -9.061
H    6.3543    68.2462    -6.3465
H    7.8553    70.3116    -6.0791
H    6.7427    71.1295    -7.2279
H    7.2944    69.3427    -8.9568
H    7.8594    67.5187    -7.4831
H    9.0831    68.513    -6.6224
H    9.2235    67.4469    -9.4692
H    10.2238    66.9552    -8.0606
H    11.3957    68.5108    -9.6439
H    11.2727    69.1388    -7.9655
H    9.5607    69.9277    -10.3698
H    10.7815    70.9376    -9.5234
H    9.4346    71.0037    -7.5282
H    8.4228    71.4882    -8.9311
H    5.0682    70.6187    -2.6428
H    4.7666    68.9897    -0.7367
H    5.5956    67.7362    -1.7206
H    3.7939    67.8025    -3.3904
H    1.1746    68.9615    -3.684
H    0.7346    69.9199    -2.2298
H    2.9305    70.1546    -3.4437
H    2.7676    70.2321    -1.6565
H    7.6942    69.2822    -1.7661
H    6.7668    70.4586    -0.7749
H    3.7567    62.1683    -8.0612
H    4.7761    60.3485    -9.3806
H    5.046    70.0479    -8.1727
H    6.7489    68.4595    -3.905
H    0.5729    67.4296    -1.3893
H    7.7913    70.9109    -3.387
