124

N    21.736    38.463    17.196
C    20.86    37.276    16.957
C    20.392    37.222    15.506
O    20.059    38.25    14.909
C    19.663    37.288    17.902
N    20.366    36.014    14.957
C    19.979    35.777    13.575
C    18.563    35.19    13.529
O    18.122    34.531    14.48
C    21.01    34.848    12.905
C    20.884    33.368    13.254
C    22.221    32.629    13.317
N    22.002    31.218    13.653
C    21.674    30.747    14.864
N    21.534    31.554    15.92
N    21.483    29.441    15.027
N    17.861    35.444    12.423
C    16.499    34.938    12.212
C    16.495    33.697    11.312
O    17.538    33.289    10.801
C    15.575    36.04    11.632
O    16.125    36.56    10.418
C    15.421    37.17    12.622
N    15.322    33.088    11.146
C    15.142    31.956    10.225
C    15.39    32.346    8.761
O    15.814    31.512    7.957
C    13.737    31.358    10.38
C    13.42    30.221    9.421
C    12.262    29.376    9.93
C    11.683    28.479    8.843
N    10.478    27.74    9.317
N    15.121    33.605    8.428
C    15.38    34.132    7.096
C    16.88    34.363    6.859
O    17.408    33.938    5.825
C    14.605    35.432    6.898
C    14.579    35.942    5.464
C    14.579    37.459    5.382
O    15.216    38.144    6.19
N    13.863    37.994    4.401
N    17.556    35.031    7.801
C    19.001    35.311    7.671
C    19.882    34.056    7.768
O    21.011    34.064    7.287
C    19.512    36.35    8.697
O    19.309    35.867    10.028
C    18.807    37.69    8.519
N    19.372    33.0    8.399
C    20.033    31.692    8.407
C    19.774    30.898    7.106
O    20.692    30.256    6.587
C    19.6    30.888    9.624
N    18.539    30.935    6.592
C    18.193    30.293    5.306
C    18.543    31.21    4.132
O    19.719    31.471    3.854
C    16.704    29.927    5.254
O    17.659    31.714    3.43
H    22.0305    38.4746    18.16
H    21.2228    39.3061    16.9913
H    22.5457    38.4089    16.598
H    21.4497    36.3701    17.1607
H    19.0339    36.4068    17.708
H    19.0743    38.2024    17.7365
H    20.0174    37.2634    18.943
H    20.6248    35.2293    15.5203
H    19.9744    36.7365    13.0371
H    22.0138    35.1829    13.2054
H    20.9004    34.9498    11.8152
H    20.257    32.8845    12.4904
H    20.3958    33.2843    14.2361
H    22.8565    33.0917    14.0864
H    22.7206    32.6968    12.3393
H    22.1095    30.5307    12.8934
H    21.2811    31.1616    16.8381
H    21.679    32.5684    15.8158
H    21.5859    28.8016    14.2261
H    21.2321    29.069    15.9541
H    18.2804    36.0027    11.7075
H    16.0966    34.643    13.1923
H    14.5867    35.604    11.4241
H    15.5498    37.2332    10.0739
H    14.7638    37.9429    12.1969
H    16.4077    37.6058    12.8375
H    14.9792    36.7845    13.5527
H    14.5334    33.4132    11.6679
H    15.8763    31.1832    10.4962
H    13.0031    32.1604    10.2143
H    13.6383    30.9771    11.4072
H    14.3097    29.583    9.3149
H    13.1523    30.6428    8.441
H    11.4695    30.045    10.2966
H    12.6204    28.7448    10.7565
H    12.4489    27.7514    8.5367
H    11.4023    29.1011    7.9803
H    10.1253    27.1595    8.5722
H    9.7674    28.3988    9.5947
H    10.7265    27.162    10.1045
H    14.7264    34.2119    9.1178
H    15.0253    33.3969    6.3586
H    15.0662    36.206    7.5291
H    13.567    35.2654    7.2217
H    13.6712    35.5629    4.9719
H    15.4672    35.5611    4.9387
H    13.8238    38.9876    4.2951
H    13.3627    37.4035    3.7677
H    17.0701    35.3493    8.615
H    19.1471    35.738    6.6679
H    20.59    36.4982    8.5357
H    18.382    35.7165    10.1711
H    19.1898    38.407    9.2602
H    17.7246    37.5568    8.6627
H    18.998    38.0731    7.5057
H    18.5048    33.1035    8.886
H    21.1167    31.865    8.4817
H    20.104    29.9103    9.6157
H    18.5105    30.7391    9.5965
H    19.8726    31.4332    10.5396
H    17.8223    31.4156    7.0974
H    18.7814    29.3682    5.2137
H    16.4767    29.4523    4.2881
H    16.0983    30.8383    5.3662
H    16.4695    29.2279    6.0703
