43

C    -16.826    4.704    8.805
C    -17.546    2.814    3.997
C    -16.428    1.239    2.506
C    -14.769    0.255    4.118
C    -12.632    -1.528    4.844
C    -11.844    -3.752    4.948
C    -14.667    -1.056    3.665
O    -19.337    4.452    4.1
C    -18.404    3.834    4.612
C    -17.991    4.038    6.035
C    -16.906    3.474    6.554
N    -16.454    3.581    7.904
C    -15.571    2.522    8.546
C    -14.955    2.841    9.935
O    -14.942    4.191    10.219
C    -16.219    4.684    10.21
O    -16.325    2.387    5.923
C    -16.579    2.14    4.623
S    -17.696    2.362    2.333
C    -15.876    1.172    3.738
C    -13.741    0.644    4.994
C    -12.688    -0.229    5.35
O    -11.609    -2.363    5.178
C    -12.526    -4.023    3.65
O    -13.659    -3.203    3.455
C    -13.644    -1.954    3.98
H    -17.9205    4.6961    8.914
H    -16.5126    5.6398    8.3192
H    -16.0851    0.6171    1.6804
H    -12.4739    -4.14    5.762
H    -10.8768    -4.2759    4.9512
H    -15.452    -1.4133    3.0083
H    -18.6044    4.6744    6.6711
H    -14.7383    2.3254    7.8547
H    -16.178    1.6114    8.6572
H    -13.9202    2.4683    9.9541
H    -15.5447    2.3255    10.7073
H    -16.846    4.0529    10.8569
H    -16.204    5.7112    10.6032
H    -13.7562    1.645    5.4096
H    -11.9133    0.1154    6.0254
H    -12.8446    -5.0757    3.6315
H    -11.8135    -3.8411    2.832
