32

C    42.896    1.685    21.494
C    43.276    0.37    21.696
C    43.598    -0.077    22.968
C    43.523    0.796    24.043
C    43.153    2.115    23.836
C    42.833    2.559    22.564
C    43.889    0.347    25.443
C    43.117    0.234    26.538
C    43.582    -0.192    27.926
C    44.598    -1.117    28.171
C    44.965    -1.435    29.469
C    44.332    -0.836    30.54
C    43.329    0.089    30.31
C    42.96    0.408    29.011
C    43.343    -0.568    20.514
O    46.105    -0.896    32.525
O    43.883    -1.914    32.937
O    42.913    -0.191    19.394
O    43.833    -1.718    20.645
Cl    45.463    -1.939    26.909
B    44.792    -1.234    32.073
H    42.6463    2.0322    20.4914
H    43.9088    -1.1102    23.1227
H    43.1136    2.8061    24.678
H    42.5322    3.5948    22.4064
H    44.9351    0.0748    25.5836
H    42.059    0.4691    26.4224
H    45.7577    -2.162    29.6454
H    42.8277    0.5681    31.151
H    42.1706    1.1401    28.8408
H    46.5751    -1.6973    32.7668
H    43.054    -2.0608    32.4758
