54

N    -2.121    -22.926    -18.073
C    -2.216    -22.03    -17.081
C    -3.045    -20.915    -17.162
C    -3.027    -19.855    -16.114
C    -2.732    -20.039    -14.68
C    -4.698    -17.905    -20.269
C    -5.375    -20.362    -20.502
C    -3.714    -19.132    -22.067
C    -3.004    -18.0    -22.451
C    -3.121    -16.822    -21.757
C    -3.091    -16.539    -14.619
C    -3.733    -21.616    -19.236
C    -2.853    -22.762    -19.199
N    -3.816    -20.74    -18.246
N    -2.777    -18.879    -14.062
N    -3.079    -17.945    -15.024
C    -3.248    -18.491    -16.262
C    -3.641    -17.723    -17.537
N    -5.067    -17.654    -17.848
C    -5.611    -17.758    -19.075
C    -4.582    -19.118    -20.968
O    -4.489    -21.47    -20.344
C    -6.499    -20.777    -21.429
C    -3.976    -16.772    -20.671
F    -2.208    -18.029    -23.542
Cl    -3.462    -20.575    -22.99
O    -6.821    -17.746    -19.259
C    -5.973    -17.407    -16.729
C    -1.697    -15.951    -14.551
O    -1.095    -16.097    -15.823
C    -2.452    -21.279    -13.898
N    -2.688    -23.647    -20.191
H    -1.6263    -22.1789    -16.1837
H    -5.8184    -20.1232    -19.5241
H    -2.5541    -15.9472    -22.0543
H    -3.5573    -16.4604    -13.6258
H    -3.6821    -15.9654    -15.3481
H    -3.1377    -18.2076    -18.3866
H    -3.2725    -16.6919    -17.432
H    -7.0034    -21.6645    -21.0192
H    -6.0874    -21.0145    -22.421
H    -7.2224    -19.9534    -21.5198
H    -4.0896    -15.8438    -20.1228
H    -7.0096    -17.3786    -17.0959
H    -5.7233    -16.4435    -16.2608
H    -5.8684    -18.213    -15.9877
H    -1.1036    -16.4852    -13.7944
H    -1.7547    -14.8849    -14.2862
H    -1.6135    -15.6364    -16.4722
H    -2.2768    -21.0162    -12.8443
H    -1.559    -21.7756    -14.3053
H    -3.3138    -21.959    -13.9679
H    -3.2296    -23.5514    -21.0619
H    -2.0195    -24.4231    -20.0829
