58

C    -15.962    -25.399    25.787
C    -11.622    -26.988    22.031
C    -16.938    -24.405    28.247
C    -12.928    -27.722    20.145
C    -18.454    -22.801    25.404
C    -12.425    -25.87    22.128
C    -17.388    -23.933    27.027
C    -12.302    -24.756    23.112
C    -16.071    -23.374    22.85
C    -14.173    -24.388    21.569
C    -17.63    -25.23    22.728
C    -19.049    -22.189    27.727
C    -20.063    -25.462    23.037
C    -15.507    -25.889    26.994
C    -15.984    -25.402    28.192
C    -11.887    -27.916    21.034
C    -16.93    -24.401    25.801
C    -17.608    -23.686    24.767
C    -13.461    -25.664    21.255
C    -13.72    -26.593    20.256
C    -13.142    -23.678    22.439
C    -16.482    -25.38    21.748
C    -17.456    -23.818    23.29
C    -19.049    -26.604    21.164
N    -18.311    -22.965    26.749
N    -15.401    -24.606    22.395
N    -18.955    -25.408    22.049
F    -14.726    -26.415    19.378
H    -15.5741    -25.7829    24.8504
H    -10.7995    -27.1385    22.7208
H    -17.311    -24.0164    29.1877
H    -13.1225    -28.45    19.3658
H    -19.1215    -22.0928    24.9153
H    -11.2562    -24.4368    23.2319
H    -12.7146    -25.0359    24.0925
H    -15.5236    -22.9247    23.6917
H    -16.1414    -22.6463    22.0281
H    -14.4191    -23.8242    20.6571
H    -17.5436    -25.9729    23.5346
H    -19.7187    -21.4872    27.2084
H    -18.3439    -21.626    28.3561
H    -19.6442    -22.8652    28.3582
H    -21.0191    -25.5928    22.5089
H    -20.0872    -24.5248    23.6124
H    -19.9033    -26.3084    23.7212
H    -14.7588    -26.6733    27.0002
H    -15.5991    -25.8136    29.118
H    -11.2704    -28.8037    20.9511
H    -12.5021    -23.0353    21.8166
H    -13.6483    -23.0652    23.1993
H    -16.7404    -24.9566    20.7662
H    -16.1974    -26.4358    21.6286
H    -18.2108    -23.1668    22.8251
H    -18.2341    -26.5787    20.4256
H    -20.0171    -26.5986    20.6418
H    -18.9651    -27.5172    21.7715
H    -15.0977    -25.117    23.2092
H    -19.0952    -24.5956    21.469
