52

C    -2.68    7.705    29.345
C    -2.688    8.893    28.608
C    -1.891    9.015    27.488
C    -1.084    7.963    27.112
C    -1.048    6.757    27.829
C    1.337    5.954    25.145
C    2.806    4.263    24.282
C    3.009    7.42    22.243
C    3.292    9.21    21.056
C    2.309    9.647    23.335
C    0.87    10.067    23.063
C    -4.319    7.17    32.582
C    -3.561    6.608    31.372
C    -4.304    5.366    30.831
O    -3.51    7.686    30.422
C    -0.139    7.805    25.961
N    0.407    6.453    26.052
C    -0.101    5.85    27.147
O    0.182    4.71    27.496
C    -1.857    6.634    28.966
C    1.864    4.665    25.223
C    3.21    5.151    23.289
C    2.652    6.431    23.281
N    1.739    6.772    24.19
N    3.533    7.115    21.082
N    3.697    8.175    20.385
N    2.833    8.785    22.261
C    3.136    10.94    23.476
O    4.542    10.685    23.333
H    -3.32    9.718    28.9162
H    -1.8996    9.9311    26.9085
H    3.2234    3.2634    24.3217
H    3.3163    10.2427    20.7112
H    2.3501    9.0858    24.2802
H    0.5137    10.7075    23.8833
H    0.2338    9.1724    22.9936
H    0.8235    10.6244    22.1159
H    -4.3981    6.3942    33.3578
H    -5.3271    7.4814    32.2709
H    -3.7753    8.0372    32.9848
H    -2.5399    6.3167    31.6591
H    -3.7609    4.9628    29.9635
H    -5.3216    5.6514    30.5261
H    -4.3584    4.5995    31.6181
H    0.6705    8.5466    26.0299
H    -0.675    7.9346    25.0092
H    -1.8472    5.7194    29.5478
H    1.5441    3.9865    26.0055
H    3.9383    4.8567    22.542
H    2.9512    11.3758    24.4689
H    2.8213    11.6519    22.6988
H    4.8218    10.0742    24.0046
