43

C    -2.95    -8.209    -20.421
C    -1.566    -8.835    -20.419
C    -1.699    -10.341    -20.619
C    -1.706    -11.214    -19.522
C    -1.805    -10.847    -21.913
C    -1.794    -9.938    -23.052
N    -1.791    -9.201    -23.979
C    -1.911    -12.223    -22.111
C    -2.027    -12.8    -23.515
C    -1.915    -13.086    -21.018
C    -1.811    -12.596    -19.717
N    -1.832    -13.568    -18.649
S    -1.003    -13.373    -17.215
O    -1.073    -12.017    -16.78
O    -1.484    -14.386    -16.319
C    0.731    -13.756    -17.52
C    1.322    -12.762    -18.513
C    1.335    -13.041    -19.881
C    1.872    -12.119    -20.778
C    2.41    -10.923    -20.299
C    3.009    -9.895    -21.248
C    2.402    -10.653    -18.941
C    1.862    -11.57    -18.044
H    -2.861    -7.1221    -20.2771
H    -3.5482    -8.6392    -19.6043
H    -3.443    -8.4123    -21.3831
H    -1.072    -8.6335    -19.4571
H    -0.9668    -8.4065    -21.2359
H    -1.6296    -10.8162    -18.5165
H    -2.0997    -13.896    -23.4561
H    -1.1379    -12.5225    -24.1001
H    -2.9273    -12.3986    -24.0032
H    -2.0002    -14.1543    -21.1812
H    -2.3712    -14.4006    -18.7758
H    0.8117    -14.7728    -17.9319
H    1.288    -13.6986    -16.5732
H    0.9267    -13.9764    -20.2462
H    1.8719    -12.3294    -21.8414
H    3.3738    -9.0323    -20.6712
H    2.2398    -9.5612    -21.9599
H    3.8463    -10.3484    -21.7987
H    2.8188    -9.7219    -18.5743
H    1.8625    -11.3551    -16.9815
