41

C    81.747    8.221    19.896
C    80.261    8.405    20.123
C    81.257    9.051    21.069
C    81.436    10.566    21.099
C    81.381    11.351    19.944
C    81.67    11.166    22.332
C    81.727    10.353    23.498
N    81.768    9.713    24.405
C    81.841    12.541    22.437
C    81.784    13.307    21.279
C    81.564    12.733    20.027
N    81.508    13.629    18.889
S    82.235    13.308    17.442
O    81.711    14.228    16.48
O    82.12    11.92    17.149
C    83.992    13.674    17.575
C    84.639    12.709    18.533
C    85.134    11.5    18.063
C    85.733    10.609    18.938
C    85.857    10.906    20.285
C    86.521    9.898    21.215
C    85.365    12.118    20.761
C    84.772    13.018    19.883
H    82.2377    8.7115    19.0424
H    82.2129    7.2404    20.073
H    79.648    7.558    20.4647
H    79.6727    9.029    19.4341
H    81.3677    8.6601    22.0912
H    81.196    10.8864    18.9822
H    82.015    13.0057    23.4008
H    81.9142    14.3808    21.3507
H    81.0025    14.4865    18.9854
H    84.1248    14.7013    17.9451
H    84.4619    13.5772    16.5851
H    85.0516    11.2533    17.0107
H    86.1105    9.6647    18.5627
H    86.5328    10.2972    22.24
H    87.5529    9.7152    20.8809
H    85.9566    8.954    21.1956
H    85.4441    12.3597    21.8147
H    84.4096    13.97    20.2539
