78

N    86.777    7.597    158.272
C    86.205    6.335    157.765
C    85.745    5.399    158.886
O    85.968    4.195    158.837
C    87.217    5.618    156.844
C    86.622    4.408    156.102
O    85.435    4.371    155.774
N    87.474    3.415    155.817
N    85.042    5.951    159.865
C    84.534    5.158    160.993
C    83.559    4.106    160.502
O    82.865    4.303    159.523
C    83.855    6.037    162.03
N    83.567    2.964    161.167
C    82.798    1.799    160.739
C    81.303    2.019    160.882
O    80.507    1.444    160.148
C    83.215    0.6    161.58
O    82.847    0.802    162.94
N    80.925    2.835    161.857
C    79.516    2.977    162.231
C    79.312    4.185    163.148
O    80.121    4.422    164.042
C    79.04    1.705    162.925
N    78.232    4.95    162.941
C    77.945    6.094    163.788
C    77.346    5.667    165.121
O    76.163    5.803    165.354
C    76.916    6.858    162.98
C    76.149    5.789    162.298
C    77.173    4.74    161.944
N    78.19    5.149    165.989
C    77.792    4.79    167.322
C    77.634    6.057    168.165
O    76.824    6.069    169.088
C    78.85    3.87    167.957
C    78.424    3.43    169.352
C    79.073    2.651    167.082
O    78.32    7.042    167.906
H    87.062    8.1727    157.4952
H    87.5766    7.3947    158.8514
H    86.0832    8.0859    158.8157
H    85.3202    6.5905    157.1635
H    88.0604    5.2694    157.4581
H    87.5805    6.3397    156.0976
H    87.1497    2.6005    155.3359
H    88.4346    3.4879    156.0852
H    84.8525    6.9324    159.8351
H    85.3862    4.6522    161.4704
H    83.4882    5.4116    162.8572
H    83.0086    6.5645    161.566
H    84.5766    6.7712    162.4175
H    84.1217    2.895    161.9962
H    83.0233    1.5963    159.6816
H    84.3054    0.4713    161.5139
H    82.7154    -0.3028    161.1987
H    83.1121    0.0483    163.4539
H    81.617    3.3648    162.3474
H    78.9223    3.1265    161.3172
H    77.9818    1.8141    163.2048
H    79.6425    1.5331    163.8291
H    79.1523    0.8504    162.2416
H    78.8489    6.696    163.9624
H    77.4027    7.5203    162.2489
H    76.2634    7.4528    163.636
H    75.6653    6.179    161.3903
H    75.3849    5.3721    162.9705
H    76.747    3.7294    162.0287
H    77.5563    4.8921    160.9242
H    79.1391    5.0006    165.7112
H    76.8296    4.2588    167.2818
H    79.7953    4.4267    168.0374
H    79.1963    2.7751    169.7817
H    77.4722    2.8821    169.289
H    78.296    4.315    169.9925
H    79.3803    2.973    166.0761
H    78.1393    2.0735    167.0128
H    79.8611    2.0226    167.5225
