225

N    -52.53    65.099    30.881
C    -52.404    66.556    31.172
C    -51.375    67.192    30.238
O    -50.865    66.531    29.333
C    -52.025    66.776    32.639
O    -53.143    66.555    33.482
N    -51.071    68.471    30.457
C    -50.272    69.242    29.511
C    -48.999    69.81    30.118
O    -47.929    69.693    29.508
C    -51.131    70.38    28.92
C    -52.099    69.944    27.83
C    -51.804    68.874    26.992
C    -53.305    70.608    27.638
C    -52.679    68.477    26.001
C    -54.188    70.216    26.646
C    -53.868    69.15    25.831
O    -54.737    68.751    24.841
N    -49.071    70.421    31.298
C    -47.917    71.086    31.902
C    -47.242    72.014    30.886
O    -46.173    71.734    30.341
C    -46.922    70.059    32.455
C    -47.212    69.604    33.883
C    -47.826    68.218    33.955
O    -48.4    67.759    32.944
O    -47.73    67.583    35.027
N    -47.912    73.144    30.651
C    -47.492    74.072    29.609
C    -46.351    74.983    30.04
O    -45.663    75.537    29.175
C    -48.682    74.922    29.158
N    -46.133    75.164    31.345
C    -45.017    75.993    31.788
C    -43.691    75.255    31.675
O    -42.665    75.878    31.376
C    -45.232    76.463    33.227
C    -44.239    77.533    33.664
C    -44.389    77.918    35.123
O    -45.531    77.904    35.63
O    -43.36    78.23    35.762
N    -43.684    73.943    31.918
C    -42.496    73.147    31.629
C    -42.101    73.296    30.167
O    -40.944    73.595    29.847
C    -42.753    71.677    31.966
O    -43.213    71.563    33.318
C    -41.481    70.852    31.797
N    -43.062    73.096    29.262
C    -42.802    73.244    27.832
C    -42.231    74.625    27.539
O    -41.195    74.763    26.877
C    -44.09    72.986    27.03
C    -43.874    73.269    25.547
C    -44.561    71.552    27.24
N    -42.908    75.671    28.02
C    -42.454    77.032    27.759
C    -41.002    77.214    28.179
O    -40.158    77.626    27.376
C    -43.356    78.035    28.482
O    -44.678    77.989    27.974
N    -40.687    76.895    29.437
C    -39.314    77.03    29.912
C    -38.357    76.143    29.125
O    -37.192    76.509    28.929
C    -39.242    76.7    31.403
N    -38.822    74.977    28.669
C    -37.977    74.11    27.851
C    -37.655    74.767    26.515
O    -36.512    74.709    26.047
C    -38.669    72.763    27.637
C    -37.905    71.757    26.773
S    -36.493    70.998    27.602
C    -35.158    72.039    27.027
N    -38.651    75.4    25.89
C    -38.437    76.057    24.606
C    -37.407    77.174    24.689
O    -36.839    77.554    23.658
C    -39.759    76.616    24.081
N    -37.15    77.706    25.882
C    -36.232    78.824    26.055
C    -34.844    78.394    26.507
O    -33.975    79.253    26.68
C    -36.807    79.824    27.063
C    -38.276    80.202    26.861
C    -38.726    81.194    27.923
C    -38.523    80.752    25.463
N    -34.614    77.097    26.711
C    -33.288    76.632    27.095
C    -32.249    77.153    26.113
O    -32.428    77.068    24.895
C    -33.25    75.102    27.144
C    -31.878    74.501    27.471
C    -31.382    74.979    28.823
C    -31.913    72.983    27.443
N    -31.161    77.696    26.651
C    -30.127    78.31    25.835
C    -28.757    77.889    26.341
O    -28.527    77.808    27.551
C    -30.239    79.839    25.852
O    -29.231    80.432    25.052
N    -27.852    77.618    25.397
C    -26.455    77.349    25.724
C    -25.64    78.631    25.805
O    -24.492    78.598    26.273
C    -25.879    76.36    24.687
C    -24.366    76.201    24.823
C    -26.563    75.006    24.835
N    -26.205    79.763    25.395
C    -25.501    81.031    25.409
C    -25.759    81.829    24.146
O    -26.618    82.711    24.118
O    -25.123    81.603    23.115
H    -53.2105    64.69    31.5021
H    -51.6377    64.6506    31.018
H    -52.8271    64.9715    29.9263
H    -53.3782    67.0336    30.9912
H    -51.6722    67.8096    32.7701
H    -51.2215    66.0767    32.9135
H    -52.889    66.6959    34.3865
H    -51.3992    68.9136    31.2915
H    -49.9786    68.5679    28.6928
H    -50.4538    71.1355    28.495
H    -51.7146    70.829    29.7372
H    -50.8686    68.3413    27.1196
H    -53.5586    71.4471    28.2758
H    -52.4311    67.6391    25.3595
H    -55.1252    70.7437    26.5107
H    -54.367    68.0096    24.3763
H    -49.9428    70.4256    31.7878
H    -48.2753    71.6999    32.7415
H    -45.9178    70.5075    32.4343
H    -46.9421    69.1744    31.8016
H    -47.9091    70.3196    34.3434
H    -46.2675    69.5978    34.4467
H    -48.719    73.3583    31.2014
H    -47.1429    73.4778    28.7516
H    -48.3573    75.6196    28.3719
H    -49.0719    75.491    30.0149
H    -49.4721    74.2665    28.763
H    -46.7338    74.732    32.0177
H    -44.9724    76.879    31.1377
H    -45.1294    75.5965    33.8968
H    -46.2487    76.874    33.3123
H    -44.3954    78.4299    33.0467
H    -43.2196    77.1516    33.5049
H    -44.4969    73.5033    32.3
H    -41.6678    73.5113    32.2546
H    -43.5254    71.2863    31.2873
H    -43.3709    70.6486    33.5216
H    -41.6902    69.8008    32.0444
H    -40.7011    71.2387    32.4694
H    -41.1345    70.9215    30.7553
H    -43.9785    72.8397    29.5692
H    -42.0552    72.4933    27.5343
H    -44.8711    73.6661    27.4006
H    -44.8074    73.0773    24.9974
H    -43.0798    72.6135    25.1605
H    -43.5792    74.3203    25.4134
H    -44.7106    71.3688    28.3143
H    -43.8026    70.8563    26.8516
H    -45.5098    71.3957    26.7059
H    -43.7334    75.5196    28.5639
H    -42.5248    77.2187    26.6773
H    -42.9519    79.0484    28.3413
H    -43.3746    77.7934    29.555
H    -45.033    77.1163    28.0966
H    -41.3968    76.5614    30.0575
H    -39.0037    78.076    29.772
H    -38.204    76.8044    31.7519
H    -39.5816    75.6666    31.5667
H    -39.8884    77.3915    31.9633
H    -39.7559    74.6951    28.8892
H    -37.0325    73.9366    28.3875
H    -39.6396    72.9538    27.1559
H    -38.8325    72.3059    28.6241
H    -37.5397    72.2788    25.8762
H    -38.6007    70.9588    26.4749
H    -34.2087    71.6902    27.4596
H    -35.3429    73.0778    27.3381
H    -35.101    71.9895    25.9296
H    -39.5585    75.4238    26.3094
H    -38.0674    75.3034    23.895
H    -39.5896    77.1098    23.1128
H    -40.1597    77.346    24.7997
H    -40.4793    75.7946    23.9526
H    -37.6031    77.3248    26.6879
H    -36.1298    79.3279    25.0826
H    -36.2098    80.7458    27.0024
H    -36.7059    79.387    28.0674
H    -38.8779    79.2882    26.9738
H    -39.7828    81.4518    27.7596
H    -38.1122    82.1045    27.8579
H    -38.6085    80.743    28.9194
H    -38.1896    80.0169    24.7156
H    -37.9606    81.6883    25.3326
H    -39.5972    80.948    25.3306
H    -35.3577    76.4379    26.5995
H    -33.0542    77.0217    28.0967
H    -33.5648    74.7206    26.1614
H    -33.9619    74.7668    27.9127
H    -31.1677    74.8416    26.7032
H    -30.3982    74.5332    29.0312
H    -32.0949    74.6749    29.6036
H    -31.2933    76.0754    28.8144
H    -32.2732    72.6426    26.4609
H    -32.5903    72.6173    28.2288
H    -30.9009    72.5896    27.6188
H    -31.0512    77.6815    27.6448
H    -30.2459    77.9618    24.7984
H    -30.1327    80.1958    26.8871
H    -31.2253    80.1316    25.4627
H    -29.322    81.3773    25.0792
H    -28.1394    77.5988    24.4394
H    -26.4192    76.8685    26.7128
H    -26.0926    76.7529    23.682
H    -24.0026    75.4899    24.0665
H    -24.1259    75.8223    25.8275
H    -23.8798    77.1762    24.6729
H    -27.6512    75.1321    24.7355
H    -26.3318    74.5845    25.8244
H    -26.1998    74.3242    24.052
H    -27.1488    79.7391    25.0653
H    -24.4214    80.8385    25.4948
H    -25.8391    81.617    26.2763
