66

P    114.751    76.983    0.78
O    114.08    77.017    -0.553
O    115.873    77.949    1.085
O    113.589    77.132    1.89
C    113.859    77.758    3.138
C    114.018    76.695    4.231
O    114.426    77.355    5.444
C    112.746    75.938    4.566
O    113.096    74.613    4.998
C    112.259    76.707    5.779
O    111.292    75.943    6.52
C    113.572    76.948    6.507
N    113.636    78.016    7.542
C    114.787    78.559    8.001
N    114.547    79.491    8.963
C    113.209    79.531    9.122
C    112.281    80.291    9.983
N    112.762    81.209    10.855
N    110.957    80.044    9.863
C    110.49    79.136    8.987
N    111.277    78.408    8.171
C    112.62    78.552    8.205
P    112.472    73.272    4.343
O    112.966    72.141    5.194
O    111.0    73.493    4.112
O    113.135    73.178    2.879
C    114.553    73.076    2.836
C    115.029    73.156    1.396
O    114.519    72.072    0.625
C    114.537    74.372    0.643
O    115.321    75.505    1.017
C    114.718    73.943    -0.805
O    115.994    74.387    -1.275
C    114.741    72.426    -0.743
N    113.675    71.767    -1.517
C    112.365    72.077    -1.524
N    111.677    71.237    -2.327
C    112.573    70.378    -2.85
C    112.511    69.246    -3.783
N    111.335    68.858    -4.319
N    113.671    68.614    -4.068
C    114.842    68.998    -3.52
N    114.98    70.03    -2.665
C    113.885    70.73    -2.31
H    113.0256    78.4271    3.3984
H    114.7876    78.3423    3.0597
H    114.7871    75.9765    3.9114
H    112.021    75.9212    3.7389
H    111.7995    77.6629    5.4875
H    111.0031    76.4451    7.273
H    113.9101    76.0058    6.963
H    115.7793    78.2851    7.6458
H    112.1136    81.7385    11.4551
H    113.7762    81.3776    10.918
H    109.4184    78.9811    8.9347
H    114.8637    72.1146    3.2708
H    114.9965    73.9002    3.4139
H    116.1289    73.1408    1.3975
H    113.4778    74.579    0.8554
H    113.9078    74.3186    -1.4472
H    116.1077    74.1194    -2.1794
H    115.7199    72.0632    -1.0896
H    111.9202    72.8946    -0.9586
H    111.3044    68.0623    -4.9724
H    110.468    69.3575    -4.0748
H    115.7319    68.4387    -3.7853
