91

C    -3.636    -15.393    30.95
C    -2.296    -13.387    30.928
C    -2.782    -21.996    36.953
C    -2.665    -22.41    35.51
C    -2.597    -20.198    34.696
C    0.165    -14.836    28.177
C    -0.983    -15.566    27.503
C    -0.568    -17.92    32.779
C    0.319    -17.734    31.76
C    1.076    -16.522    29.79
C    2.348    -17.158    29.894
C    -3.398    -15.636    32.321
C    -3.981    -16.834    33.002
C    -2.89    -17.834    33.544
C    -2.037    -13.595    32.302
C    -3.476    -19.235    33.922
O    3.335    -19.845    28.67
S    4.435    -19.465    29.538
C    5.278    -18.173    28.658
C    5.668    -18.57    27.244
C    6.613    -17.857    29.299
C    4.521    -16.92    28.485
N    3.153    -16.689    28.8
C    2.398    -15.763    28.084
C    1.147    -15.63    28.632
C    0.096    -16.794    30.759
N    -1.867    -17.875    32.551
C    -3.106    -14.299    30.279
C    -2.609    -14.714    32.971
O    -4.612    -19.037    34.714
N    -3.335    -21.424    34.682
N    -2.452    -20.557    37.126
C    -2.221    -20.099    38.55
C    -3.536    -20.071    39.255
C    -4.469    -19.077    38.96
C    -5.688    -19.06    39.593
C    -6.06    -20.036    40.463
C    -5.153    -21.044    40.732
C    -3.907    -21.048    40.137
C    -2.323    -19.655    36.096
O    -2.029    -18.483    36.306
O    -0.103    -17.884    33.944
C    1.588    -18.329    31.871
C    2.601    -18.053    30.963
N    3.783    -18.736    30.952
C    4.573    -19.007    32.176
O    5.314    -20.472    29.801
H    -4.258    -16.0892    30.3991
H    -1.8729    -12.5396    30.4007
H    -2.0878    -22.5987    37.557
H    -3.8128    -22.1716    37.2946
H    -3.1374    -23.3933    35.3685
H    -1.6035    -22.4691    35.2277
H    -1.6346    -20.3385    34.1822
H    -0.2415    -14.2719    29.0293
H    0.6005    -14.1364    27.4484
H    -1.7338    -14.8363    27.1656
H    -1.4445    -16.263    28.218
H    -0.6025    -16.1275    26.637
H    -4.6186    -17.3689    32.2828
H    -4.5923    -16.491    33.8497
H    -2.4583    -17.4118    34.4634
H    -1.4036    -12.9033    32.8456
H    -3.7627    -19.7295    32.9822
H    6.1837    -17.7296    26.7563
H    4.7638    -18.8267    26.6726
H    6.3389    -19.441    27.2795
H    7.1106    -17.0553    28.7336
H    7.2452    -18.7571    29.2923
H    6.453    -17.5289    30.3367
H    4.6074    -16.6839    27.4141
H    5.0754    -16.1724    29.0713
H    2.7519    -15.2192    27.2094
H    -0.8486    -16.2632    30.7263
H    -2.1608    -17.8691    31.5952
H    -3.3316    -14.158    29.2281
H    -2.4164    -14.8446    34.0297
H    -5.2541    -18.5359    34.2251
H    -4.2627    -21.2603    35.0407
H    -3.3961    -21.7671    33.7362
H    -1.7784    -19.092    38.5492
H    -1.5412    -20.7979    39.0594
H    -4.231    -18.3141    38.2276
H    -6.3734    -18.2444    39.3929
H    -7.0376    -20.0243    40.9313
H    -5.4228    -21.8395    41.4172
H    -3.2083    -21.8422    40.374
H    1.7798    -19.0193    32.6845
H    4.0984    -18.5116    33.0359
H    5.594    -18.6187    32.0469
H    4.613    -20.0918    32.354
