45

C    243.19    -23.702    355.04
O    243.165    -22.569    354.583
O    243.903    -23.903    356.278
C    244.291    -22.737    357.01
C    242.512    -24.866    354.429
C    241.82    -24.915    353.28
C    241.622    -23.745    352.356
C    241.21    -26.244    352.918
C    239.786    -26.078    352.404
C    239.005    -27.377    352.493
C    238.858    -28.241    351.475
C    239.529    -27.998    350.151
C    238.045    -29.515    351.683
C    236.855    -29.568    350.721
C    236.002    -28.313    350.899
O    234.741    -28.378    350.22
C    234.675    -28.448    351.649
C    234.176    -27.159    352.311
C    234.064    -29.782    352.068
H    244.822    -23.0384    357.925
H    243.3952    -22.1584    357.2797
H    244.9543    -22.1176    356.3884
H    242.5833    -25.8018    354.9814
H    241.019    -24.0588    351.4911
H    242.6007    -23.3825    352.0085
H    241.1014    -22.9381    352.8925
H    241.196    -26.8868    353.8105
H    241.8206    -26.7171    352.1349
H    239.8211    -25.7538    351.3534
H    239.2757    -25.3126    353.0071
H    238.5337    -27.6241    353.4431
H    239.2827    -28.8171    349.4593
H    240.6187    -27.9546    350.2947
H    239.1763    -27.0447    349.7306
H    237.6727    -29.5395    352.7178
H    238.6909    -30.3874    351.5049
H    236.2471    -30.4587    350.938
H    237.2223    -29.6182    349.6854
H    236.6121    -27.3996    350.957
H    233.2219    -27.355    352.8222
H    234.0283    -26.3857    351.5428
H    234.9196    -26.8112    353.0432
H    233.1125    -29.6017    352.5897
H    234.7573    -30.3076    352.7411
H    233.8816    -30.3983    351.1753
