43

P    -12.582    17.026    -13.144
O    -11.367    16.392    -13.863
O    -12.24    17.309    -11.722
O    -12.957    18.349    -13.846
P    -14.091    14.493    -12.716
O    -14.611    13.648    -13.822
O    -12.733    13.87    -12.107
O    -13.844    16.012    -13.216
P    -15.251    15.469    -10.161
O    -16.582    15.022    -9.368
O    -14.013    15.249    -9.365
O    -15.218    14.661    -11.563
O    -15.38    16.992    -10.62
C    -16.251    17.311    -11.687
C    -16.591    18.782    -11.67
O    -17.992    18.887    -11.955
C    -16.438    19.398    -10.267
O    -15.107    19.875    -10.042
C    -17.433    20.562    -10.343
O    -16.841    21.696    -10.996
C    -18.572    19.951    -11.19
N    -19.638    19.4    -10.36
C    -19.549    18.512    -9.332
N    -20.708    18.264    -8.778
C    -21.584    19.044    -9.467
C    -22.952    19.282    -9.388
N    -23.754    18.69    -8.482
N    -23.467    20.135    -10.256
C    -22.715    20.738    -11.158
N    -21.425    20.618    -11.326
C    -20.917    19.761    -10.457
H    -17.1762    16.7245    -11.5869
H    -15.7613    17.0636    -12.6404
H    -15.9794    19.3254    -12.4052
H    -16.7113    18.6808    -9.4791
H    -14.8972    20.5407    -10.6865
H    -17.7889    20.855    -9.3443
H    -17.4728    22.4045    -11.0325
H    -18.9905    20.7189    -11.8572
H    -18.6146    18.0574    -9.0062
H    -24.7615    18.9035    -8.4687
H    -23.3597    18.0238    -7.8025
H    -23.2267    21.41    -11.8374
