19

C    -13.075    6.79    113.92
O    -11.979    6.364    113.488
O    -13.171    7.722    114.763
C    -14.374    6.206    113.478
C    -14.677    5.309    112.536
C    -16.16    4.976    112.414
C    -17.128    5.886    112.862
C    -18.461    5.568    112.74
C    -18.787    4.36    112.165
C    -17.856    3.42    111.704
C    -16.507    3.745    111.838
O    -20.128    4.04    112.047
H    -15.2371    6.5812    114.0259
H    -13.9206    4.8492    111.9017
H    -16.8289    6.8312    113.3004
H    -19.2312    6.2478    113.086
H    -18.1708    2.4813    111.2626
H    -15.7388    3.0577    111.5026
H    -20.6538    4.752    112.392
