155

N    98.008    64.832    218.297
C    97.381    65.428    219.474
C    98.424    65.886    220.482
O    99.414    65.187    220.691
C    96.326    64.51    220.141
C    95.062    64.412    219.297
C    96.895    63.127    220.45
N    98.2    67.056    221.116
C    99.1    67.572    222.143
C    98.965    66.718    223.403
O    97.92    66.084    223.597
C    98.827    69.064    222.435
C    97.489    69.339    223.11
S    97.479    70.883    224.056
C    98.324    70.372    225.517
N    100.031    66.671    224.239
C    100.066    65.881    225.482
C    98.839    66.138    226.378
O    98.448    67.288    226.57
C    101.345    66.162    226.249
N    98.179    65.077    226.881
C    96.969    65.289    227.693
C    97.244    65.842    229.089
O    96.366    66.467    229.681
C    96.332    63.907    227.736
C    97.471    62.962    227.579
C    98.484    63.64    226.716
N    98.463    65.615    229.61
C    98.902    66.091    230.927
C    100.135    67.009    230.778
O    100.73    67.067    229.699
C    99.237    64.897    231.837
C    98.967    65.15    233.315
C    99.479    64.007    234.177
N    98.567    63.707    235.28
C    98.64    64.271    236.48
N    99.578    65.17    236.744
N    97.769    63.95    237.421
N    100.493    67.739    231.853
C    101.66    68.625    231.894
C    102.306    68.596    233.294
O    101.831    67.864    234.165
C    101.31    70.034    231.374
O    102.519    70.706    231.033
C    100.499    70.864    232.377
N    103.388    69.368    233.505
C    104.065    69.392    234.801
C    103.622    70.55    235.684
O    103.669    71.703    235.251
C    105.592    69.438    234.627
C    106.286    68.19    234.102
C    107.777    68.328    234.229
C    105.846    66.959    234.847
N    103.217    70.252    236.934
C    102.904    71.294    237.913
C    104.213    71.581    238.63
O    104.605    70.846    239.548
C    101.74    70.925    238.884
C    100.431    70.725    238.12
C    101.559    71.985    239.988
C    99.902    69.41    238.271
N    104.943    72.582    238.123
C    106.244    72.986    238.645
C    106.123    73.572    240.051
O    106.991    73.262    240.897
C    106.904    73.998    237.698
C    107.052    73.557    236.249
C    107.155    74.75    235.332
C    108.239    72.629    236.069
O    105.135    74.298    240.315
H    98.6807    65.4765    217.9121
H    97.3023    64.6305    217.6061
H    98.4737    63.9778    218.5606
H    96.8472    66.3254    219.1282
H    96.0475    64.9723    221.0995
H    94.3364    63.7546    219.7984
H    95.3117    63.9967    218.3095
H    94.6249    65.4138    219.1736
H    97.8048    63.2326    221.0592
H    97.1414    62.6133    219.5091
H    96.1488    62.5389    221.0043
H    97.3889    67.5883    220.8737
H    100.1327    67.4838    221.7746
H    98.8498    69.611    221.4809
H    99.6266    69.438    223.0913
H    97.2637    68.5074    223.7938
H    96.7107    69.3976    222.3349
H    98.4013    71.2212    226.2118
H    99.3326    70.0209    225.2535
H    97.7652    69.5552    225.9971
H    100.8418    67.2042    223.9977
H    100.0602    64.817    225.2029
H    101.3567    65.5658    227.1733
H    101.3935    67.2314    226.5019
H    102.2118    65.8924    225.6278
H    96.2998    65.9941    227.1783
H    95.6113    63.7861    226.9138
H    95.8225    63.7443    228.6972
H    97.128    62.0329    227.1004
H    97.907    62.729    228.5617
H    99.5048    63.4138    227.0577
H    98.3726    63.3334    225.6655
H    99.1133    65.0869    229.0638
H    98.085    66.6673    231.3856
H    100.304    64.6585    231.7161
H    98.6305    64.037    231.5168
H    97.8828    65.2552    233.4677
H    99.4718    66.0795    233.6169
H    100.4593    64.2851    234.5914
H    99.5871    63.1094    233.5504
H    97.8217    63.0153    235.116
H    99.6282    65.6031    237.6772
H    100.2565    65.4353    236.0159
H    97.0357    63.2529    237.2279
H    97.8236    64.3969    238.3474
H    99.9267    67.6719    232.6745
H    102.4053    68.2142    231.1971
H    100.7022    69.921    230.4642
H    102.3162    71.5764    230.7109
H    100.2841    71.8528    231.9456
H    101.0778    70.9865    233.3044
H    99.5535    70.348    232.6003
H    103.7363    69.937    232.7601
H    103.809    68.4577    235.3221
H    106.0273    69.6654    235.6113
H    105.8177    70.2569    233.9281
H    106.028    68.0701    233.0394
H    108.2633    67.4188    233.8457
H    108.0435    68.4681    235.287
H    108.1156    69.198    233.6472
H    104.755    66.8484    234.7604
H    106.1218    67.0541    235.9076
H    106.3394    66.0746    234.4176
H    103.1278    69.2922    237.2003
H    102.5944    72.1996    237.3708
H    101.9987    69.9728    239.3701
H    100.6153    70.9097    237.0514
H    99.6908    71.4473    238.4946
H    102.5081    72.1176    240.5281
H    100.7805    71.6533    240.6907
H    101.2594    72.9407    239.5332
H    98.9643    69.3245    237.7022
H    99.7044    69.2142    239.3352
H    100.6289    68.6766    237.892
H    104.5746    73.0827    237.3397
H    106.8844    72.0933    238.6998
H    107.9091    74.2175    238.0873
H    106.2975    74.9156    237.7103
H    106.1453    72.998    235.9743
H    107.261    74.4055    234.2927
H    108.0329    75.3516    235.6102
H    106.2463    75.3629    235.4242
H    108.1387    71.7695    236.7481
H    109.1673    73.1721    236.2997
H    108.2714    72.2726    235.0288
