19

S    40.345    26.724    56.071
C    43.885    24.824    54.077
N    40.344    28.258    55.966
O    39.188    26.244    55.392
C    43.872    26.199    54.213
O    40.461    26.397    57.454
C    42.785    26.797    54.83
C    41.739    26.009    55.273
C    41.776    24.63    55.147
C    42.867    24.029    54.557
N    44.952    24.198    53.289
O    45.761    24.918    52.734
O    44.988    22.977    53.233
H    40.2701    28.6979    55.071
H    40.4172    28.8158    56.7927
H    44.6964    26.7984    53.844
H    42.755    27.8723    54.9641
H    40.9517    24.0271    55.5103
H    42.9233    22.9498    54.4721
