21

O    39.049    14.738    3.58
C    38.201    14.043    4.199
O    38.371    13.784    5.419
C    36.977    13.522    3.477
C    35.789    13.335    4.167
N    37.045    13.239    2.145
C    35.947    12.769    1.489
C    34.761    12.579    2.178
C    34.693    12.863    3.512
N    33.475    12.666    4.212
C    33.345    12.158    5.511
C    31.988    12.119    5.82
C    31.272    12.603    4.71
C    32.19    12.938    3.722
H    35.7331    13.564    5.2251
H    36.0019    12.5443    0.43
H    33.8864    12.2048    1.6584
H    34.1604    11.8486    6.1632
H    31.5559    11.7738    6.7581
H    30.1896    12.6983    4.6378
H    31.9526    13.3414    2.7387
