155

N        -46.19900       19.71400       -4.91900
C        -45.31600       19.47400       -6.05400
C        -45.38400       17.99000       -6.35300
O        -45.14900       17.17300       -5.46700
C        -43.88700       19.90500       -5.74600
O        -43.20500       20.06700       -6.97600
N        -45.76800       17.65400       -7.57200
C        -46.06400       16.28700       -7.97400
C        -44.88200       15.40000       -8.29500
O        -43.75400       15.84700       -8.49200
C        -47.05200       16.27600       -9.16400
C        -46.44100       16.32500      -10.56800
C        -47.47700       16.70400      -11.58000
O        -47.55000       17.86100      -11.97800
N        -48.31700       15.75300      -11.99900
N        -45.19600       14.11700       -8.40700
C        -44.27200       13.09900       -8.82900
C        -44.04200       13.24700      -10.32500
O        -45.00100       13.33700      -11.09400
C        -44.89600       11.72500       -8.55000
C        -44.20800       10.48200       -9.11900
C        -42.73500       10.41500       -8.70400
C        -44.88300        9.26100       -8.59800
N        -42.77300       13.24400      -10.73600
C        -42.41600       13.19800      -12.14800
C        -42.06400       11.72000      -12.36600
O        -41.17300       11.21100      -11.69600
C        -41.22700       14.11600      -12.48500
C        -40.92900       14.25800      -13.97700
C        -41.82200       15.31200      -14.61200
C        -39.45100       14.54700      -14.22200
N        -42.80100       11.01500      -13.23400
C        -42.58100        9.58100      -13.43900
C        -41.23500        9.23900      -14.04500
O        -40.63200       10.06700      -14.72700
C        -43.70100        8.95800      -14.24600
C        -45.03900        9.03300      -13.57400
O        -45.15000        9.27400      -12.37800
N        -46.08600        8.86700      -14.32700
N        -40.77900        8.00400      -13.80200
C        -39.51500        7.50700      -14.30200
C        -39.73200        6.70100      -15.59700
O        -40.13300        7.28500      -16.61100
C        -38.81800        6.67700      -13.21800
N        -39.49000        5.37200      -15.56500
C        -39.60900        4.48700      -16.72800
C        -41.02300        4.47700      -17.29200
O        -41.97300        4.39100      -16.51500
C        -39.12900        3.05300      -16.37700
C        -38.86000        2.16200      -17.60300
C        -37.48000        2.42100      -18.18700
C        -37.16100        1.50800      -19.34200
N        -36.11900        2.11900      -20.19900
N        -41.17400        4.57600      -18.63500
C        -42.49800        4.51700      -19.26800
C        -43.14200        3.18600      -18.97500
O        -42.43200        2.20500      -18.74200
C        -42.41000        4.61300      -20.79800
C        -41.68900        5.82300      -21.33200
C        -42.09300        7.11100      -20.98500
C        -40.65000        5.68800      -22.24600
C        -41.44300        8.23100      -21.49300
C        -39.98800        6.79800      -22.75400
C        -40.39700        8.06700      -22.39100
O        -39.74700        9.14700      -22.91500
N        -44.47200        3.11600      -19.08900
C        -45.15700        1.84500      -18.93900
C        -44.66300        0.86400      -20.03200
O        -44.60800       -0.34700      -19.75500
C        -46.66600        2.02900      -19.06500
C        -47.40800        2.79600      -17.97300
C        -48.83200        2.97300      -18.38500
C        -47.38500        2.06400      -16.60900
O        -44.20500        1.31400      -21.10800
H        -47.14500       19.41580       -5.15670
H        -45.86660       19.18430       -4.11320
H        -46.20100       20.70930       -4.69580
H        -45.63230       20.06000       -6.91690
H        -43.38940       19.15150       -5.13550
H        -43.88770       20.84200       -5.18920
H        -42.30030       20.33910       -6.80550
H        -45.86200       18.39280       -8.26890
H        -46.50360       15.84810       -7.07830
H        -47.64980       17.18210       -9.06550
H        -47.58510       15.32730       -9.10210
H        -46.04790       15.33930      -10.81690
H        -45.64510       17.06960      -10.58120
H        -49.04910       15.97960      -12.67210
H        -48.22610       14.80040      -11.64580
H        -46.14970       13.83500       -8.18040
H        -43.32710       13.19390       -8.29390
H        -45.87470       11.75370       -9.02910
H        -44.85060       11.60570       -7.46750
H        -44.27240       10.53830      -10.20560
H        -42.21400       11.29790       -9.07420
H        -42.66640       10.38030       -7.61670
H        -42.28010        9.51920       -9.12680
H        -44.81820        9.24780       -7.51000
H        -45.93010        9.26900       -8.90080
H        -44.39310        8.37560       -9.00320
H        -42.02850       13.27490      -10.03940
H        -43.21910       13.55360      -12.79340
H        -40.34380       13.67050      -12.02710
H        -41.48090       15.11020      -12.11720
H        -41.15370       13.30560      -14.45720
H        -42.86600       15.02390      -14.48890
H        -41.64930       16.27280      -14.12700
H        -41.58870       15.39230      -15.67370
H        -39.17620       15.47620      -13.72290
H        -38.85120       13.72830      -13.82430
H        -39.27340       14.64220      -15.29320
H        -43.53270       11.48750      -13.76490
H        -42.57930        9.14970      -12.43800
H        -43.46060        7.90310      -14.37840
H        -43.77460        9.51000      -15.18300
H        -47.02040        8.93680      -13.92390
H        -45.97290        8.66700      -15.32080
H        -41.35280        7.38030      -13.23440
H        -38.86420        8.34590      -14.54870
H        -38.63960        7.30150      -12.34260
H        -39.45320        5.83530      -12.94210
H        -37.86740        6.30610      -13.60120
H        -39.20690        4.95870      -14.67650
H        -38.95990        4.88090      -17.51010
H        -39.92430        2.57860      -15.80210
H        -38.18710        3.15150      -15.83730
H        -39.60580        2.38830      -18.36500
H        -38.91290        1.11910      -17.29060
H        -36.74420        2.24100      -17.40320
H        -37.45750        3.44720      -18.55370
H        -38.06310        1.34920      -19.93290
H        -36.79500        0.55660      -18.95610
H        -35.91060        1.49340      -20.97720
H        -36.45720        3.01120      -20.55960
H        -35.27410        2.27170      -19.64830
H        -40.34750        4.69450      -19.22090
H        -43.06910        5.35540      -18.86930
H        -43.43470        4.67580      -21.16430
H        -41.84460        3.74280      -21.13140
H        -42.93330        7.24300      -20.30340
H        -40.34930        4.69170      -22.57010
H        -41.75280        9.23060      -21.18810
H        -39.14840        6.66870      -23.43690
H        -39.05810        8.84580      -23.51200
H        -45.00910        3.96120      -19.28270
H        -44.93680        1.44220      -17.95040
H        -47.07720        1.02010      -19.03030
H        -46.80340        2.62180      -19.96930
H        -46.90170        3.75340      -17.84990
H        -48.87160        3.53250      -19.31960
H        -49.29240        1.99510      -18.52570
H        -49.36800        3.52020      -17.60950
H        -47.85900        1.08810      -16.71380
H        -46.35240        1.93480      -16.28480
H        -47.92740        2.65550      -15.87150
