54

C    -7.013    -12.251    18.935
C    -7.072    -13.64    18.472
C    -6.271    -14.076    17.332
N    -5.444    -13.159    16.689
N    -6.229    -11.395    18.31
C    -5.414    -11.864    17.137
C    -7.884    -14.539    19.091
C    -7.918    -15.958    18.599
C    -7.195    -16.361    17.559
C    -6.306    -15.364    16.872
C    -7.667    -10.475    20.63
C    -6.951    -9.324    20.18
C    -7.171    -8.301    21.089
C    -6.569    -6.737    21.071
C    -4.503    -10.885    16.449
C    -4.136    -8.902    15.059
C    -4.599    -7.468    15.233
C    -6.798    -8.161    15.784
C    -6.48    -9.644    15.582
C    -3.763    -6.589    14.322
C    -6.479    -6.211    19.841
C    -5.254    -6.716    21.33
N    -7.79    -11.796    20.045
N    -8.017    -8.797    22.08
N    -8.308    -10.132    21.792
N    -5.052    -9.81    15.691
N    -5.987    -7.344    14.907
O    -3.304    -11.035    16.553
Cl    -8.953    -17.072    19.419
H    -8.4996    -14.2348    19.9298
H    -7.2458    -17.3874    17.2139
H    -5.7005    -15.661    16.0234
H    -6.3398    -9.2612    19.2809
H    -7.1539    -6.1079    21.758
H    -3.1409    -9.0181    15.5133
H    -4.0786    -9.1355    13.9856
H    -4.4487    -7.1599    16.2782
H    -6.5913    -7.8856    16.8287
H    -7.8609    -7.9853    15.5618
H    -6.8188    -9.9666    14.5865
H    -6.9858    -10.2431    16.3535
H    -4.0808    -5.5415    14.4305
H    -3.9003    -6.9075    13.2781
H    -2.7018    -6.6806    14.5968
H    -6.0783    -5.1888    19.9078
H    -7.4772    -6.1841    19.3798
H    -5.8076    -6.8285    19.2263
H    -5.072    -7.1211    22.3364
H    -4.8869    -5.6803    21.2798
H    -4.724    -7.3294    20.5865
H    -8.4779    -12.4448    20.4534
H    -8.9036    -10.7538    22.3572
H    -6.1301    -7.6402    13.9542
H    -6.2641    -6.3798    15.0044
