36

P         13.66600       -9.36100       -2.47600
O         14.40800       -9.86300       -3.69900
O         14.69700       -9.12300       -1.41000
O         13.00800       -8.04700       -2.80000
O         12.55300      -10.41600       -1.98300
C         11.20900      -10.06900       -1.57300
C         10.61200      -11.22300       -0.82400
O         10.58600      -10.93200        0.58100
C          9.17600      -11.48900       -1.03300
O          8.88400      -12.24000       -2.19400
C          8.92500      -12.40600        0.05900
O          9.48900      -13.68600       -0.15300
C          9.62000      -11.79600        1.17300
N          8.72600      -11.05100        1.96000
C          8.01900      -10.00500        1.55100
N          7.25900       -9.53300        2.58200
C          7.49500      -10.31000        3.68800
C          7.01400      -10.31800        5.03500
O          6.19000       -9.49100        5.42000
N          7.48800      -11.26600        5.86700
C          8.37300      -12.17300        5.47100
N          8.81500      -13.11600        6.38000
N          8.84900      -12.20400        4.22300
C          8.43500      -11.29100        3.30700
H         10.59770       -9.85030       -2.46100
H         11.23960       -9.18320       -0.92160
H         11.20420      -12.12300       -1.04610
H          8.57640      -10.56760       -0.99410
H          9.31780      -13.08350       -2.14150
H          7.84580      -12.49900        0.25040
H          9.11970      -14.06700       -0.94100
H         10.10950      -12.56220        1.79210
H          8.04170       -9.58680        0.54570
H          7.16300      -11.28710        6.81250
H          9.50140      -13.82760        6.09120
H          8.45790      -13.10700        7.34610
