26

P    69.213    68.508    280.566
C    65.645    71.104    277.584
O    65.376    72.106    276.599
C    64.49    71.034    278.597
O    63.966    72.347    278.932
C    65.239    70.472    279.795
O    64.546    70.653    281.031
C    66.553    71.247    279.769
O    66.84    71.458    278.355
C    67.705    70.647    280.556
O    67.932    69.36    280.107
P    65.197    71.738    275.033
O    64.538    72.931    274.473
O    69.238    67.219    279.841
O    66.647    71.646    274.447
O    70.369    69.395    280.246
O    64.516    70.389    274.885
O    69.016    68.278    282.08
H    65.7821    70.1303    277.091
H    63.6777    70.376    278.2547
H    64.6581    72.8755    279.3118
H    65.424    69.3968    279.6547
H    64.4135    71.5809    281.1855
H    66.3636    72.2303    280.2243
H    67.4495    70.6251    281.6257
H    68.6097    71.2547    280.4074
