57

C    -16.583    2.094    21.905
C    -15.174    2.682    22.15
C    -14.486    2.944    20.765
C    -14.55    1.713    19.885
C    -16.014    1.282    19.755
C    -16.179    -0.038    18.975
C    -14.966    4.127    24.22
C    -15.227    5.545    24.778
N    -15.268    3.948    22.909
O    -17.163    1.77    23.179
O    -13.087    3.276    21.021
O    -14.158    2.193    18.565
O    -16.477    0.912    21.115
O    -15.284    -1.108    19.307
O    -14.548    3.183    24.893
C    -20.79    0.842    24.893
C    -20.513    0.087    23.57
C    -18.942    0.137    23.352
C    -18.634    1.639    23.208
C    -19.069    2.352    24.469
C    -18.782    3.84    24.394
C    -22.205    -1.79    23.272
C    -22.575    -3.258    23.308
N    -20.908    -1.369    23.673
O    -22.152    0.791    25.194
O    -18.635    -0.552    22.107
O    -20.536    2.231    24.516
O    -19.299    4.419    23.168
O    -23.018    -0.948    22.865
H    -17.2112    2.8316    21.3842
H    -14.5746    1.9611    22.7254
H    -14.9853    3.7821    20.2567
H    -13.9093    0.8988    20.2544
H    -16.6148    2.0884    19.3092
H    -16.0431    0.1886    17.9072
H    -17.2042    -0.3982    19.1459
H    -14.9491    5.5772    25.8418
H    -16.2937    5.7909    24.6701
H    -14.6238    6.2757    24.2192
H    -15.5856    4.7519    22.4062
H    -12.6477    3.4486    20.1965
H    -14.2562    1.4914    17.9321
H    -14.3888    -0.8301    19.1524
H    -20.1658    0.4861    25.7259
H    -21.0463    0.5666    22.736
H    -18.3938    -0.3117    24.1935
H    -19.1092    2.0648    22.312
H    -18.5911    1.906    25.3537
H    -17.6939    3.9968    24.4325
H    -19.255    4.3392    25.2525
H    -23.6122    -3.3832    22.9637
H    -22.4824    -3.6344    24.3374
H    -21.8992    -3.8228    22.6489
H    -20.2539    -2.0386    24.0248
H    -22.3398    1.3882    25.9085
H    -17.7144    -0.4382    21.9021
H    -19.1039    5.3486    23.1513
