40

C    -28.079    -16.965    -1.694
N    -27.689    -16.044    -3.82
C    -27.379    -16.081    -2.499
N    -29.015    -17.761    -2.193
C    -28.63    -16.856    -4.346
C    -29.326    -17.706    -3.503
C    -30.376    -18.658    -3.939
C    -26.251    -14.913    -0.577
C    -25.909    -13.446    -0.329
C    -27.001    -12.511    -0.833
C    -27.248    -12.604    -2.337
C    -26.044    -13.053    -3.173
C    -25.555    -14.483    -2.965
C    -32.046    -20.136    -3.079
O    -30.52    -18.866    -5.134
N    -31.075    -19.233    -2.942
N    -32.662    -20.594    -1.989
N    -32.403    -20.585    -4.277
Cl    -27.805    -17.175    0.056
N    -28.888    -16.761    -5.685
N    -26.405    -15.189    -2.013
H    -27.1931    -15.1535    -0.0627
H    -25.4431    -15.5424    -0.1756
H    -24.9697    -13.2077    -0.8495
H    -25.7791    -13.2897    0.7521
H    -26.7105    -11.4776    -0.5928
H    -27.9375    -12.7592    -0.312
H    -27.5566    -11.6099    -2.6927
H    -28.064    -13.3227    -2.5034
H    -25.2071    -12.3783    -2.9398
H    -26.3169    -12.9459    -4.2332
H    -24.525    -14.4592    -2.5798
H    -25.5742    -15.0141    -3.9281
H    -30.8435    -18.9561    -2.0094
H    -33.4143    -21.2919    -2.0775
H    -32.3856    -20.2499    -1.0583
H    -31.9291    -20.2332    -5.1211
H    -33.1538    -21.285    -4.3619
H    -29.6004    -17.3669    -6.1165
H    -28.37    -16.0835    -6.2625
