47

C    187.885    24.34    525.974
C    183.918    26.952    524.854
C    183.412    29.472    524.621
C    184.674    29.179    526.642
C    182.141    30.804    526.283
C    181.148    28.921    525.374
C    183.227    28.618    526.686
N    182.466    29.465    525.749
C    183.459    28.093    523.919
C    184.796    29.771    525.261
O    184.918    30.608    526.458
C    183.255    27.146    526.237
O    185.37    26.858    524.9
C    185.871    25.746    525.504
O    185.203    24.792    525.901
C    187.395    25.748    525.637
O    187.385    23.423    524.996
C    187.78    26.646    526.627
C    188.343    27.866    526.268
C    188.729    28.771    527.25
C    188.552    28.456    528.593
C    187.988    27.237    528.952
C    187.601    26.331    527.97
H    187.5191    24.0514    526.9704
H    188.9848    24.3215    525.9677
H    183.5475    26.0026    524.4401
H    183.139    30.2497    523.8926
H    185.4121    28.54    527.1488
H    181.432    30.7035    527.118
H    181.6878    31.4154    525.4888
H    183.0612    31.2897    526.6398
H    181.2734    27.9105    524.9579
H    180.6833    29.573    524.6197
H    180.504    28.8735    526.2645
H    182.8044    28.689    527.6991
H    182.4519    27.8559    523.5456
H    184.1588    28.1548    523.0726
H    185.6402    29.6568    524.5651
H    183.8174    26.5627    526.9809
H    182.2208    26.7749    526.1857
H    187.8385    26.0606    524.6802
H    186.4352    23.4413    525.0027
H    188.481    28.1115    525.2212
H    189.1677    29.7217    526.9692
H    188.8537    29.1606    529.3595
H    187.8496    26.9922    529.9989
H    187.1607    25.3811    528.2508
