18

O    30.275    -24.833    -22.514
C    30.547    -25.471    -23.519
N    31.72    -25.466    -24.166
C    31.579    -26.288    -25.233
C    32.382    -26.456    -26.264
C    31.996    -27.296    -27.28
C    30.778    -27.977    -27.24
F    30.482    -28.753    -28.26
C    29.919    -27.76    -26.185
C    30.361    -26.914    -25.211
C    29.784    -26.549    -23.974
O    28.411    -26.395    -23.979
H    32.5405    -24.9546    -23.9107
H    33.3336    -25.9388    -26.3098
H    32.6519    -27.4332    -28.132
H    28.9461    -28.2352    -26.1321
H    29.9675    -27.3801    -23.2771
H    28.0026    -27.2139    -24.234
