40

P         34.03500        5.89900       19.38800
O         33.13500        5.72900       18.21800
O         33.49000        5.65900       20.64600
O         35.42300        5.06700       19.14900
O         34.49300        7.40500       19.43700
P         34.46800        8.50800       20.68700
O         33.07200        8.73400       21.17300
O         35.42300        7.94900       21.69800
O         35.00600        9.78700       19.97400
C         36.03400        9.77500       18.92600
C         36.63000       11.09400       18.67000
O         35.59000       11.97400       18.01600
C         36.95500       11.92300       19.97000
O         38.16400       12.69800       19.64800
C         35.76200       12.89700       20.22600
O         35.97700       14.12000       20.95300
C         35.25800       13.21300       18.80100
N         33.79800       13.42200       18.70500
C         32.89500       12.35200       19.22900
N         31.72800       13.06500       18.88000
C         31.79800       14.26200       18.29900
C         31.06600       15.33400       17.77100
O         29.73200       15.21800       17.82000
N         31.60700       16.43500       17.23600
C         33.08500       16.53100       17.19700
N         33.40900       17.68200       16.63600
N         33.79000       15.59800       17.65200
C         33.20800       14.52100       18.17600
H         35.55530        9.44830       18.00280
H         36.83400        9.11470       19.26090
H         37.53090       10.87970       18.09500
H         37.10400       11.29810       20.85060
H         38.41450       13.22850       20.40790
H         35.07520       12.39320       20.90620
H         35.14840       14.59980       21.02210
H         35.71720       14.13750       18.45100
H         33.07130       11.38590       19.70200
H         31.02080       17.18380       16.86710
H         34.39050       17.93170       16.51450
H         32.67780       18.32110       16.32420
