44

C       -12.3770   21.8080   53.5010
C       -13.7990   19.8830   53.8470
C       -12.7140   27.6870   53.9730
C       -14.5790   28.9380   54.4000
C       -15.0000   26.1900   58.7440
O       -10.5140   22.1070   55.1220
S       -11.1780   22.7720   54.0310
O       -10.2040   22.9400   53.0000
C       -12.7440   20.6930   54.2570
C       -13.0670   22.0720   52.3070
Cl      -12.6220   23.4480   51.2580
C       -14.1300   21.2760   51.9160
C       -14.4890   20.1760   52.6790
N       -11.7830   24.2640   54.5210
C       -11.7700   25.3520   53.7050
C       -12.5570   24.4620   55.6400
C       -12.9850   23.6850   56.7070
C       -13.0050   25.7840   55.5680
C       -13.7490   26.3750   56.5810
C       -14.1450   25.5950   57.6610
C       -13.7760   24.2500   57.7130
C       -12.3430   26.3420   54.5030
N       -14.1740   27.8640   53.8610
C       -12.3600   28.8800   54.9120
N       -13.6180   29.6030   54.9940
C       -16.0210   29.3400   54.4520
H       -14.0838   19.0169   54.4444
H       -12.1648   27.7040   53.0316
H       -14.4736   27.0274   59.2019
H       -15.9379   26.5405   58.3133
H       -15.2065   25.4321   59.4997
H       -12.2019   20.4558   55.1724
H       -14.6845   21.5143   51.0083
H       -15.3149   19.5397   52.3611
H       -11.4030   25.4307   52.6817
H       -12.7045   22.6331   56.7614
H       -14.0172   27.4303   56.5300
H       -14.1081   23.6324   58.5475
H       -11.5409   29.4916   54.5336
H       -11.9880   28.5603   55.8854
H       -13.7372   30.5065   55.4522
H       -16.4083   29.4311   53.4372
H       -16.5888   28.5825   54.9924
H       -16.1116   30.2979   54.9641
