216

N    17.745    34.48    29.23
C    18.344    35.79    29.033
C    19.839    35.733    29.249
O    20.334    34.955    30.061
C    17.724    36.826    29.966
C    16.514    37.5    29.373
C    16.461    38.956    29.735
O    17.131    39.392    30.674
N    15.676    39.731    28.988
N    20.559    36.574    28.516
C    22.008    36.573    28.568
C    22.485    37.377    29.769
O    21.971    38.468    30.045
C    22.585    37.141    27.274
C    24.065    37.327    27.304
C    24.913    36.243    27.162
C    24.614    38.588    27.471
C    26.285    36.421    27.182
C    26.0    38.776    27.495
C    26.831    37.697    27.352
N    23.476    36.836    30.479
C    23.954    37.404    31.734
C    25.332    38.026    31.527
O    26.275    37.33    31.144
C    24.011    36.339    32.826
C    24.391    36.913    34.165
O    24.129    38.111    34.379
O    24.967    36.182    34.994
N    25.445    39.328    31.831
C    26.683    40.074    31.601
C    27.804    39.648    32.542
O    28.983    39.769    32.188
C    26.42    41.574    31.751
C    25.43    42.065    30.692
C    24.979    43.5    30.932
C    26.051    41.918    29.31
N    27.466    39.164    33.743
C    28.509    38.787    34.693
C    29.272    37.549    34.228
O    30.506    37.507    34.303
C    27.899    38.558    36.079
O    27.197    39.708    36.529
N    28.556    36.548    33.709
C    29.123    35.252    33.327
C    29.236    34.987    31.819
O    29.864    33.994    31.417
C    28.278    34.108    33.909
O    26.951    34.164    33.353
C    28.216    34.224    35.434
N    28.61    35.85    31.011
C    28.462    35.675    29.66
C    27.815    34.485    29.29
O    28.11    33.925    28.198
C    29.802    35.718    28.924
C    30.419    37.08    29.175
C    31.564    37.267    28.111
N    32.266    38.427    28.517
C    33.388    38.803    27.903
N    33.835    38.02    26.875
N    34.27    39.864    28.062
C    35.075    40.703    30.123
C    34.016    40.824    29.095
C    36.368    41.01    29.479
N    37.393    39.989    29.838
N    26.893    34.002    30.113
C    26.159    32.798    29.783
C    24.656    33.069    29.788
O    24.182    34.072    30.338
C    26.518    31.677    30.764
C    27.998    31.273    30.724
C    28.364    30.53    29.426
N    27.37    29.516    29.097
C    27.196    28.376    29.769
N    27.98    28.073    30.804
N    26.234    27.532    29.396
N    23.896    32.19    29.152
C    22.448    32.292    29.22
C    21.966    31.76    30.564
O    22.435    30.716    31.036
C    21.788    31.524    28.072
C    22.033    32.027    26.645
C    21.441    31.048    25.628
C    21.45    33.425    26.456
N    21.058    32.504    31.19
C    20.468    32.157    32.482
C    18.971    31.989    32.296
O    18.369    32.715    31.514
C    20.753    33.241    33.521
C    20.72    32.787    34.962
C    21.17    33.915    35.871
C    21.694    33.372    37.176
N    21.725    34.44    38.222
C    16.538    30.44    30.392
C    16.986    30.397    28.972
O    17.969    34.284    26.839
C    17.589    29.809    31.244
C    17.76    31.621    28.596
C    17.346    30.217    32.663
C    16.836    32.725    28.198
N    18.345    31.155    33.119
C    17.653    33.952    28.009
H    17.4628    34.0645    30.0947
H    18.1542    36.1014    27.9952
H    18.4793    37.5939    30.1891
H    17.4247    36.3243    30.898
H    15.6077    37.0046    29.7515
H    16.5533    37.4055    28.2778
H    15.6041    40.7086    29.186
H    15.1586    39.3352    28.2293
H    20.0917    37.2223    27.9149
H    22.3558    35.5355    28.6799
H    22.1167    38.1182    27.0853
H    22.3389    36.4517    26.4528
H    24.5002    35.2488    27.0344
H    23.9583    39.4436    27.585
H    26.9408    35.5658    27.0651
H    26.4135    39.7694    27.626
H    27.9065    37.8314    27.3705
H    23.9107    36.0036    30.1353
H    23.2552    38.192    32.0514
H    24.7556    35.5808    32.5421
H    23.0212    35.8669    32.9117
H    24.6592    39.8032    32.2269
H    27.0118    39.878    30.5698
H    27.3687    42.1189    31.6368
H    26.0035    41.7682    32.7504
H    24.5381    41.4229    30.7393
H    24.2717    43.7986    30.1443
H    25.8532    44.1673    30.912
H    24.4863    43.5703    31.913
H    26.3684    40.8756    29.1597
H    26.9237    42.5825    29.2276
H    25.3096    42.1896    28.5441
H    26.5023    39.0608    33.9891
H    29.2241    39.6198    34.764
H    28.7046    38.328    36.7918
H    27.2012    37.7092    36.0279
H    27.7959    40.4438    36.5791
H    27.5757    36.6914    33.5732
H    30.1352    35.2027    33.7547
H    28.7403    33.1463    33.6419
H    26.5519    34.9977    33.5724
H    27.6093    33.4011    35.8399
H    27.7603    35.1863    35.7103
H    29.2337    34.1679    35.8477
H    28.2247    36.6773    31.4198
H    27.8474    36.5128    29.2989
H    29.6426    35.5714    27.8455
H    30.4659    34.9291    29.3071
H    30.8366    37.1245    30.1917
H    29.6597    37.8669    29.0557
H    31.1376    37.4066    27.1067
H    32.2328    36.3937    28.1072
H    31.904    38.99    29.2999
H    34.6978    38.273    26.3725
H    33.3089    37.1772    26.6032
H    35.0918    39.9591    27.4485
H    35.0911    39.6791    30.5247
H    34.886    41.4146    30.9402
H    33.0339    40.6279    29.5499
H    34.027    41.8382    28.6693
H    36.7119    41.9997    29.814
H    36.2343    41.0185    28.3872
H    38.2661    40.2171    29.3888
H    37.0842    39.0802    29.5302
H    37.5219    39.9793    30.8377
H    26.7024    34.4758    30.9728
H    26.4491    32.4793    28.771
H    25.9101    30.7935    30.5194
H    26.2781    32.0166    31.7824
H    28.2088    30.6151    31.58
H    28.615    32.1806    30.7984
H    29.3423    30.0439    29.5552
H    28.4213    31.256    28.6017
H    26.7577    29.6919    28.2876
H    27.8382    27.1909    31.3166
H    28.7274    28.721    31.091
H    25.627    27.7637    28.5968
H    26.0977    26.6481    29.907
H    24.3198    31.4543    28.6237
H    22.1657    33.3519    29.137
H    20.7019    31.5434    28.2452
H    22.1487    30.486    28.1209
H    23.1191    32.0823    26.4796
H    21.6243    31.4217    24.6098
H    20.3577    30.9559    25.7953
H    21.9156    30.063    25.748
H    21.8899    34.1089    27.1968
H    20.3591    33.389    26.5927
H    21.6809    33.7846    25.4424
H    20.7611    33.3517    30.7504
H    20.8995    31.2079    32.8326
H    20.0005    34.0339    33.3984
H    21.7535    33.6504    33.3177
H    21.3934    31.9265    35.0885
H    19.6942    32.4921    35.2278
H    20.3161    34.5783    36.073
H    21.967    34.4851    35.3713
H    22.7132    32.9874    37.0232
H    21.0405    32.5546    37.5147
H    22.0779    34.0555    39.0844
H    20.7926    34.7939    38.3686
H    22.3254    35.1905    37.9182
H    15.5932    29.8869    30.4991
H    16.3884    31.4849    30.7016
H    16.1019    30.3212    28.3219
H    17.6248    29.5133    28.8268
H    18.5839    30.1513    30.9231
H    17.532    28.714    31.1562
H    18.4244    31.3837    27.7521
H    18.3625    31.9465    29.4568
H    17.376    29.3228    33.3029
H    16.3541    30.6869    32.7357
H    16.0883    32.8908    28.9876
H    16.3259    32.4662    27.2584
H    18.5744    31.1776    34.0921
