37

C    4.156    7.382    3.021
C    1.896    6.644    3.227
C    1.907    6.388    1.86
C    5.959    11.173    4.124
C    6.755    12.011    3.365
C    8.069    12.212    3.729
C    8.557    11.557    4.849
C    10.013    11.586    5.23
C    6.509    10.553    5.245
C    3.036    7.165    3.829
C    4.213    7.661    7.303
C    5.238    8.451    7.943
N    5.979    9.39    7.321
C    5.669    9.606    6.029
N    4.685    8.996    5.353
C    3.984    8.032    5.946
C    3.729    6.723    8.28
C    4.409    6.98    9.428
N    5.291    8.015    9.234
N    3.043    7.371    5.215
C    4.077    7.067    1.675
N    2.982    6.578    1.089
F    0.853    6.311    4.032
N    7.793    10.754    5.61
F    10.206    11.945    6.509
F    10.552    10.398    5.101
F    10.723    12.434    4.459
H    5.069    7.7891    3.4403
H    0.9998    6.0164    1.3975
H    4.9239    11.0009    3.8518
H    6.3487    12.5061    2.4904
H    8.7083    12.8694    3.1508
H    2.9683    5.9584    8.1295
H    4.2743    6.4432    10.3659
H    5.906    8.4068    9.9615
H    2.2481    6.979    5.7398
H    4.956    7.2269    1.0611
