58

F    14.826    -13.461    -2.699
C    14.694    -12.144    -2.49
F    14.711    -11.956    -1.15
F    13.465    -11.801    -2.897
C    15.778    -11.381    -3.195
C    15.758    -11.307    -4.594
C    16.772    -10.785    -2.46
C    17.772    -10.084    -3.146
C    17.757    -9.992    -4.543
C    16.749    -10.596    -5.243
N    16.798    -10.482    -6.658
C    15.683    -10.726    -7.494
O    14.594    -11.004    -7.114
N    16.044    -10.628    -8.848
C    14.913    -10.662    -9.817
C    15.135    -11.33    -11.022
C    14.447    -10.978    -12.318
O    15.527    -12.709    -10.859
C    16.742    -13.306    -11.236
O    16.694    -14.667    -10.972
C    17.859    -12.612    -10.448
C    14.516    -9.26    -10.038
C    13.346    -9.202    -11.034
N    13.758    -9.683    -12.321
C    12.84    -9.589    -13.218
C    12.178    -8.206    -13.337
C    10.881    -7.953    -12.8
C    10.312    -6.677    -12.903
C    11.007    -5.661    -13.503
C    12.309    -5.904    -14.042
C    12.858    -7.156    -13.951
H    14.9759    -11.8007    -5.1593
H    16.7829    -10.8548    -1.3783
H    18.5687    -9.606    -2.5875
H    18.5361    -9.4478    -5.0644
H    17.6628    -10.2163    -7.0841
H    16.996    -10.5413    -9.1416
H    14.0785    -11.1838    -9.3257
H    16.1158    -10.892    -11.2588
H    13.7044    -11.7603    -12.5339
H    15.2058    -10.9629    -13.1143
H    16.9106    -13.158    -12.3129
H    16.5497    -14.8033    -10.0429
H    17.8624    -11.5379    -10.6855
H    18.8292    -13.0513    -10.723
H    17.6868    -12.7486    -9.3702
H    15.3699    -8.6981    -10.4444
H    14.2046    -8.8134    -9.0822
H    13.0029    -8.1612    -11.1293
H    12.5215    -9.8272    -10.6608
H    14.4661    -9.0283    -12.6143
H    12.0553    -10.3221    -12.9797
H    13.2891    -9.8358    -14.1913
H    10.3339    -8.7506    -12.3106
H    9.3197    -6.4936    -12.507
H    10.5696    -4.6714    -13.5694
H    12.859    -5.1016    -14.5203
H    13.8435    -7.3338    -14.366
