117

C    22.531    7.052    36.586
C    23.765    6.235    36.147
C    26.329    5.938    36.242
C    28.065    4.034    35.023
C    29.356    1.941    35.601
C    30.699    1.424    36.013
C    32.498    0.157    35.231
C    31.568    1.207    34.832
C    30.229    -3.053    34.058
O    23.614    5.288    35.454
N    25.105    6.658    36.597
C    26.869    6.274    34.861
O    27.113    7.65    34.768
C    28.191    5.522    34.697
O    29.121    6.108    35.573
C    29.465    3.432    35.196
O    28.873    1.193    34.51
O    30.558    0.08    36.651
C    31.801    -0.662    36.255
O    33.679    0.769    35.81
O    32.292    2.415    34.477
N    31.42    -1.905    35.683
C    30.621    -1.895    34.637
C    30.657    -4.232    34.553
O    30.312    -5.249    34.046
N    31.459    -4.249    35.602
C    31.849    -3.088    36.183
O    32.569    -3.109    37.128
O    27.36    3.808    36.222
C    26.108    4.424    36.283
O    25.476    4.078    37.478
C    24.595    2.996    37.304
O    25.29    1.837    36.921
C    26.11    1.18    37.879
C    26.444    -0.198    37.358
O    26.823    -0.095    36.015
C    25.41    1.002    39.229
O    26.331    0.55    40.178
C    24.851    2.338    39.67
O    24.215    2.196    40.914
C    23.861    2.776    38.613
N    23.245    4.007    39.064
C    22.201    3.918    40.058
O    21.881    2.865    40.478
C    21.531    5.17    40.58
C    21.413    6.406    36.958
C    20.176    7.214    37.397
C    18.993    6.252    37.649
C    17.667    7.032    37.627
C    16.533    6.161    37.051
C    15.511    7.081    36.377
C    14.361    6.294    35.734
C    13.106    7.175    35.75
C    12.032    6.614    34.806
C    10.645    7.1    35.253
C    10.345    8.465    34.627
C    9.58    6.096    34.807
H    22.5662    8.1404    36.5941
H    27.0953    6.2048    36.9846
H    27.5426    3.532    34.1954
H    28.6572    1.8449    36.4451
H    31.1679    2.1352    36.7089
H    32.7791    -0.4629    34.3669
H    30.9657    0.8802    33.9715
H    29.5682    -3.0331    33.1926
H    25.1804    7.4737    37.1706
H    26.1523    5.9664    34.0853
H    27.751    7.9025    35.425
H    28.5389    5.6285    33.6589
H    29.23    7.025    35.3502
H    30.0041    3.9837    35.9803
H    30.0154    3.512    34.247
H    28.8064    0.2787    34.7591
H    32.4513    -0.8258    37.1269
H    34.2656    0.0899    36.1219
H    32.7942    2.7135    35.2261
H    30.2722    -0.9454    34.2339
H    31.78    -5.122    35.9693
H    25.4893    4.1087    35.4299
H    23.8671    3.2451    36.5178
H    27.0316    1.7631    38.0227
H    25.5616    -0.8491    37.4437
H    27.2721    -0.6236    37.9438
H    27.5842    0.4689    35.9443
H    24.5934    0.2717    39.13
H    25.8942    0.4404    41.0144
H    25.6606    3.0778    39.7552
H    23.507    1.5674    40.8365
H    23.0901    2.0034    38.4759
H    23.5339    4.8917    38.6982
H    20.769    4.895    41.3241
H    21.0529    5.7049    39.7462
H    22.2839    5.8203    41.0493
H    21.3811    5.3175    36.9494
H    19.9051    7.9282    36.6055
H    20.406    7.7621    38.3226
H    19.1168    5.7716    38.6308
H    18.9758    5.4821    36.8636
H    17.7861    7.9294    37.0022
H    17.4069    7.3314    38.653
H    16.048    5.5985    37.8624
H    16.9438    5.4576    36.3118
H    16.0204    7.6656    35.5968
H    15.0948    7.7629    37.1331
H    14.1758    5.3726    36.3055
H    14.6211    6.0362    34.6968
H    13.375    8.1913    35.4263
H    12.7036    7.2104    36.7731
H    12.0602    5.5147    34.8322
H    12.2284    6.9615    33.781
H    10.6271    7.1894    36.3492
H    9.3509    8.8065    34.9513
H    10.363    8.3776    33.5306
H    11.1055    9.1914    34.9495
H    9.7918    5.1138    35.2546
H    9.5936    6.0098    33.7105
H    8.589    6.4425    35.1354
