30

C    -7.833    -10.235    49.8
C    -9.047    -11.142    49.777
C    -8.85    -12.219    48.721
C    -7.619    -13.045    49.08
N    -10.034    -13.085    48.587
C    -11.295    -12.332    48.681
C    -12.138    -12.881    49.834
S    -12.609    -14.616    49.488
O    -13.888    -14.622    48.65
O    -11.489    -15.334    48.723
O    -12.853    -15.331    50.816
C    -6.389    -12.15    49.146
C    -6.603    -11.045    50.172
H    -7.9851    -9.4375    50.5422
H    -7.6904    -9.7878    48.8052
H    -9.9428    -10.5509    49.5362
H    -9.1726    -11.613    50.7631
H    -8.6749    -11.7279    47.7524
H    -7.4646    -13.8195    48.3143
H    -7.7742    -13.5227    50.0586
H    -10.0143    -13.7757    49.3208
H    -9.9983    -13.5455    47.691
H    -11.8533    -12.4343    47.7387
H    -11.0741    -11.2699    48.8629
H    -13.0468    -12.2712    49.9444
H    -11.5537    -12.8402    50.7651
H    -6.2124    -11.7002    48.1578
H    -5.5155    -12.7522    49.4362
H    -6.7462    -11.492    51.1668
H    -5.7223    -10.3862    50.1893
