133

C    14.473    19.497    5.414
C    13.567    20.315    6.447
C    13.803    19.907    7.933
C    13.768    18.412    8.05
C    14.849    17.88    7.149
C    15.18    16.433    7.309
O    15.792    19.894    5.567
O    13.846    21.698    6.315
O    12.799    20.484    8.749
O    13.977    18.004    9.424
O    14.465    18.093    5.792
O    14.112    15.631    6.918
C    12.879    17.447    10.088
C    12.674    18.106    11.423
C    13.656    17.612    12.504
C    13.686    16.116    12.556
C    14.047    15.579    11.185
C    14.086    14.061    11.156
O    12.865    19.472    11.222
O    13.236    18.097    13.761
N    14.665    15.649    13.532
O    13.054    15.988    10.2
C    14.314    15.37    14.964
C    15.222    14.266    15.496
O    16.592    14.565    15.232
C    14.863    12.931    14.874
O    15.893    12.003    15.218
C    13.485    12.405    15.399
O    13.064    11.26    14.605
C    12.357    13.504    15.348
O    12.081    14.217    14.15
C    11.287    13.332    16.407
C    12.839    14.936    15.151
O    11.806    12.765    17.59
C    12.524    10.146    15.252
C    13.329    8.956    14.915
C    13.313    8.718    13.412
C    11.884    8.514    12.937
C    11.043    9.753    13.39
C    9.552    9.659    13.073
O    14.653    9.159    15.354
O    14.082    7.591    13.101
O    11.876    8.418    11.476
O    11.156    9.962    14.821
O    8.929    8.535    13.709
C    12.11    7.19    10.873
C    12.254    7.39    9.334
C    10.924    7.886    8.741
C    9.762    6.992    9.21
C    9.76    6.847    10.717
C    8.681    5.933    11.227
O    13.287    8.336    9.063
O    11.003    7.852    7.311
N    8.523    7.607    8.796
O    11.034    6.306    11.158
C    7.452    6.844    8.148
C    7.542    6.998    6.616
O    8.763    6.439    6.092
C    7.448    8.512    6.289
O    7.832    8.735    4.92
C    5.96    9.05    6.559
O    5.956    10.478    6.565
C    5.323    8.559    7.931
O    5.97    8.776    9.232
C    3.803    8.28    7.799
C    6.101    7.432    8.639
O    3.523    7.446    6.676
H    14.1207    19.6427    4.3822
H    12.5109    20.1323    6.1996
H    14.7878    20.2727    8.259
H    12.7905    18.0363    7.7135
H    15.7632    18.4551    7.3573
H    15.4131    16.2319    8.365
H    16.0558    16.1935    6.6881
H    16.0561    19.7697    6.4711
H    14.7493    21.8623    6.5588
H    12.9485    20.2384    9.6544
H    13.9092    15.7986    6.0052
H    11.98    17.6334    9.4822
H    11.6466    17.9154    11.7667
H    14.6643    17.9891    12.2782
H    12.6903    15.7463    12.8421
H    15.0339    15.9743    10.9025
H    14.3512    13.7203    10.1443
H    13.0974    13.6635    11.4293
H    14.8376    13.6997    11.8733
H    12.7051    19.936    12.0354
H    13.8451    17.808    14.4303
H    15.3917    16.3472    13.554
H    15.0374    14.7879    13.1634
H    14.4822    16.2878    15.5465
H    15.0816    14.1955    16.5847
H    16.7227    14.6443    14.2944
H    14.811    13.0402    13.7807
H    16.7241    12.314    14.8788
H    13.6132    12.0878    16.4444
H    10.4988    12.6737    16.0129
H    10.8581    14.3171    16.6429
H    12.3392    15.7342    15.7195
H    12.4842    13.3308    17.94
H    12.5452    10.3052    16.3402
H    12.9073    8.0763    15.4233
H    13.7392    9.5957    12.9042
H    11.4663    7.5948    13.3737
H    11.4488    10.6327    12.8691
H    9.4274    9.5629    11.9843
H    9.0584    10.5792    13.4188
H    15.0194    9.916    14.9122
H    14.0794    7.4569    12.1605
H    9.0254    8.612    14.6509
H    13.0422    6.7618    11.27
H    12.5171    6.4279    8.8702
H    10.7423    8.9189    9.0727
H    9.8571    5.9975    8.7498
H    9.6141    7.844    11.1582
H    8.7382    5.8745    12.324
H    8.818    4.9291    10.7987
H    7.6972    6.3265    10.9317
H    14.1052    8.0241    9.4315
H    10.1877    8.171    6.9422
H    8.7743    8.3413    8.1528
H    8.1182    8.0112    9.6259
H    7.5272    5.7808    8.4201
H    6.6931    6.4738    6.1528
H    9.5065    6.8845    6.4811
H    8.1421    9.0596    6.9435
H    8.7252    8.4384    4.7905
H    5.3209    8.6927    5.7381
H    5.0732    10.7904    6.7252
H    3.2729    9.2359    7.6759
H    3.4501    7.78    8.713
H    5.5277    6.6034    9.0802
H    3.9747    6.6165    6.7785
