13

N        253.32500      -15.04300      -32.61700
C        252.29600      -14.05200      -32.32600
C        251.65800      -14.30400      -30.96400
O        250.92300      -13.46500      -30.44300
C        251.23800      -14.05100      -33.41800
O        251.86200      -15.35200      -30.35200
H        254.02600      -15.03110      -31.87620
H        252.89910      -15.96840      -32.66890
H        253.76720      -14.82040      -33.50880
H        252.77050      -13.07110      -32.29730
H        250.73490      -15.01780      -33.43550
H        250.51030      -13.26490      -33.21640
H        251.71300      -13.86960      -34.38220
