23

C    -27.87    -4.496    8.726
C    -27.719    -2.885    6.822
C    -28.662    -3.718    7.676
C    -29.771    -2.889    8.325
C    -30.662    -3.695    9.256
C    -29.817    -4.4    10.311
C    -28.787    -5.3    9.652
N    -26.343    -2.82    7.255
O    -28.025    -2.275    5.817
O    -25.569    -2.066    6.438
H    -27.2879    -3.7854    9.3312
H    -27.1855    -5.1886    8.2143
H    -29.148    -4.4485    7.0125
H    -30.3968    -2.4598    7.5287
H    -29.3061    -2.0772    8.9037
H    -31.2143    -4.4455    8.6715
H    -31.3745    -3.0198    9.7524
H    -30.4718    -5.0082    10.9523
H    -29.3004    -3.6467    10.9239
H    -28.1786    -5.7817    10.4316
H    -29.3064    -6.0708    9.0637
H    -25.9979    -3.2827    8.0716
H    -24.6779    -2.057    6.7673
