26

C         24.28900       15.40100        5.22300
C         23.20000       16.10700        6.02400
C         23.33200       16.17800        7.37900
C         22.40200       16.79200        8.16200
C         21.26200       17.37300        7.56400
C         20.19500       18.05800        8.24600
C         20.15200       18.28100        9.70900
C         19.17500       18.57300        7.45800
C         19.18700       18.38800        6.12700
C         21.14100       17.28100        6.22100
C         22.10900       16.66300        5.42500
O         17.65400       17.44000       10.06300
O         19.04600       17.39800       11.91200
O         19.47800       15.74900       10.33400
O         18.20300       18.84900        5.32100
O         20.13500       17.76600        5.57400
P         18.97400       17.17100       10.57400
Br        22.82000       16.70400        9.97300
H         25.24180       15.90520        5.38460
H         24.36500       14.36420        5.55070
H         24.03580       15.43080        4.16320
H         24.20740       15.73030        7.84950
H         19.82430       19.30680        9.87760
H         21.14770       18.07860       10.10370
H         18.36050       19.13010        7.92090
H         21.99350       16.62610        4.34180
