255

N         24.22300       48.30500       42.76700
C         25.31700       48.60600       43.69600
C         26.62400       48.92800       42.98300
O         26.77300       48.61800       41.80100
C         25.44700       47.31600       44.50600
C         25.00500       46.25300       43.56800
C         23.90800       46.86600       42.74000
N         27.55900       49.54400       43.69800
C         28.88400       49.88400       43.14800
C         29.43200       51.21600       43.74400
O         30.15800       50.96300       44.87800
C         29.90700       48.76200       43.41100
O         29.92300       48.15600       44.51900
P         29.67000       51.88700       46.35500
O         29.76200       53.31900       45.87100
O         28.26400       51.39100       46.64500
O         30.71800       51.45100       47.36100
N         30.74200       48.48600       42.41500
C         31.76300       47.48000       42.53600
C         31.62400       46.50200       41.36000
C         30.29800       45.85500       41.34200
C         29.25200       46.35100       40.57400
F         29.43500       47.44900       39.81800
C         30.03400       44.72100       42.09700
F         30.99100       44.17500       42.87000
C         28.00300       45.74800       40.55700
F         27.00800       46.25800       39.79700
C         28.79500       44.10900       42.09100
F         28.58200       43.00300       42.84200
C         27.78100       44.62600       41.31900
F         26.56700       44.02700       41.31100
C         33.22200       48.02700       42.58500
O         34.00500       47.77000       41.64300
N         33.55300       48.74900       43.65100
C         34.87100       49.34900       43.80200
C         35.95200       48.30000       43.58000
O         35.72300       47.10800       43.77700
C         35.02000       49.98300       45.18800
C         35.80100       51.28700       45.16000
O         36.10600       51.78700       44.05700
O         36.11000       51.81300       46.24900
N         37.13100       48.74900       43.16500
C         38.24300       47.84600       42.80900
C         39.51400       48.64400       42.39300
O         40.39200       48.70000       43.43700
C         38.62100       46.89300       43.96400
O         38.62300       47.29600       45.16200
P         40.81100       50.35000       44.04000
O         41.27400       51.03200       42.77000
O         39.50700       50.87100       44.61800
O         41.88400       50.04400       45.06600
N         38.92600       45.64900       43.60900
C         39.43000       44.68300       44.54400
C         38.61700       43.38100       44.40800
C         37.16200       43.60400       44.57300
C         36.33100       43.84800       43.48800
F         36.84600       43.88600       42.24700
C         36.56000       43.57800       45.82300
F         37.29400       43.34800       46.92700
C         34.96500       44.05800       43.63800
F         34.18500       44.29300       42.55900
C         35.20200       43.78500       45.99000
F         34.65600       43.75300       47.22900
C         34.40700       44.02600       44.89300
F         33.07600       44.22800       45.04900
C         40.95200       44.37200       44.36200
O         41.29700       43.36800       43.70100
N         41.81000       45.21500       44.92700
C         43.24100       45.14900       44.66100
C         44.05900       45.27500       45.94300
O         44.21500       46.37000       46.48200
C         43.63400       46.25300       43.67600
C         45.02300       46.06300       43.10500
O         45.55100       44.93300       43.16900
O         45.58900       47.05200       42.59500
N         44.58000       44.14800       46.42000
C         45.40300       44.11700       47.61500
C         44.58100       43.50600       48.76800
C         43.32600       44.24000       49.02300
C         42.16200       43.94500       48.33000
F         42.16400       42.97200       47.40300
C         43.25100       45.25500       49.96800
F         44.33500       45.60400       50.68700
C         40.97700       44.62400       48.55700
F         39.86200       44.30800       47.86300
C         42.07400       45.94300       50.20900
F         42.03900       46.92800       51.14000
C         40.93800       45.62300       49.49900
F         39.78200       46.29000       49.72700
C         46.75100       43.31800       47.48100
O         46.85900       42.48200       46.56500
N         47.71700       43.56900       48.35800
C         49.01500       42.90500       48.26300
C         48.89900       41.40000       48.51100
O         49.71600       40.62400       48.01400
C         50.01300       43.52800       49.24600
C         49.59100       43.47600       50.69800
C         50.61500       44.11100       51.62400
O         51.49100       44.85700       51.13500
O         50.54600       43.85800       52.84400
N         47.88800       40.99100       49.27300
C         47.65200       39.57200       49.53200
C         46.65900       39.00100       48.52400
O         46.45700       37.78900       48.45100
C         47.12800       39.35500       50.95100
C         45.71800       39.87100       51.13200
O         45.48500       41.07200       50.87800
O         44.83800       39.07200       51.51100
N         46.03000       39.88900       47.76300
C         45.12700       39.50000       46.71100
C         43.70400       39.37400       47.29800
C         42.74000       38.68000       46.40000
C         42.91000       37.35100       46.02400
F         43.97400       36.65600       46.46200
C         41.61100       39.32300       45.90300
F         41.35800       40.60700       46.21400
C         42.00800       36.69900       45.19000
F         42.20600       35.40800       44.84100
C         40.70600       38.68400       45.07200
F         39.62000       39.34500       44.60400
C         40.90900       37.37400       44.71900
F         40.02300       36.75200       43.90600
C         45.12300       40.49200       45.50300
O         44.10600       41.18200       45.28200
N         46.24100       40.55800       44.76500
C         46.43100       41.55600       43.70800
C         45.54800       41.31800       42.49100
O         45.35300       40.17800       42.07300
C         47.90900       41.40000       43.34500
C         48.23200       39.99200       43.68200
C         47.39700       39.65000       44.88000
N         45.01800       42.40100       41.93200
C         44.19000       42.30900       40.74200
C         45.06400       42.14900       39.50600
O         46.12800       42.76400       39.39400
C         43.31200       43.55300       40.60300
N         44.61300       41.30800       38.58300
C         45.29900       41.15200       37.31400
C         44.85300       42.23600       36.33900
O         43.78900       42.84400       36.48700
C         45.02800       39.77000       36.72100
N         45.68900       42.47700       35.33100
C         45.38100       43.47200       34.31100
C         45.78700       42.96900       32.93300
O         44.93000       42.70900       32.08300
C         46.08800       44.79400       34.61900
C         45.89900       45.91300       33.59000
C         44.43300       46.29200       33.46400
C         46.73900       47.12800       33.95700
N         47.08800       42.83500       32.70500
C         47.59800       42.41200       31.40800
C         47.69900       40.89400       31.33400
O         47.69700       40.20800       32.35800
C         48.96800       43.03600       31.13800
C         49.00500       44.52500       31.30300
C         49.75500       45.22900       32.19700
C         48.26300       45.49400       30.55100
N         49.52900       46.57500       32.05000
C         48.61600       46.76400       31.04700
C         47.33600       45.41000       29.50900
C         48.07500       47.94100       30.53600
C         46.79800       46.58000       29.00300
C         47.17000       47.82900       29.51700
N         47.79200       40.37500       30.11400
H         24.51110       48.58760       41.83020
H         23.39200       48.80920       43.07630
H         25.10910       49.48980       44.29920
H         24.84680       47.33840       45.41560
H         26.46430       47.15410       44.86240
H         24.65150       45.37270       44.10490
H         25.82860       45.90900       42.94240
H         23.87340       46.46400       41.72740
H         22.91500       46.64740       43.13290
H         27.35200       49.79150       44.66560
H         28.74850       50.00490       42.07320
H         28.59400       51.86650       43.99430
H         30.07560       51.69820       43.00820
H         30.65660       49.00230       41.53950
H         31.60350       46.99380       43.49840
H         32.38290       45.72690       41.46640
H         31.74600       47.06100       40.43220
H         32.86090       48.88720       44.38740
H         34.98280       50.13350       43.05350
H         35.56570       49.28110       45.81870
H         34.02040       50.20120       45.56390
H         37.27350       49.75620       43.08940
H         37.88420       47.25440       41.96680
H         39.22570       49.65690       42.11190
H         39.99090       48.14490       41.54940
H         38.79720       45.37030       42.63630
H         39.32020       45.11430       45.53900
H         38.94400       42.69590       45.19020
H         38.78560       42.98100       43.40820
H         41.45680       45.92830       45.56480
H         43.45850       44.17380       44.22540
H         43.62130       47.20060       44.21450
H         42.92630       46.22830       42.84730
H         44.39440       43.27390       45.92820
H         45.68780       45.15210       47.80370
H         45.18660       43.55340       49.67300
H         44.32110       42.48470       48.48960
H         47.54950       44.23680       49.11060
H         49.38170       43.04900       47.24670
H         50.10290       44.58130       48.98040
H         50.93670       42.95510       49.16450
H         49.48560       42.42850       50.98050
H         48.65790       44.03050       50.79730
H         47.26330       41.68360       49.68590
H         48.60420       39.05180       49.42820
H         47.77660       39.90050       51.63640
H         47.12190       38.28280       51.14730
H         46.19230       40.88210       47.92960
H         45.47190       38.54340       46.31840
H         43.32850       40.38480       47.45740
H         43.78090       38.78230       48.21020
H         46.15790       42.55620       44.04430
H         48.53840       42.10360       43.88990
H         48.09530       41.61990       42.29380
H         49.29430       39.87120       43.89440
H         48.01390       39.32670       42.84660
H         47.10340       38.60040       44.89850
H         47.93830       39.77980       45.81710
H         45.19630       43.31550       42.34710
H         43.54500       41.43540       40.83670
H         42.66750       43.64080       41.47760
H         43.94560       44.43670       40.52680
H         42.69920       43.46520       39.70580
H         43.77110       40.76300       38.76890
H         46.37060       41.24970       37.48790
H         45.38260       39.00420       37.41080
H         43.95670       39.64850       36.56070
H         45.55200       39.67500       35.77000
H         46.56300       41.95460       35.27130
H         44.30450       43.64290       34.31610
H         47.15520       44.57300       34.63800
H         45.65880       45.16040       35.55160
H         46.23670       45.54290       32.62200
H         43.86010       45.42130       33.14490
H         44.06400       46.63730       34.42980
H         44.32690       47.08830       32.72730
H         46.43570       47.49500       34.93750
H         47.79160       46.84600       33.98280
H         46.58910       47.91000       33.21260
H         47.74740       43.03340       33.45750
H         46.89730       42.75350       30.64610
H         49.22200       42.82000       30.10020
H         49.66350       42.61370       31.86330
H         50.43620       44.78690       32.92410
H         47.04250       44.44200       29.10280
H         48.36200       48.91460       30.93320
H         46.07270       46.52910       28.19100
H         46.72820       48.73180       29.09520
H         47.86620       39.36480       29.99380
H         47.78920       40.98690       29.29790
H         49.95395       47.28810       32.57929
