75

O    13.329    21.895    62.853
C    12.184    21.223    63.102
C    12.169    19.929    63.658
C    13.441    19.429    63.96
C    14.641    20.024    63.561
C    14.556    21.547    63.48
O    11.146    21.826    62.718
O    13.598    18.201    64.499
C    14.702    22.01    64.941
C    14.54    23.485    65.191
C    14.667    23.849    66.677
C    15.68    22.148    62.615
C    15.706    21.742    61.148
C    16.75    22.358    60.456
C    16.538    23.495    59.682
C    17.589    24.067    58.976
C    18.891    23.588    59.114
C    19.102    22.407    59.825
C    18.045    21.862    60.538
C    10.971    19.231    63.852
C    10.781    18.536    65.189
C    10.868    19.436    66.411
C    10.53    18.375    62.844
C    11.405    17.765    61.96
C    10.945    16.902    60.947
C    9.594    16.653    60.758
C    8.684    17.158    61.716
N    7.36    16.988    61.499
C    9.162    18.045    62.667
S    6.681    15.627    62.157
O    5.278    15.41    61.655
O    7.589    14.417    61.774
C    6.845    15.937    63.877
N    7.84    15.36    64.58
C    7.967    15.639    65.951
C    7.042    16.457    66.607
C    6.003    17.037    65.86
C    5.895    16.725    64.504
C    7.204    16.885    67.918
F    7.823    16.032    68.715
F    6.057    17.325    68.407
F    8.022    17.96    67.881
H    14.9116    19.6351    62.5683
H    15.4233    19.755    64.286
H    12.749    17.8546    64.7476
H    15.7052    21.7196    65.2862
H    13.9423    21.4834    65.5372
H    13.5463    23.7956    64.8359
H    15.3158    24.0251    64.6284
H    14.5407    24.9347    66.8006
H    15.6604    23.5514    67.0438
H    13.8909    23.3219    67.2513
H    16.6399    21.8482    63.0607
H    15.5827    23.2429    62.656
H    14.752    22.03    60.6823
H    15.8312    20.6511    61.083
H    15.5491    23.936    59.6298
H    17.3938    24.8981    58.3079
H    19.725    24.1244    58.6761
H    20.0728    21.9248    59.8204
H    18.237    21.0143    61.1858
H    10.2259    20.0401    63.8589
H    11.5568    17.7618    65.2821
H    9.7884    18.062    65.1869
H    10.7171    18.8354    67.3201
H    10.0907    20.212    66.351
H    11.8592    19.9117    66.4462
H    12.4681    17.9565    62.0502
H    11.6663    16.4193    60.2975
H    9.2455    16.0879    59.9011
H    6.8218    17.6456    60.9719
H    8.44    18.5199    63.3215
H    8.794    15.214    66.5083
H    5.2981    17.7144    66.3283
H    5.0552    17.1051    63.9336
