18

C         -6.92700      -12.17500       34.43300
C         -5.98800      -14.41300       33.85800
C         -6.09000      -15.77800       33.65100
C         -7.30000      -16.42300       33.82800
C         -8.41200      -15.68600       34.19800
C         -8.32000      -14.31600       34.38500
C         -9.57800      -13.56500       34.81800
C         -7.10100      -13.67800       34.23500
N         -4.91400      -16.53900       33.26200
O         -9.51400      -12.73700       35.76500
O        -10.67600      -13.80400       34.25600
O         -6.03000      -11.76100       35.20200
O         -7.65000      -11.36600       33.81300
H         -5.02820      -13.91410       33.72390
H         -7.37760      -17.49980       33.67790
H         -9.36860      -16.18790       34.34350
H         -4.01770      -16.06710       33.14250
H         -4.98520      -17.54490       33.10860
