74

N        13.6090   10.1110   10.0510
C        14.1240   9.5520   8.8110
C        13.0050   9.5590   7.7580
O        11.8520   9.8770   8.0670
C        14.7060   8.1180   8.9930
C        13.5930   7.1050   9.3990
C        15.9060   8.1260   9.9850
C        14.0230   5.5940   9.2710
N        13.3650   9.1600   6.5300
C        12.3930   9.1120   5.4130
C        11.7520   10.4770   5.1460
O        10.6310   10.5460   4.6180
C        11.3150   8.0060   5.6310
C        11.8760   6.6460   5.3220
O        12.5980   6.4760   4.3300
N        11.5210   5.6530   6.1430
N        12.4870   11.5830   5.4930
C        12.0380   12.9400   5.2300
C        10.7380   13.2450   5.9860
O        9.9720   14.1160   5.5610
C        11.8850   13.2010   3.7180
C        11.9270   14.6730   3.3370
O        12.5920   15.5110   3.9760
N        11.1720   15.0370   2.3170
N        10.5210   12.5570   7.1220
C        9.3200   12.7470   7.9480
C        9.6370   13.3280   9.3470
O        8.6930   13.5940   10.0780
C        8.5830   11.4170   8.1380
C        8.1140   10.8300   6.8320
O        7.5360   11.5360   6.0030
N        8.3700   9.5310   6.6420
N        10.9310   13.4310   9.6870
C        11.2440   13.8450   11.1170
C        12.6260   13.4230   11.5490
C        12.8780   11.9210   11.4700
C        13.3130   11.4330   10.1060
O        13.4150   12.2050   9.1440
H        13.4723   9.5164   10.8684
H        14.9545   10.1745   8.4782
H        15.0955   7.7792   8.0330
H        12.7524   7.2602   8.7226
H        13.3579   7.2864   10.4478
H        15.5523   8.3999   10.9790
H        16.3547   7.1332   10.0184
H        16.6481   8.8505   9.6497
H        14.2913   5.3803   8.2364
H        14.8809   5.4058   9.9165
H        13.1931   4.9547   9.5720
H        14.3318   8.8826   6.3605
H        12.9567   8.8453   4.5190
H        10.4737   8.1989   4.9653
H        10.9961   8.0263   6.6731
H        11.8471   4.7030   5.9652
H        10.9239   5.8451   6.9474
H        13.3862   11.4468   5.9549
H        12.8051   13.6207   5.5993
H        10.9088   12.8178   3.4209
H        12.7229   12.7139   3.2193
H        11.1264   16.0178   2.0407
H        10.6343   14.3374   1.8053
H        11.2184   11.8759   7.4222
H        8.6973   13.4629   7.4115
H        7.7066   11.6023   8.7590
H        9.2745   10.7103   8.5969
H        8.0830   9.0761   5.7754
H        8.8522   8.9953   7.3638
H        11.6738   13.2397   9.0147
H        10.5225   13.3593   11.7740
H        11.1909   14.9323   11.1723
H        12.7372   13.7120   12.5941
H        13.3335   13.9026   10.8726
H        11.9354   11.4253   11.7021
H        13.6872   11.6949   12.1643
