72

N    226.925    3.725    96.231
C    225.648    3.619    95.567
C    224.474    3.869    96.516
O    224.205    5.005    96.891
C    225.473    2.267    94.808
N    223.785    2.795    96.885
C    222.724    2.834    97.866
C    223.264    2.779    99.273
O    222.542    2.887    100.214
N    224.572    2.617    99.361
C    225.32    2.505    100.598
C    225.332    3.757    101.419
O    225.355    3.711    102.613
C    226.751    2.15    100.289
C    227.082    1.103    99.272
C    228.55    0.788    99.255
C    226.266    -0.116    99.532
N    225.357    4.877    100.741
C    225.396    6.175    101.342
C    224.25    6.517    102.302
O    223.14    6.181    102.065
C    225.433    7.195    100.22
C    226.396    8.341    100.409
C    227.819    7.855    100.478
C    226.21    9.373    99.33
N    224.556    7.219    103.383
C    223.54    7.708    104.284
C    223.087    6.784    105.385
O    222.343    7.16    106.198
N    223.595    5.578    105.365
C    223.544    4.674    106.462
C    224.798    4.665    107.318
O    225.827    5.303    106.937
O    224.682    3.972    108.358
H    227.664    3.5529    95.5674
H    226.9751    3.0451    96.9735
H    227.0279    4.651    96.6157
H    225.6219    4.4157    94.809
H    224.4856    2.2435    94.3238
H    225.5515    1.4332    95.5212
H    226.2584    2.1711    94.0439
H    224.0113    1.9168    96.4637
H    222.0582    1.9732    97.7057
H    222.1547    3.7666    97.7388
H    225.0878    2.5676    98.5057
H    224.8674    1.7015    101.1976
H    227.2032    1.8204    101.236
H    227.2381    3.0774    99.9533
H    226.8113    1.4922    98.2794
H    228.7507    0.0168    98.4968
H    228.8572    0.4182    100.2444
H    229.1176    1.6982    99.0113
H    225.199    0.1513    99.5375
H    226.5425    -0.541    100.5082
H    226.4539    -0.8584    98.7423
H    225.3483    4.8218    99.7426
H    226.3311    6.2443    101.9171
H    224.4227    7.6167    100.1132
H    225.7107    6.6694    99.2945
H    226.1627    8.8194    101.3716
H    228.4932    8.7132    100.6157
H    228.0744    7.3344    99.5433
H    227.9293    7.1624    101.3254
H    225.1601    9.7007    99.3132
H    226.4734    8.9361    98.3554
H    226.8604    10.2366    99.5326
H    225.5165    7.4153    103.58
H    222.656    7.9593    103.6795
H    223.931    8.62    104.7586
H    224.047    5.2732    104.5266
H    223.3888    3.6594    106.0664
H    222.6925    4.953    107.1
