17

O    -17.399    15.756    14.82
C    -18.209    16.448    15.49
O    -18.04    16.528    16.717
C    -19.264    17.199    14.964
O    -19.942    17.916    15.927
C    -21.013    18.668    15.546
C    -21.691    19.325    16.617
C    -21.427    18.778    14.21
C    -20.768    18.076    13.204
O    -21.141    18.178    12.009
C    -19.645    17.323    13.613
O    -18.993    16.574    12.693
H    -22.5594    19.9488    16.4104
H    -21.3398    19.2023    17.6405
H    -21.3594    19.8437    13.9462
H    -22.4792    18.4587    14.1792
H    -18.2653    16.1266    13.1086
