53

C    -33.209    -10.422    -26.072
C    -31.645    -11.058    -24.199
O    -31.162    -10.041    -23.722
C    -32.177    -9.77    -26.789
C    -34.789    -9.876    -27.891
C    -32.458    -9.194    -28.027
C    -33.769    -9.266    -28.571
C    -35.263    -11.639    -24.757
C    -31.366    -8.522    -28.786
C    -29.542    -12.379    -23.767
C    -29.024    -13.685    -24.336
C    -27.764    -14.262    -24.298
C    -27.561    -15.492    -24.894
C    -28.608    -16.154    -25.539
C    -30.338    -9.333    -29.299
C    -30.257    -6.586    -29.745
C    -31.279    -5.934    -26.265
N    -30.921    -12.204    -24.244
C    -33.008    -11.025    -24.794
C    -34.532    -10.475    -26.634
N    -34.047    -11.623    -24.2
N    -35.501    -11.097    -25.944
N    -36.314    -12.251    -24.102
C    -31.326    -13.512    -24.807
C    -30.081    -14.352    -24.951
C    -29.869    -15.583    -25.561
C    -29.28    -8.779    -30.01
C    -29.246    -7.406    -30.247
C    -31.322    -7.122    -29.022
C    -32.36    -6.141    -28.496
N    -32.514    -6.22    -27.026
H    -31.1752    -9.719    -26.3782
H    -35.7874    -9.9002    -28.3125
H    -33.9653    -8.8293    -29.5435
H    -28.9923    -11.6949    -23.1221
H    -26.9444    -13.7522    -23.8046
H    -26.5782    -15.9482    -24.8606
H    -28.4342    -17.1098    -26.0199
H    -30.3712    -10.4044    -29.1378
H    -30.2139    -5.517    -29.9195
H    -31.4852    -6.0151    -25.1875
H    -30.9332    -4.9158    -26.4965
H    -30.4999    -6.6584    -26.5447
H    -36.1644    -12.6821    -23.1786
H    -37.2473    -12.2763    -24.537
H    -32.339    -13.8133    -25.0696
H    -30.6887    -16.0944    -26.0525
H    -28.4827    -9.4137    -30.3795
H    -28.4339    -6.9752    -30.8214
H    -33.329    -6.3657    -28.9656
H    -32.0502    -5.1203    -28.7647
H    -33.2174    -5.5542    -26.7468
H    -32.8204    -7.1511    -26.791
