54

C        -15.15600      -32.86100      -11.68100
C        -16.20900      -34.97200      -11.01800
C        -17.63300      -37.34600       -9.81300
C        -16.51900      -37.49900      -10.87400
C        -16.35700      -36.28300      -11.81700
C        -15.12500      -36.52800      -12.70700
C        -19.04100      -37.45800      -10.47200
C        -19.94200      -38.02200       -9.38100
C        -21.33600      -37.99600       -9.25400
C        -21.95500      -38.59200       -8.15800
C        -21.17400      -39.20400       -7.15500
C        -17.69700      -38.52800       -8.79700
C        -17.18100      -39.90700       -9.28800
C        -16.24600      -39.37300       -7.29100
N        -16.87900      -38.29100       -7.59900
N        -23.48900      -41.32600       -5.11600
C        -23.00800      -40.64300       -6.15400
O        -16.18200      -33.84100      -11.91600
C        -17.38300      -34.77100      -10.03600
C        -17.52400      -35.98000       -9.08800
C        -19.77100      -39.23800       -7.30000
C        -19.15500      -38.65100       -8.40800
O        -16.45900      -40.40000       -8.12900
N        -15.42400      -39.44700       -6.20100
C        -21.80800      -39.91700       -6.00600
C        -21.16200      -40.01800       -4.75900
N        -21.69700      -40.73500       -3.77700
C        -22.85100      -41.36500       -3.95200
H        -15.24080      -32.05570      -12.42550
H        -14.16790      -33.33680      -11.76650
H        -15.27460      -32.44090      -10.67130
H        -15.26750      -35.01010      -10.45050
H        -16.74930      -38.38160      -11.48870
H        -15.56490      -37.65610      -10.34970
H        -17.24990      -36.20280      -12.45440
H        -14.98900      -35.67470      -13.38780
H        -15.27390      -37.44580      -13.29470
H        -14.23180      -36.63840      -12.07450
H        -19.01020      -38.13650      -11.33730
H        -19.39700      -36.46840      -10.79440
H        -21.93720      -37.50900      -10.01330
H        -23.03590      -38.58570       -8.07560
H        -16.51350      -39.79640      -10.15530
H        -18.01550      -40.57390       -9.55030
H        -23.53340      -40.64530       -7.10210
H        -18.31470      -34.65240      -10.60860
H        -17.20160      -33.86510       -9.43900
H        -16.64250      -36.00760       -8.43060
H        -18.43010      -35.83840       -8.48070
H        -19.16500      -39.72440       -6.54420
H        -14.93390      -40.32670       -5.98430
H        -15.29480      -38.62310       -5.59650
H        -20.21990      -39.50620       -4.59890
H        -23.28190      -41.92280       -3.12850
