46

C    1.243    33.737    25.692
C    0.067    33.346    26.356
C    -1.186    33.724    25.857
C    -0.111    35.83    22.852
C    -0.669    35.642    21.607
C    -0.396    36.787    20.851
C    1.091    37.69    23.987
C    2.481    37.635    24.138
C    3.117    38.174    25.267
C    2.338    38.741    26.272
C    2.613    33.269    26.181
C    6.247    30.272    25.1
C    7.047    32.37    25.985
N    5.834    32.903    25.811
C    4.994    30.881    24.909
C    -1.279    34.526    24.716
C    -0.109    34.922    24.033
C    1.14    34.512    24.543
O    0.134    32.652    27.523
N    0.289    37.628    21.581
N    0.457    37.084    22.866
C    0.945    38.784    26.131
C    0.313    38.225    25.027
Cl    3.413    36.897    22.881
O    -2.509    34.84    24.249
C    7.29    31.04    25.63
C    4.815    32.208    25.305
C    3.496    32.881    24.989
H    -2.0883    33.3928    26.3583
H    -1.2206    34.7645    21.2729
H    -0.7046    36.9515    19.8197
H    4.1971    38.1493    25.3551
H    2.8077    39.1477    27.1603
H    2.4857    32.3962    26.8382
H    3.0963    34.0827    26.7416
H    6.4016    29.2305    24.8424
H    7.8459    32.9716    26.4032
H    4.1774    30.3273    24.46
H    2.0445    34.8094    24.0248
H    -0.2529    33.1686    28.22
H    0.348    39.263    26.8986
H    -0.7692    38.202    24.9689
H    -3.1684    34.4914    24.8374
H    8.2753    30.6083    25.7637
H    3.718    33.7999    24.4266
H    2.9159    32.1943    24.3551
