111

N    54.512    -33.904    2.182
C    53.884    -33.104    -2.378
C    54.091    -32.645    -1.085
C    54.736    -33.444    -0.149
C    55.169    -34.719    -0.515
C    54.951    -35.182    -1.812
C    54.064    -34.811    -4.059
C    52.552    -35.088    -4.123
O    52.036    -35.828    -3.282
C    54.314    -34.372    -2.754
C    54.939    -32.947    1.146
N    51.853    -34.443    -5.083
C    50.39    -34.617    -5.216
C    50.114    -35.163    -6.626
O    50.736    -34.724    -7.587
C    49.65    -33.283    -4.951
C    49.922    -32.816    -3.495
C    49.295    -33.791    -2.473
N    49.518    -33.329    -1.076
C    50.414    -33.893    -0.231
N    50.533    -33.448    1.04
N    51.179    -34.921    -0.64
N    49.237    -36.168    -6.726
C    48.977    -36.807    -8.023
C    49.378    -38.303    -7.904
C    49.233    -38.996    -9.267
C    50.832    -38.43    -7.414
C    48.484    -39.012    -6.875
C    47.493    -36.687    -8.402
O    46.639    -36.66    -7.524
N    47.212    -36.603    -9.718
C    45.841    -36.548    -10.239
C    45.238    -37.916    -9.893
O    45.889    -38.932    -10.12
C    45.89    -36.391    -11.76
C    46.33    -34.971    -12.177
C    46.655    -34.992    -13.683
N    47.099    -33.674    -14.178
C    48.375    -33.252    -14.097
N    49.299    -34.026    -13.508
N    48.729    -32.053    -14.582
N    44.033    -37.932    -9.298
C    43.396    -39.18    -8.827
C    43.536    -39.215    -7.397
C    42.545    -38.724    -6.551
C    42.702    -38.739    -5.153
C    43.858    -39.247    -4.55
C    44.012    -39.261    -3.134
N    45.196    -39.558    -2.585
N    42.979    -38.925    -2.362
C    44.852    -39.735    -5.397
C    44.691    -39.718    -6.796
H    54.6754    -33.507    3.094
H    55.0389    -34.7582    2.0881
H    53.5296    -34.1014    2.0727
H    53.3834    -32.4695    -3.1004
H    53.7472    -31.6563    -0.8032
H    55.6743    -35.3488    0.2082
H    55.2782    -36.1772    -2.0907
H    54.3424    -34.0331    -4.7852
H    54.6314    -35.7295    -4.2699
H    56.0098    -32.734    1.28
H    54.3628    -32.0174    1.2631
H    52.3341    -33.8363    -5.7158
H    50.0459    -35.3541    -4.4756
H    48.569    -33.4297    -5.0923
H    50.0113    -32.5181    -5.6541
H    49.4872    -31.8159    -3.3511
H    51.0084    -32.7709    -3.329
H    49.7512    -34.784    -2.5989
H    48.213    -33.8583    -2.6595
H    48.9592    -32.5351    -0.732
H    51.2169    -33.8826    1.6759
H    49.9398    -32.6744    1.3725
H    51.0988    -35.2703    -1.6056
H    51.845    -35.3588    0.0124
H    48.754    -36.4872    -5.9106
H    49.586    -36.3218    -8.7999
H    49.519    -40.054    -9.1727
H    49.8881    -38.5032    -10.0005
H    48.1882    -38.9273    -9.604
H    50.9346    -37.9334    -6.4379
H    51.5067    -37.9536    -8.1405
H    51.0935    -39.4937    -7.3135
H    47.4331    -38.942    -7.1923
H    48.6032    -38.5314    -5.8928
H    48.7756    -40.0702    -6.8032
H    47.9715    -36.577    -10.368
H    45.2681    -35.7273    -9.7827
H    44.8887    -36.5882    -12.1706
H    46.6046    -37.1198    -12.1702
H    47.2232    -34.6753    -11.6072
H    45.517    -34.2564    -11.9813
H    45.7524    -35.2918    -14.2357
H    47.4552    -35.7252    -13.8622
H    46.4007    -33.0486    -14.6049
H    50.2756    -33.7049    -13.4451
H    49.0318    -34.9414    -13.1187
H    48.0255    -31.4528    -15.0356
H    49.7044    -31.7322    -14.5009
H    43.5488    -37.0666    -9.169
H    43.8957    -40.051    -9.276
H    42.3309    -39.1864    -9.1016
H    41.6336    -38.3218    -6.9784
H    41.9079    -38.3474    -4.5276
H    45.301    -39.5665    -1.5604
H    46.0022    -39.7781    -3.1871
H    42.0697    -38.6972    -2.7888
H    43.0899    -38.8931    -1.3385
H    45.7652    -40.1347    -4.9711
H    45.4856    -40.106    -7.423
