104

N    8.637    -13.804    -13.729
C    8.805    -14.43    -15.046
C    10.171    -15.105    -15.181
O    11.03    -14.902    -14.32
C    8.667    -13.25    -16.016
C    7.889    -12.221    -15.256
C    8.328    -12.368    -13.834
N    10.371    -15.895    -16.249
C    11.602    -16.688    -16.379
C    12.767    -15.806    -16.802
O    12.815    -15.314    -17.933
C    11.234    -17.708    -17.467
C    10.289    -16.959    -18.353
C    9.524    -15.999    -17.454
N    13.715    -15.603    -15.887
C    14.856    -14.77    -16.186
C    15.907    -14.712    -15.097
O    15.762    -15.279    -14.014
N    17.003    -14.027    -15.384
C    18.047    -13.841    -14.38
C    17.636    -12.774    -13.385
O    16.641    -12.066    -13.54
C    19.236    -13.37    -15.209
C    18.592    -12.598    -16.327
C    17.337    -13.362    -16.65
N    18.439    -12.66    -12.343
C    18.22    -11.636    -11.348
C    19.547    -10.977    -11.032
O    20.534    -11.666    -10.754
C    17.614    -12.253    -10.09
N    19.563    -9.647    -11.061
C    20.747    -8.9    -10.733
C    20.793    -8.567    -9.252
O    19.908    -8.954    -8.479
N    21.806    -7.817    -8.837
C    21.887    -7.377    -7.45
C    20.636    -6.618    -7.052
O    20.069    -5.848    -7.848
C    23.121    -6.453    -7.445
C    23.963    -6.978    -8.559
C    23.005    -7.436    -9.608
N    20.173    -6.809    -5.816
C    18.99    -6.075    -5.358
C    19.191    -4.577    -5.321
O    18.206    -3.833    -5.403
C    18.759    -6.642    -3.948
C    19.382    -8.002    -3.982
C    20.586    -7.856    -4.866
N    20.431    -4.113    -5.211
C    20.728    -2.701    -5.099
C    22.224    -2.513    -5.215
O    22.908    -3.454    -5.612
O    22.788    -1.465    -4.895
H    9.4908    -13.9153    -13.2048
H    7.8826    -14.2642    -13.2441
H    8.0163    -15.1756    -15.225
H    8.1241    -13.5549    -16.9228
H    9.6568    -12.8596    -16.2951
H    6.809    -12.4088    -15.3475
H    8.1185    -11.2116    -15.628
H    9.219    -11.756    -13.6302
H    7.5224    -12.0853    -13.1404
H    11.8509    -17.1934    -15.4342
H    10.7442    -18.5897    -17.0281
H    12.1271    -18.0247    -18.0255
H    9.5938    -17.6565    -18.8431
H    10.8476    -16.3998    -19.1181
H    9.4079    -15.0178    -17.9374
H    8.5325    -16.4035    -17.2025
H    13.6354    -16.0309    -14.9867
H    14.4942    -13.747    -16.3663
H    15.3315    -15.157    -17.0993
H    18.2711    -14.7801    -13.8528
H    19.8084    -14.2247    -15.5987
H    19.8997    -12.7243    -14.6152
H    19.2566    -12.5572    -17.2025
H    18.35    -11.5753    -16.0023
H    16.5312    -12.6806    -16.9604
H    17.5199    -14.0998    -17.4451
H    19.2085    -13.2905    -12.2414
H    17.5259    -10.8816    -11.7469
H    17.4507    -11.4668    -9.3382
H    18.3015    -13.0102    -9.6852
H    16.6531    -12.7264    -10.3401
H    18.7311    -9.1547    -11.3172
H    20.7529    -7.9644    -11.3115
H    21.6325    -9.4981    -10.994
H    22.0306    -8.2309    -6.7716
H    23.6554    -6.518    -6.4857
H    22.8296    -5.409    -7.6325
H    24.5802    -7.8189    -8.2099
H    24.6142    -6.1845    -8.9544
H    22.7769    -6.6237    -10.3137
H    23.4083    -8.2982    -10.1593
H    18.1314    -6.2962    -6.009
H    17.6833    -6.7129    -3.7293
H    19.2463    -6.0104    -3.1907
H    18.6809    -8.738    -4.4023
H    19.6806    -8.3158    -2.9709
H    21.466    -7.5397    -4.2867
H    20.8099    -8.7979    -5.3881
H    21.1891    -4.7651    -5.2054
H    20.3816    -2.3254    -4.1249
H    20.2216    -2.1505    -5.9055
