41

N    2.768    -1.987    -11.369
S    4.187    -4.687    -9.004
O    -0.307    -8.765    -10.367
C    3.284    -3.707    -10.128
O    3.184    -7.511    -8.969
C    4.779    -1.625    -9.925
N    1.876    -3.005    -11.54
C    4.553    -1.17    -8.453
N    2.216    -4.106    -10.731
C    5.73    -1.691    -7.626
N    3.639    -2.458    -10.445
C    6.817    -2.09    -8.606
N    1.179    -7.067    -8.059
C    6.133    -2.344    -9.957
C    2.848    -5.355    -7.976
C    2.441    -6.74    -8.388
C    3.246    -5.388    -6.518
C    0.681    -8.429    -8.069
C    -0.486    -8.547    -8.994
C    -1.779    -8.453    -8.599
C    -2.542    -8.619    -9.739
C    -1.665    -8.799    -10.768
H    4.8468    -0.7313    -10.5627
H    3.6105    -1.589    -8.0707
H    4.514    -0.0719    -8.4009
H    5.4181    -2.5627    -7.032
H    6.0983    -0.902    -6.9538
H    7.3205    -3.0047    -8.2598
H    7.5545    -1.2796    -8.7026
H    0.5523    -6.3342    -7.7941
H    6.7523    -1.9442    -10.7735
H    5.9826    -3.4235    -10.1056
H    1.9772    -4.6921    -8.0867
H    2.4173    -5.7963    -5.9209
H    3.4754    -4.3676    -6.1773
H    4.1348    -6.0242    -6.3948
H    0.3679    -8.7085    -7.0522
H    1.4806    -9.1054    -8.4054
H    -2.1432    -8.2813    -7.5872
H    -3.6291    -8.6082    -9.8032
H    -1.9789    -8.954    -11.7992
