59

C    32.0    -26.695    -30.498
C    30.984    -27.132    -29.543
C    29.589    -27.302    -27.75
C    29.462    -28.683    -25.711
C    28.762    -30.222    -23.038
C    32.292    -29.835    -24.426
C    35.353    -24.41    -33.563
O    34.95    -25.75    -33.325
C    33.971    -25.982    -32.391
C    33.704    -27.325    -32.102
O    34.445    -28.262    -32.748
C    34.66    -29.448    -31.996
C    36.122    -29.864    -32.222
C    36.036    -31.215    -32.895
C    34.702    -31.145    -33.625
C    33.799    -30.579    -32.547
C    32.732    -27.667    -31.165
C    32.255    -25.356    -30.79
C    33.237    -25.0    -31.722
C    30.324    -26.259    -28.565
C    30.349    -27.768    -26.519
O    28.296    -28.312    -25.478
N    29.934    -29.899    -25.244
O    29.479    -28.467    -28.577
N    30.605    -28.411    -29.444
C    31.307    -30.393    -25.46
C    29.042    -30.751    -24.45
O    28.825    -31.242    -22.069
O    32.195    -28.415    -24.287
H    28.6001    -26.9174    -27.46
H    27.7566    -29.7761    -23.019
H    29.509    -29.4528    -22.7926
H    33.315    -30.0895    -24.7402
H    32.0814    -30.2999    -23.4516
H    36.1387    -24.3947    -34.3327
H    35.7434    -23.9736    -32.6318
H    34.4893    -23.8233    -33.909
H    34.449    -29.278    -30.9299
H    36.6561    -29.9413    -31.2635
H    36.6358    -29.1394    -32.8707
H    36.0396    -32.0277    -32.1537
H    36.8668    -31.3592    -33.6013
H    34.3672    -32.142    -33.9474
H    34.7553    -30.4764    -34.4968
H    32.8575    -30.1985    -32.9698
H    33.577    -31.329    -31.7736
H    32.5436    -28.7132    -30.9526
H    31.686    -24.581    -30.2893
H    33.4294    -23.9529    -31.9263
H    29.6317    -25.5531    -29.0472
H    31.0514    -25.7015    -27.9567
H    30.6333    -26.8975    -25.9096
H    31.2545    -28.3107    -26.8281
H    31.3037    -31.4907    -25.3899
H    31.6384    -30.0907    -26.4644
H    28.0834    -30.838    -24.9825
H    29.5035    -31.7455    -24.3609
H    28.1785    -31.9084    -22.2698
H    32.8221    -28.1179    -23.6381
