46

C    -33.715    37.718    -19.854
C    -35.741    39.222    -20.103
C    -36.371    40.501    -20.637
C    -35.558    41.465    -21.433
C    -34.12    41.172    -21.697
C    -33.491    39.89    -21.157
C    -37.842    40.775    -20.357
C    -39.851    42.312    -20.531
C    -40.754    41.254    -21.169
C    -41.278    41.645    -22.546
C    -43.559    42.825    -22.961
C    -43.044    44.106    -23.642
C    -41.877    44.145    -24.391
C    -41.462    45.321    -24.989
C    -42.214    46.474    -24.862
C    -43.388    46.449    -24.125
C    -43.799    45.267    -23.524
F    -41.787    47.624    -25.464
N    -34.311    38.936    -20.369
N    -38.449    42.027    -20.783
N    -42.728    41.723    -22.477
O    -32.35    39.651    -21.366
O    -38.47    39.947    -19.794
O    -44.73    42.717    -22.81
H    -34.4732    37.1443    -19.3009
H    -32.8841    37.973    -19.1797
H    -33.3358    37.1131    -20.6908
H    -36.3165    38.3842    -20.5237
H    -35.8639    39.2391    -19.01
H    -36.0926    41.0298    -19.7135
H    -35.5959    42.4286    -20.9038
H    -36.0489    41.5649    -22.4123
H    -33.543    42.0097    -21.2782
H    -33.9955    41.151    -22.7897
H    -40.025    42.3246    -19.4449
H    -40.0985    43.297    -20.9535
H    -41.6146    41.0858    -20.5049
H    -40.1795    40.3212    -21.2681
H    -40.9811    40.8872    -23.286
H    -40.8663    42.6227    -22.8369
H    -41.2845    43.2449    -24.5087
H    -40.5413    45.3387    -25.5609
H    -43.9828    47.349    -24.0184
H    -44.7214    45.2493    -22.9549
H    -37.8894    42.7053    -21.2591
H    -43.2029    40.9489    -22.0584
