68

C    62.598    -135.734    42.279
C    63.69    -134.733    42.114
C    63.284    -133.526    42.888
C    63.701    -134.308    40.686
C    61.224    -141.167    42.286
C    61.875    -141.312    40.942
C    58.259    -139.468    45.322
C    57.223    -138.38    45.45
C    57.896    -137.074    45.199
C    56.984    -141.917    47.451
C    62.605    -136.211    43.686
O    61.696    -135.951    44.449
C    62.845    -136.901    41.373
O    64.003    -137.503    41.848
C    61.694    -137.854    41.505
O    60.69    -137.663    40.851
N    61.804    -138.858    42.342
C    60.702    -139.769    42.468
C    60.061    -142.116    42.368
C    60.152    -139.65    43.861
O    60.898    -139.583    44.809
N    58.845    -139.584    43.99
C    56.13    -138.591    44.433
C    57.693    -140.784    45.76
O    57.46    -141.625    44.898
O    57.452    -140.885    46.963
C    56.718    -142.018    48.807
C    56.446    -143.249    49.359
C    56.216    -143.359    50.716
C    56.286    -142.247    51.525
C    56.586    -141.02    50.981
C    56.83    -140.917    49.63
H    61.6278    -135.2738    42.0404
H    64.6639    -135.1296    42.4368
H    64.0619    -132.7535    42.7973
H    63.1564    -133.7952    43.9469
H    62.3342    -133.1383    42.4911
H    63.9949    -135.1581    40.0527
H    64.4201    -133.4862    40.5535
H    62.6961    -133.966    40.3974
H    61.9541    -141.3965    43.0761
H    62.2508    -142.3392    40.8255
H    62.7129    -140.6038    40.8621
H    61.1386    -141.0993    40.153
H    59.078    -139.2118    46.0102
H    56.7914    -138.3912    46.4617
H    57.1612    -136.2601    45.2863
H    58.3268    -137.072    44.1869
H    58.6966    -136.9259    45.9386
H    57.6934    -142.7231    47.2126
H    56.0314    -142.1017    46.9328
H    63.444    -136.8073    44.0415
H    62.964    -136.5799    40.3277
H    63.8676    -137.7832    42.7456
H    62.637    -138.9858    42.8803
H    59.9248    -139.5443    41.7228
H    60.4197    -143.1476    42.2373
H    59.336    -141.8768    41.5761
H    59.5764    -142.0181    43.3506
H    58.2569    -139.6131    43.1817
H    55.6355    -139.5554    44.621
H    56.5647    -138.5927    43.4225
H    55.3924    -137.7789    44.5136
H    56.4124    -144.1308    48.7294
H    55.9792    -144.3253    51.1465
H    56.1048    -142.3386    52.5898
H    56.6301    -140.1396    51.6119
H    57.1134    -139.9595    49.2082
