29

O         11.00400       38.56700       43.55200
C         10.13900       37.87700       43.05800
N          9.05600       37.54100       43.72800
C          7.84800       36.93900       43.19300
C          9.06400       37.75400       45.17000
C          9.06400       36.44100       45.89400
O          8.39800       36.32000       46.90300
N          9.81300       35.45700       45.40100
C          7.86200       38.63400       45.53000
C          6.57400       38.16800       44.86400
C          6.77100       37.99200       43.37200
N          7.18100       39.26800       42.75000
O          6.31300       40.25000       43.09500
S          6.66900       41.74800       42.94000
O          7.37700       42.27700       44.12900
O          7.59100       41.90300       41.79300
O          5.41000       42.51300       42.72600
H         10.26030       37.52560       42.03340
H          7.59620       36.01240       43.70890
H          7.96680       36.65700       42.14680
H          9.97250       38.26890       45.48230
H          9.84440       34.55390       45.87410
H         10.35540       35.60620       44.55020
H          8.07160       39.64590       45.18330
H          7.71930       38.58140       46.60930
H          5.80160       38.91910       45.02980
H          6.28290       37.21010       45.29490
H          5.84350       37.68310       42.88990
H          8.11540       39.51570       43.07550
