259

N    58.997    38.326    28.433
C    58.438    39.685    28.168
C    57.912    40.304    29.473
O    58.354    41.377    29.849
C    57.342    39.627    27.086
C    56.541    40.912    26.836
C    57.292    41.975    26.042
O    58.507    42.168    26.262
O    56.649    42.638    25.196
N    56.984    39.623    30.148
C    56.41    40.132    31.403
C    57.403    39.907    32.536
O    57.843    38.779    32.745
C    55.087    39.448    31.708
N    57.765    40.973    33.259
C    58.771    40.887    34.308
C    58.133    41.239    35.659
O    57.752    42.38    35.864
C    59.939    41.83    34.002
C    60.916    41.474    32.863
C    62.08    42.457    32.853
C    61.442    40.053    32.965
N    58.037    40.266    36.573
C    57.402    40.487    37.88
C    58.442    40.857    38.932
O    59.638    40.559    38.785
C    56.637    39.25    38.311
O    58.966    39.47    41.645
C    59.526    40.567    41.707
C    58.864    41.809    41.131
C    57.997    42.47    42.211
F    58.714    43.348    42.901
N    57.975    41.463    40.018
C    56.642    42.125    40.321
C    56.923    43.164    41.401
O    57.406    44.371    40.803
N    60.727    40.736    42.262
C    61.382    39.647    42.973
C    62.282    40.184    44.066
O    62.643    41.361    44.077
C    62.154    38.739    42.008
C    63.304    39.438    41.316
C    63.083    40.22    40.189
C    64.607    39.337    41.811
C    64.124    40.881    39.566
C    65.659    39.996    41.192
C    65.409    40.756    40.068
O    66.429    41.423    39.458
N    62.63    39.306    44.99
C    63.355    39.692    46.19
C    64.735    39.069    46.139
O    64.842    37.849    46.133
C    62.603    39.21    47.446
C    61.173    39.781    47.443
C    63.377    39.597    48.701
C    60.264    39.213    48.509
N    65.799    39.898    46.119
C    67.15    39.338    46.1
C    67.488    38.628    47.412
O    66.972    39.01    48.462
C    68.027    40.579    45.93
C    67.274    41.643    46.662
C    65.826    41.358    46.35
N    68.319    37.591    47.344
C    68.799    36.917    48.546
C    69.704    37.873    49.323
O    70.887    38.029    49.02
C    69.555    35.626    48.2
C    68.676    34.532    47.62
S    67.426    33.934    48.779
C    66.627    32.676    47.772
N    69.101    38.533    50.297
C    69.786    39.438    51.206
C    69.14    39.256    52.57
O    68.043    38.709    52.674
C    69.612    40.882    50.72
C    70.842    41.737    50.949
O    71.652    41.432    51.857
O    70.997    42.725    50.2
N    69.82    39.693    53.618
C    69.219    39.715    54.945
C    68.225    40.875    55.049
O    68.432    41.935    54.449
C    70.298    39.827    56.038
C    71.028    38.5    56.279
O    70.337    37.464    56.371
O    72.278    38.493    56.403
N    67.142    40.648    55.79
C    66.265    41.731    56.239
C    67.052    42.527    57.255
O    68.057    42.057    57.769
C    65.022    41.197    56.956
C    64.04    40.508    56.02
O    64.169    40.635    54.787
O    63.113    39.845    56.534
N    66.586    43.72    57.576
C    67.225    44.47    58.651
C    66.197    45.029    59.591
O    65.022    45.122    59.248
C    68.124    45.559    58.102
C    67.477    46.395    57.056
C    67.588    46.054    55.71
C    66.74    47.505    57.413
C    66.982    46.823    54.739
C    66.131    48.284    56.448
C    66.255    47.942    55.117
N    66.664    45.372    60.789
C    65.821    45.852    61.863
C    65.635    47.354    61.708
O    66.583    48.063    61.37
C    66.46    45.573    63.227
C    66.57    44.104    63.607
C    65.236    43.483    63.987
O    64.434    44.085    64.706
N    64.996    42.265    63.513
N    64.42    47.817    61.969
C    64.104    49.252    62.03
C    64.154    49.757    63.47
O    64.042    48.955    64.404
C    62.711    49.517    61.464
C    62.559    49.657    59.945
C    63.599    48.928    59.115
C    61.148    49.269    59.524
N    64.273    51.087    63.605
C    64.41    51.837    64.88
C    65.687    51.467    65.62
O    65.768    51.612    66.839
C    63.181    51.68    65.798
C    61.933    52.415    65.334
C    60.931    51.509    64.633
N    60.494    50.389    65.476
C    59.465    49.582    65.211
N    58.695    49.757    64.131
N    59.186    48.596    66.058
O    66.656    51.018    65.009
H    59.3388    37.9295    27.5716
H    58.2749    37.7337    28.8123
H    59.7547    38.3973    29.0939
H    59.251    40.3232    27.7916
H    56.6283    38.8427    27.3783
H    57.8257    39.3479    26.1383
H    56.2649    41.341    27.8105
H    55.6293    40.6471    26.2804
H    56.6704    38.7431    29.7911
H    56.2292    41.2119    31.298
H    54.6778    39.8442    32.6491
H    55.2485    38.3643    31.8059
H    54.3774    39.6406    30.8898
H    57.3318    41.855    33.0734
H    59.1524    39.8562    34.3527
H    60.5353    41.9121    34.9227
H    59.5046    42.8106    33.7578
H    60.3734    41.5664    31.9106
H    62.7723    42.1972    32.0386
H    62.6106    42.4069    33.8153
H    61.6976    43.4766    32.6978
H    60.5969    39.3488    32.9717
H    62.0195    39.9416    33.8946
H    62.0905    39.8392    32.1026
H    58.4082    39.3621    36.3604
H    56.6917    41.3215    37.7845
H    56.1683    39.4312    39.2895
H    57.3296    38.3989    38.3882
H    55.8584    39.0229    37.5679
H    59.6391    42.509    40.7857
H    57.5639    41.7233    42.8927
H    55.9198    41.38    40.6864
H    56.2428    42.6107    39.4184
H    56.0316    43.3776    42.0091
H    56.7513    44.7104    40.2041
H    61.1838    41.6226    42.1889
H    60.5999    39.0386    43.4507
H    61.4564    38.3722    41.2407
H    62.5551    37.8869    42.5764
H    62.0784    40.3129    39.7925
H    64.7984    38.7347    42.6917
H    63.9366    41.4928    38.691
H    66.6654    39.9148    41.5866
H    66.0921    41.8946    38.7053
H    62.3869    38.3448    44.8599
H    63.4485    40.7875    46.2245
H    62.5337    38.1127    47.4134
H    60.7225    39.5718    46.4615
H    61.2381    40.8689    47.5923
H    64.3883    39.1667    48.6553
H    62.8539    39.2107    49.5882
H    63.4474    40.6929    48.7651
H    59.2702    39.6777    48.4291
H    60.6879    39.4226    49.5022
H    60.1724    38.1255    48.3714
H    67.2764    38.6396    45.2596
H    68.1396    40.838    44.8669
H    69.0201    40.4226    46.3765
H    67.5609    42.6417    46.301
H    67.4595    41.577    47.7442
H    65.1806    41.6333    47.1971
H    65.5036    41.9036    45.4509
H    68.6217    37.2659    46.4481
H    67.9341    36.6558    49.1734
H    70.0234    35.2427    49.1185
H    70.3356    35.8689    47.4641
H    69.3164    33.6862    47.3295
H    68.166    34.9285    46.7297
H    65.8188    32.2031    48.3492
H    67.3657    31.9138    47.4831
H    66.2078    33.1417    46.8679
H    68.1167    38.4023    50.4155
H    70.8569    39.1919    51.2569
H    68.7661    41.3336    51.259
H    69.3929    40.865    49.6422
H    70.7598    40.0127    53.4973
H    68.6724    38.7723    55.0948
H    69.8184    40.1415    56.9766
H    71.0344    40.5842    55.7308
H    66.9206    39.7076    56.0481
H    65.9687    42.3583    55.3854
H    64.5091    42.0403    57.4416
H    65.3428    40.4737    57.7201
H    65.8032    44.1051    57.0871
H    67.856    43.7714    59.22
H    69.0165    45.0862    57.6662
H    68.4247    46.2136    58.9333
H    68.1558    45.1763    55.4233
H    66.6378    47.7684    58.4595
H    67.0728    46.556    53.6923
H    65.559    49.159    56.7349
H    65.7794    48.5541    54.3592
H    67.647    45.2942    60.9555
H    64.8439    45.3496    61.8099
H    65.8554    46.0779    63.9948
H    67.4742    45.9988    63.2203
H    67.254    44.0147    64.4638
H    66.9817    43.5509    62.7499
H    64.1348    41.805    63.7293
H    65.6766    41.8084    62.94
H    63.6843    47.1596    62.132
H    64.8455    49.8017    61.4316
H    62.3485    50.4524    61.9152
H    62.0668    48.6834    61.7804
H    62.683    50.7264    59.719
H    63.3976    49.0942    58.0464
H    63.5533    47.8509    59.3335
H    64.6001    49.3104    59.3632
H    60.4184    49.8125    60.1423
H    61.0094    48.1863    59.66
H    60.9968    49.528    58.4657
H    64.2691    51.627    62.7633
H    64.4826    52.9026    64.6171
H    63.4493    52.0594    66.795
H    62.9405    50.6088    65.8657
H    62.2343    53.2097    64.6357
H    61.4446    52.8637    66.2116
H    61.399    51.1035    63.7238
H    60.0496    52.1063    64.3566
H    61.0242    50.2122    66.3412
H    57.907    49.1185    63.9514
H    58.8902    50.5303    63.4792
H    59.7724    48.4526    66.8925
H    58.3834    47.9755    65.8797
