74

C    60.193    -1.62    -12.608
C    61.364    -1.084    -11.78
C    62.158    -2.238    -11.205
O    63.275    -1.727    -10.474
C    61.263    -3.048    -10.303
C    60.058    -3.615    -11.059
C    59.199    -4.494    -10.144
C    58.222    -3.753    -9.243
O    58.906    -3.149    -8.142
C    57.432    -2.684    -10.007
C    58.329    -1.757    -10.838
C    59.229    -2.553    -11.84
C    57.503    -0.64    -11.495
C    56.531    0.067    -10.553
C    55.624    -0.896    -9.758
C    56.567    -1.856    -9.055
C    55.687    -2.598    -8.035
C    54.624    -1.561    -7.641
C    54.858    -0.324    -8.532
C    54.654    -1.621    -10.714
C    58.361    -3.265    -12.895
C    53.562    0.489    -8.741
C    53.82    1.955    -9.06
C    52.63    0.368    -7.517
C    52.959    1.304    -6.361
C    52.129    1.05    -5.118
O    52.024    -0.072    -4.619
N    51.515    2.104    -4.596
C    51.612    3.436    -5.163
C    50.336    3.748    -5.913
O    50.363    3.772    -7.168
O    49.296    3.96    -5.25
H    60.6048    -2.1803    -13.4603
H    59.6147    -0.761    -12.9789
H    60.9764    -0.4629    -10.9591
H    62.0174    -0.476    -12.4229
H    62.5226    -2.8766    -12.0231
H    63.7736    -2.4506    -10.113
H    60.9012    -2.4036    -9.4882
H    61.8432    -3.8818    -9.881
H    60.4725    -4.2856    -11.8261
H    59.8762    -5.0759    -9.5015
H    58.619    -5.1785    -10.7804
H    57.5062    -4.4874    -8.8452
H    58.2792    -2.6925    -7.5932
H    56.7614    -3.2081    -10.7039
H    59.0153    -1.2636    -10.134
H    56.9231    -1.081    -12.3192
H    58.1991    0.1109    -11.8971
H    55.8909    0.7327    -11.1506
H    57.1143    0.6647    -9.8371
H    57.2814    -1.2536    -8.4747
H    56.2773    -2.9055    -7.1592
H    55.22    -3.4831    -8.4916
H    54.7336    -1.2902    -6.5805
H    53.6163    -1.967    -7.8135
H    55.5484    0.3568    -8.0126
H    55.2144    -2.0178    -11.5734
H    53.8913    -0.9125    -11.0692
H    54.1649    -2.4497    -10.1811
H    59.0093    -3.8188    -13.59
H    57.7773    -2.5187    -13.4539
H    57.6768    -3.9659    -12.3945
H    53.04    0.0521    -9.6051
H    52.8603    2.4749    -9.1966
H    54.4126    2.0305    -9.9837
H    54.3735    2.4189    -8.2303
H    52.6873    -0.6658    -7.1456
H    51.6031    0.5825    -7.8477
H    52.7834    2.3386    -6.6907
H    54.0205    1.1768    -6.1021
H    50.96    1.9744    -3.7743
H    52.4662    3.4808    -5.8546
H    51.7543    4.1703    -4.3565
