63

C        122.8580   13.1980   65.9300
C        119.2530   17.8290   59.8570
C        118.0700   18.5590   59.8300
C        117.9820   15.8580   59.2900
C        119.1950   16.4670   59.5850
C        121.9590   17.3170   61.7680
C        120.5720   18.5090   60.1560
C        116.8610   17.9430   59.5380
C        116.8200   16.5930   59.2710
C        119.9830   10.5210   60.6960
C        117.8910   11.3290   57.9270
C        121.5230   12.8760   63.9480
C        116.8370   11.9500   58.8400
C        118.6280   12.3540   57.0830
C        119.1490   9.2300   58.3860
C        120.1920   8.5170   59.2160
C        120.1730   6.9860   59.0740
C        119.0750   6.3550   59.8550
C        118.4650   6.9560   60.8550
C        118.7570   8.3480   61.3180
C        120.0160   8.9840   60.6810
C        121.2970   11.5130   64.1390
C        120.8050   10.7280   63.1070
C        120.5310   11.2840   61.8590
C        120.7470   12.6500   61.6590
C        121.2320   13.4530   62.6910
C        121.4730   14.8440   62.4490
C        121.7290   15.9730   62.1690
N        121.6390   17.5740   60.4880
N        119.4950   11.2230   59.7290
N        118.8810   10.5470   58.7150
O        122.0080   13.7310   64.9100
O        122.4410   18.1330   62.5540
O        118.5480   8.6820   57.4750
H        122.3197   12.4296   66.4849
H        123.7452   12.7621   65.4707
H        123.1544   13.9977   66.6088
H        118.0923   19.6282   60.0407
H        117.9510   14.7904   59.0721
H        120.1084   15.8724   59.6034
H        120.4208   19.1569   61.0194
H        120.8748   19.0502   59.2596
H        115.9422   18.5292   59.5200
H        115.8700   16.1086   59.0454
H        117.3462   10.6710   57.2500
H        117.3165   12.6545   59.5197
H        116.0968   12.4735   58.2348
H        116.3477   11.1639   59.4152
H        117.9145   12.8835   56.4516
H        119.1341   13.0646   57.7365
H        119.3625   11.8470   56.4572
H        121.1813   8.7864   58.8460
H        121.1197   6.6013   59.4534
H        120.0173   6.7477   58.0218
H        118.7605   5.3465   59.5863
H        117.6914   6.3990   61.3836
H        118.9337   8.2969   62.3924
H        117.9064   8.9656   61.0297
H        120.8548   8.6502   61.2919
H        121.5089   11.0608   65.1079
H        120.6308   9.6650   63.2738
H        120.5341   13.0927   60.6860
H        122.1503   17.1079   59.7386
