42

C       -24.3140  -13.9320  -16.2360
N       -25.4790  -18.4850  -16.4380
C       -23.3220  -15.2830  -17.7700
N       -23.7800  -17.6830  -17.8160
C       -24.0380  -16.4290  -17.3580
N       -22.6240  -15.2840  -18.9940
C       -25.0110  -16.1840  -16.3830
N       -21.7910  -14.2490  -19.2830
C       -25.8160  -17.3020  -15.9220
C       -24.4970  -18.6360  -17.3300
C       -21.4380  -14.4590  -20.5350
C       -22.0160  -15.6070  -21.0670
C       -22.7630  -16.1180  -20.0360
C       -21.8430  -16.0950  -22.4750
C       -22.4640  -15.1550  -23.5010
O       -26.7920  -17.1800  -15.2100
C       -25.1610  -14.9260  -15.8200
N       -23.4050  -14.0750  -17.2030
C       -20.3760  -16.3130  -22.8250
C       -20.2690  -16.8460  -24.2430
N       -20.8530  -15.9140  -25.2010
C       -20.6750  -16.3980  -26.5640
C       -22.2690  -15.7310  -24.8990
H       -24.3874  -12.9615  -15.7452
H       -25.9950  -19.3119  -16.1375
H       -24.2850  -19.6480  -17.6748
H       -20.7671  -13.8053  -21.0923
H       -23.3582  -17.0309  -20.0590
H       -22.3682  -17.0492  -22.5174
H       -21.9823  -14.1792  -23.4390
H       -23.5293  -15.0466  -23.2974
H       -25.9283  -14.7335  -15.0702
H       -19.9397  -17.0324  -22.1321
H       -19.8398  -15.3670  -22.7505
H       -20.8098  -17.7905  -24.3019
H       -19.2150  -16.9805  -24.4860
H       -20.3771  -15.0151  -25.1249
H       -19.6107  -16.5010  -26.7755
H       -21.1634  -17.3665  -26.6710
H       -21.1182  -15.6871  -27.2614
H       -22.6926  -15.0360  -25.6240
H       -22.7636  -16.7011  -24.9479
