77

C    -29.527    46.83    11.028
C    -29.893    45.764    11.82
C    -30.672    43.383    13.481
C    -30.589    43.038    14.967
C    -29.207    50.095    6.668
C    -28.38    49.658    7.865
C    -27.288    50.391    8.292
N    -26.543    50.063    9.346
C    -26.867    48.945    10.016
C    -27.902    48.099    9.659
C    -28.686    48.506    8.58
C    -28.234    46.902    10.49
C    -28.992    44.735    12.138
N    -29.351    43.664    12.937
C    -31.908    42.436    15.453
C    -33.116    43.312    15.136
C    -33.651    42.792    13.777
C    -32.626    41.722    13.388
N    -32.234    41.206    14.715
C    -31.381    42.279    12.677
C    -31.764    42.746    11.273
C    -31.305    41.827    10.154
C    -31.429    42.397    8.759
C    -30.259    43.308    8.402
C    -30.449    44.036    7.083
S    -30.587    42.92    5.723
O    -31.094    43.628    4.584
O    -29.352    42.205    5.574
C    -31.828    41.813    6.315
C    -31.539    41.297    7.719
C    -27.692    44.831    11.621
N    -26.769    43.851    11.956
C    -25.474    43.802    11.538
O    -24.759    42.852    11.882
C    -25.059    44.894    10.655
C    -23.663    44.911    10.122
C    -25.923    45.878    10.341
C    -27.286    45.903    10.801
H    -30.2423    47.6174    10.8195
H    -30.904    45.7183    12.2083
H    -31.2736    44.299    13.3865
H    -30.3763    43.9529    15.5395
H    -29.7794    42.3102    15.1247
H    -28.7913    51.0261    6.2554
H    -30.2468    50.2659    6.9834
H    -29.1817    49.3095    5.8984
H    -27.0232    51.2837    7.737
H    -26.2809    48.6894    10.8913
H    -29.5481    47.9143    8.2942
H    -28.6045    42.9944    13.1719
H    -31.8367    42.2446    16.5339
H    -32.8162    44.3672    15.054
H    -33.8832    43.2084    15.9175
H    -33.6827    43.5988    13.03
H    -34.6546    42.3557    13.8883
H    -33.0873    40.9435    12.7626
H    -32.995    40.7101    15.152
H    -31.4322    40.5989    14.6471
H    -30.6647    41.4512    12.569
H    -31.3176    43.7376    11.1075
H    -32.8601    42.8246    11.2246
H    -31.9073    40.9077    10.2004
H    -30.247    41.5814    10.3281
H    -32.3508    42.9963    8.7248
H    -29.3472    42.6964    8.3356
H    -30.1417    44.0557    9.2003
H    -29.5851    44.6957    6.9142
H    -31.3663    44.6404    7.1403
H    -31.888    40.954    5.6305
H    -32.793    42.3408    6.3265
H    -32.3529    40.6187    8.0147
H    -30.5892    40.7425    7.6972
H    -27.0822    43.1159    12.5573
H    -23.5258    45.7948    9.4816
H    -23.4845    43.9997    9.5324
H    -22.9511    44.9511    10.9596
H    -25.5736    46.6932    9.7091
