57

N    -11.887    -8.229    -1.624
C    -10.546    -8.44    -1.664
N    -9.732    -7.672    -2.406
C    -10.217    -6.635    -3.132
C    -11.633    -6.345    -3.107
C    -12.482    -7.231    -2.31
N    -13.809    -7.007    -2.281
N    -11.843    -5.282    -3.869
C    -10.638    -4.923    -4.37
N    -9.685    -5.739    -3.918
P    -9.644    -3.833    -8.831
P    -9.31    -1.005    -9.632
C    -8.249    -5.644    -4.181
O    -8.957    -4.914    -9.615
O    -10.105    -0.611    -8.432
C    -4.367    0.248    -10.47
O    -3.098    0.744    -10.024
C    -7.826    -6.8    -5.041
O    -6.546    -7.145    -4.499
O    -11.146    -3.659    -8.839
O    -9.767    -0.676    -11.049
C    -5.178    1.432    -10.957
O    -4.369    2.516    -11.462
C    -7.688    -6.235    -6.448
O    -6.754    -6.942    -7.334
O    -8.837    -2.519    -9.39
C    -5.905    1.866    -9.684
O    -5.031    2.83    -9.164
C    -7.278    -4.831    -6.115
O    -7.893    -4.457    -4.892
C    -5.902    0.718    -8.701
O    -5.002    -0.268    -9.291
C    -7.689    -3.899    -7.181
O    -9.094    -3.821    -7.333
C    -7.245    0.08    -8.388
O    -7.919    -0.168    -9.612
H    -10.1216    -9.2498    -1.0816
H    -14.2122    -6.2302    -2.8241
H    -14.4212    -7.6124    -1.7157
H    -10.4704    -4.0862    -5.0465
H    -7.7103    -5.6697    -3.2223
H    -4.2611    -0.5186    -11.2518
H    -3.2354    1.4233    -9.3742
H    -8.5302    -7.6445    -5.0114
H    -6.1862    -7.8794    -4.9823
H    -5.8883    1.1205    -11.737
H    -3.7943    2.8284    -10.773
H    -8.668    -6.2352    -6.9475
H    -7.037    -7.8431    -7.4365
H    -6.919    2.2471    -9.8752
H    -4.9279    3.5344    -9.7929
H    -6.1845    -4.7893    -6.0036
H    -5.4834    1.079    -7.75
H    -7.2515    -4.238    -8.1316
H    -7.3062    -2.8968    -6.9379
H    -7.8439    0.7611    -7.7655
H    -7.0902    -0.8672    -7.8506
