46

C    4.955    24.74    3.307
C    2.812    24.027    4.365
C    4.926    22.774    4.983
C    5.709    23.724    4.135
O    1.403    23.778    4.166
C    3.51    24.374    3.041
C    2.848    25.532    2.273
O    3.0    26.801    2.911
C    3.408    22.787    4.993
O    2.948    22.73    6.358
N    5.609    22.307    3.745
C    3.094    21.41    6.953
C    2.166    21.323    8.181
C    2.634    22.221    9.311
C    4.087    21.888    9.641
C    4.916    22.079    8.396
C    6.373    21.678    8.617
O    0.852    21.688    7.799
O    1.824    22.021    10.486
O    4.583    22.772    10.66
O    4.421    21.147    7.41
O    7.159    21.858    7.433
H    5.4678    24.8457    2.3396
H    4.9747    25.7022    3.8396
H    2.9347    24.8751    5.0546
H    5.302    22.4918    5.9775
H    6.6593    24.1463    4.4936
H    0.9937    24.5543    3.8023
H    3.481    23.4799    2.4009
H    1.7734    25.317    2.1778
H    3.3006    25.5894    1.2721
H    3.9243    27.0048    2.9918
H    3.0483    21.9044    4.4438
H    5.0638    22.0451    2.9387
H    6.4177    21.7091    3.8124
H    2.8104    20.6503    6.2098
H    2.1591    20.2838    8.5415
H    2.5598    23.2718    8.9943
H    4.1595    20.8462    9.9866
H    4.8461    23.1193    8.0455
H    6.4102    20.6188    8.9116
H    6.7948    22.2976    9.4221
H    0.2688    21.5912    8.5427
H    1.889    21.1148    10.7636
H    5.4925    22.5661    10.841
H    7.1362    22.7721    7.175
