80

N         12.89200        8.03900       14.30700
C         13.77900        9.19800       14.34700
C         13.10900       10.42100       13.72200
O         12.27300       10.28400       12.82700
C         15.10400        8.89000       13.63700
C         14.93900        8.29200       12.26600
C         14.79700        9.10300       11.15000
C         14.93500        6.91600       12.09200
C         14.64700        8.55100        9.88800
C         14.78500        6.36000       10.83500
C         14.64200        7.17600        9.73200
N         13.46700       11.61200       14.19200
C         12.90500       12.83500       13.61400
C         13.53200       13.14600       12.26200
O         14.59400       12.63800       11.90100
C         13.28400       13.90200       14.64500
C         14.57400       13.40300       15.21600
C         14.43300       11.90100       15.26800
N         12.85000       14.00900       11.50900
C         13.28000       14.35700       10.16100
C         14.41400       15.38000       10.15700
O         14.36100       16.36300       10.90200
C         12.10200       14.88900        9.36100
N         15.41500       15.14100        9.31200
C         16.48900       16.09800        9.03200
C         17.77500       15.73400        9.79600
C         17.58100       15.93000       11.29800
O         18.02000       14.35500        9.47000
P         19.43500       13.69800        9.88900
O         19.52400       12.39800        8.99200
O         19.46900       13.37300       11.33700
O         20.58200       14.73400        9.52600
C         16.74900       16.11800        7.52400
O         16.43800       15.14700        6.82500
N         17.30900       17.20800        7.01400
C         17.60700       17.32600        5.58500
C         19.05300       17.70300        5.34300
O         19.81300       17.99700        6.27500
C         16.67600       18.32900        4.86100
C         15.24100       17.89500        4.95300
C         16.86500       19.73400        5.41700
O         19.48000       17.72700        4.18100
H         12.01860        8.26420       14.78340
H         12.69780        7.79430       13.33600
H         13.34210        7.25160       14.77380
H         13.99110        9.42380       15.39210
H         15.63540        8.15930       14.24670
H         15.63340        9.83510       13.51600
H         14.80350       10.18670       11.26700
H         15.05170        6.26420       12.95780
H         14.53310        9.19910        9.01900
H         14.77970        5.27660       10.71560
H         14.52540        6.73890        8.74030
H         11.83290       12.76700       13.42920
H         12.51610       14.03440       15.40710
H         13.38200       14.89250       14.20080
H         14.76380       13.82230       16.20410
H         15.42560       13.70480       14.60630
H         15.38320       11.38580       15.12760
H         14.09500       11.54530       16.24130
H         12.00470       14.43710       11.88650
H         13.66190       13.44660        9.69910
H         11.32750       14.12410        9.30490
H         11.70280       15.77690        9.85130
H         12.43400       15.14610        8.35510
H         15.43540       14.24100        8.83250
H         16.18130       17.08800        9.36870
H         18.61820       16.36660        9.51860
H         17.33350       16.97250       11.49810
H         16.77000       15.28970       11.64490
H         18.50150       15.66720       11.81930
H         17.53800       17.98460        7.63430
H         17.42490       16.33750        5.16330
H         16.94750       18.34570        3.80550
H         15.12860       16.91530        4.48870
H         14.94650       17.83780        6.00090
H         14.61020       18.61810        4.43590
H         16.62870       19.73710        6.48110
H         17.89980       20.04440        5.27240
H         16.20130       20.42260        4.89410
