45

C    42.722    37.765    88.997
C    43.898    37.484    88.3
C    43.949    36.715    87.004
C    43.87    34.748    85.753
C    44.833    33.776    86.034
O    44.572    37.273    86.115
N    43.395    35.503    86.793
C    45.39    32.998    85.016
C    46.383    31.913    85.338
N    46.275    30.795    84.605
O    47.098    29.672    84.701
O    47.194    32.037    86.25
C    44.967    33.17    83.704
C    44.014    34.136    83.41
C    43.468    34.929    84.415
O    42.527    35.861    84.034
C    41.129    35.65    84.312
C    45.105    37.967    88.79
C    45.156    38.705    89.966
C    43.994    38.984    90.678
C    42.774    38.505    90.188
C    44.106    39.785    91.946
C    42.972    40.102    92.709
C    43.116    40.846    93.879
C    44.39    41.266    94.277
C    45.531    40.959    93.529
C    45.381    40.217    92.359
H    41.7695    37.412    88.6187
H    45.1533    33.6229    87.0582
H    42.6585    35.1653    87.3791
H    45.5387    30.7633    83.9291
H    46.8132    29.0176    84.074
H    45.379    32.553    82.9136
H    43.6911    34.2743    82.3845
H    40.5467    36.5018    83.9307
H    40.9805    35.5613    85.3983
H    40.7925    34.7259    83.8192
H    46.0209    37.765    88.2465
H    46.1101    39.0667    90.3321
H    41.8598    38.7077    90.7341
H    41.9902    39.7705    92.3907
H    42.2471    41.0974    94.4763
H    44.4952    41.8439    95.1881
H    46.5109    41.291    93.8523
H    46.252    39.9706    91.7626
