35

O    47.179    30.794    85.668
N    46.4    31.879    85.269
C    46.217    32.91    86.088
O    46.774    32.995    87.182
C    45.259    33.961    85.611
C    44.696    33.854    84.345
C    43.745    34.762    83.92
C    43.316    35.81    84.732
C    43.905    35.936    86.002
C    44.867    35.015    86.433
C    42.223    36.741    84.271
N    43.52    36.98    86.816
C    44.104    37.132    88.138
C    44.014    38.54    88.666
C    45.122    39.159    89.229
C    45.041    40.455    89.71
C    43.849    41.147    89.639
C    42.738    40.54    89.088
C    42.821    39.247    88.601
H    47.2058    30.1509    84.9693
H    45.977    31.8818    84.3628
H    45.0055    33.0515    83.6853
H    43.3212    34.6561    82.9279
H    45.3112    35.1231    87.4159
H    41.91    36.4636    83.2536
H    42.5982    37.775    84.27
H    41.3634    36.6635    84.953
H    42.8156    37.655    86.4858
H    45.1645    36.8444    88.0873
H    43.5755    36.4631    88.8331
H    46.0612    38.6216    89.2927
H    45.9155    40.9269    90.1431
H    43.7853    42.1621    90.014
H    41.7981    41.0776    89.0367
H    41.945    38.7814    88.1641
