57

C       -0.6140   1.1750  -10.7420
C        0.1590   2.2090  -10.2340
Cl       0.6250   2.2550  -8.5430
C        0.5790   3.2550  -11.0160
Cl       1.5710   4.5240  -10.4010
C        0.2640   3.3550  -12.3630
C       -0.5260   2.2750  -12.8740
C       -0.9210   1.1640  -12.0980
C       -1.7500  -0.0570  -12.7040
N       -0.6820  -1.0430  -13.0940
C       -0.3540  -2.1350  -12.2120
C        0.0270  -0.8980  -14.2440
O       -0.3030   0.0630  -15.0090
C        1.0510  -1.7380  -14.4730
C        1.9220  -1.7600  -15.4980
N        2.7750  -2.8070  -15.3890
N        2.4200  -3.4070  -14.2050
C        3.1760  -4.5780  -13.7370
C        4.5150  -4.0880  -13.3330
C        5.3420  -5.3070  -12.8670
N        5.5520  -6.2970  -13.9360
C        4.2300  -6.7250  -14.4190
C        3.3810  -5.5490  -14.8470
C        1.3520  -2.7810  -13.6370
C        0.6410  -3.0240  -12.4980
C        0.8430  -4.0030  -11.4570
O        1.9850  -4.1730  -10.9670
N       -0.3290  -4.5250  -10.9220
C       -0.3760  -5.3450  -9.8050
C        0.5300  -5.3200  -8.7780
C        0.4450  -6.1490  -7.6670
N       -0.6430  -6.9490  -7.5230
C       -1.6140  -7.0130  -8.5270
C       -1.4970  -6.1790  -9.6450
H       -0.9756   0.3822  -10.0871
H        0.5916   4.1892  -12.9834
H       -0.8388   2.3131  -13.9175
H       -2.3755   0.2383  -13.5464
H       -2.4644  -0.4723  -11.9932
H       -0.9186  -2.2544  -11.2873
H        1.9392  -1.0318  -16.3089
H        2.6354  -5.0651  -12.9255
H        4.4246  -3.3608  -12.5261
H        5.0067  -3.5948  -14.1715
H        4.7917  -5.7958  -12.0631
H        6.3203  -4.9451  -12.5506
H        6.0748  -7.0971  -13.5798
H        6.0913  -5.8861  -14.6980
H        3.7180  -7.2393  -13.6057
H        4.3744  -7.3754  -15.2817
H        3.8943  -5.0351  -15.6598
H        2.4059  -5.9261  -15.1553
H       -1.2096  -4.2900  -11.3799
H        1.3588  -4.6144  -8.8356
H        1.2400  -6.1574  -6.9214
H       -2.4523  -7.7043  -8.4401
H       -2.2833  -6.1759  -10.3999
