59

C       -49.7020   1.0290  -44.6500
C       -48.4710   0.3930  -44.6960
C       -48.1600  -0.5760  -43.7520
O       -46.9300  -1.1530  -43.7310
C       -49.0990  -0.9310  -42.7930
C       -50.3390  -0.3200  -42.7820
C       -50.6560   0.6740  -43.7000
C       -52.0060   1.3440  -43.6650
C       -51.9450   2.8590  -43.4680
N       -51.1840   3.2170  -42.2660
C       -53.3800   3.3010  -43.2510
O       -53.8940   3.4270  -42.1400
N       -54.1000   3.5490  -44.3980
S       -55.6830   3.4480  -44.5870
O       -56.2570   4.5210  -43.8580
O       -56.1690   2.1240  -44.4490
O       -55.8370   3.8290  -46.1250
C       -55.2200   2.9230  -47.1010
C       -54.5790   3.7850  -48.1630
O       -55.5890   4.5720  -48.8370
C       -53.5250   4.7800  -47.6620
O       -52.4010   4.7800  -48.5390
C       -54.2760   6.1060  -47.6910
O       -53.4450   7.2380  -47.8540
C       -55.1180   5.8990  -48.9390
N       -56.2540   6.8070  -49.0670
C       -57.3030   6.9810  -48.1990
N       -58.1300   7.9400  -48.5440
C       -57.5910   8.4300  -49.7240
C       -56.4430   7.7290  -50.0680
N       -55.6760   7.9280  -51.1470
C       -56.1400   8.9400  -51.8900
N       -57.2220   9.7010  -51.6840
C       -57.9810   9.4740  -50.5870
N       -59.0140   10.2920  -50.3430
H       -49.9262   1.8181  -45.3677
H       -47.7498   0.6530  -45.4708
H       -46.8912  -1.7953  -43.0186
H       -48.8587  -1.6908  -42.0494
H       -51.0796  -0.6226  -42.0417
H       -52.5501   0.9297  -42.8162
H       -52.4815   1.1627  -44.6289
H       -51.4641   3.3281  -44.3264
H       -51.1645   4.2320  -42.1671
H       -51.6294   2.8029  -41.4472
H       -50.2308   2.8641  -42.3509
H       -53.5626   3.8284  -45.2187
H       -55.9682   2.2633  -47.5405
H       -54.4761   2.2878  -46.6200
H       -54.0775   3.0680  -48.8130
H       -53.1227   4.5528  -46.6748
H       -51.7465   5.4049  -48.2185
H       -54.8085   6.3138  -46.7629
H       -53.9852   8.0315  -47.8628
H       -54.5081   6.0978  -49.8203
H       -57.4374   6.3761  -47.3023
H       -55.5594   9.1760  -52.7818
H       -59.5666   10.1762  -49.4935
H       -59.2477   11.0304  -51.0067
