33

O        15.9850   3.0040  -33.7550
C        15.9860   3.0980  -32.3900
C        14.9150   2.5970  -31.6520
C        14.9050   2.6840  -30.2600
C        17.0570   3.6920  -31.7290
C        17.0530   3.7800  -30.3400
C        15.9790   3.2790  -29.6120
C        16.0000   3.3880  -28.0950
C        17.3420   2.8710  -27.5600
C        14.8460   2.5790  -27.4890
C        15.7610   4.8500  -27.7180
C        16.6200   5.5200  -26.8430
C        16.3590   6.8410  -26.4960
C        14.6450   5.4930  -28.2520
C        14.3850   6.8050  -27.9090
C        15.2390   7.4770  -27.0330
O        14.9790   8.7720  -26.7020
H        16.7902   3.3949  -34.1021
H        14.0755   2.1318  -32.1687
H        14.0648   2.2899  -29.6883
H        17.8979   4.0878  -32.2984
H        17.8931   4.2424  -29.8218
H        17.4701   1.8283  -27.8505
H        18.1526   3.4681  -27.9778
H        17.3533   2.9507  -26.4730
H        13.8976   2.9660  -27.8618
H        14.9495   1.5318  -27.7733
H        14.8738   2.6664  -26.4029
H        17.4916   5.0090  -26.4339
H        17.0211   7.3732  -25.8130
H        13.9819   4.9633  -28.9360
H        13.5145   7.3150  -28.3215
H        14.1807   9.0615  -27.1498
