63

O        -38.46000      -26.03900        4.98000
C        -38.98100      -24.74100        4.77000
C        -37.85900      -23.75200        4.55300
O        -37.18300      -23.60300        5.82900
C        -36.78400      -24.22500        3.57700
O        -36.89600      -23.72100        2.26000
C        -35.47200      -23.78000        4.19800
C        -35.77400      -23.47100        5.66000
N        -35.00700      -24.44900        6.58800
C        -34.13400      -24.01500        7.47400
O        -33.81000      -22.80800        7.61500
N        -33.51800      -24.97000        8.31200
C        -33.76500      -26.35400        8.26300
O        -32.98700      -27.11700        8.77700
C        -35.01900      -26.80200        7.53300
C        -36.23200      -26.67500        8.46500
O        -34.87900      -28.15400        7.08100
C        -35.25800      -25.91200        6.27600
P        -36.81300      -24.76500        1.03400
O        -37.59200      -25.95700        1.44000
O        -37.18700      -24.04100       -0.20100
O        -35.28100      -25.23800        0.98900
C        -34.26700      -24.49600        0.30200
C        -33.08600      -25.38500       -0.04500
O        -32.13400      -25.50000        1.04800
C        -32.08600      -26.83500        1.58300
N        -32.89900      -26.67900        2.85200
C        -32.44300      -25.85400        3.85900
O        -31.33400      -25.24700        3.78100
N        -33.24700      -25.67000        4.96000
C        -34.42900      -26.29500        5.02600
C        -34.92400      -27.17900        4.03600
C        -36.25000      -27.90100        4.06800
C        -34.10800      -27.33700        2.94400
C        -32.79500      -27.73100        0.56000
C        -33.43600      -26.81100       -0.48600
O        -32.94200      -27.08400       -1.79500
H        -39.18370      -26.65490        5.11610
H        -39.55330      -24.44170        5.64810
H        -39.61940      -24.75320        3.88660
H        -38.30880      -22.84490        4.14930
H        -36.87510      -25.30320        3.44530
H        -35.07310      -22.90410        3.68640
H        -34.71300      -24.55740        4.11020
H        -35.45190      -22.46360        5.92350
H        -32.84650      -24.63250        9.00160
H        -36.08070      -27.30200        9.34370
H        -36.34420      -25.63570        8.77370
H        -37.12950      -26.99750        7.93720
H        -35.67890      -28.42130        6.62240
H        -36.30360      -26.09080        6.02550
H        -33.92120      -23.69140        0.95100
H        -34.68880      -24.09760       -0.62080
H        -32.65310      -24.86290       -0.89830
H        -31.10120      -27.26090        1.77500
H        -36.85780      -27.57960        3.22220
H        -36.07870      -28.97570        4.00640
H        -36.76730      -27.66700        4.99850
H        -34.42120      -27.99520        2.13360
H        -33.55380      -28.34280        1.04790
H        -32.08450      -28.41000        0.08850
H        -34.51410      -26.96160       -0.54190
H        -33.17570      -27.98140       -2.04330
