59

C          7.38500        5.88200       -2.98000
N          6.37700        5.00300       -5.06100
O          7.46300        4.78500       -2.51800
C          6.44000        6.14800       -4.13100
C          5.01200        6.44100       -3.65100
C          4.99600        4.92800       -5.54500
C          4.28600        6.13200       -4.95000
C         -2.39800        8.90900       -5.65000
C         -2.06600        7.70600       -4.73100
O         -1.78000        9.93100       -5.64600
C         -0.59500        7.38200       -4.52900
C         -2.79300        7.87500       -3.37300
C         -2.57300        6.61900       -2.53700
O         -2.34000        9.02000       -2.71500
C          0.18600        6.92500       -5.79600
C          1.60300        7.28300       -5.38500
N          0.23400        8.44900       -4.00900
S          2.49300        5.82800       -4.69800
C          1.37100        8.29600       -4.34300
C          2.50500        9.16100       -3.79500
C         -0.18500        7.60500       -7.08400
O          2.31400        9.88300       -2.77400
O          3.61700        9.16900       -4.37600
N          8.16400        7.02000       -2.51500
C          9.14000        7.02000       -1.43400
C          9.50200        5.84200       -0.80800
C         10.43200        5.87000        0.22000
C         10.99400        7.07100        0.61200
C         10.63500        8.25100       -0.01300
C          9.70200        8.22500       -1.04000
C         10.83700        4.56700        0.90200
O         10.34300        3.47500        0.51700
O         11.67500        4.58500        1.84400
H          6.64450        4.13820       -4.59090
H          7.02730        5.12900       -5.83670
H          6.84110        7.02340       -4.64180
H          4.84790        7.44020       -3.24750
H          4.68260        5.87150       -2.78200
H          4.51890        3.99570       -5.24280
H          4.95520        4.94060       -6.63420
H          4.32160        6.98470       -5.62810
H         -3.23990        8.81750       -6.33620
H         -2.43510        6.83410       -5.27110
H         -0.72550        6.57550       -3.80740
H         -3.86300        8.00360       -3.53640
H         -2.97600        5.75610       -3.06710
H         -1.50520        6.47800       -2.36950
H         -3.08100        6.72820       -1.57880
H         -2.79990        9.10930       -1.87710
H         -0.01070        5.88060       -6.03800
H          2.22240        7.62870       -6.21260
H         -1.23860        7.42550       -7.29780
H         -0.00920        8.67670       -6.99130
H          0.42480        7.20420       -7.89370
H          8.01100        7.90710       -2.99460
H          9.05890        4.89650       -1.12070
H         11.72560        7.08770        1.41980
H         11.08170        9.19510        0.29880
H          9.41120        9.15080       -1.53650
