275

N          0.93800       -1.37400      -15.66000
C          1.76600       -0.96800      -14.51900
C          2.97900       -1.85300      -14.45900
O          2.92900       -3.03800      -14.86000
C          1.00300       -1.08200      -13.20600
O          1.11000       -2.41000      -12.71500
C         -0.46100       -0.76000      -13.40900
N          4.06600       -1.29900      -13.93300
C          5.33700       -2.01400      -13.90800
C          5.23200       -3.33500      -13.16800
O          4.59900       -3.43600      -12.12600
C          6.40300       -1.14700      -13.23200
N          5.93600       -4.33000      -13.68500
C          5.99900       -5.64100      -13.04000
C          6.63200       -5.50800      -11.65900
O          7.61200       -4.77300      -11.47500
C          6.84400       -6.56300      -13.92000
C          6.95600       -7.96700      -13.40200
C          7.53900       -8.97500      -14.40400
N          8.66900       -8.36300      -15.08500
C          9.03900       -8.60700      -16.33700
N          8.41100       -9.50800      -17.09300
N         10.04100       -7.91800      -16.83700
N          6.12400       -6.29600      -10.71400
C          6.78700       -6.49200       -9.42400
C          8.25100       -6.87100       -9.63500
O          8.57200       -7.66000      -10.52400
C          6.08900       -7.62400       -8.66400
C          6.64300       -7.81400       -7.25100
C          5.72000       -8.66000       -6.33100
C          6.26600       -8.65000       -4.87900
N          5.23600       -8.96300       -3.83900
N          9.14500       -6.31400       -8.82400
C         10.57600       -6.44100       -9.14000
C         11.06800       -7.89500       -9.20200
O         11.93300       -8.22400      -10.03000
C         11.43100       -5.64600       -8.16000
O         11.30000       -6.16500       -6.86400
N         10.55500       -8.77400       -8.33600
C         10.94100      -10.18500       -8.35800
C         10.15800      -10.99400       -9.36700
O         10.40200      -12.20100       -9.50900
C         10.68900      -10.80600       -6.98800
O          9.30100      -10.63700       -6.69400
C         11.59100      -10.12600       -5.88900
N          9.19100      -10.39000      -10.04400
C          8.33800      -11.11700      -10.96000
C          7.20600      -11.89500      -10.31200
O          6.49700      -12.63300      -11.02600
N          7.02700      -11.81700       -9.00300
C          5.95800      -12.55100       -8.34700
C          4.54800      -12.11900       -8.68400
O          4.32200      -10.99000       -9.17000
O         -2.57200      -15.22000      -11.26900
C         -1.55400      -15.56100      -11.89400
C         -1.47700      -15.44900      -13.36700
N         -0.47700      -15.98600      -11.23200
C         -0.47700      -16.10900       -9.81500
C          0.92300      -16.30800       -9.23200
C          1.80400      -15.08500       -9.36600
C          1.38900      -14.06800       -8.29200
C          2.19900      -12.74700       -8.42800
N          3.63300      -13.03400       -8.39200
C          1.82600      -11.71000       -7.37600
O          2.63400      -11.31200       -6.53200
N          0.58200      -11.27900       -7.39500
C          0.10200      -10.31400       -6.41200
C         -1.18600      -10.78500       -5.74300
O         -2.23200      -10.11600       -5.81100
C         -0.04700       -8.90400       -7.05100
N         -1.11400      -11.93500       -5.05700
C         -2.33500      -12.47900       -4.44900
C         -2.99400      -11.48000       -3.50200
O         -2.32300      -10.76300       -2.73200
C         -1.86800      -13.73400       -3.69100
C         -0.39300      -13.57300       -3.56000
C          0.08000      -12.72600       -4.71000
N         -4.33900      -11.49600       -3.51900
C         -5.05200      -10.83800       -2.43600
C         -4.58900      -11.45400       -1.12200
O         -4.32800      -12.65600       -1.04500
C         -6.54000      -11.03700       -2.65100
C         -7.06700      -10.17600       -3.78600
C         -8.57600      -10.07500       -3.81600
N         -9.14600      -11.34200       -4.27500
C        -10.15700      -12.00600       -3.69400
N        -10.64600      -11.60500       -2.50500
N        -10.61100      -13.12800       -4.27800
N         -4.48800      -10.60300       -0.09000
C         -3.90800      -11.05600        1.17100
C         -4.59100      -12.30300        1.72500
O         -3.92600      -13.20400        2.26300
C         -3.93100       -9.93800        2.18400
C         -3.26200      -10.39200        3.46800
C         -1.88100      -10.97800        3.18900
C         -1.16400      -11.30200        4.47200
N         -1.28500      -10.23900        5.51000
N         -5.91200      -12.38000        1.66900
C         -6.54400      -13.55200        2.22900
C         -6.14600      -14.81600        1.49800
O         -6.13400      -15.91300        2.09300
C         -8.05300      -13.39000        2.24700
C         -8.67700      -13.41100        0.86700
C        -10.19800      -13.25900        0.96300
O        -10.74800      -12.21200        0.61900
N        -10.85100      -14.26800        1.46600
N         -5.73300      -14.69100        0.22000
C         -5.35600      -15.87600       -0.54100
C         -3.90700      -16.26900       -0.31800
O         -3.46400      -17.26300       -0.91100
C         -5.65900      -15.66300       -2.04200
C         -7.11900      -15.30800       -2.36000
C         -7.24900      -15.11300       -3.87200
C         -8.08400      -16.40300       -1.91400
N         -3.15100      -15.49000        0.46200
C         -1.78100      -15.81400        0.82900
C         -1.73100      -16.69700        2.06000
O         -0.65400      -17.15300        2.44500
C         -1.02400      -14.52000        1.10400
N         -2.86600      -16.97900        2.66300
C         -2.92200      -17.93400        3.74600
C         -2.99100      -19.37100        3.24700
O         -3.00900      -20.31200        4.06100
C         -4.11600      -17.68000        4.64500
C         -3.97900      -16.53800        5.58100
C         -4.34000      -15.26600        5.17200
C         -3.51100      -16.72000        6.87100
C         -4.24700      -14.19100        6.04000
C         -3.45200      -15.65900        7.74800
C         -3.80000      -14.40000        7.31300
O         -3.66200      -13.37800        8.26700
O         -3.02900      -19.60400        2.02500
H          1.47930       -1.28530      -16.52000
H          0.64640       -2.34390      -15.53890
H          0.11470       -0.77410      -15.71160
H          2.05230        0.07470      -14.65690
H          1.43060       -0.37470      -12.49540
H          2.03560       -2.62710      -12.58170
H         -0.88890       -1.45820      -14.12840
H         -0.98640       -0.84850      -12.45810
H         -0.55890        0.25790      -13.78630
H          4.01080       -0.35910      -13.54060
H          5.61400       -2.22470      -14.94090
H          6.52100       -0.21790      -13.78960
H          6.09340       -0.92280      -12.21120
H          7.35060       -1.68540      -13.21570
H          6.44700       -4.17840      -14.55460
H          4.99730       -6.05350      -12.91980
H          7.85140       -6.14790      -13.94950
H          6.35750       -6.61550      -14.89400
H          5.94520       -8.30070      -13.16740
H          7.63450       -7.93790      -12.54940
H          6.77700       -9.25340      -15.13200
H          7.86780       -9.87050      -13.87660
H          9.22400       -7.68980      -14.55670
H          8.70820       -9.66130      -18.05660
H          7.63340      -10.04390      -16.70770
H          5.24400       -6.77900      -10.89480
H          6.73250       -5.56400       -8.85480
H          6.25370       -8.54950       -9.21580
H          5.03280       -7.36870       -8.57830
H          6.73700       -6.82580       -6.80070
H          7.59130       -8.34410       -7.33980
H          5.69220       -9.68640       -6.69680
H          4.71670       -8.23410       -6.34000
H          6.63250       -7.64330       -4.67830
H          7.03320       -9.42180       -4.81680
H          5.66830       -8.93750       -2.91550
H          4.48750       -8.27150       -3.88460
H          4.85270       -9.89250       -4.01070
H          8.84260       -5.80510       -7.99330
H         10.68830       -6.02610      -10.14170
H         11.09990       -4.60750       -8.16160
H         12.47530       -5.71260       -8.46510
H         11.84360       -5.65440       -6.25960
H          9.87830       -8.45360       -7.64330
H         11.99570      -10.20970       -8.63190
H         10.94780      -11.86480       -6.99330
H          9.10830      -11.01880       -5.83450
H         12.64110      -10.26090       -6.14820
H         11.36140       -9.06160       -5.83990
H         11.39210      -10.58690       -4.92140
H          9.04470       -9.38870       -9.91620
H          8.97110      -11.84750      -11.46370
H          7.87500      -10.37560      -11.61120
H          7.64950      -11.23220       -8.44550
H          6.08200      -12.37930       -7.27780
H          6.04820      -13.58450       -8.68140
H         -2.26120      -16.05720      -13.81780
H         -1.61060      -14.40720      -13.65840
H         -0.50260      -15.80040      -13.70640
H          0.36550      -16.22820      -11.75350
H         -1.07130      -16.98580       -9.55790
H         -0.88040      -15.18460       -9.40160
H          1.39810      -17.11930       -9.78340
H          0.81090      -16.51940       -8.16860
H          1.68740      -14.64830      -10.35790
H          2.84970      -15.36230       -9.23270
H          1.58590      -14.49810       -7.31000
H          0.33000      -13.84200       -8.41670
H          1.94110      -12.30880       -9.39210
H          3.94040      -13.97150       -8.13300
H         -0.05750      -11.62610       -8.10980
H          0.84880      -10.23630       -5.62180
H          0.92110       -8.57260       -7.42660
H         -0.76000       -8.95300       -7.87400
H         -0.40610       -8.20170       -6.29870
H         -3.09130      -12.70430       -5.20090
H         -2.13060      -14.64940       -4.22130
H         -2.35390      -13.82550       -2.71960
H          0.09750      -14.54620       -3.57950
H         -0.14680      -13.09560       -2.61150
H          0.93640      -12.10380       -4.45030
H          0.44940      -13.31970       -5.54620
H         -4.84640      -11.95850       -4.27330
H         -4.84950       -9.76730       -2.41000
H         -7.05920      -10.75220       -1.73590
H         -6.71210      -12.08260       -2.90620
H         -6.75080      -10.63760       -4.72150
H         -6.67400       -9.16940       -3.64340
H         -8.87130       -9.27780       -4.49820
H         -8.94340       -9.85560       -2.81350
H         -8.73800      -11.75810       -5.11220
H        -11.36800      -12.15450       -2.03900
H        -10.29440      -10.75180       -2.07050
H         -4.81560       -9.64180       -0.18600
H         -2.87500      -11.33710        0.96590
H         -4.96490       -9.66410        2.39430
H         -3.39430       -9.07810        1.78320
H         -3.88050      -11.16080        3.93110
H         -3.14940       -9.53080        4.12650
H         -1.29460      -10.24410        2.63620
H         -2.00020      -11.89590        2.61330
H         -0.10520      -11.40860        4.23610
H         -1.61510      -12.20740        4.87810
H         -0.77780      -10.52420        6.34780
H         -0.89040       -9.36930        5.15190
H         -2.26920      -10.09870        5.73820
H         -6.46520      -11.63580        1.24420
H         -6.19270      -13.65110        3.25610
H         -8.27390      -12.42010        2.69270
H         -8.46670      -14.22840        2.80730
H         -8.44590      -14.36270        0.38860
H         -8.27460      -12.58250        0.28400
H        -11.86190      -14.21080        1.58940
H        -10.35130      -15.11510        1.73640
H         -5.68450      -13.76890       -0.21330
H         -5.95810      -16.70870       -0.17740
H         -5.44580      -16.60630       -2.54490
H         -5.04960      -14.82150       -2.37160
H         -7.37760      -14.39820       -1.81830
H         -6.58990      -14.30560       -4.19090
H         -6.96890      -16.03510       -4.38140
H         -8.28050      -14.85990       -4.11710
H         -7.83940      -17.33250       -2.42810
H         -7.99500      -16.54750       -0.83730
H         -9.10430      -16.10830       -2.15920
H         -3.55540      -14.62400        0.81820
H         -1.32190      -16.35900        0.00420
H         -1.02900      -13.90010        0.20750
H         -1.50780      -13.98410        1.92060
H          0.00430      -14.75370        1.37990
H         -3.72230      -16.51480        2.36030
H         -1.99840      -17.80000        4.30910
H         -4.23720      -18.57210        5.25950
H         -4.95400      -17.44470        3.98890
H         -4.70140      -15.10870        4.15580
H         -3.18710      -17.70900        7.19500
H         -4.52720      -13.19030        5.71100
H         -3.13230      -15.81520        8.77830
H         -3.33380      -13.75080        9.08850
H         10.33571       -8.07885      -17.76248
H         10.49657       -7.24125      -16.28591
H        -10.24689      -13.41244       -5.14735
H        -11.30769      -13.66551       -3.83648
