27

C         22.46200       41.68100        3.79300
C         23.45100       40.69500        3.77800
C         18.58700       40.46800        5.71100
C         17.42400       40.91400        6.35300
C         18.53700       40.01400        4.36900
C         16.22100       40.97200        5.65300
C         17.32700       40.08100        3.66000
C         16.17600       40.59300        4.29700
C         23.42400       39.56700        4.62000
C         21.36900       40.51200        5.50900
C         23.94900       42.21000        2.34900
C         22.34600       39.49900        5.52100
N         24.61100       42.85700        1.42800
N         21.42800       41.58200        4.66600
N         22.82500       42.61900        2.88000
N         24.31000       41.08600        2.82700
S         20.06700       40.47100        6.69400
Cl        17.46800       41.45700        8.02200
Cl        14.82100       41.58300        6.50800
H         19.43180       39.61560        3.89080
H         17.27680       39.74030        2.62580
H         15.24690       40.69570        3.73630
H         24.19120       38.79400        4.57640
H         22.26790       38.66860        6.22270
H         24.25670       43.74590        1.07470
H         25.48240       42.47350        1.06180
H         25.10358       40.57900        2.53990
