27

N         -0.29500       -1.52600      -12.24100
C         -0.14200       -2.22900      -10.97200
C         -0.73000       -1.39100       -9.85200
O         -1.11100       -0.24000      -10.07100
C          1.33300       -2.54600      -10.68100
C          2.24500       -1.31200      -10.76900
C          3.61900       -1.58000      -10.16100
N          4.56800       -0.51500      -10.49300
C          5.84200       -0.48800      -10.09900
N          6.34000       -1.46300       -9.34900
N          6.62800        0.52300      -10.46900
O         -0.84900       -1.86100       -8.72200
H         -1.28300       -1.33120      -12.40350
H          0.22460       -0.64890      -12.20720
H          0.06670       -2.10800      -12.99650
H         -0.67710       -3.17630      -11.03790
H          1.67160       -3.26160      -11.43030
H          1.39400       -2.93040       -9.66290
H          1.77680       -0.49900      -10.21400
H          2.37870       -1.05840      -11.82060
H          3.99830       -2.51920      -10.56380
H          3.51480       -1.62480       -9.07690
H          4.23140        0.25950      -11.06500
H          7.60470        0.54340      -10.17570
H          6.25270        1.27620      -11.04540
H          5.76572       -2.21305       -9.07173
H          7.28372       -1.43626       -9.06987
