58

C        -10.73600      -14.17000      -27.03500
O        -11.25000      -12.97700      -29.96400
C        -10.66100      -14.24800      -29.54100
C        -11.29700      -15.67500      -22.26700
C        -19.69400      -19.09800      -32.88900
C        -18.62300      -18.83800      -31.84700
C        -17.79800      -18.63900      -31.04300
C        -16.74100      -18.40500      -29.99100
C        -15.87000      -18.17400      -29.24900
C        -13.46000      -18.24800      -28.62200
C        -14.74100      -17.85800      -28.30400
C         -9.78100      -13.27700      -22.92000
C        -10.69100      -13.80900      -24.03000
C        -11.93000      -12.89200      -24.12600
C        -11.08700      -15.27500      -23.72500
C        -11.56100      -16.96500      -25.62000
C        -12.68500      -17.30800      -26.57900
C        -13.97400      -16.90000      -26.27600
C        -15.01000      -17.17700      -27.13500
C        -12.41700      -17.96400      -27.75700
C        -19.35900      -18.31100      -34.15300
C        -10.13500      -13.60600      -28.33100
C        -10.71900      -12.33500      -28.75900
N        -11.90000      -15.90200      -24.72500
N        -10.35100      -16.40400      -21.45100
O        -10.50900      -17.50200      -25.63700
O        -18.81400      -19.22600      -35.06200
O        -12.33900      -15.33400      -21.81100
O        -10.67100      -16.62300      -20.31500
O         -9.52200      -12.13300      -25.77400
O         -8.44700      -14.11600      -25.51300
S         -9.79700      -13.55800      -25.60500
H        -10.68780      -15.25870      -27.05900
H        -11.77400      -13.84870      -26.94910
H         -9.98660      -14.78360      -30.20910
H        -11.28740      -15.13600      -29.45670
H        -20.66420      -18.78210      -32.50560
H        -19.73270      -20.16290      -33.11850
H        -13.26690      -18.77980      -29.55370
H         -8.84140      -13.82950      -22.92620
H         -9.58280      -12.21880      -23.09030
H        -10.27300      -13.40520      -21.95590
H        -11.60670      -11.85800      -24.24630
H        -12.53350      -13.18750      -24.98420
H        -12.52110      -12.98560      -23.21500
H        -10.13840      -15.79650      -23.85290
H        -14.16720      -16.35640      -25.35120
H        -16.02660      -16.86410      -26.89690
H        -11.39710      -18.25660      -28.00660
H        -18.65240      -17.50970      -33.93660
H        -20.25060      -17.83790      -34.56450
H         -9.07620      -13.66510      -28.07900
H        -11.39020      -11.79440      -28.09170
H        -10.08790      -11.45080      -28.84860
H        -12.85010      -15.54090      -24.81010
H        -18.58770      -18.77040      -35.87610
H         -9.48567      -16.70624      -21.81029
H        -11.55089      -16.24986      -20.14927
