52

C          8.55400       61.63600       -5.01600
C          9.07500       60.66500       -4.14500
C          8.26900       59.58300       -3.77700
C          6.97900       59.48500       -4.27500
C          6.43100       60.43400       -5.14000
C          7.24700       61.51600       -5.49600
C          5.06600       60.30200       -5.63500
C          9.34600       62.78600       -5.41100
C          9.96600       63.79200       -4.62700
N         10.58300       64.70000       -5.39000
O         10.38000       64.28100       -6.69500
C          9.63100       63.14600       -6.71100
C          9.31900       62.56800       -8.03600
C          9.99200       63.93900       -3.15700
N          8.55800       58.52200       -2.96400
C          7.46600       57.79400       -2.96500
N          6.47300       58.32500       -3.73400
C          7.32800       56.52100       -2.18000
C          7.95100       56.46000       -0.81000
C          8.54600       55.67100       -1.93600
C          4.01000       60.85800       -4.86100
C          2.68000       60.75000       -5.31200
C          2.43700       60.09200       -6.51000
C          3.46500       59.54500       -7.27500
C          4.79300       59.63700       -6.85400
C          4.20900       61.53800       -3.63300
C          3.13600       62.06500       -2.92800
C          1.87800       61.90000       -3.46300
N          1.64000       61.26000       -4.62900
C          5.87900       59.02800       -7.70600
H         10.09160       60.75340       -3.76190
H          6.85290       62.28250       -6.16330
H          9.73820       61.56390       -8.10080
H          8.23770       62.52070       -8.16480
H          9.75200       63.19490       -8.81550
H          8.97200       64.03430       -2.78460
H         10.46160       63.06090       -2.71360
H         10.56150       64.82990       -2.89220
H          6.33640       56.33820       -2.59410
H          7.63910       56.30170        0.22240
H          8.28080       57.14820       -0.03170
H          9.52460       55.49990       -2.38450
H          8.88230       54.65250       -2.13010
H          1.40990       60.00040       -6.86320
H          3.23000       59.04000       -8.21190
H          5.21860       61.64840       -3.23720
H          3.28380       62.59070       -1.98460
H          1.02790       62.30790       -2.91620
H          6.57980       59.80560       -8.00970
H          6.40600       58.26650       -7.13110
H          5.43300       58.57340       -8.59060
H          5.57259       57.95247       -3.87440
