36

P         -8.12300        4.50300      -55.85600
O         -9.42000        4.63000      -56.63900
O         -7.50900        5.83300      -55.47800
O         -7.16400        3.54000      -56.49600
O         -8.68100        3.99900      -54.47300
C         -8.02300        3.04100      -53.71000
C         -8.70100        2.86400      -52.37700
O        -10.15200        2.81400      -52.53000
C         -8.34000        1.55100      -51.71800
O         -7.14900        1.65800      -50.99200
C         -9.57200        1.21200      -50.90300
O         -9.64900        1.98600      -49.72600
C        -10.66400        1.71200      -51.81600
N        -11.09300        0.68400      -52.76600
C        -10.96100        0.70400      -54.09100
N        -11.59900       -0.39300      -54.57300
C        -12.12400       -1.07600      -53.52900
C        -12.88100       -2.24900      -53.38400
O        -13.19700       -2.94000      -54.39100
N        -13.25900       -2.63600      -52.15400
C        -12.94300       -1.93700      -51.05800
N        -13.32400       -2.36900      -49.82000
N        -12.20700       -0.80200      -51.18400
C        -11.81300       -0.36600      -52.40200
H         -6.99680        3.36800      -53.54260
H         -8.04260        2.09100      -54.24410
H         -8.37110        3.71250      -51.77760
H         -8.11560        0.74300      -52.41430
H         -6.94580        0.81200      -50.58620
H         -9.60480        0.16270      -50.60960
H        -10.43910        1.74490      -49.23690
H        -11.53090        1.98680      -51.21520
H        -10.43880        1.45930      -54.67820
H        -13.78620       -3.46166      -52.05609
H        -13.85734       -3.19141      -49.72820
H        -13.06536       -1.85807      -49.01919
