237

N         89.08800       10.03200        7.13600
C         87.96900       10.87900        6.73300
C         87.63500       12.03900        7.68100
O         86.72100       12.82200        7.39100
C         86.71100       10.00600        6.56100
S         86.89700        9.03500        5.04400
N         88.33400       12.13400        8.81200
C         87.96900       13.09700        9.84700
C         89.15200       14.00700       10.12600
O         90.31000       13.65400        9.87200
C         87.52400       12.41000       11.16700
C         86.35300       11.54200       10.89500
C         85.03700       11.92900       10.90900
C         86.36500       10.17200       10.43200
N         84.22800       10.87200       10.53600
C         85.01700        9.79300       10.21800
C         87.37900        9.22600       10.19100
C         84.66400        8.51300        9.78000
C         87.02400        7.96400        9.76700
C         85.68100        7.61700        9.55200
N         88.83500       15.19000       10.65500
C         89.82600       16.16900       11.08100
C         89.49800       16.53400       12.51400
O         88.32100       16.77000       12.81500
C         89.75100       17.40300       10.20400
O         89.89700       17.00200        8.82900
C         90.86000       18.34500       10.57300
N         90.50100       16.55700       13.41000
C         90.20400       16.93600       14.79100
C         89.88000       18.41700       14.87600
O         90.40400       19.23700       14.10700
C         91.36200       16.59700       15.73000
O         92.58200       17.18600       15.24400
C         91.49600       15.10400       15.83500
N         88.94500       18.74600       15.75600
C         88.54300       20.12300       15.98000
C         89.42200       20.82900       16.99800
O         89.73100       22.02300       16.83200
C         87.10100       20.17900       16.43300
C         86.10000       19.67600       15.38400
C         84.69000       19.81300       15.94400
N         83.69400       19.86000       14.86500
C         82.90500       18.82700       14.56100
N         83.02200       17.68200       15.26700
N         82.02300       18.94000       13.55500
N         89.88400       20.11900       18.00600
C         90.74200       20.72900       19.01100
C         92.20200       20.66900       18.55600
O         92.63200       19.71900       17.89500
C         90.53700       20.02500       20.35500
C         89.14000       20.26400       20.94700
S         88.90500       19.50800       22.56800
C         88.66500       17.79700       22.09500
N         92.94700       21.71600       18.88000
C         94.36400       21.74800       18.55100
C         95.11300       20.65500       19.31400
O         94.75000       20.33400       20.45600
C         94.95000       23.10700       18.89000
O         96.08500       23.31000       18.08800
N         96.16500       20.05700       18.71300
C         96.59600       20.46400       17.37100
C         95.77400       19.74600       16.30400
O         95.61000       18.52400       16.36700
C         98.05800       20.02500       17.33300
C         98.05800       18.77200       18.15900
C         96.98600       18.94000       19.22400
N         95.25600       20.49000       15.33500
C         94.38900       19.86500       14.33400
C         95.14300       18.76300       13.60500
O         96.34000       18.87000       13.33300
C         94.01900       21.02900       13.41200
C         95.19100       21.96000       13.54100
C         95.59800       21.87700       14.98400
N         94.44200       17.67400       13.32200
C         95.08500       16.48500       12.79500
C         94.11800       15.78300       11.85000
O         92.90000       15.77500       12.08400
C         95.51700       15.56700       13.93700
C         95.95000       14.20400       13.48600
S         96.87400       13.30100       14.74600
C         95.75900       13.33600       16.13800
N         94.66200       15.22800       10.76600
C         93.89200       14.41000        9.84700
C         93.88700       12.98700       10.37700
O         94.93400       12.45500       10.77000
C         94.46900       14.44300        8.43400
C         93.95200       15.58100        7.59800
C         92.74300       15.19700        6.78800
O         91.98900       14.28200        7.14900
N         92.54500       15.89100        5.67200
N         92.70000       12.40000       10.44200
C         92.53700       11.01700       10.87200
C         91.61400       10.46100        9.79600
O         90.38000       10.41800        9.97000
C         92.01100       10.93000       12.31000
C         92.95900       11.70200       13.25700
C         91.88300        9.47400       12.76500
C         92.46400       11.78100       14.70100
N         92.19400       10.08800        8.64100
C         91.76400       10.11300        7.24700
C         90.34200       10.50000        6.97900
O         90.43600       11.62500        6.50400
C         92.09400        8.69800        6.78600
C         93.42800        8.43500        7.55300
C         93.73100        9.71400        8.38200
O         81.22200        9.77700        6.64600
N         81.70200       10.10500        5.72600
C         82.56700       11.28000        5.87600
C         83.58500       11.12000        4.88900
C         83.53300        9.83500        4.36200
C         84.45200        9.35200        3.25500
S         86.07100       10.09300        3.42900
C         82.51000        9.09400        5.03000
C         83.03600        7.99300        5.94300
C         81.62600        8.34000        4.05300
C         81.70000       12.51900        5.77000
C         83.09500       11.44100        7.29300
H         88.28810       11.34500        5.80070
H         85.82420       10.63640        6.49540
H         86.59590        9.34260        7.41810
H         89.13800       11.52320        8.95700
H         87.12020       13.67140        9.47580
H         87.25370       13.16910       11.90110
H         88.34280       11.80690       11.55920
H         84.68130       12.92430       11.17530
H         88.42710        9.48730       10.33730
H         83.62120        8.23600        9.62510
H         87.80180        7.22000        9.59500
H         85.43940        6.61530        9.19650
H         87.84780       15.42090       10.76690
H         90.83370       15.76120       11.00110
H         88.79310       17.90380       10.34470
H         89.85090       17.77690        8.26420
H         90.75650       18.63410       11.61890
H         91.81980       17.85010       10.42480
H         90.80610       19.23240        9.94240
H         91.45170       16.31450       13.13130
H         89.33480       16.36070       15.10990
H         91.16040       17.00430       16.72070
H         93.30160       16.96700       15.84050
H         90.57070       14.68430       16.22970
H         91.69290       14.68780       14.84700
H         92.32130       14.86070       16.50420
H         88.49260       18.00680       16.29400
H         88.65710       20.64380       15.02930
H         86.86410       21.22410       16.63240
H         87.00970       19.53150       17.30510
H         86.30430       18.63110       15.15020
H         86.19370       20.26560       14.47200
H         84.63000       20.73990       16.51440
H         84.48000       18.94930       16.57480
H         83.60130       20.71990       14.32430
H         82.43340       16.88050       15.04000
H         83.69900       17.61860       16.02730
H         89.63830       19.13210       18.08330
H         90.47830       21.77910       19.13680
H         91.26910       20.42570       21.05620
H         90.65040       18.95350       20.19060
H         88.41560       19.81420       20.26800
H         89.01500       21.34020       21.06660
H         87.79480       17.72020       21.44310
H         89.54900       17.44000       21.56670
H         88.50560       17.19330       22.98850
H         92.52300       22.50700       19.36470
H         94.47460       21.56950       17.48140
H         95.22550       23.14310       19.94400
H         94.21440       23.88900       18.70180
H         96.46890       24.16640       18.28970
H         96.46730       21.52850       17.17480
H         98.73670       20.78510       17.72000
H         98.42300       19.86160       16.31900
H         99.03420       18.61250       18.61690
H         97.85030       17.90100       17.53750
H         96.40490       18.03100       19.37910
H         97.40430       19.14540       20.20940
H         93.50520       19.38120       14.74990
H         93.07650       21.50070       13.69010
H         93.84760       20.71090       12.38360
H         94.93070       22.97860       13.25320
H         96.00620       21.67710       12.87500
H         96.65090       22.10960       15.14370
H         95.09400       22.61190       15.61170
H         93.43390       17.67200       13.47730
H         95.98300       16.75850       12.24100
H         94.65560       15.43470       14.59170
H         96.37190       16.03500       14.42500
H         96.60480       14.33300       12.62420
H         95.05190       13.62960       13.25890
H         95.56090       14.37080       16.41730
H         94.82400       12.84660       15.86530
H         96.21320       12.81190       16.97890
H         95.65210       15.38360       10.57660
H         92.87780       14.80430        9.78350
H         94.17680       13.51620        7.94030
H         95.54790       14.56850        8.52480
H         94.74090       15.87600        6.90610
H         93.66390       16.38900        8.27050
H         91.74650       15.67830        5.07410
H         93.19160       16.63630        5.41340
H         91.87160       12.93520       10.18190
H         93.45750       10.43750       10.94240
H         91.01860       11.37960       12.34190
H         93.02970       12.72320       12.88260
H         93.90950       11.16860       13.26920
H         91.18970        8.94900       12.10790
H         92.86060        8.99390       12.72190
H         91.50790        9.44600       13.78800
H         91.49950       12.28810       14.72590
H         92.35660       10.77340       15.10260
H         93.18420       12.33770       15.30070
H         92.27060       10.90740        6.69880
H         92.18120        8.59690        5.70420
H         91.31130        7.97100        7.00260
H         94.23960        8.22400        6.85660
H         93.33530        7.56530        8.20340
H         94.36670        9.59630        9.25950
H         94.35300       10.47450        7.90980
H         84.29690       11.89030        4.59270
H         84.03050        9.63770        2.29120
H         84.54710        8.26800        3.31770
H         83.66420        8.43380        6.71700
H         82.19630        7.47480        6.40610
H         83.62240        7.28570        5.35650
H         80.81730        7.85300        4.59800
H         81.20830        9.03930        3.32870
H         82.21990        7.58820        3.53330
H         81.20880       12.53500        4.79710
H         80.94730       12.50270        6.55820
H         82.32270       13.40700        5.87880
H         82.25700       11.55170        7.98120
H         83.67630       10.56000        7.56500
H         83.72880       12.32630        7.34480
H         81.95416       19.78422       13.05320
H         81.44512       18.17864       13.31915
H         83.24420       10.88952       10.50342
H         80.67061        9.00004        6.46379
H         88.92963        9.13717        7.51473
