54

C        22.2320  -3.7370  -6.3970
C        20.9980  -4.3840  -6.3780
C        19.9290  -3.9680  -7.1740
C        20.1160  -2.8430  -7.9480
C        21.3360  -2.1580  -7.9560
C        22.3920  -2.6140  -7.1820
O        23.2220  -4.1910  -5.5750
O        21.4720  -1.0680  -8.7590
C        24.5540  -4.2760  -6.0710
C        22.6790  -0.3150  -8.6980
Cl       20.8090  -5.8000  -5.4010
Cl       18.8380  -2.3690  -9.0220
C        18.6280  -4.7360  -7.2150
O        18.8140  -5.9590  -7.9570
C        17.9860  -7.0310  -7.7170
C        16.7080  -6.9610  -7.1760
N        15.9650  -8.0600  -7.0200
C        16.5300  -9.2360  -7.3810
N        17.7600  -9.3760  -7.9110
C        18.4710  -8.2620  -8.0880
N        15.8490  -10.3960  -7.1650
C        14.5090  -10.5310  -6.7320
C        13.5290  -10.9750  -7.6360
C        12.2120  -11.0670  -7.1890
C        11.8920  -10.6780  -5.8970
C        12.8440  -10.1880  -5.0240
C        14.1620  -10.1380  -5.4430
N        13.9670  -11.4170  -8.9140
C        13.2810  -11.3560  -10.0790
C        13.9840  -11.9360  -11.2920
C        15.4810  -11.6810  -11.3700
O        12.1260  -10.9600  -10.1280
Cl       15.3700  -9.5890  -4.3250
Cl       10.2370  -10.7380  -5.3500
H        23.3459  -2.0867  -7.1937
H        24.5796  -4.9518  -6.9258
H        24.8896  -3.2857  -6.3789
H        25.2089  -4.6553  -5.2866
H        22.8154   0.0692  -7.6871
H        23.5199  -0.9569  -8.9606
H        22.6225   0.5171  -9.3997
H        17.8635  -4.1295  -7.7005
H        18.3137  -4.9723  -6.1984
H        16.3055  -5.9941  -6.8742
H        19.4614  -8.3295  -8.5381
H        16.3612  -11.2617  -7.3339
H        11.4349  -11.4441  -7.8539
H        12.5632  -9.8482  -4.0271
H        14.9008  -11.8249  -8.9578
H        13.5427  -11.4544  -12.1646
H        13.8573  -13.0171  -11.2350
H        15.6645  -10.6068  -11.3938
H        15.9682  -12.1149  -10.4968
H        15.8796  -12.1392  -12.2751
