47

C        8.5170  -3.0430   32.1710
C        15.2320  -4.2820   27.5590
C        14.8900  -5.3630   26.7560
C        14.0240  -6.3270   27.2380
C        13.4850  -6.2120   28.5040
C        16.0950  -1.7120   26.7710
C        8.1710  -5.0910   31.0550
C        7.6670  -4.0750   31.8190
C        14.5850  -1.0230   31.1200
C        13.7260  -0.3200   31.9610
N        12.4780  -0.6940   32.2500
C        12.0020  -1.7780   31.6390
C        12.7600  -2.5350   30.7430
C        14.0870  -2.1920   30.4950
C        15.9530  -0.5010   30.8050
N        16.4710   0.4280   31.6070
O        16.5640  -0.9310   29.8400
C        17.6110   1.2320   31.2120
N        14.9190  -2.9630   29.6040
C        14.6340  -4.1110   28.8260
N        10.6960  -2.0400   31.9930
C        9.8440  -3.0770   31.7020
N        10.3230  -4.0700   30.9420
C        9.4940  -5.0590   30.6080
F        7.4050  -6.1860   30.8410
C        13.7930  -5.1200   29.3020
S        16.6600  -3.3460   27.0550
O        17.5700  -3.3270   28.1630
O        17.1260  -3.8820   25.8090
H        8.1678  -2.2220   32.7972
H        15.3024  -5.4507   25.7509
H        13.7652  -7.1830   26.6148
H        12.8132  -6.9842   28.8787
H        15.5881  -1.3440   27.6630
H        16.9454  -1.0692   26.5436
H        15.4012  -1.7098   25.9303
H        6.6257  -4.0787   32.1410
H        14.0985   0.5986   32.4142
H        12.3141  -3.3924   30.2389
H        16.0536   0.5780   32.5255
H        18.4612   0.5804   31.0106
H        17.3624   1.7955   30.3127
H        17.8634   1.9224   32.0168
H        15.8769  -2.6228   29.5200
H        10.2808  -1.3230   32.5879
H        9.8580  -5.8638   29.9694
H        13.3763  -5.0487   30.3067
