171

N        -26.38500       20.30600      -16.27100
C        -25.09300       20.75900      -15.67600
C        -24.11400       19.61700      -15.48600
O        -24.45500       18.45700      -15.71000
N        -22.89600       19.96200      -15.07900
C        -21.84100       19.00000      -14.81400
C        -21.49400       19.08000      -13.33300
O        -21.57300       20.15500      -12.73800
C        -20.52500       19.33400      -15.54900
C        -20.68500       19.84500      -16.95700
C        -21.77300       19.51400      -17.74400
C        -19.70400       20.66600      -17.49400
C        -21.88500       20.00100      -19.02700
C        -19.81200       21.14100      -18.76000
C        -20.89800       20.80900      -19.53500
N        -21.06800       17.95800      -12.73700
C        -20.62400       17.96100      -11.34800
C        -19.44200       17.02000      -11.13300
O        -19.38400       15.93000      -11.71000
C        -21.76000       17.53100      -10.40700
S        -23.20000       18.62600      -10.32300
N        -18.50500       17.44700      -10.28200
C        -17.44400       16.56200       -9.82200
C        -18.06400       15.38200       -9.08700
O        -19.11300       15.50600       -8.45300
C        -16.48100       17.33000       -8.91400
C        -15.71800       18.41100       -9.65700
C        -14.83700       19.23400       -8.75900
O        -15.19600       19.53100       -7.61200
N        -13.66500       19.62600       -9.27100
N        -17.42700       14.22100       -9.20600
C        -18.00100       12.98400       -8.67100
C        -17.35100       12.50100       -7.35900
O        -17.33800       11.29900       -7.01500
C        -18.01300       11.92300       -9.78200
C        -19.09600       12.27100      -10.80700
C        -19.10400       11.42800      -12.07600
N        -20.27700       11.77000      -12.87400
C        -20.57000       11.26000      -14.06400
N        -19.76400       10.36700      -14.62300
N        -21.66700       11.67500      -14.69200
N        -18.10300       18.98900       -3.85000
C        -17.98800       18.91000       -5.31000
C        -18.54800       20.12300       -6.02500
O        -19.61000       20.63500       -5.66200
C        -18.83500       17.68500       -5.66400
C        -18.81700       16.85700       -4.44800
C        -18.78400       17.81200       -3.29100
N        -17.83000       20.55700       -7.04400
C        -18.19000       21.71200       -7.85500
C        -19.09000       21.26700       -8.99300
O        -18.83000       20.25500       -9.66100
C        -16.91900       22.37900       -8.41000
C        -16.05600       22.90500       -7.26400
C        -17.28400       23.47700       -9.38800
C        -14.61800       23.11200       -7.64200
N        -20.13200       22.04700       -9.24400
C        -20.99700       21.84300      -10.39400
C        -20.95400       23.07800      -11.27700
O        -20.86900       24.20300      -10.78100
C        -22.44100       21.58700       -9.97000
S        -22.70200       20.10100       -8.98500
N        -20.99500       22.85600      -12.59000
C        -21.16700       23.93400      -13.54800
C        -22.60100       23.92100      -14.03300
O        -23.06100       22.87800      -14.53400
C        -20.22500       23.75800      -14.72900
C        -20.52500       24.67400      -15.87400
C        -20.31000       26.03900      -15.76700
C        -21.02900       24.17600      -17.05900
C        -20.59500       26.88000      -16.81800
C        -21.30900       25.01600      -18.11200
C        -21.09300       26.36900      -17.99100
N        -23.33700       25.03400      -13.88200
C        -24.75600       25.04900      -14.27400
C        -25.02200       24.74600      -15.73600
O        -26.04100       24.11900      -16.05100
C        -25.19900       26.48000      -13.93300
C        -24.26700       26.94400      -12.88700
C        -22.97600       26.20700      -13.06100
N        -24.16600       25.20100      -16.64300
C        -24.48900       25.13900      -18.06600
C        -25.78400       25.89600      -18.33700
O        -25.93200       27.05000      -17.93300
C        -24.62500       23.68600      -18.52200
O        -26.70100       25.36500      -18.96400
O        -16.81100       13.35200       -6.60280
H        -27.00760       21.10670      -16.37880
H        -26.20880       19.88560      -17.18350
H        -26.81830       19.61730      -15.65590
H        -25.30440       21.18910      -14.69700
H        -24.64210       21.48070      -16.35710
H        -22.69240       20.95260      -14.94620
H        -22.21010       18.02810      -15.14140
H        -19.96110       18.40370      -15.61710
H        -20.04400       20.13040      -14.98100
H        -22.54930       18.86130      -17.34470
H        -18.83580       20.93260      -16.89120
H        -22.75240       19.74650      -19.63600
H        -19.03430       21.78880      -19.16470
H        -20.97550       21.18780      -20.55410
H        -21.05400       17.08530      -13.26490
H        -20.31790       18.98230      -11.12160
H        -21.33230       17.51820       -9.40450
H        -22.12690       16.57970      -10.79250
H        -18.53320       18.41050       -9.94830
H        -16.87640       16.18730      -10.67380
H        -15.75600       16.62000       -8.51610
H        -17.06810       17.81060       -8.13140
H        -16.44900       19.08150      -10.10880
H        -15.07770       17.92030      -10.39000
H        -13.02770       20.19230       -8.71100
H        -13.40860       19.35860      -10.22140
H        -16.52320       14.19120       -9.67790
H        -19.02820       13.18730       -8.36830
H        -18.22300       10.94510       -9.34880
H        -17.04050       11.90040      -10.27380
H        -18.90440       13.29720      -11.12060
H        -20.05280       12.09570      -10.31520
H        -19.13750       10.37100      -11.81200
H        -18.20010       11.62640      -12.65190
H        -20.92400       12.45640      -12.48600
H        -21.89690       11.30600      -15.61470
H        -22.27820       12.36210      -14.25080
H        -18.65050       19.81720       -3.61600
H        -17.16300       19.03230       -3.45640
H        -16.94310       18.85350       -5.61510
H        -18.43760       17.15040       -6.52680
H        -19.84880       17.96070       -5.95420
H        -17.95080       16.19550       -4.43610
H        -19.69390       16.21140       -4.39950
H        -19.77750       18.04290       -2.90650
H        -18.27150       17.40220       -2.42070
H        -16.97350       20.05450       -7.27700
H        -18.72310       22.43710       -7.24000
H        -16.33310       21.63730       -8.95280
H        -16.08110       22.16140       -6.46750
H        -16.45930       23.87360       -6.96860
H        -17.85250       23.05120      -10.21480
H        -17.88750       24.22890       -8.87950
H        -16.37360       23.93820       -9.77090
H        -14.18860       22.16380       -7.96550
H        -14.55790       23.83570       -8.45480
H        -14.06710       23.48620       -6.77910
H        -20.33390       22.81790       -8.60730
H        -20.63820       20.96850      -10.93670
H        -23.01750       21.45950      -10.88620
H        -22.73770       22.43070       -9.34690
H        -20.90280       21.89980      -12.93290
H        -20.93710       24.88520      -13.06800
H        -20.33870       22.73550      -15.08910
H        -19.21770       23.98730      -14.38140
H        -19.91080       26.45080      -14.84010
H        -21.20700       23.10550      -17.16140
H        -20.42540       27.95220      -16.71930
H        -21.70250       24.60880      -19.04340
H        -21.31680       27.03430      -18.82490
H        -25.30190       24.26140      -13.75460
H        -26.23220       26.50590      -13.58670
H        -25.16840       27.12670      -14.80990
H        -24.68230       26.74950      -11.89820
H        -24.10350       28.01790      -12.97660
H        -22.21170       26.82220      -13.53590
H        -22.53360       25.92100      -12.10680
H        -23.27510       25.59730      -16.34350
H        -23.67910       25.60330      -18.62860
H        -23.68470       23.16270      -18.34880
H        -25.42120       23.20200      -17.95640
H        -24.86580       23.66110      -19.58480
H        -19.98350        9.99022      -15.50566
H        -18.94630       10.08101      -14.15522
