189

N        -40.79300       34.09400      -27.99000
C        -39.74600       34.69700      -28.81100
C        -38.37700       34.48600      -28.16800
O        -37.60600       35.43200      -27.97700
C        -40.00800       36.19500      -29.01500
C        -39.09700       36.81800      -30.07000
O        -38.55900       36.08200      -30.92600
O        -38.91700       38.05300      -30.03900
N        -38.07600       33.24100      -27.81800
C        -36.79100       32.96300      -27.20400
C        -35.73000       32.80700      -28.29000
O        -36.01000       32.88400      -29.48900
C        -36.88700       31.73100      -26.30400
C        -37.24900       30.45700      -27.06500
O        -37.29000       30.46600      -28.31400
O        -37.50300       29.43200      -26.39800
N        -34.49300       32.57600      -27.87100
C        -33.38700       32.37600      -28.79500
C        -33.19400       30.88100      -29.01600
O        -32.88100       30.15400      -28.06900
C        -32.11300       32.99900      -28.23600
C        -30.90700       32.78700      -29.11600
C        -30.87500       33.30300      -30.40800
C        -29.79400       32.10100      -28.65200
C        -29.76000       33.13800      -31.22200
C        -28.67100       31.92900      -29.45900
C        -28.66600       32.45500      -30.74100
O        -27.57100       32.28000      -31.55800
N        -33.36400       30.42500      -30.25700
C        -33.23900       29.00100      -30.56100
C        -31.77300       28.61200      -30.73000
O        -31.12000       29.02700      -31.69100
C        -34.02900       28.64900      -31.82000
C        -35.50400       28.34100      -31.57400
C        -36.33100       29.59300      -31.32300
C        -37.79700       29.24000      -31.10000
N        -38.33700       28.40900      -32.20600
N        -31.27500       27.78200      -29.82700
C        -29.90300       27.30600      -29.87000
C        -29.76700       26.13700      -30.84700
O        -30.74800       25.45100      -31.14500
C        -29.47200       26.89300      -28.46900
C        -29.29900       28.07700      -27.51500
C        -29.34500       27.61200      -26.08100
C        -27.97600       28.76800      -27.80200
N        -28.54500       25.88500      -31.37000
C        -28.36200       24.85900      -32.41000
C        -28.25200       23.46000      -31.82500
O        -27.26500       23.11600      -31.16200
C        -27.05700       25.29400      -33.09500
C        -26.26600       25.92400      -31.97800
C        -27.30600       26.65500      -31.13600
N        -29.24500       22.61900      -32.12900
C        -29.31600       21.27700      -31.54800
C        -28.11300       20.42600      -31.93300
O        -27.64700       19.60500      -31.13000
C        -30.62200       20.60600      -31.98400
C        -30.94000       19.28400      -31.26900
S        -31.08000       19.48100      -29.47600
C        -32.24300       20.84200      -29.34100
N        -27.58000       20.61200      -33.14500
C        -26.43300       19.81700      -33.56900
C        -25.21300       20.03200      -32.68000
O        -24.29900       19.21000      -32.70400
C        -26.07700       20.12700      -35.02300
C        -25.21800       21.36000      -35.21200
C        -24.67600       21.47100      -36.62600
O        -24.95500       22.49200      -37.29600
O        -23.97900       20.53300      -37.07100
N        -25.17500       21.10900      -31.89500
C        -24.07200       21.34500      -30.97300
C        -24.47100       21.12800      -29.52200
O        -23.68800       21.43300      -28.61800
C        -23.51500       22.75600      -31.17300
C        -22.93100       22.94800      -32.54500
C        -21.99700       22.04500      -33.05000
C        -23.33200       24.00500      -33.35300
C        -21.46900       22.20500      -34.31300
C        -22.80200       24.17300      -34.62000
C        -21.87100       23.26800      -35.09200
O        -21.34300       23.43400      -36.34900
N        -25.65500       20.59000      -29.27500
C        -26.16700       20.39800      -27.92800
C        -26.27400       18.92100      -27.57500
O        -25.74100       18.47600      -26.55600
C        -27.53000       21.10200      -27.75700
C        -27.36300       22.61400      -27.92900
C        -28.12700       20.73200      -26.41300
C        -28.67000       23.35700      -28.02500
N        -26.96000       18.14400      -28.40700
C        -27.38500       16.80800      -28.01100
C        -26.29300       15.74400      -28.21400
O        -25.47700       15.84200      -29.13400
C        -28.65000       16.39200      -28.78100
O        -29.07300       15.09300      -28.34400
C        -28.37300       16.35900      -30.27900
O        -26.21000       14.77000      -27.46100
H        -40.59790       33.10030      -27.86830
H        -40.81460       34.55160      -27.07870
H        -41.69500       34.21060      -28.45180
H        -39.75630       34.20930      -29.78580
H        -39.81490       36.69920      -28.06810
H        -41.03760       36.31020      -29.35360
H        -38.74270       32.48610      -27.97940
H        -36.49610       33.79760      -26.56800
H        -37.67550       31.91540      -25.57440
H        -35.90860       31.57730      -25.84880
H        -34.31110       32.53730      -26.86810
H        -33.61160       32.85900      -29.74600
H        -31.90780       32.52320      -27.27700
H        -32.27890       34.07350      -28.15910
H        -31.73980       33.84640      -30.78870
H        -29.79800       31.69080      -27.64210
H        -29.75220       33.54610      -32.23270
H        -27.80360       31.38520      -29.08490
H        -26.89520       31.78910      -31.08470
H        -33.58490       31.08060      -31.00660
H        -33.65120       28.43780      -29.72370
H        -33.57970       27.74820      -32.23800
H        -33.98900       29.51850      -32.47610
H        -35.57110       27.71190      -30.68640
H        -35.89740       27.85320      -32.46580
H        -36.25550       30.24380      -32.19410
H        -35.95070       30.09170      -30.43150
H        -38.37000       30.16610      -31.05530
H        -37.87590       28.67140      -30.17340
H        -39.31680       28.19420      -32.02110
H        -38.26000       28.92220      -33.08410
H        -37.80370       27.54180      -32.26970
H        -31.87950       27.46350      -29.06970
H        -29.25440       28.10810      -30.22220
H        -28.50600       26.39530      -28.55490
H        -30.25270       26.25170      -28.05990
H        -30.11570       28.78190      -27.67070
H        -30.30610       27.13660      -25.88520
H        -28.54180       26.89600      -25.90660
H        -29.22020       28.46850      -25.41850
H        -27.15930       28.06080      -27.65710
H        -27.97020       29.12570      -28.83160
H        -27.85310       29.61130      -27.12240
H        -29.20780       24.79560      -33.09460
H        -27.22920       25.98070      -33.92380
H        -26.53140       24.46000      -33.56020
H        -25.49720       26.59940      -32.35330
H        -25.71910       25.18170      -31.39660
H        -27.03400       26.69710      -30.08130
H        -27.40730       27.70350      -31.41610
H        -29.97010       22.91890      -32.78070
H        -29.29940       21.37030      -30.46210
H        -30.51920       20.37460      -33.04420
H        -31.42850       21.29790      -31.74140
H        -30.12370       18.58960      -31.46800
H        -31.89760       18.92170      -31.64300
H        -31.83110       21.72080      -29.83710
H        -33.18370       20.56280      -29.81550
H        -32.41780       21.06580      -28.28860
H        -27.97600       21.31070      -33.77390
H        -26.72340       18.77040      -33.47790
H        -27.01450       20.30850      -35.54860
H        -25.50390       19.27910      -35.39820
H        -24.37130       21.29110      -34.52900
H        -25.83550       22.23650      -35.01600
H        -25.93750       21.78490      -31.94110
H        -23.29580       20.61390      -31.19890
H        -22.72190       22.91380      -30.44210
H        -24.33470       23.46410      -31.05160
H        -21.67990       21.20080      -32.43770
H        -24.07480       24.71190      -32.98340
H        -20.73640       21.49350      -34.69400
H        -23.11640       25.01220      -35.24040
H        -21.72540       24.21550      -36.75480
H        -26.23260       20.29770      -30.06330
H        -25.45560       20.85020      -27.23690
H        -28.22510       20.76790      -28.52730
H        -26.82320       22.77960      -28.86140
H        -26.83820       22.98740      -27.04960
H        -28.26710       19.65220      -26.36400
H        -27.45230       21.04850      -25.61760
H        -29.08920       21.23030      -26.29470
H        -29.23240       22.99080      -28.88390
H        -29.24700       23.19370      -27.11480
H        -28.47290       24.42220      -28.14550
H        -27.19280       18.48890      -29.33830
H        -27.59680       16.86130      -26.94310
H        -29.43650       17.12040      -28.58380
H        -29.86240       14.83580      -28.82600
H        -28.06370       17.34980      -30.61190
H        -27.57920       15.64090      -30.48470
H        -29.27870       16.06280      -30.80820
