54

C        154.93900       66.41900       88.82100
C        155.62300       65.27400       89.55900
O        155.21300       65.29900       90.93400
C        157.14200       65.38300       89.45100
O        157.73700       64.20300       89.99700
C        157.56000       65.53300       87.99400
O        158.97000       65.75600       87.89400
C        156.83100       66.71200       87.37200
O        155.42100       66.49300       87.47500
P        154.47600       69.02100       89.19700
O        154.35000       69.77000       90.49600
O        153.22900       68.76700       88.38700
O        155.20600       67.62600       89.53700
O        155.59200       69.74100       88.28600
P        155.65700       71.33600       88.10400
O        154.26800       71.83600       87.80000
O        156.80600       71.69500       87.18700
O        156.09400       71.80700       89.57900
C        157.47100       71.89600       89.92900
C        157.69000       73.20100       90.67800
O        158.85500       73.12500       91.50500
C        157.93000       74.33200       89.69300
O        156.99900       75.38800       89.95100
C        159.35100       74.79100       89.95600
O        159.45000       76.20800       89.81900
C        159.59200       74.34300       91.38500
N        161.00400       74.12000       91.71900
C        161.75500       73.23900       91.05000
C        161.55900       74.84300       92.79700
O        160.84200       75.66100       93.41600
N        162.83900       74.67000       93.15200
C        163.61200       73.79900       92.49000
O        164.80800       73.64400       92.82800
C        163.08300       73.06600       91.42700
H        153.86210       66.25790       88.77100
H        155.32950       64.32770       89.10470
H        154.25680       65.22960       90.98290
H        157.47650       66.26020       90.00490
H        157.47350       64.10860       90.91530
H        157.30500       64.61340       87.46730
H        159.43860       65.01500       88.28510
H        157.11300       66.80750       86.32350
H        157.10030       67.62920       87.89580
H        158.08740       71.87280       89.03030
H        157.75200       71.05190       90.55870
H        156.80080       73.38000       91.28250
H        157.79680       74.02570       88.65540
H        157.14880       76.10410       89.32950
H        160.08410       74.38260       89.26040
H        160.35420       76.48230       89.98830
H        159.27630       75.12260       92.07830
H        161.33410       72.66630       90.22360
H        163.22680       75.20380       93.92980
H        163.71210       72.35580       90.89040
