64

C         -3.94300       -2.82300       -9.48400
C         -5.98400       -2.68900       -8.68700
C         -5.65900       -1.85600      -10.81100
C         -4.34600       -2.20600      -10.70900
C         -2.17000       -2.67800      -10.79200
C         -1.92600       -3.64600       -8.66300
C         -1.01900       -4.69400       -9.20700
C          0.09000       -4.77200       -8.24900
C          0.06900       -3.50400       -7.46100
C          1.37900       -2.80100       -7.58900
C          2.37000       -3.35800       -6.56700
C          1.70900       -3.44600       -5.19100
C          2.79000       -3.57200       -4.11700
C          2.15600       -3.83300       -2.75200
C          3.13800       -3.40500       -1.66500
C          3.57800       -2.42800       -6.49100
C          4.50200       -1.68900       -6.43400
C          5.67500       -0.71600       -6.37500
C          6.83200       -1.05000       -5.69000
C          7.89100       -0.15600       -5.64600
C          7.79100        1.06900       -6.28500
C          6.63300        1.40100       -6.97000
C          5.57600        0.50900       -7.01400
C          6.51600        2.74900       -7.67900
N         -2.70000       -3.02800       -9.68300
N         -4.72300       -3.08600       -8.44600
N         -6.46100       -2.10400       -9.79500
N         -6.16800       -1.22300      -12.01300
N         -3.11000       -2.11500      -11.59600
N          0.91900       -3.08200       -2.62500
N          5.21100        3.33300       -7.92300
O         -1.03000       -2.67800       -7.99600
O         -1.69900       -5.96100       -9.27500
O         -0.11600       -5.88800       -7.36100
O          2.72100       -2.82500       -0.62800
O          4.36900       -3.63400       -1.81100
O          7.49200        3.31700       -8.03400
H         -6.70390       -2.86310       -7.88730
H         -1.12040       -2.81120      -11.05400
H         -2.65820       -4.06690       -7.97390
H         -0.68060       -4.45570      -10.21540
H          1.04260       -4.90550       -8.76170
H         -0.09060       -3.70140       -6.40100
H          1.23500       -1.73600       -7.40680
H          1.77330       -2.95530       -8.59340
H          2.68490       -4.35560       -6.87310
H          1.05630       -4.31820       -5.15530
H          1.11990       -2.54670       -5.01140
H          3.35720       -2.64230       -4.07320
H          3.44580       -4.40530       -4.36920
H          1.92920       -4.89420       -2.64910
H          6.90970       -2.01370       -5.18660
H          8.80250       -0.41720       -5.10840
H          8.62330        1.77190       -6.24900
H          4.66480        0.77050       -7.55190
H         -5.54080       -1.03480      -12.79500
H         -7.15310       -0.96610      -12.07610
H          0.50470       -3.26360       -1.71080
H          1.11640       -2.08560       -2.71830
H          0.27030       -3.37130       -3.35710
H          5.13540        4.23160       -8.39970
H          4.36880        2.84510       -7.61790
H         -2.42240       -5.90140       -9.90330
H          0.61080       -5.93640       -6.73570
