136

N         -0.02800       49.61500       17.43800
C         -0.33500       51.03300       17.58800
C         -1.72900       51.23100       18.17100
O         -1.89900       51.29700       19.38900
C         -0.21400       51.74400       16.25300
N         -2.72200       51.32900       17.29300
C         -4.10400       51.48600       17.72800
C         -4.60000       50.21700       18.41100
O         -4.82200       49.18900       17.76800
C         -5.00600       51.84500       16.54700
C         -6.49400       51.78000       16.85200
C         -7.29600       52.33700       15.69200
N         -8.63500       51.76300       15.59600
C         -9.73700       52.34600       16.05600
N         -9.66700       53.52600       16.65500
N        -10.91200       51.74700       15.91600
N         -4.76100       50.30000       19.72700
C         -5.21400       49.16800       20.52200
C         -5.69400       49.63300       21.88600
O         -5.43000       50.76100       22.30100
C         -4.09400       48.13800       20.68800
C         -2.97700       48.58500       21.62000
C         -1.78400       47.64400       21.55500
C         -2.02800       46.37800       22.36200
N         -0.78300       45.57500       22.52100
N         -6.40800       48.75300       22.57600
C         -6.81200       49.00200       23.95000
C         -5.97900       48.13900       24.87700
O         -5.99500       46.91100       24.77700
C         -8.29800       48.71300       24.14300
C         -8.70700       48.49000       25.58700
C        -10.20700       48.28600       25.68100
N        -10.59200       47.55000       26.87900
C        -11.84800       47.38900       27.28000
N        -12.84300       47.91400       26.57800
N        -12.11000       46.70400       28.38500
N         -5.24200       48.79000       25.76900
C         -4.35900       48.08500       26.68100
C         -5.13900       47.11100       27.54500
O         -6.00500       47.49500       28.33500
C         -3.58000       49.06800       27.54800
C         -2.40400       49.73300       26.83200
C         -1.42300       50.26600       27.84800
C         -1.71200       48.76300       25.87900
N         -4.82500       45.83700       27.36400
C         -5.50400       44.75800       28.05800
C         -4.51900       44.15800       29.04600
O         -3.55800       43.48900       28.67300
C         -6.02800       43.73200       27.05300
C         -6.86000       42.59600       27.62600
C         -6.01300       41.43700       28.11300
O         -4.89400       41.26200       27.58900
O         -6.47100       40.68600       28.99900
N         -4.76600       44.42200       30.31900
C         -3.74200       44.27200       31.33600
C         -3.92800       43.01500       32.18000
O         -2.95200       42.38700       32.59700
C         -3.74000       45.52400       32.21200
C         -3.68100       46.80700       31.37500
C         -4.17100       48.01000       32.16000
C         -2.26500       47.03600       30.86600
O         -5.05700       42.60600       32.45900
H         -0.11380       49.15220       18.34290
H         -0.68120       49.19500       16.77670
H          0.92490       49.50960       17.08980
H          0.38670       51.46480       18.28140
H         -0.95050       51.33890       15.55900
H         -0.39270       52.81010       16.39310
H          0.78780       51.59190       15.85130
H         -2.51270       51.29360       16.29530
H         -4.14200       52.30260       18.44890
H         -4.80830       51.11700       15.76020
H         -4.78000       52.87550       16.27310
H         -6.70000       52.37280       17.74320
H         -6.77830       50.74020       17.01340
H         -6.76350       52.09290       14.77280
H         -7.40530       53.41010       15.84900
H         -8.73110       50.85300       15.14540
H        -11.75790       52.19460       16.26880
H        -10.96980       50.83870       15.45550
H         -4.56100       51.18410       20.19470
H         -6.04500       48.69820       19.99580
H         -3.65130       47.97960       19.70460
H         -4.53910       47.24270       21.12210
H         -3.35970       48.58620       22.64060
H         -2.64940       49.57840       21.31350
H         -0.91670       48.15680       21.97090
H         -1.62140       47.36400       20.51420
H         -2.76240       45.77060       21.83300
H         -2.37920       46.66560       23.35300
H         -0.98740       44.73730       23.06580
H         -0.43300       45.30680       21.60120
H         -0.07930       46.13310       23.00440
H         -6.68110       47.87730       22.12990
H         -6.64660       50.05360       24.18430
H         -8.51950       47.79370       23.60080
H         -8.84410       49.58610       23.78570
H         -8.42820       49.36390       26.17580
H         -8.20170       47.60250       25.96800
H        -10.52450       47.70830       24.81290
H        -10.67960       49.26740       25.72090
H         -9.85180       47.13330       27.44370
H        -13.07480       46.58210       28.69280
H        -11.34670       46.29900       28.92700
H         -5.29720       49.80750       25.81470
H         -3.64570       47.51480       26.08590
H         -3.17100       48.50510       28.38700
H         -4.27050       49.85960       27.83920
H         -2.78940       50.56040       26.23620
H         -1.92120       50.99920       28.48230
H         -1.05440       49.44380       28.46140
H         -0.58760       50.73850       27.33140
H         -1.33660       47.90840       26.44180
H         -2.42550       48.42090       25.12940
H         -0.88120       49.26920       25.38740
H         -4.07650       45.60500       26.71110
H         -6.37470       45.12140       28.60380
H         -5.14920       43.26930       26.60390
H         -6.68390       44.27770       26.37470
H         -7.51010       42.22510       26.83360
H         -7.41540       42.98570       28.47900
H         -5.69680       44.73790       30.59130
H         -2.77840       44.15690       30.83960
H         -2.85800       45.49230       32.85160
H         -4.66260       45.53660       32.79240
H         -4.34740       46.68270       30.52150
H         -5.20410       47.84590       32.46660
H         -3.54590       48.14550       33.04260
H         -4.11370       48.89950       31.53260
H         -1.58630       47.13010       31.71370
H         -1.96140       46.19110       30.24790
H         -2.23680       47.95020       30.27310
H        -12.65147       48.42298       25.75733
H        -13.77323       47.79479       26.87749
H         -8.79649       53.97354       16.76066
H        -10.48551       53.95511       16.99435
