32

C        135.61600      -24.68900       24.94600
C        135.23100      -27.64700       27.48800
O        137.63200      -32.06500       20.13100
C        138.14900      -31.00700       20.93100
C        137.15500      -29.83700       21.06100
C        135.92600      -29.71100       20.43100
N        135.42100      -28.52100       20.83000
C        136.32400      -27.92200       21.65500
C        136.19400      -26.53900       22.29400
C        134.87300      -26.25900       23.03300
C        134.81600      -24.84700       23.64300
N        135.13000      -25.61500       25.95100
C        135.88500      -26.75400       26.43500
O        136.95900      -26.99700       26.01100
N        137.37300      -28.73700       21.76600
H        135.49800      -23.67000       25.31450
H        136.66650      -24.90010       24.74620
H        135.12360      -28.65630       27.09060
H        135.85580      -27.67120       28.38080
H        134.24860      -27.24840       27.74120
H        138.28110      -32.77020       20.07670
H        139.05410      -30.63170       20.45350
H        138.34290      -31.39990       21.92910
H        136.24700      -25.81840       21.47790
H        136.98370      -26.47200       23.04230
H        134.78860      -26.97760       23.84820
H        134.06230      -26.34200       22.30910
H        135.25220      -24.16440       22.91370
H        133.77210      -24.64170       23.88030
H        134.20100      -25.45520       26.34070
H        138.18460      -28.55016       22.29100
H        135.48587      -30.38778       19.78814
