222

C         23.15900       68.28100        9.67000
N         27.32300       65.42800       13.08200
C         24.31400       67.37900       10.06800
C         26.47800       66.56200       12.71200
O         31.47900       59.72300       13.85900
C         25.30100       66.05000       11.87700
C         30.42700       61.04400       15.54200
C         30.25700       61.26200       16.90900
C         29.44500       62.30100       17.35800
C         28.79100       63.11500       16.43500
N         28.53300       63.69900       12.75200
C         29.78200       61.87200       14.62500
C         28.96800       62.91200       15.06800
C         28.34800       63.83000       14.09800
O         24.89500       63.85300       12.68800
N         24.47200       67.14700       11.37600
C         21.52900       69.69000       10.79800
O         31.78400       59.15600       15.99300
C         27.57100       64.93800       14.30700
O         29.23900       61.52000       30.74700
O         27.69100       61.64000       27.63400
O         28.73100       62.50900       25.09300
N         22.10800       68.49500       10.64500
C         20.45500       69.77400       11.84000
O         21.86100       70.66800       10.12800
O         25.04700       66.88900        9.21000
N         27.91600       64.67900       12.13500
N         29.36600       62.54400       20.95500
N         27.15400       61.67000       22.47700
N         28.69100       60.24800       25.16000
N         27.95700       59.58600       28.53500
N         29.61400       59.35400       31.23000
N         28.69800       63.65300       20.59400
N         28.66000       63.66800       19.28200
C         29.31000       62.56800       18.80300
C         29.76300       61.84900       19.87600
C         29.59300       62.24200       22.36500
C         28.50800       61.34700       22.97300
C         28.63700       61.42100       24.52500
C         29.16900       60.11900       26.52000
C         28.18300       60.51300       27.60400
C         27.66600       59.93600       29.90900
C         28.90800       60.33200       30.68200
C         31.27200       59.91100       15.05600
C         24.45600       64.97000       12.61500
N         23.12800       65.22600       12.66700
C         21.86900       64.49400       12.78400
C         21.73700       63.38800       11.74000
O         21.92200       63.64400       10.54800
C         20.65900       65.44300       12.73000
C         20.45200       66.25100       14.00200
C         19.10800       66.94000       13.98300
N         19.09400       68.15600       14.79900
C         18.32400       68.33500       15.86700
C         18.36700       69.47800       16.53700
N         17.49400       67.37800       16.26500
N         21.42200       62.15900       12.19000
C         21.20700       61.01400       11.31000
C         19.74000       60.58700       11.41700
O         19.30600       60.11600       12.47500
C         22.17900       59.86500       11.63100
C         22.03500       58.55500       10.82700
C         22.14100       58.78700        9.31400
C         23.07000       57.55100       11.26200
N         18.97700       60.80600       10.31900
C         17.53700       60.55900       10.18300
C         16.72100       61.37400       11.20600
O         15.69300       60.89900       11.70200
C         17.19200       59.05700       10.23600
C         17.63700       58.25800        9.03100
C         17.01600       58.41800        7.79500
C         18.61300       57.27100        9.14800
C         17.40500       57.66600        6.68700
C         19.00100       56.50300        8.05100
C         18.40100       56.70900        6.81900
O         18.78400       55.95600        5.73200
N         17.20500       62.58500       11.50300
C         16.58900       63.51200       12.44700
C         17.11500       63.43400       13.86800
O         16.87700       64.35200       14.66100
N         17.82400       62.33300       14.20900
C         18.37800       62.09200       15.54500
C         19.75800       62.67500       15.70400
O         20.63400       62.42200       14.87000
C         18.48700       60.58300       15.83800
C         17.20300       59.79000       15.90500
C         16.46100       59.73400       17.07900
C         16.78600       59.02200       14.82500
C         15.29900       58.95900       17.15400
C         15.62200       58.25300       14.90200
C         14.89200       58.23000       16.06400
N         19.98800       63.36700       16.82900
C         21.30900       63.87900       17.18400
C         22.15800       62.66300       17.59500
O         21.60900       61.62900       17.99300
C         21.20900       64.87700       18.35700
C         20.62300       66.24500       18.01000
C         20.09100       66.94000       19.26500
C         20.14000       68.44600       19.18600
N         19.51900       69.08000       20.37900
N         23.47900       62.76900       17.46200
C         24.40200       61.69500       17.83500
C         24.89300       61.94800       19.25700
O         25.31300       63.06200       19.57700
C         25.55800       61.48800       16.80500
C         25.05200       61.45700       15.33200
C         26.41400       60.25500       17.13500
C         24.02300       60.33500       14.95000
N         24.79800       60.92600       20.09900
C         25.18000       61.02500       21.52800
C         26.69100       60.82900       21.66900
O         27.15800       59.81900       21.13700
C         24.43200       59.95600       22.32500
C         24.35800       60.26200       23.77200
N         23.69100       61.35500       24.24700
C         24.86900       59.63200       24.84000
C         23.78900       61.38500       25.55400
N         24.51100       60.34500       25.93800
H         22.67880       67.78640        8.82570
H         23.60050       69.26220        9.49540
H         27.05740       67.28000       12.13170
H         26.10640       67.05400       13.61080
H         25.73640       65.55070       11.01140
H         30.76130       60.61710       17.62860
H         28.13770       63.91450       16.78430
H         29.91510       61.70500       13.55610
H         23.99950       67.75420       12.04560
H         27.22790       65.33620       15.26190
H         21.80310       67.71550       11.22800
H         20.74080       70.50490       12.59650
H         19.51960       70.08050       11.37190
H         20.32630       68.79750       12.30680
H         28.38330       59.40960       24.66730
H         27.99010       58.60120       28.27140
H         30.47470       59.56700       31.73430
H         29.29690       58.38810       31.14760
H         30.32430       60.91480       19.85880
H         29.58630       63.18590       22.91020
H         30.54100       61.70930       22.44020
H         30.01820       60.79580       26.61430
H         29.38810       59.06200       26.67130
H         27.23210       59.06170       30.39430
H         26.98750       60.78900       29.90250
H         22.95430       66.22930       12.60640
H         21.88260       64.01270       13.76190
H         19.77050       64.82760       12.58870
H         20.83870       66.15160       11.92150
H         21.23470       67.00650       14.07120
H         20.49090       65.57730       14.85800
H         18.36920       66.25050       14.39160
H         18.88730       67.22160       12.95340
H         19.71740       68.91690       14.52930
H         16.89750       67.52620       17.07900
H         17.45290       66.49460       15.75670
H         21.32880       62.02080       13.19630
H         21.41650       61.29640       10.27830
H         21.97720       59.59410       12.66730
H         23.17090       60.24700       11.38970
H         21.03870       58.16430       11.03400
H         21.35160       59.46800        8.99600
H         23.11310       59.22180        9.08160
H         22.03330       57.83540        8.79340
H         24.06570       57.96170       11.09450
H         22.93930       57.33230       12.32180
H         22.95140       56.63490       10.68340
H         19.45430       61.18260        9.50000
H         17.25040       60.90680        9.19050
H         16.10530       58.98430       10.27880
H         17.71420       58.64370       11.09890
H         16.21040       59.14500        7.69160
H         19.08250       57.09570       10.11600
H         16.92830       57.82940        5.72050
H         19.77410       55.74270        8.16210
H         19.47800       55.34690        5.99460
H         18.06330       62.88080       11.03800
H         15.53050       63.25550       12.49120
H         16.80950       64.51690       12.08700
H         17.98310       61.62600       13.49120
H         17.69070       62.57490       16.23970
H         18.92950       60.50860       16.83130
H         19.04800       60.16230       15.00360
H         16.78830       60.30030       17.95090
H         17.37370       59.01930       13.90700
H         14.71780       58.93390       18.07580
H         15.29400       57.67190       14.04010
H         13.98410       57.62970       16.12190
H         19.20860       63.54310       17.46290
H         21.75680       64.40880       16.34320
H         22.22800       65.05440       18.70080
H         20.53730       64.42870       19.08910
H         19.80060       66.10810       17.30780
H         21.40640       66.86260       17.57060
H         20.72150       66.63520       20.10030
H         19.04610       66.65200       19.38080
H         19.58600       68.76160       18.30190
H         21.18460       68.75350       19.13840
H         19.57120       70.09470       20.28920
H         18.54240       68.79310       20.44540
H         20.01890       68.78560       21.21790
H         23.86400       63.63480       17.08440
H         23.86740       60.74540       17.81260
H         26.20210       62.36270       16.89560
H         25.93440       61.26990       14.72000
H         24.53020       62.40160       15.17860
H         26.85730       60.37600       18.12340
H         25.78560       59.36450       17.12380
H         27.20410       60.15310       16.39100
H         24.47200       59.35730       15.12470
H         23.12820       60.44020       15.56350
H         23.75670       60.43110       13.89740
H         24.44730       60.03490       19.74780
H         24.91510       62.00940       21.91390
H         24.97270       59.01650       22.21070
H         23.41250       59.90810       21.94240
H         25.46170       58.71730       24.82840
H         23.35130       62.13680       26.21070
H         24.74940       60.12452       26.86741
H         26.65894       62.47399       22.75586
H         28.65736       60.33480       22.65987
H         19.08364       70.13047       16.08357
H         18.65023       69.28664       17.55094
H         17.40184       69.93950       16.51731
