203

N         46.59200       11.95400      -40.21200
C         47.43400       10.71600      -40.43200
C         48.50400       10.55400      -39.34100
O         48.09500       10.02600      -38.30800
C         48.05000       10.63900      -41.80500
O         49.45500       10.43000      -41.70000
N         49.80600       10.84800      -39.59900
C         50.94300       10.95700      -38.60700
C         52.06000        9.91700      -38.85700
O         51.73300        8.73300      -38.99400
C         50.43000       10.79800      -37.16800
C         51.45500       10.98800      -36.07300
S         50.67000       11.27900      -34.41500
C         50.67100       13.07400      -34.34900
N         53.34300       10.32700      -38.85300
C         54.52200        9.46300      -39.17200
C         55.21600        8.99400      -37.88600
O         54.68400        9.28900      -36.81300
C         55.52400       10.17400      -40.09500
C         56.23000        9.25300      -41.08600
C         55.33400        8.13400      -41.64600
N         54.76500        7.21300      -40.63900
C         53.56100        6.61500      -40.68400
N         52.73800        6.80000      -41.70600
N         53.18400        5.81700      -39.69400
N         56.32100        8.24300      -37.99700
C         57.16700        7.78000      -36.85900
C         58.44000        8.62900      -36.83900
O         58.96000        8.89700      -37.91700
C         57.50700        6.29400      -37.01200
C         56.35000        5.33100      -36.77400
C         56.79000        3.90400      -36.49800
C         55.69500        3.01700      -35.93100
N         56.26900        1.75500      -35.39700
N         58.92900        9.08600      -35.68400
C         60.16800        9.93200      -35.63900
C         61.40900        9.03300      -35.83100
O         62.52200        9.60100      -36.01000
C         60.29300       10.89000      -34.42400
C         60.35900       10.16600      -33.07900
C         59.21100       11.97000      -34.44200
C         59.12600        9.38400      -32.73800
N         61.25300        7.70600      -35.90600
C         62.25300        6.80500      -36.54600
C         62.67200        7.40100      -37.89900
O         63.89600        7.44700      -38.16900
C         61.69300        5.41200      -36.81700
S         61.57700        4.32600      -35.36900
N         61.68200        7.82300      -38.70700
C         61.83600        8.31300      -40.10900
C         62.66800        9.59300      -40.12300
O         63.49000        9.75600      -41.07400
C         60.52100        8.60200      -40.87000
O         60.02000        9.93300      -40.69400
C         59.42000        7.60600      -40.57900
N         62.45600       10.44700      -39.11400
C         62.97700       11.83800      -39.05100
C         64.39000       11.89500      -38.45000
O         64.96200       12.98800      -38.54900
C         61.99900       12.75100      -38.30300
C         60.70600       13.04300      -39.03400
C         60.69100       13.61700      -40.30000
C         59.48400       12.69300      -38.47900
C         59.50800       13.84900      -40.97700
C         58.28700       12.96200      -39.12600
C         58.30400       13.52600      -40.38500
O         57.13400       13.78200      -41.02700
N         64.94900       10.80900      -37.88800
C         66.29500       10.83200      -37.24400
C         67.15700        9.66300      -37.76400
O         67.73500        9.81300      -38.84400
C         66.13800       10.97600      -35.71700
C         65.40100       12.22400      -35.26400
C         65.81300       13.49200      -35.67000
C         64.28000       12.14400      -34.44400
C         65.09100       14.62500      -35.33100
C         63.57100       13.28000      -34.09000
C         63.98200       14.51500      -34.53000
N         67.29100        8.57600      -37.00100
C         67.98200        7.29500      -37.34200
C         69.50400        7.41600      -37.14900
O         70.12600        8.20500      -37.87000
C         67.60700        6.75700      -38.74300
C         67.16700        5.32100      -38.77100
N         65.81200        4.95300      -38.66300
C         67.87000        4.16800      -38.90800
C         65.71400        3.63800      -38.72100
N         66.96600        3.13500      -38.86600
N         70.00800        6.70200      -36.13000
C         71.38300        6.17000      -35.91500
C         72.33700        7.24500      -35.38100
O         73.14200        6.92000      -34.51200
C         71.85900        5.47500      -37.19200
C         71.53000        3.98800      -37.24200
C         72.28400        3.19100      -36.18200
N         72.11200        1.73700      -36.29800
C         71.43100        0.93700      -35.45100
N         70.81200        1.41900      -34.38200
N         71.36900       -0.36400      -35.69000
O         72.24800        8.37700      -35.84900
H         46.20880       11.93960      -39.26680
H         47.17230       12.78420      -40.33230
H         45.82930       11.96980      -40.88910
H         46.73960        9.87880      -40.36130
H         47.86600       11.57480      -42.33270
H         47.60440        9.80740      -42.35090
H         49.83690       10.38250      -42.57950
H         50.04440       11.01470      -40.57660
H         51.36870       11.95060      -38.74700
H         50.07680        9.77050      -37.08120
H         49.68020       11.57570      -37.02310
H         52.05610       11.86290      -36.32070
H         52.05360       10.07930      -36.00880
H         51.69610       13.43820      -34.41630
H         50.08890       13.46730      -35.18240
H         50.22860       13.40200      -33.40840
H         53.52480       11.30180      -38.61400
H         54.14650        8.59070      -39.70700
H         56.29390       10.60870      -39.45750
H         54.96060       10.90140      -40.67940
H         57.05200        8.77400      -40.55400
H         56.54690        9.86670      -41.92930
H         55.96280        7.52990      -42.30000
H         54.49010        8.62460      -42.13100
H         55.34590        7.01000      -39.82550
H         52.27390        5.35770      -39.72760
H         53.80420        5.66260      -38.89910
H         56.60650        7.96560      -38.93610
H         56.62830        7.89590      -35.91850
H         58.26050        6.06780      -36.25760
H         57.82290        6.15170      -38.04550
H         55.74650        5.31610      -37.68160
H         55.81010        5.68140      -35.89430
H         57.58580        3.94960      -35.75450
H         57.09580        3.47060      -37.45020
H         54.98900        2.77560      -36.72560
H         55.19420        3.54780      -35.12130
H         55.51940        1.17410      -35.02150
H         56.74480        1.25480      -36.14790
H         56.93560        1.97270      -34.65630
H         58.45040        8.85530      -34.81330
H         60.09040       10.63190      -36.47100
H         61.25680       11.38710      -34.53420
H         60.47790       10.92890      -32.30960
H         61.18350        9.45540      -33.13740
H         59.30220       12.55870      -35.35480
H         58.22860       11.49890      -34.40870
H         59.33340       12.61960      -33.57530
H         58.27000       10.05750      -32.69660
H         58.95600        8.62490      -33.50150
H         59.25870        8.90310      -31.76890
H         60.41070        7.29200      -35.50670
H         63.09260        6.71800      -35.85630
H         62.37940        4.93040      -37.51340
H         60.67620        5.55100      -37.18440
H         61.07720        3.14990      -35.73770
H         60.73630        7.80650      -38.32530
H         62.32050        7.48610      -40.62820
H         60.81470        8.49390      -41.91410
H         59.20670       10.03620      -41.19350
H         59.74980        6.60760      -40.86620
H         59.18990        7.62160      -39.51370
H         58.52980        7.87370      -41.14820
H         61.89420       10.11830      -38.32870
H         63.06110       12.20790      -40.07290
H         62.50460       13.70680      -38.16560
H         61.72900       12.23410      -37.38210
H         61.63520       13.89100      -40.77060
H         59.46390       12.19400      -37.51010
H         59.52630       14.28580      -41.97550
H         57.33830       12.72910      -38.64250
H         56.40000       13.49700      -40.47790
H         64.43030        9.93080      -37.90250
H         66.87100       11.71180      -37.53100
H         67.14370       11.03540      -35.30090
H         65.55030       10.12260      -35.37870
H         66.72030       13.59430      -36.26540
H         63.95440       11.17170      -34.07420
H         65.40330       15.60200      -35.69990
H         62.68500       13.19400      -33.46090
H         63.42690       15.40800      -34.24270
H         66.87100        8.62540      -36.07280
H         67.61960        6.54580      -36.63810
H         68.50450        6.82450      -39.35790
H         66.76460        7.35240      -39.09500
H         68.94960        4.07870      -39.02870
H         64.79210        3.05940      -38.66280
H         69.34450        6.49010      -35.38490
H         71.36990        5.41630      -35.12770
H         72.94430        5.56920      -37.22810
H         71.34820        5.94930      -38.03000
H         71.82360        3.60990      -38.22120
H         70.46230        3.87190      -37.05590
H         71.88900        3.48810      -35.21050
H         73.34540        3.40350      -36.31000
H         72.55190        1.28610      -37.10020
H         70.30070        0.79070      -33.76220
H         70.84720        2.41810      -34.17950
H         71.82176       -0.74179      -36.47837
H         70.87015       -0.95345      -35.07931
H         67.19112        2.17879      -38.93095
H         53.00129        7.38895      -42.44968
H         51.86328        6.34849      -41.72160
