53

N        165.3050   142.8590   129.2900
N        172.3130   145.9230   131.9520
C        166.3320   142.9200   130.1620
C        164.8310   144.0810   128.6550
C        163.5750   143.6450   127.9550
C        163.8290   142.2420   127.6420
C        164.5140   141.7290   128.8680
C        169.2660   142.5380   133.3140
C        171.5210   144.8570   135.2070
C        173.1210   146.7650   132.6700
C        172.1640   148.2560   135.4340
C        174.5660   148.0200   134.9750
O        167.0230   143.9260   130.2370
N        166.5860   141.7840   130.8590
C        167.5610   141.6180   131.8670
C        167.4060   140.5440   132.7280
C        168.2250   140.4180   133.8350
C        168.5570   142.5560   132.1180
C        169.1290   141.4160   134.1110
F        169.9820   141.2220   135.1390
C        170.1520   143.6630   133.6430
N        170.6800   144.2990   132.6110
C        171.6460   145.2030   132.8430
N        172.0400   145.5310   134.1360
C        170.6130   143.9060   134.9750
C        172.9380   146.5630   133.9980
N        173.2710   147.3450   135.1020
C        174.8080   148.9030   136.1660
O        173.7330   149.8270   136.3780
C        172.5220   149.1210   136.6090
H        165.5642   144.5093   127.9715
H        164.6542   144.8836   129.3711
H        163.3640   144.2398   127.0663
H        162.6852   143.7815   128.5696
H        164.4328   142.1173   126.7431
H        162.9155   141.6931   127.4134
H        163.8157   141.3909   129.6336
H        165.1140   140.8392   128.6773
H        171.8401   145.0900   136.2228
H        173.8097   147.4906   132.2371
H        171.2845   147.6640   135.6873
H        171.9638   148.8952   134.5741
H        174.5637   148.6306   134.0721
H        175.3556   147.2707   134.9193
H        166.0161   140.9689   130.6324
H        166.6369   139.7967   132.5325
H        168.1548   139.5411   134.4786
H        168.7843   143.3140   131.3684
H        170.2223   143.3136   135.8023
H        175.7182   149.4751   135.9863
H        174.8909   148.2689   137.0487
H        172.6527   148.4832   137.4832
H        171.7219   149.8447   136.7645
