65

C         13.65500       65.66000       22.96000
O         13.10500       64.52400       23.62900
C         13.86900       63.90400       24.58500
C         15.08800       64.36800       25.07600
C         15.79700       63.66300       26.05400
C         15.25200       62.47200       26.53100
C         14.01600       62.00200       26.03300
N         13.30600       60.88200       26.35000
N         12.20700       60.87300       25.61600
N         12.22900       61.99200       24.83600
C         11.13300       62.25400       23.91200
C         13.34700       62.70500       25.08400
C         17.13400       64.15600       26.60300
C         17.69800       65.35100       25.84500
C         18.00100       65.07300       24.38100
O         18.57200       64.00400       24.06400
O         17.64500       65.96400       23.57300
C         17.07500       64.43400       28.09800
C         18.10200       64.00400       28.92800
C         18.05500       64.25300       30.28900
C         16.98600       64.93400       30.85500
C         16.98600       65.17800       32.34200
C         15.94400       65.37400       30.03100
C         14.75900       66.11900       30.59800
N         13.79800       65.23300       31.29500
C         13.18300       64.18100       30.44600
C         12.07200       64.71100       29.54100
O         10.90000       65.09000       30.28700
C         10.85100       66.39900       30.73400
C          9.91600       67.24000       30.15100
C          9.82300       68.55100       30.55700
C         10.66400       69.03400       31.55100
C         11.59900       68.19600       32.13500
C         11.68700       66.87800       31.72200
S         12.89200       65.83700       32.49100
O         12.19700       64.75300       33.10500
O         13.74000       66.65900       33.29600
C         16.01000       65.11500       28.66900
H         13.87900       66.43720       23.69070
H         14.57060       65.36880       22.44520
H         12.93370       66.03780       22.23540
H         15.49790       65.30100       24.68930
H         15.78230       61.90000       27.29240
H         11.05760       61.43400       23.19790
H         10.20080       62.33790       24.47060
H         11.32370       63.18540       23.37890
H         17.82960       63.33230       26.44280
H         18.63980       65.62010       26.32320
H         16.94250       66.13620       25.87390
H         18.95090       63.46680       28.50500
H         18.86990       63.90900       30.92590
H         17.01300       64.22240       32.86570
H         17.86260       65.76680       32.61230
H         16.08250       65.72070       32.61980
H         14.23400       66.58980       29.76680
H         15.13580       66.83790       31.32550
H         12.74190       63.43720       31.10950
H         13.96540       63.77460       29.80510
H         11.79170       63.91850       28.84710
H         12.44680       65.59470       29.02460
H          9.25460       66.86260       29.37110
H          9.08790       69.21190       30.09770
H         10.58810       70.07300       31.87160
H         12.26130       68.57190       32.91480
H         15.19850       65.45790       28.02720
