38

C        -18.43800      -17.94600       12.60800
N        -19.02200      -15.82900       12.78500
C        -20.14400      -16.55600       12.77500
C        -22.54700      -21.58000       10.65900
C        -21.90900      -23.32900        9.01600
C        -20.49000      -25.53300        8.20200
C        -20.80700      -25.41500        9.55900
C        -21.53300      -24.28700        9.98800
C        -26.26900      -18.93600        8.52300
O        -25.13600      -19.70400        8.00900
C        -24.30400      -20.27600        8.93200
C        -24.15600      -19.78400       10.15900
C        -23.26300      -20.41300       11.06400
C        -23.05100      -19.90900       12.44600
O        -22.14600      -18.80300       12.46300
C        -20.73700      -19.08200       12.61700
C        -19.77100      -17.89700       12.66100
N        -18.00700      -16.67300       12.67000
O        -20.29100      -20.26100       12.68400
C        -22.70000      -22.07700        9.42900
C        -21.54800      -23.53300        7.68600
N        -20.85800      -24.61400        7.32400
C        -23.55800      -21.45400        8.53300
H        -17.82060      -18.84090       12.52990
H        -21.16210      -16.17270       12.84320
H        -21.87010      -22.06920       11.35940
H        -19.92720      -26.40150        7.85990
H        -20.49830      -26.18090       10.27050
H        -21.79750      -24.15560       11.03720
H        -26.90250      -19.58560        9.12700
H        -25.90060      -18.11350        9.13610
H        -26.84560      -18.53840        7.68780
H        -24.71790      -18.90230       10.46730
H        -22.62690      -20.71330       13.04710
H        -24.00980      -19.57860       12.84550
H        -21.83350      -22.79930        6.93220
H        -23.67160      -21.85210        7.52470
H        -18.96127      -14.84949       12.86320
