48

C        -24.29500       18.64700      -11.24400
C        -25.17500       22.18300      -10.40000
C        -23.10400       23.44500      -10.84700
C        -21.52100       22.89700       -8.95400
C        -21.61000       25.63900       -8.19900
C        -21.24700       25.43400      -10.35400
C        -20.76300       16.11100      -12.45900
N        -17.76700       16.63100      -12.89200
C        -18.75200       17.64000      -12.63500
N        -18.46900       18.97700      -12.55600
N        -19.61200       19.63500      -12.31300
C        -20.62400       18.74500      -12.26600
C        -22.04100       19.18400      -11.88100
C        -22.21400       20.54700      -11.57900
C        -23.47700       20.96300      -11.12700
C        -24.50000       20.04800      -10.95900
C        -23.06700       18.22500      -11.67600
C        -25.59400       20.81400      -10.48900
N        -23.92600       22.24600      -10.77600
C        -22.58000       23.86900       -9.47400
C        -21.08800       23.23300       -7.62500
C        -20.74300       24.61500       -7.44800
N        -22.12400       25.23000       -9.47700
C        -20.10700       17.46300      -12.41700
N        -21.18000       15.06700      -12.49900
H        -25.10930       17.93380      -11.11640
H        -25.79030       23.02230      -10.07580
H        -23.71880       24.25470      -11.24000
H        -22.24700       23.23110      -11.48560
H        -20.65720       22.94740       -9.61690
H        -21.95800       21.89880       -8.92800
H        -20.96470       26.49560       -8.39350
H        -22.48000       25.81850       -7.56740
H        -20.38900       24.78880      -10.16500
H        -21.66040       25.21210      -11.33790
H        -20.93370       26.47740      -10.31690
H        -16.79090       16.89400      -13.02800
H        -18.04210       15.64990      -12.93890
H        -21.39470       21.25700      -11.69210
H        -22.87950       17.16720      -11.86010
H        -26.58290       20.43010      -10.23830
H        -23.41480       23.82510       -8.77460
H        -20.18960       22.64970       -7.42330
H        -21.92010       23.02160       -6.95350
H        -20.87640       24.82630       -6.38700
H        -19.73300       24.72720       -7.84220
H        -22.94850       25.79020       -9.69350
H        -17.57922       19.38536      -12.65975
