45

C         17.11700        8.13400       22.15600
C         13.93600        4.45500       24.67900
C         12.20200        3.84000       23.27900
C         16.01100       10.42100       22.52600
C         14.50800       10.83300       20.72100
C         14.62900        8.56400       21.49300
C         15.86800        7.65600       21.40600
C         13.29400        5.79600       25.02300
C         11.48700        5.18600       23.35600
C         12.41700        6.28800       23.87100
C         13.76000        8.16000       22.71600
C         17.33000        9.64200       22.27300
N         12.89500        3.50000       24.48200
N         13.26600        6.76900       22.77700
N         18.10300       10.15100       21.11800
N         15.01400        9.97800       21.54500
O         17.22900        9.42100       18.53900
O         13.76400       10.52700       19.81600
O         13.45600        8.97700       23.53900
O         19.13000       10.87800       18.71800
O         16.95600       11.74500       18.08600
O         17.21200       10.98900       20.38300
S         17.65800       10.79200       18.86500
H         17.96590        7.75980       21.58380
H         17.00400        7.77190       23.17790
H         14.59050        4.13400       25.48940
H         14.53560        4.54790       23.77350
H         12.94030        3.90380       22.47960
H         11.44590        3.07410       23.10600
H         16.18530       11.49190       22.42210
H         15.65140       10.22610       23.53630
H         14.76370       11.88510       20.84630
H         14.03070        8.42980       20.59180
H         15.58270        6.70950       21.86530
H         16.14320        7.61940       20.35190
H         14.08180        6.52750       25.20290
H         12.67280        5.67160       25.91000
H         10.64840        5.09210       24.04590
H         11.15290        5.45680       22.35440
H         11.79550        7.10100       24.24630
H         17.92970        9.82400       23.16480
H         12.25190        3.51270       25.27360
H         13.28820        2.56170       24.40790
H         13.52440        6.12130       22.03260
H         18.92640       10.66870       21.42520
