53

C        -13.49300       11.73000       -4.17300
C        -13.54200       12.37200       -2.91800
C        -14.60800       11.88000       -5.01200
C        -15.65800       13.19100       -3.37500
C        -11.46800       11.17000       -3.22200
N        -14.60800       13.09200       -2.55700
C        -15.30700        6.35200       -7.50600
C        -14.20000        7.16000       -7.74100
C        -14.40000        8.51800       -7.99800
C        -15.68700        9.04400       -8.02400
C        -15.89500       10.52300       -8.30800
C        -12.29200       11.03800       -4.34300
N        -15.65500       12.59200       -4.57800
C        -11.03200        8.74800       -7.74600
C        -11.23100       10.12400       -7.87100
C        -11.64500       10.87500       -6.76200
C        -11.26200        8.11600       -6.51500
C        -11.88200       10.24200       -5.52800
C        -11.68400        8.85500       -5.41500
C        -16.05700       11.26100       -6.97400
C        -11.46400        6.71000       -4.83100
C        -11.80200        7.96500       -4.35600
C        -16.60500        6.88900       -7.52400
C        -16.80000        8.24500       -7.76800
C        -16.46800       12.66400       -7.37100
O        -15.60300       13.44700       -7.75400
O        -17.65900       12.99500       -7.31100
N        -14.74400       11.29500       -6.27000
S        -12.15100       12.15600       -1.96400
C        -10.09700       10.55400       -3.08700
C         -9.19900       11.53700       -2.30000
N        -11.14400        6.83700       -6.12500
H        -16.53010       13.76570       -3.06300
H        -15.16600        5.28990       -7.30550
H        -13.19390        6.74080       -7.72490
H        -13.54400        9.16810       -8.17890
H        -16.78730       10.66110       -8.91860
H        -15.03660       10.92060       -8.84950
H        -10.69810        8.16500       -8.60440
H        -11.06460       10.61420       -8.83020
H        -11.78360       11.95210       -6.85590
H        -16.77930       10.78900       -6.30790
H        -11.45910        5.78450       -4.25530
H        -12.10500        8.20970       -3.33800
H        -17.46300        6.24070       -7.34610
H        -17.80220        8.67340       -7.75910
H        -13.92670       10.88110       -6.71850
H         -9.67220       10.36690       -4.07320
H        -10.16440        9.60340       -2.55790
H         -9.13400       12.48080       -2.84150
H         -9.63010       11.71120       -1.31420
H         -8.20230       11.10940       -2.19170
H        -10.86172        6.09610       -6.70863
