67

C       -1.5040  -0.6180  -25.1900
C       -3.4260   0.7670  -25.7790
O       -3.7170   0.0360  -26.6920
C       -0.8610  -3.4700  -25.5060
C       -2.3210  -4.0620  -23.7050
C       -1.5250  -5.3010  -24.1520
C       -1.1920  -4.9480  -25.6090
C        0.5870  -3.3040  -25.1290
C        1.5890  -3.4560  -26.0730
C        2.9270  -3.3040  -25.7330
C        3.2660  -3.0030  -24.4440
C        0.3230  -2.3700  -28.3170
C       -6.3820   2.6080  -25.0380
C       -6.9030   1.6070  -24.2540
C       -8.2430   3.2010  -23.0900
C       -8.1810   5.6390  -23.6440
C       -10.8320   5.2640  -22.5130
C       -5.3610   2.2650  -26.1040
C       -10.5380   5.1840  -23.9970
N       -2.3460   0.5420  -25.0260
N       -4.1340   1.8540  -25.4590
C       -2.1170  -1.6760  -24.3050
N       -1.7850  -2.9530  -24.4900
O       -2.8990  -1.3890  -23.4410
C        2.2730  -2.8530  -23.5110
C        0.9500  -3.0180  -23.8500
S        1.1630  -3.8360  -27.7170
C       -7.8200   1.9050  -23.2830
C       -7.7380   4.2070  -23.8790
C       -6.8010   3.8970  -24.8400
N       -9.1960   3.4720  -22.1090
C       -9.5860   4.8330  -21.7550
C       -8.4470   5.7870  -22.1430
O       -9.3920   5.9630  -24.3380
O       -11.9320   4.4200  -22.2220
H       -0.4709  -0.4090  -24.9125
H       -1.4583  -0.9394  -26.2305
H       -0.9830  -2.9237  -26.4413
H       -2.2155  -3.8829  -22.6350
H       -3.3903  -4.1912  -23.8726
H       -2.0782  -6.2342  -24.0465
H       -0.6444  -5.4958  -23.5399
H       -0.3798  -5.5451  -26.0237
H       -2.0055  -5.1616  -26.3024
H        3.7021  -3.4241  -26.4899
H        4.3120  -2.8838  -24.1614
H       -0.5573  -2.1802  -27.7029
H        0.9986  -1.5165  -28.2594
H        0.0189  -2.5251  -29.3522
H       -6.5858   0.5753  -24.4056
H       -7.4004   6.3060  -24.0100
H       -11.0901   6.2795  -22.2126
H       -5.1746   3.1369  -26.7310
H       -5.7381   1.4563  -26.7300
H       -11.3977   5.5715  -24.5437
H       -10.3421   4.1439  -24.2576
H       -2.1059   1.2203  -24.3030
H       -3.7817   2.4390  -24.7013
H        2.5359  -2.5989  -22.4841
H        0.1821  -2.9181  -23.0829
H       -8.2197   1.1081  -22.6558
H       -6.3843   4.6941  -25.4557
H       -9.6361   2.6915  -21.6216
H       -9.7903   4.8631  -20.6847
H       -8.7278   6.8150  -21.9140
H       -7.5470   5.5415  -21.5792
H       -12.1273   4.4630  -21.2831
