38

C          0.12500        9.35100       13.77300
C         -0.33400        9.53900       15.06400
C         -1.36800        8.75700       15.54300
C         -0.45200        8.38200       12.96200
C         -5.07900        1.98300       15.42400
C         -4.42400        2.93200       14.62200
C         -4.87000        4.24900       14.51900
C         -6.00300        4.64300       15.22900
C         -6.66900        3.72100       16.03000
C         -6.21200        2.41100       16.12600
C         -6.75300        1.26100       16.92100
C         -4.55000        6.09100       12.83000
C         -2.12200        6.53700       12.54700
C         -1.49500        7.59000       13.43000
C         -1.94500        7.79000       14.73100
O         -3.60600        0.24400       16.62100
S         -6.15300        6.39800       12.44000
N         -4.14300        5.16800       13.72200
N         -3.53900        6.76600       12.27800
B         -4.78500        0.43200       15.75900
O         -6.01800        0.11400       16.51300
O         -4.71100       -0.47500       14.61400
H          0.93660        9.96100       13.39320
H          0.11500       10.29590       15.69700
H         -1.72930        8.89900       16.55510
H         -0.08480        8.24140       11.95180
H         -3.54380        2.63090       14.06550
H         -6.36340        5.66280       15.15730
H         -7.55010        4.02570       16.58310
H         -7.82370        1.12220       16.71020
H         -6.61140        1.44140       17.99680
H         -2.01560        5.56030       13.04170
H         -1.58410        6.52270       11.58760
H         -2.75660        7.18300       15.11570
H         -3.15140        5.12300       13.84370
H         -3.77130        7.48820       11.62640
H         -4.53168       -1.37574       14.92609
H         -3.65978        0.84746       17.37852
