231

C          3.44800      -10.66000      -21.20400
O          4.10500       -9.75500      -21.66400
C          2.98400      -10.71000      -19.82000
C          3.26600       -9.67800      -18.90400
C          2.81800       -9.80900      -17.58100
N          3.96800       -8.55100      -19.28600
C          2.09600      -10.91400      -17.17600
C          1.80500      -11.91300      -18.07200
C          2.24600      -11.81900      -19.38000
N          3.07600      -11.68900      -22.12100
C          3.64100      -11.67700      -23.46600
C          3.11800      -10.48600      -24.26900
O          3.79600       -9.99300      -25.16900
C          3.31500      -12.98000      -24.16600
N          1.97400       -9.91300      -23.90200
C          1.54900       -8.68800      -24.58100
C          1.29800       -7.55500      -23.58700
O          2.25400       -6.99500      -23.04000
C          0.33900       -8.95300      -25.47900
O         -0.67800       -9.61900      -24.72400
C          0.73500       -9.82500      -26.67000
N          0.03400       -7.18500      -23.36900
C         -0.34600       -6.37600      -22.22500
C         -1.39300       -7.11800      -21.40400
O         -2.39700       -7.57200      -21.96100
C         -0.91700       -5.04300      -22.71500
O          0.05200       -4.40700      -23.55400
C         -1.25900       -4.12700      -21.54400
N         -1.20100       -7.26500      -20.09800
C         -2.22200       -7.91700      -19.27100
C         -3.60500       -7.29800      -19.44000
O         -3.75700       -6.09100      -19.65700
C         -1.67700       -7.73400      -17.84900
C         -0.18700       -7.80900      -18.05500
C          0.02800       -7.00300      -19.32400
N         -4.62100       -8.13900      -19.30300
C         -6.00600       -7.76400      -19.54000
C         -6.77400       -7.84000      -18.23100
O         -6.87400       -8.91700      -17.63700
C         -6.61900       -8.72700      -20.55600
C         -8.04700       -8.35900      -20.95600
C         -8.05300       -7.12900      -21.83200
C         -8.72400       -9.50400      -21.66200
N         -7.33100       -6.71000      -17.79600
C         -8.22500       -6.66800      -16.64700
C         -9.68400       -6.42900      -17.01100
O        -10.55300       -6.75600      -16.20600
C         -7.76500       -5.61800      -15.62000
S         -6.14600       -6.01500      -14.91400
N         -9.98100       -5.89500      -18.19000
C        -11.34800       -5.59500      -18.56700
C        -11.82400       -6.46700      -19.71900
O        -11.51100       -6.20200      -20.88200
N        -12.58400       -7.52600      -19.41800
C        -13.07800       -8.44700      -20.46000
C        -14.29400       -7.84100      -21.15000
O        -15.29300       -7.51400      -20.50800
C        -13.44800       -9.70400      -19.66400
C        -13.86100       -9.15800      -18.33000
C        -13.00800       -7.94400      -18.06800
N        -14.22400       -7.70900      -22.47200
C        -15.28500       -7.03800      -23.20600
C        -16.15200       -8.03000      -23.96500
O        -15.71000       -9.10500      -24.39700
C        -14.73200       -6.02200      -24.19800
O        -14.29500       -6.70700      -25.35600
N        -17.42100       -7.66400      -24.12500
C        -18.31600       -8.51800      -24.89900
C        -17.84100       -8.65900      -26.33500
O        -17.99300       -9.72500      -26.94300
C        -19.74500       -7.97200      -24.86100
C        -20.37000       -8.00600      -23.48900
C        -21.80200       -7.46800      -23.47700
N        -22.35100       -7.44300      -22.13000
C        -22.82200       -8.50900      -21.48800
N        -22.83200       -9.67800      -22.08500
N        -23.30100       -8.41100      -20.26000
N        -17.26300       -7.60100      -26.89300
C        -16.77200       -7.64500      -28.26200
C        -15.66000       -8.66700      -28.41600
O        -15.49100       -9.24200      -29.50200
C        -16.26200       -6.26300      -28.67200
N        -14.88100       -8.89500      -27.35400
C        -13.64900       -9.66000      -27.48500
C        -13.88700      -11.13100      -27.77100
O        -12.98100      -11.79200      -28.28800
C        -12.80000       -9.52800      -26.21900
O        -13.34200      -10.26500      -25.14400
N        -15.07200      -11.66100      -27.44700
C        -15.33300      -13.08900      -27.62000
C        -15.90200      -13.42600      -28.98700
O        -16.09300      -14.61600      -29.29000
C        -16.28300      -13.63500      -26.53800
C        -17.67100      -13.01100      -26.68200
C        -15.70800      -13.38000      -25.16200
C        -18.77300      -13.76300      -25.97500
N        -16.19000      -12.42800      -29.81700
C        -16.75900      -12.66100      -31.13700
C        -15.63300      -12.96300      -32.11500
O        -14.74700      -12.12700      -32.33000
C        -17.50600      -11.41500      -31.59200
C        -18.62500      -10.90800      -30.69100
C        -19.11400       -9.56900      -31.21200
C        -19.76600      -11.90700      -30.62600
N        -15.68900      -14.13500      -32.74000
C        -14.59900      -14.56000      -33.60600
C        -15.01900      -15.67600      -34.55700
O        -14.63000      -16.83400      -34.36700
C        -13.41800      -15.02200      -32.74900
O        -12.36800      -15.52600      -33.55400
N        -15.80100      -15.34800      -35.58200
C        -16.16300      -16.33400      -36.59100
C        -17.59400      -16.83900      -36.56400
O        -17.86300      -17.98500      -36.18300
O        -18.53500      -16.12000      -36.92200
H          3.04410       -9.02390      -16.85950
H          4.29310       -8.45430      -20.24800
H          4.16120       -7.81560      -18.60610
H          1.75640      -10.99350      -16.14330
H          1.22660      -12.78000      -17.75280
H          2.01590      -12.62110      -20.08130
H          2.42470      -12.42190      -21.83990
H          4.72360      -11.57460      -23.39090
H          3.73960      -13.81030      -23.60160
H          2.23310      -13.09680      -24.22810
H          3.73860      -12.96730      -25.17020
H          1.40370      -10.32030      -23.16080
H          2.36300       -8.35900      -25.22690
H         -0.03620       -7.99910      -25.84970
H         -1.43680       -9.78490      -25.28810
H          1.50310       -9.31580      -27.25200
H          1.12290      -10.77730      -26.30840
H         -0.13960      -10.00170      -27.29600
H         -0.68750       -7.48000      -24.02690
H          0.52800       -6.18610      -21.60200
H         -1.83400       -5.23630      -23.27160
H         -0.29750       -3.56930      -23.86650
H         -2.00080       -4.61210      -20.90950
H         -0.35750       -3.92830      -20.96440
H         -1.66220       -3.18840      -21.92430
H         -2.37730       -8.96110      -19.54280
H         -2.04860       -8.48410      -17.15080
H         -1.99650       -6.79960      -17.38750
H          0.17490       -8.83360      -18.14090
H          0.37520       -7.41720      -17.20740
H          0.18520       -5.94230      -19.12840
H          0.93280       -7.29170      -19.85880
H         -4.42100       -9.09740      -19.01690
H         -6.05570       -6.74730      -19.92970
H         -6.65100       -9.71430      -20.09510
H         -6.00550       -8.68910      -21.45620
H         -8.60410       -8.14280      -20.04440
H         -7.61190       -6.29430      -21.28720
H         -7.47200       -7.32370      -22.73350
H         -9.07940       -6.88430      -22.10540
H         -8.16330       -9.75690      -22.56190
H         -8.75870      -10.36850      -20.99900
H         -9.73840       -9.21250      -21.93440
H         -7.12300       -5.84050      -18.28700
H         -8.16910       -7.66250      -16.20430
H         -8.49250       -5.59590      -14.80860
H         -7.68650       -4.65740      -16.12910
H         -5.80390       -5.07520      -14.03730
H         -9.22800       -5.69080      -18.84700
H        -11.39370       -4.55360      -18.88550
H        -11.98930       -5.78600      -17.70650
H        -12.35670       -8.65360      -21.25070
H        -12.62270      -10.41230      -19.59040
H        -14.23610      -10.28630      -20.14140
H        -13.72100       -9.90400      -17.54770
H        -14.91840       -8.89340      -18.33210
H        -13.54770       -7.15980      -17.53710
H        -12.16440       -8.15870      -17.41200
H        -13.41890       -8.08180      -22.97520
H        -15.88870       -6.52120      -22.46000
H        -13.89660       -5.48460      -23.74930
H        -15.50860       -5.30490      -24.46400
H        -13.94460       -6.07450      -25.98750
H        -17.76420       -6.79700      -23.71170
H        -18.30690       -9.50850      -24.44410
H        -20.35210       -8.60150      -25.51160
H        -19.70410       -6.92900      -25.17500
H        -19.77050       -7.37470      -22.83320
H        -20.40090       -9.04520      -23.16170
H        -22.42170       -8.12220      -24.09030
H        -21.79130       -6.44920      -23.86440
H        -22.37660       -6.54650      -21.64420
H        -23.67140       -9.23680      -19.78970
H        -23.30020       -7.50960      -19.78270
H        -17.16160       -6.74230      -26.35200
H        -17.59760       -7.94060      -28.90940
H        -17.07600       -5.54140      -28.60270
H        -15.45210       -5.96390      -28.00670
H        -15.89560       -6.30190      -29.69780
H        -15.15260       -8.52900      -26.44150
H        -13.12240       -9.23950      -28.34170
H        -12.77240       -8.47640      -25.93350
H        -11.80420       -9.91650      -26.43270
H        -12.78380      -10.15780      -24.37040
H        -15.80540      -11.05880      -27.07310
H        -14.35880      -13.56860      -27.52510
H        -16.38590      -14.71230      -26.66830
H        -17.91350      -13.01490      -27.74470
H        -17.62270      -12.01920      -26.23240
H        -14.74260      -13.87850      -25.07500
H        -15.57900      -12.30750      -25.01660
H        -16.38960      -13.77100      -24.40660
H        -18.83660      -14.77430      -26.37660
H        -18.55430      -13.80740      -24.90810
H        -19.72090      -13.24820      -26.13170
H        -16.00670      -11.46960      -29.51990
H        -17.45000      -13.50310      -31.09910
H        -17.98290      -11.68300      -32.53480
H        -16.76330      -10.61760      -31.61960
H        -18.23980      -10.78470      -29.67880
H        -18.28920       -8.85640      -31.20960
H        -19.48770       -9.69070      -32.22870
H        -19.91510       -9.20160      -30.57060
H        -20.16690      -12.06440      -31.62730
H        -19.39720      -12.85240      -30.22810
H        -20.55030      -11.51900      -29.97610
H        -16.50030      -14.73980      -32.61200
H        -14.30810      -13.70610      -34.21780
H        -13.75940      -15.81610      -32.08500
H        -13.04390      -14.16890      -32.18300
H        -11.64240      -15.80770      -32.99210
H        -16.15160      -14.39350      -35.66230
H        -15.53310      -17.20340      -36.40230
H        -16.03610      -15.83990      -37.55420
H        -22.47864       -9.76668      -22.99961
H        -23.19286      -10.46608      -21.61814
