32

C        -27.49200      -17.85300      -31.25200
C        -25.70400      -18.20000      -29.11600
C        -24.88200      -17.56800      -28.18800
C        -25.37600      -17.16300      -26.94300
C        -24.52000      -16.50800      -26.04800
C        -23.20200      -16.26300      -26.40300
C        -22.72100      -16.63800      -27.65200
C        -21.42200      -16.38400      -27.96900
C        -18.91900      -17.77900      -26.99800
C        -23.55900      -17.31000      -28.54000
N        -28.38300      -18.72700      -30.78600
N        -27.31600      -17.59700      -32.54700
N        -18.31400      -18.74400      -26.29800
N        -18.26100      -16.87600      -27.71100
S        -26.55900      -16.92700      -30.11700
S        -20.67100      -17.69000      -26.88500
Br       -25.06500      -15.93200      -24.34500
H        -26.43910      -18.81560      -28.59760
H        -25.10390      -18.83720      -29.76560
H        -26.41440      -17.35480      -26.67280
H        -22.53570      -15.77080      -25.69450
H        -21.07730      -15.36370      -27.80080
H        -21.16740      -16.43390      -29.02770
H        -23.17950      -17.63350      -29.50930
H        -28.97760      -19.24380      -31.43400
H        -28.47060      -18.87940      -29.78130
H        -17.29620      -18.81080      -26.29580
H        -18.87020      -19.41350      -25.76620
H        -18.75604      -16.18576      -28.20874
H        -17.27721      -16.89551      -27.74286
H        -27.82610      -18.10034      -33.22204
H        -26.67579      -16.90441      -32.82929
