19

C       -26.4780   5.3360   15.6370
C       -25.3310   5.2980   14.8880
C       -24.7530   4.0990   14.6800
C       -25.3710   2.9970   15.2420
C       -26.4920   2.9560   16.0520
C       -27.0790   4.2220   16.2130
C       -25.2410   0.4360   15.2890
F       -27.0710   6.5510   15.7480
N       -24.6230   1.7220   14.9080
N       -26.4310   0.3800   16.0480
O       -24.7140  -0.4810   14.8460
O       -26.3170   1.5160   18.1540
O       -28.4580   1.5810   16.8750
S       -26.9940   1.5910   16.8570
H       -24.8999   6.2093   14.4735
H       -23.8387   4.0019   14.0946
H       -27.9999   4.3306   16.7859
H       -23.7201   1.7512   14.4344
H       -26.9499  -0.4979   16.0687
