40

C         27.01000       55.74700       86.39600
C         22.48400       55.01900       89.86300
C         30.48800       55.64800       87.82000
C         28.23100       55.31400       87.13500
C         30.36300       54.52500       88.63700
C         29.16400       53.86000       88.66400
C         29.39900       56.07500       87.06100
F         31.32000       54.03800       89.40600
N         28.11200       54.25000       87.93500
O         27.13600       56.33300       85.34600
N         25.78800       55.47000       87.02700
C         24.48000       55.87900       86.58700
C         23.74000       55.60700       85.32600
C         23.27000       55.03000       86.63200
C         21.97500       55.35400       87.39100
N         22.13800       54.62100       88.67100
C         20.75600       54.74600       86.69500
O         19.61400       55.36000       87.24300
C         20.00600       56.72500       87.19100
C         21.46400       56.80000       87.61800
C         21.56600       57.48000       88.96100
S         22.55600       56.71100       90.28300
N         22.79800       54.14100       90.80300
H         31.43280       56.18970       87.77480
H         29.06440       52.98210       89.30230
H         29.45730       56.96600       86.43580
H         25.83090       54.92220       87.88630
H         24.84090       56.80200       87.04070
H         23.94300       55.27920       84.30650
H         23.33550       56.15380       84.47430
H         23.02320       54.02680       86.97960
H         20.72370       53.66760       86.85040
H         20.80400       54.91570       85.61940
H         19.38360       57.32540       87.85460
H         19.88430       57.11790       86.18160
H         22.14310       57.44280       87.05790
H         20.54640       57.48550       89.34650
H         22.06690       58.42590       88.75480
H         22.76962       53.17696       90.60538
H         23.05985       54.45220       91.69956
