10

C      0.3011858    -1.4388468     0.4165111    
O      0.7635851    -2.5882795     0.6373388    
O     -0.5718046    -0.8744416     1.1142664    
C      0.8578235    -0.7246169    -0.7877297    
C      0.5652395     0.5237095    -1.1155402    
C     -0.3750097     1.4288828    -0.3353400    
O     -1.5590382     1.4859386    -0.7335653    
O      0.1371662     2.1281940     0.5660346    
H      1.5454821    -1.3268307    -1.3746915    
H      1.0004062     0.9895434    -1.9937882    
