80

C     -0.6760193     7.1422498     2.4297513    
O     -0.5069351     5.9352416     1.7081109    
N     -0.1160540     4.8628304     6.2456679    
C     -0.1960816     4.1334278     5.1325955    
O      0.4228527     3.1095768     4.9132750    
O     -1.0812386     4.6730359     4.2511170    
C     -1.5329472     4.9842394     1.8824278    
C     -1.2288345     3.9861629     3.0071399    
C     -2.3832170     2.9814294     3.1117040    
O     -3.6028109     3.5980583     3.4202668    
C     -2.5527394     2.2815944     1.7556970    
O     -2.6748777     3.1628078     0.6935912    
C     -1.7145371     4.2238163     0.5436485    
C     -0.3752442     3.7043802     0.0187895    
C     -2.3420516     5.1700717    -0.4816805    
O     -1.4701014     1.3823528     1.6484686    
C     -1.5193112     0.3861541     0.7125674    
C     -0.6032479    -0.6567677     0.8761318    
C      0.3541475    -0.7025291     2.0250307    
C     -0.6128644    -1.6961813    -0.0571193    
C     -1.5192008    -1.7230661    -1.1295513    
C     -2.4104687    -0.6504378    -1.2669774    
C     -2.4078429     0.3872744    -0.3659709    
O      0.2841397    -2.6971722     0.1490362    
C      0.3469802    -3.7919591    -0.6409922    
O      1.1240745    -4.6772408    -0.3170750    
C     -0.5330343    -3.8407243    -1.7858608    
C     -1.4630643    -2.8552706    -2.0162414    
O     -2.2854077    -3.0000159    -3.0587461    
N     -0.4971262    -4.9758216    -2.6117636    
C      0.6097029    -5.6489179    -3.0179314    
O      0.5105245    -6.7952473    -3.4512304    
C      1.8869013    -4.9057855    -2.9866117    
C      1.9424261    -3.5630264    -3.3422540    
C      3.1307975    -2.8526312    -3.3259633    
C      4.2970387    -3.5160057    -2.9261330    
O      5.5063663    -2.9064442    -2.8485073    
C      4.2515453    -4.8700988    -2.6002364    
C      3.0620235    -5.5630213    -2.6379198    
C      3.1228185    -1.3869084    -3.6858325    
C      3.0487783    -0.5498135    -2.4368226    
C      2.0604216     0.2612521    -2.0795536    
C      2.1490227     1.0823288    -0.8288939    
C      0.8141221     0.4896576    -2.8851618    
H      0.1703427     7.7662319     2.1532361    
H     -0.6707606     6.9663238     3.5069605    
H     -1.6104747     7.6350324     2.1450024    
H      0.5215400     4.5762180     6.9688461    
H     -0.6453582     5.7130286     6.3362582    
H     -2.4801381     5.4845036     2.1275346    
H     -0.2982917     3.4447846     2.8062125    
H     -2.1239952     2.2166486     3.8595742    
H     -3.5166020     4.0795377     4.2575612    
H     -3.5045609     1.7292658     1.7667328    
H     -0.5306656     3.2128651    -0.9378187    
H      0.0757792     2.9959956     0.7067217    
H      0.2984211     4.5458833    -0.1068902    
H     -2.4124723     4.6728980    -1.4434721    
H     -1.7242405     6.0568434    -0.5759321    
H     -3.3411377     5.4480742    -0.1590714    
H      0.3717058     0.2485046     2.5486501    
H      1.3516640    -0.9522340     1.6711796    
H      0.0524304    -1.4839442     2.7209191    
H     -3.1088331    -0.6125220    -2.0866229    
H     -3.0843549     1.2158586    -0.4956295    
H     -2.9464211    -2.2891007    -3.1118808    
H     -1.3832748    -5.4374859    -2.7874638    
H      1.0433915    -3.0617747    -3.6685627    
H      5.4480118    -1.9800646    -3.1293398    
H      5.1706841    -5.3551910    -2.3123154    
H      3.0201182    -6.6091482    -2.3789318    
H      2.2718181    -1.1846250    -4.3327967    
H      4.0257690    -1.1237769    -4.2447772    
H      3.8960314    -0.6547056    -1.7713147    
H      2.1046109     2.1413222    -1.0792113    
H      3.0746213     0.8898908    -0.2924595    
H      1.3091363     0.8619256    -0.1725815    
H      0.4999521    -0.4119660    -3.4027029    
H      0.9857962     1.2689813    -3.6263808    
H      0.0069238     0.8119959    -2.2325818    
