60

O     -0.8221565    -2.4557630    -0.1925027    
C      0.5444641    -2.4472558    -0.4618745    
C      1.4176587    -2.9785527     0.7012778    
C      0.5890421    -3.1307819     1.9787592    
C     -0.2793853    -1.8731710     2.1490746    
C     -1.3270675    -1.8517650     0.9846792    
C     -2.5492323    -2.7112464     1.3321265    
N     -1.6820827    -0.4707247     0.6830538    
C     -0.9126699     0.3149162    -0.1487543    
C      0.2637849     0.0237903    -0.8282737    
C      0.9343951     1.0398692    -1.5832038    
C      0.3658116     2.3015304    -1.6607861    
C     -0.8348395     2.5905036    -0.9961015    
C     -1.4729063     1.6187061    -0.2248916    
C     -2.6223768     1.6086309     0.6208164    
C     -2.7106327     0.3097141     1.1863328    
C     -3.6947779     0.0395366     2.1307230    
C     -4.5904341     1.0404726     2.4558613    
C     -4.5263233     2.3046753     1.8745044    
C     -3.5388710     2.5998890     0.9605149    
C     -1.1185192     3.9703093    -1.3113112    
N     -0.2377193     4.5302755    -2.0743269    
C      0.7525896     3.5557195    -2.3546711    
O      1.7248306     3.7686357    -3.0504400    
C      2.1156319     0.4291308    -2.1141933    
C      2.1029766    -0.9154057    -1.6785366    
C      3.1136942    -1.7956674    -2.0330133    
C      4.1368390    -1.3094695    -2.8275789    
C      4.1610150     0.0158869    -3.2574251    
C      3.1556052     0.8972470    -2.9102169    
N      0.9864721    -1.1328786    -0.8941565    
O      0.6113607    -0.7721989     2.1624048    
C      0.2610953     0.3094042     3.0031135    
N      1.4844393    -3.2654059     3.1552520    
C      2.3817375    -4.4367758     3.1144082    
H      0.6317075    -3.1128813    -1.3316536    
H      2.2184089    -2.2583070     0.8681943    
H      1.8409687    -3.9363570     0.4099489    
H     -0.0534217    -4.0127582     1.9158349    
H     -0.8404705    -1.8957926     3.0918066    
H     -2.7988748    -2.6742574     2.3856055    
H     -2.3267279    -3.7374061     1.0551558    
H     -3.4008538    -2.3916167     0.7409769    
H     -3.7857859    -0.9111542     2.6211894    
H     -5.3592064     0.8378020     3.1851093    
H     -5.2470269     3.0582099     2.1515763    
H     -3.4670137     3.5807135     0.5185008    
H     -1.9714024     4.5367352    -0.9780988    
H      3.1111262    -2.8249553    -1.7163385    
H      4.9371832    -1.9696567    -3.1235341    
H      4.9773216     0.3588098    -3.8745155    
H      3.1634607     1.9234420    -3.2437159    
H      1.1109647     0.9876274     2.9778520    
H      0.0906715    -0.0305420     4.0287419    
H     -0.6246490     0.8453508     2.6571476    
H      0.9127374    -3.3233249     4.0072756    
H      2.0419871    -2.4009644     3.2166562    
H      2.9078329    -4.5279323     4.0607835    
H      3.1157934    -4.3300979     2.3226895    
H      1.8017982    -5.3403514     2.9469552    
