86

C     -6.9655932     9.3088926    -1.7856917    
C     -6.2347413     9.5066428    -0.6266274    
C     -5.5609993     8.4481879    -0.0403631    
C     -5.6240806     7.1811555    -0.6034556    
C     -6.3603805     6.9879199    -1.7660649    
C     -7.0246733     8.0477645    -2.3566375    
C     -4.9128920     6.0185547     0.0311349    
O     -4.1028790     5.3629424    -0.9494270    
C     -2.9756202     4.7617601    -0.5133690    
O     -2.6199403     4.7409821     0.6492266    
C     -1.1657760     3.3522044    -1.4148048    
C      0.0047811     4.0201721    -0.6606924    
C      0.8612971     4.9361655    -1.5432759    
C      2.0897711     5.3803470    -0.7486066    
C      0.0840516     6.1579026    -2.0261673    
C     -1.6016271     2.0899537    -0.6945763    
O     -2.6988364     1.8974391    -0.1989715    
N     -0.6830707     1.0822048    -0.6313154    
N     -1.0641443    -0.0118482     0.1661152    
N     -2.3111101     4.2272921    -1.5549975    
C     -0.2818988    -0.1435455     1.4686259    
O      0.1540939     1.0678706     1.8444657    
C      8.1591007    -8.0355417     1.8096638    
C      6.9507269    -7.9631409     2.4827174    
C      6.0407538    -6.9700727     2.1686455    
C      6.3264507    -6.0464617     1.1708446    
C      7.5354301    -6.1279349     0.4934001    
C      8.4502182    -7.1156910     0.8158811    
C      5.3332496    -4.9695196     0.8385368    
O      4.0425602    -5.5705936     0.6661476    
C      3.0103795    -4.7395996     0.5403266    
O      3.0839510    -3.5152673     0.5682483    
C      0.6216454    -4.5940721     0.2347925    
C     -0.5882276    -5.3646596     0.7777711    
C     -0.9908975    -6.5771249    -0.0717886    
C     -2.0667566    -7.3656319     0.6750163    
C     -1.5133019    -6.1593852    -1.4460672    
C      0.8016301    -3.3265612     1.0574068    
O      0.8773422    -3.2808276     2.2675592    
N      0.6834234    -2.1314621     0.3539594    
N      0.9448748    -0.9973471     1.1582130    
N      1.8431601    -5.3708440     0.3679518    
H     -7.4894275     10.1348166    -2.2426454    
H     -6.1850300     10.4883682    -0.1800270    
H     -4.9902241     8.6091623     0.8625220    
H     -6.4060561     6.0034426    -2.2060321    
H     -7.5940262     7.8915031    -3.2602994    
H     -5.6385827     5.2892277     0.4128246    
H     -4.2761334     6.3434796     0.8600106    
H     -0.8375320     3.0921262    -2.4252920    
H      0.6540355     3.2582333    -0.2338394    
H     -0.4092079     4.5995622     0.1642167    
H      1.2030158     4.3792260    -2.4222993    
H      2.7188342     6.0288223    -1.3537879    
H      2.6870487     4.5292244    -0.4339561    
H      1.7880016     5.9385774     0.1348428    
H     -0.7245361     5.8819327    -2.6968656    
H      0.7433271     6.8393306    -2.5602367    
H     -0.3431104     6.6983092    -1.1826317    
H      0.2677534     1.1760508    -0.9653044    
H     -1.0772667    -0.9154431    -0.3463754    
H     -2.0767789     0.2659666     0.3738182    
H     -2.7762694     4.2958323    -2.4468815    
H     -0.9094104    -0.6989026     2.1780031    
H     -0.1367494     1.3734942     2.7176606    
H      8.8714879    -8.8079289     2.0573064    
H      6.7211118    -8.6797109     3.2567613    
H      5.1003253    -6.9138261     2.6948457    
H      7.7683007    -5.4177948    -0.2857126    
H      9.3901727    -7.1718621     0.2881135    
H      5.6114897    -4.4515501    -0.0843874    
H      5.2714630    -4.2330818     1.6490981    
H      0.4659703    -4.3414708    -0.8199792    
H     -1.4413054    -4.6879228     0.8324146    
H     -0.3577300    -5.6907220     1.7934233    
H     -0.1273515    -7.2353943    -0.2121546    
H     -2.3452241    -8.2559376     0.1159961    
H     -2.9600307    -6.7606591     0.8127513    
H     -1.7131420    -7.6824908     1.6539811    
H     -0.7376395    -5.6967635    -2.0485743    
H     -2.3495028    -5.4731229    -1.3431280    
H     -1.8655410    -7.0349066    -1.9867827    
H      1.0712018    -2.1196040    -0.5859293    
H      1.2748093    -1.4117166     2.0761077    
H      1.7116449    -0.3881110     0.8194845    
H      1.8056839    -6.3774053     0.3830164    
