63

N      5.4983569    -1.1414153     0.6481595    
C      4.5291047    -0.2983407    -0.0968683    
C      3.4847575     0.1599118     0.9311234    
O      3.6589480    -0.1161730     2.1227563    
C      3.8948842    -1.0532317    -1.2674084    
C      2.9946110    -2.2193070    -0.8152163    
C      1.6636684    -2.2475668    -1.5746442    
C      1.8084915    -2.5053744    -3.0701217    
N      2.1924340    -3.9147910    -3.3392365    
N      2.4628485     0.8601193     0.4756933    
C      1.2841934     1.1675727     1.2548991    
C      0.0908815     1.0201789     0.2893377    
O      0.2988705     0.8474394    -0.9095511    
C      1.3138983     2.5903722     1.8412282    
C      2.5575211     2.8752353     2.6822820    
N      2.7411773     1.8710570     3.7559347    
N     -1.1032347     1.0382023     0.8572229    
C     -2.3544657     1.0341226     0.1375795    
C     -3.4230616     1.6309651     1.1225247    
O     -4.5747211     1.7903755     0.6878458    
C     -2.7242424    -0.3836166    -0.3226291    
C     -3.8605278    -0.3591618    -1.3398748    
C     -4.2902284    -1.7701502    -1.7427256    
C     -5.3186019    -1.7604096    -2.8661645    
N     -6.5886300    -1.1419062    -2.4148167    
O     -3.0050856     1.8926955     2.2715486    
H      5.4235041    -2.1306924     0.3879127    
H      5.2372039    -1.0519666     1.6559997    
H      6.4713597    -0.8452633     0.5277176    
H      5.0341647     0.5945240    -0.4769490    
H      4.6942126    -1.4005426    -1.9210761    
H      3.3008394    -0.3453990    -1.8436641    
H      2.7507717    -2.1147794     0.2423401    
H      3.5085061    -3.1727934    -0.9310931    
H      1.1574467    -1.2890330    -1.4481086    
H      1.0160851    -3.0063852    -1.1339461    
H      2.5602890    -1.8484943    -3.5038466    
H      0.8589360    -2.3020897    -3.5624621    
H      2.2678776    -4.0822988    -4.3484599    
H      1.4869178    -4.5556370    -2.9571484    
H      3.0961281    -4.1337266    -2.9060008    
H      2.3251578     1.0204306    -0.5190027    
H      1.1732655     0.4245268     2.0509125    
H      0.4108685     2.7365022     2.4348406    
H      1.2801791     3.3148775     1.0267121    
H      2.4489563     3.8673503     3.1189551    
H      3.4477607     2.8728388     2.0537384    
H      3.4786237     2.1680781     4.4022555    
H      3.0333074     0.9583418     3.3249284    
H      1.8776035     1.7429513     4.2915537    
H     -1.2684687     1.2822912     1.8361905    
H     -2.2906716     1.6971499    -0.7349635    
H     -3.0148447    -0.9696275     0.5529762    
H     -1.8341845    -0.8333853    -0.7680597    
H     -3.5243072     0.1949460    -2.2185206    
H     -4.6772960     0.2012251    -0.8807953    
H     -4.6855349    -2.2931558    -0.8716651    
H     -3.4148317    -2.3191021    -2.0869683    
H     -5.5237951    -2.7794709    -3.1926145    
H     -4.9321585    -1.1901198    -3.7108079    
H     -7.2689912    -1.0903015    -3.1804151    
H     -6.4086359    -0.1918952    -2.0683514    
H     -6.9962187    -1.6835018    -1.6445029    
