16

N      0.7874684     0.3611094    -0.8682218    
C      0.8718174    -0.9627216    -0.8195148    
N     -0.8398425     0.2998619     0.8440832    
C     -1.7361739     1.0442002     1.6986378    
C     -0.0427368     1.0333896    -0.0674149    
O     -0.1563514     2.2588098    -0.0762343    
N      1.7247488    -1.5563228    -1.6563357    
C      0.0845733    -1.7282182     0.0892469    
C     -0.7574863    -1.0410561     0.8999768    
H     -2.2784339     0.3601315     2.3449293    
H     -2.4315710     1.6168053     1.0834648    
H     -1.1622314     1.7550966     2.2945078    
H      1.8277233    -2.5555038    -1.6606156    
H      2.2604426    -0.9811809    -2.2828283    
H      0.1572233    -2.7996155     0.1269949    
H     -1.3945338    -1.5337332     1.6203552    
