50

N     -0.2709031     0.2492059     1.0388693    
C     -0.9675980    -0.8594902     0.4098914    
C     -1.2714711    -1.9905249     1.4163234    
C     -1.8563418    -3.2113681     0.7097592    
C     -2.2418056    -1.4776116     2.4762199    
C     -0.1842934    -1.3643432    -0.7996442    
O      1.0348660    -1.5360768    -0.8183852    
O     -0.2932612    -2.0485570    -3.0547095    
N     -0.9148769    -1.6162054    -1.8843661    
H     -1.9143741    -0.4276239     0.0711246    
H     -0.3326370    -2.2768436     1.8970416    
H     -2.1078201    -3.9652806     1.4499908    
H     -1.1428381    -3.6436779     0.0143737    
H     -2.7626493    -2.9451967     0.1724109    
H     -1.8760679    -0.5520540     2.9133873    
H     -2.3569504    -2.2140311     3.2667287    
H     -3.2150740    -1.2821143     2.0325720    
H      0.6351754    -2.2350728    -2.8016497    
H     -1.9121748    -1.5259022    -1.9949146    
C      1.0182027     0.0362597     1.6832011    
C      0.8543090    -0.1131914     3.1715920    
C      0.2103477     0.8784479     3.9051961    
C      1.3264514    -1.2221009     3.8629670    
C      0.0623116     0.7151089     5.2718751    
C      0.5671666    -0.4393756     5.8536180    
N      1.1907798    -1.3841618     5.1691531    
H      1.6120384     0.9329296     1.4906489    
H      1.5257117    -0.8252229     1.2454452    
H     -0.1601713     1.7556040     3.3919805    
H      1.8468774    -2.0185726     3.3467947    
H     -0.4321887     1.4625954     5.8704971    
H      0.4735298    -0.6192323     6.9152480    
S     -0.5160594     1.7035195     0.2839011    
O      0.2147968     2.7057624     1.0307821    
O     -1.9517716     1.8935465     0.2094006    
C      0.1223349     1.5855850    -1.3693664    
C     -0.7552252     1.3700450    -2.4137931    
C      1.4895830     1.6444551    -1.5867767    
C     -0.2754959     1.1891303    -3.6975845    
C      1.9763840     1.4677720    -2.8623459    
C      1.1011002     1.2242007    -3.9305590    
O      1.6784252     1.0418808    -5.1308052    
C      0.8604125     0.7449721    -6.2549748    
H     -1.8122418     1.3582435    -2.2019743    
H      2.1517105     1.8352283    -0.7586666    
H     -0.9715361     1.0142458    -4.4996898    
H      3.0336979     1.5023811    -3.0656438    
H      1.5539185     0.6260996    -7.0836689    
H      0.1708947     1.5647559    -6.4660926    
H      0.3073157    -0.1831579    -6.0971545    
