54

N      1.7469885    -3.2199019    -1.8201972    
C      2.7223494    -2.6515753    -1.1795932    
N      3.6857571    -3.3982140    -0.5896273    
N      2.9183039    -1.2926048    -1.1337662    
C      2.0346196    -0.3908633    -1.6657387    
O      2.2040636     0.8224458    -1.5081900    
C      0.9333246    -0.9975329    -2.3916301    
C      0.8199643    -2.4016811    -2.4042816    
C     -0.3136349    -2.9647646    -3.0081087    
C     -1.3142388    -2.1580586    -3.4914323    
C     -2.3948023     0.0754380    -3.8902156    
C     -2.5602708     1.4055840    -3.1435726    
C     -4.0940755     1.7864929    -3.0119418    
O     -4.3528238     3.0012740    -3.0712695    
C     -1.2236617    -0.7599120    -3.4510498    
C     -0.0679354    -0.2007439    -2.9491564    
C     -1.7009855     0.3206269     0.3858799    
C     -0.9649591     1.4100914     0.8448437    
C     -0.3336844     1.4505686     2.1874714    
O     -0.1287458     2.5226405     2.7702252    
C     -0.8378149     2.5249958     0.0211510    
C     -1.3667580     2.5229738    -1.2510258    
C     -2.0502003     1.4117113    -1.7400696    
C     -2.2458094     0.3304906    -0.8817677    
N     -0.0224560     0.2548865     2.7199828    
C      0.6407759     0.1448354     4.0014958    
C     -0.1429305     1.0175718     5.0553103    
O      0.5256148     1.6359157     5.9014923    
C      2.1296465     0.4838182     3.9482510    
C      3.0245957    -0.6910299     3.5580464    
C      2.9147150    -1.0926122     2.0743230    
O      3.9732259    -1.0286801     1.3991628    
O      1.8246378    -1.5013872     1.6246789    
O     -1.3839687     0.9406064     5.0064727    
O     -4.9005844     0.8573307    -2.8503735    
H      3.4276889    -4.3585111    -0.4222889    
H      4.1740504    -2.9252221     0.1602317    
H      3.5543910    -0.9556597    -0.3996832    
H     -0.3955336    -4.0387609    -3.0356002    
H     -2.2100590    -2.6034060    -3.8989904    
H     -2.3175562     0.2934900    -4.9587713    
H     -3.3153116    -0.4981481    -3.7387473    
H     -2.0946200     2.2315144    -3.6898594    
H      0.0823094     0.8680101    -2.9177536    
H     -1.8532881    -0.5298631     1.0338492    
H     -0.2909712     3.3769621     0.3996378    
H     -1.2377247     3.3869270    -1.8877308    
H     -2.8268464    -0.5138880    -1.2205231    
H      0.1586542    -0.5190611     2.0878018    
H      0.5079884    -0.8950568     4.3280964    
H      2.4030958     0.8416381     4.9458076    
H      2.2653786     1.3168482     3.2507083    
H      2.7560131    -1.5616061     4.1624352    
H      4.0690381    -0.4307322     3.7411097    
