18

C      0.0357007    -0.0934082    -0.1780414    
C     -0.7728719    -0.6855043     0.7921126    
C     -0.9767178    -0.0511937     2.0034918    
C     -0.3671380     1.1660736     2.2644395    
C      0.4443012     1.7544470     1.3068312    
C      0.6413611     1.1349763     0.0865765    
C      0.2465256    -0.7611753    -1.4734711    
N      0.2957463    -0.0387320    -2.5680335    
N      0.3804648    -2.0664937    -1.5083269    
H     -1.2745953    -1.6190664     0.5921760    
H     -1.6123865    -0.5053251     2.7474799    
H     -0.5237895     1.6554437     3.2132250    
H      0.9227222     2.6991218     1.5133388    
H      1.2956097     1.5914841    -0.6392238    
H      0.4498218    -0.4643597    -3.4710878    
H      0.1520367     0.9581768    -2.5308896    
H      0.3839677    -2.6045239    -0.6560409    
H      0.5087060    -2.5585859    -2.3809966    
