34

P     -1.2597720     3.3821215     2.0292908    
O     -0.0735127     4.0786028     2.6810294    
O     -2.3794362     4.2957049     1.5850742    
O     -1.7167981     2.1359545     2.7779557    
O      3.5016366     1.4034751    -0.0934526    
C      2.7341140     2.3987810    -0.7158910    
C      1.2386722     2.0553586    -0.7358152    
O      1.0879375     0.7295260    -1.2377475    
C      0.5524863     2.0886701     0.6482970    
O     -0.6455144     2.8063661     0.5303050    
C      0.3146364     0.6116448     0.9674293    
C      0.1542788     0.0252263    -0.4326562    
N      0.4248930    -1.3747052    -0.5267407    
C      1.5378126    -2.0430805    -0.0892084    
N      1.5120697    -3.3189364    -0.3212903    
C      0.3113649    -3.5391744    -0.9550751    
C     -0.3169307    -4.6951535    -1.4639006    
N      0.2190809    -5.9131804    -1.4092929    
N     -1.5216459    -4.5426456    -2.0443052    
C     -2.0554997    -3.3371986    -2.1133519    
N     -1.5734155    -2.1848011    -1.6775251    
C     -0.3778444    -2.3247143    -1.0952624    
H      3.3489548     0.5812665    -0.5859344    
H      3.0726983     2.5453905    -1.7494193    
H      2.8746432     3.3202348    -0.1493214    
H      0.6987323     2.7594761    -1.3828535    
H      1.1661222     2.5739331     1.4201431    
H     -0.5680649     0.5125073     1.5936521    
H      1.1872432     0.1989546     1.4720704    
H     -0.8681352     0.1949505    -0.8035093    
H      2.3441866    -1.5338660     0.3985664    
H     -0.3046020    -6.6877773    -1.7793638    
H      1.1065334    -6.0357695    -0.9544371    
H     -3.0230279    -3.2787253    -2.5937020    
