30

C      0.1481218    -2.5051329     1.7462604    
C      0.7024203    -1.4635389     2.4687481    
C      2.0842053    -1.4138568     2.7199037    
C      2.8786101    -2.4284806     2.1742143    
C      2.3223337    -3.4494926     1.4303256    
C      0.9521817    -3.4985763     1.2172864    
N      2.6298960    -0.4520525     3.5239339    
S     -0.3367879    -0.1414678     3.0809666    
C     -1.2648043     0.3362966     1.5950141    
C     -0.3557137     0.7859617     0.4656909    
C     -1.1716292     1.1188781    -0.7785226    
C     -0.3355498     1.5964520    -1.9455503    
P     -1.4687222     1.9105111    -3.4144779    
O     -0.5761335     2.4539808    -4.5310361    
O     -2.5043070     2.9287069    -2.9368960    
O     -2.0911890     0.5565934    -3.7608074    
H     -0.9207713    -2.5325120     1.5793903    
H      3.9447001    -2.3958373     2.3411458    
H      2.9578953    -4.2150947     1.0115044    
H      0.5094399    -4.2938616     0.6389183    
H      2.0337445     0.3427952     3.7016268    
H      3.6081520    -0.2527052     3.3855253    
H     -1.9147062     1.1510747     1.9175175    
H     -1.8855504    -0.5044025     1.2801675    
H      0.3558074    -0.0079789     0.2159375    
H      0.2102769     1.6710294     0.7684286    
H     -1.9103549     1.9009654    -0.5724803    
H     -1.7329657     0.2452965    -1.1299446    
H      0.4005757     0.8487593    -2.2577713    
H      0.1850739     2.5333660    -1.7237963    
