50

N     -1.9724707     0.4973974     1.8998105    
C     -3.0405670     1.2721874     1.6832358    
O     -4.1847182     0.9277390     1.9566004    
N     -2.8419582     2.5814003     1.2113871    
C     -1.6541492     3.1213208     0.8080340    
O     -1.5908081     4.2643707     0.3809420    
C     -0.4942830     2.2435386     1.0469728    
N      0.7096918     2.6784300     0.8274773    
C      1.7343142     1.8124107     0.9874083    
C      3.0360729     2.2929526     0.7611773    
C      4.1361677     1.4845930     0.8962314    
C      5.5127664     2.0142663     0.6558108    
C      3.9438936     0.1328710     1.2728483    
C      5.1231065    -0.7661594     1.4381907    
C      2.6721591    -0.3542849     1.4974548    
C      1.5400064     0.4551421     1.3672718    
N      0.2553910     0.0413456     1.6387754    
C     -0.7772620     0.9103698     1.5149502    
C     -0.0815870    -1.3122344     2.0365013    
C     -0.9041743    -2.0689439     0.9665001    
O     -1.6452040    -3.0911050     1.5954589    
C     -0.0576048    -2.7551335    -0.1281993    
O      1.3162809    -2.5526728     0.0582450    
C     -0.5055608    -2.3075937    -1.5314791    
O      0.0751498    -3.2092325    -2.4463573    
C     -0.0972213    -0.8613503    -1.8471650    
O     -0.9821787    -0.2652824    -2.7609652    
P     -2.1630542     0.7061378    -1.9910763    
O     -1.3398781     1.7868917    -1.2913745    
O     -2.8757060    -0.2179455    -1.0147601    
O     -3.0042252     1.1979531    -3.1426181    
H     -3.6837585     3.0904344     0.9627257    
H      3.1210089     3.3277005     0.4705699    
H      5.4657511     3.0505551     0.3374536    
H      6.0118822     1.4302381    -0.1137234    
H      6.1039015     1.9497659     1.5666196    
H      4.8091366    -1.7531240     1.7595164    
H      5.8104299    -0.3499407     2.1706490    
H      5.6574198    -0.8557157     0.4950567    
H      2.5645398    -1.3937210     1.7508079    
H     -0.7254259    -1.2321122     2.9147419    
H      0.8176515    -1.8722933     2.2691151    
H     -1.5837946    -1.3560346     0.4847744    
H     -2.4249565    -2.7036446     2.0157705    
H     -0.2862593    -3.8308289    -0.0559954    
H      1.7723115    -3.0262266    -0.6554809    
H     -1.6031030    -2.3457155    -1.5833345    
H     -0.2010067    -2.9725653    -3.3424143    
H      0.9011730    -0.8363393    -2.3005110    
H     -0.0845701    -0.2558049    -0.9332885    
