147

C     -3.6817535     4.5043331    -2.1441629    
C     -2.9465509     5.3106421    -3.2298884    
O     -3.4049672     4.8605493    -4.4754722    
C     -1.4326099     5.1353785    -3.0774237    
O     -0.8094065     6.0213341    -3.9734768    
C     -0.9974806     5.4016586    -1.6252737    
O      0.3861918     5.0906865    -1.5861391    
C     -1.8324459     4.5199071    -0.6802839    
O     -3.2112881     4.8396110    -0.8673997    
C     -1.5199097     4.6800682     0.8172873    
O     -1.2533237     3.4516127     1.4450136    
C      1.2619543     5.9783429    -0.9564954    
C      2.5716429     5.9774722    -1.7605245    
O      2.2619700     6.3327203    -3.0801764    
C      3.2022906     4.5837931    -1.6750267    
O      4.4439215     4.6464725    -2.3406837    
C      3.3464931     4.1596274    -0.1987247    
O      3.7511199     2.7959573    -0.1628483    
C      1.9975578     4.3012432     0.5214750    
O      1.5048978     5.6308119     0.3792608    
C      2.0478433     3.9785203     2.0265385    
O      1.4883063     2.7262201     2.3175339    
C      5.0992209     2.5454116     0.1437574    
C      5.4558932     1.2140630    -0.5447420    
O      5.1135755     1.2481107    -1.9048000    
C      4.7409050     0.0591545     0.1667471    
O      5.1527635    -1.1788082    -0.3654729    
C      5.0229401     0.0897016     1.6755913    
O      4.2040394    -0.8904632     2.2930217    
C      4.6583807     1.4851493     2.2204922    
O      5.3621207     2.5018741     1.5133388    
C      5.0257973     1.6407128     3.6947212    
O      4.5139399     2.8660289     4.1570615    
C      4.8177582    -1.8386443     3.1370821    
C      5.3457214    -3.0735282     2.3628292    
O      6.4298164    -2.7795628     1.5323743    
C      4.1544620    -3.6865374     1.6197831    
O      4.4968170    -4.7950143     0.8314127    
C      3.0535772    -4.0472436     2.6391458    
O      1.9379819    -4.4690217     1.8721891    
C      2.7050952    -2.8417691     3.5319336    
O      3.8843539    -2.2493452     4.0870394    
C      1.8364506    -3.2541451     4.7269010    
O      1.4489967    -2.1590270     5.5098024    
C      1.2480656    -5.6271213     2.2576482    
C      1.0474453    -6.4903609     0.9923470    
O      2.2802533    -6.8056557     0.4178645    
C      0.0951569    -5.7547286     0.0366709    
O     -0.1955702    -6.6075302    -1.0401441    
C     -1.1946089    -5.3577798     0.7821384    
O     -1.9595315    -4.5532524    -0.1062173    
C     -0.8717917    -4.5872775     2.0725355    
O      0.0317212    -5.3332087     2.8814582    
C     -2.1081636    -4.3280116     2.9361608    
O     -1.8706917    -3.1833921     3.7215354    
C     -3.2590630    -4.9647677    -0.4186078    
C     -3.4806516    -4.8213214    -1.9343550    
O     -2.4707787    -5.5368764    -2.5917703    
C     -3.4850667    -3.3400786    -2.3260048    
O     -3.8042133    -3.2594034    -3.6936175    
C     -4.5000875    -2.5844839    -1.4638474    
O     -4.3686864    -1.2124733    -1.8018614    
C     -4.2360134    -2.8391066     0.0291623    
O     -4.2221994    -4.2423556     0.2977674    
C     -5.3468961    -2.2492391     0.9088524    
O     -6.6070201    -2.7833796     0.5945261    
C     -5.5407746    -0.4420643    -1.8641458    
C     -5.6342806     0.2120720    -3.2552034    
O     -5.4846343    -0.7996034    -4.2160136    
C     -4.5570080     1.2895324    -3.3980671    
O     -4.7766686     1.9527704    -4.6180571    
C     -4.6102274     2.2663460    -2.2138865    
O     -3.5144066     3.1447375    -2.4184924    
C     -4.5257199     1.4825287    -0.8902839    
O     -5.5773756     0.5177400    -0.8488632    
C     -4.6915830     2.3486045     0.3674324    
O     -3.7218759     1.9888926     1.3350121    
H     -4.7458571     4.7765805    -2.1475433    
H     -3.1848777     6.3747909    -3.0862741    
H     -2.8902518     5.3097112    -5.1647216    
H     -1.1713348     4.0942358    -3.3199118    
H      0.1460989     6.0405944    -3.7939699    
H     -1.1626714     6.4586194    -1.3796725    
H     -1.6663980     3.4703853    -0.9614564    
H     -2.3727347     5.1884077     1.2819323    
H     -0.6269480     5.2911239     0.9556798    
H     -2.0501557     2.8843792     1.4025511    
H      0.8444139     6.9933009    -0.9251040    
H      3.2592272     6.7048852    -1.3065784    
H      3.0722338     6.2607492    -3.6098936    
H      2.5264855     3.8754080    -2.1718888    
H      4.7824907     3.7538838    -2.5035779    
H      4.0925040     4.7919915     0.2961752    
H      1.2914291     3.6055111     0.0465977    
H      1.5174912     4.7806815     2.5510086    
H      3.0779881     3.9478031     2.3886616    
H      0.5292814     2.7671619     2.1507615    
H      5.7422643     3.3525859    -0.2331340    
H      6.5381500     1.0629689    -0.4987477    
H      4.1557948     1.3936830    -1.9664585    
H      3.6536137     0.1787126     0.0389311    
H      5.2098999    -1.0983175    -1.3320448    
H      6.0834094    -0.1191978     1.8572187    
H      3.5757049     1.6287442     2.1118851    
H      6.1200934     1.6224801     3.7858274    
H      4.5870230     0.7995182     4.2418861    
H      4.6727458     2.9411457     5.1087803    
H      5.6423036    -1.3814827     3.7021680    
H      5.7239136    -3.7802792     3.1128348    
H      6.1037173    -2.3074545     0.7406416    
H      3.7476998    -2.9453257     0.9234975    
H      5.1042871    -5.3743669     1.3146546    
H      3.4059921    -4.8742772     3.2720116    
H      2.1774796    -2.0933722     2.9288006    
H      2.4003917    -3.9769717     5.3325927    
H      0.9166722    -3.7187348     4.3676228    
H      2.2466505    -1.6780529     5.7738820    
H      1.8194900    -6.1965069     3.0025899    
H      0.5913211    -7.4459892     1.2688679    
H      2.7919667    -5.9880936     0.2688022    
H      0.5847525    -4.8342242    -0.3151276    
H     -0.8660405    -6.1903987    -1.6133591    
H     -1.7434874    -6.2740803     1.0364893    
H     -0.4178491    -3.6238539     1.8051914    
H     -2.2645575    -5.2147715     3.5592314    
H     -2.9784639    -4.1741156     2.2866238    
H     -2.5089159    -3.1478438     4.4472778    
H     -3.4165394    -6.0121011    -0.1280431    
H     -4.4683372    -5.2420840    -2.1771074    
H     -2.5359354    -5.3408915    -3.5402479    
H     -2.4857042    -2.9171974    -2.1406991    
H     -4.2215724    -2.3996651    -3.8782832    
H     -5.5103765    -2.9381559    -1.7109789    
H     -3.2683073    -2.3980343     0.3010404    
H     -5.4107282    -1.1742518     0.7352283    
H     -5.0959904    -2.4341699     1.9589162    
H     -6.5871293    -3.7349989     0.7743251    
H     -6.4252643    -1.0688433    -1.6948593    
H     -6.6191695     0.6925765    -3.3466860    
H     -5.4753141    -0.3786941    -5.0907364    
H     -3.5677719     0.8070384    -3.3929525    
H     -4.2463145     2.7678090    -4.6396498    
H     -5.5569757     2.8226589    -2.2456594    
H     -3.5557431     0.9692474    -0.8451285    
H     -5.7058567     2.1824292     0.7344187    
H     -4.5649323     3.4058687     0.1155905    
H     -4.1222406     1.9846807     2.2150932    
