20

C      0.3462101    -0.6050751    -1.1818011    
C     -0.3435138    -1.1680155     0.0770368    
C     -0.7954288     0.0109643     0.9462563    
C      0.4470895     0.8588022     1.2986850    
C      1.1389798     1.2750310    -0.0076690    
O      0.7616009    -1.6128166    -2.0335676    
O     -1.4370211    -1.9849019    -0.2410709    
O     -1.7305411     0.7840907     0.2353210    
O      0.0718276     2.0325450     1.9771070    
O      1.4699163     0.1561201    -0.8023630    
H     -0.3803508     0.0099859    -1.7363602    
H      0.4036945    -1.7492355     0.6456043    
H     -1.2652447    -0.3875255     1.8598557    
H      1.1403433     0.2520808     1.8943647    
H      2.0799561     1.7820646     0.2031787    
H      0.4730585     1.9516079    -0.5574335    
H      1.6166962    -1.9539520    -1.7247097    
H     -1.2472103    -2.4509279    -1.0713394    
H     -1.8271298     1.6308756     0.7019489    
H     -0.1089343     1.8354740     2.9074979    
