71

P     -0.8126553    -1.7647343     1.3450947    
O     -2.0114644    -1.5931943     2.1936467    
O      0.0685181    -2.9587742     1.4465902    
O     -1.2951824    -1.5634098    -0.2011526    
C     -0.4805943    -2.0675622    -1.2381491    
C      0.5030301    -1.0057384    -1.7463318    
O      1.2780450    -1.5040545    -2.8198927    
C     -0.1994104     0.2863719    -2.2303607    
O      0.2660817     1.4343501    -1.5789172    
C      0.1660132     0.3943019    -3.7365223    
O      1.0169791     1.4631155    -4.0061422    
C      0.8621061    -0.9464172    -4.0483038    
N      0.0208612    -1.8508309    -4.7894766    
C     -1.3209147    -2.1030315    -4.6643090    
N     -1.7595357    -3.0354030    -5.4521994    
C     -0.6544000    -3.4558696    -6.1555295    
C     -0.4523685    -4.4256370    -7.1614936    
N     -1.4196769    -5.1998699    -7.6498967    
N      0.7923945    -4.5578453    -7.6528883    
C      1.7582312    -3.7883707    -7.1851690    
N      1.6992727    -2.8572788    -6.2472675    
C      0.4680773    -2.7229785    -5.7465197    
O      0.2072525    -0.4927657     1.5699718    
P     -0.4058817     0.9930480     1.8646161    
O     -1.0183411     1.1068695     3.2065367    
O     -1.1587237     1.4509039     0.6587155    
O      1.0013313     1.8062676     1.9861374    
C      2.2038202     1.5533323     1.2690283    
C      3.3076469     1.0798670     2.2292143    
O      3.5147821     2.0070506     3.2912104    
C      2.9882370    -0.2462522     2.9429082    
O      4.1540930    -0.8893709     3.3869178    
C      2.2097069     0.2271674     4.1908622    
O      2.4165526    -0.5504329     5.3201058    
C      2.7198271     1.6879891     4.3840412    
N      1.6051092     2.6519314     4.5288365    
C      0.5356298     2.3122581     5.2459288    
C     -0.5556720     3.1630020     5.3321095    
C     -1.8312199     2.7784795     6.0212283    
O     -2.6966014     3.6116607     6.1933922    
C     -1.9743226     1.3474071     6.4055118    
C     -0.4959418     4.3946188     4.6804294    
C      0.6477645     4.7369054     3.9768054    
C      1.6819015     3.8304162     3.9026131    
H     -1.1577160    -2.3865287    -2.0352039    
H      0.0816002    -2.9314220    -0.8675813    
H      1.1902452    -0.7706387    -0.9244913    
H     -1.2803979     0.1782157    -2.0857209    
H     -0.2518016     1.5507763    -0.7470723    
H     -0.7365333     0.5035682    -4.3515618    
H      1.1089122     1.9832715    -3.1852795    
H      1.7646798    -0.7978192    -4.6528214    
H     -1.9426904    -1.5575294    -3.9821659    
H     -1.1888388    -5.8741999    -8.3591256    
H     -2.3482468    -5.1242659    -7.2732063    
H      2.7319111    -3.9376830    -7.6312100    
H      2.4944614     2.5019678     0.8096614    
H      2.0424378     0.8064301     0.4894190    
H      4.2532440     1.0268569     1.6837920    
H      2.3622692    -0.9005792     2.3323726    
H      4.4564295    -1.5418997     2.7416551    
H      1.1421727     0.2226125     3.9512354    
H      3.2873116    -0.9848565     5.2343666    
H      3.3287310     1.7587928     5.2960657    
H      0.5630034     1.3618174     5.7543969    
H     -2.9645185     1.1745064     6.8167698    
H     -1.2186665     1.0592455     7.1308719    
H     -1.8408928     0.7434161     5.5059723    
H      0.7308286     5.6882075     3.4776961    
H     -1.3483731     5.0546428     4.7448166    
H      2.5931290     4.0173142     3.3534611    
