13

O     -0.0567530     0.0257888     3.1583754    
C     -1.0682990     0.5024436     1.1165604    
C     -1.0834740     0.5096837    -0.2703658    
C     -0.0000424    -0.0006408    -0.9802189    
C      1.0907498    -0.5140504    -0.2883198    
C      1.0993298    -0.5175464     1.1041054    
C      0.0210176    -0.0102392     1.8354497    
Br    -2.5165099     1.1851670     2.1094024    
Br    -2.5682340     1.2090666    -1.1884336    
Br    -0.0121687     0.0047833    -2.8655739    
Br     2.5647955    -1.2085885    -1.2362199    
Br     2.5950551    -1.2211911     2.0334506    
H      0.7148347    -0.3303984     3.6345690    
