104

C     -2.9649762     1.7455427    -4.0351032    
C     -3.5379784     2.9938145    -3.8255086    
C     -4.8088592     3.1068532    -3.2963647    
C     -5.5286993     1.9685433    -2.9433185    
C     -4.9570164     0.7169063    -3.1657784    
C     -3.6958139     0.6076197    -3.7143756    
C      3.0699512     0.0372915     2.5913961    
C      2.2502262    -0.9443724     3.1360466    
C      2.7924286    -2.1062160     3.6443146    
C      4.1729131    -2.3008274     3.6490613    
C      4.9940911    -1.2959662     3.1438137    
C      4.4460641    -0.1470368     2.6076410    
C      2.4490602     1.2582314     1.9653284    
O      1.4864201     0.9475884     0.9621968    
C      2.0295303     0.3327973    -0.1837339    
C      0.9747440     0.4378123    -1.2956191    
C      0.7409781     1.9199282    -1.6472172    
C     -0.5959455     2.1117149    -2.4039206    
C     -1.7440744     1.8690775    -1.4168320    
O     -2.1905627     0.7498936    -1.2012176    
N     -2.1582730     2.9647554    -0.7759795    
C     -3.2482444     2.9811235     0.1759150    
C     -2.7079405     3.1356823     1.6182280    
C     -3.8453359     3.2379367     2.6316681    
C     -1.8019465     1.9578869     1.9699502    
C     -4.1259255     4.1791546    -0.1992309    
O     -3.6228339     5.1832295    -0.6958669    
N     -5.4253444     4.0532470     0.0648143    
C     -6.3860989     5.1134277    -0.1474968    
O     -0.6390993     1.2219817    -3.4994310    
C     -1.5482364     1.6191776    -4.5268524    
O      1.8169840     2.4265399    -2.3855020    
O      1.4527709    -0.2578229    -2.4200256    
C      2.3316777    -1.1586938     0.0276674    
O      1.4899916    -1.9296791     0.4682107    
N      3.5592472    -1.5352956    -0.3382865    
C      4.0636094    -2.8867008    -0.2294276    
C      4.0749191    -3.5849465    -1.6126900    
C      2.6753445    -3.5629784    -2.2212681    
C      4.5811142    -5.0213425    -1.5063816    
C      5.4955300    -2.7764177     0.3001673    
O      6.1939957    -1.8113089     0.0037378    
N      5.9182232    -3.7976814     1.0446516    
C      7.2689275    -3.9088831     1.5489346    
S     -9.2366546     2.8636804    -1.7710565    
C     -8.5828945     1.5352451    -0.8942896    
C     -7.3295819     1.2248611    -1.3022996    
C     -6.8557538     2.0788709    -2.3392918    
C     -7.7893961     3.0141031    -2.6831126    
S      6.2882414    -5.2671124     5.2807017    
C      5.9115514    -3.6470300     4.8513302    
C      4.7393901    -3.5489160     4.1579654    
C      4.1383490    -4.8263902     3.9662222    
C      4.8608868    -5.8365051     4.5058441    
H     -2.9836158     3.8889390    -4.0697155    
H     -5.2304687     4.0855381    -3.1253525    
H     -5.5084408    -0.1763038    -2.9138794    
H     -3.2567629    -0.3663050    -3.8687117    
H      1.1800687    -0.8028867     3.1196726    
H      2.1414873    -2.8644402     4.0520899    
H      6.0647129    -1.4289677     3.1350645    
H      5.0952335     0.6078558     2.1888236    
H      3.2279662     1.9045035     1.5365337    
H      1.8798322     1.8235337     2.7081723    
H      2.9400740     0.8628350    -0.5022434    
H      0.0456380    -0.0054673    -0.9152108    
H      0.6897955     2.5013094    -0.7213665    
H     -0.6248162     3.1493228    -2.7676905    
H     -1.8263809     3.8859828    -1.0334026    
H     -3.7887346     2.0354549     0.0749690    
H     -2.1196159     4.0592212     1.6463018    
H     -3.4303021     3.2909014     3.6344257    
H     -4.4828423     2.3592532     2.5751148    
H     -4.4425701     4.1293855     2.4652646    
H     -0.9506831     1.8817937     1.2964992    
H     -2.3551163     1.0232402     1.9092269    
H     -1.4228519     2.0708800     2.9820860    
H     -5.7709599     3.1876654     0.4496749    
H     -7.1579857     4.7884410    -0.8444619    
H     -5.8558358     5.9685578    -0.5617850    
H     -6.8490909     5.3944094     0.7978472    
H     -1.2087349     2.5739598    -4.9518141    
H     -1.4632912     0.8335842    -5.2796925    
H      2.0754147     1.7510403    -3.0376778    
H      0.7483503    -0.2322949    -3.0905552    
H      4.2426033    -0.8649800    -0.6659089    
H      3.4101049    -3.4270212     0.4618222    
H      4.7504927    -3.0130676    -2.2584672    
H      2.6840736    -4.0508289    -3.1920473    
H      2.3222732    -2.5428278    -2.3499961    
H      1.9730969    -4.0822631    -1.5728167    
H      5.6151786    -5.0523896    -1.1765261    
H      4.5228284    -5.4965011    -2.4821562    
H      3.9637855    -5.5899775    -0.8146553    
H      5.2764355    -4.5392990     1.2787774    
H      7.2657221    -3.9288464     2.6382630    
H      7.8276044    -3.0419870     1.2010748    
H      7.7345070    -4.8185002     1.1724320    
H     -9.1729346     1.0675340    -0.1328314    
H     -6.7405908     0.4318271    -0.8779739    
H     -7.7228064     3.7661947    -3.4435929    
H      6.5633225    -2.8559343     5.1626151    
H      3.2167738    -4.9682192     3.4312585    
H      4.6505042    -6.8866239     4.5004184    
