104

H     -0.6382228    -5.4347142     5.0834006    
H     -1.1714896    -3.7425363     5.2955886    
H      0.3188422    -4.0997692     4.4006435    
H     -2.7147614    -6.0869736     3.8582200    
H     -3.2061163    -5.0457200     2.5039092    
H     -3.3559228    -4.4528151     4.1752387    
H      0.4714425    -4.0366451     1.3276626    
H      0.5366305    -1.3022719     2.2479526    
H      2.9566461    -1.2107045     1.6213378    
H      2.9381741    -2.9623911     1.3260136    
H      2.9904571    -4.5193203     3.1631914    
H      2.5298483    -0.3526449     3.9412851    
H      3.2970588    -4.9360686     5.5709129    
H      2.8269727    -0.7650249     6.3445467    
H      3.2112221    -3.0594888     7.1686878    
H      0.8020723     0.1581970     0.4209810    
H      0.5450536    -1.0375951    -2.2504242    
H     -1.1830986     0.8811570    -2.6137491    
H     -1.1722936     1.0674394    -0.8759159    
H     -1.6517993    -1.6086889    -0.9474315    
H     -2.2786890    -1.2011006    -2.5371965    
H     -4.1165919    -1.1371279    -1.0216948    
H     -3.7447782     0.5517112    -1.3849625    
H     -2.6494200     0.8369700     0.7781511    
H     -2.6322888    -0.9058705     1.0637834    
H     -4.8870280     0.9650863     1.3221646    
H      1.8170223     0.1155172    -3.7165476    
H      2.7576579     2.7785624    -2.9211196    
H      4.9783792     2.2144243    -3.8984257    
H      4.4177433     0.5702987    -4.2139642    
H      4.1176653     0.2365342    -1.7446583    
H      6.5463990     0.0294569    -1.2787459    
H      6.9079088     1.0872241    -2.6420260    
H      6.1796243    -0.4949700    -2.9213021    
H      3.8368968     2.5244625    -0.9571530    
H      5.4354219     2.9831072    -1.5685773    
H      5.2843436     1.8567619    -0.2194023    
H      3.1399210     3.1661650    -5.2968291    
H      2.6360557     1.4563745    -6.7789752    
H      0.4230291     1.7855949    -5.2086934    
H      0.8620116     3.2699872    -6.0672098    
H      1.8032761     4.9807997    -4.3837590    
H      1.5245119     5.7869758    -2.0766000    
H     -0.1208313     5.1235319    -2.1545629    
H      0.9437942     7.3554220    -3.9556620    
H     -1.4106821     7.6239689    -4.6354873    
H     -1.9075441     6.3604316    -3.5042864    
H     -0.9173342     5.9534074    -4.9007476    
H      0.7899249     7.9378606    -1.5086581    
H     -0.9340601     7.5808634    -1.5680372    
H     -0.4711265     10.0174703    -1.7866955    
H     -1.2506998     9.4082598    -3.2424136    
H      0.4878192     9.7135683    -3.2363744    
H     -3.9607884    -2.4387685     1.2759218    
H     -5.4406161    -4.2240237     1.4460753    
H     -6.7808764    -3.0997860     1.7787367    
H     -5.6094128    -3.4661869     3.0491892    
S     -1.2347472    -3.2067742     2.4488651    
O     -1.4115612    -1.9810490     3.1962031    
O     -2.1019458    -3.3165145     1.2920120    
N     -1.4019289    -4.5656808     3.3658876    
C     -0.6840164    -4.4516917     4.6223561    
C     -2.7594361    -5.0642372     3.4929711    
N      0.3599148    -3.3339792     2.0528170    
C      0.9981029    -2.0912599     1.6491944    
C      0.7338679    -1.8691252     0.1590604    
O      0.5889829    -2.8309689    -0.5902118    
C      2.5116497    -2.1583460     1.9263425    
C      2.7430874    -2.4092122     3.3895245    
C      2.9559183    -3.6974777     3.8614062    
C      2.6947063    -1.3589790     4.2971160    
C      3.1258583    -3.9313986     5.2154825    
C      2.8620550    -1.5914759     5.6507720    
C      3.0785572    -2.8789088     6.1134462    
N      0.6903376    -0.6002922    -0.2382483    
C      0.3982714    -0.1767546    -1.5943994    
C      1.3547587     0.9737199    -1.9199256    
O      1.5296700     1.8784351    -1.1113380    
C     -1.0456675     0.3388812    -1.6771209    
C     -2.0661965    -0.7960697    -1.5479436    
C     -3.3724345    -0.3488728    -0.8960860    
C     -3.2005220    -0.0885273     0.6071235    
N     -4.4683429     0.0472171     1.2894908    
N      1.9649280     0.9018121    -3.1012273    
C      2.8819465     1.9150898    -3.5791255    
C      4.3323301     1.4161123    -3.5305017    
C      4.8090846     0.9899833    -2.1384622    
C      6.1976820     0.3621550    -2.2529142    
C      4.8422859     2.1660599    -1.1639013    
C      2.5022668     2.3146049    -5.0192369    
O      2.7833859     1.2146081    -5.8557199    
C      1.0128294     2.7017178    -5.1468905    
C      0.4570097     3.5080189    -3.9845880    
O     -0.4860361     3.1001337    -3.3147233    
N      1.0570345     4.6857341    -3.7733274    
C      0.6669356     5.6117451    -2.7337317    
C      0.1619578     6.9433149    -3.3078187    
C     -1.0962875     6.7102963    -4.1399057    
C     -0.0863968     7.9300377    -2.1610125    
C     -0.3483543     9.3542174    -2.6395319    
C     -5.2965006    -0.9489807     1.6444605    
S     -6.8031785    -0.5283634     2.2582846    
N     -4.9267238    -2.2247665     1.4942186    
C     -5.7322730    -3.3223331     1.9737199    
