9

S     -1.0349786     0.9184379    -1.5642997    
P      0.2923392    -0.5815462     0.5684770    
O      1.6853130    -0.8644808     1.1175770    
O     -0.3910557    -1.8116829    -0.0139787    
O     -0.5925995     0.1995283     1.5312471    
C      0.5809612     0.5687692    -0.8905019    
H     -0.6465795     1.6805966    -2.5974429    
H      1.0506583     1.4892280    -0.5404753    
H      1.2019250     0.0675354    -1.6331846    
