95

N      3.7184564     4.4484364     3.2724491    
C      2.4217036     3.8484627     2.8956467    
C      1.9740928     4.6003870     1.6194902    
O      2.7890097     5.3461841     1.0872381    
C      1.3720760     3.9274476     4.0248411    
O      0.2236123     3.1836248     3.6872791    
N      0.7353356     4.3266772     1.2300872    
C     -0.0519614     4.8969473     0.1555713    
C     -0.5582704     3.8383333    -0.8253707    
O     -1.4381657     4.1111615    -1.6349186    
C      0.6206969     6.0247913    -0.6855559    
O     -0.3925423     6.7985997    -1.2830017    
C      1.6052509     5.4900005    -1.7237962    
N      0.0893011     2.6662686    -0.8075089    
C     -0.3625874     1.5132914    -1.5620742    
C     -1.1489289     0.6396745    -0.5742568    
O     -0.7003592     0.4962347     0.5711560    
C      0.8735173     0.7829812    -2.1056364    
C      0.5339320    -0.4849173    -2.8673327    
O     -0.1590034    -1.3743971    -2.3757713    
N      1.0447003    -0.5778340    -4.0920481    
N     -2.3154397     0.1274021    -0.9462927    
C     -3.1587251    -0.5486644     0.0269423    
C     -2.5429325    -1.8092530     0.6413828    
O     -3.0465614    -2.2968639     1.6499463    
C     -4.4459649    -0.8728613    -0.7415512    
C     -3.9725657    -0.9531297    -2.1895394    
C     -2.9275908     0.1556649    -2.2663001    
N     -1.4922935    -2.3376373     0.0115652    
C     -0.7774952    -3.4748621     0.5337881    
C      0.4566824    -3.0949131     1.3667746    
O      1.0910690    -3.9707958     1.9551036    
C     -0.3432527    -4.3913748    -0.6220141    
C     -1.5487125    -4.9167541    -1.3456838    
C     -2.2351402    -6.0239657    -0.8643236    
C     -2.0237622    -4.2708220    -2.4796482    
C     -3.3712393    -6.4811970    -1.5081721    
C     -3.1603551    -4.7267494    -3.1249732    
C     -3.8364376    -5.8332364    -2.6405432    
N      0.8320312    -1.8181787     1.3036017    
C      1.8665108    -1.2430252     2.1397837    
C      1.1384047    -0.3069344     3.1699404    
O      0.1999542    -0.8047529     3.8079395    
C      2.9034581    -0.4866477     1.3145216    
C      3.9578020    -1.3511111     0.6166186    
C      3.3411644    -2.3373439    -0.3729799    
C      4.9638235    -0.4455342    -0.0956238    
O      1.5503319     0.8700181     3.2658339    
H      3.6236310     5.0811336     4.0741142    
H      3.9791028     5.0218850     2.4276467    
H      4.4418792     3.7541248     3.4759784    
H      2.5303862     2.7836939     2.6554296    
H      1.0277620     4.9533074     4.1788049    
H      1.8102058     3.5382122     4.9500894    
H      0.4885042     2.2361124     3.6386238    
H      0.1993797     3.7585386     1.8930785    
H     -0.9455218     5.3577146     0.5990487    
H      1.1362044     6.7083826    -0.0059439    
H     -0.9482937     6.2152124    -1.8259598    
H      2.0146312     6.3303267    -2.2775236    
H      1.0995706     4.8274072    -2.4219022    
H      2.4164817     4.9613639    -1.2361570    
H      0.6676169     2.4494188    -0.0049576    
H     -1.0053663     1.8800275    -2.3650266    
H      1.4835545     0.4836467    -1.2476102    
H      1.4452974     1.4719516    -2.7249620    
H      0.8873854    -1.4184475    -4.6272243    
H      1.6260283     0.1442163    -4.4830372    
H     -3.3408015     0.1131066     0.8823803    
H     -5.1649480    -0.0644863    -0.6132129    
H     -4.8905721    -1.7984211    -0.3823936    
H     -4.7814945    -0.8063896    -2.8989302    
H     -3.5041591    -1.9201473    -2.3700836    
H     -2.1862372    -0.0357323    -3.0391550    
H     -3.3957841     1.1311790    -2.4327387    
H     -1.1137947    -1.9182276    -0.8361937    
H     -1.4534592    -4.0112929     1.2118689    
H      0.2481574    -5.2028769    -0.1961888    
H      0.2842585    -3.8078965    -1.2978204    
H     -1.8740215    -6.5267625     0.0217636    
H     -1.4922846    -3.4075069    -2.8508344    
H     -3.8945516    -7.3440888    -1.1237288    
H     -3.5207883    -4.2190183    -4.0068745    
H     -4.7224167    -6.1913030    -3.1415481    
H      0.1602742    -1.1382165     0.9562702    
H      2.3223100    -2.0641571     2.7067637    
H      3.4032748     0.1983269     2.0015932    
H      2.3611300     0.1141575     0.5816445    
H      4.4830766    -1.9275128     1.3865976    
H      4.1220735    -2.8298585    -0.9474141    
H      2.6694356    -1.8284776    -1.0606753    
H      2.7753427    -3.1039834     0.1499026    
H      5.4295379     0.2355463     0.6108941    
H      4.4656149     0.1355672    -0.8673352    
H      5.7424955    -1.0432710    -0.5614750    
