22

N      1.2258839    -1.9655600     1.1573493    
C      0.2151148    -0.9653804     1.5634211    
C     -0.3048125    -0.1575792     0.3804765    
C      0.7225618     0.8055574    -0.1891365    
P     -0.0264514     2.0408515    -1.3581614    
C     -0.6802015     0.9886394    -2.7328830    
O      1.0792010     2.9180054    -1.8845829    
O     -1.1625637     2.7599665    -0.6838143    
C     -0.9689620    -1.8117136     2.1972644    
O     -1.9132703    -1.2049983     2.6982155    
O     -0.7866520    -3.0470637     2.1114959    
H      2.1027985    -1.8958949     1.6752632    
H      1.4061602    -1.9405501     0.1520469    
H      0.6947055    -2.8662816     1.4197594    
H      0.5952186    -0.2898637     2.3302087    
H     -1.1675882     0.4257322     0.7138495    
H     -0.6605328    -0.8360702    -0.3977024    
H      1.5405050     0.3121609    -0.7142901    
H      1.1471041     1.4380855     0.5974174    
H     -1.0708442     1.6882644    -3.4702751    
H     -1.4853271     0.3541507    -2.3779316    
H      0.1218497     0.4071157    -3.1748590    
