24

Cl     1.3687151     1.7404561     4.0044950    
Cl    -0.2660107     4.5705765    -0.2721203    
O      0.7147543     4.2008948     2.4237196    
C      0.0898293     0.6329421     0.3701982    
C      0.5697680     0.6086314     1.6775835    
C      0.7766972     1.7886676     2.3626981    
C      0.5240951     3.0363859     1.7870810    
C      0.0467635     3.0367374     0.4724039    
C     -0.1706957     1.8659323    -0.2248229    
Cl    -2.8078080    -2.0931376    -2.9615778    
Cl     1.6219653    -4.2000378    -0.7424621    
O     -0.8233602    -4.1464729    -2.4698264    
C     -0.1379494    -0.6178606    -0.3668526    
C     -1.2310315    -0.7508603    -1.2208092    
C     -1.4412490    -1.9295375    -1.9068741    
C     -0.5775901    -3.0226098    -1.7807821    
C      0.5128821    -2.8641373    -0.9218535    
C      0.7352844    -1.6939379    -0.2250422    
H      1.0494738     4.0443562     3.3246004    
H      0.7592943    -0.3300281     2.1716572    
H     -0.5212444     1.9180741    -1.2416615    
H     -0.1436109    -4.8172210    -2.2777752    
H     -1.9352322     0.0555481    -1.3364045    
H      1.6023734    -1.6119927     0.4092205    
