42

C     -1.4057026    -4.4893175     1.4786278    
C     -0.6665518    -4.6180767     0.2875514    
C     -0.0999679    -3.5318277    -0.3388955    
C     -0.2958297    -2.2788578     0.2346108    
C     -1.0400957    -2.1508525     1.4360714    
C     -1.5920123    -3.2433443     2.0751577    
C     -1.9967736    -5.6852707     2.0935144    
N     -2.0526571    -5.7830111     3.4031482    
N     -2.4692505    -6.6375106     1.3220221    
N      0.1151719    -1.0440996    -0.1681115    
N     -1.0475078    -0.8118388     1.7149214    
C     -0.3434917    -0.1857635     0.7247267    
C     -0.1390670     1.2446014     0.6507592    
C     -0.6349359     2.0974038     1.6429341    
C     -0.4619521     3.4598562     1.5524628    
C      0.2071702     3.9983204     0.4637619    
C      0.7229130     3.1871745    -0.5352431    
C      0.5571923     1.7922436    -0.4479021    
O      1.0481208     1.0302456    -1.4326952    
C      1.4221166     3.7901019    -1.6841371    
C      2.6493188     3.3025014    -2.1233138    
C      3.2968339     3.8966159    -3.1910098    
C      2.7285217     4.9814203    -3.8376180    
C      1.5063996     5.4720808    -3.4089202    
C      0.8591845     4.8830692    -2.3386164    
H     -0.5010121    -5.5979802    -0.1298747    
H      0.4731003    -3.6373088    -1.2443232    
H     -2.1827756    -3.1219439     2.9680725    
H     -2.4658175    -6.5889155     3.8500133    
H     -1.6328055    -5.0792808     3.9888184    
H     -2.4673972    -6.5325836     0.3196021    
H     -2.8689660    -7.4786442     1.7119652    
H     -1.4951121    -0.3699656     2.5001555    
H     -1.1587994     1.6951216     2.4949283    
H     -0.8457954     4.1087656     2.3233769    
H      0.3493802     5.0658498     0.3921281    
H      0.8421433     0.0761102    -1.2462159    
H      3.1005657     2.4609646    -1.6213655    
H      4.2508389     3.5124904    -3.5204754    
H      3.2347825     5.4424736    -4.6726980    
H      1.0562080     6.3154463    -3.9115562    
H     -0.1001806     5.2605416    -2.0158077    
