157

N     -6.3315968    -2.3458956    -3.3575359    
C     -5.3515873    -1.2419259    -3.1759553    
C     -4.3816256    -1.4852383    -2.0089122    
O     -3.1710140    -1.4704543    -2.2051571    
C     -6.0958260     0.0725132    -2.9617946    
N     -4.9483659    -1.6940612    -0.8208718    
C     -4.2230057    -1.7173477     0.4396311    
C     -2.8816977    -2.4372021     0.2832503    
O     -1.8297252    -1.8953587     0.5974303    
C     -5.0921568    -2.3629618     1.5400228    
C     -6.2453058    -1.4224107     1.9264581    
C     -4.2273600    -2.6708747     2.7613821    
C     -7.3806514    -2.1530020     2.6380534    
N     -2.9441334    -3.6709700    -0.2327570    
C     -1.7730055    -4.5260068    -0.3450215    
C     -0.5514374    -3.6924716    -0.7506982    
O      0.5062216    -3.7477793    -0.1355265    
C     -2.0762682    -5.6374595    -1.3589303    
C     -1.0339519    -6.7635454    -1.4060532    
C     -1.6793160    -8.0284071    -1.9761328    
C      0.1824193    -6.3842278    -2.2490340    
N     -0.7196463    -3.0033556    -1.8923295    
C      0.3224424    -2.1822351    -2.4636172    
C      0.4899315    -0.8417639    -1.7388671    
O      1.6078320    -0.3929663    -1.4797945    
C      0.0006302    -1.9154444    -3.9458460    
C      1.0377104    -1.0523759    -4.5723766    
N      2.2127404    -1.5464340    -5.0752051    
C      1.1111941     0.3020085    -4.7542678    
C      2.9254630    -0.4899682    -5.5244853    
N      2.2882428     0.6370668    -5.3522571    
N     -0.6426265    -0.2108322    -1.4505049    
C     -0.6739862     1.0932600    -0.8128355    
C      0.2486368     1.1080236     0.4059793    
O      0.9656831     2.0851036     0.6359059    
C     -2.1231791     1.4485190    -0.4645918    
C     -2.3202417     2.9386373    -0.1714196    
C     -2.2238240     3.2749144     1.3177944    
N     -3.3658177     2.7200628     2.0193583    
C     -3.3810429     1.8772881     3.0441986    
N     -2.2766083     1.3584884     3.5615545    
N     -4.5746609     1.4322447     3.4720417    
N      0.2228231     0.0195436     1.1693375    
C      1.0517753    -0.1660216     2.3412353    
C      2.5222492     0.1913877     2.1320700    
O      3.2050438     0.5865425     3.0787813    
C      0.9779327    -1.6242616     2.8054937    
C     -0.3286322    -1.9648969     3.5324390    
C     -0.4936799    -3.4822351     3.5856940    
C     -0.3468291    -1.3821432     4.9437989    
N      3.0363383    -0.0341859     0.9185841    
C      4.4167786     0.2671136     0.6128912    
C      4.7083675     1.7746910     0.6058735    
O      5.8517254     2.1949615     0.7648322    
C      4.7815174    -0.3157915    -0.7535760    
C      4.7061013    -1.8470328    -0.8070412    
C      4.6811668    -2.2990731    -2.2657650    
C      5.8735066    -2.4927769    -0.0668570    
N      3.6588242     2.5484986     0.3235061    
C      3.6655246     3.9928224     0.4130463    
C      3.4516496     4.4224115     1.8754767    
O      4.2525459     5.1603029     2.4470421    
C      2.5683855     4.5626413    -0.4889951    
C      2.7373413     4.1265510    -1.9483872    
C      1.4559610     4.3849452    -2.7213159    
O      0.4025180     3.8200799    -2.4469699    
N      1.5421697     5.2733052    -3.7144381    
N      2.3435465     3.9528406     2.4455602    
C      2.0369226     4.1306471     3.8483393    
C      0.9749764     3.0826732     4.2775740    
O      0.9288442     2.7544417     5.4716932    
C      1.4855452     5.5342242     4.1155137    
O      0.2016235     2.6704326     3.3847479    
H     -6.9521714    -2.1119482    -4.1451848    
H     -6.9249537    -2.4768483    -2.5286824    
H     -5.8686335    -3.2355523    -3.5804945    
H     -4.7325699    -1.1689852    -4.0743605    
H     -5.3884227     0.8795660    -2.7954676    
H     -6.7633063     0.0265009    -2.1069133    
H     -6.6739158     0.3291419    -3.8445814    
H     -5.9480993    -1.5785685    -0.7125889    
H     -3.9760430    -0.6927367     0.7476898    
H     -5.5073522    -3.3023970     1.1635060    
H     -6.6622532    -0.9343550     1.0454479    
H     -5.8517044    -0.6422006     2.5769947    
H     -3.4790095    -3.4290450     2.5436852    
H     -4.8391898    -3.0364547     3.5805432    
H     -3.7037003    -1.7778003     3.0939536    
H     -8.1818986    -1.4595995     2.8810774    
H     -7.0433641    -2.6042149     3.5673627    
H     -7.7936628    -2.9429174     2.0150307    
H     -3.8378548    -4.1354930    -0.3145916    
H     -1.5309636    -4.9722071     0.6304290    
H     -2.1721575    -5.2069403    -2.3550732    
H     -3.0289129    -6.0852039    -1.0698763    
H     -0.6919143    -6.9754525    -0.3870356    
H     -0.9499843    -8.8330424    -2.0278898    
H     -2.0514030    -7.8448055    -2.9809522    
H     -2.5024034    -8.3633025    -1.3501340    
H      0.7163680    -5.5442736    -1.8143832    
H     -0.1183787    -6.1282510    -3.2621572    
H      0.8769183    -7.2199864    -2.3025154    
H     -1.6618355    -2.8102289    -2.2136682    
H      1.2757633    -2.7119508    -2.3536800    
H     -0.9612125    -1.4067076    -4.0054564    
H     -0.0557630    -2.8707612    -4.4696026    
H      2.4977991    -2.5126730    -5.0856788    
H      0.4058194     1.0634948    -4.4889823    
H      3.8955632    -0.5762581    -5.9697335    
H     -1.5336472    -0.6440514    -1.6804597    
H     -0.2635396     1.8474224    -1.5004552    
H     -2.4301445     0.8484695     0.3918131    
H     -2.7207716     1.1767182    -1.3345220    
H     -3.2983938     3.2573330    -0.5320219    
H     -1.5669188     3.5130906    -0.7103691    
H     -2.2254054     4.3616094     1.4442011    
H     -1.2900969     2.9050154     1.7367761    
H     -4.2570473     3.0659612     1.6885199    
H     -2.3406754     0.7814350     4.3840257    
H     -1.3621792     1.7875014     3.4154805    
H     -5.4108453     1.9207375     3.1948379    
H     -4.6160507     0.9385942     4.3490546    
H     -0.4133976    -0.7406441     0.9398991    
H      0.7191378     0.5099504     3.1393216    
H      1.8240047    -1.8143083     3.4702731    
H      1.0937890    -2.2634167     1.9255709    
H     -1.1546639    -1.5421437     2.9542477    
H     -1.4223175    -3.7514691     4.0811726    
H      0.3313658    -3.9298050     4.1360475    
H     -0.4848610    -3.8903636     2.5780372    
H     -0.1474198    -0.3119941     4.9415832    
H      0.4298924    -1.8471026     5.5489986    
H     -1.3036341    -1.5675998     5.4246690    
H      2.4400033    -0.2476560     0.1194205    
H      5.0495390    -0.1505982     1.4057422    
H      5.7880685     0.0201670    -1.0090133    
H      4.0830932     0.1030462    -1.4812163    
H      3.7713751    -2.1603849    -0.3303779    
H      4.5927640    -3.3805924    -2.3239537    
H      5.5958511    -1.9943956    -2.7683447    
H      3.8370789    -1.8398128    -2.7741973    
H      5.8854380    -2.1916897     0.9781448    
H      6.8181255    -2.1945831    -0.5166877    
H      5.7952591    -3.5763595    -0.1065614    
H      2.7252864     2.1404433     0.3374462    
H      4.6615629     4.3443030     0.1205977    
H      2.5806183     5.6497396    -0.4085818    
H      1.6071466     4.1939063    -0.1285286    
H      2.9190053     3.0498661    -1.9669772    
H      3.5865557     4.6318127    -2.4042283    
H      0.7235643     5.4733645    -4.2679945    
H      2.4106519     5.7222990    -3.9447164    
H      1.7279643     3.3070683     1.9531756    
H      2.9455761     3.9719874     4.4436096    
H      1.2357449     5.6261752     5.1690623    
H      0.5955049     5.6963055     3.5123095    
H      2.2415246     6.2710391     3.8549250    
