36

N     -1.5388330     0.8450609    -2.1283268    
C     -0.6364895     1.8796235    -2.0327341    
N     -0.9768328     2.8786253    -1.1561243    
C     -1.9755712     2.8472079    -0.1999411    
C     -2.8998199     1.7592032    -0.3881735    
C     -2.6270949     0.8122357    -1.3003798    
O      0.3263416     2.0155593    -2.7688029    
O     -2.0629486     3.7371763     0.6364639    
C     -1.3642862    -0.3575111    -2.9774225    
C      0.0724644    -0.6977982    -3.3854841    
O      0.0049991    -1.5896170    -4.4638898    
C      0.5657375    -1.3842164    -2.1023719    
C     -0.7032144    -2.1037157    -1.5983372    
O     -1.7943562    -1.4967351    -2.2870904    
O      1.6261634    -2.2573331    -2.3714984    
C     -0.8723142    -2.0233305    -0.0765515    
O     -0.7903306    -0.6872114     0.3891365    
P      0.6666372    -0.0929572     0.9130598    
O      1.6923836    -1.1734429     0.7805173    
O      0.8666818     1.1914386     0.1767967    
O      0.2002928     0.1626003     2.4152210    
P      1.4103842     0.5633588     3.5869560    
O      1.7663062    -0.7732532     4.1991867    
O      0.6381868     1.4849562     4.5039398    
O      2.5278836     1.2250982     2.8122826    
H     -0.2365928     3.5569104    -1.0056609    
H     -3.7525687     1.6956272     0.2629646    
H     -3.2602576    -0.0510551    -1.4417503    
H     -2.0135046    -0.2505398    -3.8545572    
H      0.6744532     0.1774979    -3.6367194    
H      0.7850039    -2.1674228    -4.4152837    
H      0.8545391    -0.6110766    -1.3844792    
H     -0.6807973    -3.1601402    -1.8905823    
H      2.1750420    -2.3283745    -1.5800954    
H     -0.0886670    -2.6176715     0.4045105    
H     -1.8626395    -2.3826978     0.2150460    
