45

C     -0.5801156    -1.1632912     0.2606912    
C     -0.8974170    -2.1903675     1.3603797    
C     -2.1763890    -2.9426224     0.9699143    
C     -3.3117898    -1.9375756     0.7105553    
C     -2.8499451    -0.8948603    -0.3163232    
C     -3.8897459     0.2034429    -0.5277043    
O      0.5484903    -0.4563328     0.6552416    
O      0.1295026    -3.1331655     1.5114732    
O     -2.6008882    -3.8051831     1.9919601    
O     -3.6844060    -1.2811988     1.8929374    
O     -1.6511508    -0.2646902     0.1049522    
O     -3.5749065     0.8819507    -1.7200020    
C      3.0321928     2.5571499    -0.7875033    
C      1.6020288     2.9925567    -0.4434735    
C      0.8717070     1.9163698     0.3754475    
C      1.0251012     0.5299698    -0.2615536    
C      2.5065302     0.2506027    -0.5597375    
C      2.6873185    -1.0704177    -1.3199526    
O      3.5414500     3.4437709    -1.7077023    
O      1.6907797     4.1885848     0.2817263    
O     -0.4717894     2.3220359     0.4750662    
O      3.0575194     1.2694245    -1.3692546    
O      4.0286990    -1.4634496    -1.3995651    
H     -0.4022651    -1.6905785    -0.7001339    
H     -1.0756375    -1.6353561     2.2909360    
H     -1.9730776    -3.5095680     0.0484330    
H     -4.1702449    -2.4870387     0.2957211    
H     -2.6673041    -1.3988101    -1.2780097    
H     -3.8607034     0.8688999     0.3394839    
H     -4.8794740    -0.2644562    -0.5950396    
H      0.9169788    -2.6954790     1.8631950    
H     -1.8588821    -4.3731424     2.2482792    
H     -3.8532825    -1.9598740     2.5668422    
H     -4.1326847     1.6686498    -1.7972616    
H      3.6239353     2.5491661     0.1502326    
H      1.0622693     3.1468173    -1.3891600    
H      1.3217189     1.8758419     1.3819001    
H      0.4455859     0.4967071    -1.1907311    
H      3.0503515     0.2008106     0.3962761    
H      2.2515588    -0.9550783    -2.3201203    
H      2.1669944    -1.8657212    -0.7838607    
H      4.4445128     3.1895688    -1.9568466    
H      0.7911588     4.4721748     0.5076926    
H     -1.0318494     1.5400676     0.6142580    
H      4.5220970    -0.7872322    -1.8858364    
