42

P     -0.2413246    -1.7956650    -1.9019034    
O     -1.1760223    -0.6067371    -1.9040748    
O     -0.8583090    -3.0505526    -1.3227943    
O      0.5176583    -1.9958002    -3.1933207    
P      1.8017474    -0.1196544    -0.6694246    
O      3.1559915    -0.2854515    -1.2749996    
O      1.0258531     1.0902888    -1.0616373    
O      0.9865687    -1.4751296    -0.7358836    
P      1.4765059    -0.8045247     2.2478606    
O      1.5138391    -2.2819456     2.0593119    
O      2.1783719    -0.2069663     3.4106134    
O      2.0480710    -0.0100141     0.9495435    
O     -0.0738435    -0.2954787     2.3624761    
C     -0.9612383    -0.7186604     1.3559988    
C     -2.4069234    -0.5556199     1.8192110    
O     -2.7106280     0.7627848     2.2266860    
C     -3.3469514    -0.8353780     0.6363318    
O     -4.5586885    -1.3450933     1.1232274    
C     -3.4903429     0.5593065    -0.0009376    
C     -2.9993943     1.5304420     1.0854546    
N     -1.8313596     2.2997760     0.6811628    
C     -0.8202828     2.6892294     1.5159253    
N      0.1039900     3.4017883     0.9467099    
C     -0.2770187     3.4652672    -0.3731213    
C      0.3187990     4.0086090    -1.5197800    
N      1.4767548     4.7184984    -1.4918250    
N     -0.3445777     3.9189049    -2.6809785    
C     -1.5170272     3.3050972    -2.6925566    
N     -2.1728079     2.7318989    -1.7010965    
C     -1.4926245     2.7804915    -0.5511743    
H     -0.7605097    -1.7659101     1.0929411    
H     -0.7781758    -0.1421885     0.4397722    
H     -2.5899294    -1.1990261     2.6825433    
H     -2.8585705    -1.5311003    -0.0563545    
H     -5.0753199    -1.7039216     0.3843325    
H     -4.5214328     0.7663826    -0.2769067    
H     -2.8517287     0.6075744    -0.8826083    
H     -3.7709915     2.2509262     1.3935966    
H     -0.8165053     2.4082608     2.5509244    
H      1.9393816     4.7749972    -2.3880389    
H      2.0667900     4.4857071    -0.7069132    
H     -2.0181546     3.2807190    -3.6513072    
