27

C     -0.5915531    -0.1193839     1.3371341    
S      0.2489489    -0.4637790    -0.2067471    
C      1.8855750     0.3710471     0.0992401    
C      2.8807045     0.0893849    -1.0268522    
N      3.1783894    -1.3134061    -1.1916720    
C      2.4520258    -2.1698614    -1.9123344    
N      1.5396496    -1.7456043    -2.7846628    
N      2.7910767    -3.4542782    -1.8964443    
C     -1.9700774    -0.7978713     1.1499289    
O     -2.2011122    -1.2309263     0.0009910    
O     -2.7062204    -0.8809638     2.1479042    
C     -0.7899045     1.3533978     1.6586580    
C     -1.5501627     2.0378698     0.4907606    
O     -0.8694804     2.3643958    -0.5013651    
O     -2.7788692     2.2056379     0.6290214    
H     -0.0435504    -0.6149104     2.1504397    
H      2.2509732     0.0112277     1.0594746    
H      1.6784613     1.4388234     0.1488396    
H      3.8135260     0.6024353    -0.7872089    
H      2.4890768     0.4979965    -1.9562816    
H      3.7582408    -1.7101732    -0.4663462    
H      0.9449642    -2.4332085    -3.2192757    
H      1.0917851    -0.8609238    -2.6039247    
H      3.5151466    -3.7898577    -1.2850750    
H      2.2617133    -4.1245393    -2.4267291    
H      0.1654184     1.8616595     1.8174889    
H     -1.4106156     1.4213383     2.5566878    
