93

C      1.0729467    -5.4681797     2.2292131    
C      1.3764350    -4.0293995     2.5494536    
O      1.0246045    -3.4724846     3.5854503    
N      2.0820730    -3.3832834     1.6062672    
C      2.5373308    -2.0154683     1.7830762    
C      3.8546053    -1.7567836     1.0401379    
C      4.3332514    -0.3327199     1.3162023    
C      4.9207893    -2.7585645     1.4761469    
C      1.4080699    -1.0929129     1.3201739    
O      1.4069004    -0.5516478     0.2096021    
N      0.4310802    -0.9314371     2.2035946    
C     -0.8016174    -0.2397264     1.8827873    
C     -1.9814359    -0.9618262     2.5394393    
C     -2.0885017    -2.4010219     2.1103109    
C     -2.1769085    -3.4084745     3.0620992    
C     -2.3113564    -4.7317982     2.6812464    
C     -2.3478736    -5.0680700     1.3389358    
C     -2.2511268    -4.0719537     0.3814481    
C     -2.1264037    -2.7485696     0.7642574    
C     -0.7543595     1.2371334     2.3432294    
O     -0.5854294     1.2454898     3.7382884    
C      0.4057291     2.0302181     1.6949363    
N      0.4476823     1.9427354     0.2173161    
C      1.5319466     2.7907725    -0.3385351    
C      1.7819736     2.5133634    -1.8252900    
C      2.7970015     1.3857521    -2.0239824    
C      3.0168315     1.1211223    -3.5108334    
C      3.4974584     2.3881664    -4.2132762    
C      2.4947811     3.5201786    -4.0106831    
C      2.2729692     3.7842273    -2.5243421    
N     -0.7924856     2.3221437    -0.3392601    
C     -1.5267981     1.4980287    -1.1198912    
O     -1.2588293     0.3252344    -1.2952028    
C     -2.7191528     2.2405702    -1.7420327    
N     -2.2192871     2.9751285    -2.8933727    
C     -3.8577305     1.2870195    -2.1234148    
C     -4.3854729     0.5932291    -0.8678907    
C     -4.9916206     2.0470656    -2.8088843    
C     -1.5822450     4.1514177    -2.7846376    
O     -1.2798398     4.6217783    -1.6868555    
C     -1.2729477     4.8352995    -4.0841716    
H      0.5495419    -5.9209451     3.0653217    
H      1.9941740    -6.0132020     2.0404149    
H      0.4412932    -5.5212669     1.3457659    
H      2.2903314    -3.8376168     0.7308207    
H      2.6809529    -1.8717213     2.8610973    
H      3.6680421    -1.8648699    -0.0331167    
H      5.2831315    -0.1608754     0.8176943    
H      4.4735651    -0.1803373     2.3834763    
H      3.6153793     0.3892591     0.9418058    
H      4.6231078    -3.7820574     1.2665796    
H      5.1064168    -2.6708026     2.5444398    
H      5.8513928    -2.5624243     0.9506044    
H      0.4663548    -1.4445746     3.0773463    
H     -0.9188632    -0.2755360     0.7965345    
H     -2.9019941    -0.4403128     2.2684036    
H     -1.8665353    -0.9078067     3.6224805    
H     -2.1403018    -3.1590878     4.1121171    
H     -2.3848567    -5.5023586     3.4345316    
H     -2.4526436    -6.1011303     1.0409882    
H     -2.2787301    -4.3271912    -0.6677348    
H     -2.0593989    -1.9880775    -0.0001764    
H     -1.7148776     1.6908274     2.0636781    
H     -0.7629795     2.1249989     4.0970081    
H      1.3432826     1.6380496     2.0920599    
H      0.3127052     3.0822524     1.9721744    
H      0.6557299     0.9182733    -0.0275447    
H      2.4419045     2.6021318     0.2296532    
H      1.2351881     3.8330793    -0.1988091    
H      0.8410701     2.2153247    -2.3001219    
H      2.4475519     0.4737838    -1.5409007    
H      3.7490177     1.6726434    -1.5742087    
H      2.0816081     0.7842518    -3.9640375    
H      3.7519639     0.3252130    -3.6409935    
H      3.6315526     2.1972414    -5.2798619    
H      4.4670686     2.6837877    -3.8062994    
H      1.5472061     3.2426443    -4.4773413    
H      2.8535826     4.4272024    -4.4999533    
H      3.2113283     4.1098506    -2.0723839    
H      1.5407464     4.5842383    -2.3998280    
H     -0.9510881     3.3370098    -0.4491049    
H     -3.0864470     2.9753373    -1.0156694    
H     -2.3967066     2.5820505    -3.8052257    
H     -3.4583448     0.5264443    -2.8018762    
H     -5.2048598    -0.0708552    -1.1290700    
H     -4.7554054     1.3262446    -0.1546373    
H     -3.6102464    -0.0020811    -0.3945205    
H     -4.6646883     2.5365940    -3.7218697    
H     -5.3968011     2.8032554    -2.1408210    
H     -5.7914280     1.3585622    -3.0665379    
H     -0.5781087     5.6521271    -3.9129304    
H     -2.1906292     5.2431078    -4.5023504    
H     -0.8475953     4.1378912    -4.8000061    
