33

O     -1.2667738    -1.9878500    -2.8312184    
C     -0.5089407    -0.8535488    -3.1527019    
C     -1.1167072     0.4521617    -2.6137344    
O     -1.4023362     0.3368959    -1.2136467    
C     -0.1603116     1.6424015    -2.7828425    
O     -0.8639889     2.8072876    -3.1150540    
C      0.4789050     1.7606458    -1.3819283    
O      0.8187318     3.0727696    -1.0496888    
C     -0.6751120     1.2747365    -0.4762236    
N     -0.2062183     0.7203713     0.7626667    
C      0.1470078     1.4761565     1.8485263    
N      0.6488749     0.7913111     2.8275211    
C      0.6384276    -0.5127987     2.3878933    
C      1.0515272    -1.7019804     3.0260247    
N      1.6227834    -1.6895613     4.2487332    
N      0.9175368    -2.8680183     2.3959395    
C      0.3997716    -2.8994718     1.1659886    
C     -0.0279860    -1.8090092     0.4407054    
C      0.1052144    -0.5797457     1.0878591    
H     -2.1657283    -1.8893751    -3.1798491    
H     -0.3904489    -0.7537265    -4.2393866    
H      0.4731295    -1.0194415    -2.7027857    
H     -2.0667754     0.6624293    -3.1185329    
H      0.5862786     1.4343370    -3.5602356    
H     -0.5538857     3.5276996    -2.5359429    
H      1.3242636     1.0689892    -1.2845466    
H      1.7020457     3.2926406    -1.3829062    
H     -1.3071629     2.1460437    -0.2263434    
H      0.0171715     2.5403794     1.8568178    
H      1.7536225    -2.5735556     4.7083979    
H      1.5667823    -0.8427012     4.7832108    
H      0.3268249    -3.8926279     0.7428333    
H     -0.4578937    -1.9135859    -0.5389913    
