70

C      1.6379986    -1.4774268    -6.2066675    
C     -0.2402894    -0.0316395    -6.7156942    
C      0.4051649    -0.1136535    -3.2728639    
C      0.4134993    -0.7998953    -5.5551771    
C      0.8291090     0.7058104    -1.0098467    
C      0.5297626     2.0787786    -0.3864482    
C      2.1636545     0.1118194    -0.5241642    
C      2.3622617    -1.2358324    -1.1523131    
C      3.1297041    -1.3901877    -2.2991481    
C      1.7144922    -2.3453652    -0.6209142    
C      3.2501128    -2.6290876    -2.9049669    
C      1.8320867    -3.5824983    -1.2271581    
C      2.5982009    -3.7269073    -2.3723345    
C      0.3007592     1.9744007     1.1376114    
C     -1.9870014     0.9477530     1.2462309    
C     -2.7281944     2.0370771     2.0510652    
C     -0.8264953     0.1494330     4.1342221    
C     -0.4045259     1.2994945     4.7840461    
C     -0.9963870     1.6722230     5.9676555    
C     -2.0239324     0.8930403     6.5299059    
C     -2.4270292    -0.2723993     5.8539924    
C     -1.8356814    -0.6348480     4.6652682    
C     -3.0406987     3.2552134     1.1821628    
C     -4.0225910     1.4777405     2.6396477    
C      0.5437394    -0.5134471    -7.9415497    
N      0.8455142     0.8524104    -2.4519914    
N     -0.5618488     0.8792554     1.4911780    
N     -2.6237839     1.2693336     7.6763794    
O      0.8320240     0.1094863    -4.5341868    
O     -0.3288069    -1.0320976    -2.9570544    
O      1.6116008     2.9285341    -0.6790148    
O      1.3609622    -0.1549370     2.7003984    
O     -0.5816450    -1.5451894     2.1395822    
O      1.8314775    -0.8542344    -7.4563414    
S     -0.0822018    -0.2579206     2.5854510    
H      1.4436499    -2.5493970    -6.3414709    
H      2.5411400    -1.3384665    -5.6128312    
H     -1.3039305    -0.2326426    -6.7992521    
H     -0.0800399     1.0330720    -6.5513083    
H     -0.2506803    -1.5344982    -5.0904188    
H      0.0192545     0.0114718    -0.7673618    
H     -0.3855142     2.4594651    -0.8642024    
H      2.1244154     0.0036131     0.5597619    
H      2.9695981     0.7960803    -0.7904302    
H      3.6391882    -0.5348218    -2.7193827    
H      1.1107099    -2.2300779     0.2704420    
H      3.8514826    -2.7380304    -3.7954260    
H      1.3196925    -4.4346684    -0.8058074    
H      2.6848752    -4.6926092    -2.8465405    
H     -0.1019752     2.9208032     1.5157792    
H      1.2591436     1.7790162     1.6197899    
H     -2.1513057     1.0826416     0.1731919    
H     -2.3558635    -0.0441569     1.5131099    
H     -2.0805445     2.3414990     2.8798702    
H      0.3954008     1.8746790     4.3469911    
H     -0.6725254     2.5663709     6.4755856    
H     -3.2104888    -0.8830360     6.2736545    
H     -2.1286402    -1.5249436     4.1301272    
H     -3.5144993     4.0289481     1.7805771    
H     -3.7213125     2.9751623     0.3821268    
H     -2.1403156     3.6663457     0.7360794    
H     -3.8088789     0.6561481     3.3176471    
H     -4.6697364     1.1151842     1.8454791    
H     -4.5498265     2.2517736     3.1899669    
H      0.0673640    -1.4003863    -8.3805642    
H      0.6762885     0.2501956    -8.7054850    
H      1.5191567     1.5092286    -2.8227111    
H     -2.2755884     2.0587949     8.1887422    
H     -3.2986612     0.6649295     8.1073128    
H      1.4320091     3.8197509    -0.3484675    
