116

C     -1.2624555     4.5413656    -2.8097988    
O     -1.0861617     4.9708799    -1.6619388    
N     -0.8856500     5.2278580    -3.9120152    
C     -1.1754056     4.7488337    -5.2468438    
C     -0.2752495     6.5398075    -3.7664053    
C      1.1412921     6.5812373    -4.2875322    
C      1.4273537     6.9187765    -5.6073564    
N      2.0967162     6.2779075    -3.4166029    
C      2.7466490     6.9064514    -6.0311274    
C      3.3539262     6.2660010    -3.8252655    
C      3.7366254     6.5647845    -5.1236729    
N     -1.9265043     3.3686708    -3.0313563    
C     -2.4854516     2.6183830    -1.9225398    
C     -1.4134933     1.6716480    -1.3569766    
O     -1.4322078     0.4582688    -1.5303066    
C     -3.7542363     1.8633812    -2.3424133    
C     -4.4211204     1.2602794    -1.1072702    
C     -4.7278472     2.7897830    -3.0659135    
N     -0.4661131     2.3191473    -0.6712064    
C      0.7160242     1.6894000    -0.1237459    
C      1.9764763     2.3501688    -0.6938990    
C      2.0736513     2.0868782    -2.1686833    
C      1.9059248     3.1179609    -3.0818425    
C      1.9865818     2.8744558    -4.4425887    
C      2.2160201     1.5912791    -4.9071115    
C      2.3671255     0.5530416    -4.0017925    
C      2.3006783     0.7988411    -2.6423854    
C      0.6818241     1.7790840     1.4114042    
O      1.8739297     1.2494125     1.9385611    
O     -0.4532424     1.1109213     3.4312975    
C     -0.5556430     1.0741302     2.0230673    
N      0.4502027    -1.1730824     2.0028297    
C     -0.6958665    -0.3984998     1.5905050    
C     -1.9771805    -1.0278073     2.1545078    
C     -2.1401836    -2.4179150     1.6083012    
C     -2.0311041    -3.5245420     2.4380070    
C     -2.1713752    -4.8036173     1.9266159    
C     -2.4005913    -4.9924027     0.5752179    
C     -2.4951951    -3.8926995    -0.2623966    
C     -2.3712432    -2.6145483     0.2507311    
N      1.8123219    -3.8046583     2.3302861    
C      2.3935629    -2.5648424     1.8487195    
C      1.3041362    -1.7392766     1.1485162    
O      1.2144623    -1.6516105    -0.0721618    
C      3.5887494    -2.8217270     0.9213112    
C      4.3098774    -1.5004458     0.6627873    
C      4.5505103    -3.8399971     1.5272199    
C      1.2520309    -3.8619980     3.5752250    
O      1.2151117    -2.8698612     4.3107808    
N      0.8175108    -5.0817991     3.9728418    
C      0.9674907    -6.2547183     3.1384786    
C      0.3269436    -5.2557050     5.3302639    
C     -1.1246424    -5.6684548     5.3778029    
C     -1.5040651    -7.0078904     5.3659528    
N     -2.0169046    -4.6867011     5.4361685    
C     -2.8530081    -7.3235605     5.3806830    
C     -3.3030487    -4.9923418     5.4503237    
C     -3.7795070    -6.2934562     5.4155588    
H     -0.9088111     5.5239874    -5.9579602    
H     -2.2393342     4.5299009    -5.3524624    
H     -0.5935782     3.8535434    -5.4798493    
H     -0.2647064     6.7586480    -2.6968298    
H     -0.8896169     7.2787693    -4.2897908    
H      0.6383931     7.2005232    -6.2872116    
H      2.9971459     7.1603774    -7.0500635    
H      4.0824563     6.0028946    -3.0702530    
H      4.7755886     6.5377937    -5.4091131    
H     -1.7535783     2.8470316    -3.8746366    
H     -2.7321203     3.3551076    -1.1490063    
H     -3.4530957     1.0474319    -3.0077357    
H     -5.3075199     0.7020251    -1.3956560    
H     -4.7139282     2.0445904    -0.4127029    
H     -3.7392298     0.5811994    -0.6018256    
H     -4.2866787     3.1916214    -3.9727419    
H     -5.0030335     3.6195218    -2.4192104    
H     -5.6282993     2.2430626    -3.3311754    
H     -0.5005812     3.3372233    -0.6687440    
H      0.7084966     0.6392973    -0.4283799    
H      2.8348368     1.9259218    -0.1708808    
H      1.9396834     3.4242002    -0.5020788    
H      1.7237894     4.1220798    -2.7263960    
H      1.8773367     3.6943927    -5.1385255    
H      2.2763090     1.3984846    -5.9679857    
H      2.5388009    -0.4527244    -4.3548021    
H      2.4122671    -0.0173873    -1.9426409    
H      0.6177208     2.8500449     1.6807074    
H      1.7167047     1.0845450     2.8831599    
H     -0.6851468     1.9905596     3.7582187    
H     -1.4552725     1.6009514     1.6782378    
H      0.5638779    -1.3459974     2.9962034    
H     -0.7361910    -0.4430534     0.4990045    
H     -2.8261393    -0.4088000     1.8586410    
H     -1.9143604    -1.0490756     3.2433212    
H     -1.8406484    -3.3897440     3.4929538    
H     -2.1074359    -5.6531728     2.5916298    
H     -2.5058132    -5.9897931     0.1744306    
H     -2.6676526    -4.0301417    -1.3195212    
H     -2.4393252    -1.7634119    -0.4122643    
H      1.5188701    -4.4561396     1.6214580    
H      2.7262216    -2.0164208     2.7362520    
H      3.1978980    -3.1998533    -0.0296467    
H      5.1001557    -1.6380468    -0.0702180    
H      4.7475657    -1.1221821     1.5833926    
H      3.6136742    -0.7556077     0.2860085    
H      4.0727989    -4.8077005     1.6472535    
H      4.8881314    -3.4979629     2.5026956    
H      5.4163556    -3.9583495     0.8813954    
H      0.7034454    -7.1308300     3.7217858    
H      2.0017598    -6.3570150     2.8042749    
H      0.3071907    -6.2082218     2.2688326    
H      0.4348998    -4.2872665     5.8230644    
H      0.9443140    -6.0019039     5.8402968    
H     -0.7609294    -7.7897982     5.3593959    
H     -3.1736176    -8.3545398     5.3682134    
H     -3.9777581    -4.1476945     5.4918769    
H     -4.8387119    -6.4912014     5.4238114    
