52

N      3.3988789    -3.1324339    -4.6421834    
C      3.5933582    -4.0308422    -3.7473651    
C      4.6578238    -5.0541354    -3.9240669    
N      2.8450338    -4.1141949    -2.5997844    
C      1.8168669    -3.2525086    -2.2901717    
O      1.1835488    -3.3952067    -1.2444376    
C      1.5888109    -2.2269501    -3.2945794    
C      0.5907046    -1.2663301    -3.1244263    
C      0.3892205    -0.2877653    -4.0743327    
C      1.1992276    -0.2794023    -5.2176927    
C      2.1868606    -1.2160827    -5.4050688    
C      2.4050838    -2.2092842    -4.4429768    
C     -0.6603417     0.7862337    -3.9012059    
N     -1.7733541     0.3941880    -3.0717218    
C     -0.9909102     0.9846505     0.6205591    
S     -0.3841775     1.3856869    -0.9581375    
C     -1.6700989     0.4735781    -1.7290616    
C     -2.5114631    -0.0797714    -0.7796490    
C     -2.1219671     0.2127411     0.5291621    
C     -0.2357906     1.4840131     1.7434320    
O      0.7417377     2.2374876     1.5784005    
N     -0.6307843     1.0581924     2.9564099    
C     -0.0330429     1.4288868     4.2080309    
C     -0.4373093     2.8442162     4.6473436    
C     -1.9479483     2.9966878     4.7874526    
C     -2.2813857     4.4549941     5.1979675    
O     -2.4544315     5.2761947     4.2750114    
O     -2.3420119     4.7068376     6.4181453    
C     -0.5092309     0.3897521     5.2758602    
O      0.0960872     0.3790144     6.3594984    
O     -1.4592344    -0.3493019     4.9442395    
C     -2.7343844    -0.5247339    -3.6452587    
H      5.2149336    -4.8347410    -4.8277351    
H      4.2114397    -6.0431076    -4.0049081    
H      5.3285483    -5.0489616    -3.0678902    
H      3.0436513    -4.8408461    -1.9205926    
H      0.0002347    -1.3185288    -2.2211811    
H      1.0423396     0.4865536    -5.9614113    
H      2.8113806    -1.2093050    -6.2828251    
H     -1.0489618     1.0821022    -4.8777359    
H     -0.1921638     1.6598204    -3.4359325    
H     -3.3679941    -0.6844525    -1.0057922    
H     -2.6488226    -0.1356238     1.4019480    
H     -1.3930413     0.3993419     3.0836822    
H      1.0614941     1.3848298     4.1290249    
H     -0.0704657     3.5649327     3.9091489    
H      0.0361730     3.0538265     5.6098820    
H     -2.3168140     2.3103259     5.5543667    
H     -2.4349031     2.7798423     3.8334005    
H     -2.5038580    -1.5613026    -3.3855548    
H     -2.7137979    -0.4161055    -4.7255400    
H     -3.7310966    -0.2827384    -3.2807098    
