52

S     -1.4117793    -4.7691530     3.1012412    
O     -0.9667384    -4.6691296     4.4726103    
O     -2.8379030    -4.8522201     2.8691905    
N     -0.6285247    -6.0093805     2.3719989    
C     -0.8449705    -3.3456620     2.2197974    
C      0.4124341    -2.9819321     1.8573409    
C      0.4193413    -1.7426662     1.1605651    
C     -0.8574092    -1.2349428     1.0524356    
S     -2.0709935    -2.2264317     1.7629604    
C      1.5483995    -1.0803574     0.5723321    
C      1.4144125    -0.1224033    -0.3654188    
N      0.1700857     0.3467856    -0.7716524    
S     -1.1030400     0.3358363     0.3260140    
O     -0.8303550     1.3784633     1.2908982    
O     -2.3435377     0.4342488    -0.3885561    
C      2.6201948     0.5247015    -1.0031748    
C      3.6933455     2.6447205    -1.6206157    
C      3.5027575     4.1631117    -1.6037606    
O      3.3714796     4.6432049    -0.2810542    
C      2.2663219     4.0524243     0.3651110    
C      2.4035594     2.5281960     0.4215536    
N      2.5316137     2.0032228    -0.9597192    
C     -0.7016452     2.1331428    -2.1228506    
C     -0.0660201     0.8950461    -2.0569588    
C      0.2994684     0.2086810    -3.2055396    
C      0.0228367     0.7812527    -4.4396584    
C     -0.6213672     1.9972765    -4.5255767    
C     -1.0092237     2.6786832    -3.3660967    
O     -1.6521701     3.8546522    -3.5524154    
C     -2.1181815     4.5707093    -2.4235075    
H     -0.0778054    -6.5612683     3.0098550    
H     -1.2285725    -6.5675798     1.7870094    
H      1.2861622    -3.5700958     2.0623691    
H      2.7113696     0.2188815    -2.0479165    
H      3.5143374     0.2093099    -0.4645976    
H      3.7751254     2.2943998    -2.6480845    
H      4.5955731     2.3845112    -1.0660979    
H      2.6186026     4.4428047    -2.1946257    
H      4.3786019     4.6612350    -2.0182342    
H      1.3342696     4.3272255    -0.1510791    
H      2.2417936     4.4664490     1.3725361    
H      3.3025322     2.2603545     0.9776904    
H      1.5248507     2.1026609     0.9091861    
H      1.6827011     2.2833219    -1.4751057    
H     -0.9918044     2.6093171    -1.1991644    
H      0.7602273    -0.7619282    -3.1370571    
H      0.2978838     0.2610609    -5.3426793    
H     -0.8614012     2.4402957    -5.4778962    
H     -2.6833881     5.4078519    -2.8261152    
H     -1.2842982     4.9493062    -1.8266429    
H     -2.7709720     3.9537908    -1.8005834    
H      2.5266091    -1.4109699     0.8763859    
