18

C     -0.0191127     0.1778336    -0.0775069    
C     -0.1699223    -0.9579313    -0.8731483    
C     -0.0395130    -2.2157193    -0.3144551    
C      0.2575012    -2.3528320     1.0326103    
C      0.4167456    -1.2271319     1.8256316    
C      0.2717141     0.0344648     1.2792110    
C     -0.1655004     1.5197693    -0.6664099    
N     -0.7609435     2.4627448     0.0253449    
N      0.3022110     1.7451870    -1.8718961    
H     -0.4266891    -0.8653835    -1.9165838    
H     -0.1681469    -3.0930827    -0.9288317    
H      0.3648119    -3.3360849     1.4640047    
H      0.6533143    -1.3358773     2.8725575    
H      0.4232786     0.9022565     1.9014693    
H     -0.8671653     3.3975995    -0.3419453    
H     -1.1541921     2.2609842     0.9314381    
H      0.7958769     1.0228468    -2.3718411    
H      0.2104105     2.6500918    -2.3109093    
