43

C     -0.6751724     0.8507605     1.2508015    
O     -0.4151093    -0.3464766     1.2950606    
C      0.4191346     1.8997005     1.1336250    
C      0.8726135     1.6769401    -0.3162279    
O      0.5583351     2.4504482    -1.2110499    
C      1.5437836     1.6871618     2.1546787    
C      1.3232324     2.4087900     3.4937254    
C      1.3773675     3.9284538     3.3499329    
C      0.0244103     1.9723074     4.1659934    
N     -1.9297376     1.3249695     1.2506999    
O     -2.9957249     0.4552616     1.0123452    
N      1.5676242     0.5485449    -0.5068067    
C      1.7999361    -0.0131176    -1.8206344    
C      0.5275322    -0.6470763    -2.4071497    
O      0.3409370    -0.6762273    -3.6166434    
C      2.9105020    -1.0560086    -1.7591595    
C     -1.7733644    -3.2230337    -1.7316714    
N     -0.8133035    -3.8567018    -1.0589389    
O     -2.7624997    -3.7912950    -2.1806864    
C     -1.6031140    -1.7165125    -1.9064035    
N     -0.3120736    -1.2004967    -1.5175939    
H      0.0130597     2.9083005     1.1940634    
H      2.4825169     2.0380157     1.7231593    
H      1.6354412     0.6173520     2.3579065    
H      2.1563190     2.1080582     4.1388756    
H      1.3431294     4.3952219     4.3307473    
H      0.5375370     4.3058343     2.7718784    
H      2.2963035     4.2347001     2.8567564    
H     -0.0407988     0.8874035     4.2042589    
H     -0.8375326     2.3538644     3.6255621    
H     -0.0168589     2.3537347     5.1830379    
H     -2.1440365     2.2841949     1.0081956    
H     -3.4013861     0.2079373     1.8650767    
H      1.6982799    -0.0705050     0.2827064    
H      2.0728129     0.8014091    -2.5001177    
H      3.0518777    -1.4886053    -2.7454628    
H      2.6460764    -1.8478850    -1.0634205    
H      3.8395380    -0.5931117    -1.4410427    
H     -0.8865571    -4.8515926    -0.9225746    
H     -0.0148836    -3.3585618    -0.7056910    
H     -2.3938653    -1.2297117    -1.3263139    
H     -1.7606318    -1.4873773    -2.9638631    
H     -0.1732579    -1.0537046    -0.5227059    
