51

C     -0.6588271    -0.5604576     1.1726551    
C     -1.5273819    -1.8160118     1.1304980    
C     -2.7566395    -1.5391864     0.2422373    
C     -3.4621848    -0.2971441     0.7785193    
C     -2.5145200     0.8868222     0.9736927    
C     -3.1850518     2.0122631     1.7647665    
C     -4.1271113     0.3073497    -1.9454330    
O     -0.7373839    -2.8693697     0.6493851    
O     -3.6574688    -2.6212809     0.2716879    
S     -4.8653870     0.1957635    -0.2803242    
O     -1.3320555     0.5321868     1.6851710    
O     -3.6858761     1.4940658     2.9740082    
C      4.3729422     0.7651345    -1.0508846    
C      3.9918880    -0.6826114    -1.3878843    
C      2.4683722    -0.7667980    -1.5399071    
C      1.8150487    -0.2531333    -0.2533963    
C      2.3367117     1.1384321     0.1102150    
C      1.8719546     1.5955983     1.4997262    
C      4.6271050     2.8661227    -2.0974368    
O      4.0085857     1.5846824    -2.1136946    
O      4.6688024    -1.0739148    -2.5454593    
O      2.1580266    -2.1105232    -1.8000483    
S      0.0077732    -0.2126865    -0.5242956    
O      3.7639290     1.1539269     0.1566551    
O      2.2201403     0.6732970     2.5002657    
H      0.2118691    -0.7229618     1.8114618    
H     -1.8750656    -2.0120108     2.1560079    
H     -2.3900105    -1.3482489    -0.7743456    
H     -3.9323449    -0.5449582     1.7339183    
H     -2.2074579     1.2769785    -0.0093102    
H     -3.9943595     2.4269336     1.1518533    
H     -2.4285882     2.7828606     1.9535041    
H     -4.7860057     0.9556143    -2.5110436    
H     -4.0969313    -0.6769235    -2.3993419    
H     -3.1357728     0.7420909    -1.8864872    
H     -1.1963610    -3.7103011     0.7915280    
H     -3.4817323    -3.2250340    -0.4619033    
H     -4.0859198     2.2137279     3.4823404    
H      5.4543917     0.8298475    -0.8567693    
H      4.2873995    -1.3176416    -0.5363687    
H      2.1689527    -0.1246689    -2.3825228    
H      2.0066874    -0.9626642     0.5561571    
H      1.9878353     1.8521724    -0.6493231    
H      0.7843232     1.6848263     1.5225415    
H      2.3129922     2.5775838     1.7032400    
H      4.2284809     3.3930773    -2.9596981    
H      5.7123044     2.7632424    -2.1846763    
H      4.3830962     3.4022125    -1.1768149    
H      4.2706835    -1.9027911    -2.8581492    
H      1.1952897    -2.2127071    -1.8491815    
H      3.1862421     0.6432349     2.5614870    
