63

C      2.5195775    -1.4402238     2.0591716    
C      2.9494695    -2.7790699     2.6679701    
C      3.5041679    -2.5737614     4.0770136    
C      4.6894613    -1.6151898     4.0576592    
C      4.2708449    -0.2813231     3.4490836    
C      3.7182780    -0.4857722     2.0407527    
N      0.7059241    -2.3974162     0.6591527    
C      1.9588515    -1.6187699     0.6343687    
C      1.6076329    -0.2543234     0.0247247    
O      0.6093388     0.3608445     0.3845617    
N      2.4551708     0.2276181    -0.8789507    
C      2.2012461     1.3437920    -1.7774525    
C      0.8461810     1.1463384    -2.4596382    
O      0.4985297     0.0264179    -2.8197683    
N      0.1241219     2.2542407    -2.6400969    
C     -1.2435090     2.2291269    -3.1353511    
C     -2.2109821     2.1750176    -1.9806387    
C     -3.0148431     3.2581114    -1.6476095    
C     -3.8505898     3.1988961    -0.5484040    
C     -3.8912202     2.0509780     0.2443197    
C     -3.0894648     0.9599937    -0.0946492    
C     -2.2642604     1.0278009    -1.1970960    
C     -4.7726106     1.9825441     1.4199045    
N     -5.0061393     3.0696955     2.1195062    
N     -5.3209276     0.8344031     1.7435204    
C      3.4170284     0.8930083    -2.6130409    
C      3.5651992    -0.3005723    -1.6573004    
C      0.0879219    -2.7079732    -0.6378116    
C     -1.4614522    -2.4549471    -0.4576110    
O     -1.7535409    -1.9230180     0.6340807    
O     -2.2102775    -2.7800932    -1.3794809    
H      1.7335767    -0.9934865     2.6768602    
H      3.7225182    -3.2305909     2.0430561    
H      2.1110337    -3.4743673     2.7339372    
H      3.8097658    -3.5353911     4.4929178    
H      2.7212498    -2.1663426     4.7199585    
H      5.4999563    -2.0478896     3.4674478    
H      5.0614026    -1.4623880     5.0717930    
H      5.1250626     0.3960026     3.4113062    
H      3.5062433     0.1804403     4.0771002    
H      3.4187008     0.4782447     1.6279398    
H      4.5030291    -0.9038971     1.4082827    
H     -0.0962362    -1.8494515     1.1159524    
H      0.8353012    -3.2510251     1.2074755    
H      2.6861700    -2.1406358     0.0069386    
H      2.2752461     2.3177171    -1.2916766    
H      0.4368137     3.1211001    -2.2287916    
H     -1.3480870     1.3283622    -3.7465589    
H     -1.4088649     3.1137492    -3.7512296    
H     -2.9911386     4.1492242    -2.2555137    
H     -4.4936813     4.0376434    -0.3341910    
H     -3.0599453     0.0624643     0.5041155    
H     -1.6557421     0.1738155    -1.4522146    
H     -5.6155906     3.0512505     2.9244717    
H     -4.5498264     3.9372419     1.8847960    
H     -5.1338249     0.0095648     1.1947245    
H     -5.9103248     0.7424773     2.5581691    
H      4.2437049     1.5946145    -2.5972467    
H      3.1701440     0.6241441    -3.6356437    
H      3.3567462    -1.2697663    -2.1120327    
H      4.4971976    -0.3358820    -1.0940270    
H      0.2624158    -3.7286031    -0.9661064    
H      0.4160697    -2.0177846    -1.4169177    
