32

C      0.7583452     0.9410993    -1.0030912    
C     -0.2312761     0.7885524    -0.0592406    
C     -1.6626975     0.7310320    -0.4669295    
C      0.1127579     0.6436532     1.3021321    
N     -0.8773704     0.4992562     2.2318617    
C     -0.5398628     0.3548873     3.4741896    
N     -1.4876720     0.2598994     4.4233614    
N      0.7745216     0.3313437     3.8921539    
C      1.8441726     0.4837417     3.0407388    
O      2.9916346     0.4586799     3.4915443    
C      1.4801879     0.6552864     1.6472709    
C      2.4668896     0.8111681     0.6739298    
C      2.1226020     0.9613485    -0.6618078    
N      3.0708022     1.1897745    -1.6259677    
S     -2.1309480    -0.9773823    -0.9509425    
C     -1.7577730    -0.9314236    -2.6530555    
N     -1.4393566     0.1278419    -3.3587546    
N     -1.7997382    -2.0532354    -3.4130831    
C     -1.2654775    -0.3290311    -4.6340581    
C     -1.4859336    -1.6716259    -4.6916284    
H      0.4730632     1.0416579    -2.0412867    
H     -1.8692494     1.3416482    -1.3421889    
H     -2.3116412     0.9748280     0.3700574    
H     -2.4375032     0.1651977     4.1075952    
H     -1.2501086    -0.0347231     5.3537367    
H      0.9948043     0.2186168     4.8752378    
H      3.5002641     0.8101157     0.9910740    
H      2.7983212     1.0130767    -2.5781644    
H      4.0218170     0.9643734    -1.3870464    
H     -2.0326165    -2.9784953    -3.0913934    
H     -0.9930855     0.3512485    -5.4151500    
H     -1.4479114    -2.3646789    -5.5048405    
