31

N     -2.0622468     0.7072862    -1.1480044    
C     -2.3137201    -0.4518759    -0.4362612    
N     -3.5847526    -0.9519387    -0.6041634    
C     -4.5808224    -0.4099483    -1.3971333    
C     -4.1355777     0.8056142    -2.0694488    
N     -2.9575800     1.2873335    -1.9378428    
O     -1.5076119    -0.9936190     0.2932859    
O     -5.6761429    -0.9288697    -1.4868305    
C     -0.7513692     1.3370745    -1.1457343    
C     -0.2326711     1.7375934     0.2565183    
C      1.2895366     1.5670160     0.0852112    
C      1.3951649     0.4436534    -0.9524015    
O     -0.6219822     3.0171598     0.6238324    
O      1.7917771     2.7944038    -0.3873063    
O      0.1999247     0.4773932    -1.7255274    
C      1.6142888    -0.9322899    -0.3102123    
O      2.9428671    -1.0605186     0.1081940    
P      3.1406918    -1.3237699     1.8031366    
O      2.5594565    -0.0774690     2.4599061    
O      4.6417199    -1.4511750     1.9241413    
O      2.3537966    -2.5876574     2.1027111    
H     -3.7908765    -1.8037816    -0.0874154    
H     -4.8119635     1.3373525    -2.7189548    
H     -0.8750119     2.2338890    -1.7704520    
H     -0.5912799     1.0291204     1.0079102    
H      1.7723362     1.2574914     1.0164425    
H      2.2339052     0.6196236    -1.6369382    
H      0.0477680     3.6381414     0.2772269    
H      2.7406934     2.8491914    -0.2134850    
H      1.4054658    -1.7131876    -1.0553577    
H      0.9395560    -1.0838732     0.5415282    
