36

C     -1.3523968     0.8859250    -0.5082081    
C     -2.2857588     1.7214262     0.3856580    
C     -2.2024582     1.1849364     1.8220742    
C     -2.5631784    -0.3099097     1.8085532    
C     -1.6545013    -1.0566410     0.8242427    
C     -2.1113839    -2.5114636     0.6581108    
C      1.0264901     0.6588850    -0.7640550    
C      2.2818510     0.9633986    -0.2489616    
C      3.4152833     0.5058101    -0.9082270    
C      3.3264174    -0.2553726    -2.0708726    
C      2.0725653    -0.5518849    -2.5670412    
C      0.9269895    -0.1043468    -1.9255981    
N      4.6975552     0.8278949    -0.3730903    
O     -0.0361202     1.1514564    -0.0590662    
O     -2.0039781     3.0910540     0.3161900    
O     -3.1136729     1.8389507     2.6706645    
O     -3.9050043    -0.4916069     1.4352707    
O     -1.6720061    -0.4685742    -0.4771592    
O     -1.2359210    -3.2617406    -0.1415128    
O      5.6878797     0.3976801    -0.9400360    
O      4.7525811     1.5228888     0.6281060    
H     -1.4673759     1.1952355    -1.5563362    
H     -3.3101490     1.5947779     0.0198340    
H     -1.1745321     1.3088378     2.1971081    
H     -2.3938411    -0.7206567     2.8157172    
H     -0.6248102    -1.0364265     1.2089983    
H     -3.1263898    -2.5061925     0.2488957    
H     -2.1209824    -2.9896325     1.6389646    
H      2.3795178     1.5479167     0.6513510    
H      4.2277885    -0.5946698    -2.5548177    
H      1.9785685    -1.1416902    -3.4637133    
H     -0.0397163    -0.3655015    -2.3214168    
H     -1.0606748     3.2350763     0.4875024    
H     -3.1046927     2.7870160     2.4668530    
H     -4.4446568     0.0781289     2.0064865    
H     -1.2881791    -2.9307019    -1.0489828    
