33

N     -0.1580203    -0.2800040    -0.7880402    
C      0.8820890    -0.3811514    -1.6677971    
N      0.6531927    -1.1805812    -2.6679743    
C     -0.6239235    -1.6551131    -2.4486809    
C     -1.4705588    -2.5241824    -3.1644564    
N     -1.1053697    -3.1342488    -4.3023406    
N     -2.6903621    -2.7618016    -2.6772040    
C     -3.0664983    -2.1814290    -1.5276655    
N     -4.2896713    -2.5266080    -1.0664874    
N     -2.3571546    -1.3313050    -0.7735598    
C     -1.1401055    -1.0971173    -1.2690735    
C     -0.1805698     0.4883279     0.4214596    
C      0.6398368    -0.1771053     1.5422461    
C     -0.0595614    -1.4182642     2.0854847    
O      0.8092193     0.7339057     2.6266198    
P      2.5318897     2.4568404     1.0405635    
C      1.9708459     1.5109445     2.5811634    
O      3.7252440     3.2313364     1.5872415    
O      2.9342688     1.4276418    -0.0148281    
O      1.3861063     3.3581972     0.5857414    
H      1.7862983     0.1776748    -1.5092880    
H     -1.7933067    -3.6678539    -4.8035621    
H     -0.2235965    -2.8865931    -4.7124048    
H     -4.9042956    -2.9825823    -1.7175280    
H     -4.6675590    -1.9649553    -0.3245174    
H     -1.2188633     0.5977267     0.7403783    
H      0.2518057     1.4764986     0.2372928    
H      1.6325111    -0.4227382     1.1340156    
H      0.5819062    -1.9158523     2.8063140    
H     -0.2876966    -2.0922398     1.2654218    
H     -0.9792844    -1.1093469     2.5733662    
H      2.8569168     0.9021191     2.8437299    
H      1.8577728     2.2824863     3.3495424    
