59

P     -3.2694239     1.0761585     0.0607675    
O     -4.5123250     0.3308859    -0.3179491    
O     -2.6649021     1.9787934    -0.9695428    
O     -3.2546836     1.6125830     1.4877137    
P     -0.6364199     0.1797178    -0.0412206    
O     -0.3687419     0.0588436    -1.5017437    
O     -0.1798361     1.3695682     0.7338668    
O     -2.1635740    -0.2052382     0.2729592    
O      0.0306774    -1.1742767     0.6492997    
C      0.8565130    -1.0256825     1.7911706    
C      2.3341269    -0.8294141     1.4287764    
O      2.9683334    -2.0534233     1.0946289    
C      2.5639079     0.1029020     0.2337987    
O      2.6341652     1.4456772     0.6694526    
C      3.8574065    -0.4335439    -0.3824965    
C      3.7332620    -1.9305462    -0.0918623    
N      3.1535321    -2.6844257    -1.1789807    
C      1.9044660    -2.6476201    -1.7497033    
N      1.7390351    -3.5273265    -2.6904161    
C      2.9365602    -4.2053845    -2.7690444    
C      3.3995028    -5.2666166    -3.5767235    
N      2.6622574    -5.8633622    -4.5127451    
N      4.6594175    -5.6929637    -3.3754299    
C      5.3960010    -5.1115728    -2.4462408    
N      5.0794412    -4.1181147    -1.6299759    
C      3.8273668    -3.6896491    -1.8225744    
C      2.0148444     2.3652643    -0.1155936    
O      1.7499344     2.1196822    -1.2816524    
C      1.8604886     3.6555624     0.5514729    
C      0.8217576     4.5396380     0.1766262    
N      0.0065823     4.2661655    -0.8904277    
C     -1.2585698     4.9576729    -1.0516588    
C      0.7220823     5.7530637     0.8782746    
C      1.6024791     6.0737089     1.8858544    
C      2.6196388     5.1977698     2.2491081    
C      2.7277633     3.9921830     1.5945891    
Be    -4.1824154     2.8979403     1.4572696    
F     -5.0261193     3.1358218     0.1892383    
F     -5.1978776     2.8405364     2.6331412    
F     -3.3868397     4.2008084     1.7016796    
H      0.7341614    -1.9463821     2.3682179    
H      0.5140611    -0.1566306     2.3630335    
H      2.8366445    -0.4107521     2.3126389    
H      1.7305126     0.0164438    -0.4718356    
H      4.7063359    -0.0057592     0.1494217    
H      3.9175445    -0.2112164    -1.4444461    
H      4.7016512    -2.4169917     0.0878674    
H      1.1422451    -1.9562710    -1.4395305    
H      3.0712502    -6.6093100    -5.0496966    
H      1.7283203    -5.5322244    -4.6749385    
H      6.3984588    -5.4989558    -2.3346004    
H     -0.0782589     3.2748687    -1.0842259    
H     -1.7986199     4.4787246    -1.8659043    
H     -1.0683804     6.0035923    -1.2901659    
H     -1.9057577     4.8720207    -0.1704926    
H     -0.0854056     6.4219989     0.6348740    
H      1.4885214     7.0147224     2.4005201    
H      3.3036298     5.4498194     3.0421175    
H      3.4922623     3.2789683     1.8578979    
