99

O      0.2159331     1.3324919    -4.0891261    
C      1.2512272     1.6916018    -4.6451052    
O      1.7804336     1.1426765    -5.7364223    
C      1.1623775     0.0072339    -6.4081363    
C      2.0953803    -0.2662541    -7.5874117    
C     -0.2325299     0.3825203    -6.9046739    
C      1.1163550    -1.1946884    -5.4665217    
N      1.9656263     2.7519997    -4.2434417    
C      1.7613876     3.3717895    -2.9406975    
C      0.6563429     4.4507918    -3.0035149    
C      3.0938371     3.9357518    -2.4395140    
C      4.1256036     2.8478509    -2.3086186    
C      5.2482673     2.8248849    -3.1249693    
C      3.9527554     1.8280803    -1.3786834    
C      6.1830140     1.8092516    -3.0141854    
C      4.8835974     0.8116504    -1.2681348    
C      6.0020512     0.7991317    -2.0860000    
C     -0.4565690     4.1612435    -2.0027625    
N     -1.2116658     2.9488986    -2.4066534    
C     -1.8683868     2.2296817    -1.2954633    
C     -0.7853986     1.5670985    -0.4305253    
O      0.3149720     1.2946060    -0.8898442    
C     -2.7863560     1.1412421    -1.8782964    
C     -3.4997792     0.3599770    -0.8060865    
C     -3.2218157    -0.9834005    -0.5976842    
C     -4.4622473     0.9776360    -0.0146507    
C     -3.9020338    -1.7009426     0.3712314    
C     -5.1292290     0.2670775     0.9658975    
C     -4.8537373    -1.0757937     1.1574007    
N     -1.1470549     1.3369104     0.8309644    
C     -0.3217850     0.6211157     1.7789682    
C     -1.2629239    -0.1710870     2.6838847    
O     -2.4072944     0.2151031     2.8895103    
C      0.4973215     1.6146038     2.6250533    
C      1.2778635     0.9579900     3.7562019    
C      0.3816053     0.6298758     4.9865384    
O      0.7125020    -0.3556308     5.6817899    
O     -0.5879897     1.3814667     5.2123810    
N     -0.7658958    -1.3188244     3.1482927    
C     -1.3614678    -2.0538141     4.2392940    
C     -0.2167830    -2.7893017     4.9387796    
O      0.8211489    -3.0407673     4.3396063    
C     -2.4206054    -3.0561949     3.7316577    
C     -1.7913963    -4.1763534     2.9529473    
C     -1.6826911    -5.4447958     3.5077005    
C     -1.2841683    -3.9591108     1.6776888    
C     -1.0816354    -6.4744027     2.8050203    
C     -0.6800370    -4.9861634     0.9748270    
C     -0.5778188    -6.2475826     1.5361963    
N     -0.4863945    -3.2383069     6.1689578    
H      1.7296827    -1.1137782    -8.1572984    
H      3.0959329    -0.4860890    -7.2256574    
H      2.1436984     0.6054853    -8.2338554    
H     -0.6320577    -0.4318345    -7.5003727    
H     -0.1785074     1.2762809    -7.5209037    
H     -0.8993377     0.5639572    -6.0673276    
H      0.7207989    -2.0560265    -5.9954748    
H      0.4817787    -0.9853368    -4.6093661    
H      2.1169777    -1.4282082    -5.1088809    
H      2.8226680     2.9442585    -4.7392375    
H      1.4546502     2.5730127    -2.2557490    
H      0.2506369     4.4899282    -4.0140731    
H      1.0813225     5.4280796    -2.7801912    
H      2.9256534     4.3890707    -1.4616975    
H      3.4490131     4.7067987    -3.1242375    
H      5.4043183     3.6129580    -3.8477816    
H      3.0837199     1.8211134    -0.7369672    
H      7.0536744     1.8054774    -3.6531068    
H      4.7376176     0.0269175    -0.5396200    
H      6.7288774     0.0053883    -1.9965204    
H     -1.1452612     5.0032269    -1.9346556    
H     -0.0209719     3.9874514    -1.0187823    
H     -0.5564633     2.2694746    -2.8928031    
H     -1.9125985     3.1984831    -3.1109612    
H     -2.4419384     2.9328598    -0.6877462    
H     -2.1825547     0.4639382    -2.4845266    
H     -3.5349449     1.6147283    -2.5162416    
H     -2.4723107    -1.4775416    -1.1989933    
H     -4.7024500     2.0190186    -0.1674097    
H     -3.6893074    -2.7504207     0.5139030    
H     -5.8663232     0.7574919     1.5830546    
H     -5.3798541    -1.6333493     1.9179951    
H     -2.0868678     1.5090674     1.1727445    
H      0.3536895    -0.0494810     1.2378069    
H     -0.1927592     2.3277286     3.0851282    
H      1.1788797     2.1461447     1.9584278    
H      2.0350680     1.6530074     4.1285676    
H      1.7876218     0.0420988     3.4505694    
H      0.2074671    -1.5677158     3.0013501    
H     -1.8300742    -1.3356541     4.9235080    
H     -3.1146790    -2.4892261     3.1079975    
H     -2.9593981    -3.4529911     4.5913834    
H     -2.0690697    -5.6258280     4.4999123    
H     -1.3572861    -2.9737342     1.2418082    
H     -1.0034785    -7.4542569     3.2516137    
H     -0.2854034    -4.8006822    -0.0129773    
H     -0.1050931    -7.0486778     0.9884255    
H      0.2827957    -3.6258776     6.6944568    
H     -1.2431221    -2.8270304     6.6889618    
