32

P      3.1122735    -0.5528605    -1.4928871    
O      1.8311516    -0.8544472    -2.2643807    
O      4.0133603    -1.7673899    -1.3366662    
O      3.8064795     0.7310749    -1.8770459    
O      2.5624705    -0.2281845     0.1091012    
C      1.8375738    -1.3153126     0.6019094    
C      1.0664500    -0.9181094     1.8642377    
O      0.3081160     0.2816435     1.7182854    
C      0.0362238    -1.9873826     2.2316761    
O     -0.3025175    -2.0120001     3.5871319    
C     -1.1874688    -1.5517121     1.3867594    
O     -2.3958274    -1.9637537     1.9231851    
C     -1.0209380    -0.0061785     1.3638076    
N     -1.4042004     0.5915743     0.1073244    
C     -0.8408558     0.5898239    -1.1201394    
N     -1.5904431     1.2643064    -1.9578369    
C     -2.6344000     1.6784081    -1.1995098    
C     -3.7798732     2.4811947    -1.6985043    
O     -3.8915830     2.8436074    -2.8642742    
N     -4.6772373     2.7667179    -0.7492695    
N     -2.5422118     1.2884012     0.0586591    
H      2.5290787    -2.1418809     0.8241091    
H      1.1614223    -1.6710676    -0.1912883    
H      1.7934384    -0.7098619     2.6537460    
H      0.3785185    -2.9882310     1.9663853    
H     -0.2826003    -1.1126181     3.9517327    
H     -1.0997000    -1.9321823     0.3630647    
H     -2.2526807    -2.1802691     2.8677089    
H     -1.6966368     0.4660177     2.0932190    
H      0.0921992     0.1245682    -1.3719846    
H     -5.4919720     3.3081622    -0.9932046    
H     -4.5233845     2.4364459     0.1890163    
