92

O     -1.0052159     2.2474214    -3.0698081    
C     -1.2850608     3.2960519    -2.5211617    
O     -2.2726516     4.1328577    -2.8607635    
C     -3.1720558     3.8458437    -3.9667070    
C     -3.9583199     2.5672488    -3.6828099    
C     -4.1024742     5.0579327    -4.0038625    
C     -2.3860725     3.7336133    -5.2716117    
C     -0.2752703     1.9954802     0.8904639    
N     -0.6639166     3.7576191    -1.4072692    
C      0.6624339     3.3005307    -1.0427977    
C      1.7304314     4.2964583    -1.5386005    
C      1.5301338     4.5653704    -3.0050346    
C      1.9257478     3.6261121    -3.9495854    
C      0.9006788     5.7255878    -3.4362855    
C      1.6968747     3.8428428    -5.2956526    
C      0.6763076     5.9474998    -4.7837140    
C      1.0716836     5.0048094    -5.7168495    
C      0.7104478     3.1033978     0.4859475    
O      1.9691470     2.6785558     0.9599436    
N      0.0150390     1.6082230     2.2932332    
C     -0.2968439     0.2097533     2.6887786    
C      0.5091700    -0.8224056     1.8698028    
O      0.5214988    -0.8326806     0.6497987    
C     -1.7960095    -0.1171115     2.5213061    
C     -1.9591107    -1.6148951     2.4651675    
C     -1.8655719    -2.3946805     3.6080446    
C     -2.0953607    -2.2535556     1.2371543    
C     -1.8654077    -3.7774726     3.5405966    
C     -2.0910215    -3.6274164     1.1565370    
C     -1.9505737    -4.4092551     2.3058935    
O     -1.9332589    -5.7511057     2.0666101    
N      1.1668948    -1.7016000     2.6309674    
C      1.7605239    -2.9234891     2.1339245    
C      1.3152356    -4.0231288     3.1042752    
O      1.1703138    -3.7550218     4.2942645    
C      3.3088408    -2.8466097     2.1704169    
C      3.8479902    -1.6267024     1.4083468    
C      3.9314894    -4.1447650     1.6607957    
C      3.5839281    -1.6328109    -0.0931217    
N      1.1334032    -5.2397575     2.5923709    
C      0.8947021    -6.4082453     3.4167658    
C     -0.2381746    -7.2940044     2.9023308    
C     -1.6428523    -6.7065877     3.0734426    
H     -4.6738350     2.3976894    -4.4809140    
H     -4.4934522     2.6572234    -2.7410256    
H     -3.2839248     1.7161892    -3.6296405    
H     -4.8229203     4.9428404    -4.8066081    
H     -3.5248300     5.9627749    -4.1712177    
H     -4.6320951     5.1517061    -3.0600513    
H     -3.0735986     3.6005604    -6.1008982    
H     -1.7076388     2.8847751    -5.2350413    
H     -1.8001987     4.6357187    -5.4357935    
H     -0.0965983     1.1261226     0.2550913    
H     -1.2997990     2.3345687     0.7688212    
H     -0.9139267     4.7006157    -1.1417084    
H      0.8062841     2.3381259    -1.5443040    
H      2.7190929     3.8630388    -1.3895788    
H      1.6502302     5.2307725    -0.9805826    
H      2.4102565     2.7148990    -3.6315592    
H      0.5876915     6.4703192    -2.7188845    
H      2.0036483     3.1036161    -6.0206247    
H      0.1885819     6.8558425    -5.1075130    
H      0.8912520     5.1728121    -6.7687081    
H      0.4337536     4.0556743     0.9628012    
H      2.6491190     3.3354000     0.7714921    
H      1.0378418     1.7678275     2.3767263    
H     -0.4624359     2.2489512     2.9376479    
H     -0.0202492     0.0982535     3.7391766    
H     -2.1616573     0.2990025     1.5852418    
H     -2.3642238     0.2984562     3.3523730    
H     -1.7823146    -1.9292801     4.5784930    
H     -2.1803597    -1.6742824     0.3304968    
H     -1.7742646    -4.3372012     4.4576713    
H     -2.1843133    -4.1327006     0.2082008    
H      1.0628431    -1.7177868     3.6406572    
H      1.4036855    -3.1035843     1.1173076    
H      3.5909534    -2.7218111     3.2228598    
H      4.9257709    -1.5867125     1.5792253    
H      3.4153032    -0.7210694     1.8351839    
H      3.7417717    -4.9639907     2.3492409    
H      5.0083599    -4.0247348     1.5744167    
H      3.5391328    -4.4102877     0.6830415    
H      4.0456262    -0.7583484    -0.5447119    
H      2.5184298    -1.5931940    -0.3018879    
H      4.0068012    -2.5145490    -0.5660698    
H      1.2641248    -5.3943590     1.6041108    
H      1.8132603    -7.0048388     3.4545590    
H      0.6789596    -6.0452607     4.4245580    
H     -0.2023902    -8.2340022     3.4520562    
H     -0.0850114    -7.5118046     1.8441888    
H     -2.3804910    -7.5030328     2.9312996    
H     -1.7688826    -6.2955898     4.0762625    
