25

O     -0.0358006    -1.2262183    -2.4991399    
O     -2.1719220    -1.6449741    -1.1701606    
O     -1.2337100     0.7021970    -1.3260457    
P     -0.9431867    -0.7873840    -1.3761703    
O     -0.0993126    -1.1079979     0.0826615    
O      1.8629990     0.5162215    -0.4190042    
O      2.1943523    -1.6826893     0.8927698    
P      1.3320725    -0.5277206     0.5089066    
O      0.9456244     0.2187369     1.9340280    
C      0.5939362     1.5979264     1.9193776    
C     -0.9043738     1.7511949     1.6330331    
N     -1.3358419     3.1219212     1.2745837    
C     -1.1274288     4.0877178     2.3662261    
C     -0.7372480     3.6002882     0.0159853    
H      1.1912044     2.0726504     1.1338066    
H      0.8761031     1.9575570     2.9128114    
H     -1.4677900     1.4031519     2.5001984    
H     -1.1263051     1.0852452     0.7929526    
H     -2.3426808     3.0342570     1.0952757    
H     -1.5576507     5.0450519     2.0837973    
H     -0.0616282     4.2068810     2.5405749    
H     -1.5980786     3.7244928     3.2752333    
H     -0.8029148     2.8155805    -0.7403489    
H      0.3136768     3.8329709     0.1624505    
H     -1.2684159     4.4840768    -0.3264578    
