25

C      2.4534200    -0.3817772    -0.7584295    
C      2.5276237    -1.7113130    -0.3777040    
Cl     4.0130144    -2.5946490    -0.5731620    
C      1.4216616    -2.3576486     0.1489437    
C      0.2487442    -1.6492598     0.3124557    
Cl    -1.1363906    -2.4825205     0.9631322    
C      0.1366860    -0.2920454    -0.0338186    
N     -1.0513489     0.3543245     0.1350947    
C     -1.3180325     1.7169214     0.1316619    
C     -0.4126015     2.6863982     0.5463990    
C     -0.7645797     4.0255569     0.5456831    
C     -2.0302199     4.4135940     0.1473538    
C     -2.9579417     3.4562811    -0.2332674    
C     -2.6157612     2.1159170    -0.2389841    
O     -3.4950796     1.1298767    -0.5863806    
C      1.2720829     0.3108145    -0.5922338    
H      3.3113400     0.1033515    -1.1933645    
H      1.4735615    -3.3965723     0.4304844    
H     -1.8710773    -0.2342288     0.2197570    
H      0.5611770     2.3865563     0.8972442    
H     -0.0471556     4.7644000     0.8673229    
H     -2.3060715     5.4562074     0.1415639    
H     -3.9520241     3.7564325    -0.5306441    
H     -4.3547633     1.5105318    -0.8177189    
H      1.2076483     1.3310945    -0.9295731    
