140

N      2.0154917    -8.1745835    -5.8071199    
C      2.5767173    -7.0388403    -6.5799324    
C      2.0133030    -5.6805162    -6.1512102    
O      1.9342621    -4.7649880    -6.9567520    
C      2.3293129    -7.3831205    -8.0602893    
C      1.6071411    -8.7351962    -8.0345331    
C      2.0637311    -9.3366894    -6.7115547    
N      1.5399206    -5.6605692    -4.8881579    
C      1.1701183    -4.4250339    -4.2143825    
C      0.8753974    -4.7591741    -2.7576937    
O      0.5370515    -5.8860272    -2.4055386    
C     -0.0899368    -3.7719465    -4.8200280    
C      0.2523873    -2.5330583    -5.6374149    
C     -0.9688064    -1.7724940    -6.0987924    
O     -2.1212099    -2.1368044    -5.9014767    
N     -0.6936551    -0.6698756    -6.8230808    
N      0.9501034    -3.7197090    -1.9268178    
C      0.5590893    -3.8024531    -0.5361319    
C     -0.5961871    -2.8148534    -0.3266708    
O     -1.3765741    -2.5718502    -1.2415544    
C      1.7606138    -3.6200771     0.4120047    
C      2.9064302    -4.4023497    -0.1652720    
C      2.9712089    -5.7848663    -0.0458339    
C      3.8217041    -3.7587624    -0.9879315    
C      3.8745740    -6.5164574    -0.7926877    
C      4.7326927    -4.4814241    -1.7323199    
C      4.7286842    -5.8697706    -1.6784135    
O      5.5103961    -6.5932722    -2.5369194    
P      4.7354825    -6.7430907    -4.0493471    
O      4.5182752    -5.3411042    -4.5806294    
O      3.4218393    -7.4730200    -3.7091486    
O      5.6852344    -7.6025344    -4.8466280    
N     -0.7784138    -2.3712246     0.9285642    
C     -1.8053775    -1.3960155     1.2540168    
C     -1.1324692    -0.2034737     1.9322725    
O      0.0090199    -0.2897486     2.3890905    
C     -2.8688935    -2.0705667     2.1392483    
C     -4.0637820    -1.1840216     2.4906796    
C     -4.7316220    -0.6011781     1.2202029    
O     -5.6669881    -1.2399880     0.7106368    
O     -4.2944419     0.4987788     0.7926963    
N     -1.8948315     0.8804837     2.0127509    
C     -1.3946624     2.1706929     2.4138073    
C     -2.1016172     2.6579740     3.6790259    
O     -3.1455910     2.1750359     4.0928145    
C     -1.6367479     3.1775873     1.2641382    
C     -0.9889385     2.6112015     0.0332674    
C      0.3809853     2.7259951    -0.1622963    
C     -1.7213727     1.8042550    -0.8294516    
C      1.0140952     2.0191513    -1.1654160    
C     -1.0964429     1.0844769    -1.8287992    
C      0.2861996     1.1599476    -1.9800258    
O      0.8877826     0.3733525    -2.9130768    
P      2.3387660    -0.3946734    -2.4051640    
O      2.3484146    -1.6037732    -3.3272890    
O      2.1247102    -0.7224094    -0.9399382    
O      3.4540936     0.5958254    -2.6843713    
N     -1.4571197     3.6568684     4.3032924    
C     -2.1184798     4.4807553     5.3029107    
C     -2.8142496     5.6025579     4.5178951    
O     -2.1819898     6.2115197     3.6490910    
C     -1.0934913     5.0558083     6.2928314    
C     -0.3475557     3.9120440     6.9910700    
C     -1.7881905     5.9753902     7.2949221    
C      0.8818302     4.3837264     7.7596579    
N     -4.1018909     5.8318611     4.7564854    
C     -4.8084775     6.8807367     4.0425335    
C     -4.4688611     8.2462603     4.6717279    
O     -3.7273456     8.3353530     5.6404542    
C     -6.2793375     6.4986552     4.2138362    
C     -6.2902695     5.9012349     5.6184005    
C     -4.9775354     5.1207898     5.6784314    
N     -5.1572048     9.2671766     4.1271569    
C     -4.7840646     10.6566612     4.3468523    
C     -3.3198526     10.9085635     3.8192634    
O     -2.7702977     11.9625661     4.1860504    
C     -4.9498001     11.0804561     5.7998039    
O     -2.8639555     10.0536219     3.0360074    
H      1.0543423    -7.9539573    -5.5326445    
H      2.5831379    -8.2292894    -4.9178060    
H      3.6474766    -6.9622656    -6.3470083    
H      3.2811268    -7.4496356    -8.5809493    
H      1.7439353    -6.5897475    -8.5221322    
H      1.8785760    -9.3537193    -8.8841949    
H      0.5292084    -8.5854428    -8.0259770    
H      1.4262022    -10.1351092    -6.3397980    
H      3.0991499    -9.6734669    -6.7686770    
H      2.0179113    -6.2974855    -4.2437572    
H      2.0068013    -3.7110983    -4.2335399    
H     -0.7607913    -3.4760280    -4.0076855    
H     -0.6107900    -4.5007999    -5.4416352    
H      0.8653331    -2.8215416    -6.4942163    
H      0.8545544    -1.8636286    -5.0124415    
H     -1.4538971    -0.0351237    -7.0176533    
H      0.2421737    -0.3020347    -6.7953296    
H      1.3318322    -2.8389376    -2.2663444    
H      0.1500027    -4.8180435    -0.4271209    
H      1.4952715    -3.9761602     1.4065001    
H      2.0226905    -2.5597264     0.4365512    
H      2.2678790    -6.2972615     0.5922341    
H      3.7732071    -2.6822544    -1.1112029    
H      3.8818459    -7.5952465    -0.7684802    
H      5.3851931    -3.9824267    -2.4373257    
H      0.0282851    -2.3099962     1.5401363    
H     -2.2594094    -1.0540761     0.3163368    
H     -2.3801568    -2.4090484     3.0552990    
H     -3.2250440    -2.9416454     1.5843043    
H     -3.7608108    -0.3581898     3.1357237    
H     -4.8085911    -1.7960517     3.0009872    
H     -2.8258562     0.8551256     1.5557607    
H     -0.3199441     2.0564060     2.5999163    
H     -1.2268427     4.1538307     1.5240821    
H     -2.7133014     3.2633597     1.1122467    
H      0.9721676     3.3490007     0.4926682    
H     -2.7860815     1.6840926    -0.6867403    
H      2.0846997     2.0462014    -1.3062756    
H     -1.6463879     0.3949886    -2.4554068    
H     -0.6943135     4.1067731     3.8172526    
H     -2.8380850     3.8343763     5.8058635    
H     -0.3845001     5.6498842     5.7038625    
H     -0.0399176     3.1859151     6.2353657    
H     -1.0368467     3.4064979     7.6694036    
H     -2.3330254     6.7630237     6.7769233    
H     -1.0528234     6.4484102     7.9377979    
H     -2.4799509     5.4062287     7.9105816    
H      1.4159729     3.5268237     8.1610403    
H      0.6011575     5.0354484     8.5811059    
H      1.5519948     4.9270839     7.0975629    
H     -4.4612267     6.9059339     3.0036906    
H     -6.5420662     5.7426773     3.4736106    
H     -6.9402531     7.3549113     4.1150931    
H     -7.1493344     5.2604628     5.7943976    
H     -6.2716707     6.7049767     6.3536764    
H     -4.5537354     5.1152923     6.6820093    
H     -5.1021188     4.0909948     5.3254521    
H     -5.5362792     9.0780650     3.2103450    
H     -5.4353894     11.2663945     3.7110472    
H     -4.5413651     12.0819749     5.9047592    
H     -4.3873956     10.4058042     6.4392296    
H     -5.9987786     11.0671258     6.0818222    
