43

C     -3.2380794     0.6572493     3.7385801    
C     -2.8104728     1.9190976     3.2716912    
C     -1.9691479     2.0377911     2.1915687    
C     -1.5288811     0.8698815     1.5769967    
C     -1.9445023    -0.4126983     2.0351849    
C     -2.8120080    -0.5105260     3.1166927    
C     -4.1355264     0.5849973     4.8927481    
N     -5.0448715    -0.3636699     4.9523529    
N     -4.0258423     1.4699136     5.8603229    
N     -0.7019854     0.6812490     0.5254240    
C     -1.3121789    -1.3621673     1.1961916    
C     -0.5560235    -0.6633232     0.2812944    
C      0.2809085    -1.1866421    -0.7859779    
C      0.1632294    -2.5309220    -1.1465101    
C      0.9565322    -3.0870140    -2.1281171    
C      1.8884053    -2.3032373    -2.7832069    
C      2.0228772    -0.9563151    -2.4701679    
C      1.2238753    -0.3958235    -1.4675028    
O      1.3674200     0.9134840    -1.1126088    
C      3.0159041    -0.1412471    -3.2006104    
C      2.6445685     1.0338828    -3.8521588    
C      3.5822332     1.7729723    -4.5525385    
C      4.9005493     1.3531691    -4.6055193    
C      5.2772060     0.1836123    -3.9642245    
C      4.3421604    -0.5610344    -3.2697722    
H     -3.1853670     2.8147368     3.7399460    
H     -1.6579295     3.0049583     1.8308105    
H     -3.0985802    -1.4834490     3.4827483    
H     -5.6593479    -0.4525968     5.7480046    
H     -5.1558661    -1.0114277     4.1891932    
H     -3.2929488     2.1602784     5.8375432    
H     -4.6440898     1.4529183     6.6574925    
H     -0.2192599     1.3954755     0.0035453    
H     -1.4010502    -2.4257954     1.2796370    
H     -0.5688282    -3.1430790    -0.6468171    
H      0.8490995    -4.1287301    -2.3868946    
H      2.5083593    -2.7233145    -3.5606417    
H      1.6114434     1.3514290    -3.8411634    
H      3.2819885     2.6764265    -5.0617708    
H      5.6320272     1.9313148    -5.1494580    
H      6.3035085    -0.1494257    -4.0077977    
H      4.6366208    -1.4704920    -2.7670183    
H      2.1327088     1.3009238    -1.5644384    
