56

C      1.2802413    -0.9770237    -6.1006747    
C      1.5640152     0.4002608    -6.1837160    
C      1.4616541     1.2281548    -5.0876711    
C      1.0805540     0.6504086    -3.8848998    
C      0.7914015    -0.7370901    -3.7836786    
C      0.8839181    -1.5564845    -4.8983197    
C      1.4106962    -1.8164162    -7.2977947    
N      0.5812775    -2.8202241    -7.4783129    
N      2.3507629    -1.5524772    -8.1777993    
N      0.8979966     1.1398979    -2.6303208    
N      0.4463528    -1.0412777    -2.4971692    
C      0.5147344     0.0900472    -1.8325477    
C      0.2333932     0.2264689    -0.4158255    
C     -0.1783495    -0.9077263     0.2876427    
C     -0.4538144    -0.8674588     1.6431860    
C     -0.9505995    -2.0711693     2.3773332    
C     -2.4050154    -1.7782999     2.8807302    
O     -3.3338445    -2.3323497     2.2550183    
O     -2.5444257    -0.9961661     3.8405893    
C     -0.0824640    -2.4572999     3.5742925    
C     -0.5384373    -3.8342162     4.1185146    
O     -0.5196649    -4.7998852     3.3259525    
O     -0.8764442    -3.8946076     5.3210052    
C     -0.2973986     0.3435217     2.3078808    
C      0.0923430     1.4955375     1.6415208    
C      0.3544597     1.4462393     0.2687083    
O      0.7082880     2.5730541    -0.4166510    
C      0.2234108     2.7575154     2.4030115    
C     -0.8673445     3.2230736     3.1608336    
C     -0.7231527     4.3697016     3.9330813    
C      0.4813154     5.0556408     3.9488329    
C      1.5517336     4.6124380     3.1959483    
C      1.4182878     3.4656564     2.4294718    
O     -2.0251326     2.5107522     3.0383615    
C     -3.0859895     2.7748565     3.9268733    
H      1.8258991     0.8340370    -7.1349458    
H      1.6683944     2.2833634    -5.1581207    
H      0.6948606    -2.6115495    -4.7922003    
H      0.6682948    -3.4398906    -8.2705791    
H     -0.1571318    -2.9935899    -6.8154266    
H      3.0145240    -0.8146622    -8.0034166    
H      2.4569164    -2.1110753    -9.0120226    
H      1.0012301     2.0875852    -2.3004544    
H     -0.2866288    -1.8342457    -0.2542122    
H     -1.0207663    -2.9362579     1.7050966    
H     -0.1908083    -1.7272127     4.3801873    
H      0.9670179    -2.5336659     3.2702648    
H     -0.5191297     0.3834973     3.3638687    
H      0.6477129     3.3458589     0.1694700    
H     -1.5490150     4.7293213     4.5254599    
H      0.5729325     5.9402524     4.5593688    
H      2.4888545     5.1445932     3.2109913    
H      2.2610146     3.0850503     1.8710909    
H     -3.7910664     1.9578655     3.7775784    
H     -3.5614017     3.7329688     3.6964944    
H     -2.7465967     2.7567070     4.9658951    
