20

C      0.9591956    -2.5126211     1.0732309    
C      1.7788743    -2.0594426     2.0909099    
C      1.6442065    -0.7603659     2.5497180    
C      0.6885398     0.0738322     1.9997530    
C     -0.1406430    -0.3789287     0.9783315    
C     -0.0051717    -1.6906862     0.5068304    
C     -0.8453761    -2.1710593    -0.6495375    
O     -1.1093676     0.4414143     0.4685627    
P     -0.5637162     1.5588157    -0.7123388    
O     -1.8658703     2.1225962    -1.2318492    
O      0.2051367     0.7026567    -1.7203760    
O      0.3177017     2.5435066     0.0312893    
O     -0.2048495    -1.9672979    -1.8972435    
H      1.0633538    -3.5161112     0.6888017    
H      2.5244851    -2.7114501     2.5161904    
H      2.2841936    -0.3826843     3.3315628    
H      0.5743069     1.1023552     2.3116251    
H     -1.8118179    -1.6425393    -0.6359144    
H     -1.0163391    -3.2492634    -0.5844612    
H     -0.0223190    -1.0018618    -1.9712287    
