34

C      1.3979730    -2.0210687     2.0100877    
C      0.8554593    -3.2573644     1.7010926    
C     -0.3533345    -3.3214509     1.0362507    
C     -1.0311470    -2.1702385     0.6451164    
C     -0.4502086    -0.9327918     0.9156248    
C      0.7473281    -0.8659144     1.6223516    
C     -2.3562999    -2.3092642    -0.0617721    
O     -1.0498332     0.2636461     0.5777198    
P     -1.5310403     0.6368966    -0.9497395    
O     -0.6862882     2.0029167    -1.2439444    
O     -2.9753159     1.0049004    -0.8992725    
C      0.0727666     2.6961077    -0.2705751    
C      1.4199650     2.0746737    -0.0063305    
C      2.2215366     2.5906749     1.0077303    
C      3.4537680     2.0252240     1.2802776    
C      3.8967213     0.9367664     0.5459884    
C      3.1055463     0.4232085    -0.4666193    
C      1.8739829     0.9934115    -0.7460305    
O     -1.0693004    -0.3845206    -1.9389896    
O     -2.2174488    -2.8185062    -1.3732176    
H      2.3304082    -1.9465400     2.5464248    
H      1.3631434    -4.1642304     1.9871530    
H     -0.8024559    -4.2737307     0.7985096    
H      1.1553278     0.1060522     1.8488707    
H     -2.8795797    -1.3429668    -0.0810620    
H     -2.9819113    -3.0358615     0.4662771    
H     -0.4986170     2.7603027     0.6644566    
H      0.1919335     3.7071172    -0.6799519    
H      1.8647165     3.4325597     1.5821767    
H      4.0648918     2.4312446     2.0713671    
H      4.8528867     0.4884633     0.7642109    
H      3.4360954    -0.4275623    -1.0424721    
H      1.2475360     0.5884282    -1.5285481    
H     -1.7828934    -2.1182768    -1.8938150    
