40

C     -2.3934179    -2.3052825     0.5531914    
N      2.9057097     1.4041760     0.2687800    
C      2.1626498     0.7822281    -0.6746941    
C      3.8223603     2.3924710    -0.0611292    
C      3.9627780     2.7836483    -1.3976721    
C      3.1960951     2.1667389    -2.3493347    
C      2.2927172     1.1514501    -1.9801172    
C      2.5985677    -0.0214534     3.7277325    
C      2.2172260     0.3089380     2.4179246    
C      2.9980869     1.2222259     1.6294950    
C      3.9746121     2.1249572     2.0431917    
C      1.8092963    -0.9399938     4.3902910    
C     -1.4254585    -1.3788403     0.9632894    
C      0.4122415    -1.0740980     2.6141130    
N      1.1137542    -0.2196732     1.8770421    
C     -1.2474677    -0.2051723     0.2238397    
C     -2.0025566     0.0219212    -0.9093496    
C     -2.9361765    -0.9165702    -1.3077179    
O     -4.4609946     0.7290251    -2.7116957    
S     -3.8853485    -0.6022812    -2.7660234    
O     -4.8243965    -1.6911914    -2.9893520    
N     -2.7470356    -0.5867092    -3.9772658    
C     -3.1422640    -2.0752737    -0.5826777    
N     -0.7115075    -1.6563005     2.1100872    
N      0.7266378    -1.4805287     3.8511697    
N      4.4640768     2.8325669     1.0229303    
H     -2.5520457    -3.2031504     1.1284161    
H      1.4952359     0.0092325    -0.3323416    
H      4.6746256     3.5559502    -1.6327242    
H      3.2846400     2.4498088    -3.3853128    
H      1.6979606     0.6573134    -2.7290189    
H      3.4778478     0.3995937     4.1803167    
H      4.3254950     2.3019805     3.0410569    
H      2.0455723    -1.2716291     5.3925455    
H     -0.5303674     0.5239312     0.5577190    
H     -1.8902221     0.9245386    -1.4854351    
H     -2.9031405     0.1657465    -4.6294250    
H     -2.6915114    -1.4795560    -4.4416286    
H     -3.8902088    -2.7728716    -0.9225952    
H     -1.0692420    -2.3982238     2.6992307    
