31

C      0.0294579    -1.4303037     0.0572560    
C      0.6807689    -1.9980900    -0.9996989    
C      1.3162969    -1.1700342    -1.9328764    
C      1.2275790     0.1936733    -1.8188330    
C      0.5084202     0.8022682    -0.7723449    
C      0.3938762     2.2264388    -0.6370487    
C     -0.1128126     2.7321483     0.5513208    
C     -0.6146308     1.8940770     1.5458382    
C     -0.6290855     0.5326360     1.3861764    
C     -0.0537911    -0.0344450     0.2365192    
N      0.8459403     3.0463439    -1.6475727    
C      1.1325296     4.4325543    -1.3550186    
C      0.3694545     2.8531611    -3.0051524    
S     -0.7075919    -2.4844384     1.2828428    
O     -2.1423920    -2.2586883     1.3550416    
O      0.0098604    -2.3724084     2.5435798    
N     -0.4762471    -4.0293515     0.7042143    
H      0.7170806    -3.0699402    -1.0872190    
H      1.8804519    -1.6140572    -2.7363259    
H      1.7545403     0.8164344    -2.5217984    
H     -0.1684054     3.7963291     0.7081524    
H     -1.0287407     2.3333367     2.4409510    
H     -1.0505334    -0.1214187     2.1334797    
H      0.2276328     5.0485390    -1.2907473    
H      1.7570490     4.8212299    -2.1584801    
H      1.6837840     4.5041294    -0.4201230    
H     -0.1357407     1.8973028    -3.1038952    
H      1.2027342     2.9010219    -3.7082068    
H     -0.3433500     3.6435520    -3.2624234    
H      0.1427425    -4.5565464     1.2996844    
H     -1.3554704    -4.4990140     0.5577455    
