40

S     -1.7041010    -3.8654538     2.3602287    
C     -0.9522998    -2.4131309     1.6611399    
C     -1.7169513    -1.5715598     0.8763609    
C     -1.1372536    -0.4415356     0.3283007    
C      0.2108830    -0.1839326     0.5653778    
C      0.9687435    -1.0310672     1.3698743    
C      0.3790599    -2.1544389     1.9217835    
N      0.8202635     0.9704724     0.0431711    
C      0.5926161     1.5912586    -1.1473746    
C     -0.2186783     1.0600407    -2.2347725    
C     -0.1704275    -0.2908967    -2.5813752    
C     -0.9221500    -0.7614680    -3.6379872    
C     -1.7394428     0.0910517    -4.3765052    
C     -2.5600295    -0.4450671    -5.5060995    
C     -1.7723128     1.4374112    -4.0346125    
C     -1.0185786     1.9213474    -2.9815936    
C      1.3545002     2.7475006    -1.1321123    
C      2.0082404     2.7224508     0.1073264    
C      2.9639603     3.7203289     0.6443765    
F      4.2235864     3.2466637     0.7568393    
F      2.6376787     4.1739202     1.8708822    
F      3.0531227     4.8111532    -0.1400833    
N      1.6801652     1.6429788     0.8031823    
N     -1.4146501    -5.0336845     1.2206426    
O     -3.1364447    -3.6565613     2.4669577    
O     -1.0087981    -4.2362361     3.5766497    
H     -2.7592785    -1.7989124     0.7280363    
H     -1.7261183     0.2381298    -0.2652665    
H      2.0027619    -0.7925021     1.5585885    
H      0.9286574    -2.8257617     2.5597297    
H      0.4686847    -0.9650451    -2.0321585    
H     -0.8738990    -1.8075321    -3.8997456    
H     -3.0594222     0.3575118    -6.0416509    
H     -3.3149171    -1.1310970    -5.1250769    
H     -1.9324656    -0.9973823    -6.2022669    
H     -2.3938074     2.1168103    -4.5984858    
H     -1.0596112     2.9682033    -2.7219950    
H      1.4503751     3.4872631    -1.8980039    
H     -0.9195802    -5.8254683     1.5990615    
H     -2.2540770    -5.3046570     0.7331812    
