161

N      8.9068423     9.8404298     1.2939010    
C      8.1274548     9.6422676     0.0471021    
C      7.0297341     8.6271629     0.4132079    
O      7.2095561     7.9237949     1.4132613    
C      9.0353859     9.0277419    -1.0151358    
N      5.9422791     8.5683222    -0.3356760    
C      4.9680918     7.5131730    -0.1061329    
C      5.5828299     6.1740762    -0.5220161    
O      6.6173078     6.1202535    -1.1854334    
C      3.7989038     7.8811135    -1.0239344    
C      4.4995384     8.5884407    -2.1829272    
C      5.6067439     9.3824540    -1.4936548    
N      4.9380992     5.0727040    -0.1336855    
C      5.3493910     3.7943542    -0.6943121    
C      5.3637857     3.9113121    -2.2191460    
O      4.6053266     4.6577992    -2.8187177    
C      4.2827252     2.8012683    -0.2122802    
C      3.7281205     3.4702599     1.0452653    
C      3.7372338     4.9502025     0.6717359    
N      6.2501156     3.1073703    -2.8334932    
C      6.3732907     3.0350731    -4.2707299    
C      5.6280942     1.8381401    -4.8877249    
O      5.8373381     1.4846950    -6.0391043    
C      7.8459996     3.0327156    -4.7048369    
O      8.4627738     4.2856571    -4.5805217    
N      4.7647527     1.2346320    -4.0641033    
C      3.7507028     0.2940286    -4.4860574    
C      2.4720997     0.7015567    -3.7526476    
O      2.5350600     1.4944912    -2.8051558    
C      4.1376441    -1.1552392    -4.1363575    
C      4.2480331    -2.0251021    -5.3835955    
O      3.8053029    -1.6826577    -6.4727554    
N      4.8433632    -3.2041858    -5.1881694    
N      1.3195205     0.1916350    -4.1619851    
C      0.1291034     0.4392490    -3.3605809    
C      0.3707661    -0.1371622    -1.9622992    
O      1.1771575    -1.0526896    -1.7877014    
C     -0.9993020    -0.3066867    -4.0873348    
C     -0.4285634    -0.5625138    -5.4828973    
C      1.0556361    -0.7760574    -5.2070168    
N     -0.3262813     0.3978492    -0.9651706    
C     -0.2463836    -0.1907400     0.3607312    
C     -0.9194332    -1.5659002     0.3295635    
O     -1.6813731    -1.8871140    -0.5807399    
C     -1.0494136     0.7707192     1.2433914    
C     -2.0957725     1.3117873     0.2721136    
C     -1.3287635     1.4476694    -1.0412213    
N     -0.6581412    -2.3820437     1.3521521    
C     -1.4737886    -3.5736901     1.5166825    
C     -2.9277139    -3.1379172     1.7274516    
O     -3.2257835    -2.0003602     2.0645673    
C     -0.9247684    -4.2481728     2.7778160    
C     -0.3712349    -3.0676210     3.5731402    
C      0.2174472    -2.1637409     2.4908514    
N     -3.8340377    -4.0981851     1.4907052    
C     -5.2029744    -3.9296962     1.9360551    
C     -5.2527630    -4.2039021     3.4455253    
O     -4.3298545    -4.8068336     3.9986094    
C     -6.1240650    -4.8878361     1.1805942    
C     -6.1591071    -4.6143550    -0.3251062    
C     -6.9074731    -3.3273737    -0.6956758    
N     -8.3107764    -3.3649272    -0.3348102    
C     -9.2651294    -4.0047910    -1.0092914    
N     -9.0065112    -4.6217493    -2.1548857    
N     -10.5045217    -4.0088446    -0.5270873    
N     -6.3042100    -3.7427744     4.1207961    
C     -6.4769896    -4.1159087     5.5154909    
C     -6.7803889    -5.6198973     5.5772656    
O     -7.0126705    -6.2495727     4.5454782    
C     -7.6656884    -3.2763346     6.0124868    
C     -7.8631739    -2.2249818     4.9193626    
C     -7.4343648    -2.9653133     3.6550810    
N     -6.8378947    -6.1693686     6.7886979    
C     -7.1700192    -7.5892250     6.9562989    
C     -8.6123080    -7.8723769     6.5507932    
C     -6.9108297    -7.8679838     8.4412715    
C     -5.9831562    -6.7396467     8.8828219    
C     -6.4850380    -5.5588419     8.0564813    
H      9.9149756     9.8755348     1.1133016    
H      8.6771772     8.9923475     1.8670983    
H      8.6242884     10.6748333     1.8173049    
H      7.6974546     10.5816966    -0.3003270    
H      8.4750799     8.7557755    -1.9036588    
H      9.4862517     8.1131565    -0.6381413    
H      9.8116164     9.7296888    -1.3068058    
H      4.7063552     7.4808848     0.9547709    
H      3.1166026     8.5566691    -0.5106429    
H      3.2537931     7.0047549    -1.3650747    
H      3.8287939     9.2214946    -2.7566364    
H      4.9316637     7.8401396    -2.8488717    
H      6.4608602     9.5293573    -2.1508221    
H      5.2315471     10.3525035    -1.1541120    
H      6.3512060     3.5436513    -0.3295193    
H      4.7034193     1.8186968    -0.0155908    
H      3.5012014     2.6980668    -0.9676655    
H      4.3956593     3.2942695     1.8880744    
H      2.7331866     3.1160951     1.2975595    
H      2.8521583     5.2038651     0.0792248    
H      3.7887832     5.5999331     1.5447558    
H      6.8319184     2.4865351    -2.2901266    
H      5.8888526     3.9327178    -4.6793019    
H      7.8880015     2.7716992    -5.7642349    
H      8.3928629     2.2695476    -4.1347626    
H      8.4047708     4.5875601    -3.6624107    
H      4.5101936     1.6899868    -3.1897278    
H      3.6290774     0.3684421    -5.5743492    
H      3.3922716    -1.5945185    -3.4684420    
H      5.0962666    -1.1519709    -3.6192520    
H      4.9477255    -3.8299988    -5.9709593    
H      5.2069055    -3.4738399    -4.2905603    
H     -0.0301052     1.5188849    -3.2974846    
H     -1.9165333     0.2749529    -4.1179334    
H     -1.1970372    -1.2489226    -3.5727859    
H     -0.5634457     0.3167114    -6.1124278    
H     -0.8821519    -1.4207767    -5.9701476    
H      1.2334545    -1.7875858    -4.8253513    
H      1.6935171    -0.6147649    -6.0745285    
H      0.8031660    -0.3010597     0.6444525    
H     -0.4044224     1.5687598     1.6091511    
H     -1.5159332     0.2591862     2.0825130    
H     -2.5251046     2.2545390     0.5987805    
H     -2.8893041     0.5728670     0.1605486    
H     -1.9763927     1.3099598    -1.9056551    
H     -0.8259771     2.4183309    -1.1107057    
H     -1.4129154    -4.2003638     0.6223547    
H     -0.1268032    -4.9401288     2.5121701    
H     -1.7017920    -4.7842006     3.3213732    
H      0.3686397    -3.3672841     4.3097842    
H     -1.1899038    -2.5531249     4.0771988    
H      0.2329750    -1.1190687     2.7943450    
H      1.2325982    -2.4784712     2.2252114    
H     -3.5089116    -5.0508884     1.4094199    
H     -5.4490071    -2.8798429     1.7542509    
H     -7.1242467    -4.8344567     1.6065057    
H     -5.7616716    -5.9022842     1.3587939    
H     -6.6309307    -5.4691421    -0.8087107    
H     -5.1383330    -4.5319148    -0.6981744    
H     -6.8074522    -3.1464617    -1.7682812    
H     -6.4546751    -2.4774294    -0.1861906    
H     -8.5596160    -2.9684170     0.5581681    
H     -9.7443507    -5.0618479    -2.6767694    
H     -8.0818513    -4.6206812    -2.5477907    
H     -10.7348084    -3.5315688     0.3268933    
H     -11.2496312    -4.4614016    -1.0280322    
H     -5.5424847    -3.9093979     6.0458244    
H     -7.4665069    -2.8309697     6.9832447    
H     -8.5497080    -3.9095636     6.0944763    
H     -7.2006681    -1.3774252     5.0913315    
H     -8.8882210    -1.8691554     4.8695480    
H     -8.2284870    -3.6416984     3.3231412    
H     -7.1398605    -2.2901373     2.8557225    
H     -6.4981334    -8.1683910     6.3118581    
H     -8.8448275    -8.9155069     6.7444281    
H     -8.7470623    -7.6741566     5.4909404    
H     -9.2940734    -7.2459211     7.1206779    
H     -6.4753098    -8.8518147     8.5964035    
H     -7.8503159    -7.8148857     8.9912487    
H     -4.9522564    -6.9686148     8.6118154    
H     -6.0323748    -6.5478592     9.9514457    
H     -7.3756231    -5.1179739     8.5163619    
H     -5.7268357    -4.7884015     7.9338126    
