39

N      1.1723345     4.3349696    -2.7721483    
C      1.6260585     3.1772716    -3.5781561    
C      0.9510679     1.9077070    -3.0733320    
N      1.3666124     1.6702646    -1.7051627    
C      0.7669150     0.7886002    -0.8639974    
C     -0.4257689     0.1497607    -1.1817983    
C     -1.1439694    -0.7218509    -0.3386519    
C     -2.3611610    -1.3021579    -0.8289896    
C     -2.9911087    -1.1555556    -2.0649092    
C     -4.1487004    -1.9324862    -2.0420952    
C     -4.2055325    -2.5345823    -0.8020852    
N     -3.1344085    -2.1508963    -0.0879238    
C     -0.5938720    -0.9629507     0.9327854    
C     -0.9368588    -1.7545602     2.1045956    
O     -1.9065688    -2.4938517     2.3340516    
N      0.0611989    -1.5527923     3.0316466    
C      1.0255134    -0.6919667     2.5526545    
C      2.1874417    -0.1927121     3.0844146    
C      2.9324721     0.6859674     2.2866405    
C      2.5208718     1.0332782     1.0219016    
F      3.3095059     1.9066289     0.3203014    
C      1.3416190     0.5447503     0.4318608    
C      0.6200632    -0.3246265     1.2521641    
H      1.6804591     5.1885075    -3.0297683    
H      1.3306213     4.1380762    -1.7757965    
H      0.1665492     4.4963543    -2.9052449    
H      2.7090837     3.0831229    -3.4923191    
H      1.3716429     3.3335039    -4.6256136    
H      1.2097105     1.0671866    -3.7264466    
H     -0.1330660     2.0305517    -3.0921664    
H      2.3477304     1.8388929    -1.5308713    
H     -0.8448634     0.3040766    -2.1591299    
H     -2.6627743    -0.5663389    -2.8962439    
H     -4.8623288    -2.0452849    -2.8341346    
H     -4.9399365    -3.2039739    -0.3988322    
H     -2.9070758    -2.4386189     0.8625089    
H      0.0616130    -1.9948266     3.9366909    
H      2.5310284    -0.4516798     4.0719786    
H      3.8510964     1.1051456     2.6638234    
