65

C      1.2642498    -1.5576106     0.4959666    
C      1.9522076    -0.5329692    -0.3620965    
C      1.4202596    -0.2209521    -1.6090518    
C      3.1265426     0.0997471     0.0297797    
C      2.0001283     0.7421795    -2.4121993    
C      3.7134629     1.0655953    -0.7674486    
C      3.1370874     1.4111080    -1.9819958    
C      3.7613367     2.4056752    -2.8815499    
F      4.5515803     3.2950297    -2.1775895    
F      2.8062770     3.2402521    -3.4418626    
P      4.7698742     1.5408866    -4.2542106    
O      3.7165526     0.8201584    -5.0757050    
O      5.6986720     0.6283182    -3.4735912    
O      5.4726184     2.6664537    -4.9905137    
C      0.7787301    -1.0418879     1.8700889    
C     -0.0401712     0.2638751     1.7279098    
C     -1.2764262     0.1376840     0.8799126    
C     -1.3110474     0.7202286    -0.3818415    
C     -2.4209431    -0.5056521     1.3396108    
C     -2.4318223     0.6219703    -1.1826553    
C     -3.5463556    -0.6109053     0.5445423    
C     -3.5499210    -0.0624874    -0.7302479    
C     -4.7833647    -0.0610614    -1.5426850    
F     -5.5390295    -1.1988913    -1.3257132    
F     -4.5044275    -0.1417418    -2.8956888    
P     -5.7959983     1.5095956    -1.1431483    
O     -4.8635133     2.6450773    -1.5281663    
O     -6.0525143     1.3823965     0.3479771    
O     -7.0419298     1.4029096    -2.0034641    
C      1.9508399    -0.8840350     2.8315250    
C      2.5758571    -2.0383011     3.2975371    
C      2.4190668     0.3468511     3.2744495    
C      4.0899252    -0.7358324     4.6222442    
C      3.6332173    -1.9673377     4.1852812    
C      3.4819932     0.4174753     4.1604759    
N     -0.0800598    -2.0710506     2.4361551    
N     -0.4934969    -3.1465659     1.7668970    
N     -1.2498458    -3.8704716     2.4942350    
C     -1.3741575    -3.2785041     3.7168814    
C     -0.6020359    -2.0923231     3.6947819    
C     -2.0720090    -3.6582083     4.8645377    
C     -0.4927809    -1.2764502     4.8180183    
C     -1.9643234    -2.8384541     5.9610346    
C     -1.1844418    -1.6719233     5.9384782    
H      1.9389634    -2.3993663     0.6643124    
H      0.3906142    -1.9285098    -0.0409179    
H      0.5317642    -0.7263014    -1.9608065    
H      3.5932345    -0.1546268     0.9683499    
H      1.5830301     0.9881864    -3.3796273    
H      4.6263457     1.5578477    -0.4656442    
H      0.6053254     1.0124568     1.2692504    
H     -0.3364160     0.6003752     2.7235348    
H     -0.4574108     1.2722129    -0.7482206    
H     -2.4604506    -0.9126573     2.3392257    
H     -2.4591339     1.0879334    -2.1583219    
H     -4.4415579    -1.0971489     0.9052558    
H      2.2268702    -3.0039451     2.9600221    
H      1.9705333     1.2614234     2.9219539    
H      4.9150460    -0.6747719     5.3139926    
H      4.0984835    -2.8769359     4.5312604    
H      3.8311273     1.3854851     4.4845603    
H     -2.6658279    -4.5566761     4.8673164    
H      0.1130552    -0.3848177     4.8082992    
H     -2.4885228    -3.0925281     6.8685314    
H     -1.1273934    -1.0667528     6.8293147    
