79

C      1.2145235    -0.0873701    -2.3068660    
C      1.2221349    -0.7004185    -0.0093234    
C     -0.5130129     0.8583487    -0.8128272    
C     -0.5146886     2.3824576    -1.0394907    
C     -0.3077186     2.7704074    -2.5042037    
C      1.0223909     2.2630789    -3.0784144    
C      1.3047348     0.3986703    -4.6659765    
C      1.1148460    -0.1249321     1.3724026    
C      0.1629845    -0.6188138     2.2530249    
C      0.0309636    -0.0746084     3.5291156    
C      0.8626939     0.9764786     3.9148141    
C      1.8191594     1.4621858     3.0424607    
C      1.9455665     0.9152850     1.7765046    
C     -0.9942644    -0.5309961     4.4905558    
C     -2.5108877    -2.2753584     5.0845333    
C     -3.9968013    -3.6778327     5.8479944    
C     -4.1797314    -2.6898784     6.7568444    
C     -1.6408596     0.1512417    -1.5920203    
C     -1.9286714    -1.1932909    -0.9874827    
C     -1.4541352    -2.3591025    -1.5750202    
C     -1.6693378    -3.5898842    -0.9782219    
C     -2.3602539    -3.6713714     0.2189914    
C     -2.8433497    -2.5157922     0.8116094    
C     -2.6315837    -1.2876791     0.2095456    
C      2.2396287     2.7400702    -2.2621377    
C      3.4972693     2.5425046    -3.0578551    
C      3.8812772     3.4857582    -4.0043850    
C      5.0131927     3.2913370    -4.7748780    
C      5.7761061     2.1465216    -4.6108897    
C      5.4006605     1.2004848    -3.6727778    
C      4.2686268     1.3985530    -2.9007615    
C      0.0539562     0.4968658    -5.5092371    
C     -0.1133173    -0.4191337    -6.6834920    
C     -0.9500825    -0.6160462    -5.4570569    
N      0.8009433     0.2639226    -1.0323427    
N      1.0468571     0.8297987    -3.2979271    
N     -1.5300423    -1.7665477     4.2784658    
N     -3.0497569    -3.4354431     4.9050471    
O      1.7380772    -1.1828587    -2.5180290    
O     -1.7532691     2.9459320    -0.6581210    
O     -0.3084763     4.1721118    -2.6470648    
O     -1.3664526     0.1510574     5.4418697    
S     -3.1164287    -1.3615727     6.4443913    
H      2.2612249    -0.9543053    -0.2342448    
H      0.6351921    -1.6234802    -0.0858974    
H     -0.7251856     0.7228495     0.2535324    
H      0.2954424     2.8237182    -0.4445245    
H     -1.1316234     2.3426267    -3.0948738    
H      1.0963106     2.7278353    -4.0666847    
H      1.6449613    -0.6377624    -4.6192489    
H      2.1105179     1.0048443    -5.0931664    
H     -0.4931345    -1.4054034     1.9102090    
H      0.7411176     1.3937471     4.9026079    
H      2.4649299     2.2694232     3.3490218    
H      2.6889610     1.2952621     1.0926326    
H     -4.5241025    -4.6124273     5.8101333    
H     -4.8617093    -2.6605347     7.5799958    
H     -1.3551195     0.0384832    -2.6380751    
H     -2.5269407     0.7868251    -1.5327207    
H     -0.8931903    -2.3035378    -2.4973093    
H     -1.2896162    -4.4849082    -1.4476394    
H     -2.5241624    -4.6296449     0.6874744    
H     -3.3844348    -2.5748660     1.7449912    
H     -3.0154163    -0.3905267     0.6729507    
H      2.2958252     2.1795651    -1.3301927    
H      2.0903907     3.7987805    -2.0477086    
H      3.2848798     4.3771669    -4.1338000    
H      5.3022944     4.0323145    -5.5049197    
H      6.6590661     1.9924080    -5.2123095    
H      5.9882623     0.3040375    -3.5417963    
H      3.9763272     0.6491398    -2.1786013    
H     -0.3315683     1.5034602    -5.6112722    
H      0.6713730    -1.1321258    -6.8814607    
H     -0.5860089    -0.0307518    -7.5716393    
H     -2.0005968    -0.3736214    -5.5004687    
H     -0.7232608    -1.4637987    -4.8283093    
H     -1.2080892    -2.3642556     3.5284195    
H     -1.8392666     2.9432031     0.3030063    
H     -1.0891271     4.5162869    -2.1864556    
