84

C     -2.4942196    -0.3803593     3.9047982    
C     -3.4203598    -0.9012025     5.0005538    
C     -4.3735875    -1.9671242     4.4689328    
C     -3.5833249    -3.1077750     3.8015388    
C     -2.6991894    -2.5305687     2.6816709    
C     -2.0233156    -3.6490697     1.8816352    
C     -0.8810513    -3.1583490     0.9807350    
C     -0.9639644    -1.6567142     0.6719582    
C     -0.7998338    -0.9212860     2.0303879    
C     -1.6872044    -1.4870364     3.2039933    
C     -0.7493935     0.6127891     1.8713030    
C      0.3998100     1.0148054     0.9212585    
C      0.2167904     0.3015614    -0.4091829    
C      0.2395015    -1.2306686    -0.2277301    
C      0.2041161    -1.7165314    -1.6881840    
C      1.0906986    -0.7131965    -2.4395816    
C      1.1509315     0.5361612    -1.5753785    
C     -4.5444468    -4.1806668     3.2804698    
C     -0.7139526    -2.1081792     4.2199246    
C     -2.3011581    -1.3415745    -0.0317276    
C      1.6121902    -1.6731676     0.3086482    
C      1.8843542     1.5877904    -1.9267818    
C      1.9896300     2.8805495    -1.1584962    
C      2.8620499     3.9346832    -1.8530463    
C      2.8810640     5.2058551    -1.0587828    
C      2.0413190     6.2295466    -1.1656132    
C      2.1557290     7.4323117    -0.2739649    
C      0.9180590     6.3072948    -2.1559945    
C      2.6520883     1.5343327    -3.2515427    
C      2.8814294    -1.4981557    -3.8195100    
C      4.3309305    -1.8865260    -3.7793723    
O     -1.9801549     1.1506822     1.4315168    
O      2.4206231    -1.2472343    -2.6057799    
O      2.2089244    -1.4403145    -4.8309043    
O      3.8640814     1.2291985    -3.2140116    
O      1.9984605     1.8157772    -4.2810158    
O     -5.2774776    -1.3281784     3.5860794    
H     -3.1025299     0.1353344     3.1622272    
H     -1.8179297     0.3469377     4.3555727    
H     -4.0151090    -0.0686003     5.3804405    
H     -2.8500613    -1.3156644     5.8310564    
H     -4.9452153    -2.3850486     5.3179503    
H     -2.9624201    -3.5669611     4.5746347    
H     -3.3836500    -1.9935701     2.0251685    
H     -2.7785175    -4.1390812     1.2675726    
H     -1.6317924    -4.3992230     2.5709937    
H     -0.8847017    -3.7164658     0.0427974    
H      0.0702896    -3.3552023     1.4725736    
H      0.2193016    -1.1479484     2.3462781    
H     -0.5086639     1.0432815     2.8573638    
H      1.3594279     0.7659614     1.3701172    
H      0.3644371     2.0947505     0.7812632    
H     -0.7777162     0.5881774    -0.7741905    
H     -0.7939095    -1.6906580    -2.1177457    
H      0.6025969    -2.7229424    -1.8064541    
H      0.7153268    -0.4804760    -3.4457789    
H     -5.2876206    -4.4142219     4.0412761    
H     -4.0086197    -5.0950091     3.0457306    
H     -5.0527087    -3.8455050     2.3791225    
H     -1.2319698    -2.5194260     5.0795304    
H     -0.0272391    -1.3443663     4.5805771    
H     -0.1334568    -2.9037456     3.7626244    
H     -2.8587949    -2.2532501    -0.2241308    
H     -2.1570755    -0.8458953    -0.9871224    
H     -2.9046312    -0.6696261     0.5676366    
H      1.7693444    -1.4417224     1.3561529    
H      2.3882837    -1.1686839    -0.2632058    
H      1.7453025    -2.7425912     0.1689487    
H      2.4075518     2.6803955    -0.1690327    
H      0.9856738     3.2968069    -1.0337465    
H      2.4851442     4.0925265    -2.8674130    
H      3.8767164     3.5387578    -1.9546364    
H      3.6510438     5.2407510    -0.2979251    
H      1.2435193     7.5515268     0.3078616    
H      2.2872408     8.3304348    -0.8740085    
H      2.9965419     7.3352699     0.4063528    
H      0.8760152     5.4305264    -2.7954903    
H      1.0366786     7.1898964    -2.7834145    
H     -0.0324440     6.3971707    -1.6331384    
H      4.6057838    -2.3884247    -4.7004314    
H      4.5274606    -2.4991421    -2.9061881    
H      4.8851327    -0.9525093    -3.6851768    
H     -1.8815013     2.1043908     1.3152621    
H     -5.8868939    -1.9894051     3.2331332    
