43

P     -0.3402474    -3.5991659    -3.4593723    
O     -0.4309024    -3.0404263    -4.8626172    
O     -1.5500731    -4.3873015    -3.0127134    
O      0.9887164    -4.2471989    -3.1397046    
P     -1.6335227    -1.6813631    -1.7760993    
O     -2.7277042    -1.3991127    -2.7484037    
O     -1.9582497    -2.4434224    -0.5367286    
O     -0.2906995    -2.1839473    -2.4605198    
P     -0.3442833     0.0126720     0.0869152    
O      0.8202289    -0.8860072     0.2633019    
O     -1.3915172     0.1450624     1.1364871    
O     -1.0799014    -0.1887074    -1.3630673    
O      0.2715575     1.4927239    -0.2392231    
C     -0.6035047     2.6177136    -0.2758922    
C      0.0848247     3.8281812     0.3712611    
O      0.0912639     3.7651430     1.7900278    
C      1.5654603     3.9317123    -0.0198280    
O      1.9851625     5.2622777     0.0154258    
C      2.2545092     3.0728780     1.0644388    
O      3.4899132     3.6274793     1.4055987    
C      1.2447800     3.1065447     2.2404709    
N      0.9217546     1.7894276     2.7518063    
C     -0.2036074     1.4940659     3.4723837    
N     -0.2825492     0.2615822     3.8670564    
C      0.8391144    -0.3375142     3.3461917    
C      1.3300269    -1.6512668     3.3659927    
N      0.7029008    -2.6628586     4.0154965    
N      2.5373995    -1.8856093     2.8311402    
C      3.1878979    -0.8804030     2.2740912    
N      2.8265782     0.3850929     2.1496489    
C      1.6075334     0.6139708     2.6541504    
H     -1.5181052     2.3584268     0.2685058    
H     -0.8538380     2.8184660    -1.3223104    
H     -0.4679720     4.7346251     0.1130829    
H      1.7275895     3.4936299    -1.0130023    
H      2.8921944     5.2794903     0.3767445    
H      2.3401549     2.0471604     0.7002559    
H      4.0833119     2.9265821     1.7094814    
H      1.6469539     3.7026422     3.0759142    
H     -0.9376301     2.2458185     3.6805261    
H      0.9930294    -3.5849499     3.7246167    
H     -0.2904389    -2.5244123     4.1244740    
H      4.1656906    -1.1239473     1.8796227    
