45

C     -0.5075549    -1.3401639    -0.7765097    
C      0.5746193    -2.3647024    -1.1648898    
C      1.6270429    -1.6650883    -2.0305307    
C      0.9427102    -1.0120398    -3.2409746    
C     -0.1723240    -0.0754960    -2.7515997    
C     -0.9621915     0.5073289    -3.9305795    
O      0.0867608    -0.3701522     0.0393287    
O      1.1246874    -2.8958912     0.0130443    
O      2.6519399    -2.5472004    -2.4181936    
O      1.8530621    -0.2585994    -3.9991628    
O     -1.0926398    -0.7771750    -1.9174409    
O     -1.7723436     1.5965731    -3.5769433    
C     -0.3904300     1.7166610     3.5399418    
C     -0.4180268     0.1879654     3.6939577    
C      0.1847818    -0.4326927     2.4320959    
C     -0.6095737     0.0475714     1.2049681    
C     -0.7299482     1.5795060     1.1853679    
C     -1.7433868     2.0473828     0.1313598    
O      0.9242180     2.1380056     3.4104881    
O      0.2766628    -0.1695347     4.8539107    
O      0.1307229    -1.8322304     2.5721228    
O     -1.1804877     2.0960785     2.4341632    
O     -1.5664009     3.3937131    -0.2184109    
H     -1.3280214    -1.8487582    -0.2538900    
H      0.0877264    -3.1622622    -1.7499721    
H      2.1144704    -0.8879568    -1.4309958    
H      0.4892940    -1.8004447    -3.8675980    
H      0.2937081     0.7380714    -2.1769479    
H     -1.6437758    -0.2616628    -4.3019480    
H     -0.2470202     0.7792665    -4.7158844    
H      2.0060940    -3.2506918    -0.1923064    
H      2.2885247    -3.2589642    -2.9682168    
H      2.6952061    -0.7403813    -4.0426922    
H     -1.2177380     2.3556493    -3.3409130    
H     -0.8868376     2.1706061     4.4068141    
H     -1.4730073    -0.1250296     3.7659903    
H      1.2253902    -0.0908762     2.3332686    
H     -1.6115707    -0.3998813     1.2365003    
H      0.2633134     1.9889752     0.9524109    
H     -2.7502561     1.8714030     0.5290035    
H     -1.6219286     1.4687279    -0.7856802    
H      1.0093302     3.0792925     3.6257092    
H      0.4467771    -1.1246371     4.8155779    
H      0.5183281    -2.2479187     1.7795646    
H     -1.7405230     3.9411893     0.5608214    
