35

H      3.9599655     1.5257808    -0.9086221    
H      3.4267549     2.1030532    -3.1052309    
H      3.0049093     3.7023745    -2.4138501    
H      0.9928065     2.2730794    -2.7727305    
H      1.7546574     3.1773720     0.0008304    
H     -0.7455601     3.6375109    -0.7781866    
H      0.5351826     1.4577549     1.0132376    
H     -0.3091290     0.2877537    -1.6156184    
H      1.8850331    -0.3226201     1.4756657    
H     -0.7225766    -5.9185912     1.2683224    
H      0.3214944    -4.8607362     2.1923359    
H     -1.8720118    -3.7252462    -2.4015784    
P     -1.9959249     1.0272126     1.2481909    
O     -1.1277178     1.2265886     2.4799544    
O     -2.0254659    -0.4045126     0.7427468    
O     -3.3326913     1.7278986     1.2670177    
O      3.9482527     2.4640042    -1.1437458    
C      3.0603034     2.6312888    -2.2169554    
C      1.6511453     2.1247294    -1.9042648    
O      1.7177995     0.7374366    -1.5855085    
C      0.9847373     2.8007294    -0.6856304    
O      0.1578419     3.8628937    -1.0661026    
C      0.2015010     1.6417916    -0.0178587    
O     -1.1570688     1.9260167     0.0123581    
C      0.5265275     0.4193833    -0.9063037    
N      0.6695256    -0.8131180    -0.2121992    
C      1.2907659    -1.0648093     0.9804988    
N      1.1069877    -2.2659877     1.4332743    
C      0.2755740    -2.8637550     0.5114142    
C     -0.3311596    -4.1301148     0.4346118    
N     -0.1266810    -5.1092277     1.3269988    
N     -1.1114292    -4.3846128    -0.6313116    
C     -1.2545835    -3.4524654    -1.5558118    
N     -0.7404155    -2.2348971    -1.6047473    
C     -0.0061008    -1.9603175    -0.5232837    
