42

N      1.9155864    -2.8562145    -4.6674866    
C      2.6068282    -3.6350447    -3.8441967    
C      2.5417363    -5.1095742    -4.0731816    
N      3.3600994    -3.2081233    -2.8425389    
C      3.4081405    -1.8937497    -2.5850496    
N      4.2887240    -1.5007200    -1.6476779    
C      2.6469259    -0.9842951    -3.3672688    
C      1.9492247    -1.5496210    -4.4129040    
C      2.6235093     0.4991725    -3.1146126    
N      1.7810386     0.8724665    -1.9794634    
C      2.3194383     1.0920733    -0.7608362    
O      3.5210277     0.9979961    -0.5094123    
S      1.0681820     1.5165051     0.4316203    
C     -0.1323882     1.4009542    -0.8534371    
C      0.4047614     1.0341221    -2.0344665    
C     -0.3280440     0.8372870    -3.3171407    
C     -1.5568139     1.6168511    -0.4799539    
C     -2.1162167     0.3448089     0.1678402    
O     -3.2743650     0.6412119     0.9309171    
P     -3.3837834    -0.0301664     2.4256505    
O     -2.3343530     0.7753451     3.3264825    
O     -4.7334198     0.3464625     2.9293062    
O     -3.0277816    -1.4803447     2.3303534    
P     -0.6608907     1.0387614     3.2328585    
O     -0.3054190     1.2809010     4.6796384    
O     -0.0357670    -0.2034762     2.6299843    
O     -0.5542830     2.2786903     2.3585356    
H      2.3324256    -5.3073398    -5.1188237    
H      1.7332277    -5.5195788    -3.4702422    
H      3.4714340    -5.5722172    -3.7609526    
H      4.1855252    -0.5914718    -1.2102518    
H      4.6681058    -2.2367663    -1.0746806    
H      1.3960195    -0.9350402    -5.1112682    
H      2.2459196     1.0145509    -3.9971876    
H      3.6261438     0.8599555    -2.8736135    
H     -1.3832129     1.0198858    -3.1538449    
H     -0.2002872    -0.1849168    -3.6620289    
H      0.0422860     1.5243255    -4.0735981    
H     -2.1771064     1.9073444    -1.3266369    
H     -1.6066891     2.3978706     0.2850146    
H     -1.3629746    -0.1014125     0.8278713    
H     -2.3891084    -0.4074302    -0.5816402    
