18

C      0.0199800     0.1410767    -0.1358402    
C     -1.2110243    -0.0476701     0.4923455    
C     -1.3464522    -1.0132608     1.4723930    
C     -0.2660067    -1.8075569     1.8232074    
C      0.9574137    -1.6287978     1.1965698    
C      1.1065655    -0.6545036     0.2272547    
C      0.1721250     1.1713666    -1.1773896    
N      1.2773901     1.8768476    -1.2230357    
N     -0.7992040     1.3612856    -2.0385048    
H     -2.0539728     0.5792451     0.2476334    
H     -2.2970151    -1.1497657     1.9640114    
H     -0.3771115    -2.5649224     2.5837240    
H      1.7963056    -2.2504511     1.4666853    
H      2.0574611    -0.5439964    -0.2689151    
H      1.4231244     2.5829638    -1.9302677    
H      1.9971152     1.7432436    -0.5298269    
H     -1.6247244     0.7814104    -2.0154557    
H     -0.7314172     2.0642840    -2.7605609    
