76

C      1.8092631     1.3590046    -0.5313263    
C      2.3995723     1.5194442     0.8422310    
C      1.5864091     1.7376461     1.9459684    
C      2.1279999     1.8301327     3.2148817    
C      3.7723399     1.4033106     1.0224289    
C      4.3287216     1.4904031     2.2852221    
C      3.4957684     1.6983968     3.3700550    
Br     4.2600191     1.8150567     5.1358762    
N      0.5193962     1.9943775    -0.6681666    
C     -0.2912697     1.1898857    -1.2333968    
C     -1.6913074     1.5289797    -1.4682684    
C     -2.7298322     0.6102686    -1.2061569    
O     -2.3674814    -0.5970295    -0.7045141    
C     -3.3686966    -1.5659118    -0.4143158    
C     -2.6800170    -2.7932082     0.1613343    
C     -4.0407414     0.9909010    -1.4452489    
C     -2.0165531     2.8172754    -1.8768799    
C     -3.3250321     3.2032826    -2.0961741    
C     -4.3477868     2.2810239    -1.8881885    
O     -5.6655451     2.5184898    -2.0894956    
C     -6.0720402     3.8109688    -2.5046917    
N      0.2678433    -0.0365372    -1.5846328    
C     -0.2921711    -1.1172494    -2.2518026    
O     -0.0875084    -2.2695746    -1.8937724    
N     -1.0362407    -0.8162295    -3.3494886    
C     -1.7165868    -1.9028794    -4.0321360    
C     -3.0449909    -1.4038192    -4.5897369    
N     -2.8508557    -0.2521223    -5.5005980    
C     -2.2631644    -0.6123474    -6.8140917    
C     -3.3949237    -1.0854337    -7.7334074    
O     -4.4594695    -0.1669508    -7.5545127    
C     -0.8032023     0.3150234    -4.2301801    
C     -2.1304464     0.8234264    -4.7851735    
C      1.5492911    -0.1509149    -0.8994477    
C      1.5050237    -1.0201396     0.3289937    
C      0.3701125    -1.0720120     1.1277081    
C      0.3594205    -1.8182929     2.2909020    
C      2.6372097    -1.7265876     0.7149505    
C      2.6420826    -2.4753834     1.8773441    
C      1.4986641    -2.5117793     2.6538471    
Br     1.4855351    -3.5546798     4.2724769    
H      2.4959847     1.8077643    -1.2603109    
H      0.5234258     1.8511195     1.8057073    
H      1.4962254     2.0002428     4.0721693    
H      4.4192791     1.2465632     0.1731585    
H      5.3944068     1.4017072     2.4257032    
H     -3.8969606    -1.8319216    -1.3371115    
H     -4.0869938    -1.1560917     0.3055213    
H     -3.3843689    -3.6168899     0.2192746    
H     -2.2974130    -2.5882543     1.1567651    
H     -1.8395137    -3.0777001    -0.4677515    
H     -4.8679243     0.3270437    -1.2586111    
H     -1.2128164     3.5189888    -2.0252820    
H     -3.5347382     4.2114909    -2.4077676    
H     -7.1534619     3.7542970    -2.6011870    
H     -5.6280852     4.0707102    -3.4680040    
H     -5.8120122     4.5660877    -1.7596028    
H     -1.8918484    -2.7003509    -3.3089581    
H     -1.0751059    -2.3134646    -4.8195272    
H     -3.6792598    -1.0734018    -3.7659011    
H     -3.5442006    -2.2122879    -5.1221474    
H     -3.7851398     0.1089152    -5.7703330    
H     -1.5042367    -1.3839264    -6.7181566    
H     -1.8171177     0.2846403    -7.2426638    
H     -3.7214672    -2.1001608    -7.4757807    
H     -3.0407148    -1.0902688    -8.7682305    
H     -5.1710848    -0.3436684    -8.1794149    
H     -0.1485131    -0.0062032    -5.0496327    
H     -0.3064843     1.1204377    -3.6939111    
H     -2.7559203     1.1673276    -3.9605708    
H     -1.9498679     1.6566010    -5.4634103    
H      2.3047309    -0.5341099    -1.5898662    
H     -0.5220338    -0.5408067     0.8364642    
H     -0.5198495    -1.8605500     2.9143641    
H      3.5283567    -1.6951796     0.1074660    
H      3.5211131    -3.0248163     2.1752140    
