67

O     -0.6556892    -4.6187343    -4.4076072    
C     -0.2050861    -4.3327062    -3.3092588    
C      0.5095560    -3.0050707    -3.0328113    
C      1.9831526    -3.2281830    -2.7000931    
C      2.7243241    -1.9075009    -2.3131254    
O      2.1087672    -1.0883040    -1.5928370    
O      3.8845649    -1.7769514    -2.7281876    
N     -0.1460176    -2.3438141    -1.9226297    
C     -1.2974971    -2.8442015    -1.5287433    
O     -1.7561203    -3.8399247    -2.1194086    
C     -2.0191370    -2.1344039    -0.4029245    
C     -2.5799877    -3.1109170     0.5793838    
S     -2.2821503    -2.8931711     2.2728104    
C     -3.3638685    -4.1988243     0.3526328    
C     -3.7274298    -4.8737660     1.5407666    
C     -3.2227424    -4.2841903     2.6527236    
C     -3.1283659    -1.2515004    -1.0135365    
C     -3.7556127    -0.3551222     0.0513586    
C     -4.7207587     0.6682996    -0.5463444    
C     -5.0767523     1.7624794     0.4652141    
N     -3.8944710     2.5085602     0.8367003    
C     -3.2982091     2.3956660     2.0360788    
O     -3.8505453     1.8976234     3.0155379    
C     -1.9034879     2.9216281     2.1089190    
C     -1.4421408     3.4735886     3.3010626    
C     -0.1296984     3.8773246     3.4246943    
C      0.7521366     3.7113635     2.3582308    
C      0.3039916     3.1660060     1.1630221    
C     -1.0168366     2.7746290     1.0466495    
O      2.0364557     4.1699370     2.5804220    
C      3.1165802     3.7016931     1.9325771    
C      4.3463460     4.3677772     2.2114129    
N      5.4626226     4.0020129     1.6578009    
N      3.0557469     2.6787511     1.1217576    
C      4.2070391     2.2756663     0.5328590    
C      5.4295706     2.9516988     0.7985946    
C      6.6086065     2.5249260     0.1613595    
C      6.5662367     1.4680354    -0.7084276    
C      5.3589409     0.7996081    -0.9677430    
C      4.1956093     1.1896756    -0.3596367    
H      0.0556296    -5.1297787    -2.5880404    
H      0.4196864    -2.3770661    -3.9311076    
H      2.5055701    -3.6728451    -3.5470825    
H      2.0694429    -3.9007440    -1.8420570    
H      0.4397015    -1.6143773    -1.4897658    
H     -1.2965762    -1.4873274     0.1033333    
H     -3.6480459    -4.5158846    -0.6346505    
H     -4.3388556    -5.7569433     1.5567168    
H     -3.3387017    -4.5722589     3.6776273    
H     -3.8813532    -1.8941353    -1.4717657    
H     -2.6823978    -0.6379781    -1.7992768    
H     -2.9531457     0.1666700     0.5796060    
H     -4.2789423    -0.9667665     0.7885248    
H     -5.6338506     0.1718628    -0.8721034    
H     -4.2577771     1.1302757    -1.4209559    
H     -5.4782242     1.3259704     1.3817858    
H     -5.8130510     2.4445271     0.0348484    
H     -3.3744621     2.9253436     0.0791922    
H     -2.1290687     3.5697458     4.1275423    
H      0.2391133     4.3085225     4.3411652    
H      0.9833936     3.0232172     0.3402277    
H     -1.3297987     2.3157645     0.1211839    
H      4.3688873     5.2014901     2.8971559    
H      7.5248096     3.0505052     0.3762909    
H      7.4649296     1.1364952    -1.2044662    
H      5.3295435    -0.0333696    -1.6562033    
H      3.2692184     0.6723755    -0.5606348    
