18

N      0.2926175    -2.1105863     0.1598027    
C      0.4587909    -0.6779244    -0.1680199    
C      1.8791300    -0.5661238    -0.8481637    
O      2.4301288    -1.6774520    -1.0240321    
C      0.3337463     0.2309038     1.0449407    
C     -1.1073278     0.3387246     1.5515872    
C     -2.0372287     0.9423813     0.4628827    
O     -2.3650822     2.1391987     0.5883934    
O     -2.3909749     0.1786554    -0.4638025    
O      2.3032405     0.5516043    -1.1452024    
H     -0.5657998    -2.5008572    -0.2324113    
H      0.3271461    -2.2732727     1.1691967    
H      1.1758340    -2.5036859    -0.3077942    
H     -0.2829255    -0.3676962    -0.9084941    
H      0.6841950     1.2220665     0.7463843    
H      0.9882550    -0.1249282     1.8452165    
H     -1.1448608     0.9981076     2.4188746    
H     -1.5018004    -0.6417957     1.8207979    
