60

O      6.1886684     4.6446644    -0.4773416    
S      5.8635631     3.3635296     0.1048465    
O      6.8473608     2.8070014     1.0042728    
N      4.4385978     3.6657593     0.9729978    
C      3.9246272     2.6485832     1.7177924    
N      4.0863139     1.4037537     1.4372164    
C      3.4377138     0.6039207     2.3294054    
C      2.7580353     1.2421821     3.3087413    
S      2.9358408     2.9551448     3.1374780    
C      5.3710120     2.1950706    -1.1234846    
C      4.5145095     2.6132973    -2.1249521    
C      4.1041289     1.7093119    -3.0855701    
C      5.8341289     0.8945698    -1.0608485    
C      5.4305397    -0.0100614    -2.0215470    
C      4.5622912     0.3901221    -3.0438434    
N      4.1879298    -0.5158674    -4.0154127    
S      2.8601121    -0.4185742    -5.0205802    
O      2.9387762    -1.6185269    -5.8196570    
O      2.8679693     0.8362338    -5.7311776    
C      1.4479677    -0.5096699    -3.9376773    
C      0.6495577     0.6133508    -3.7522123    
C      1.2014330    -1.7252273    -3.3311545    
C      0.0845276    -1.7749716    -2.5160415    
O     -0.3975302    -2.8370964    -1.8353037    
C     -0.7499246    -0.6569357    -2.3151849    
C     -0.4620349     0.5553295    -2.9351128    
C     -1.7840877    -1.1127021    -1.4208143    
C     -1.5134666    -2.4443258    -1.1846818    
C     -2.2462326    -3.5155297    -0.4600356    
C     -1.3876429    -4.1476273     0.6404953    
C     -2.9152588    -0.2864236    -1.0058101    
O     -3.3509945     0.6084663    -1.7146625    
C     -3.5153381    -0.5501827     0.3267543    
C     -2.7385308    -0.9489366     1.4111392    
C     -3.3321766    -1.1322601     2.6407211    
Br    -2.2897764    -1.6899143     4.1315655    
C     -4.7037738    -0.9316924     2.8521291    
O     -5.1862314    -1.1465403     4.0720897    
C     -5.4511844    -0.5089762     1.7466407    
C     -4.8733484    -0.3085385     0.5100601    
Br    -7.3335650    -0.1955662     1.9641054    
H      4.2987626     4.6106694     1.2988662    
H      3.5038007    -0.4583537     2.1933513    
H      2.1721604     0.8372545     4.1066245    
H      4.1943990     3.6411919    -2.1493206    
H      3.4574511     2.0147852    -3.8902151    
H      6.4965916     0.6185279    -0.2580450    
H      5.7874671    -1.0261757    -1.9882826    
H      4.5589801    -1.4502593    -3.9348784    
H      0.9105397     1.5154237    -4.2795882    
H      1.8254456    -2.5814221    -3.5172492    
H     -1.1064943     1.4069935    -2.7925303    
H     -2.4897088    -4.2927090    -1.1880006    
H     -3.1725629    -3.1193570    -0.0496902    
H     -1.9208483    -4.9831931     1.0827285    
H     -1.1645930    -3.4307748     1.4255545    
H     -0.4529771    -4.5102046     0.2238916    
H     -1.6761443    -1.0924742     1.2980977    
H     -6.1430570    -0.9957149     4.1528907    
H     -5.4636773     0.0297149    -0.3276578    
