88

C     -0.4647311     10.7122683    -1.5890919    
C     -0.2134002     9.3391800    -2.1429311    
O      0.5416855     8.5370241    -1.5773622    
N     -0.8479204     9.0170305    -3.2843193    
C     -1.8470635     9.8827333    -3.8788621    
C     -0.5567181     7.7230615    -3.8903632    
C     -0.5419111     7.7378690    -5.4294890    
O     -1.8071675     7.7674405    -6.0404268    
C     -1.4863074     6.6283423    -3.3433113    
O     -2.2793369     6.0063775    -4.0463160    
N     -1.3803632     6.4457583    -2.0243486    
C     -2.0140584     5.3092481    -1.3890143    
C     -1.7872781     5.3513559     0.1172234    
C     -1.4216545     4.0144493    -1.9673951    
O     -0.3498586     3.9959654    -2.5589674    
N     -2.1962934     2.9351554    -1.7901955    
C     -1.7071698     1.5929485    -1.9939063    
C     -1.5905255     0.8903711    -0.6449500    
O     -1.9557101     1.4611925     0.3839351    
N     -1.1274059    -0.3650633    -0.6614373    
C     -0.6359446    -1.0000757    -1.8649150    
C     -0.9147022    -1.0385352     0.6142194    
C      0.5716167    -1.0156989     0.9967327    
O      1.4548806    -0.7098790     0.2085990    
N      0.8042799    -1.3501581     2.2761786    
C      2.1071782    -1.7808042     2.7497679    
C      2.6160198    -0.9019257     3.8912058    
C      1.9262493    -3.2145814     3.2645701    
O      0.8692320    -3.5310579     3.8114035    
N      2.9139416    -4.0703842     2.9972340    
C      2.9773178    -5.3968949     3.5752696    
C      4.2176989    -5.4542335     4.5447403    
O      4.2878428    -6.4419188     5.2934137    
O      5.0235523    -4.5084775     4.4575851    
C      3.1552778    -6.4986340     2.5265832    
C      2.0503263    -6.6587916     1.5135072    
C      0.9365741    -5.8431239     1.4867981    
C      2.1660440    -7.6290071     0.5189096    
C      1.2072160    -7.7557402    -0.4640787    
C      0.1168443    -6.8889366    -0.5152848    
O     -0.7545998    -7.0326098    -1.5531784    
C     -0.0207205    -5.9163193     0.4758753    
C     -1.0486692    -4.8503963     0.4710207    
C     -0.5842359    -3.5382983     0.4961409    
C     -1.4433720    -2.4557967     0.5803290    
C     -2.8140443    -2.6951309     0.6083528    
C     -3.2976094    -3.9858666     0.5689674    
C     -2.4274862    -5.0744916     0.5158332    
O     -2.9741124    -6.3168926     0.5154946    
H     -1.5184488     10.8361425    -1.3541135    
H     -0.1781315     11.4703956    -2.3126586    
H      0.1244601     10.8323955    -0.6844936    
H     -2.6732406     10.0443979    -3.1866612    
H     -2.2325045     9.4130459    -4.7782432    
H     -1.4096842     10.8437300    -4.1470776    
H      0.4555520     7.4571227    -3.5556729    
H      0.0090032     6.8440209    -5.7510954    
H     -0.0101886     8.6238554    -5.7831865    
H     -2.3033886     6.9950219    -5.7103501    
H     -0.6017443     6.8878688    -1.5434356    
H     -3.0818701     5.3370059    -1.6340405    
H     -2.1850439     4.4559159     0.5875668    
H     -2.2686213     6.2255850     0.5446755    
H     -0.7202172     5.3971512     0.3263020    
H     -2.9839179     3.0077453    -1.1600040    
H     -0.7267946     1.6632236    -2.4712630    
H     -2.3917454     1.0443641    -2.6461061    
H      0.2704028    -0.5088275    -2.2206931    
H     -1.3965698    -0.9829348    -2.6429468    
H     -0.3934125    -2.0327080    -1.6309059    
H     -1.4690003    -0.4504837     1.3563219    
H      0.0418960    -1.6974328     2.8473338    
H      2.7987421    -1.7523052     1.9026980    
H      3.5635884    -1.2915070     4.2553307    
H      1.8986454    -0.9114894     4.7081193    
H      2.7534450     0.1170786     3.5425140    
H      3.8289190    -3.7037426     2.7593190    
H      2.0745436    -5.5652867     4.1697462    
H      3.2939402    -7.4309861     3.0828805    
H      4.0918640    -6.3051075     1.9915583    
H      0.7732390    -5.1166949     2.2624974    
H      3.0231150    -8.2853373     0.5171934    
H      1.2964007    -8.5047145    -1.2345765    
H     -1.4136651    -6.3219518    -1.5584961    
H      0.4844328    -3.3826461     0.4506208    
H     -3.4986829    -1.8638374     0.6700505    
H     -4.3561649    -4.1857986     0.6025039    
H     -2.2936056    -7.0002394     0.6126362    
