36

S     -1.6791286    -3.5553880    -1.2227230    
O     -2.2109199    -3.3120254     0.0907208    
O     -2.3436698    -2.9435751    -2.3385467    
O     -0.1347646    -3.1219513    -1.2264395    
N     -1.4682906    -5.1292518    -1.4967005    
C      0.2280349    -1.8494752    -0.8558637    
C      1.5843263    -1.6136585    -0.6077060    
C      2.0047077    -0.3600558    -0.2363572    
C      1.0978999     0.7011002    -0.0896520    
C     -0.2588747     0.4338246    -0.3346443    
C     -0.6939010    -0.8320084    -0.7251847    
C      1.4522065     2.0352372     0.3196190    
C      0.4668499     2.9609931     0.5040327    
C     -0.9172749     2.6438137     0.2341185    
C      2.8609429     2.4324014     0.6202540    
C      0.7688403     4.3495129     0.9850652    
O     -1.8560807     3.4178776     0.3495354    
O     -1.2135619     1.3851475    -0.1971633    
C      1.4388476     4.3986710     2.3794437    
C      1.9175900     3.0484776     2.9151453    
C      3.0942475     2.4545316     2.1396820    
H     -1.9559440    -5.4684841    -2.3081616    
H     -1.5604455    -5.7026591    -0.6753095    
H      2.2791681    -2.4294995    -0.7135073    
H      3.0510778    -0.1983334    -0.0418584    
H     -1.7405328    -1.0036901    -0.9105965    
H      3.0258103     3.4345909     0.2250992    
H      3.5748113     1.7632972     0.1480688    
H     -0.1715812     4.9015111     1.0064232    
H      1.4134332     4.8346780     0.2483692    
H      0.7169110     4.7982979     3.0930070    
H      2.2833253     5.0873871     2.3487344    
H      1.0806565     2.3463608     2.9133225    
H      2.2216777     3.1809144     3.9549929    
H      3.9943290     3.0348947     2.3425783    
H      3.2594593     1.4367245     2.4958581    
