25

C      0.4466800    -0.8342454     3.3342871    
O      0.8291286    -0.9854130     4.6852815    
C      0.1314638     0.6431181     3.1075198    
O      1.2717552     1.4532792     3.2432743    
C     -0.5195198     0.9290206     1.7362470    
O     -1.9153300     0.7684249     1.7986818    
C     -0.0139004     0.0303467     0.5905226    
O      1.3887070    -0.0044001     0.6128113    
C     -0.5684849     0.5482751    -0.7454379    
O     -0.5527198    -0.4302016    -1.7505650    
P      0.8725292    -0.5185612    -2.6847014    
O      0.4760906    -1.4522411    -3.8027467    
O      1.9316257    -1.1054218    -1.7412743    
O      1.1732316     0.9138128    -3.0947604    
H     -0.4528812    -1.4197656     3.1085803    
H      1.2525131    -1.1295134     2.6543098    
H      1.0690408    -1.9088232     4.8457973    
H     -0.6009275     0.9374102     3.8817600    
H      1.7960276     1.0993479     3.9798851    
H     -0.2463780     1.9600657     1.4682196    
H     -2.2891636     1.4624408     2.3673005    
H     -0.4249530    -0.9872829     0.7191175    
H      1.6897442    -0.3855027    -0.2538601    
H      0.0260087     1.4122202    -1.0747217    
H     -1.6186603     0.8343112    -0.6193230    
