55

N      1.0419459     0.1264062    -1.2626806    
C      2.2472994     0.2448415    -0.4672893    
C      3.3887321    -0.5943202    -1.0793819    
C      2.6241608     1.7279199    -0.4611623    
O      2.4061394     2.4156335    -1.4391829    
O      3.2382833     2.2544174     0.5761327    
C      3.4418680     1.5331120     1.7961939    
C      2.8998616    -1.9908336    -1.3580219    
C      3.0452106    -2.5651560    -2.6149188    
C      2.5436983    -3.8308158    -2.8749372    
C      1.8566967    -4.5263408    -1.8970506    
C      1.6935453    -3.9536578    -0.6374336    
C      2.2422364    -2.7043486    -0.3675396    
C      0.8928885    -4.6218522     0.4043440    
N      0.0752925    -3.8886649     1.1184694    
N      1.0064219    -5.9188841     0.5789620    
C     -0.1024073    -0.2989592    -0.7112267    
C     -1.3532092     0.1702265    -1.4386485    
N     -1.2801440     1.6219598    -1.5115822    
O     -0.1513645    -1.0411845     0.2599955    
C     -6.0207664     0.7964182     3.1095043    
C     -4.7991465     1.2052080     2.3540050    
C     -3.6325638     0.4482577     2.4144247    
C     -2.5068677     0.8219426     1.7000295    
C     -2.5568428     1.9621906     0.9207578    
C     -3.7024575     2.7326229     0.8402504    
C     -4.8188731     2.3529035     1.5613953    
S     -1.1503615     2.4294142    -0.0604586    
O      0.0619968     1.9638615     0.5848568    
O     -1.2042191     3.8358870    -0.3877041    
H      0.9764546     0.8218076    -1.9985352    
H      1.9980895    -0.0934803     0.5401362    
H      4.2346468    -0.6152669    -0.3903222    
H      3.7156173    -0.1209983    -2.0062310    
H      3.9680280     2.2311027     2.4432817    
H      4.0537236     0.6471352     1.6312615    
H      2.4801084     1.2749186     2.2405467    
H      3.5532088    -2.0194901    -3.3952065    
H      2.6705112    -4.2644053    -3.8545077    
H      1.4203531    -5.4845900    -2.1280142    
H      2.1570594    -2.2917488     0.6238556    
H     -0.4965572    -4.2936970     1.8456990    
H     -0.0336025    -2.8988345     0.9194798    
H      1.6809176    -6.4465748     0.0473099    
H      0.4530158    -6.4077580     1.2679670    
H     -2.2375174    -0.1822015    -0.8943295    
H     -1.3624596    -0.2279754    -2.4547647    
H     -1.9939726     2.0474917    -2.0832612    
H     -5.7926861     0.0210255     3.8337995    
H     -6.7707142     0.4159738     2.4180046    
H     -6.4532563     1.6502183     3.6250219    
H     -3.6042227    -0.4390437     3.0265460    
H     -1.5932863     0.2516545     1.7406580    
H     -3.6899834     3.6215343     0.2299336    
H     -5.7154557     2.9506419     1.5108597    
