18

C      0.0383160    -0.1346789     0.1358148    
C     -0.3643618    -0.5198041    -1.1432011    
C     -0.6270611     0.4390273    -2.1038006    
C     -0.5059182     1.7853157    -1.7965085    
C     -0.1136158     2.1735584    -0.5249328    
C      0.1657989     1.2213740     0.4376564    
C      0.3280394    -1.1529128     1.1591525    
N      1.3218645    -0.9591460     1.9942836    
N     -0.4123526    -2.2351790     1.2159784    
H     -0.4370396    -1.5636340    -1.4040094    
H     -0.9274506     0.1384459    -3.0952816    
H     -0.7173346     2.5311071    -2.5470522    
H     -0.0250790     3.2216876    -0.2859101    
H      0.4445798     1.5384500     1.4298255    
H      1.5400051    -1.6310373     2.7163351    
H      1.9102234    -0.1460352     1.9082843    
H     -1.2027971    -2.3479299     0.6007310    
H     -0.2306985    -2.9600381     1.8956040    
