32

N     -0.2279320    -1.8360827    -1.0041175    
C     -1.4241700    -2.3618493    -1.4421890    
O     -2.0349359    -1.9221084    -2.4014536    
N     -1.8584727    -3.4652123    -0.7648833    
C     -1.2700195    -4.0585230     0.3433998    
O     -1.8117204    -5.0156465     0.8771292    
C     -0.0281487    -3.4441098     0.7290241    
C      0.4186810    -2.3554392     0.0724908    
O      3.0424022    -0.7178341     0.8087475    
C      3.2655433     0.3583389    -0.0673954    
C      1.9855899     0.6975882    -0.8288878    
O      1.5498629    -0.4091255    -1.6160687    
C      0.8077260     1.0934696     0.0671827    
O      0.7934777     2.4715156     0.2884315    
C     -0.4128523     0.6069149    -0.7319164    
O     -1.4877390     0.1773277     0.0469001    
C      0.1609907    -0.5547908    -1.5776078    
O     -1.4506362     2.3333984     1.5370989    
P     -0.0274664     2.8638795     1.7471632    
O      0.0740808     4.3655821     1.7996141    
O      0.7297101     2.1110027     2.8234071    
H     -2.7497909    -3.8442548    -1.0735280    
H      0.5073030    -3.8506730     1.5679593    
H      1.3334634    -1.8505846     0.3441557    
H      3.8017970    -0.8067931     1.4034418    
H      4.0384084     0.0913255    -0.7989820    
H      3.5511547     1.2653903     0.4773045    
H      2.1902781     1.5526645    -1.4894095    
H      0.8406995     0.5795553     1.0395942    
H     -0.7192509     1.4384287    -1.3885248    
H     -1.6409220     0.9140571     0.7029319    
H     -0.2449694    -0.5509112    -2.5971493    
