41

C     -1.1114646     1.4556621    -0.7478327    
C     -1.0071179     1.7898905    -2.0229791    
C      0.2977764     2.0244925    -2.7372011    
C      1.4350893     2.2407979    -1.7371265    
C      1.3909185     1.2248365    -0.6072965    
C      0.0578172     1.2042845     0.1750742    
O      1.5704142    -0.1195078    -1.1092453    
C      0.9410157    -2.3372401    -0.2618632    
C      0.1441795    -2.9927241     0.6879031    
C     -0.6679495    -2.2981848     1.5551873    
C     -1.5912976    -0.2505153     2.4888733    
N     -1.8061986     0.9951192     2.7636515    
C     -1.2810247     2.1887502     2.1268519    
C      0.0646326     2.0946287     1.4188008    
C      0.8508277    -0.9382388    -0.2925059    
C     -0.0040255    -0.2495050     0.5435299    
C     -0.7695987    -0.8916067     1.5195508    
C      1.8719253    -4.3376538    -1.1560924    
O      1.7785310    -2.9229529    -1.1324400    
O      0.5746302     0.9617923    -3.6394610    
C     -2.7178431     1.3278604     3.8357778    
H     -2.0862280     1.2550854    -0.3297837    
H     -1.8893572     1.8775276    -2.6392058    
H      0.2020148     2.9066470    -3.3820286    
H      1.3539241     3.2379890    -1.3064875    
H      2.3887105     2.1621569    -2.2601054    
H      2.2241361     1.4168931     0.0853792    
H      0.1802344    -4.0670927     0.7557733    
H     -1.2331116    -2.8519714     2.2875104    
H     -2.1168355    -0.9530209     3.1273980    
H     -1.1794694     2.9409947     2.9125278    
H     -2.0353691     2.5581678     1.4253570    
H      0.3400957     3.1073438     1.1223017    
H      0.8259115     1.7237952     2.1072837    
H      2.5919850    -4.5635837    -1.9386755    
H      0.9090549    -4.7891559    -1.4024342    
H      2.2355232    -4.7233511    -0.2018053    
H      0.8922797     0.2043762    -3.1240122    
H     -3.2512957     0.4504709     4.1901540    
H     -3.4417725     2.0636525     3.4875995    
H     -2.1661333     1.7619878     4.6698330    
