88

C     -11.0696370    -0.5110973     2.1245470    
N     -9.6933556    -0.4296111     1.6850481    
C     -8.7306322     0.0819306     2.4524516    
O     -8.9062284     0.5335676     3.5760065    
N     -7.4596142     0.0583081     1.8505402    
C     -6.3027095     0.5149201     2.4125749    
N     -6.3210470     1.0677968     3.6043247    
N     -5.1873583     0.3765249     1.7130167    
C     -3.8756942     0.8084010     2.1662004    
C     -2.8105099     0.3297962     1.1840488    
C     -1.4265802     0.8080510     1.6187918    
C     -0.3268594     0.2553642     0.7127074    
C      1.0174272     0.8887390     1.0955935    
O      1.6169885     0.4292369     2.0670571    
N      1.4814915     1.9616205     0.4336275    
C      2.8050542     2.4128855     0.8386780    
N     -0.1975960    -1.1817497     0.8972370    
C      0.5555294    -1.9020634     0.0481904    
O      0.9561333    -1.4668892    -1.0292597    
C      0.7428475    -3.3647231     0.4537581    
C     -0.4201378    -4.1857768    -0.1055480    
N      2.0065854    -3.8731349    -0.0377826    
C      3.0846846    -3.9668101     0.7630923    
O      3.0239726    -3.7770968     1.9729701    
C      4.3574044    -4.3903730     0.0631910    
C      5.0405199    -3.1782695    -0.5852445    
C      6.4252723    -3.6483287    -1.1740459    
O      6.4460719    -3.8344343    -2.4049460    
O      7.3496175    -3.8084069    -0.3653473    
N      4.2507104    -2.6469549    -1.6723512    
C      3.8913634    -1.3483845    -1.7383974    
O      3.9281890    -0.5979212    -0.7695119    
C      3.3471698    -0.9459848    -3.1002051    
C      3.1193553     0.5515384    -3.2314939    
C      2.6178043     0.8803479    -4.6949796    
O      1.4607941     1.3115637    -4.8074399    
O      3.4361251     0.6580482    -5.6034321    
N      2.1638780     0.9995293    -2.2540054    
C      2.0476018     2.2746485    -1.9001183    
O      2.7387447     3.1884976    -2.3449450    
C      0.9754153     2.5008279    -0.8170452    
C      0.5966724     3.9853436    -0.6942499    
C     -0.6164056     4.1534520     0.1727848    
C     -0.4905701     4.4810253     1.5169927    
C     -1.6141238     4.6210565     2.3150839    
C     -2.8760565     4.4313663     1.7768535    
C     -3.0105980     4.0950393     0.4390477    
C     -1.8868437     3.9550704    -0.3565496    
H     -11.4066020    -1.5472102     2.1144148    
H     -11.7121423     0.0829999     1.4749155    
H     -11.1284222    -0.1227130     3.1391901    
H     -9.4952573    -0.7799213     0.7597327    
H     -7.3883611    -0.3519829     0.9281595    
H     -5.4790716     1.4102810     4.0354635    
H     -7.2169006     1.1145021     4.0883275    
H     -5.2211268    -0.0245973     0.7886008    
H     -3.6669784     0.3838854     3.1516636    
H     -3.8350164     1.9006266     2.2290796    
H     -3.0136173     0.7297971     0.1897256    
H     -2.8090373    -0.7588214     1.1291349    
H     -1.2053094     0.4947785     2.6402913    
H     -1.3767017     1.8960639     1.5840066    
H     -0.5626455     0.4062063    -0.3416505    
H      2.7900131     2.6636192     1.8986588    
H      3.0997228     3.2701821     0.2430850    
H      3.5334744     1.6114424     0.6836093    
H     -0.2437785    -1.4973131     1.8575136    
H      0.7988107    -3.4457887     1.5434382    
H     -0.2718101    -5.2338446     0.1338135    
H     -0.4625097    -4.0687756    -1.1855563    
H     -1.3530809    -3.8427758     0.3283922    
H      2.1603838    -3.8245872    -1.0352937    
H      4.1527251    -5.1292012    -0.7123027    
H      5.0509250    -4.8053285     0.7953420    
H      5.2141208    -2.3932170     0.1579048    
H      4.4888687    -3.1129484    -2.5465417    
H      2.3925832    -1.4590704    -3.2447133    
H      4.0350510    -1.2619349    -3.8860673    
H      4.0593013     1.1020937    -3.0888348    
H      1.6007576     0.2749327    -1.8215477    
H      0.0891436     1.9493105    -1.1299688    
H      0.4088667     4.3438468    -1.7084555    
H      1.4423747     4.5475770    -0.2998436    
H      0.4950148     4.6318286     1.9322677    
H     -1.4980492     4.8838526     3.3551291    
H     -3.7497710     4.5649020     2.3950313    
H     -3.9895293     3.9545585     0.0082635    
H     -1.9824331     3.7029261    -1.4030432    
