51

C     -1.4932080    -2.4047680    -4.1146311    
C     -1.6468512    -1.1350243    -3.5979366    
C     -1.3844188    -0.8868033    -2.2490281    
C     -0.9681960    -1.9324892    -1.4258283    
C     -0.8057696    -3.2035577    -1.9396008    
C     -1.0706681    -3.4302684    -3.2800669    
Cl    -0.8730940    -5.0245183    -3.9289794    
C     -1.5474055     0.4522117    -1.7258946    
N     -1.9434543     1.4875004    -2.4000619    
C     -1.9513291     2.5291038    -1.5043693    
C     -1.5276718     2.0310151    -0.2547345    
O     -1.2685821     0.7024612    -0.4147576    
C     -2.2912250     3.8672606    -1.6552940    
C     -2.1987448     4.6638070    -0.5320996    
C     -1.7852289     4.1552512     0.6974212    
C     -1.4347895     2.8235809     0.8793992    
C     -0.9839088     2.2999245     2.2133024    
C      0.4123285     2.8187633     2.5830144    
C      1.5163454     2.1304762     1.7693597    
C      2.8696882     2.8834770     1.8800200    
O      3.2689597     3.0576107     3.2235836    
N      1.6481014     0.7553930     2.1916671    
C      3.9770184     2.1337760     1.1420378    
C      2.0995763     0.3092358     3.3890523    
N      2.0635987    -0.9905429     3.4798459    
C      1.5566236    -1.4288169     2.2836218    
C      1.3012446    -0.3440717     1.4773925    
C      1.3422822    -2.8535732     2.0046434    
O      0.8476713    -3.2582091     0.9494540    
N      1.7248351    -3.6679144     2.9957144    
H     -1.6947510    -2.6042554    -5.1538746    
H     -1.9676499    -0.3190895    -4.2230370    
H     -0.7579274    -1.7697292    -0.3803638    
H     -0.4634688    -3.9937857    -1.2918882    
H     -2.6159672     4.2494432    -2.6077775    
H     -2.4590427     5.7082329    -0.6028561    
H     -1.7448008     4.8180210     1.5480962    
H     -0.9849780     1.2082585     2.1995728    
H     -1.6907308     2.6320328     2.9755852    
H      0.5935805     2.6387193     3.6430957    
H      0.4522696     3.8921925     2.3947803    
H      1.2328462     2.1173269     0.7117944    
H      2.7261319     3.8589329     1.3974253    
H      2.9125927     3.8810829     3.5785375    
H      4.8933238     2.7157647     1.1798789    
H      3.6974510     1.9729122     0.1046532    
H      4.1632480     1.1753527     1.6194983    
H      2.4721336     0.9611640     4.1518687    
H      0.9131536    -0.2948773     0.4820036    
H      1.6154891    -4.6633672     2.9017492    
H      2.1101341    -3.2572959     3.8313887    
