62

C      4.1454342     1.2474786    -0.8000786    
C      4.5185750     2.3625962    -1.5199247    
C      3.5639817     3.1082432    -2.2054651    
C      2.2281130     2.7543428    -2.2104291    
C      1.8388373     1.6141403    -1.5155927    
N      0.5945324     1.0293160    -1.3295341    
C      0.7443272    -0.0342026    -0.4637663    
C     -0.1942877    -0.9090775     0.0771276    
N     -1.5544870    -0.9746783    -0.1073555    
C     -2.0476976    -2.0149922     0.6443461    
C     -3.3533721    -2.4706966     0.7698877    
C     -3.5803613    -3.5434335     1.6091400    
C     -2.5402676    -4.1481938     2.3154113    
C     -1.2412465    -3.6994926     2.1974251    
C     -0.9850906    -2.6227376     1.3535723    
C      0.2057396    -1.9182394     0.9863602    
C      1.5614311    -2.0417044     1.3240152    
C      2.2669788    -2.9780756     2.2104853    
N      3.5730728    -2.6326856     2.1579774    
C      3.8589870    -1.5187156     1.2869845    
C      2.4981297    -1.1747164     0.7725592    
C      2.1054844    -0.1719541    -0.1086936    
C      2.8056154     0.8765346    -0.7868442    
C     -0.7054187     1.4541124    -1.8278245    
C     -1.3652604     2.4293497    -0.7925939    
C     -2.8882845     2.2407785    -0.8683576    
C     -3.2186572     0.8329980    -0.3703517    
C     -2.3249604    -0.2206979    -1.0729399    
O     -1.5082067     0.3112374    -2.0706410    
O      1.8277778    -3.9060520     2.8903803    
N     -3.5567211     3.2355394     0.0088263    
C     -3.6562338     4.5930718    -0.5606684    
O     -1.0089657     2.1985090     0.5583847    
C      0.0614331     2.9718440     1.0655815    
C     -0.6190397     2.1110331    -3.2130433    
H      4.8743779     0.6729626    -0.2515914    
H      5.5535557     2.6675929    -1.5452618    
H      3.8741865     3.9893602    -2.7459907    
H      1.5348853     3.3743195    -2.7472261    
H     -4.1678656    -2.0175704     0.2289801    
H     -4.5831535    -3.9261242     1.7246674    
H     -2.7574986    -4.9843091     2.9636660    
H     -0.4311487    -4.1651273     2.7376102    
H      4.2857532    -3.1256858     2.6689926    
H      4.5394505    -1.8134463     0.4810341    
H      4.3129226    -0.6920900     1.8432325    
H     -1.0681541     3.4462507    -1.0744339    
H     -3.2264167     2.3777981    -1.8982849    
H     -4.2639805     0.5972423    -0.5589072    
H     -3.0199396     0.7696704     0.6999032    
H     -2.9482696    -0.9409039    -1.6205732    
H     -3.0236131     3.2521462     0.8917050    
H     -4.5029378     2.9019036     0.2304559    
H     -4.1493797     5.2538901     0.1461449    
H     -4.2354930     4.5655236    -1.4795365    
H     -2.6706034     4.9929443    -0.7779372    
H      0.1134601     2.7377222     2.1264765    
H     -0.1296645     4.0408846     0.9308635    
H      1.0180014     2.7227441     0.6035942    
H     -1.5648925     1.9433727    -3.7197113    
H      0.1561395     1.6273376    -3.7986033    
H     -0.4285603     3.1761775    -3.1618107    
