43

C      0.0693282    -1.7961249    -4.6984840    
C      1.1542868    -2.0358267    -3.8364233    
C      1.0625842    -1.8230452    -2.4787954    
C     -0.1397108    -1.3297991    -1.9826425    
C     -1.2249767    -1.0696929    -2.8577678    
C     -1.1435272    -1.3147600    -4.2149043    
C      0.2214689    -2.0713190    -6.1354827    
N     -0.7660807    -2.6442553    -6.7853645    
N      1.3398879    -1.7423998    -6.7396679    
N     -0.5086483    -1.0085062    -0.7044232    
N     -2.2220502    -0.5826482    -2.0546150    
C     -1.7385505    -0.5673616    -0.7817658    
C      1.1814023     1.6977918     4.6062684    
C      0.0815824     2.4979398     4.9687178    
C     -1.1118325     2.4484332     4.2838870    
C     -1.2016417     1.5906721     3.1918399    
C     -0.0917345     0.7758799     2.8361128    
C      1.0980847     0.8098734     3.5360138    
C      2.4391045     1.8067542     5.3546511    
N      3.1764733     0.7345680     5.5425793    
N     -2.2306828     1.3580190     2.3210894    
N     -0.5093755     0.0579051     1.7513826    
C     -1.7812352     0.4539032     1.4877621    
C     -2.5757420    -0.1198394     0.3653420    
N      2.8222639     2.9788931     5.8081827    
H      2.0696213    -2.4365116    -4.2401795    
H      1.8888965    -2.0280345    -1.8203794    
H     -1.9697269    -1.0967046    -4.8720015    
H     -0.6996049    -2.8420006    -7.7735948    
H     -1.5938595    -2.9452184    -6.2962359    
H      2.0674595    -1.2561702    -6.2411073    
H      1.4860379    -1.9427716    -7.7187831    
H     -3.1381558    -0.2834323    -2.3480369    
H      0.1532908     3.1371046     5.8338545    
H     -1.9558855     3.0487020     4.5783357    
H      1.9360105     0.2074499     3.2270326    
H      4.0554436     0.7854166     6.0362593    
H      2.8457780    -0.1713281     5.2532644    
H     -0.0045890    -0.5830668     1.1461797    
H     -3.1364575    -0.9811166     0.7484880    
H     -3.3079778     0.6221413     0.0446761    
H      2.2730061     3.8034851     5.6236444    
H      3.6808732     3.0854348     6.3274769    
