24

O      1.5241560    -0.1830783    -1.4484457    
C      0.4596778    -0.0549582    -0.8604416    
O     -0.7018753     0.0811178    -1.5142630    
C     -0.6519924     0.0627191    -2.9460399    
C     -2.0725484     0.1378689    -3.4724272    
C      0.3003754    -0.0342130     0.5763136    
C     -0.8739342     0.1156990     1.3220386    
C     -2.2805702     0.3025501     0.9068657    
C      1.3371552    -0.1705799     1.5464624    
C      2.7860760    -0.3551002     1.2982427    
N      0.8283805    -0.1090365     2.7588095    
N     -0.4953332     0.0632861     2.6050510    
H     -0.1475614    -0.8558753    -3.2662188    
H     -0.0489677     0.9124161    -3.2852976    
H     -2.0530414     0.1327362    -4.5572314    
H     -2.5494407     1.0500981    -3.1268343    
H     -2.6459320    -0.7145014    -3.1205282    
H     -2.9247566     0.4024624     1.7750017    
H     -2.6050149    -0.5449535     0.3071897    
H     -2.3666995     1.1898369     0.2837815    
H      3.3169231    -0.4152747     2.2427660    
H      3.1685483     0.4752829     0.7074312    
H      2.9503687    -1.2627696     0.7201799    
H     -1.0802997     0.1357304     3.4249018    
