36

O     -0.8336742    -0.2171638    -4.3088573    
N     -1.8881488     0.3283538    -4.0315923    
O     -2.7142058     0.6495696    -4.8681330    
C     -2.1683414     0.6054881    -2.6589704    
C     -3.3517954     1.2520142    -2.3152604    
C     -1.2453149     0.2060299    -1.6966826    
C     -1.5129397     0.4776377    -0.3631293    
C     -2.7094334     1.1034292    -0.0065119    
C     -3.6175145     1.4876816    -0.9777032    
N     -0.6277484     0.0967986     0.6528429    
C      0.7256315     0.0879967     0.6584014    
C      1.5627786     0.5969878    -0.4507128    
C      1.0964778    -0.3935591     1.9141500    
C     -0.1319109    -0.6408203     2.5991995    
N     -1.1437415    -0.3291924     1.8266192    
C     -0.3142876    -1.1626123     3.9723615    
C      2.4204769    -0.6302486     2.4553349    
O      2.6429582    -1.0323258     3.5872800    
O      3.4029608    -0.3699557     1.5849089    
C      4.7481836    -0.5783512     2.0337040    
C      5.6914470     0.0669410     1.0361862    
H     -4.0380913     1.5463245    -3.0929484    
H     -0.3631668    -0.3269862    -2.0093595    
H     -2.9064300     1.2720001     1.0400370    
H     -4.5332280     1.9782827    -0.6908947    
H      2.4682946     1.0345555    -0.0403852    
H      1.0256493     1.3423419    -1.0316042    
H      1.8663519    -0.2158278    -1.1088643    
H     -1.3717570    -1.2232127     4.2069655    
H      0.1922420    -0.5131501     4.6836240    
H      0.1443353    -2.1466013     4.0575782    
H      4.9215045    -1.6569963     2.1099231    
H      4.8533874    -0.1459843     3.0347986    
H      6.7150021    -0.0927943     1.3587239    
H      5.4992890     1.1343642     0.9741035    
H      5.5526154    -0.3742568     0.0533997    
