37

C      2.6406865     2.2137953    -3.5526370    
C      1.5917533     1.8693446    -2.7293502    
C      1.4972973     0.5992957    -2.1384988    
C      2.5222514    -0.3089839    -2.4195535    
C      3.5795401     0.0334735    -3.2487022    
C      3.6423700     1.2917664    -3.8176270    
C      0.3416517     0.3439565    -1.2963349    
N     -0.5040664     1.2822846    -1.0690187    
N     -1.5176949     0.8384830    -0.2924778    
C     -1.3485953    -0.5747712     0.0972979    
C     -0.0405537    -0.9537141    -0.6224007    
C     -1.2301617    -0.7454425     1.5901523    
C     -2.5488912     1.6601314     0.0331034    
C     -3.6535478     1.0293860     0.8378007    
O     -2.5717111     2.8307019    -0.3246893    
C     -0.4392155     0.1194095     2.3345106    
C     -0.3123979    -0.0654684     3.7007118    
C     -0.9578947    -1.1107271     4.3312689    
C     -1.7449433    -1.9883097     3.5896694    
C     -1.8781349    -1.7990150     2.2190087    
Cl     2.5624919    -1.9171172    -1.7572947    
O     -2.3633915    -3.0025713     4.2443483    
H      2.6779194     3.1986878    -3.9893850    
H      0.8026849     2.5707728    -2.5125672    
H      4.3517959    -0.6943169    -3.4414198    
H      4.4686724     1.5464537    -4.4615006    
H     -2.1972807    -1.1518265    -0.2814496    
H      0.7247747    -1.2642025     0.0891890    
H     -0.1808252    -1.7499041    -1.3521321    
H     -4.4358333     1.7693263     0.9775382    
H     -3.2789708     0.7100347     1.8068600    
H     -4.0584644     0.1664643     0.3163465    
H      0.0648963     0.9419872     1.8495460    
H      0.2951038     0.6124263     4.2788204    
H     -0.8686389    -1.2677129     5.3940659    
H     -2.4901010    -2.4740031     1.6380875    
H     -2.8841790    -3.5427879     3.6307929    
