81

O      7.5757494    -1.3375469    -0.2362170    
C      6.5903087    -0.7387290     0.1716786    
O      6.6120448     0.4024820     0.8572290    
C      7.8606863     0.9362845     1.3915438    
C      8.7660078     1.4011514     0.2506811    
C      7.4082234     2.1244911     2.2425342    
C      8.5510244    -0.1123831     2.2631916    
N      5.3290437    -1.0948805    -0.1902183    
C      4.2134659    -0.7691923     0.6752468    
C      4.4723430    -1.3251655     2.1305941    
O      5.5850141    -1.8405802     2.3401792    
O      3.5401331    -1.1892032     2.9414499    
C      2.9055886    -1.3213520     0.1280116    
C      2.4650626    -0.6206965    -1.1611816    
C      1.1978107    -1.2656513    -1.6820874    
O      1.1994804    -2.1402582    -2.5439934    
N      0.0677225    -0.8638385    -1.0802142    
C     -1.2260962    -1.3198892    -1.5559409    
C     -1.3892553    -0.8470279    -3.0114820    
O     -1.1060956     0.3076291    -3.3252410    
N     -1.8930891    -1.7480492    -3.8502706    
C     -2.0356647    -1.5260879    -5.2840815    
C     -3.5272246    -1.4308582    -5.6361697    
B     -1.2899723    -2.7067608    -6.1006444    
O     -0.8125455    -2.4098415    -7.3213584    
O     -1.2446397    -3.9129460    -5.5031966    
C     -2.3377392    -0.7422632    -0.6795931    
C     -3.6977363    -1.3658020    -0.9953629    
C     -4.8767278    -0.5747071    -0.4280247    
C     -4.9746407    -0.5664098     1.1012625    
N     -3.9912924     0.2821207     1.7477257    
C     -4.0029304     1.6203063     1.7177919    
O     -3.1155199     2.3165040     2.1890104    
O     -5.1024532     2.1184916     1.1201297    
C     -5.2475109     3.5422157     1.1364471    
C     -5.7050720     4.0433145     2.4811663    
C     -5.0971563     5.1388977     3.0770259    
C     -5.5260757     5.5857025     4.3151520    
C     -6.5585586     4.9355046     4.9699611    
C     -7.1630425     3.8365122     4.3836082    
C     -6.7404420     3.3947953     3.1430122    
H      9.6770783     1.8183360     0.6655210    
H      8.2566136     2.1546053    -0.3449636    
H      9.0148549     0.5562592    -0.3865581    
H      8.2729910     2.6230777     2.6667010    
H      6.7615391     1.7709618     3.0417975    
H      6.8467046     2.8232419     1.6289937    
H      9.3049410     0.3589245     2.8851517    
H      9.0107586    -0.8782585     1.6435665    
H      7.8067507    -0.5989995     2.8930886    
H      5.2956262    -2.0328653    -0.5704171    
H      4.1574782     0.3212860     0.7663670    
H      2.1572386    -1.1986620     0.9131129    
H      3.0237749    -2.3917384    -0.0589342    
H      3.2460820    -0.7317119    -1.9125667    
H      2.3024296     0.4391415    -0.9681343    
H      0.0893139    -0.0530918    -0.4810375    
H     -1.2250992    -2.4141833    -1.5238870    
H     -1.9701754    -2.7103798    -3.5555029    
H     -1.5658065    -0.5600944    -5.4930640    
H     -3.9919224    -0.6232122    -5.0753261    
H     -4.0265944    -2.3660710    -5.3978866    
H     -3.6325844    -1.2323716    -6.6980000    
H     -0.3783794    -3.0924382    -7.8422928    
H     -0.8108189    -4.6491911    -5.9435444    
H     -2.3739799     0.3372222    -0.8485760    
H     -2.0669337    -0.9184657     0.3616054    
H     -3.7237089    -2.3878612    -0.6152515    
H     -3.8130852    -1.4060257    -2.0797397    
H     -5.7982561    -1.0124587    -0.8115106    
H     -4.8259639     0.4563127    -0.7802654    
H     -4.8434336    -1.5742713     1.4927294    
H     -5.9630041    -0.1975199     1.3844826    
H     -3.1568501    -0.1324989     2.1314577    
H     -5.9956825     3.7430937     0.3658331    
H     -4.2937759     4.0048181     0.8637794    
H     -4.2822731     5.6369118     2.5726577    
H     -5.0468508     6.4385880     4.7710512    
H     -6.8881826     5.2836912     5.9369091    
H     -7.9645840     3.3227720     4.8918647    
H     -7.2054645     2.5373585     2.6793033    
