23

C     -0.4997646     0.9185638    -0.5412874    
C     -0.7568442     0.4731324     0.7547963    
C     -0.1012062    -0.6462922     1.2644814    
C      0.4143810     0.2647554    -1.3559814    
N      1.5994305    -2.3999828     0.6396229    
C      1.0768059    -0.8543563    -0.8642302    
C      0.8037201    -1.3017837     0.4621122    
C      2.3033658    -2.5763710    -0.5388642    
N      1.9956881    -1.6541252    -1.4449626    
N      3.1735916    -3.5559047    -0.7116661    
C      3.4385684    -4.5115193     0.3426197    
C      3.8802409    -3.7018217    -1.9642526    
Br    -1.4180391     2.4476476    -1.1948124    
Br    -2.0063417     1.3909515     1.8453937    
Br    -0.4484158    -1.2559951     3.0326121    
Br     0.7706144     0.8685888    -3.1135716    
H      1.6551077    -2.9633408     1.4728098    
H      4.1907914    -5.2091959    -0.0116797    
H      2.5368637    -5.0704725     0.5977475    
H      3.8196490    -4.0114272     1.2341930    
H      3.5612649    -2.9145965    -2.6403853    
H      3.6546442    -4.6731563    -2.4041779    
H      4.9537675    -3.6218232    -1.7939192    
