92

C     -2.4689290    -2.2155275     3.5616435    
C     -2.0017130    -2.2667882     2.0830482    
C     -1.8487225    -1.0100026     4.1908020    
O     -3.8705266    -2.1628883     3.5546496    
N     -0.5619815    -2.2250485     2.0095333    
C     -2.5016599    -3.5241493     1.3732797    
C     -2.0476536    -3.5252437    -0.0861395    
C     -2.2160346    -4.8896674    -0.7485201    
N     -1.4761936    -4.8928050    -1.9968086    
C     -1.6133859    -5.7758584    -2.9777006    
N     -2.4856787    -6.7743938    -2.8872272    
N     -0.8648091    -5.6547662    -4.0721570    
N     -0.6736710    -0.9800807     4.7239567    
C     -0.3463154     0.2722558     5.1247500    
C     -1.2908315     1.2191847     4.8916849    
S     -2.6600919     0.5276389     4.1217823    
N      2.0546699    -0.8563708     0.2432236    
C      1.6449442    -1.3850618     1.5271397    
C      0.1390286    -1.1327625     1.6918218    
O     -0.3678930    -0.0360715     1.4832247    
C      2.4498448    -0.7816637     2.6917878    
C      3.8836621    -1.3077662     2.6680399    
C      2.4287759     0.7463053     2.6757371    
N      2.2820739     0.7772472    -1.8715985    
C      2.0315842    -0.6170807    -2.1659527    
C      1.6408121    -1.3989816    -0.9065480    
O      1.0569609    -2.4748391    -0.9829890    
C      3.2482261    -1.2806777    -2.8172226    
C      3.5232194    -0.7272917    -4.2127198    
C      4.8067854    -1.3205259    -4.8029893    
N      5.1321431    -0.7532906    -6.0934460    
C      5.8535135     0.3953931    -6.1904083    
N      5.8924679     0.9496410    -7.4304051    
O      6.4328922     0.9024893    -5.2289437    
C      1.3028370     1.7091496    -2.0795921    
O      0.1621361     1.3960419    -2.4080054    
N      1.6914042     2.9951237    -1.8930173    
C      0.7124291     4.0668945    -1.8859376    
C     -0.2436383     3.9593316    -0.7159319    
C     -1.5655746     4.3575244    -0.8693086    
C     -2.4486317     4.3121189     0.1933612    
C     -1.9967877     3.8540154     1.4172386    
C     -0.6908539     3.4403654     1.5963879    
C      0.1812239     3.5013787     0.5244376    
Br    -3.2127379     3.8255329     2.9011814    
C      1.4314189     5.4124193    -1.8544061    
H     -2.0974216    -3.1108386     4.0810005    
H     -2.3815281    -1.3655633     1.5880864    
H     -4.2151086    -2.2528871     4.4536256    
H     -0.0760555    -3.0796500     2.2388783    
H     -3.5876237    -3.5502250     1.4499866    
H     -2.0975007    -4.3955256     1.8919388    
H     -0.9918516    -3.2479578    -0.1285942    
H     -2.6033472    -2.7682635    -0.6404798    
H     -3.2752059    -5.0751503    -0.9403074    
H     -1.8300815    -5.6679324    -0.0806330    
H     -0.7419518    -4.2002083    -2.0594842    
H     -2.6049205    -7.4200500    -3.6480388    
H     -3.0337593    -6.9088259    -2.0562353    
H     -0.2240846    -4.8872990    -4.1689384    
H     -0.9583365    -6.3012627    -4.8358414    
H      0.6062864     0.4366482     5.5931272    
H     -1.2726078     2.2632467     5.1288176    
H      2.3454343     0.1106842     0.2164012    
H      1.8166298    -2.4658787     1.4919596    
H      1.9573809    -1.1218478     3.6087728    
H      4.4557896    -0.8682289     3.4802776    
H      4.3665082    -1.0535841     1.7282340    
H      3.8991750    -2.3877590     2.7849239    
H      1.4232815     1.1089349     2.4713896    
H      3.1114971     1.1414258     1.9267943    
H      2.7417300     1.1315683     3.6425871    
H      3.2453377     1.0744760    -1.8377531    
H      1.1653097    -0.6602930    -2.8385699    
H      3.0657251    -2.3536270    -2.8728844    
H      4.1195070    -1.1216634    -2.1788974    
H      3.6385690     0.3582330    -4.1702622    
H      2.6789590    -0.9468131    -4.8688516    
H      4.7153273    -2.4020374    -4.9172811    
H      5.6502679    -1.1005918    -4.1440310    
H      4.5191953    -0.9896738    -6.8580085    
H      6.5518099     1.6953301    -7.5712912    
H      5.6098380     0.4190735    -8.2354990    
H      2.5911741     3.1969887    -1.4872063    
H      0.1293090     3.9741835    -2.8100314    
H     -1.9122017     4.7075342    -1.8294867    
H     -3.4735025     4.6273340     0.0728985    
H     -0.3588886     3.0758834     2.5558949    
H      1.2022355     3.1843417     0.6674623    
H      0.7050602     6.2171805    -1.9152932    
H      2.1154196     5.4932500    -2.6941292    
H      1.9851989     5.5204227    -0.9250450    
