12

C     -1.2187229    -0.5639656     0.3392556    
C     -0.4634791    -1.1116878    -0.6842790    
C      0.7551355    -0.5479896    -1.0237081    
C      1.2184667     0.5634368    -0.3395903    
C      0.4632040     1.1111858     0.6839114    
C     -0.7553759     0.5474530     1.0233824    
H     -2.1690053    -1.0035960     0.6039216    
H     -0.8248513    -1.9784029    -1.2177852    
H      1.3441008    -0.9751722    -1.8218383    
H      2.1687620     1.0030619    -0.6041851    
H      0.8245534     1.9779216     1.2173609    
H     -1.3443093     0.9746279     1.8215259    
