66

C      1.1103778    -0.1538422    -3.4948282    
O      1.3508802    -1.3272245    -3.2547776    
O      0.7637427     0.1791124    -4.7434753    
C      0.3807531     1.5176152    -5.0823553    
C      1.4850908     2.5358903    -4.9382408    
C      2.8105635     2.1775544    -5.1480565    
C      3.8150361     3.1215991    -5.0273492    
C      3.5021402     4.4329686    -4.7106165    
C      2.1813987     4.7973379    -4.5081093    
C      1.1766446     3.8519516    -4.6146605    
N      1.2446083     0.8211327    -2.5728270    
C      1.3840474     0.4340925    -1.1797492    
C      0.0765489    -0.2419668    -0.7374833    
O     -1.0022424     0.0929219    -1.2166130    
C      1.6851333     1.6549598    -0.3234671    
N      0.2227301    -1.2023129     0.1730601    
C     -0.8629942    -1.9905312     0.7112456    
C     -0.6764336    -2.0146634     2.2307434    
O      0.4467410    -1.9856015     2.7233983    
C     -0.8269832    -3.4260988     0.1337887    
C     -1.9396917    -4.2887472     0.7244479    
C     -0.9496396    -3.3837333    -1.3879576    
N     -1.7984119    -2.1006525     2.9437370    
C     -1.8421841    -2.0603157     4.3895345    
C     -2.8398979    -3.1177659     4.8745647    
O     -4.0872485    -2.8643206     4.2628538    
C     -2.2508984    -0.6511943     4.8622056    
C     -1.3256435     0.3744429     4.2761265    
C     -1.6189890     0.9749142     3.0582106    
C     -0.1304602     0.6928195     4.9077515    
C     -0.7411236     1.8769179     2.4850833    
C      0.7474454     1.5971994     4.3386077    
C      0.4447360     2.1920523     3.1253555    
H     -0.5030073     1.8057992    -4.5001003    
H      0.0881958     1.4290822    -6.1333204    
H      3.0479101     1.1538395    -5.3989376    
H      4.8426530     2.8323917    -5.1849564    
H      4.2862614     5.1686386    -4.6223115    
H      1.9329606     5.8181034    -4.2634831    
H      0.1467038     4.1352585    -4.4558359    
H      0.8317127     1.7272390    -2.7371074    
H      2.1961628    -0.2972238    -1.1278174    
H      1.8108307     1.3520402     0.7117798    
H      0.8604470     2.3606893    -0.3817292    
H      2.5939015     2.1364771    -0.6716068    
H      1.1273039    -1.4007344     0.5789722    
H     -1.7982626    -1.4988020     0.4294683    
H      0.1428342    -3.8602693     0.3997114    
H     -1.9169246    -5.2725934     0.2635893    
H     -2.9112298    -3.8425976     0.5269780    
H     -1.8144962    -4.4106325     1.7961015    
H     -0.1432959    -2.8117328    -1.8443577    
H     -1.8929678    -2.9246125    -1.6779478    
H     -0.9156668    -4.3921665    -1.7921805    
H     -2.7002256    -2.0944741     2.4894731    
H     -0.8362058    -2.2970603     4.7492552    
H     -2.9185233    -3.0611120     5.9660788    
H     -2.4709803    -4.1132230     4.5945469    
H     -4.7337141    -3.5117049     4.5717175    
H     -2.2074062    -0.6242636     5.9507515    
H     -3.2772439    -0.4694658     4.5418916    
H     -2.5437245     0.7376322     2.5522584    
H      0.1155985     0.2251654     5.8498713    
H     -0.9857979     2.3277961     1.5344798    
H      1.6732438     1.8363695     4.8401367    
H      1.1305538     2.8992206     2.6839681    
