22

C      1.2611320    -2.5844483     0.0724869    
C      0.8317979    -3.8693554    -0.1964352    
C     -0.3998416    -4.0531222    -0.8214149    
N     -1.2097051    -3.0695847    -1.1812580    
C     -0.7982076    -1.8406953    -0.9223870    
C      0.4311031    -1.5308702    -0.3028173    
S     -1.6956324    -0.3854507    -1.2743129    
C     -0.4085114     0.6166873    -0.6521481    
C      0.6239970    -0.1156367    -0.1409044    
C     -0.7393815     2.0739766    -0.7285549    
O     -1.9639844     2.3390471    -0.7490098    
O      1.7790234     0.2829581     0.4544285    
C      1.7886159     1.4964054     1.1736828    
C      0.6671331     1.5728923     2.2560626    
O      0.6509099     2.6144650     2.9376821    
O      0.1912167     2.9060532    -0.8310886    
O     -0.1023079     0.6000751     2.3559928    
H      2.2007859    -2.3670213     0.5566768    
H      1.4360253    -4.7188078     0.0744181    
H     -0.7690525    -5.0420429    -1.0479952    
H      1.6509498     2.3609832     0.5128979    
H      2.7664363     1.5469514     1.6554777    
