108

N     -5.5348881     3.3490163    -3.2545368    
C     -5.6505374     1.8792651    -3.0973508    
C     -4.2322707     1.3280215    -3.3610185    
O     -3.3528023     2.1061614    -3.7113215    
C     -6.6457305     1.3189276    -4.1094710    
N     -4.0717346     0.0203807    -3.1821054    
C     -2.8455234    -0.6695805    -3.5523381    
C     -1.6216681     0.0532566    -2.9682110    
O     -0.6024399     0.2336312    -3.6111312    
C     -2.7003889    -0.7749107    -5.0754018    
C     -3.8271083    -1.5835033    -5.7138216    
C     -3.6723313    -1.6899872    -7.2349572    
N     -2.5550827    -2.5271644    -7.6212489    
C     -1.3526067    -2.1367169    -8.0341254    
N     -0.4646029    -3.0661137    -8.3895483    
N     -0.9955820    -0.8596612    -8.0586568    
N     -1.7829068     0.4766441    -1.7000879    
C     -0.6715299     1.0791943    -1.0032888    
C      0.1651254    -0.0169759    -0.3325708    
O     -0.2323698    -1.1702783    -0.2575282    
C     -1.1021365     2.1151266     0.0747480    
O     -1.1806741     1.5155864     1.3579718    
C     -2.3857521     2.8342434    -0.3193236    
N      1.3418459     0.4036310     0.1481231    
C      2.2212010    -0.4456512     0.9161663    
C      3.5931118    -0.5651312     0.2416688    
C      3.4613392    -1.1292609    -1.1720268    
C      4.8299515    -1.2839069    -1.8405054    
C      4.7227152    -1.4599867    -3.3514248    
N      4.0031387    -2.7032469    -3.7113919    
C      3.8379722    -2.8625264    -5.1663156    
C      2.3641764     0.0427877     2.3580067    
O      3.3228497    -0.3056136     3.0502075    
N      1.3970230     0.8475356     2.8003821    
C      1.4254521     1.4909271     4.1045710    
C      1.0012691     0.4846559     5.1873481    
O     -0.0783390     0.5169299     5.7576538    
C      0.5225772     2.7223454     4.0781552    
C      0.6282740     3.5459821     5.3597661    
C      1.9970832     4.1751672     5.5526505    
O      2.9309196     4.0138537     4.7734710    
N      2.1060470     4.9391398     6.6463396    
N      1.9545989    -0.4334246     5.4359654    
C      1.7161433    -1.5756589     6.2835611    
C      2.6448888    -1.6344300     7.4942637    
O      2.3727246    -2.2972467     8.4666054    
C      1.8274847    -2.9061468     5.4731234    
O      1.5017106    -4.0227244     6.2592048    
C      3.2353141    -3.1304219     4.9275466    
O      3.7720825    -0.9456689     7.4302041    
H     -5.6672994     3.8691458    -2.3831580    
H     -6.1914379     3.7122647    -3.9533650    
H     -4.5529943     3.4996558    -3.5952830    
H     -5.9625330     1.6245586    -2.0830507    
H     -6.7501108     0.2438978    -4.0072340    
H     -6.3259535     1.5379979    -5.1248829    
H     -7.6289969     1.7520656    -3.9473464    
H     -4.8641279    -0.5444690    -2.9162914    
H     -2.8755126    -1.6686511    -3.1073112    
H     -1.7337401    -1.2340803    -5.2758981    
H     -2.6829839     0.2404460    -5.4746237    
H     -4.7871046    -1.1085510    -5.5145129    
H     -3.8512893    -2.5861935    -5.2852856    
H     -3.5648764    -0.6981341    -7.6738669    
H     -4.5772857    -2.1372822    -7.6517667    
H     -2.7241642    -3.5207463    -7.5713534    
H      0.4109877    -2.7959618    -8.8046189    
H     -0.7362604    -4.0300487    -8.4806911    
H     -1.6150706    -0.1347880    -7.7424989    
H     -0.0998413    -0.5858961    -8.4241033    
H     -2.5132162     0.0661656    -1.1384778    
H     -0.0684522     1.5750441    -1.7705395    
H     -0.2934651     2.8468734     0.1722360    
H     -2.0286868     1.0625098     1.4593614    
H     -2.5497557     3.6748469     0.3492214    
H     -3.2366198     2.1615233    -0.2496888    
H     -2.2928202     3.1966031    -1.3383860    
H      1.6149440     1.3695397     0.0473885    
H      1.7440720    -1.4341663     0.9576428    
H      4.2189572    -1.2085484     0.8605022    
H      4.0623103     0.4201569     0.2178300    
H      2.8420155    -0.4487643    -1.7593115    
H      2.9485660    -2.0895559    -1.0975234    
H      5.3711437    -2.1162375    -1.3899460    
H      5.4177205    -0.3854907    -1.6517979    
H      5.7199376    -1.4928880    -3.7913761    
H      4.1822274    -0.6148072    -3.7795118    
H      3.0795078    -2.6857982    -3.2633028    
H      4.5135390    -3.5083373    -3.3300443    
H      3.3027047    -3.7816542    -5.3853715    
H      4.8109926    -2.9006466    -5.6492300    
H      3.2850532    -2.0150920    -5.5608787    
H      0.5622691     1.0173286     2.2444895    
H      2.4585265     1.7987756     4.3069633    
H     -0.5097866     2.3976722     3.9500323    
H      0.8190090     3.3458223     3.2342374    
H      0.4081882     2.9163403     6.2241023    
H     -0.1107347     4.3475410     5.3359402    
H      2.9867433     5.3829340     6.8509841    
H      1.3419564     5.0533959     7.2889814    
H      2.7347469    -0.4681142     4.7743796    
H      0.6947396    -1.4895403     6.6765629    
H      1.1177687    -2.8187759     4.6332590    
H      0.6237350    -3.9258274     6.6505182    
H      3.2537503    -4.0873414     4.4144610    
H      3.9455730    -3.1796369     5.7491364    
H      3.5220788    -2.3475003     4.2324373    
H      3.8638238    -0.4119932     6.6174301    
