45

C      2.1397307     0.2656142     3.6253500    
C      3.0894595     0.3839619     4.6418852    
C      3.4388184     1.6648105     5.0822281    
C      2.8468782     2.7796973     4.5245512    
C      1.8988720     2.6538238     3.5245543    
C      1.5403616     1.3870631     3.0664511    
N      3.6179825    -0.7311706     5.2381954    
C      0.5457660     1.2402791     1.9934660    
C     -0.6041730     2.0504578     1.9743022    
C     -1.5361031     1.9328196     0.9786852    
C     -1.3571802     0.9939298    -0.0497483    
C     -0.2085929     0.1652125    -0.0437514    
C      0.7268404     0.3107319     0.9870542    
N     -2.3007495     0.9055741    -1.0314624    
C     -2.0716085     0.0110496    -1.9467373    
N     -1.0540740    -0.8319085    -2.0653483    
C     -0.1027814    -0.7860379    -1.1270338    
N      0.9215513    -1.6251970    -1.2071143    
C      1.1487949    -2.6614751    -2.2166482    
C     -0.0047103    -3.6667098    -2.1865518    
C      1.2646286    -2.0189349    -3.6001829    
C      2.4603061    -3.3511125    -1.8428805    
C     -3.0786492    -0.0967569    -3.0650164    
F     -3.3307777    -1.3713634    -3.4125325    
F     -4.2647331     0.4566804    -2.7803146    
F     -2.6469175     0.5082459    -4.1946596    
H      1.8451218    -0.7204519     3.2972260    
H      4.1735175     1.7741408     5.8662058    
H      3.1295328     3.7628490     4.8715763    
H      1.4587180     3.5332447     3.0804478    
H      3.5396343    -1.6007172     4.7401397    
H      4.4568743    -0.6071034     5.7781113    
H     -0.7563146     2.7631327     2.7702203    
H     -2.4226735     2.5450545     0.9552327    
H      1.6227928    -0.2903290     1.0012672    
H      1.6257072    -1.5562443    -0.4877932    
H      0.1813102    -4.4628533    -2.9004513    
H     -0.9365435    -3.1739230    -2.4493596    
H     -0.1047460    -4.1003128    -1.1944848    
H      1.4675217    -2.7822236    -4.3446983    
H      2.0709365    -1.2900372    -3.6147660    
H      0.3353901    -1.5186990    -3.8573885    
H      2.6807384    -4.1337879    -2.5619700    
H      2.3868765    -3.8050885    -0.8578006    
H      3.2825840    -2.6399556    -1.8510292    
