15

N     -0.0871152    -2.1051624     0.1186784    
C     -0.5835289    -0.7177216     0.1390727    
C      0.3801510     0.2042315    -0.6426928    
O      0.9850541    -0.1399187    -1.6265742    
C     -0.6392019    -0.0344163     1.5008188    
C     -0.3476005     1.4257927     1.1299806    
O      0.4492936     1.3806004    -0.0687408    
H     -0.8347603    -2.7837569     0.3096331    
H      0.6644321    -2.2463517     0.8077633    
H      0.3069539    -2.2896470    -0.8188954    
H     -1.5513514    -0.6687991    -0.3720982    
H      0.1407324    -0.4133186     2.1606224    
H     -1.6001852    -0.1256398     1.9968878    
H      0.2290197     1.9686392     1.8780968    
H     -1.2573880     1.9863195     0.9006265    
