81

P     -1.3894682     1.6671548     3.4037259    
O     -0.6320497     2.4435271     4.4209831    
O     -2.1821632     2.3613880     2.3631808    
O     -0.3931861     0.5795157     2.6404278    
P      1.0746440     1.1368278     2.2758901    
O      2.0063505     0.8630201     3.3933476    
O      0.9921466     2.5146719     1.7207036    
O      1.3713953     0.1567516     1.0099014    
P      1.1933424    -1.4428418     1.1662334    
O     -0.2386720    -1.8260592     1.1325843    
O      2.0457637    -1.9652631     2.2726490    
O      1.8110696    -1.8964836    -0.2379284    
P      3.3821896    -1.6383005    -0.6027406    
O      3.9374568    -0.4128820     0.0268402    
O      4.1140912    -2.9195617    -0.4550405    
O      3.1901724    -1.3587982    -2.1867788    
P      1.7875634    -0.9323313    -2.9371900    
O      2.2564395    -0.3176631    -4.2094496    
O      0.8325723    -2.0638296    -2.9718387    
O     -2.3642976     0.5960292     4.1375591    
C     -2.3636659     0.4417151     5.5570288    
C     -1.6132012    -0.7985053     6.0547938    
O     -2.1846355    -2.0168800     5.5660643    
C     -0.1235397    -0.8234912     5.6952521    
O      0.6173467    -1.2188418     6.8128702    
C     -0.0267796    -1.8727446     4.5633696    
O      1.1134747    -2.6737112     4.7213583    
C     -1.3291026    -2.6944001     4.6955178    
N     -1.9648721    -2.9374720     3.4252050    
C     -2.8792091    -2.1746239     2.7546223    
N     -3.1933797    -2.6289477     1.5789633    
C     -2.3900805    -3.7331405     1.4062334    
C     -2.1815297    -4.6224764     0.3413642    
N     -2.8881612    -4.5872976    -0.8153248    
N     -1.3165963    -5.6334169     0.5253283    
C     -0.6883032    -5.7311022     1.6843096    
N     -0.7688194    -4.9502417     2.7488322    
C     -1.6086690    -3.9295025     2.5576648    
O      1.1507893     0.2202694    -1.9798819    
C      1.8880927     1.4189158    -1.8470159    
C      0.9429689     2.6184148    -1.8804290    
O      0.5020669     2.8980615    -3.1949938    
C     -0.3074915     2.4058908    -1.0063908    
O     -0.6326335     3.5587078    -0.2771143    
C     -1.4360880     2.1123785    -2.0164614    
O     -2.6438607     2.7164155    -1.6903440    
C     -0.8814668     2.6449814    -3.3578352    
N     -1.1346733     1.7775789    -4.4695290    
C     -0.9469772     0.4239220    -4.6113993    
N     -1.3186974    -0.0321574    -5.7675718    
C     -1.7706329     1.0693905    -6.4626392    
C     -2.2968792     1.2387521    -7.7615752    
N     -2.4699076     0.2423991    -8.6289296    
N     -2.6494103     2.4851921    -8.1274516    
C     -2.4954372     3.4741047    -7.2664932    
N     -2.0182162     3.4436982    -6.0306734    
C     -1.6557497     2.2115698    -5.6620992    
H     -3.4192109     0.3582379     5.8276918    
H     -1.9023795     1.3307790     5.9973871    
H     -1.7125740    -0.8341432     7.1475265    
H      0.2258910     0.1478460     5.3148932    
H      1.3196698    -1.8188735     6.4965733    
H     -0.0155866    -1.3737591     3.5908047    
H      1.6630440    -2.5634003     3.9250531    
H     -1.0797905    -3.6870432     5.1040431    
H     -3.2955638    -1.2878294     3.1889801    
H     -2.4498448    -5.0756973    -1.5832703    
H     -3.2852897    -3.6853592    -1.0294748    
H     -0.0238534    -6.5781870     1.7831618    
H      2.6039536     1.4745167    -2.6762221    
H      2.4281255     1.3910853    -0.8917526    
H      1.5000940     3.4938420    -1.5258033    
H     -0.1518138     1.5509498    -0.3386782    
H     -0.2360417     3.4636448     0.6061804    
H     -1.5702493     1.0233972    -2.0765168    
H     -2.4718118     3.3330338    -0.9505602    
H     -1.3728215     3.5977995    -3.6132997    
H     -0.5211371    -0.1790283    -3.8308811    
H     -2.8274890     0.4557617    -9.5451606    
H     -2.1830291    -0.6809274    -8.3569064    
H     -2.8011538     4.4507454    -7.6131647    
