38

Br     0.6884746     2.4787840    -3.8736028    
C      1.3625684     2.5075491    -2.0735693    
C      0.7882353     1.6772218    -1.1311487    
C      1.2578475     1.7142133     0.1801116    
C      2.3079547     2.5754387     0.5001959    
C      2.8714011     3.3917859    -0.4612208    
C      2.3983235     3.3698611    -1.7638881    
C      0.6697677     0.8770647     1.2373735    
C     -0.6584611     0.4227495     1.1498272    
C     -1.2001542    -0.3173155     2.1894143    
N     -0.3620190    -0.5796841     3.2298883    
N     -0.6723414    -1.2901741     4.3202052    
C      0.4335301    -1.2842060     5.0580563    
C      0.9447496    -0.1126467     3.2585570    
C      1.4698965    -0.5748034     4.4627976    
N      1.4541131     0.6199645     2.2724216    
N     -2.4630516    -0.7563728     2.3168169    
C     -3.4415297    -0.7667807     1.2618292    
C     -3.3125375    -1.9290849     0.3037213    
C     -2.5656799    -3.0623162     0.6013320    
C     -2.5388407    -4.1030243    -0.3148783    
N     -3.1813234    -4.0796721    -1.4711634    
C     -3.8851083    -2.9940424    -1.7585407    
C     -3.9873871    -1.9027643    -0.9129414    
H      0.0025377     0.9986725    -1.4234304    
H      2.6646537     2.5887932     1.5172491    
H      3.6811743     4.0560284    -0.2037214    
H      2.8246572     4.0065366    -2.5229436    
H     -1.2646986     0.6760440     0.3001263    
H      0.4395133    -1.7972137     6.0000299    
H      2.4572360    -0.4161689     4.8384567    
H     -2.6252936    -1.3356803     3.1300674    
H     -3.3832538     0.1716619     0.7051565    
H     -4.4309137    -0.8125066     1.7252720    
H     -2.0127697    -3.1462135     1.5235202    
H     -1.9774454    -5.0054873    -0.1120134    
H     -4.3898959    -3.0085784    -2.7147231    
H     -4.5800853    -1.0478415    -1.1977171    
