54

O      4.0553995     4.5981205    -3.9998080    
P      4.0128987     3.5067289    -2.9518894    
O      5.3780441     3.0022762    -2.4989249    
O      3.0594168     3.7716505    -1.7924892    
O      3.3201542     2.1950405    -3.8052869    
C      3.1787457     1.0438154    -3.0055172    
C      2.6547202    -0.1086773    -3.8589305    
C      2.7605444    -1.4684139    -3.1655036    
C      2.0169870    -1.5627997    -1.8352679    
C      0.5008666    -1.4472134    -2.0018630    
N     -0.1638886    -1.4103135    -0.7215264    
C     -0.2693637    -2.4600234     0.1865124    
C      0.0913833    -3.8410456     0.1098663    
O      0.6171401    -4.4443380    -0.8147605    
N     -0.2376450    -4.5116028     1.2877841    
C     -0.6530877    -0.2813785    -0.1450805    
O     -0.7512930     0.8380481    -0.6300125    
N     -1.0966359    -0.6287973     1.1322926    
C     -0.8638047    -1.9531705     1.3223013    
N     -1.1649621    -2.6979944     2.4114556    
C     -0.8560050    -4.0342615     2.4211362    
O     -1.1082077    -4.7558755     3.3668836    
C     -1.6074957     0.3447742     2.0693359    
C     -2.9867895    -0.0478702     2.6302958    
O     -2.8588489    -0.9617102     3.6939240    
C     -3.8136979     1.1833158     3.0723429    
O     -4.3238555     1.9098142     1.9846305    
C     -3.0247121     2.0871402     4.0537787    
O     -2.5513640     1.3245882     5.1431196    
C     -3.9067964     3.2391123     4.5696454    
O     -4.8400679     2.7669188     5.5138349    
H      2.5044714     1.2949104    -2.1723063    
H      4.1621483     0.8107261    -2.5652621    
H      3.2529582    -0.1145071    -4.7723954    
H      1.6279989     0.1240522    -4.1419181    
H      3.8173907    -1.6669632    -2.9798173    
H      2.3800285    -2.2330259    -3.8438364    
H      2.3685176    -0.7697390    -1.1718961    
H      2.2401187    -2.5283055    -1.3764938    
H      0.1250664    -2.3023781    -2.5674415    
H      0.2454848    -0.5142138    -2.5074733    
H     -0.0054605    -5.5005068     1.3072484    
H     -1.7316591    -2.2805340     3.1666705    
H     -1.6510129     1.2764147     1.4981014    
H     -0.8958862     0.4665613     2.8920656    
H     -3.5532969    -0.5617503     1.8446775    
H     -2.5600020    -0.4585005     4.4791978    
H     -4.6977011     0.7884404     3.5880623    
H     -3.6119848     2.2044208     1.4015256    
H     -2.1569713     2.5128245     3.5378815    
H     -3.1791211     1.4558833     5.8773912    
H     -4.3907855     3.7367550     3.7268033    
H     -3.2760698     3.9569180     5.0985737    
H     -5.6087611     2.4004991     5.0574126    
