44

C      4.6124350    -0.5795622     1.2654998    
C      3.1913105    -0.2672776     1.6392026    
O      2.3778018    -1.1302987     1.9641282    
N      2.8540165     1.0349802     1.6300445    
C      1.5005097     1.4377768     1.9531165    
C      1.2666103     1.3961754     3.4723000    
O      1.6531909     2.6438803     3.9840631    
C     -0.1998548     1.0863913     3.8117196    
O     -0.2577817     1.0128008     5.2136935    
C     -0.5729261    -0.2394070     3.1351075    
C     -2.0175582    -0.7090398     3.3946490    
O     -3.0003464     0.1799493     2.9315562    
O     -0.4471616    -0.1292481     1.7190402    
C      0.5284562     0.5764638     1.1705588    
N      0.6927596     0.6225410    -0.0923819    
O     -0.1862782    -0.2152109    -0.8250994    
C     -0.3528372     0.1496241    -2.1308954    
O      0.1171774     1.1469078    -2.6267166    
N     -1.1315508    -0.7852298    -2.7118963    
C     -1.6271002    -0.8236905    -4.0240159    
C     -1.3817965     0.1812133    -4.9526710    
C     -1.9146207     0.0837494    -6.2259822    
C     -2.6879562    -1.0064631    -6.5867250    
C     -2.9276349    -2.0109575    -5.6632356    
C     -2.4015121    -1.9232254    -4.3883329    
H      5.1410801     0.3024426     0.9244642    
H      4.6092455    -1.3360803     0.4850578    
H      5.1175081    -1.0029207     2.1310865    
H      3.5004980     1.7366294     1.3094251    
H      1.3740547     2.4748413     1.6308190    
H      1.8790066     0.5930106     3.9095905    
H      1.5011964     2.6458476     4.9420142    
H     -0.8309480     1.8967856     3.4197689    
H     -1.1692772     1.0412372     5.5318733    
H      0.1183496    -1.0204582     3.4815065    
H     -2.1327086    -0.9264470     4.4611957    
H     -2.1665618    -1.6296880     2.8270665    
H     -3.0802265     0.9449442     3.5173119    
H     -1.4106212    -1.5488247    -2.1075518    
H     -0.7766386     1.0281410    -4.6732784    
H     -1.7212990     0.8702070    -6.9388264    
H     -3.1004039    -1.0738246    -7.5816584    
H     -3.5267656    -2.8666338    -5.9348124    
H     -2.5895841    -2.7061041    -3.6693360    
