26

O      1.3144094     2.0342673     1.2284663    
C      0.7428832     0.8871851     0.7432305    
N     -0.4174262     0.4600788     1.6370717    
C      1.6935765    -0.3070207     0.8754968    
C      0.7979874    -1.5133920     1.2037604    
C     -0.6285194    -0.9518955     1.2532659    
C      0.2167707     1.0256500    -0.7069398    
O      1.2983240     1.2307505    -1.5782750    
C     -0.5071571    -0.2418458    -1.2044874    
O     -1.3451447     0.1771599    -2.2573156    
C     -1.3479903    -0.9435697    -0.1114341    
O     -1.7477272    -2.2256548    -0.5082232    
H      0.8206742     2.8339380     0.9921378    
H     -1.2601188     1.0332576     1.5192758    
H     -0.1020028     0.5417767     2.6134055    
H      2.4082284    -0.0973237     1.6692073    
H      2.2500352    -0.4316555    -0.0506497    
H      1.0688357    -1.9434375     2.1655173    
H      0.8944887    -2.2985398     0.4592487    
H     -1.2604516    -1.4779531     1.9711466    
H     -0.4989747     1.8587468    -0.7756800    
H      1.7184466     2.0865384    -1.4123479    
H      0.2616876    -0.9268022    -1.5863826    
H     -1.7571665    -0.5942939    -2.6697622    
H     -2.2907832    -0.3902041    -0.0161065    
H     -0.9807234    -2.8079583    -0.6049915    
