77

C     -4.3934393    -3.9627174     4.3220509    
C     -3.0047896    -3.7911783     4.4296065    
C     -2.3732996    -3.3791527     5.7394025    
C     -3.3176793    -3.5044771     6.9321274    
C     -4.6703899    -2.8990164     6.5886766    
C     -5.3097055    -3.7433918     5.4956982    
N     -5.0036360    -4.2855751     3.2012395    
C     -4.2592913    -4.5598806     2.1141830    
C     -2.8421075    -4.4365618     2.0980436    
C     -2.2148176    -3.9275657     3.2797930    
N     -0.8753202    -3.6230073     3.3501674    
C     -2.1641704    -4.8666296     0.9401270    
C     -2.8434337    -5.3122602    -0.1620047    
C     -4.2432330    -5.3542587    -0.1669797    
C     -4.9361132    -4.9974274     0.9552204    
C      0.2593889     2.5623122    -2.9010016    
C     -0.5932286     1.8297362    -1.8653131    
C      0.1535504     0.6845242    -1.1818842    
C     -0.6959261     0.0275926    -0.0961742    
C      0.0368074    -1.1256044     0.5851809    
C     -0.8364223    -1.8058423     1.6357270    
C     -0.0947700    -2.9593616     2.3166075    
C      4.2158119     4.3074387    -4.2738299    
C      2.8839747     3.9568616    -3.9863989    
C      1.8043926     4.1274010    -5.0296922    
C      2.3138569     4.4648764    -6.4300924    
C      3.4600100     5.4607425    -6.3604479    
C      4.6193708     4.7885784    -5.6401382    
N      5.1952269     4.2821014    -3.3958489    
C      4.9269667     3.9099623    -2.1314235    
C      3.6216213     3.5503242    -1.7044593    
C      2.5641990     3.5869120    -2.6760978    
N      1.2825388     3.3591440    -2.2467429    
C      3.4571382     3.1641885    -0.3591391    
C      4.5113838     3.1537309     0.5151449    
C      5.7918126     3.5306866     0.0902634    
C      5.9955491     3.8970506    -1.2094586    
H     -2.0451412    -2.3353852     5.6609472    
H     -1.4944097    -4.0005900     5.9337057    
H     -2.8758267    -3.0037630     7.7955792    
H     -3.4522378    -4.5585127     7.1853573    
H     -4.5379087    -1.8727236     6.2380330    
H     -5.3183341    -2.8783097     7.4667930    
H     -5.5744226    -4.7252463     5.9004909    
H     -6.2312481    -3.2907662     5.1269283    
H     -0.6236946    -3.2870286     4.2671020    
H     -1.0885516    -4.8893915     0.9284245    
H     -2.2972683    -5.6419616    -1.0335766    
H     -4.7660925    -5.6928494    -1.0493422    
H     -6.0121176    -5.0582082     1.0024137    
H     -0.3925581     3.2112615    -3.4967313    
H      0.7215175     1.8231953    -3.5630388    
H     -1.4737297     1.4274046    -2.3681192    
H     -0.9408557     2.5456412    -1.1173130    
H      1.0828810     1.0485390    -0.7380106    
H      0.4255000    -0.0642241    -1.9298395    
H     -1.6211989    -0.3483204    -0.5388589    
H     -0.9696578     0.7742036     0.6534879    
H      0.9494040    -0.7510711     1.0552523    
H      0.3296927    -1.8608088    -0.1679737    
H     -1.7412223    -2.1895515     1.1609618    
H     -1.1416453    -1.0777838     2.3915232    
H      0.2388040    -3.6741371     1.5611755    
H      0.8015523    -2.5726584     2.8049180    
H      1.1460459     4.9316486    -4.6832247    
H      1.2025863     3.2244575    -5.1052655    
H      1.4873112     4.8647202    -7.0206853    
H      2.6668379     3.5566150    -6.9242124    
H      3.1470089     6.3513615    -5.8105134    
H      3.7668443     5.7681468    -7.3610311    
H      4.9622484     3.9286989    -6.2235213    
H      5.4692497     5.4619940    -5.5236773    
H      1.2044685     3.3146695    -1.2428378    
H      2.4910420     2.8525100     0.0126242    
H      4.3587901     2.8526666     1.5410478    
H      6.6129420     3.5241233     0.7922113    
H      6.9695616     4.1876790    -1.5706347    
