67

C      3.1833475    -2.6459753     2.7238588    
C      4.2048792    -1.5950329     2.3274176    
C      5.6086907    -2.1297973     2.5303405    
N      5.6063867    -3.4790855     2.6531487    
S      4.0890563    -4.1894327     2.3793986    
O      3.8908042    -5.2175701     3.3691687    
O      4.0360778    -4.6337380     1.0096775    
O      6.6059313    -1.4399695     2.5716193    
C      1.8737245    -2.6190466     2.0087825    
C      1.8168826    -2.6136457     0.6198962    
C      0.5956707    -2.5935343    -0.0276011    
C     -0.5929977    -2.5756138     0.6912542    
C     -0.5330468    -2.5948209     2.0784809    
C      0.6848653    -2.6229779     2.7309170    
C     -1.9174021    -2.4790643    -0.0101680    
C     -2.3942584    -1.0113026    -0.0021049    
N     -3.6666318    -0.8948346    -0.6900588    
S     -4.4874239     0.5404489    -0.5321806    
O     -5.7012095     0.3530950    -1.3062448    
O     -4.6566648     0.7750097     0.8841874    
C      1.9446286     2.6753541    -1.6778886    
C      1.3054836     2.1753604    -0.5607226    
C      0.2759158     1.2639034    -0.7633307    
C     -0.0701213     0.8644757    -2.0739880    
C      0.5714290     1.3724223    -3.1910377    
C      1.5809676     2.2876141    -2.9692762    
N     -0.5412928     0.6239674     0.1385973    
C     -1.3353903    -0.1227273    -0.5727125    
N     -1.0887962    -0.0398287    -1.9151893    
C     -0.3840461     5.3192105    -0.7406111    
O     -1.4611676     4.5938330    -0.1666096    
C     -2.0688923     3.7123512    -1.0131727    
C     -1.9133472     3.7881743    -2.4228272    
N     -1.1316944     4.7599476    -2.9619760    
C     -0.7714744     5.8687251    -2.1104284    
C     -2.8610973     2.7317192    -0.4487063    
C     -3.5163996     1.8233589    -1.2608757    
C     -3.3831650     1.8705517    -2.6364241    
C     -2.5873007     2.8409461    -3.2091673    
C     -0.9278795     4.8687670    -4.3853810    
H      3.0459760    -2.6883441     3.8029625    
H      4.0851488    -0.6739039     2.8992309    
H      4.1082428    -1.3351023     1.2704985    
H      6.4701850    -3.9939701     2.7420520    
H      2.7263497    -2.6502489     0.0411526    
H      0.5716802    -2.5920067    -1.1066117    
H     -1.4480806    -2.5855577     2.6501169    
H      0.7129567    -2.6369417     3.8092364    
H     -2.6698348    -3.0857209     0.4914722    
H     -1.8231073    -2.8160869    -1.0428793    
H     -2.5790563    -0.6822344     1.0244290    
H     -3.6695722    -1.2129916    -1.6475189    
H      2.7487913     3.3848790    -1.5544074    
H      1.5797442     2.4755279     0.4374867    
H      0.2946829     1.0649885    -4.1869245    
H      2.1076447     2.7113026    -3.8096707    
H     -1.5828406    -0.5113596    -2.6539826    
H      0.4821158     4.6553975    -0.8414760    
H     -0.1631573     6.1183378    -0.0334067    
H      0.0750477     6.4001201    -2.5432554    
H     -1.6136723     6.5639818    -1.9946350    
H     -2.9701685     2.6708757     0.6210794    
H     -3.9294482     1.1639830    -3.2399237    
H     -2.5011831     2.8803277    -4.2805847    
H     -0.5637397     3.9200902    -4.7775872    
H     -0.1754491     5.6301436    -4.5704782    
H     -1.8465675     5.1480897    -4.9077629    
