170

N      7.4533228    -0.9741640     5.9679762    
C      6.4231810    -0.2780614     5.1693572    
C      5.0609695    -0.8218511     5.6091781    
O      4.9936430    -1.9540500     6.0659667    
C      6.6676217    -0.6369741     3.6791761    
O      8.0640487    -0.4886150     3.5062823    
C      5.8612265     0.2505036     2.7406009    
N      4.0213109     0.0078821     5.4926372    
C      2.6767957    -0.4975240     5.6749318    
C      2.2679547    -1.1999728     4.3652567    
O      2.6099979    -0.7355052     3.2821928    
C      1.7072175     0.6431681     6.0268560    
O      1.6010616     1.5257200     4.8913897    
C      2.1754888     1.4633703     7.2177404    
N      1.5938470    -2.3416728     4.5088708    
C      1.4085470    -3.2723427     3.4196644    
C     -0.0428044    -3.4437326     2.9689843    
O     -0.3929709    -4.4286888     2.3300008    
C      2.0426491    -4.6240610     3.7647162    
C      3.5516016    -4.5565697     4.0328595    
C      4.0440578    -5.9402975     4.4539581    
C      4.3237326    -4.0732526     2.8062279    
N     -0.8917982    -2.4529437     3.2962890    
C     -2.1488012    -2.3575771     2.5668829    
C     -1.7880254    -2.4505296     1.0740120    
O     -0.8498875    -1.8109543     0.6070432    
C     -2.8436851    -1.0377727     2.8900237    
C     -4.0861122    -0.7884778     2.0370795    
C     -4.5477699     0.6638313     2.1649199    
C     -5.8328557     0.9439607     1.3806337    
N     -5.7078893     0.6086824    -0.0234151    
N     -2.5075628    -3.3246675     0.3678834    
C     -2.2000789    -3.6764657    -1.0014065    
C     -2.8543869    -2.6842751    -1.9686910    
O     -3.9598511    -2.2061342    -1.7023636    
C     -2.7608737    -5.0864341    -1.2662033    
C     -2.4563440    -5.5710507    -2.6547211    
C     -1.2653658    -6.2364524    -2.9246388    
C     -3.3486590    -5.3385001    -3.6934814    
C     -0.9708137    -6.6564565    -4.2103528    
C     -3.0543432    -5.7571418    -4.9799869    
C     -1.8637646    -6.4144724    -5.2411023    
N     -2.2211997    -2.4213196    -3.1126655    
C     -0.8596099    -2.7896638    -3.4700930    
C      0.1803875    -2.1744697    -2.5371131    
O      1.1676834    -2.7971894    -2.1717974    
C     -0.6840444    -2.2676195    -4.9070050    
C     -2.1139216    -2.1802396    -5.4321127    
C     -2.8743618    -1.7071263    -4.2027198    
N     -0.0502363    -0.9030341    -2.1917011    
C      0.7931259    -0.1877474    -1.2700395    
C     -0.0830140     0.6952993    -0.3849495    
O     -1.1585308     1.1303361    -0.7887622    
C      1.8004482     0.7166518    -2.0117521    
O      1.1548186     1.8394001    -2.6203313    
N      0.4796907     1.0737661     0.7684778    
C     -0.2454071     1.8864214     1.7284784    
C     -0.8371898     3.1553730     1.0967967    
O     -1.9099073     3.5991089     1.4795743    
C      0.6715587     2.2845686     2.8851359    
C      0.6869100     1.2476623     3.9819122    
O     -0.0595460     0.2957155     4.0551139    
N     -0.0302524     3.7772658     0.2302139    
C     -0.3549472     5.0318357    -0.4017723    
C     -0.8495305     4.8875284    -1.8426162    
O     -1.0183397     5.8687159    -2.5532226    
C      0.9033564     5.9283357    -0.4295115    
C      1.9506077     5.3321798    -1.3141475    
C      2.1401630     5.6018293    -2.6397652    
C      2.8943031     4.3148189    -0.9727165    
N      3.1439672     4.8238902    -3.1452359    
C      3.6200359     4.0187886    -2.1543533    
C      3.2107360     3.6411185     0.2091943    
C      4.6220139     3.0560716    -2.1744316    
C      4.1961804     2.6801083     0.1790087    
C      4.8912238     2.3871896    -0.9993180    
N     -0.9850104     3.6281059    -2.2880406    
C     -1.2210510     3.3463438    -3.6804020    
C     -2.3018452     2.2880257    -3.9037267    
O     -2.1841853     1.4378022    -4.7832892    
C      0.0954909     2.9772986    -4.3976208    
C      0.7176721     1.7076179    -3.8735116    
O      0.8638238     0.6963190    -4.5185967    
N     -3.3526918     2.3607824    -3.0863132    
C     -4.6191508     1.7450848    -3.3990060    
C     -5.2314703     1.4454913    -0.9578565    
O     -4.9433825     2.6170260    -0.7294971    
C     -5.6852342     2.8792582    -3.6650943    
O     -6.8724349     2.5142592    -3.6989802    
O     -5.2391312     4.0234371    -3.8546779    
C     -5.1199935     0.7908115    -2.3224024    
H      7.6824454    -0.4830160     6.8379286    
H      8.2979060    -1.0585280     5.3766672    
H      7.0721365    -1.9100747     6.2000167    
H      6.5021208     0.8027865     5.2938290    
H      6.3840260    -1.6883625     3.5161704    
H      8.2978486    -0.5671870     2.5750728    
H      6.1127270     0.0198197     1.7077797    
H      6.0843828     1.2993231     2.9209940    
H      4.7965593     0.0671620     2.8606665    
H      4.1060476     0.8765104     4.9824690    
H      2.7006695    -1.2221907     6.4930765    
H      0.7171333     0.2100929     6.2116618    
H      1.4444935     2.2366941     7.4332216    
H      3.1277941     1.9358271     7.0061596    
H      2.2716021     0.8197738     8.0853209    
H      1.3414031    -2.6731310     5.4287531    
H      1.9085116    -2.8398783     2.5421492    
H      1.8415571    -5.2982193     2.9303291    
H      1.5331733    -5.0305894     4.6415728    
H      3.7374618    -3.8601764     4.8578903    
H      5.1048926    -5.9142847     4.6863584    
H      3.8846649    -6.6570725     3.6515581    
H      3.5082956    -6.2883104     5.3332219    
H      4.1066531    -3.0300227     2.5882708    
H      4.0580696    -4.6647252     1.9326806    
H      5.3921512    -4.1776879     2.9754594    
H     -0.5201644    -1.5758797     3.6430310    
H     -2.7757611    -3.2133284     2.8367893    
H     -2.1300313    -0.2349075     2.7047186    
H     -3.1057881    -1.0197148     3.9476703    
H     -4.8920639    -1.4573870     2.3428716    
H     -3.8538061    -0.9891538     0.9876079    
H     -3.7701255     1.3320484     1.7860817    
H     -4.7259939     0.9091897     3.2122268    
H     -6.0628305     2.0105584     1.4353740    
H     -6.6657274     0.3680113     1.7860248    
H     -5.8206937    -0.3587853    -0.2859029    
H     -3.3236036    -3.7528854     0.7778700    
H     -1.1119984    -3.6567290    -1.1028816    
H     -3.8429700    -5.0454626    -1.1213181    
H     -2.3213972    -5.7577004    -0.5263310    
H     -0.5662616    -6.4172961    -2.1216028    
H     -4.2770245    -4.8221454    -3.4927820    
H     -0.0429098    -7.1701387    -4.4078030    
H     -3.7583218    -5.5714642    -5.7773517    
H     -1.6350912    -6.7388111    -6.2443132    
H     -0.7333732    -3.8769178    -3.4424410    
H     -0.0560525    -2.9322372    -5.4933127    
H     -0.2357093    -1.2731928    -4.8995262    
H     -2.4698780    -3.1625372    -5.7430946    
H     -2.2095326    -1.4726615    -6.2500818    
H     -2.7658277    -0.6237986    -4.0862793    
H     -3.9381089    -1.9477703    -4.2070998    
H     -0.9045115    -0.4395668    -2.4708092    
H      1.3402634    -0.9339046    -0.6866462    
H      2.2999663     0.1249661    -2.7843343    
H      2.5221705     1.1432822    -1.3145201    
H      1.2529759     0.5302228     1.1299948    
H     -1.1055953     1.3293317     2.1238382    
H      0.3093041     3.2129156     3.3340231    
H      1.6891149     2.4512225     2.5321767    
H      0.8130808     3.3222440    -0.0978996    
H     -1.1557446     5.5013505     0.1807762    
H      1.2729959     6.0467047     0.5885241    
H      0.6051318     6.9006803    -0.8204521    
H      1.6120492     6.3051923    -3.2553732    
H      3.4719979     4.8432651    -4.0958081    
H      2.7033848     3.8958224     1.1262329    
H      5.1653470     2.8410913    -3.0815315    
H      4.4442797     2.1385030     1.0772537    
H      5.6571243     1.6279152    -0.9888016    
H     -1.0056848     2.8466380    -1.6429343    
H     -1.6014368     4.2739804    -4.1341423    
H      0.7915337     3.8021730    -4.2451543    
H     -0.1131528     2.8361998    -5.4570142    
H     -3.4326320     3.1272761    -2.4296834    
H     -4.4990744     1.2027106    -4.3454310    
H     -4.4821601    -0.0929623    -2.2422773    
H     -6.1216461     0.4775824    -2.6275462    
