45

C     -0.3029618     0.7172555    -3.5327842    
O     -0.0882460    -0.3507973    -4.1298615    
O     -0.2861397     1.8688161    -3.9992803    
C     -0.6966290     0.5821805    -2.0159750    
C     -0.4133210     1.8312797    -1.1904597    
C     -0.8928129     1.5887859     0.2470532    
C     -0.2136127     0.3111153     0.7748823    
N     -0.6641473    -0.0323920     2.1098798    
C     -0.0256989     0.3970773     3.2160655    
O      0.7691418     1.3340728     3.1825718    
C     -0.3975378    -0.3150679     4.4834463    
C     -0.4547680    -0.8627066    -0.1923791    
O     -0.0052331    -0.5295266    -1.4898967    
C      0.2790920    -2.1463736     0.2666215    
O      1.4507305    -1.7975185     0.9586022    
C      0.5882793    -3.0533622    -0.9486318    
O     -0.5352181    -3.2161014    -1.7858792    
C      1.0012899    -4.4579177    -0.4916120    
O      2.1714746    -4.3762248     0.2894741    
N     -0.5373489     2.6728496     1.1425694    
C     -1.1620447     3.8381737     1.2673878    
N     -2.1944220     4.1693121     0.4967287    
N     -0.7540065     4.6781748     2.2134556    
H     -1.7826919     0.3670972    -2.0134329    
H     -0.8983362     2.6783929    -1.6720278    
H      0.6634399     2.0071801    -1.2031763    
H     -1.9808013     1.4394357     0.2520201    
H      0.8688854     0.4865145     0.8134170    
H     -1.2817724    -0.8246468     2.1918880    
H     -0.0380617     0.2504117     5.3376816    
H      0.0789667    -1.2930949     4.4846157    
H     -1.4722713    -0.4503011     4.5507291    
H     -1.5364347    -1.0793384    -0.2410051    
H     -0.3960670    -2.7005079     0.9413247    
H      2.0327371    -2.5771866     0.9762103    
H      1.4197299    -2.5925531    -1.4968487    
H     -0.5731346    -2.4608678    -2.3913961    
H      1.1604283    -5.0624661    -1.3909054    
H      0.1728955    -4.8938794     0.0811610    
H      2.4606467    -5.2681766     0.5317005    
H      0.2025442     2.4458633     1.8100249    
H     -2.6082405     5.0839106     0.5699694    
H     -2.4570878     3.5948660    -0.2845680    
H      0.0016141     4.4190947     2.8247946    
H     -1.1950465     5.5731219     2.3381395    
