71

F      4.0375645    -3.8613905     2.4217580    
F      4.2045654    -2.2482473     3.8238710    
F      3.2600250    -4.0897249     4.4184907    
O     -5.1328711    -3.2041075     4.6903129    
O     -1.3978315    -0.6924501     0.6955741    
N     -4.9216938    -3.1495221     6.0673302    
N     -3.1232962    -2.7550610     7.5083247    
N     -0.0410488    -2.3791509     2.8507394    
N      0.9106720    -3.0223264     3.5048962    
N      0.6771354     0.1142575     0.2506733    
C     -3.9548356    -3.0152156     4.0709292    
C     -2.9402886    -2.8187973     5.0235435    
C     -3.6480307    -2.9231674     6.2823372    
C     -3.6917906    -3.0152185     2.7073928    
C     -2.3874775    -2.7995230     2.3204515    
C     -1.3783115    -2.5698574     3.2647426    
C     -1.6316306    -2.5925699     4.6256810    
C      2.0661909    -2.6824298     2.9368059    
C      1.8558568    -1.7752582     1.8938091    
C      0.4774979    -1.5975396     1.8667867    
C      3.3634329    -3.2245753     3.4062942    
C     -0.1897250    -0.6977105     0.9095606    
C      0.1805217     0.9880279    -0.7512146    
C      0.5117046     2.3388340    -0.7346911    
C      0.0271577     3.1818959    -1.7164731    
C     -0.7885598     2.6963308    -2.7341269    
C     -1.1147274     1.3426941    -2.7439937    
C     -0.6335971     0.4945524    -1.7647030    
C     -1.3460755     3.6222342    -3.7419221    
C     -1.1156623     3.4818778    -5.1125753    
C     -0.1866015     2.4307058    -5.6665585    
N      1.1031672     3.0430346    -6.0524350    
C      2.0340716     2.1278680    -6.7499135    
C      1.9025914     3.5582682    -4.9231516    
C     -2.1445517     4.6725805    -3.2940661    
C     -2.7205086     5.5593382    -4.1843362    
C     -1.7010663     4.3800894    -5.9991880    
C     -2.5038198     5.4097265    -5.5446441    
C      3.2291319     3.9318694    -5.6067797    
C      3.3877512     2.8446991    -6.6911231    
O      3.1177848     5.1790497    -6.2578603    
C      2.0693575     0.2874403     0.6600731    
C      2.7460745    -1.0514145     0.9520390    
H     -2.1283835    -2.8557378     7.6109449    
H     -3.7064370    -2.9986068     8.2903808    
H     -4.4768473    -3.1870408     1.9923285    
H     -2.1414746    -2.8001057     1.2727213    
H     -0.8335739    -2.4419654     5.3324813    
H      1.1265808     2.7370026     0.0562511    
H      0.2779556     4.2312187    -1.6867897    
H     -1.7729918     0.9525607    -3.5054650    
H     -0.9016684    -0.5494610    -1.7737511    
H     -0.6294557     1.9768701    -6.5544000    
H      0.0149785     1.6562487    -4.9274672    
H      0.9252092     3.8462947    -6.6692671    
H      1.7020702     1.9352114    -7.7670781    
H      2.0642566     1.1885542    -6.1979001    
H      2.0480707     2.7621646    -4.1950222    
H      1.4103004     4.4061613    -4.4521716    
H     -2.3239841     4.7782137    -2.2349116    
H     -3.3420905     6.3621109    -3.8185822    
H     -1.5405910     4.2685202    -7.0609929    
H     -2.9584369     6.0937838    -6.2440865    
H      4.0625164     3.9298184    -4.9003148    
H      3.6262598     3.3388136    -7.6307500    
H      4.1944938     2.1580423    -6.4533593    
H      3.2915786     5.9049924    -5.6478748    
H      2.1098954     0.9084781     1.5629092    
H      2.5893538     0.7994202    -0.1485950    
H      2.8644225    -1.6397983     0.0386321    
H      3.7327479    -0.8875555     1.3835598    
