53

F     -2.1524793    -1.8945417     3.4709396    
C     -1.0639576    -1.1890270     3.0347674    
C      0.1373813    -1.3177831     3.7404186    
O      0.1242040    -2.1542497     4.8063609    
C      1.2702360    -2.2543731     5.6587808    
C      1.3708261    -1.0355226     6.5741185    
C      1.0860827    -3.5386889     6.4593848    
C      1.2195807    -0.5850733     3.2631955    
C      1.0913288     0.2204546     2.1440880    
C     -0.1095302     0.3407288     1.4636019    
C     -1.2006784    -0.3858739     1.9277792    
C     -0.2348125     1.1968170     0.2350678    
C     -0.1996447     0.3046944    -1.0120530    
C     -0.1732654     1.0456451    -2.3667630    
C      1.1916485     1.7084557    -2.5964291    
C     -1.3128887     2.0744372    -2.4874050    
C     -2.7066616     1.4685908    -2.2777829    
C     -1.4460551     2.7135328    -3.8735407    
C     -2.8251226     3.3699305    -3.8277632    
C     -3.6845281     2.4465628    -2.9481509    
O     -0.4231291     0.0516431    -3.3880947    
C      0.5483287    -0.7810673    -3.7805980    
O      0.2363455    -1.7168893    -4.5049175    
C      1.9084461    -0.5148288    -3.3657557    
C      2.2453426     0.6674931    -2.8160091    
O      3.5115199     0.9350630    -2.4993888    
H      2.1728301    -2.3435447     5.0391382    
H      2.2427719    -1.1284491     7.2137533    
H      0.4795596    -0.9730831     7.1938871    
H      1.4512904    -0.1191798     5.9947196    
H      1.9398577    -3.6915313     7.1114077    
H      0.9924151    -4.3867578     5.7865937    
H      0.1820371    -3.4715406     7.0581602    
H      2.1744313    -0.6396253     3.7586016    
H      1.9553396     0.7699024     1.8050674    
H     -2.1605995    -0.3329548     1.4395901    
H      0.5858269     1.9118252     0.2162420    
H     -1.1753553     1.7442262     0.2716578    
H     -1.0736338    -0.3475602    -1.0106125    
H      0.6801386    -0.3415947    -0.9611924    
H      1.4287233     2.3368056    -1.7390077    
H      1.1471773     2.3424260    -3.4857761    
H     -1.1367237     2.8626556    -1.7522351    
H     -2.9443908     1.3206428    -1.2265283    
H     -2.7398225     0.5000180    -2.7772449    
H     -1.4215260     1.9287597    -4.6309811    
H     -0.6673318     3.4419566    -4.0921010    
H     -3.2464098     3.4972759    -4.8232098    
H     -2.7442304     4.3556390    -3.3684875    
H     -4.2286763     3.0252017    -2.2025995    
H     -4.4181426     1.9054834    -3.5438354    
H      2.6401548    -1.2731974    -3.5836343    
H      3.6286989     1.8398694    -2.1614580    
