24

N     -1.9660116     0.6885063     0.6241340    
N     -0.5916836     0.8609627     0.7245924    
C      0.0187868     1.7590014     1.5558357    
S     -0.8646084     2.8154906     2.6031179    
N      1.3173364     1.6683774     1.4523086    
N      1.5824623     0.7084976     0.5404671    
C      0.4529807     0.2172466     0.1049912    
C      0.2534977    -0.8047337    -0.9198021    
C     -0.5077487    -0.4713682    -2.0387840    
C     -0.7475343    -1.4051949    -3.0293857    
C     -0.2279136    -2.6822127    -2.9031524    
C      0.5352318    -3.0115876    -1.7970444    
C      0.7937371    -2.0880980    -0.7918158    
C      1.5979079    -2.4812496     0.4073631    
H     -2.2801576    -0.0314249     1.2729646    
H     -2.2076550     0.4065857    -0.3216507    
H     -2.0420323     2.5083977     2.0503387    
H     -0.8813358     0.5373788    -2.1493964    
H     -1.3321986    -1.1340640    -3.8943960    
H     -0.4107448    -3.4190930    -3.6697280    
H      0.9441710    -4.0067265    -1.7070307    
H      2.1732361    -1.6365400     0.7761333    
H      2.2740425    -3.2946676     0.1613026    
H      0.9370602    -2.8206747     1.2059860    
