22

C      0.2243406    -1.6923087     0.1935840    
C      2.0689018    -0.4301978     1.0896313    
N     -1.4379733    -0.6078449    -1.1873681    
C     -0.2737236    -0.5430522    -0.4181900    
C      1.3878217    -1.6312681     0.9344228    
C      3.3499501    -0.3688544     1.9072591    
C      1.5659437     0.7118441     0.4791102    
C     -2.9562976     1.1794630     0.2824567    
C      0.4061379     0.6631391    -0.2703629    
O      3.7752251    -1.4440952     2.3903499    
O      3.8934057     0.7523430     2.0415050    
S     -2.4898665     0.6603527    -1.3672612    
O     -1.8392116     1.7496858    -2.0610177    
O     -3.6383770     0.0912888    -2.0424314    
H     -0.2950897    -2.6311534     0.0791218    
H     -1.9126005    -1.4971486    -1.1896711    
H      1.7973958    -2.5087839     1.4138498    
H      2.1115921     1.6358071     0.6063981    
H     -3.4946775     2.1127218     0.1880254    
H     -2.0450372     1.3122821     0.8507995    
H     -3.5834177     0.4035963     0.6978649    
H      0.0308292     1.5455744    -0.7638328    
