43

P      3.0138821    -0.4580017    -0.5990438    
O      2.4902845    -0.1858501    -2.0023136    
O      4.2080295     0.3796542    -0.2177946    
O      3.1203370    -1.9298655    -0.2805015    
P      1.4481590     1.5742856     0.6300562    
O      2.2265120     2.1777037     1.7467299    
O      1.3972717     2.3252301    -0.6560382    
O      1.7483930     0.0204285     0.4596403    
P     -0.6903962     0.3456954     2.1456180    
O     -2.0291479     0.8580570     2.5615842    
O      0.3156771     0.0087932     3.1827798    
O     -0.1234018     1.4462029     1.0888974    
N     -1.7801086     1.8316592    -1.5721950    
C     -2.2144479     2.4098062    -0.4129461    
N     -1.8795859     3.6578274    -0.2805047    
C     -1.1154308     3.9310228    -1.3929839    
C     -0.4135524     5.0655314    -1.8258137    
N     -0.4223233     6.2475267    -1.1660464    
N      0.2144683     5.0046295    -3.0113170    
C      0.1408265     3.8841015    -3.7100772    
N     -0.4699040     2.7502340    -3.4143693    
C     -1.0491249     2.7922982    -2.2129333    
O     -0.9117539    -0.9879494     1.2243073    
C     -2.2157221    -1.3962917     0.8173566    
C     -2.3965627    -1.4311384    -0.7087929    
O     -2.8848446    -0.2009224    -1.2506411    
C     -1.0968802    -1.7436311    -1.4519194    
O     -1.3519334    -2.5450343    -2.5671997    
C     -0.6042319    -0.3454656    -1.8878088    
O      0.0855466    -0.4198490    -3.1001838    
C     -1.9118328     0.4642591    -2.0048610    
H     -2.8003382     1.8655207     0.3007311    
H      0.3073389     6.8899991    -1.4370828    
H     -0.6552503     6.1820858    -0.1877940    
H      0.6375619     3.8995672    -4.6703389    
H     -2.9448606    -0.7152708     1.2693815    
H     -2.3376551    -2.4083410     1.2135446    
H     -3.1609869    -2.1782784    -0.9512779    
H     -0.3464709    -2.2037524    -0.7922130    
H     -0.7697083    -2.2228764    -3.2841410    
H      0.0161618     0.0897151    -1.0991609    
H      1.0459333    -0.3434718    -2.8848108    
H     -2.2093679     0.4941862    -3.0669470    
