165

N      2.4176031     3.5557529     5.1994454    
C      1.4370900     4.2247471     4.3166524    
C      1.0563624     3.1753024     3.2553976    
O      1.7617613     2.1794890     3.1289402    
C      2.0335652     5.4508944     3.5961234    
C      1.2040389     6.7081396     3.8223206    
S     -0.4804918     6.6045244     3.0978278    
C     -0.1022244     6.9716860     1.3592062    
N     -0.0255403     3.4571462     2.5434892    
C     -0.3094815     2.7517058     1.3124737    
C      0.8434521     3.0269213     0.3346647    
O      1.3244118     4.1546820     0.2417659    
C     -1.6157361     3.2724240     0.7066799    
O     -1.8362034     2.6064225    -0.5157177    
N      1.2772988     1.9721704    -0.3433755    
C      2.3639719     2.0604925    -1.3009074    
C      1.8270874     1.5134660    -2.6192544    
O      1.8376234     0.2978660    -2.8612334    
C      3.5882341     1.2601854    -0.8427013    
C      4.1398527     1.6919170     0.5205242    
C      5.2758133     0.7467598     0.9120873    
C      4.6375424     3.1360334     0.4961220    
N      1.3208941     2.3751882    -3.4885524    
C      0.7531688     1.8933327    -4.7448484    
C      1.6875427     0.8680743    -5.3775105    
O      2.8858323     1.1034311    -5.5129548    
C      0.6318710     3.1640269    -5.5902418    
C      0.3481604     4.2374666    -4.5410145    
C      1.2336630     3.8229818    -3.3665936    
N      1.1132150    -0.2592265    -5.8059933    
C      1.8479157    -1.2938293    -6.4918950    
C      2.5187533    -2.3479687    -5.6005867    
O      2.9334335    -3.3912042    -6.0953747    
N      2.6538663    -2.0139564    -4.3165060    
C      3.4331614    -2.7768963    -3.3643967    
C      2.6034230    -3.2071546    -2.1508349    
O      2.5549662    -4.3794891    -1.7908982    
C      4.6254074    -1.9278437    -2.8979169    
C      5.6580497    -1.7403390    -4.0145733    
C      6.4042341    -0.4169376    -3.8744897    
N      5.4978158     0.6814111    -4.1565806    
C      5.7934517     1.9711739    -4.0465174    
N      6.9563034     2.3731072    -3.5414659    
N      4.8592309     2.8629719    -4.3724678    
N      1.9980427    -2.2116249    -1.4930588    
C      1.2314091    -2.4558547    -0.2871668    
C     -0.1128170    -1.7367129    -0.3814074    
O     -0.2144326    -0.5188388    -0.2878529    
C      1.9901054    -1.9831520     0.9651536    
C      1.1401362    -2.0342229     2.1936782    
C      0.9901599    -1.0102204     3.0849218    
C      0.3539780    -3.1222356     2.6895822    
N      0.1631081    -1.3859781     4.1066300    
C     -0.2463530    -2.6669925     3.8927696    
C      0.0957698    -4.4269577     2.2642469    
C     -1.0987994    -3.4696381     4.6416269    
C     -0.7531977    -5.2154698     3.0075696    
C     -1.3498603    -4.7436294     4.1802342    
N     -1.1503200    -2.5438357    -0.6081656    
C     -2.5341617    -2.1050722    -0.7155248    
C     -3.1741870    -2.4912466     0.6253686    
O     -3.4990951    -3.6699304     0.8210719    
C     -3.1863428    -2.8108512    -1.9096692    
C     -4.4066923    -2.0754327    -2.4630879    
C     -5.6646238    -2.1586632    -1.5975452    
C     -6.2496819    -3.5722400    -1.5164563    
N     -5.9958936    -4.1778300    -0.1908658    
N     -3.2546246    -1.5705371     1.5760146    
C     -3.7671212    -1.9231979     2.8911982    
C     -5.2466766    -2.3080072     2.8329223    
O     -5.8970205    -2.2476923     1.7915000    
C     -3.5719979    -0.6660314     3.7554349    
C     -2.6440258     0.2243702     2.9295755    
C     -2.9878490    -0.1450926     1.4915142    
N     -5.7308200    -2.7926373     3.9817856    
C     -7.1522664    -2.8041826     4.2481688    
C     -7.6534854    -1.3226726     4.4912369    
O     -6.8102396    -0.4238824     4.3199364    
C     -7.4839980    -3.6983175     5.4296747    
O     -8.8454550    -1.1939822     4.8128627    
H      1.9923092     3.2178045     6.0683610    
H      3.2207523     4.1477465     5.4324683    
H      2.7359180     2.7241759     4.6468134    
H      0.5486661     4.5298941     4.8721330    
H      2.1107714     5.2595921     2.5238537    
H      3.0417577     5.6522864     3.9581669    
H      1.6823568     7.5802655     3.3811133    
H      1.0401789     6.8940941     4.8821633    
H     -1.0567491     7.0468753     0.8477036    
H      0.4997036     6.1766401     0.9268843    
H      0.4119128     7.9266017     1.3060794    
H     -0.4661465     4.3666416     2.6872911    
H     -0.3825402     1.6768242     1.4973649    
H     -1.5206705     4.3550873     0.5440841    
H     -2.4367509     3.0897458     1.4100010    
H     -2.6865105     2.8916919    -0.8730485    
H      0.8026948     1.0755661    -0.2512573    
H      2.6241239     3.1157604    -1.3960748    
H      4.3661445     1.3783411    -1.5984518    
H      3.3160402     0.2059878    -0.7914831    
H      3.3435208     1.6083262     1.2669189    
H      5.6724130     1.0061858     1.8898060    
H      6.0877542     0.8092670     0.1919285    
H      4.9300618    -0.2833272     0.9520443    
H      3.8113389     3.8319176     0.3753646    
H      5.3436143     3.2816900    -0.3169707    
H      5.1444396     3.3720799     1.4277456    
H     -0.2271200     1.4455456    -4.5504278    
H     -0.1524033     3.0850173    -6.3377097    
H      1.5787179     3.3599360    -6.0944124    
H     -0.7021500     4.2070077    -4.2551409    
H      0.5799013     5.2370421    -4.8979299    
H      2.2305090     4.2610141    -3.4600721    
H      0.8031683     4.1093081    -2.4070383    
H      0.1376306    -0.4313894    -5.6189984    
H      2.6581543    -0.8263301    -7.0627271    
H      1.1985253    -1.8149030    -7.1953905    
H      2.2986545    -1.1219295    -3.9840100    
H      3.7714416    -3.6894302    -3.8666077    
H      5.0854694    -2.4066218    -2.0338476    
H      4.2365906    -0.9570170    -2.5922379    
H      5.1604645    -1.7682913    -4.9861667    
H      6.3732884    -2.5621200    -4.0012106    
H      7.2472853    -0.4053017    -4.5737012    
H      6.7848350    -0.3287552    -2.8528430    
H      4.6338895     0.4534505    -4.6363843    
H      7.1739474     3.3525075    -3.4767069    
H      7.6796098     1.7115002    -3.3217615    
H      4.0324682     2.5196715    -4.8484254    
H      5.0855970     3.8408340    -4.4290514    
H      2.0001844    -1.2620162    -1.8642958    
H      1.0787836    -3.5366949    -0.2346786    
H      2.3147954    -0.9522504     0.8226586    
H      2.8711147    -2.6195589     1.0831560    
H      1.4165756    -0.0265002     3.0521568    
H     -0.0677437    -0.8319013     4.9138698    
H      0.5664664    -4.8333314     1.3810057    
H     -1.5445084    -3.1113795     5.5583373    
H     -0.9623280    -6.2260562     2.6873360    
H     -2.0096859    -5.3959760     4.7338303    
H     -1.0122458    -3.5438535    -0.6034890    
H     -2.5262968    -1.0263323    -0.8697949    
H     -3.4378635    -3.8319398    -1.6226827    
H     -2.4364697    -2.8668256    -2.7004041    
H     -4.6397936    -2.4888757    -3.4457343    
H     -4.1493707    -1.0255786    -2.6056656    
H     -6.4076760    -1.4875144    -2.0272958    
H     -5.4613450    -1.8003499    -0.5878036    
H     -5.8131172    -4.2082787    -2.2871796    
H     -7.3277275    -3.5390132    -1.6702223    
H     -6.4248883    -5.1015524    -0.1060640    
H     -6.3593050    -3.5523213     0.5492475    
H     -4.9782977    -4.2391251     0.0240470    
H     -3.2079741    -2.7896739     3.2654049    
H     -3.1538975    -0.9162834     4.7273405    
H     -4.5410034    -0.1866239     3.9157953    
H     -1.6051054    -0.0323049     3.1266678    
H     -2.8095161     1.2772142     3.1373806    
H     -3.9003035     0.3672577     1.1694279    
H     -2.1698601     0.0705297     0.8066238    
H     -5.1590813    -2.6809834     4.8073443    
H     -7.6723307    -3.1473554     3.3485289    
H     -8.5467454    -3.6095180     5.6406333    
H     -6.9367513    -3.3743452     6.3131472    
H     -7.2420703    -4.7357163     5.2136735    
