49

O     -2.3874787     1.6649632     0.6340026    
C     -1.5626361     1.4590109    -0.2505413    
C     -1.9149310     0.5443224    -1.4308759    
O     -0.9466293     0.6092596    -2.4682827    
C     -3.2137369     1.0123865    -2.1273655    
C     -3.9883874    -0.1760677    -2.7114134    
N     -3.0719076    -0.9686006    -3.5108171    
C     -3.1148827    -2.3105105    -3.6754566    
O     -2.3543629    -2.9150706    -4.4385153    
N     -4.1037944    -3.0031773    -3.0219176    
O     -3.9527324    -4.4052826    -3.0833023    
C     -2.1988174    -0.2054908    -4.3886883    
O     -2.6987993     1.8074973    -3.1800313    
C     -1.6432878     1.0085812    -3.6344073    
N     -0.3413390     1.9785883    -0.2978495    
C      0.2164667     2.8156172     0.7499173    
C      1.2119536     2.0461381     1.5794598    
C      0.7644177     1.1658717     2.5573367    
C      1.6624079     0.4378470     3.3128385    
C      3.0350064     0.5731078     3.1112208    
C      3.4783699     1.4499436     2.1241982    
C      2.5776059     2.1744083     1.3662963    
C      3.9914630    -0.1863727     3.9305421    
C      5.1586509     0.4160107     4.3973833    
C      6.0507645    -0.2911111     5.1822463    
C      3.7457837    -1.5161388     4.2646406    
C      4.6415975    -2.2233938     5.0453869    
C      5.7952717    -1.6128105     5.5093120    
H     -2.0010948    -0.4801983    -1.0549124    
H     -3.8390120     1.6328056    -1.4862798    
H     -4.8025221     0.2097959    -3.3359771    
H     -4.4053769    -0.7627854    -1.8958517    
H     -4.4106292    -2.7587570    -2.0913003    
H     -3.2772323    -4.5509584    -3.7822995    
H     -2.7533817     0.1550907    -5.2614668    
H     -1.3898219    -0.8606316    -4.7124353    
H     -0.9799328     1.5990453    -4.2674598    
H      0.2584930     1.6950484    -1.0620076    
H     -0.6230100     3.1384680     1.3708144    
H      0.6889396     3.6848680     0.2886028    
H     -0.2982201     1.0580891     2.7245896    
H      1.2991583    -0.2234345     4.0850056    
H      4.5369615     1.5505123     1.9387081    
H      2.9402462     2.8478081     0.6063157    
H      5.3548189     1.4508741     4.1604400    
H      6.9464534     0.1916718     5.5453257    
H      2.8560379    -2.0030766     3.8929294    
H      4.4389409    -3.2556982     5.2936609    
H      6.4912020    -2.1647165     6.1228712    
