56

C      0.1447252    -3.1306412    -0.9208861    
C      2.8631794    -1.0897317    -1.3171288    
C      2.0082911    -1.6927312    -0.4055471    
C      2.5118410    -2.1647200     0.8019901    
C      3.8667245    -2.0867611     1.0749914    
C      4.7165270    -1.5170244     0.1423495    
C      4.2157652    -1.0038331    -1.0427611    
C     -1.2598299    -3.1785908    -1.2672117    
N      0.6304543    -1.8616585    -0.7223908    
Cl     1.4243475    -2.8465024     1.9716574    
C     -1.9936995    -2.0506449    -1.3457383    
C     -1.3581190    -0.7955729    -1.0669921    
N     -0.0817437    -0.7308068    -0.7865242    
O      0.8818684    -4.1194309    -0.8361098    
N     -2.0538076     0.3728884    -1.1801220    
C     -1.3409213     1.6190684    -0.9553946    
C     -3.4476858     0.4008189    -0.9682092    
C     -4.2510952     1.1111680    -1.8594394    
C     -5.6189188     1.1984658    -1.6820984    
C     -6.1797070     0.5617855    -0.5891437    
C     -5.4230252    -0.1503612     0.3234589    
C     -4.0535373    -0.2202392     0.1309563    
Cl    -3.0908219    -1.0850331     1.3026710    
F     -7.5204607     0.6350850    -0.3966176    
C     -1.2289082     1.9243997     0.5409962    
C     -0.2625049     3.0706673     0.8236014    
N      1.1189813     2.6742439     0.6361888    
C      1.8798008     3.0239837    -0.4697989    
C      3.2394279     2.5091429    -0.2029848    
C      3.2151227     1.8534975     1.0353971    
C      1.8359064     1.9332164     1.5625404    
C      4.4108798     2.6405228    -0.9199262    
C      5.5732549     2.1128370    -0.3586991    
C      5.5510242     1.4746243     0.8720461    
C      4.3639511     1.3270120     1.5882726    
O      1.4591054     3.6502494    -1.4199150    
O      1.3776654     1.4880607     2.5954333    
H      2.4553992    -0.7112378    -2.2410641    
H      4.2412593    -2.4741979     2.0081326    
H      5.7738654    -1.4772205     0.3468383    
H      4.8781413    -0.5489398    -1.7609659    
H     -1.6678788    -4.1569311    -1.4671905    
H     -3.0355573    -2.0706963    -1.6260902    
H     -1.8753786     2.4223680    -1.4627220    
H     -0.3487521     1.5107413    -1.3942768    
H     -3.7863218     1.5887003    -2.7071613    
H     -6.2433428     1.7410580    -2.3726846    
H     -5.8932714    -0.6243765     1.1695773    
H     -0.8747235     1.0340708     1.0652841    
H     -2.2123392     2.1845506     0.9346714    
H     -0.3728454     3.3942219     1.8621040    
H     -0.4476975     3.9098355     0.1479380    
H      4.4204427     3.1497876    -1.8712623    
H      6.5081061     2.2140166    -0.8881195    
H      6.4692700     1.0914556     1.2899178    
H      4.3368205     0.8340423     2.5478752    
