82

N     -4.0094267     1.7419986    -1.3895529    
N     -3.8856881    -0.1285143    -0.0498789    
C     -2.7517807     1.8905106     0.6449087    
C     -1.6695458     4.1045417     1.2178177    
C     -0.3807609     4.4975990     0.4938446    
C     -2.8556022     0.5784167     2.7825720    
C     -2.2270246    -0.2290336     3.7132716    
C     -0.0989403     0.1908820     2.6490262    
C      1.5154268    -2.7299645     5.1461652    
C      1.8386513    -1.0600147     3.3001941    
C      2.2108954     2.2589696     2.4524237    
C     -4.4044380    -0.9632083    -1.1088140    
C     -3.2871003    -1.6639704    -1.8962483    
C      0.4042743    -3.0188110     2.8917527    
C      2.6593917    -4.2706550    -1.6591045    
C      2.2653527    -2.8621235    -3.6174293    
C      3.9090544    -4.6297546    -3.6825681    
O     -1.1332870    -1.1489963    -0.0690234    
S     -0.9340910    -0.5381187    -1.3719633    
O     -0.5768137     0.8674339    -1.3799150    
C      0.3247291    -1.4535437    -2.2254414    
C      0.9661304    -2.4756831    -1.5918669    
C      1.9619501    -3.2086620    -2.2717619    
C      0.6214621    -1.0913928    -3.5453114    
C      1.5765980    -1.7898577    -4.2290170    
C      3.2529133    -3.6014116    -4.3018276    
C      3.6124942    -4.9654066    -2.3513949    
N     -2.2656392    -0.7319948    -2.3397277    
C     -3.5373703     1.1662686    -0.2847004    
C     -2.5148220     3.2240782     0.3415535    
N     -3.0333560     3.8070258    -0.7405842    
C     -3.7398108     3.0404410    -1.5679617    
N     -4.1955222     3.6068350    -2.7046773    
C     -2.1188130     1.1748603     1.7648760    
C     -0.7386251     1.0052233     1.7315238    
N      1.2901007    -0.0241940     2.6305004    
C      2.1539699     0.8528789     1.8591300    
C      3.0510840     3.1846961     1.5810210    
O      2.9826807     4.4900698     2.1152076    
C      3.7216088     5.4319157     1.3661010    
O      3.0471173    -1.2660113     3.3204381    
C      0.8524030    -2.0188916     3.9709778    
O     -0.2733677    -1.3217968     4.5043703    
C     -0.8627485    -0.4562880     3.6271245    
H     -3.3185932    -0.5986825     0.6435159    
H     -2.2325732     5.0085948     1.4529760    
H     -1.4402043     3.5794897     2.1459141    
H      0.3012765     4.9978507     1.1771128    
H     -0.6118242     5.1578374    -0.3362282    
H      0.1090541     3.6122053     0.0908933    
H     -3.9221814     0.7307631     2.8318932    
H     -2.7813516    -0.7184040     4.4971914    
H      0.8507933    -3.4964244     5.5310950    
H      1.7218585    -2.0098478     5.9334474    
H      2.4506122    -3.1726034     4.8189633    
H      2.6402058     2.2215359     3.4543859    
H      1.2066571     2.6769852     2.5310551    
H     -4.9724610    -0.3108344    -1.7726580    
H     -5.0634720    -1.7122715    -0.6675447    
H     -3.7040057    -2.1656227    -2.7715694    
H     -2.7772823    -2.3942818    -1.2652011    
H     -0.0803880    -2.4956072     2.0656966    
H     -0.3014181    -3.7238455     3.3237168    
H      1.2717702    -3.5553505     2.5176073    
H      2.4245408    -4.5183987    -0.6350469    
H      4.6632410    -5.1903306    -4.2126362    
H      0.7050287    -2.7147879    -0.5723682    
H      0.0880191    -0.2639298    -3.9815652    
H      1.8180763    -1.5312349    -5.2480414    
H      3.4810162    -3.3389099    -5.3232019    
H      4.1441796    -5.7760585    -1.8776194    
H     -2.6466649     0.1586077    -2.6299682    
H     -4.8888593     3.1055965    -3.2315983    
H     -4.1493573     4.6088307    -2.7654299    
H     -0.1937410     1.4660635     0.9257910    
H      3.1460345     0.3956654     1.8766016    
H      1.7988166     0.8813165     0.8242644    
H      2.6658703     3.1846719     0.5492848    
H      4.0969683     2.8437184     1.5554881    
H      3.6039235     6.3839935     1.8766149    
H      3.3352498     5.5049919     0.3437564    
H      4.7809765     5.1566055     1.3299807    
