80

N     -0.3794399     0.9604277    -0.4073869    
C     -1.5239284     2.2965146     1.2258715    
C     -2.5311139     2.7482305     0.3787730    
C     -4.2913817     4.4098602    -0.2231135    
C     -1.7805371     4.7485202     4.1033388    
C     -0.6885728     1.1066640     0.8970060    
C     -5.7599669     2.4769549     0.1912097    
C     -6.9169404     2.8232052     1.1373643    
C      0.2656336    -0.2268226    -0.9241170    
C     -0.7067461    -1.0160529    -1.8219509    
C      5.0600033    -0.2443407     0.4726737    
C      4.8144409    -0.1760810     1.8375052    
C      4.8743559    -1.3200394     2.6150892    
C      5.4102612    -2.6073041     0.6792196    
C     -3.2875192    -2.1127430     0.7008768    
C     -2.0213420    -1.2372941    -1.1288659    
C     -3.2884930     3.8552075     0.7408365    
C     -3.0237193     4.5192028     1.9316813    
C     -2.0446108     4.0588455     2.8027438    
C     -1.3051290     2.9403451     2.4380705    
O     -4.1067688     5.5254325    -0.7182784    
N     -5.3198544     3.6235445    -0.5777704    
C     -6.1817117     4.0731123    -1.6620886    
C     -5.4824878     3.9249791    -3.0168609    
C     -5.0663312     2.4864705    -3.2983312    
C     -6.5143158     3.8447171     2.1928454    
O     -0.2703103     0.3422311     1.7602633    
C      1.5511976     0.1643751    -1.6857242    
C      2.5338546     0.8512606    -0.7213541    
N      3.8680352     0.8924647    -1.3556720    
C      4.9909488     0.9876840    -0.3930177    
C      5.1704339    -2.5450790     2.0405461    
C      5.3606666    -1.4723211    -0.1086712    
I      5.8691356    -4.4910928    -0.2352318    
C     -2.0734131    -1.9440193     0.0685883    
C     -3.1967030    -0.7282769    -1.6679573    
C     -4.3917163    -0.9386336    -1.0078303    
C     -4.4744975    -1.6203942     0.1899862    
F     -3.3275625    -2.7994902     1.8713054    
F     -5.5340150    -0.4504878    -1.5546858    
O      2.2457251    -0.9551328    -2.1885643    
H     -0.7788762     1.6016995    -1.0759231    
H     -2.7556790     2.2358574    -0.5450846    
H     -2.4864030     5.5585887     4.2643374    
H     -0.7724523     5.1582756     4.1145445    
H     -1.8614243     4.0425292     4.9274075    
H     -6.0840661     1.7031388    -0.5070400    
H     -4.9242586     2.0980353     0.7800211    
H     -7.2383515     1.9015567     1.6237889    
H     -7.7605219     3.2104653     0.5637331    
H      0.5359179    -0.8314185    -0.0526913    
H     -0.2672656    -1.9879939    -2.0471716    
H     -0.8766686    -0.4727740    -2.7517528    
H      4.5792708     0.7684560     2.3012887    
H      4.6858228    -1.2664039     3.6753203    
H     -3.6020162     5.3976319     2.1801232    
H     -0.5384227     2.5559151     3.0945071    
H     -6.4345056     5.1262577    -1.5039954    
H     -7.0933791     3.4776171    -1.6449495    
H     -4.6050799     4.5745451    -3.0244545    
H     -6.1650641     4.2740603    -3.7921994    
H     -4.5776800     2.4206862    -4.2666791    
H     -5.9309984     1.8267476    -3.3020652    
H     -4.3760594     2.1417577    -2.5328593    
H     -7.3562212     4.0695729     2.8419304    
H     -6.1911665     4.7724446     1.7239207    
H     -5.6985424     3.4648904     2.8041970    
H      1.2802768     0.8447209    -2.5058198    
H      2.6044915     0.2462064     0.1842749    
H      2.1919969     1.8488974    -0.4546732    
H      3.9213436     1.6654271    -2.0279843    
H      3.9285407     0.0028030    -1.8856018    
H      5.9222935     1.0911027    -0.9523615    
H      4.8502554     1.8718225     0.2294569    
H      5.2144845    -3.4341641     2.6496028    
H      5.5691031    -1.5509022    -1.1646885    
H     -1.1883025    -2.3612960     0.5195185    
H     -3.2026298    -0.1900490    -2.6023889    
H     -5.4125252    -1.7709594     0.6957050    
H      1.7491667    -1.3855340    -2.8936643    
