61

C     -0.4088393    -2.2722137    -0.5368725    
C      5.1010239     1.2228227    -0.7697494    
C      3.3124889    -0.0830888    -1.2462894    
C      2.4951586     0.7941684    -0.5390590    
C      3.1175022     1.8603073     0.1046944    
C     -1.4402976     1.7376896     2.1898193    
C     -1.2669522     2.8799280     1.4184613    
C      0.0149427     3.1984154     0.9864859    
C      1.1050193     2.4040240     1.3104370    
C     -0.3635135     0.9407020     2.5373103    
C      3.5430701     3.5302493     2.7797570    
C      3.0599505     3.8795994     1.4630228    
C      0.9072499     1.2754652     2.1072238    
C      1.5590424    -1.7145541    -1.8011440    
N      4.4393364     2.0871608    -0.0259875    
N      4.6390714     0.1508956    -1.3716498    
N      2.3911044     2.7580801     0.8295228    
N      3.8971289     3.2228253     3.8241250    
N      2.8523407    -1.1842937    -1.8863285    
C      0.8761911    -1.7807151    -0.5863884    
C     -1.0403995    -2.7280075    -1.6941747    
C     -0.3434134    -2.7200735    -2.8956138    
C      0.9460581    -2.2185040    -2.9426741    
O     -2.3258635    -3.1565568    -1.5352559    
C     -3.0766228    -3.5145183    -2.6814227    
C     -4.5083418    -3.7871402    -2.1929173    
C     -5.0617394    -2.5253376    -1.5139371    
N     -6.5115693    -2.6560531    -1.2638639    
C     -7.1299129    -1.3407028    -1.0458996    
C     -6.8086043    -3.5559945    -0.1399736    
O     -5.3900045    -4.0798120    -3.2530430    
Cl     2.2815256     0.2931236     2.5803720    
C     -2.4235009     3.7474898     1.0352500    
H     -0.9405255    -2.3166319     0.3992301    
H      6.1608686     1.4178061    -0.8865723    
H      1.4293074     0.6639403    -0.4936408    
H     -2.4255465     1.4680340     2.5340423    
H      0.1748824     4.0717706     0.3727353    
H     -0.4981409     0.0663042     3.1520601    
H      3.9170109     4.1591353     0.8431176    
H      2.3629356     4.7179302     1.5526054    
H      3.5046600    -1.6142584    -2.5259874    
H      1.3603677    -1.4572919     0.3211346    
H     -0.7846136    -3.0952999    -3.8042019    
H      1.4790562    -2.2094887    -3.8809792    
H     -2.6577583    -4.4138341    -3.1505362    
H     -3.0784235    -2.6988048    -3.4152237    
H     -4.4622009    -4.6218291    -1.4805235    
H     -4.9051053    -1.6860342    -2.1930989    
H     -4.5272175    -2.3390054    -0.5841815    
H     -6.8952015    -3.0728572    -2.1255122    
H     -8.1971180    -1.4527522    -0.8760185    
H     -6.9795593    -0.7015812    -1.9107581    
H     -6.6823953    -0.8705348    -0.1741863    
H     -6.4085513    -4.5479153    -0.3253764    
H     -7.8843310    -3.6365359    -0.0053874    
H     -6.3666022    -3.1593924     0.7709261    
H     -5.1012014    -4.8583603    -3.7427021    
H     -3.3333599     3.4206139     1.5273812    
H     -2.5722939     3.7147127    -0.0421396    
H     -2.2271025     4.7811556     1.3102383    
