26

O     -0.0605190    -1.5636417     1.4610881    
C     -0.7920987    -0.3583460     1.3366347    
C     -1.2543340    -0.2221506    -0.1223664    
C     -2.1170737    -1.4247094    -0.5451846    
O     -1.3774490    -2.5981602    -0.7803876    
C     -0.0345077    -0.0574699    -1.0420208    
O     -0.3972352     0.1489584    -2.3927675    
C      0.7838396     1.1684666    -0.6215534    
O      1.9396868     1.3078216    -1.4190995    
C      1.2407999     1.0373273     0.8345110    
O      1.9555900     2.1797473     1.2472536    
C      0.0341729     0.8604088     1.7518296    
H      0.2270472    -1.6695536     2.3782586    
H     -1.6880513    -0.4120238     1.9753523    
H     -1.8725446     0.6758036    -0.2039324    
H     -2.6336424    -1.2026856    -1.4813833    
H     -2.8772732    -1.6012688     0.2287400    
H     -0.8321474    -2.7631641     0.0071658    
H      0.6049984    -0.9462059    -0.9563972    
H     -0.7345648    -0.6802048    -2.7568562    
H      0.1529428     2.0656794    -0.7271422    
H      1.6690355     1.2488675    -2.3475741    
H      1.8924727     0.1514766     0.8987402    
H      2.6182544     2.3766137     0.5688543    
H      0.3899793     0.7563031     2.7775017    
H     -0.5806791     1.7586298     1.6984859    
