157

N     -11.7534182     0.9992776    -0.2432046    
C     -12.7723851     0.7379291     0.7997534    
C     -12.0917887    -0.0589397     1.9349629    
O     -12.4792783    -1.1770099     2.2283359    
C     -13.9425357    -0.0659283     0.2384177    
C     -14.9842353    -0.2322042     1.3415790    
O     -15.4095052     0.7334184     1.9663985    
N     -15.4425990    -1.4732917     1.5222310    
N     -11.1235048     0.6324331     2.5665793    
C     -9.9071247    -0.0039593     3.0439685    
C     -9.1784653    -0.4789786     1.7799551    
O     -9.7998165    -0.8140576     0.7768052    
C     -10.1142327    -1.1191489     4.0967483    
C     -9.0967929    -0.9443501     5.2316224    
C     -10.0330351    -2.5183765     3.4900988    
C     -9.3656799    -1.8538882     6.4260740    
N     -7.8454760    -0.5689794     1.8909937    
C     -7.0059815    -0.6185741     0.7161988    
C     -6.8723950     0.8163340     0.1164253    
C     -6.1559642     0.8171468    -1.2290911    
O     -8.1611227     1.3477457    -0.0139583    
P     -8.5078878     2.6619376     1.0022905    
O     -7.9896785     2.3068909     2.3826198    
O     -7.8479726     3.8648480     0.3709583    
O     -10.0407787     2.6708967     0.9127906    
C     -5.6355337    -1.1242756     1.1311163    
O     -5.1715755    -0.8842560     2.2400312    
N     -4.9974946    -1.8908404     0.2321282    
C     -3.5977811    -2.2125663     0.4621621    
C     -2.8112799    -0.8999035     0.5589008    
O     -3.1202649     0.0684317    -0.1428533    
C     -3.0496545    -3.0695636    -0.6748101    
C     -3.6648533    -4.4666986    -0.6893360    
C     -3.3702360    -5.1918012    -1.9948004    
O     -3.0117769    -4.6152614    -3.0151474    
N     -3.5445905    -6.5178898    -1.9453692    
N     -1.8010421    -0.8543865     1.4203885    
C     -1.0367611     0.3724446     1.5674336    
C     -0.1103102     0.5561928     0.3649629    
O      0.3602034    -0.3930737    -0.2514655    
C     -0.2050331     0.1438295     2.8341178    
C      0.0086655    -1.3676354     2.8170483    
C     -1.3289004    -1.9038631     2.3099311    
N      0.2008866     1.8255608     0.0927752    
C      1.1972221     2.1543861    -0.9046679    
C      2.4249715     1.2771674    -0.6369425    
O      2.8860769     1.1752047     0.4935455    
C      1.6026469     3.6311279    -0.7568673    
O      0.4063359     4.3803596    -0.6538263    
C      2.4576326     4.0777673    -1.9376646    
N      2.9387397     0.6637157    -1.7029451    
C      4.1763146    -0.0806645    -1.6486332    
C      5.3167424     0.8333692    -2.1170580    
O      5.0974587     1.9136258    -2.6518311    
C      4.0640905    -1.3413375    -2.5067374    
C      3.0322500    -2.3122074    -1.9336387    
C      2.5295100    -3.2803923    -2.9908037    
O      2.5525472    -3.0297910    -4.1911747    
N      2.0570846    -4.4387604    -2.5131652    
N      6.5423583     0.3594637    -1.8894908    
C      7.7535817     1.0600532    -2.2524813    
C      8.8411065     0.0035733    -2.4444746    
O      8.7800763    -1.0647982    -1.8473315    
C      8.1950501     1.9994870    -1.1072291    
C      9.1972389     3.0647326    -1.5553053    
C      9.7040520     3.8049222    -0.3287992    
O      9.0666707     4.6999817     0.2202162    
N      10.8907852     3.3843441     0.1137736    
N      9.8362728     0.3401139    -3.2703968    
C      11.0747431    -0.4035298    -3.3110510    
C      12.0605286     0.1854662    -2.2853077    
O      11.9424260     1.3428211    -1.8919039    
C      11.6976349    -0.3525657    -4.7085174    
O      10.8665064    -1.0556473    -5.5986566    
N      13.0149259    -0.6468630    -1.8967354    
C      14.1248494    -0.2986858    -1.0476447    
C      15.3793847    -1.0702429    -1.6044514    
O      15.1232262    -2.0270708    -2.3593328    
C      13.8554532    -0.7331973     0.4051644    
O      12.5577661    -0.2829911     0.7516062    
C      14.9176921    -0.1741414     1.3462653    
O      16.4976336    -0.6756643    -1.2441447    
H     -12.1745501     1.3293489    -1.1147319    
H     -11.1887524     0.1520967    -0.4013543    
H     -11.0441941     1.7240808     0.0957764    
H     -13.1335811     1.6874334     1.2055689    
H     -13.5965106    -1.0386901    -0.1032768    
H     -14.4115411     0.4827564    -0.5781871    
H     -16.0658545    -1.6366670     2.2979891    
H     -14.9370122    -2.2578453     1.1467713    
H     -10.8836598     1.5377832     2.1548767    
H     -9.3010041     0.8024318     3.4675166    
H     -11.1202223    -0.9739570     4.5016677    
H     -9.1247634     0.0966794     5.5648498    
H     -8.0932147    -1.1319730     4.8403788    
H     -10.7223800    -2.5984487     2.6548500    
H     -10.3072861    -3.2604906     4.2329728    
H     -9.0242658    -2.7203428     3.1358704    
H     -8.6869189    -1.6029488     7.2366742    
H     -9.2146491    -2.8959096     6.1635885    
H     -10.3867077    -1.7212079     6.7739494    
H     -7.4119252    -0.0822708     2.6661891    
H     -7.4989775    -1.2608973    -0.0189629    
H     -6.3125064     1.4354376     0.8379122    
H     -6.2163523     1.8239130    -1.6358292    
H     -6.6485690     0.1328448    -1.9148799    
H     -5.1086195     0.5592240    -1.0937726    
H     -5.3084575    -1.8651252    -0.7287765    
H     -3.5489129    -2.7352310     1.4209455    
H     -1.9655935    -3.1345551    -0.5783954    
H     -3.2486592    -2.5702079    -1.6257863    
H     -4.7494432    -4.3836713    -0.5968762    
H     -3.2934641    -5.0535719     0.1495511    
H     -3.4090232    -7.0586929    -2.7843611    
H     -3.8790026    -6.9720107    -1.1133205    
H     -1.7225662     1.2222558     1.6332938    
H     -0.7813530     0.4471685     3.7070977    
H      0.7308623     0.6984385     2.8015473    
H      0.2693954    -1.7646659     3.7933954    
H      0.7964985    -1.6058242     2.1029519    
H     -1.2129845    -2.8433374     1.7717856    
H     -2.0441925    -2.0268049     3.1297584    
H     -0.2693533     2.6007819     0.5352597    
H      0.7925451     1.9721456    -1.9071455    
H      2.1750772     3.7225376     0.1808913    
H      0.6221243     5.3225429    -0.6924715    
H      2.7977211     5.0990567    -1.7886152    
H      1.8698107     4.0308889    -2.8512662    
H      3.3313915     3.4395251    -2.0444372    
H      2.5580762     0.8392206    -2.6205644    
H      4.3418323    -0.3357554    -0.5964054    
H      5.0364579    -1.8285875    -2.5780974    
H      3.7573510    -1.0641088    -3.5180308    
H      2.1622796    -1.7511726    -1.5757731    
H      3.4494007    -2.8617322    -1.0914173    
H      1.6276867    -5.0874086    -3.1534067    
H      1.9683441    -4.5915227    -1.5237166    
H      6.6986563    -0.5295633    -1.4289259    
H      7.5608546     1.6379431    -3.1601417    
H      8.6320788     1.3921354    -0.3108874    
H      7.3052277     2.4930886    -0.7104224    
H      8.7041591     3.7722461    -2.2217765    
H      10.0532272     2.6065586    -2.0462245    
H      11.2871226     3.7946853     0.9440798    
H      11.3909864     2.6465368    -0.3622102    
H      9.8459758     1.2603965    -3.6852191    
H      10.8392795    -1.4388236    -3.0485025    
H      12.6978368    -0.8031778    -4.6574935    
H      11.8005818     0.6981477    -5.0127388    
H      11.2668570    -1.0602545    -6.4797716    
H      13.1401399    -1.5615055    -2.3249119    
H      14.2907808     0.7817493    -1.0837874    
H      13.8763153    -1.8369528     0.4255627    
H      12.3894039    -0.5099619     1.6778060    
H      14.8335446    -0.6247779     2.3313086    
H      14.7961066     0.9031775     1.4259004    
H      15.9014449    -0.3843564     0.9353219    
