57

N     -0.7416410     5.9840714    -4.1680700    
C     -1.5047736     5.1109786    -4.8002105    
N     -1.6945984     3.8276213    -4.5396226    
C     -0.9961139     3.4208687    -3.4756713    
C     -0.1405205     4.2291061    -2.7170124    
C     -0.0242462     5.5814652    -3.1042147    
N      0.7581706     6.4631001    -2.4839776    
N      0.4239678     3.4824065    -1.7076999    
C     -0.0681297     2.2910461    -1.8535213    
N     -0.9323011     2.1731610    -2.9133225    
C     -1.6844390     1.0354679    -3.3764395    
C     -0.8272616    -0.2330287    -3.5119122    
O     -1.2366227    -0.9688990    -4.6229193    
C     -1.0990765    -0.9767392    -2.1869569    
O     -1.1133157    -2.3573709    -2.4119508    
O     -2.7521624     0.7214937    -2.5091023    
C     -2.4613429    -0.4197771    -1.7196753    
C     -2.4650705    -0.0680745    -0.2276989    
O     -2.2033117    -1.2149790     0.5450008    
P     -0.6547264    -1.6120051     0.9294133    
O      0.2051236    -0.3964338     0.8035690    
O     -0.2955903    -2.8260058     0.1336059    
O     -0.9419848    -2.1049352     2.4308902    
P     -0.9655704    -1.0567626     3.7018077    
O     -1.0389700    -1.9165603     4.9153407    
O     -1.9841719    -0.0097047     3.4402792    
O      0.4760154    -0.3213914     3.6210791    
C      1.6462657    -0.8937194     4.1806282    
O      1.6354590    -2.4039535     2.2317867    
O      2.9680794    -0.6911150     1.3765209    
C      2.7513794    -2.0616818     1.4470046    
O      3.9776219    -4.1166927     1.8683515    
C      3.9167206    -2.7513971     2.1682621    
O      3.8921091    -3.6256945     4.4562068    
C      3.5407834    -2.5407577     3.6614135    
C      2.0044155    -2.2753301     3.6034955    
H     -2.0508184     5.4962020    -5.6498809    
H      1.2670124     6.1709838    -1.6683393    
H      0.7623359     7.4166756    -2.8034844    
H      0.1644429     1.4671336    -1.2065737    
H     -2.1187986     1.3301853    -4.3393840    
H      0.2372749     0.0248831    -3.6057500    
H     -1.2479761    -1.9098304    -4.3690136    
H     -0.3364139    -0.7242389    -1.4435579    
H     -0.8637068    -2.7929203    -1.5703339    
H     -3.2386924    -1.1731376    -1.9015849    
H     -3.4476775     0.3007872     0.0783009    
H     -1.7113541     0.6983553    -0.0139557    
H      1.5121896    -0.9974981     5.2623346    
H      2.4258090    -0.1622942     3.9476461    
H      2.1066439    -0.2856089     1.1630927    
H      2.5410036    -2.4805875     0.4505737    
H      3.0779218    -4.4577674     1.7524540    
H      4.8780233    -2.3109213     1.9071970    
H      4.0617040    -4.3887088     3.8677402    
H      4.0433467    -1.6555132     4.0602194    
H      1.4246340    -3.0346182     4.1377480    
