247

N     -8.1958601    -4.2314410     1.7336720    
C     -7.6903482    -3.5245162     2.9342951    
C     -6.1559653    -3.5534342     2.8756081    
O     -5.6022842    -4.2463351     2.0376050    
C     -8.2232750    -4.1854126     4.2255200    
C     -9.7325871    -3.9738862     4.3573396    
C     -7.8786931    -5.6764307     4.2759507    
N     -5.5348699    -2.8573704     3.8735911    
C     -4.2381614    -2.2513169     3.6051452    
C     -4.4931461    -1.2422428     2.4509134    
O     -5.5506250    -1.3365291     1.8219822    
C     -3.1751796    -3.3419995     3.3778776    
C     -2.0134572    -2.9529155     2.4697497    
C     -0.9393310    -2.0101688     3.0591217    
O      0.0221355    -2.5148072     3.6692821    
O     -1.0984549    -0.7613808     2.9604962    
N     -3.7306953    -0.1490579     2.4408805    
C     -4.1191922     1.0455530     1.7089630    
C     -3.9257528     0.9196988     0.1838773    
O     -3.0393518     1.5235301    -0.4375099    
C     -3.3676878     2.2674121     2.2609755    
O     -3.2631279     2.1688928     3.6744891    
C     -4.1303498     3.5473304     1.9204817    
N     -4.9350648     0.2285271    -0.3510834    
C     -5.0399233    -0.2611645    -1.7259365    
C     -5.4448450     0.9447891    -2.5842028    
O     -6.6061079     1.2633380    -2.7712126    
C     -6.0539532    -1.3938079    -1.7576715    
C     -5.5104329    -2.7323108    -1.3169340    
C     -6.4167435    -3.7908921    -1.2575605    
C     -4.1763264    -2.9971585    -1.0187086    
C     -6.0114734    -5.0700565    -0.9297986    
C     -3.7672682    -4.2869639    -0.6890498    
C     -4.6789225    -5.3274677    -0.6483964    
N     -4.3992241     1.5562512    -3.1619462    
C     -4.5474807     2.8737523    -3.7429478    
C     -4.2533591     3.9457065    -2.6844133    
O     -4.8296797     3.9411112    -1.6040006    
N     -3.4112903     4.9046035    -3.0925483    
C     -2.9081374     5.9962315    -2.2867980    
C     -2.4560638     7.0668177    -3.2966241    
O     -2.1171420     6.7540247    -4.4316606    
C     -1.7704341     5.5241040    -1.3360284    
O     -2.3674398     4.6982007    -0.3271959    
C     -1.0769466     6.6864296    -0.6302237    
N     -2.5931829     8.3299134    -2.9026279    
C     -2.3166315     9.4710495    -3.7580358    
C     -0.7948143     9.6693290    -3.9005667    
O     -0.1644043     10.3246611    -3.0828602    
C     -2.9765000     10.7137137    -3.1172910    
O     -2.5836509     10.8424373    -1.7670392    
C     -4.4968687     10.6076062    -3.1744074    
N     -0.2893033     9.1831030    -5.0592850    
C      1.0925843     8.7456948    -5.1211996    
C      1.2261552     7.6049812    -4.1040326    
O      0.3794816     7.4884378    -3.2239686    
C      2.1288118     9.8377118    -4.8207609    
O      3.3702879     9.3301922    -5.2500385    
N      2.2342399     6.7422560    -4.2871027    
C      2.2713504     5.5690941    -3.4416168    
C      1.9582377     4.2890280    -4.2372752    
C      1.3854716     3.1999698    -3.3582942    
C      0.9283328     1.9983281    -3.8999672    
C      1.2433637     3.3851322    -1.9850799    
C      0.3552963     1.0024902    -3.1147399    
C      0.6571963     2.4179186    -1.1960610    
C      0.2249292     1.2216141    -1.7503218    
O     -0.2678028     0.2879251    -0.8070270    
S     -1.3618791    -0.7538098    -1.0805178    
O     -0.7929020    -1.9866258    -1.5656584    
O     -2.1264059    -0.8542397     0.1332123    
O     -2.1230798    -0.2050395    -2.1981605    
C      3.4369191     5.4980881    -2.4288817    
O      3.5971176     6.3887889    -1.6151533    
N      4.2464591     4.4028986    -2.5397352    
C      4.5364929     3.4213804    -1.4997126    
C      5.4466782     2.3085069    -2.0948765    
C      4.6979416     1.0382842    -1.8080047    
C      4.0034294     0.2982528    -2.7531920    
C      4.4530579     0.7984919    -0.4574021    
C      3.0049870    -0.5823211    -2.3574677    
C      3.4115522    -0.0036362    -0.0516340    
C      2.6682534    -0.6657621    -1.0115612    
O      1.5409323    -1.4206034    -0.6191630    
S      1.0347327    -1.3899842     0.8660658    
O      0.8244646    -0.0329252     1.2772942    
O     -0.1107489    -2.2336316     0.7685950    
O      2.1124398    -1.9633240     1.6395448    
C      5.0234314     3.8397311    -0.0948858    
O      6.0372813     3.3659862     0.3960835    
N      4.1849326     4.6152610     0.5933286    
C      4.3213349     4.8798481     2.0072563    
C      4.1754205     3.7210196     2.9955253    
O      4.7375855     3.8138383     4.0761932    
C      3.2564012     5.9107904     2.4100428    
C      1.8221237     5.4464516     2.0104660    
O      1.6148430     5.2780708     0.7815257    
O      0.9785315     5.3330122     2.9165282    
N      3.4704501     2.6097170     2.6559384    
C      3.1324607     1.6728080     3.7216362    
C      3.8899826     0.3435144     3.5988769    
O      3.6245759    -0.5870528     4.3638808    
C      1.6373291     1.3332823     3.8516987    
C      0.6230902     2.1300261     2.9963887    
O     -0.4915556     2.3251104     3.5125824    
O      0.9625266     2.5146400     1.8574880    
N      4.8965653     0.3382412     2.7308085    
C      5.7373894    -0.7936749     2.3589265    
C      4.9511480    -2.0338209     1.8956839    
O      5.0362793    -2.3925429     0.7206784    
C      6.7072828    -1.1416556     3.5110063    
C      7.6240323    -2.2904834     3.1013324    
C      7.5256622     0.0924433     3.8887516    
N      4.4218830    -2.7591134     2.8929977    
C      3.8228576    -4.0710324     2.7642177    
C      2.6892383    -4.3077273     1.7590177    
O      1.6033694    -4.7550814     2.1175203    
N      3.0773192    -4.2842057     0.4567243    
C      2.0441825    -4.4406269    -0.5747173    
C      1.3579253    -5.7724841    -0.2482988    
O      0.1358409    -5.9259813    -0.2551383    
C      2.7678863    -4.3565936    -1.9292399    
C      1.9789656    -4.7539172    -3.1905943    
C      1.9697660    -6.2645497    -3.4252016    
C      0.5543073    -4.2073578    -3.1653747    
N      2.2356057    -6.7742869    -0.0791637    
C      2.0046876    -7.9287430     0.7827021    
C      2.5987962    -7.4696139     2.1636131    
O      3.7713280    -7.0551038     2.1284834    
C      2.7018684    -9.1257626     0.1191015    
C      2.8375212    -10.4005529     0.9685827    
C      3.9929785    -10.2981164     1.9610231    
C      1.5413841    -10.7425777     1.6987325    
O      1.8792086    -7.5396528     3.1645607    
H     -7.4772321    -4.1650441     0.9932132    
H     -9.0818047    -3.8359700     1.4038167    
H     -8.2993818    -5.2300787     1.9566882    
H     -7.9829486    -2.4722136     2.8899615    
H     -7.7183473    -3.6924169     5.0582948    
H     -10.0719992    -4.4105734     5.2914598    
H     -10.2740053    -4.4520310     3.5475555    
H     -9.9696165    -2.9147664     4.3752814    
H     -6.8626576    -5.8576755     3.9287915    
H     -8.5790885    -6.2734217     3.6980232    
H     -7.9373792    -6.0184791     5.3045388    
H     -6.1423300    -2.2299653     4.3873875    
H     -3.9272690    -1.6374426     4.4557869    
H     -3.6568444    -4.1960076     2.8971049    
H     -2.7501420    -3.6489856     4.3355368    
H     -2.3360146    -2.4646797     1.5414025    
H     -1.4350246    -3.8346615     2.1663612    
H     -2.7358412    -0.2550168     2.6503834    
H     -5.1948139     1.1657551     1.9019016    
H     -2.3572996     2.2561049     1.8111458    
H     -2.3263942     2.1317640     3.9020163    
H     -3.4869706     4.3952924     2.1313172    
H     -5.0201790     3.5794592     2.5406948    
H     -4.3796238     3.5556834     0.8633261    
H     -5.4474445    -0.3391827     0.3383333    
H     -4.0548676    -0.5960353    -2.0605546    
H     -6.4146070    -1.4869037    -2.7848469    
H     -6.8982368    -1.1043739    -1.1295687    
H     -7.4465390    -3.5859820    -1.5094145    
H     -3.3847169    -2.2371916    -1.0154270    
H     -6.7238772    -5.8786056    -0.9022331    
H     -2.7063224    -4.4260113    -0.4648351    
H     -4.3306364    -6.3134422    -0.3835173    
H     -3.4843987     1.2749623    -2.8303780    
H     -5.6019271     2.9507930    -4.0283714    
H     -3.8883899     2.9617387    -4.6041999    
H     -2.9191213     4.8115955    -3.9755590    
H     -3.7162129     6.3542470    -1.6426779    
H     -1.0348881     4.9400468    -1.9036453    
H     -2.1230322     3.7773049    -0.3988913    
H     -0.3423741     6.2668090     0.0584630    
H     -1.7983120     7.2490209    -0.0465466    
H     -0.5572793     7.3119398    -1.3471228    
H     -2.7422585     8.5469249    -1.9252311    
H     -2.7526562     9.2672382    -4.7401827    
H     -2.6426337     11.5990746    -3.6803618    
H     -1.6123578     10.8502724    -1.7416222    
H     -4.9304604     11.4230769    -2.6048514    
H     -4.8187997     9.6683795    -2.7336794    
H     -4.8350913     10.6574223    -4.2033333    
H     -0.9100796     8.5154908    -5.5086130    
H      1.2972854     8.3737520    -6.1273999    
H      2.1266736     10.0674255    -3.7509791    
H      1.8554441     10.7381231    -5.3840553    
H      4.0848419     9.8855123    -4.9097806    
H      2.9925186     6.9744116    -4.9159404    
H      1.4140403     5.7354337    -2.7693217    
H      2.8147837     3.9159940    -4.7993305    
H      1.1876577     4.5502389    -4.9658566    
H      1.0105584     1.8203077    -4.9616306    
H      1.5491253     4.2696288    -1.4499429    
H     -0.0139046     0.0657765    -3.5038322    
H      0.5314529     2.5402409    -0.1285926    
H      4.0357249     3.8617767    -3.3717643    
H      3.5722976     2.9454293    -1.2260692    
H      6.4030041     2.3285540    -1.5722617    
H      5.5958442     2.4519248    -3.1605264    
H      4.2100276     0.4045106    -3.8061482    
H      5.0277560     1.3371626     0.2760924    
H      2.4130088    -1.1488028    -3.0569355    
H      3.0672258    -0.0984595     0.9697112    
H      3.2395988     4.8114497     0.2603962    
H      5.3292037     5.2747419     2.2005825    
H      3.4501809     6.8391405     1.8731057    
H      3.2626475     6.0708109     3.4872798    
H      2.7537035     2.6618826     1.9328987    
H      3.4741663     2.1497692     4.6549981    
H      1.2958771     1.3719233     4.8863372    
H      1.4361540     0.3122418     3.4826057    
H      4.9729503     1.1767986     2.1682605    
H      6.2985655    -0.4667564     1.4776397    
H      6.0888035    -1.4435830     4.3591849    
H      8.2942215    -2.5216286     3.9223990    
H      8.1986318    -2.0117963     2.2244445    
H      7.0405796    -3.1755651     2.8623444    
H      6.8663990     0.8924666     4.2180445    
H      8.0953916     0.4406314     3.0340946    
H      8.1998452    -0.1588941     4.6997187    
H      4.0514333    -2.1854732     3.6523921    
H      3.4119859    -4.3358805     3.7375985    
H      4.6028646    -4.7932432     2.4925992    
H      3.8039446    -3.5724851     0.2820840    
H      1.2668187    -3.6580896    -0.4464706    
H      3.6593385    -4.9809363    -1.8484542    
H      3.0795458    -3.3110220    -2.0011086    
H      2.5032193    -4.2786254    -4.0254247    
H      1.4344960    -6.4795004    -4.3432075    
H      1.4663363    -6.7567777    -2.6001279    
H      2.9842248    -6.6372187    -3.4939729    
H      0.5121716    -3.1858644    -2.7775737    
H     -0.0660444    -4.7722111    -2.4689828    
H      0.0946168    -4.2302267    -4.1499928    
H      3.1920419    -6.4469160     0.0449875    
H      0.9258595    -8.0599937     0.8964618    
H      3.6941704    -8.7709181    -0.1673537    
H      2.1374129    -9.3364117    -0.7916063    
H      3.0674638    -11.2161526     0.2744648    
H      4.0849821    -11.2206269     2.5266462    
H      3.8197619    -9.4806002     2.6567013    
H      4.9241598    -10.0890945     1.4414501    
H      0.7138231    -10.8040585     1.0002814    
H      1.3082786    -9.9680636     2.4271943    
H      1.6427064    -11.6866176     2.2242490    
