100

O      1.3879854     3.2883610     0.7334557    
C      2.0895296     2.3174987     0.4331370    
N      3.7805479     0.7290410     0.9805491    
C      3.2924784     1.9241855     1.2153469    
C      3.8241071     2.8146600     2.1687312    
C      4.9084244     2.4180152     2.9010455    
C      5.4461324     1.1312433     2.6937660    
C      6.5412893     0.6242196     3.4213899    
C      7.0075719    -0.6379900     3.1783308    
C      6.4042059    -1.4469994     2.1994210    
C      5.3411485    -0.9876029     1.4741920    
C      4.8347456     0.3100302     1.7029051    
N      1.8150612     1.5104704    -0.5933684    
C      0.7380672     1.7589221    -1.5285848    
C     -0.5473978     1.1506093    -0.9490272    
O     -1.1304682     0.2101861    -1.4850394    
C      1.0588998     1.1605023    -2.8990381    
C      2.3768399     1.7102643    -3.4198001    
O      3.4514185     1.3920295    -2.9208441    
N      2.2808796     2.5663202    -4.4406185    
C     -3.4216307     1.5212335     0.5141692    
O     -4.0745171     2.2372124     1.5308925    
C     -1.9971488     1.1022660     0.9872700    
N     -0.9729973     1.7272838     0.1676369    
C     -1.7312035     1.4266255     2.4551484    
C     -0.3621710     0.9894085     2.9069328    
C      0.1382344    -0.2747662     2.6141536    
C      0.4214962     1.8523284     3.6632014    
C      1.3852841    -0.6643602     3.0693574    
C      1.6624670     1.4591852     4.1316995    
C      2.1485277     0.1973793     3.8373986    
N     -3.8182913    -0.3700774    -1.1171400    
C     -4.2457643     0.2630735     0.1549134    
C     -4.0418377    -1.8359375    -1.1107897    
C     -3.2321788    -2.5085484     0.0133478    
O     -2.1944862    -2.0094613     0.4276327    
C     -3.5571629    -2.4281304    -2.4366744    
C     -4.3467394    -1.8396075    -3.6053255    
C     -3.9495877    -2.4567247    -4.9491788    
C     -2.5680393    -2.0076005    -5.4149581    
C     -2.5060614    -0.4857355    -5.4879520    
C     -2.7992736     0.1187562    -4.1177287    
C     -4.1828196    -0.3149130    -3.6281544    
C     -4.5321915     0.2634517    -2.2550458    
N     -3.7568207    -3.6590687     0.4306183    
C     -3.1523678    -4.5680650     1.4144677    
C     -4.1100455    -5.7449650     1.5804993    
C     -2.9829424    -3.8327017     2.7458961    
C     -1.7981943    -5.0495953     0.8896844    
H      3.3584782     3.7796626     2.2919836    
H      5.3545792     3.0670231     3.6412590    
H      6.9995098     1.2504534     4.1725473    
H      7.8447811    -1.0239100     3.7394155    
H      6.7907580    -2.4395770     2.0259731    
H      4.8640617    -1.5918166     0.7199959    
H      2.4800092     0.7707692    -0.7865350    
H      0.6041477     2.8475449    -1.5925238    
H      0.2421438     1.3764733    -3.5844365    
H      1.1537267     0.0791006    -2.7890912    
H      3.1229630     2.9689369    -4.8200929    
H      1.3951057     2.8222503    -4.8417231    
H     -3.2989885     2.1529154    -0.3757919    
H     -4.8028801     2.7578656     1.1668865    
H     -1.8932639     0.0229508     0.8414224    
H     -0.4324655     2.4896114     0.5646998    
H     -2.4899371     0.9247810     3.0580801    
H     -1.8441205     2.4990058     2.6170645    
H     -0.4442108    -0.9710335     2.0301181    
H      0.0572955     2.8427092     3.8948099    
H      1.7645920    -1.6462825     2.8299107    
H      2.2531871     2.1391315     4.7284007    
H      3.1186667    -0.1103492     4.2013233    
H     -2.7781390    -0.2221279    -1.2303917    
H     -5.3017349     0.5290729     0.0804305    
H     -4.1347783    -0.4441959     0.9768795    
H     -5.1124155    -2.0142555    -0.9757508    
H     -3.6829508    -3.5105796    -2.4166407    
H     -2.4928624    -2.2193614    -2.5421382    
H     -5.4063930    -2.0681677    -3.4416369    
H     -4.6836980    -2.1571637    -5.7005453    
H     -3.9804661    -3.5453355    -4.8762855    
H     -2.3613985    -2.4362844    -6.3973504    
H     -1.7998909    -2.3724026    -4.7318181    
H     -3.2396921    -0.1294141    -6.2151826    
H     -1.5189079    -0.1725056    -5.8315938    
H     -2.7729749     1.2080970    -4.1880628    
H     -2.0223248    -0.1897843    -3.4211527    
H     -4.9158487     0.0909942    -4.3336408    
H     -4.3051364     1.3289457    -2.2462552    
H     -5.6017743     0.1265717    -2.0811258    
H     -4.6100243    -3.9881330     0.0037572    
H     -3.7034931    -6.4504247     2.2987623    
H     -4.2493191    -6.2674748     0.6370736    
H     -5.0752438    -5.4058177     1.9485049    
H     -2.5598908    -4.5033081     3.4872997    
H     -3.9434223    -3.4763295     3.1085447    
H     -2.3124369    -2.9864288     2.6283903    
H     -1.3365516    -5.7186247     1.6091183    
H     -1.1347708    -4.2036919     0.7312343    
H     -1.9205218    -5.5811005    -0.0510206    
