39

P      0.0820233     1.1291792    -3.1220535    
O     -1.3995262     1.4465933    -3.3111244    
O      0.9293080     1.4498329    -4.3246852    
O      0.6350755     1.5961667    -1.7935206    
P      0.9421735    -1.5885726    -2.2566678    
O      0.7617450    -2.9115966    -2.9328900    
O      2.3153319    -1.0869688    -1.9970585    
O      0.0140955    -0.5763486    -3.0778244    
O      0.2087823    -1.6758360    -0.7790593    
C     -1.1136134    -2.1881009    -0.7367501    
C     -2.0726173    -1.2212329    -0.0342855    
O     -1.8087848    -1.1617738     1.3597237    
C     -1.9796666     0.2112481    -0.5768687    
O     -3.0321478     0.5281350    -1.4446379    
C     -2.0121430     1.1051246     0.6816893    
O     -3.2993312     1.5757698     0.9409643    
C     -1.5532653     0.1568410     1.7952611    
N     -0.1789532     0.3450094     2.1792984    
C      0.9520965     0.5425641     1.4255102    
N      2.0329408     0.6649204     2.1341716    
C      1.6238154     0.5328032     3.4438922    
C      2.3050070     0.5773740     4.6787465    
N      3.6189996     0.7721361     4.7941401    
N      1.5720409     0.4238651     5.7965336    
C      0.2674370     0.2479107     5.6899536    
N     -0.4825928     0.1888293     4.6005809    
C      0.2403063     0.3292555     3.4841621    
H     -1.0732063    -3.1311781    -0.1822696    
H     -1.4569194    -2.3707487    -1.7609814    
H     -3.0963207    -1.5977746    -0.1673467    
H     -1.0177906     0.3442811    -1.0696294    
H     -1.3121255     1.9449732     0.5584250    
H     -2.1391822     0.3112593     2.7124902    
H      0.9315333     0.6002966     0.3527174    
H      4.0298228     0.7758878     5.7123078    
H      4.1632422     0.8683470     3.9557629    
H     -0.2667182     0.1382828     6.6229954    
H     -3.7960844     1.5101544     0.1001605    
H     -2.6099540     0.9198544    -2.2512356    
