11

C      0.1819614    -0.5538928    -0.5412680    
O      0.3047243     0.1682449    -1.5482840    
O      0.1918487    -1.8047991    -0.5125410    
C     -0.0586471     0.1477825     0.8335947    
O      0.7563244     1.2987315     0.9245334    
C     -1.5450281     0.4783442     0.9449636    
H      0.2285380    -0.5763300     1.6153445    
H      0.4610163     1.8213778     1.6888933    
H     -1.7707682     0.9306870     1.9094748    
H     -2.1191849    -0.4373527     0.8299533    
H     -1.8115282     1.1650114     0.1434650    
