56

C     -0.7559171     0.6031451     4.1041526    
C      0.0481080     0.7303399     5.2252868    
C      1.3606225     0.2836948     5.1859560    
C      1.8748626    -0.2895755     4.0335411    
C      1.0741325    -0.4206437     2.9089601    
C     -0.2323501     0.0247491     2.9636997    
S     -1.2482294    -0.0691891     1.5057595    
O     -2.6429778    -0.1231377     1.9078678    
O     -0.7956540    -1.1944891     0.7100117    
N     -0.9599939     1.4156525     0.8514251    
C     -1.9773336     1.9025870    -0.0525512    
C     -1.9690509     3.4291095    -0.1648011    
C     -0.7269281     3.9339764    -0.8891647    
C     -2.0986659     4.0559499     1.2207490    
P     -2.0489032     0.9876426    -1.6859670    
O     -2.8628030     1.8297570    -2.6345426    
O     -2.6233039    -0.3798948    -1.4185713    
C     -0.3437147     0.7888302    -2.4178971    
C      0.3639655    -0.4970132    -2.0396931    
C      1.3103815    -0.3222075    -0.8030231    
O      1.9523749    -1.3171911    -0.4357467    
O      1.4091819     0.8202742    -0.2923239    
C      1.2238201    -1.0934727    -3.1085696    
C      1.4964256    -2.4551959    -3.0554171    
C      1.8709789    -0.3243273    -4.0705574    
C      2.7493363    -0.9120421    -4.9649868    
C      3.0333284    -2.2642137    -4.8860830    
C      2.4099660    -3.0423650    -3.9206209    
C      2.7581403    -4.4962816    -3.7357391    
N      3.5447076    -4.6543906    -2.4818643    
H     -1.7832191     0.9287115     4.0797337    
H     -0.3504323     1.1784022     6.1211731    
H      1.9873348     0.3842576     6.0580068    
H      2.8962300    -0.6309205     3.9989719    
H      1.4322805    -0.8527608     1.9869734    
H     -0.0350327     1.3626394     0.3972325    
H     -2.9382052     1.5862036     0.3914212    
H     -2.8475585     3.6756115    -0.7728695    
H     -0.6917499     5.0197102    -0.8579119    
H     -0.7678142     3.6132799    -1.9280425    
H      0.1734148     3.5305408    -0.4283810    
H     -2.9901440     3.6810929     1.7172658    
H     -2.1612915     5.1370157     1.1353638    
H     -1.2323622     3.7844873     1.8179365    
H      0.2794594     1.6568230    -2.1956363    
H     -0.5887728     0.7935986    -3.4877617    
H     -0.3899942    -1.2230472    -1.7045782    
H      0.9822731    -3.0330704    -2.2999193    
H      1.6857031     0.7387748    -4.1124630    
H      3.2307100    -0.2966037    -5.7098189    
H      3.7353203    -2.7046211    -5.5758680    
H      3.3472372    -4.8547556    -4.5787125    
H      1.8418194    -5.0805998    -3.6534188    
H      3.6766260    -5.6450659    -2.2457768    
H      3.0494541    -4.1832440    -1.7135472    
H      4.4587948    -4.1972920    -2.5790965    
