54

C      3.8671255     2.2708946     3.9379351    
O      4.0245179     2.5784143     5.1294250    
O      4.7661120     1.8847496     3.1516686    
C      2.4324192     2.3797188     3.3487446    
C      2.0970226     1.1383908     2.5124512    
O      2.9985181     0.9645004     1.4462756    
C      0.6796789     1.2849411     1.9643512    
O     -0.3142394     1.0801640     2.6561196    
N      0.6366091     1.6603381     0.6840305    
C     -0.5804963     1.8750798    -0.0598299    
C     -0.6180475     3.2496508    -0.7379455    
C     -1.0442105     4.4253527     0.1502964    
C     -2.4784400     4.2682166     0.6521377    
C     -0.0946410     4.6452652     1.3258306    
C     -0.8128961     0.7860750    -1.1195499    
O     -1.7345372     0.8817372    -1.9227749    
N      0.0415631    -0.2387172    -1.1116604    
C     -0.0898041    -1.3581061    -2.0216258    
C     -0.9562702    -2.4738454    -1.4324308    
C     -1.1503781    -3.6028381    -2.4407661    
C     -2.0916872    -4.6812141    -1.8901758    
N     -2.3478273    -5.7290399    -2.8574428    
C     -3.2062704    -5.6458145    -3.8726401    
N     -3.2813583    -6.6533957    -4.7379199    
N     -4.0027605    -4.5958388    -4.0233955    
H      2.4052529     3.2680279     2.7130785    
H      1.7212406     2.4976083     4.1659579    
H      2.1154441     0.2588115     3.1789907    
H      3.8836685     1.2093051     1.8144269    
H      1.5295402     1.8292586     0.2368704    
H     -1.4029576     1.7853155     0.6597126    
H     -1.3235951     3.1734694    -1.5678330    
H      0.3717099     3.4520489    -1.1525260    
H     -1.0035630     5.3173828    -0.4852175    
H     -2.8177852     5.1937624     1.1096768    
H     -2.5403436     3.4846638     1.4046506    
H     -3.1467156     4.0182620    -0.1676965    
H      0.9373972     4.7142342     0.9878294    
H     -0.1676200     3.8328090     2.0459570    
H     -0.3427596     5.5690743     1.8429579    
H      0.7350848    -0.2900895    -0.3807645    
H      0.9097726    -1.7258561    -2.2550576    
H     -0.5597425    -0.9684029    -2.9283971    
H     -1.9204665    -2.0409368    -1.1576603    
H     -0.4897796    -2.8528059    -0.5214720    
H     -0.1814734    -4.0460510    -2.6738093    
H     -1.5573558    -3.1857084    -3.3626233    
H     -3.0330177    -4.2274649    -1.5740143    
H     -1.6420955    -5.1417155    -1.0104435    
H     -1.7049323    -6.5057873    -2.8542539    
H     -3.9341769    -6.6262589    -5.5021856    
H     -2.6968798    -7.4651892    -4.6432413    
H     -3.9581040    -3.8129085    -3.3952977    
H     -4.6826505    -4.5711397    -4.7633839    
