72

N     -0.2364391     1.3934305     1.4760374    
C      0.6005318     2.4459711     1.3749732    
C      0.2794906     3.4411025     2.3719983    
O      1.0054941     5.6305702     1.1664465    
O      2.5752724     4.6262924     2.7376301    
C     -0.7721797     2.9764249     3.0867640    
C     -2.1073055     0.8532001     2.9502192    
C     -1.0806110     1.6721637     2.4995636    
C     -4.4550989    -3.4979408     2.1889518    
O      0.5975899     5.7687384     3.5568721    
O     -4.3537315     0.3081310     4.8399420    
C     -2.4596118    -0.3789639     2.4238843    
C     -3.5036104    -1.2373779     2.8639880    
C     -3.5206538    -2.3525123     2.0710048    
C     -2.4673812    -2.1923028     1.1096021    
C     -2.1242287    -3.0677899     0.0893042    
C     -1.4882482     3.6106829     4.2197529    
O      1.9515366    -6.0025456    -5.4283413    
C      2.7407611    -5.3790890    -4.6896408    
O      3.9804803    -5.3214626    -4.8338433    
C      2.1418222    -4.6297414    -3.4677309    
C      0.8590321    -3.8839953    -3.8426612    
C      0.1751593    -3.3273318    -2.6437358    
C     -0.8493561    -3.8506787    -1.9254372    
C     -1.5908392    -5.1231386    -2.1340140    
C     -1.1203144    -2.8924246    -0.8529545    
N     -0.2746715    -1.8385522    -0.9236746    
C      0.5275621    -2.0680928    -1.9826279    
C      1.5683487    -1.2511653    -2.4121996    
C      1.9665849    -0.0446339    -1.8644059    
N      1.3923789     0.5619565    -0.7916043    
C      3.0398429     0.7988056    -2.3127081    
C      3.9172853     0.4972291    -3.4798901    
C      3.2072448     0.7754538    -4.8085066    
C      3.2526486     2.2704475    -5.2350536    
O      4.2188476     2.9632918    -4.8582577    
O      2.3256495     2.6589574    -5.9780302    
C      3.0644602     1.9023061    -1.4983759    
C      3.9978537     3.0574380    -1.5709368    
C      2.0102793     1.7483232    -0.5343432    
C      1.6453202     2.6214466     0.4731662    
S      1.1619704     4.9505453     2.4660211    
N     -1.8632424    -0.9999937     1.3676013    
S     -4.6446676    -0.9761862     4.1856232    
O     -4.4771844    -2.1017467     5.1212852    
O     -5.9904643    -0.9788483     3.5868973    
H     -2.7033731     1.1882133     3.7856297    
H     -5.1023868    -3.3195959     3.0439259    
H     -3.9034411    -4.4239611     2.3344098    
H     -5.0604512    -3.5852111     1.2893099    
H     -2.7083683    -3.9716679     0.0191341    
H     -1.0292712     4.5747675     4.4254853    
H     -1.4337679     2.9750212     5.1018865    
H     -2.5394853     3.7456985     3.9702290    
H      2.9030563    -3.9539471    -3.0730472    
H      1.9192204    -5.3826512    -2.7063864    
H      0.2104354    -4.5926184    -4.3648631    
H      1.1054331    -3.0862509    -4.5499020    
H     -1.1823811    -5.6545708    -2.9899680    
H     -2.6458138    -4.9218804    -2.3101116    
H     -1.5013559    -5.7575866    -1.2540271    
H      2.1275554    -1.5925823    -3.2704321    
H      0.6002608     0.2018153    -0.2737999    
H      4.2235752    -0.5514565    -3.4455491    
H      4.8072006     1.1289386    -3.4473148    
H      2.1585171     0.4743195    -4.7810783    
H      3.6967881     0.2233147    -5.6161705    
H      4.2415202     3.2707218    -2.6116298    
H      4.9196896     2.8338516    -1.0349347    
H      3.5468266     3.9397821    -1.1220361    
H      2.1928700     3.5443419     0.5927335    
H     -1.0834820    -0.6189079     0.8440726    
