19

O      1.8679361     2.2526801     0.2014546    
C      1.3844310     1.2943496    -0.4272816    
O      1.9125303     0.6798701    -1.3765648    
C     -0.0340805     0.8082029     0.0170841    
C     -0.0142805     0.3477943     1.4734917    
C     -1.3271738    -0.3805612     1.7669946    
N     -1.5648882    -1.4715137     0.8470833    
C     -1.0800448    -1.3722026    -0.3297993    
C     -1.2511601    -2.5143994    -1.2860597    
N     -0.4692713    -0.2652467    -0.8465833    
H     -0.7125750     1.6699614    -0.0879438    
H      0.1360383     1.2066058     2.1262626    
H      0.8237759    -0.3432077     1.6103280    
H     -2.1611891     0.3296363     1.7114854    
H     -1.3116521    -0.8081190     2.7739484    
H     -1.8086862    -3.3059526    -0.7986475    
H     -0.2741201    -2.8851298    -1.5892745    
H     -1.7822232    -2.1758994    -2.1720951    
H      0.1735918    -0.3943534    -1.6243636    
