35

P     -1.2354871     3.0803817     1.5023591    
O     -0.6660765     4.1549643     0.5735745    
O     -2.2788241     2.1882654     0.8574716    
O     -1.6106857     3.5996045     2.8715973    
O      0.0759402     2.0001991     1.8093505    
C      1.3456688     2.3614341     1.3552730    
C      1.6415643     1.8598871    -0.0643108    
O      2.0144221     0.4863351    -0.0591742    
C      0.4442762     1.9771796    -1.0200544    
O      0.3892254     3.2052487    -1.6875887    
C      0.6768457     0.8193723    -1.9971043    
O      1.5094905     1.1840097    -3.0574823    
C      1.3837891    -0.2166842    -1.1064792    
N      0.4851579    -1.2142080    -0.5850577    
C     -0.5271942    -1.0864474     0.3315666    
N     -1.1333306    -2.2035572     0.5972603    
C     -0.5014203    -3.1489265    -0.1795201    
C     -0.6783025    -4.5383861    -0.3518744    
N     -1.6088619    -5.2522406     0.2810459    
N      0.1488606    -5.1673832    -1.2061141    
C      1.0733603    -4.4694475    -1.8405910    
N      1.3350155    -3.1736809    -1.7712887    
C      0.5198387    -2.5407248    -0.9206185    
H      2.0687437     1.9189095     2.0495027    
H      1.4354385     3.4550792     1.3614898    
H      2.4830440     2.4427189    -0.4679412    
H     -0.4813363     1.8018831    -0.4621584    
H     -0.0369413     3.8159094    -1.0415326    
H     -0.2768733     0.4231160    -2.3766265    
H      1.3416681     2.1236140    -3.2503227    
H      2.1440987    -0.7627475    -1.6813271    
H     -0.7765195    -0.1446713     0.7836247    
H     -1.6693653    -6.2393331     0.0986630    
H     -2.2340845    -4.7839967     0.9122496    
H      1.7064113    -5.0334440    -2.5112964    
