25

O      5.0977760    -0.0337959     0.0285600    
C      4.1451520    -0.3237181    -0.7270879    
O      4.2086985    -0.5848517    -1.9463570    
C      2.7812358    -0.3601105    -0.0804764    
O      1.6938880    -0.6514623    -0.8164846    
C      2.4165459    -0.1351162     1.2235875    
C      1.0209844    -0.2936638     1.2819367    
C      0.6140462    -0.6074744     0.0041884    
C     -0.6826551    -0.9063627    -0.5711309    
C     -0.7635025    -1.5312098    -1.8211004    
C     -1.9840460    -1.8385671    -2.3880009    
C     -3.1629858    -1.5326300    -1.7256962    
C     -3.1141492    -0.9014657    -0.4935640    
C     -1.8878022    -0.5977529     0.0652031    
O     -1.8692003     0.0512329     1.3445230    
C     -1.9636867     1.3484742     1.3190524    
F     -1.0820908     1.9806528     0.5155333    
F     -3.1719954     1.8119470     0.9148193    
F     -1.7805602     1.8445220     2.5455719    
H      3.0900005     0.1117994     2.0177532    
H      0.4084130    -0.2103390     2.1562497    
H      0.1604726    -1.7637376    -2.3275484    
H     -2.0138489    -2.3215151    -3.3513869    
H     -4.1166661    -1.7750855    -2.1638984    
H     -4.0150631    -0.6387071     0.0376308    
