31

N     -0.2458133    -0.0889185     0.5655729    
C     -1.1264291    -1.1033675     0.2574239    
N     -1.5311379    -1.1514559    -1.0587665    
C     -1.0445362    -0.4173091    -2.1257971    
C     -0.2604397     0.7026442    -1.6736304    
C      0.1358295     0.8023148    -0.4000153    
O     -1.6798046    -1.7973962     1.0895673    
O     -1.3798844    -0.6570870    -3.2697688    
I      0.2107042     2.1719702    -3.0507473    
C      0.4155286     0.1179097     1.8836533    
C      0.4123885    -1.0758900     2.8210650    
C      1.5865420    -1.9014604     2.2836331    
C      2.5161757    -0.8243272     1.6700174    
O      2.2026233    -2.6060697     3.3292203    
O      1.7742213     0.3949599     1.6791224    
C      3.0237441    -1.1402729     0.2403982    
O      2.8709954    -2.4699852    -0.1579989    
P      1.6036596    -2.8418455    -1.2683777    
O      2.1472691    -4.0600219    -1.9743743    
O      1.4535396    -1.5898057    -2.1169299    
O      0.3787330    -3.1209615    -0.4037828    
H     -2.0317784    -2.0027059    -1.2936154    
H      0.7882498     1.5907286    -0.0521070    
H     -0.0340132     1.0201237     2.3137272    
H     -0.5164313    -1.6334929     2.8250212    
H      0.6704918    -0.7363895     3.8243615    
H      1.2406291    -2.5792940     1.4973860    
H      3.3747749    -0.6714936     2.3331541    
H      2.6911336    -3.3575094     2.9710838    
H      4.0949686    -0.9130559     0.1625176    
H      2.4877603    -0.5004869    -0.4763918    
