185

N     -7.4576698    -9.5979284    -6.2532347    
C     -6.7644630    -8.3643911    -6.6974228    
C     -6.0166536    -7.8718978    -5.4446672    
O     -6.4023510    -8.2657023    -4.3477221    
C     -7.8040767    -7.3316721    -7.1914919    
C     -7.1647418    -5.9729494    -7.4696857    
C     -8.4804941    -7.8449022    -8.4650226    
N     -4.9359756    -7.1151909    -5.6264584    
C     -4.2954334    -6.5000147    -4.4773491    
C     -5.3136527    -5.5868030    -3.7811613    
O     -6.1516284    -4.9710612    -4.4278199    
C     -3.0892471    -5.6715227    -4.9241033    
C     -2.2174482    -5.2036992    -3.7670858    
C     -1.0614916    -4.2845602    -4.2464744    
O     -1.0787457    -3.8695671    -5.4172819    
O     -0.1775330    -4.0218573    -3.3928243    
N     -5.2487582    -5.5739749    -2.4467153    
C     -5.9879682    -4.6220061    -1.6452348    
C     -5.0658507    -3.4551804    -1.2865447    
O     -3.8517005    -3.6195247    -1.1613115    
C     -6.4327551    -5.2989844    -0.3387153    
C     -7.4586091    -4.4725549     0.4393014    
C     -7.6230260    -5.0759100     1.8252169    
O     -8.4552680    -5.9419257     2.0801501    
N     -6.7722289    -4.5959331     2.7333067    
N     -5.6762149    -2.2938746    -1.0525558    
C     -4.9487491    -1.1849803    -0.4767340    
C     -4.3621804    -1.6380889     0.8638625    
O     -4.9552402    -2.4346318     1.5803764    
C     -5.9246201    -0.0271841    -0.2111580    
C     -6.6450188     0.3385082    -1.4633904    
N     -7.5523362    -0.5182999    -2.0283390    
C     -6.5345707     1.4567495    -2.2439262    
C     -7.9738621     0.0716191    -3.1161758    
N     -7.3925133     1.2750096    -3.2905465    
N     -3.2199916    -1.0463598     1.2056009    
C     -2.5904367    -1.2225308     2.4928599    
C     -2.6614507     0.1189484     3.2280597    
O     -3.1989478     1.0971122     2.7217395    
C     -1.1241754    -1.6816240     2.3319945    
C     -1.0194641    -2.6921182     1.2387736    
N     -1.4869936    -3.9683856     1.3831487    
C     -0.5427159    -2.5234230    -0.0348850    
C     -1.2936805    -4.5413211     0.2230437    
N     -0.7117851    -3.7181147    -0.6682018    
N     -2.1438798     0.1296030     4.4696854    
C     -1.7766372     1.4101985     5.0440633    
C     -0.7617834     2.0757586     4.0925559    
O     -0.2472477     1.4519990     3.1671697    
C     -1.1944412     1.2383439     6.4486435    
C      0.1848499     0.5636169     6.4259577    
C      1.1373594     1.1545689     7.4765160    
N      2.5146535     0.8391898     7.1637125    
C      3.1179174    -0.3258635     7.3881859    
N      4.3090099    -0.5548967     6.8409507    
N      2.5907425    -1.2272661     8.2134879    
N     -0.4976585     3.3622131     4.3402681    
C      0.5613649     4.0255096     3.6063306    
C      1.8982176     3.3939485     4.0016111    
O      2.1062249     2.9812923     5.1371754    
C      0.5885372     5.5249537     3.8984379    
C     -0.6881459     6.2550980     3.4760526    
C     -1.0203252     6.0663751     1.9890297    
N      0.1156312     6.3110360     1.1247380    
C      0.5569603     7.4948020     0.7266410    
N      1.6639734     7.5570265    -0.0101614    
N     -0.0460918     8.6243343     1.1038411    
N      2.8103200     3.3573542     3.0300649    
C      4.1070999     2.7484812     3.2092231    
C      4.9998590     3.1932094     2.0503397    
O      4.5835741     3.9261032     1.1539819    
C      3.9796259     1.1978468     3.3565020    
O      4.9271065     0.6769149     4.2534916    
C      3.9572295     0.4799327     2.0134183    
N      6.2596787     2.7716708     2.1429598    
C      7.2400308     2.9042061     1.0863758    
C      6.5573559     2.9081736    -0.2908917    
O      5.7675578     2.0161255    -0.5955060    
C      8.1803791     1.6871136     1.0844020    
C      8.6055473     1.1630306     2.4889158    
O      9.8117860     0.9892137     2.6876197    
O      7.6847989     0.9128393     3.3073051    
N      6.9559924     3.8865796    -1.1046288    
C      6.7043357     3.9642475    -2.5358197    
C      5.5219889     3.0643087    -2.9343586    
O      5.6864064     2.0212751    -3.5619394    
C      7.9684724     3.5722804    -3.3116891    
C      9.1703277     4.4317491    -2.9524570    
O      9.2865036     5.0088591    -1.8722054    
N      10.1075198     4.5092851    -3.8956298    
N      4.3376946     3.5786259    -2.6131440    
C      3.0917724     2.8555003    -2.6635828    
C      2.0283052     3.6190508    -3.5277941    
O      2.4494309     4.4443221    -4.3540650    
C      2.5768584     2.6442594    -1.2441210    
C      2.1835203     3.9684365    -0.5775055    
O      2.5857650     5.0487571    -1.0519829    
O      1.4657714     3.8997931     0.4491470    
O      0.8362049     3.3111957    -3.3307469    
H     -6.9486596    -10.4519631    -6.5009222    
H     -8.4152603    -9.6516563    -6.6149435    
H     -7.4804597    -9.5112863    -5.2086791    
H     -6.0537599    -8.5729879    -7.4984825    
H     -8.5484163    -7.1913638    -6.4013900    
H     -7.9105615    -5.2977269    -7.8805193    
H     -6.3589412    -6.0577591    -8.1962492    
H     -6.7854447    -5.5128750    -6.5608046    
H     -9.0247381    -8.7728442    -8.3198446    
H     -7.7430996    -7.9906009    -9.2498973    
H     -9.1946618    -7.1038972    -8.8138497    
H     -4.7353436    -6.7101656    -6.5288759    
H     -3.9836047    -7.2917023    -3.7883271    
H     -3.4246979    -4.7883283    -5.4742814    
H     -2.4655286    -6.2609442    -5.5974430    
H     -1.7617115    -6.0433958    -3.2373639    
H     -2.7766000    -4.6071320    -3.0396204    
H     -4.4401160    -5.9730801    -1.9904700    
H     -6.8398351    -4.2798551    -2.2378044    
H     -5.5421666    -5.4505113     0.2765370    
H     -6.8564728    -6.2741144    -0.5809113    
H     -8.4181301    -4.4850285    -0.0761786    
H     -7.1038826    -3.4498853     0.5467751    
H     -6.7757124    -4.9747892     3.6669380    
H     -6.0937096    -3.8907997     2.4833673    
H     -6.6346576    -2.0936456    -1.3455665    
H     -4.1359120    -0.8730708    -1.1474158    
H     -5.3702302     0.8271866     0.1766447    
H     -6.6396975    -0.3610473     0.5437393    
H     -5.9282045     2.3310888    -2.1346743    
H     -8.6956675    -0.3440287    -3.7885638    
H     -7.5379241     1.9184973    -4.0518707    
H     -2.7785044    -0.3912931     0.5787214    
H     -3.1710060    -1.9901177     3.0131345    
H     -0.7812072    -2.1302074     3.2633269    
H     -0.4967150    -0.8209390     2.0872323    
H     -0.0887739    -1.6807121    -0.5194627    
H     -1.5577107    -5.5535674    -0.0048717    
H     -0.4926898    -3.9002500    -1.6502017    
H     -1.5648773    -0.6545704     4.7322514    
H     -2.6789060     2.0302604     5.0593371    
H     -1.9014961     0.6630998     7.0442907    
H     -1.1022947     2.2268515     6.8964213    
H      0.6466725     0.7291342     5.4494400    
H      0.0926572    -0.5125519     6.5664159    
H      0.8815713     0.8147793     8.4801206    
H      1.0693173     2.2413767     7.4459491    
H      2.9055584     1.4349678     6.4437226    
H      4.7712009    -1.4371521     6.9783930    
H      4.6454567     0.0213470     6.0799896    
H      1.7446063    -1.0298803     8.7185314    
H      3.1097831    -2.0549777     8.4497930    
H     -0.8149347     3.7913031     5.1972708    
H      0.4209837     3.8243224     2.5400933    
H      1.4432597     5.9390915     3.3623863    
H      0.7567179     5.6680807     4.9671453    
H     -0.5463434     7.3124898     3.6940297    
H     -1.5387475     5.8909405     4.0496349    
H     -1.8507980     6.7176086     1.7062957    
H     -1.3331713     5.0380627     1.8060437    
H      0.6478809     5.4910778     0.8300111    
H      1.9546221     8.4230925    -0.4291005    
H      2.0751945     6.6993027    -0.3758729    
H     -0.9201164     8.5865179     1.5990540    
H      0.2537788     9.5017636     0.7157002    
H      2.5615933     3.6141290     2.0783205    
H      4.5386887     3.1228175     4.1483308    
H      3.0128924     1.0240156     3.8452945    
H      5.8097537     0.5979983     3.8515765    
H      3.8053813    -0.5861217     2.1603861    
H      4.8826500     0.6267126     1.4588391    
H      3.1431376     0.8653403     1.4006118    
H      6.5564505     2.0897146     2.8573053    
H      7.8106652     3.8293002     1.2311981    
H      9.0831869     1.9201599     0.5190619    
H      7.6614326     0.8562712     0.5918771    
H      7.7498517     4.4738621    -0.8424024    
H      6.4318606     5.0010613    -2.7649984    
H      7.7471315     3.6322643    -4.3764324    
H      8.1948234     2.5279976    -3.0778112    
H      10.9445861     5.0396870    -3.7073305    
H      10.0137645     4.0169977    -4.7674224    
H      4.2641772     4.4244514    -2.0585675    
H      3.2830076     1.8897964    -3.1507542    
H      3.3675164     2.1842887    -0.6418498    
H      1.7022397     1.9897293    -1.2488621    
