70

O     -3.2075974     0.0297935     1.2177980    
S     -2.2396244     1.1035488     1.3065297    
O     -1.6550437     1.5271810     0.0501879    
C     -2.9802309     2.5126417     2.1045684    
C     -3.8132084     2.2935457     3.1867607    
C     -4.3624538     3.3933506     3.8232680    
C     -4.0777285     4.6792511     3.3925179    
C     -3.2333771     4.8882360     2.3013061    
O     -2.8897229     6.0950084     1.8041900    
C     -3.4157360     7.2653391     2.4168706    
C     -2.6799471     3.7773623     1.6535095    
N     -1.0974164     0.6312079     2.4008768    
C      0.0093828     1.5438417     2.6334711    
C      1.1827123     1.3666908     1.7211294    
S      1.1169577     1.8906374     0.0694060    
C      2.7370349     1.3724789    -0.1798451    
C      3.2852352     0.8115888     0.9275894    
C      2.3945756     0.8161135     2.0218436    
C     -1.0477725    -0.7220700     2.8903949    
C     -0.0303104    -1.6318451     2.1750751    
O      0.0151610    -2.8989368     2.7787534    
C     -0.2890365    -1.6992281     0.6538643    
C     -1.4284194    -2.6641364     0.2711297    
C     -1.6076754    -2.6352759    -1.2195626    
C     -0.9622250    -3.5567101    -2.0335553    
C     -1.0666744    -3.4741544    -3.4109197    
C     -1.8192700    -2.4673740    -3.9886605    
C     -2.4688923    -1.5459056    -3.1838064    
C     -2.3630847    -1.6286151    -1.8077717    
N      0.9401110    -2.0890781    -0.0007173    
C      1.3740072    -1.5499293    -1.1549619    
O      0.7962018    -0.6265986    -1.7247852    
C      2.6291654    -2.1453426    -1.6840864    
C      3.6713112    -2.5388989    -0.8516061    
C      4.8204121    -3.0808832    -1.3940510    
C      2.7699354    -2.2615069    -3.0621833    
C      3.9185475    -2.8015602    -3.6129786    
O      4.0167252    -2.9157068    -4.9732943    
C      4.9462677    -3.2462839    -2.7664933    
O      6.0818394    -3.8143715    -3.2609576    
H     -4.0225828     1.2832374     3.4932016    
H     -5.0198499     3.2508629     4.6656757    
H     -4.5198059     5.5141908     3.9099369    
H     -2.9989348     8.0924161     1.8471195    
H     -3.0985346     7.3379015     3.4590805    
H     -4.5053492     7.2847941     2.3508990    
H     -2.0336563     3.9081945     0.8003765    
H      0.3348872     1.4140850     3.6686474    
H     -0.4003502     2.5494126     2.5110938    
H      3.1732308     1.4920859    -1.1509865    
H      4.2837899     0.4177301     0.9645225    
H      2.6489050     0.4397896     2.9962088    
H     -2.0544537    -1.1225032     2.7555828    
H     -0.8065852    -0.7002088     3.9576395    
H      0.9731848    -1.2170796     2.3148893    
H     -0.8786446    -3.2653641     2.8391429    
H     -0.5413986    -0.6982868     0.2842780    
H     -2.3455433    -2.3258520     0.7552160    
H     -1.1717424    -3.6728737     0.5971599    
H     -0.3668861    -4.3409693    -1.5884535    
H     -0.5507401    -4.1897977    -4.0337379    
H     -1.8955515    -2.3940131    -5.0631422    
H     -3.0512034    -0.7523939    -3.6285710    
H     -2.8509691    -0.8962857    -1.1774010    
H      1.3992243    -2.9085563     0.3688172    
H      3.5968683    -2.4037455     0.2152028    
H      5.6378190    -3.3991318    -0.7675755    
H      1.9737936    -1.9280235    -3.7100355    
H      4.9394088    -2.8237139    -5.2607372    
H      5.9145636    -4.2249079    -4.1245798    
