63

N     -4.7949882     1.3770310     3.4322695    
C     -3.7552856     2.0297725     2.5989360    
C     -3.2514922     0.9265903     1.6523165    
O     -3.4353259    -0.2507125     1.9767429    
C     -2.6130517     2.5675037     3.4889293    
C     -1.5861784     3.3427224     2.6528305    
C     -1.9295223     1.4394767     4.2615428    
C     -0.7539520     4.2994317     3.5016752    
N     -2.7073979     1.3372359     0.5256970    
C     -2.0410971     0.4283877    -0.3779794    
C     -1.0036258    -0.3855946     0.4010114    
O     -0.4134406     0.1017459     1.3633943    
C     -1.2905653     1.2325273    -1.4446505    
C     -2.2052777     2.1018659    -2.3137006    
C     -2.3810629     3.5612930    -1.8138748    
O     -2.3719218     4.4546322    -2.6765781    
O     -2.5494457     3.7540653    -0.5841182    
N     -0.7756916    -1.6357179    -0.0085419    
C      0.3447080    -2.3732936     0.5459400    
C      1.6435074    -1.7683029     0.0315550    
O      1.6600834    -0.8753659    -0.8365572    
C      0.1413804    -3.7962665     0.0244052    
C     -0.4685142    -3.5481074    -1.3535990    
C     -1.3862566    -2.3451791    -1.1241664    
N      2.7739614    -2.2137148     0.5313500    
C      3.9907680    -1.6913944    -0.0597666    
C      3.6242418    -0.6572739    -1.1384671    
O      3.8842161     0.5306403    -1.0159919    
C      4.8074470    -2.8443084    -0.6418018    
C      5.0921338    -3.9622901     0.4131483    
O      4.1250099    -4.3537805     1.1084600    
O      6.2494856    -4.3999928     0.4684003    
H     -5.7386091     1.5228176     3.0612240    
H     -4.7538593     1.6824946     4.4095168    
H     -4.5572547     0.3580513     3.3507132    
H     -4.1609366     2.8527263     2.0090962    
H     -3.0611384     3.2749703     4.1955995    
H     -2.0874837     3.9209065     1.8728975    
H     -0.9212204     2.6356941     2.1505765    
H     -2.6216404     0.8686263     4.8723515    
H     -1.1673112     1.8501945     4.9167488    
H     -1.4334982     0.7607590     3.5691533    
H     -0.0577302     4.8406548     2.8654707    
H     -0.1747295     3.7617905     4.2476960    
H     -1.3924061     5.0235069     4.0021153    
H     -2.6357609     2.3411480     0.2664957    
H     -2.7813292    -0.2374805    -0.8353985    
H     -0.7294702     0.5412410    -2.0759390    
H     -0.5527765     1.8631907    -0.9391671    
H     -3.2038475     1.6635774    -2.3752144    
H     -1.8063295     2.1780145    -3.3260275    
H      0.3473330    -2.2961934     1.6361493    
H     -0.5654293    -4.3159577     0.6692023    
H      1.0735871    -4.3554835    -0.0089762    
H     -1.0117823    -4.4091225    -1.7322971    
H      0.3174519    -3.2843353    -2.0621875    
H     -1.4480678    -1.7136933    -2.0101989    
H     -2.3898605    -2.6655969    -0.8298327    
H      2.9306221    -3.0953638     1.0489097    
H      4.5670379    -1.1740037     0.7185534    
H      3.4905192    -1.0929781    -2.1458547    
H      5.7642940    -2.4866446    -1.0208132    
H      4.2517625    -3.3075702    -1.4617115    
