45

C     -1.8528365     2.9423791     0.1039338    
C     -1.0896576     1.8052769     0.3950331    
N      0.1512700     2.0332920    -0.1863549    
N      0.2116913     3.2145240    -0.8101180    
C     -0.9921233     3.7546070    -0.6332573    
N     -1.3589749     0.6887609     1.0650309    
C     -0.4033374    -0.2207068     1.1570008    
C      0.8618596    -0.0559772     0.5593125    
C      1.1487168     1.1082672    -0.1298370    
N      2.3155607     1.4422674    -0.7137370    
C     -0.7375143    -1.4347612     1.9134554    
C      3.3805429     0.4940171    -0.9484654    
C      2.9782388    -0.6080959    -1.8999334    
C      2.3453452    -0.3139253    -3.1040258    
N      1.9564153    -1.2286637    -3.9748675    
C      2.1814421    -2.5009066    -3.6847238    
C      2.8027558    -2.9136645    -2.5160308    
C      3.2056887    -1.9477235    -1.6092205    
C     -2.0718839    -1.8262491     2.0163801    
C     -2.4204164    -2.9595168     2.7248298    
C     -1.4420755    -3.7167335     3.3493110    
C     -0.1152111    -3.3282254     3.2659428    
C      0.2378068    -2.1970854     2.5531716    
C     -3.2471006     3.2187835     0.4682425    
C     -4.2627095     2.1062107     0.4388362    
C     -3.8175234     2.6705914     1.7486241    
H     -1.2013445     4.7223171    -1.0469234    
H      1.5905557    -0.8432954     0.6102074    
H      2.2818410     2.2909288    -1.2605856    
H      3.6899592     0.0592322     0.0064207    
H      4.2265022     1.0463232    -1.3619416    
H      2.1373735     0.7093894    -3.3872070    
H      1.8449657    -3.2124936    -4.4259006    
H      2.9616676    -3.9617614    -2.3206403    
H      3.6921127    -2.2317801    -0.6869510    
H     -2.8231586    -1.2233163     1.5309732    
H     -3.4570862    -3.2526652     2.7921859    
H     -1.7132673    -4.6018940     3.9043267    
H      0.6480933    -3.9072578     3.7633773    
H      1.2726605    -1.8927554     2.5197136    
H     -3.5813405     4.2007844     0.1524410    
H     -3.9054862     1.1231130     0.1743360    
H     -5.2557099     2.3333735     0.0827784    
H     -4.5022184     3.2906001     2.3061998    
H     -3.1655297     2.0603936     2.3539703    
