30

N      0.6666926    -1.2843698    -1.8166955    
C      1.9476924    -1.1926574    -2.1029381    
N      2.5804548    -0.2297932    -1.4106939    
C      1.6313632     0.3542542    -0.6081926    
C      0.4515397    -0.3276600    -0.8848554    
N     -0.7214861    -0.0110959    -0.2748301    
C     -0.7544962     1.0114406     0.6368347    
N      0.4361927     1.6789984     0.8954883    
C      1.6825249     1.4236831     0.3316706    
O      2.6690033     2.0802591     0.6491882    
O     -1.7916768     1.3350996     1.1967432    
C      0.3973284     2.7674456     1.8628330    
C     -1.9191765    -0.7870074    -0.5548449    
C     -1.8674454    -2.1804246     0.0842222    
C     -1.7451071    -2.0818878     1.6031004    
C     -3.1256815    -2.9513090    -0.3051522    
H      2.4341214    -1.8245427    -2.8173367    
H      3.5534748     0.0326127    -1.4538836    
H     -0.6100557     2.8315056     2.2634362    
H      0.6729914     3.6989691     1.3701030    
H      1.1166018     2.5669789     2.6555784    
H     -2.0010736    -0.8835571    -1.6381789    
H     -2.7641842    -0.2196836    -0.1608951    
H     -0.9908003    -2.7008817    -0.3140282    
H     -1.7557668    -3.0734405     2.0473451    
H     -2.5726104    -1.5068066     2.0136157    
H     -0.8174608    -1.5899654     1.8911624    
H     -3.2095311    -3.0269524    -1.3856776    
H     -4.0096603    -2.4482764     0.0789370    
H     -3.0930207    -3.9549375     0.1092902    
