39

P     -0.0327095     1.2477481    -4.6214916    
O     -0.5162683     2.6265488    -5.0125769    
O     -0.4187436     0.1456929    -5.5794207    
O      1.4064237     1.2126718    -4.1488536    
P     -0.7212434    -0.1545815    -2.1299346    
O      0.2677196    -1.1837543    -2.5680552    
O     -2.0343660    -0.6243423    -1.6017374    
O     -0.9967151     0.9733655    -3.2181240    
O     -0.0985428     0.7383214    -0.8888893    
C      1.1671260     1.3641129    -0.9885796    
C      2.2030110     0.6802829    -0.0903514    
O      1.8165032     0.7036382     1.2819908    
C      2.4373252    -0.7925492    -0.4287537    
O      3.7436871    -1.2214877    -0.1674324    
C      1.4410325    -1.5236063     0.4983730    
O      1.8832071    -2.7871958     0.8815251    
C      1.3443679    -0.5649384     1.7052598    
N      0.0491989    -0.4841922     2.3144640    
C     -1.2057125    -0.3247232     1.7815982    
N     -2.1455350    -0.2703343     2.6756881    
C     -1.5017160    -0.3955056     3.8875427    
C     -1.9500159    -0.4185812     5.2249957    
N     -3.2292819    -0.3028307     5.5812067    
N     -1.0211881    -0.5653164     6.1875355    
C      0.2481529    -0.6837088     5.8434439    
N      0.7906178    -0.6784041     4.6358882    
C     -0.1254156    -0.5264586     3.6734810    
H      1.0201317     2.3975893    -0.6544861    
H      1.5055894     1.3652707    -2.0308693    
H      3.1282423     1.2618254    -0.1720957    
H      2.2196019    -0.9988145    -1.4779826    
H      4.0536941    -0.8290086     0.6674975    
H      0.4716668    -1.6012686    -0.0103761    
H      2.8065944    -2.8840386     0.5669397    
H      2.0018197    -0.9159263     2.5186816    
H     -1.3759185    -0.2566884     0.7241222    
H     -3.4651859    -0.3393824     6.5580673    
H     -3.9237033    -0.2046862     4.8625099    
H      0.9456456    -0.8018654     6.6604118    
