30

N     -2.0771766     0.7420597    -1.8200449    
N     -4.1237277     1.6982780    -1.5058695    
C     -3.0183558     1.1490322    -0.9987845    
N     -2.9043558     1.0411922     0.3513656    
C     -1.8077496     0.4476155     0.9981633    
O     -1.8198854     0.3919325     2.2338605    
C     -0.8063124    -0.0031296     0.1039794    
C     -0.9722779     0.1923415    -1.2761408    
N     -0.0173585    -0.2194204    -2.1206520    
C      1.2841756    -0.6666500    -1.6687420    
C      1.2390369    -1.0080728    -0.1946684    
N      0.2979277    -0.6840519     0.5943818    
C      2.4290414    -1.7471076     0.3658725    
O      3.3037357    -2.0628095    -0.6927598    
C      3.1239982    -0.9022265     1.4769350    
O      3.2605355     0.4523096     1.1018284    
C      2.3987710    -1.0497396     2.8095763    
H     -4.1942076     1.7771319    -2.5053141    
H     -4.8671815     2.0249396    -0.9152314    
H     -3.6423319     1.3725979     0.9613445    
H     -0.1646640    -0.0687888    -3.1059999    
H      2.0536158     0.1066392    -1.8208094    
H      1.5945570    -1.5513039    -2.2336448    
H      2.0666351    -2.6717931     0.8418552    
H      4.1018553    -2.4776805    -0.3383179    
H      4.1568659    -1.2599934     1.5701124    
H      2.4038091     0.8842030     1.2194928    
H      2.8575883    -0.3953437     3.5461520    
H      2.4609599    -2.0748031     3.1609858    
H      1.3512201    -0.7806675     2.6889210    
