34

C      3.6451100     1.1175437    -0.6238446    
C      3.8848358     2.4558379    -0.9210633    
C      2.9267685     3.4041282    -0.5939520    
C      1.7257969     3.0248261    -0.0115935    
C      1.4237218     1.6517102     0.2261060    
C      2.4544959     0.7154914    -0.0481040    
C      0.0692276     1.3152765     0.6358597    
C     -0.4558406    -0.0937657     0.4417748    
C     -1.9829751    -0.0978304     0.2677064    
O      2.3832225    -0.6005403     0.2460948    
O     -0.7026794     2.1780942     1.0774812    
C     -2.4995235    -1.5065056     0.2156342    
C     -2.7089038    -2.1475019    -0.9969488    
C     -3.1546861    -3.4559656    -1.0443649    
C     -3.3947409    -4.1523669     0.1334876    
C     -3.1845820    -3.5189747     1.3549367    
C     -2.7424301    -2.2124015     1.3885346    
O     -3.8316995    -5.4414811     0.1462692    
O      5.0601207     2.7770811    -1.4853525    
O      0.8689572     4.0112016     0.2776347    
H      4.4025505     0.3792358    -0.8238082    
H      3.0857033     4.4558139    -0.7695874    
H     -0.2315106    -0.6764323     1.3409589    
H      0.0114168    -0.5644738    -0.4235019    
H     -2.2396028     0.4350528    -0.6492465    
H     -2.4317635     0.4390568     1.1060936    
H      1.6918746    -0.8055625     0.8900087    
H     -2.5267895    -1.6172236    -1.9197756    
H     -3.3186450    -3.9354750    -1.9987592    
H     -3.3794425    -4.0684374     2.2623891    
H     -2.5892180    -1.7298622     2.3425724    
H     -3.9426784    -5.7726018    -0.7576295    
H      5.1364305     3.7354430    -1.6203504    
H      0.0570584     3.6195784     0.6931988    
