19

C     -0.4387743    -0.5426014    -0.6312480    
C     -0.3064959    -0.0021234     1.6431191    
C      0.6363450     1.6750521     3.0320653    
C      0.7949186     2.1178078     4.4451504    
N     -1.6070464    -1.3341814    -2.9241398    
N     -0.9638821    -1.0995034     1.4121138    
N     -1.0290721    -1.4024902     0.1220915    
N     -0.0945173     0.5186956     2.8729799    
O      0.9154780    -1.4757464    -2.6280140    
O     -0.1719929     0.7206778    -2.8708148    
O      1.0930816     2.2457710     2.0553884    
S     -0.2404459    -0.6381880    -2.3809707    
S      0.3110975     0.7857184     0.1950451    
H      1.3450795     3.0533849     4.4719184    
H      1.3384233     1.3624451     5.0074849    
H     -0.1812665     2.2530621     4.9032227    
H     -2.0729090    -0.8140741    -3.6493364    
H     -1.5279281    -2.3227052    -3.0972359    
H     -0.4797789     0.0219829     3.6698070    
