15

N     -0.8345077     2.0287800     0.7975477    
C     -0.0977993     0.9870330     0.3599801    
N      1.2549885     0.9236506     0.2172975    
C      1.8480695    -0.2165673    -0.2434548    
O      3.0540736    -0.3168793    -0.3875315    
N      1.0001086    -1.2644926    -0.5417155    
C     -0.3845944    -1.3285365    -0.4402107    
O     -0.9945723    -2.3430211    -0.7470134    
C     -0.9185083    -0.0953326     0.0467509    
N     -2.1928587     0.3368726     0.3142313    
C     -2.0799286     1.6004984     0.7556656    
H      1.8397842     1.7174667     0.4487265    
H      1.4614915    -2.1025157    -0.8825514    
H     -3.0338223    -0.2080814     0.1958563    
H     -2.9147805     2.2049464     1.0458183    
