120

N      1.4518196    -7.8386168    -0.2879055    
C      1.4323067    -7.2863202     1.0882018    
C      1.1292053    -5.7843354     0.9192588    
O      1.0639500    -5.3185377    -0.2162196    
C      2.7886620    -7.4788317     1.7590666    
N      0.9515455    -5.0887812     2.0318211    
C      0.8496604    -3.6392137     2.0171169    
C      1.9963682    -3.0757932     1.1597675    
O      3.1597053    -3.3909037     1.3710037    
C      1.0052929    -3.1232243     3.4537389    
C      1.0204379    -1.5976981     3.5595100    
C     -0.3734541    -0.9642218     3.4539815    
N     -0.2272272     0.4137440     3.0356156    
C     -0.7796221     1.5016811     3.5280640    
N     -1.5142068     1.5179032     4.6398380    
N     -0.3650737     2.6987117     3.0215221    
N      1.6213193    -2.1907751     0.2317216    
C      2.5641818    -1.3861101    -0.5087416    
C      2.2152043     0.0774126    -0.2147844    
O      1.4710025     0.3531201     0.7185580    
C      2.5289679    -1.7035152    -2.0186064    
O      1.3331298    -1.1424908    -2.5521347    
C      2.6226501    -3.2026204    -2.2590451    
N      2.7520718     1.0139301    -1.0046529    
C      2.2770933     2.3781072    -0.9760776    
C      3.3716871     3.3974234    -0.6527103    
C      3.9205822     3.2675350     0.7708318    
C      2.8050293     3.2359467     1.8186546    
C      3.3285628     3.5164105     3.2256108    
N      2.3281694     3.1136964     4.2469998    
C      2.4022584     3.9549669     5.4501735    
C      2.4788926     1.6947670     4.6043952    
C      1.4851294     2.7646496    -2.2303595    
O      1.1493958     3.9263709    -2.4229827    
N      1.1392268     1.7480344    -3.0414438    
C     -0.0280948     1.8522365    -3.8946611    
C     -1.2756749     1.6706465    -3.0154388    
O     -2.2573114     2.4031502    -3.1028803    
C      0.0161185     0.8146823    -5.0141732    
C     -1.1212294     1.0051979    -6.0177086    
C     -1.5280995    -0.3184759    -6.6468673    
O     -1.3528245    -1.3942075    -6.0854764    
N     -2.1115978    -0.2229375    -7.8452881    
N     -1.1990659     0.6670561    -2.1351153    
C     -2.2019940     0.4849125    -1.1076928    
C     -2.2749177     1.7605932    -0.2586273    
O     -1.2572388     2.1982795     0.2777780    
C     -1.7761190    -0.6711857    -0.1723036    
O     -1.2031688    -1.7438558    -0.8792982    
C     -2.9596864    -1.1068893     0.6843947    
N     -3.4731480     2.3191480    -0.1279872    
C     -3.7139241     3.3759319     0.8338637    
C     -3.4207682     2.8200038     2.2698293    
O     -3.5474026     1.5978220     2.4445886    
C     -5.1482266     3.8688423     0.7440068    
O     -3.0414744     3.6426749     3.1267251    
H      2.3599247    -8.2559734    -0.5153890    
H      1.3045451    -6.9981533    -0.9016913    
H      0.7126421    -8.5233523    -0.4667172    
H      0.6450748    -7.7566155     1.6805650    
H      2.7770075    -7.1091182     2.7788811    
H      3.5627850    -6.9366221     1.2211883    
H      3.0447481    -8.5338924     1.7968417    
H      1.0658137    -5.5351971     2.9303202    
H     -0.1088728    -3.3484497     1.5772275    
H      1.9604975    -3.4984417     3.8262442    
H      0.2026907    -3.5302441     4.0692654    
H      1.6486918    -1.1965712     2.7646462    
H      1.4663545    -1.3244833     4.5143388    
H     -0.8863597    -1.0221596     4.4120860    
H     -0.9731833    -1.4934985     2.7110284    
H      0.3226727     0.5231995     2.1859737    
H     -2.0930385     2.3396380     4.7656725    
H     -1.9395010     0.6589591     4.9511797    
H     -0.1734822     2.6699567     2.0238892    
H     -1.0124985     3.4572126     3.2279295    
H      0.6444935    -2.0546626    -0.0016289    
H      3.5612367    -1.6180454    -0.1154027    
H      3.3888929    -1.2157202    -2.5028984    
H      1.0353824    -1.7007892    -3.2822285    
H      2.6481006    -3.4101079    -3.3260067    
H      1.7755676    -3.7158994    -1.8112774    
H      3.5356176    -3.5849704    -1.8112628    
H      3.4209154     0.7705101    -1.7187236    
H      1.5019132     2.4206718    -0.1992090    
H      2.9287434     4.3845737    -0.7972464    
H      4.1841887     3.2958018    -1.3739940    
H      4.5775421     4.1194943     0.9492202    
H      4.5219524     2.3610606     0.8481721    
H      2.3397592     2.2519235     1.7937125    
H      2.0539358     3.9828350     1.5548514    
H      3.5409143     4.5806322     3.3273148    
H      4.2525223     2.9660890     3.4059564    
H      1.3838240     3.2208859     3.8249950    
H      1.6771048     3.6158798     6.1850849    
H      2.1868894     4.9913260     5.2029803    
H      3.3985593     3.8936942     5.8819790    
H      2.4726597     1.0824076     3.7081947    
H      1.6604671     1.3903153     5.2502938    
H      3.4194719     1.5510303     5.1310185    
H      1.3874551     0.7947076    -2.7832747    
H     -0.0686926     2.8678477    -4.3026345    
H     -0.0846374    -0.1842354    -4.5865832    
H      0.9766463     0.8827338    -5.5240208    
H     -0.8544412     1.7242396    -6.7901591    
H     -2.0041043     1.3893393    -5.4979200    
H     -2.4405535    -1.0592651    -8.3009674    
H     -2.2659553     0.6664182    -8.2869131    
H     -0.4142515     0.0223558    -2.1218513    
H     -3.1746024     0.2899209    -1.5746549    
H     -0.9662864    -0.2813399     0.4536587    
H     -1.8847905    -2.1958856    -1.3958165    
H     -2.6945854    -1.9705792     1.2874407    
H     -3.8052853    -1.3774384     0.0549348    
H     -3.2664239    -0.2948116     1.3398866    
H     -4.2788943     1.9076160    -0.5720574    
H     -3.0115425     4.1971253     0.6470158    
H     -5.3001576     4.6643375     1.4689546    
H     -5.8375149     3.0574940     0.9727062    
H     -5.3586367     4.2539959    -0.2514493    
