126

N      2.2324228    -7.6907546     0.2272762    
C      1.8787400    -7.0079700     1.4954213    
C      1.2726852    -5.6548583     1.0737209    
O      1.2673114    -5.3534324    -0.1176215    
C      3.1232923    -6.7905779     2.3495815    
C     -0.3258781     3.1610447     2.8281289    
C      0.1422120     3.9355876     5.1334827    
N      0.7813135    -4.8968733     2.0435334    
C      0.3354691    -3.5389249     1.7790988    
C     -0.1104762    -2.8783211     3.0830304    
C     -0.6176492    -1.4582585     2.8408582    
C     -0.9174094    -0.7273054     4.1521545    
N     -0.9240973     0.6964283     3.8837518    
C     -0.4181614     1.6171395     4.6891238    
N     -0.0486531     1.2839260     5.9423652    
N     -0.0573270     2.8217214     4.2123915    
C      1.5260733    -2.7616322     1.1888773    
O      2.6038731    -2.7270906     1.7642495    
N      1.2927686    -2.1729121     0.0136472    
C      2.2623569    -1.3099466    -0.6215843    
C      1.8880558     0.1446015    -0.2918974    
O      1.1469351     0.3948598     0.6510028    
C      2.3304254    -1.5825592    -2.1425477    
O      1.1866473    -1.0501051    -2.7878865    
C      2.5160032    -3.0687874    -2.4247069    
N      2.4387058     1.0922477    -1.0604945    
C      2.0329383     2.4769606    -0.9969246    
C      3.2225556     3.4042492    -0.7146974    
C      4.0323887     2.9745616     0.5115663    
C      3.1779686     2.8713324     1.7747723    
C      3.9988841     2.4009331     2.9751447    
N      3.1257886     1.8280915     4.0301030    
C      3.7624429     1.8980480     5.3549378    
C      2.7398476     0.4408534     3.7254067    
C      1.2514017     2.9277604    -2.2382217    
O      0.8974151     4.0926693    -2.3642967    
N      0.9862801     1.9663155    -3.1399926    
C     -0.0737674     2.0934754    -4.1190031    
C     -1.4123513     1.7380305    -3.4510232    
O     -2.4354862     2.3927228    -3.6240646    
C      0.1990580     1.1796097    -5.3146517    
C     -0.8425501     1.3572388    -6.4186600    
C     -0.9722899     0.1036600    -7.2695998    
O     -0.7491760    -1.0180742    -6.8298723    
N     -1.3725544     0.3098779    -8.5291618    
N     -1.3673148     0.6349433    -2.6946337    
C     -2.4210813     0.2982553    -1.7645045    
C     -2.6824043     1.5199020    -0.8668643    
O     -1.7587282     2.2562821    -0.5366898    
C     -1.9565619    -0.8711197    -0.8673624    
O     -1.2991826    -1.8719360    -1.6172113    
C     -3.1238805    -1.4416753    -0.0702480    
N     -3.9510006     1.6892161    -0.4893288    
C     -4.3099023     2.6275504     0.5514209    
C     -3.5790596     2.2559052     1.8874929    
O     -3.0033793     1.1526243     1.9450626    
C     -5.8163695     2.6581504     0.7536200    
O     -3.6116986     3.1073784     2.7915058    
H      3.2343946    -7.9025670     0.1760385    
H      1.9974470    -6.9872530    -0.5174296    
H      1.6996738    -8.5479235     0.0580186    
H      1.1337797    -7.5846595     2.0467732    
H      2.8703298    -6.3247003     3.2957460    
H      3.8299714    -6.1409696     1.8391495    
H      3.5992312    -7.7417375     2.5701851    
H      0.2785019     4.0178536     2.5435646    
H     -1.3737399     3.4235096     2.6616435    
H     -0.0851403     2.3257890     2.1716419    
H     -0.7208448     4.0749657     5.7866261    
H      0.2565165     4.8481441     4.5566914    
H      1.0408046     3.7944613     5.7334143    
H      0.8755406    -5.1763401     3.0089040    
H     -0.4798819    -3.5686120     1.0496120    
H      0.7535782    -2.8441389     3.7493451    
H     -0.8950056    -3.4791963     3.5440996    
H     -1.5185951    -1.4663673     2.2293608    
H      0.1360519    -0.8900346     2.2952135    
H     -0.1295489    -0.9491147     4.8731856    
H     -1.8812489    -1.0539939     4.5540480    
H     -1.4933272     0.9747332     3.0826676    
H     -0.5129341     0.4984379     6.3696478    
H      0.2044794     2.0229313     6.5779977    
H      0.3679376    -2.1995637    -0.3958544    
H      3.2312993    -1.5328299    -0.1579321    
H      3.1791764    -1.0389590    -2.5696768    
H      0.4411835    -1.6539748    -2.6263429    
H      2.4752960    -3.2376035    -3.4974576    
H      1.7417562    -3.6592336    -1.9414619    
H      3.4845064    -3.3917888    -2.0562917    
H      3.1020612     0.8492056    -1.7803362    
H      1.2880993     2.5607945    -0.1956313    
H      2.8261455     4.4125223    -0.5904809    
H      3.8730350     3.4180501    -1.5912215    
H      4.8312294     3.7020606     0.6590585    
H      4.4941183     2.0076697     0.3074527    
H      2.3752526     2.1620278     1.5862365    
H      2.7295936     3.8447258     1.9759095    
H      4.5582055     3.2399826     3.3892160    
H      4.7111125     1.6347111     2.6665565    
H      2.2641085     2.3883548     4.0477432    
H      3.1112454     1.4564925     6.1041080    
H      3.9695566     2.9302942     5.6250486    
H      4.7001830     1.3474881     5.3370207    
H      2.2183224     0.3823556     2.7737027    
H      2.0838645     0.0644461     4.5034959    
H      3.6252516    -0.1878884     3.6752505    
H      1.2691938     1.0091366    -2.9505937    
H     -0.1365500     3.1422903    -4.4275438    
H      0.1834591     0.1368826    -4.9892908    
H      1.1916688     1.4004424    -5.7076322    
H     -0.6092262     2.2178114    -7.0438595    
H     -1.8238607     1.5328154    -5.9673407    
H     -1.5176043    -0.4828303    -9.1338587    
H     -1.5762834     1.2311857    -8.8744882    
H     -0.4851044     0.1505982    -2.5779971    
H     -3.3313004     0.0452037    -2.3205064    
H     -1.2000331    -0.4685982    -0.1830720    
H     -1.9422577    -2.3199868    -2.1866613    
H     -2.8172741    -2.3573144     0.4284016    
H     -3.9649137    -1.6677492    -0.7223260    
H     -3.4352614    -0.7193374     0.6801217    
H     -4.6497608     1.0108238    -0.7510711    
H     -3.9375060     3.6218814     0.2722660    
H     -6.0480470     3.3438473     1.5649405    
H     -6.1793654     1.6678659     1.0233756    
H     -6.3179149     2.9963468    -0.1500246    
