51

N     -0.4533820     8.8275265    -2.7132723    
C     -1.0319921     7.8569844    -2.5175945    
C     -1.7563899     6.6703358    -2.2683984    
C     -1.9755394     6.2490905    -0.9560368    
C     -2.6918425     5.0938910    -0.7161916    
C     -2.2546127     5.9286320    -3.3395933    
C     -2.9654766     4.7828788    -3.0598902    
C     -3.2005885     4.3354838    -1.7646992    
C     -3.9987208     3.0822843    -1.5118985    
O     -3.7059175     2.4709764    -0.2711720    
C     -2.5193184     1.8290291    -0.1055167    
C     -1.5134043     1.7599219    -1.0902732    
C     -0.3526062     1.0823297    -0.8413736    
C     -2.3210503     1.2212443     1.1167845    
C     -1.1349055     0.5272677     1.3989012    
C     -0.1268138     0.4504722     0.3972818    
C      1.0642560    -0.2486395     0.6799060    
C     -0.9118235    -0.0992423     2.6486036    
C      0.2541608    -0.7649549     2.8997305    
C      1.2353550    -0.8284660     1.9017110    
S      2.7274833    -1.7278392     2.2334431    
O      3.6873598    -1.4415438     1.1815105    
O      3.1837032    -1.4241626     3.5783673    
N      2.1920638    -3.3061231     2.2516834    
C      2.1576868    -3.8443991     0.8983772    
C      3.6264240    -4.0613019     0.4188817    
O      4.4470620    -4.3198924     1.3234920    
O      3.8611121    -3.9694840    -0.7996530    
C      1.3909309    -5.1664007     0.8747029    
C      1.1607783    -5.6747080    -0.5412082    
C      1.1071589    -7.2263833    -0.6354757    
O      1.7024199    -7.8890306     0.2339039    
O      0.4822675    -7.6980131    -1.6081556    
F     -3.4519616     4.0572781    -4.1021073    
H     -1.5858230     6.8315917    -0.1369738    
H     -2.8614983     4.7573997     0.2945547    
H     -2.0904058     6.2332587    -4.3601844    
H     -3.8769069     2.3735205    -2.3399182    
H     -5.0602136     3.3397135    -1.4400241    
H     -1.6443622     2.2368932    -2.0474157    
H      0.4167043     1.0194375    -1.5945380    
H     -3.0968932     1.2826511     1.8620648    
H      1.8541992    -0.3362744    -0.0506059    
H     -1.6791504    -0.0442528     3.4029631    
H      0.4681166    -1.2481720     3.8373561    
H      2.8643805    -3.8570036     2.7822265    
H      1.6771985    -3.1060020     0.2493547    
H      0.4402991    -5.0370546     1.3966679    
H      1.9788168    -5.9208203     1.4097640    
H      2.0027235    -5.3777598    -1.1726809    
H      0.2477266    -5.2745649    -0.9826563    
