113

N     -1.7949349    -2.9701673     5.7904775    
C     -1.8712328    -2.4220793     4.4172570    
C     -3.1490120    -3.0081626     3.7932280    
O     -3.6392638    -4.0045776     4.3126287    
C     -0.6826063    -2.9345284     3.5823699    
C      0.6297209    -2.3987058     4.0888195    
C      1.0852854    -1.1528036     3.6720382    
C      1.4100911    -3.1297450     4.9766313    
C      2.2908645    -0.6533134     4.1187827    
C      2.6175262    -2.6348479     5.4356669    
C      3.0709387    -1.3931074     5.0055110    
O      4.2492638    -0.8690592     5.4270405    
N     -3.6206535    -2.3825448     2.7272059    
C     -4.6847716    -2.8995624     1.8893931    
C     -4.6402431    -2.1041455     0.5831655    
O     -4.0590004    -1.0271587     0.5280436    
C     -6.0471452    -2.7320013     2.5701231    
N     -5.3839211    -2.6192550    -0.4201418    
C     -5.1621338    -2.1658773    -1.7815405    
C     -3.9899058    -2.9826911    -2.3318367    
O     -3.9934376    -4.2043941    -2.2271619    
N     -3.0136091    -2.2826519    -2.9355357    
C     -1.6756148    -2.8298233    -2.9556857    
C     -0.7480076    -1.9678092    -3.8152648    
O     -0.3034871    -0.8226921    -3.1337725    
C     -1.1709939    -2.8580076    -1.5041727    
O     -1.9658417    -2.7831197    -0.5579661    
P     -1.2491301     0.5708837    -3.3602340    
O     -2.4669234     0.3811607    -2.4543908    
O     -0.3230688     1.6835038    -2.9066746    
O     -1.6142313     0.5925762    -4.8286959    
N      0.1314216    -2.9955138    -1.3330730    
C      0.7739587    -2.8551719    -0.0432649    
C      2.1909022    -3.4618528    -0.1091900    
C      2.6692043    -3.8554306     1.2849369    
O      2.2012803    -4.5826424    -0.9607430    
P      2.8855144    -4.3104231    -2.4969007    
O      4.3511248    -4.0196824    -2.2403937    
O      2.1337729    -3.1075386    -3.0966733    
O      2.5991274    -5.6144569    -3.2033400    
C      0.8302742    -1.3434594     0.2340753    
O      1.8653122    -0.7014435     0.1429306    
N     -0.3516285    -0.8090277     0.6212467    
C     -0.6290786     0.6120410     0.3909992    
C      0.6308457     1.4491066     0.5732136    
O      1.1207437     1.6676979     1.6838089    
C     -1.7081989     1.1151382     1.3376993    
C     -2.0477255     2.5809249     0.9321905    
O     -1.0809255     3.3383520     0.7013267    
O     -3.2464794     2.9075087     0.9090850    
N      1.1441348     1.9309505    -0.5562671    
C      2.3474352     2.7380619    -0.6010235    
C      1.8794261     4.1491205    -0.2607229    
O      1.7302307     5.0556962    -1.0829737    
C      2.9827003     2.6057231    -1.9789439    
C      4.2885715     3.3737377    -2.1304626    
C      4.8530916     3.0654499    -3.5481901    
O      4.3241808     3.6501256    -4.5135713    
O      5.8001259     2.2563691    -3.6155618    
N      1.6196330     4.3604985     1.0312748    
C      0.9461089     5.6106420     1.3538367    
C      0.3626758     6.2035662     0.0706158    
O      0.4871918     7.3660299    -0.2502902    
C      1.9055916     6.5890996     2.0443386    
C      2.2169735     6.1012326     3.4477145    
O      1.6300590     6.5229774     4.4353943    
N      3.2063121     5.2026001     3.5273288    
H     -0.8251313    -3.2138054     6.0300298    
H     -2.4052888    -3.8213963     5.7575964    
H     -2.1673802    -2.3171265     6.4875054    
H     -1.8801425    -1.3322775     4.4029168    
H     -0.8165672    -2.6141175     2.5477441    
H     -0.6765325    -4.0259451     3.5966003    
H      0.5204136    -0.5657074     2.9627678    
H      1.1069095    -4.1214507     5.2763755    
H      2.6368784     0.2994164     3.7486351    
H      3.2194604    -3.2240230     6.1095144    
H      4.7064060    -1.4968690     6.0122785    
H     -3.1472452    -1.5787357     2.3288960    
H     -4.4884270    -3.9568666     1.6766281    
H     -6.8294102    -3.1073914     1.9208735    
H     -6.2238253    -1.6780446     2.7661173    
H     -6.0421913    -3.2876513     3.5035454    
H     -5.5843025    -3.6123740    -0.3733565    
H     -4.9001820    -1.1069962    -1.7784757    
H     -6.0634628    -2.3444019    -2.3693335    
H     -2.9967799    -1.2607746    -2.8283573    
H     -1.7060078    -3.8530822    -3.3479274    
H     -1.2722358    -1.6437642    -4.7237616    
H      0.1541972    -2.5270379    -4.0919962    
H      0.7896422    -2.9953901    -2.1286315    
H      0.1496138    -3.3730673     0.6940684    
H      2.8519181    -2.6925669    -0.5441923    
H      3.6941032    -4.2042695     1.2069656    
H      2.0360021    -4.6546591     1.6579088    
H      2.6170812    -2.9788860     1.9247709    
H     -1.1696445    -1.3891967     0.4225199    
H     -0.9718059     0.7378472    -0.6462673    
H     -1.3216378     1.1138629     2.3596078    
H     -2.6116210     0.5164624     1.2354070    
H      0.6457686     1.7912444    -1.4369098    
H      3.0194442     2.3591529     0.1795462    
H      2.2611235     2.9489100    -2.7296384    
H      3.1453865     1.5374139    -2.1721140    
H      5.0101901     3.0386656    -1.3845617    
H      4.0896075     4.4421769    -2.0425604    
H      1.4582890     3.5323105     1.6047256    
H      0.0841010     5.3759688     1.9879908    
H     -0.4118494     5.5508852    -0.3715266    
H      1.4089146     7.5580310     2.0892007    
H      2.8061867     6.6711586     1.4375685    
H      3.3650099     4.7407322     4.4101915    
H      3.5434430     4.7618997     2.6880626    
