43

P      1.1823930     2.7441015     2.6788248    
O      1.9744309     1.8938751     3.6462974    
O      2.0161192     3.3873727     1.5917889    
O      0.1810367     3.6710957     3.3339998    
P     -1.2440445     1.3064833     2.2824094    
O     -1.3123239     0.7744958     3.6713566    
O     -2.2340324     2.3419424     1.8716344    
O      0.2305337     1.6217784     1.7810824    
P     -0.3487498    -0.4085212     0.2112322    
O     -0.1466108     0.6183734    -0.8427777    
O      0.8062701    -1.0634505     0.8936323    
O     -1.5062919     0.0094957     1.2894254    
O     -1.2476852    -1.5714356    -0.5198432    
C     -1.3342098    -2.8898223     0.0102005    
C     -0.5200412    -3.8758202    -0.8433992    
O     -0.8519905    -3.7902721    -2.2262229    
C      0.9915061    -3.6322960    -0.7889728    
O      1.6775252    -4.8341274    -0.9922214    
C      1.2192914    -2.6432124    -1.9562977    
O      2.4248185    -2.9116983    -2.6123085    
C      0.0105938    -2.9077148    -2.8866126    
N     -0.6692853    -1.6837735    -3.2531212    
C     -2.0207941    -1.4913030    -3.2912656    
N     -2.3826875    -0.2762919    -3.5704654    
C     -1.2002312     0.4161250    -3.6894257    
C     -0.8885371     1.7625905    -3.9295673    
N     -1.8222643     2.7097863    -4.1835924    
N      0.4061382     2.1047684    -4.0206076    
C      1.3235638     1.1693558    -3.8524404    
N      1.1706363    -0.1188755    -3.5993556    
C     -0.1181584    -0.4569118    -3.4820640    
H     -2.3952792    -3.1514955    -0.0238048    
H     -0.9750404    -2.8924912     1.0433805    
H     -0.7578170    -4.8975367    -0.5331085    
H      1.2833236    -3.1631440     0.1589637    
H      2.4158193    -4.6507615    -1.6093942    
H      1.1613251    -1.6232394    -1.5649044    
H      3.0268896    -2.1527034    -2.5399416    
H      0.3544783    -3.4006071    -3.8102567    
H     -2.6948858    -2.3052471    -3.1173030    
H     -1.5008654     3.6575340    -4.0580584    
H     -2.7465959     2.4916712    -3.8442052    
H      2.3481936     1.5050945    -3.9496248    
