22

Br    -1.8955566     2.5595717    -1.0243319    
C     -0.1611500     1.9429645    -0.4948976    
C      0.0780200     0.5826988    -0.4481479    
C      0.8134692     2.8710047    -0.1714432    
C      2.0702189     2.4188877     0.1936027    
C      2.3362407     1.0622083     0.2377195    
C      1.3392231     0.1377655    -0.0636050    
C      1.6762029    -1.3123632    -0.0196900    
O      2.7670203    -1.7240437    -0.4144069    
C      0.6783815    -2.1789491     0.5444892    
O      0.8744148    -3.5502636     0.5274979    
C     -0.1677572    -4.0574354     1.2001078    
N     -0.2847113    -5.3674531     1.3498253    
N     -1.0063530    -3.1404066     1.6574558    
C     -0.4855751    -1.9669289     1.2552369    
H     -0.6899273    -0.1187330    -0.7327714    
H      0.5941566     3.9261057    -0.2161370    
H      2.8430532     3.1295266     0.4378941    
H      3.3139717     0.6964160     0.5095275    
H     -1.0658413    -5.7314975     1.8679016    
H      0.4266805    -5.9725810     0.9757432    
H     -0.9559235    -1.0395594     1.5095481    
