97

N     -3.1498297     7.0267181    -1.6212468    
C     -3.7433880     5.7339380    -2.0413656    
C     -3.2498185     5.3104472    -3.4444526    
O     -3.9964534     5.3762367    -4.4071367    
C     -3.4300890     4.6325097    -0.9971243    
O     -3.6144476     3.3411547    -1.5306798    
N     -1.9862654     4.8800697    -3.5013436    
C     -1.4122579     4.2803955    -4.6847565    
C     -1.0346222     2.8063501    -4.4501276    
O     -0.2209758     2.2355074    -5.1668151    
C     -0.1869893     5.0629005    -5.1715791    
C     -0.5385540     6.4127898    -5.7979366    
C     -1.3054404     6.2856215    -7.1266076    
C     -2.7304776     6.8213512    -7.0046933    
N     -3.4766498     6.6236127    -8.2716054    
N     -1.6542690     2.2154620    -3.4216211    
C     -1.3973493     0.8456668    -3.0513113    
C     -1.3790821     0.6713022    -1.5728811    
O     -1.0410796    -0.3370463    -0.9982686    
N     -0.7240850    -1.1114243     1.6448929    
C     -0.3140464    -2.5349903     1.5630083    
C      0.1666674    -3.0143566     2.9405238    
O     -0.5318063    -3.7211839     3.6570755    
C      0.7258805    -2.6810162     0.4359820    
C      1.6383052    -3.9101028     0.5288646    
C      0.8948860    -5.2084441     0.8402088    
C      1.8800214    -6.3536043     1.1227725    
N      1.2569734    -7.3734317     1.9387350    
N      1.3634533    -2.5394364     3.3025546    
C      2.0333136    -2.9883189     4.5070926    
C      3.0536206    -1.9465568     4.9700793    
C      2.4599488    -0.5307628     4.9988820    
C      2.8885549     0.3044691     3.7813702    
N      1.9931623     1.4045850     3.5458320    
O      0.7866289     1.0438644     2.9443069    
C      2.0990704     2.6602916     3.9537109    
O      1.2123129     3.4890256     3.7614171    
C      2.7128185    -4.3331617     4.1833229    
O      3.8618332    -4.3976281     3.7713615    
N      1.8991661    -5.3968508     4.2866392    
C      2.3608670    -6.7490594     4.0527129    
C      1.3173219    -7.5540963     3.2593757    
O      0.5671071    -8.3468804     3.8237245    
C      2.6744242    -7.4780894     5.3682409    
O      3.4898920    -8.5814539     5.0458778    
H     -3.4944384     7.2883807    -0.6867737    
H     -3.4181937     7.7804805    -2.2683898    
H     -2.1228518     6.9857992    -1.5785543    
H     -4.8264264     5.8598115    -2.1385179    
H     -4.0471731     4.7806959    -0.1061607    
H     -2.3794774     4.6806061    -0.6979989    
H     -4.5537371     3.1204144    -1.5675594    
H     -1.4096905     4.8425018    -2.6727080    
H     -2.1867256     4.2812052    -5.4592829    
H      0.3402258     4.4398115    -5.8954328    
H      0.4926176     5.2156902    -4.3314484    
H      0.3935294     6.9526088    -5.9616880    
H     -1.1298933     6.9955314    -5.0927056    
H     -1.3222304     5.2382896    -7.4304287    
H     -0.7756053     6.8384353    -7.9030758    
H     -2.6987761     7.8884417    -6.7830041    
H     -3.2667989     6.3078738    -6.2048395    
H     -4.4318752     6.9892911    -8.1908311    
H     -3.5291589     5.6248510    -8.5024124    
H     -3.0043036     7.1049967    -9.0453390    
H     -2.3883787     2.6894726    -2.8995463    
H     -0.4482754     0.5298321    -3.4999969    
H     -2.1633848     0.1686822    -3.4559730    
H     -1.7374803     1.5458199    -1.0075913    
H     -0.9226825    -0.7697246     0.6744994    
H      0.0107667    -0.5101643     2.0524935    
H     -1.5674100    -1.0120377     2.2175306    
H     -1.1967122    -3.1361266     1.3293090    
H      1.3610951    -1.7956438     0.4062700    
H      0.1809195    -2.7202140    -0.5073050    
H      2.4036299    -3.7732272     1.2944813    
H      2.1642486    -4.0246180    -0.4198422    
H      0.2363872    -5.4801307     0.0156896    
H      0.2821319    -5.0881255     1.7338079    
H      2.7569021    -5.9683723     1.6431489    
H      2.2161291    -6.8183707     0.1939543    
H      0.5517654    -7.9369832     1.4787515    
H      1.9564103    -2.1062949     2.6085712    
H      1.2649940    -3.1515320     5.2693323    
H      3.9240034    -1.9931308     4.3134283    
H      3.3953299    -2.2367764     5.9626882    
H      2.7732526    -0.0165761     5.9063753    
H      1.3717046    -0.6001081     5.0235715    
H      2.8970077    -0.3013279     2.8748776    
H      3.8892852     0.7095913     3.9296653    
H      3.0493147     2.8922285     4.4440972    
H      0.9568791    -5.2825410     4.6370975    
H      3.3005643    -6.6959919     3.4929146    
H      1.7375010    -7.8022342     5.8361184    
H      3.2056228    -6.7892698     6.0403987    
H      3.5896529    -9.1502721     5.8192348    
H      0.2493858     1.8682233     2.9776968    
