25

N     -0.3074604     0.3935455    -1.9317418    
C      0.3406514    -0.3200035    -3.0467045    
O      1.4293197    -1.4637306     3.0659122    
C      0.7556941    -1.0656451     2.0924642    
O     -0.0150168    -1.7630640     1.4003839    
C      0.9149218     0.4407884     1.7236512    
C      0.5599635     0.2457980    -0.7334683    
C     -1.6324854    -0.2039182    -1.6955868    
C     -0.4627099     1.8098930    -2.2996891    
C      0.0404820     0.8841980     0.5523954    
H      1.3327369     0.0873782    -3.2255057    
H      0.4348169    -1.3758496    -2.8042806    
H     -0.2552386    -0.2135239    -3.9499364    
H      1.9763905     0.6068456     1.5268307    
H      0.6623777     0.9988940     2.6285881    
H      1.5408654     0.6640189    -0.9641784    
H      0.6725002    -0.8202874    -0.5251686    
H     -1.5192517    -1.1828422    -1.2326214    
H     -2.2182350     0.4216108    -1.0278607    
H     -2.1630966    -0.3056516    -2.6391316    
H     -0.9581956     2.3533694    -1.5005404    
H      0.5126017     2.2556768    -2.4786459    
H     -1.0628127     1.8878604    -3.2028818    
H      0.0551973     1.9727599     0.4975314    
H     -0.9696014     0.5395343     0.7714620    
