33

O     -2.3114173    -1.7658804     3.7526193    
C     -1.2276777    -1.4383557     3.0022470    
C     -1.2952408    -1.3186509     1.6200794    
C     -0.0151006    -1.2243170     3.6538871    
C      1.1043595    -0.8809227     2.9224372    
C      1.0346498    -0.7468027     1.5453988    
C     -0.1679632    -0.9702013     0.8894561    
C     -0.2979250    -0.7941239    -0.6138782    
C     -0.6473978     0.6493402    -0.9182494    
C     -2.0318031     1.0557754    -0.8062000    
O     -2.9322100     0.2607394    -0.5426581    
C     -2.3237116     2.5112790    -1.0857052    
C     -1.1444827     3.4087270    -0.7340857    
C      0.0874622     2.9641813    -1.5161415    
C      0.3309632     1.5092009    -1.2958104    
N      1.5989081     1.0442447    -1.5229205    
C      1.8877804    -0.2857067    -1.6121081    
S      3.3934293    -0.7660006    -2.1395494    
N      0.9201419    -1.1528450    -1.3189297    
H     -3.0933140    -1.8822832     3.1913369    
H     -2.2345114    -1.4693261     1.1062930    
H      0.0228150    -1.3299973     4.7263414    
H      2.0425366    -0.7154428     3.4293276    
H      1.9223699    -0.4800559     0.9914774    
H     -1.1117794    -1.4346038    -0.9737231    
H     -3.2242871     2.7933389    -0.5392729    
H     -2.5491278     2.5907082    -2.1535275    
H     -0.9421666     3.3369193     0.3360431    
H     -1.3846639     4.4450789    -0.9689204    
H      0.9651820     3.5357744    -1.2128123    
H     -0.0724354     3.1365182    -2.5847161    
H      2.3327409     1.6842989    -1.7999280    
H      1.1621049    -2.1322106    -1.3596640    
