35

C      1.7026733    -4.2963753    -2.1520152    
C      1.3976515    -3.3322159    -1.2071860    
C      1.4210803    -0.8327774     0.4805700    
C      1.1179475     0.1339854     1.4122277    
C      1.5407918    -4.0378961    -3.4992729    
C     -0.5745274    -0.3030504    -0.7392540    
C      0.7437300    -1.8319552    -2.9646195    
C      0.5777626    -1.0609075    -0.6110894    
C      0.9116500    -2.0910894    -1.6075006    
C     -0.9181020     0.6823768     0.1915920    
C     -0.0424176     0.8918044     1.2774982    
C      1.0626085    -2.7962995    -3.9110990    
C     -2.4018932     2.4247579     0.9926768    
C     -2.1256020     1.4743919     0.0668614    
C     -1.5200746     2.6406263     2.0804847    
C      0.2816217     2.2975838     3.3479879    
C     -3.0546941     1.2376509    -1.0775055    
N     -1.6192291     3.4990863     3.0564319    
N     -0.5162340     3.2849713     3.8269510    
N     -0.3725068     1.8715988     2.1993755    
O      1.3315964     1.8890588     3.8300807    
O      0.9265391    -2.5747457    -5.2454818    
H      2.0715870    -5.2600586    -1.8362292    
H      1.5153153    -3.5480830    -0.1564335    
H      2.3290891    -1.4058432     0.5841034    
H      1.7688940     0.3202723     2.2515284    
H      1.7801265    -4.7766177    -4.2474723    
H     -1.2330755    -0.4957029    -1.5695630    
H      0.3888613    -0.8622265    -3.2816818    
H     -3.2831231     3.0410177     0.9453442    
H     -3.4106404     0.2096081    -1.0690010    
H     -2.5473401     1.4190602    -2.0232577    
H     -3.9096518     1.9034116    -1.0084538    
H     -0.3629561     3.8358851     4.6566710    
H      0.6036551    -1.6758871    -5.4111824    
