62

N      1.6318223    -4.0203335     1.0490723    
N     -1.8630081    -4.1027888     1.9605776    
C     -1.6007624    -2.2385101     0.9143211    
N     -2.5056341    -3.0038429     1.5278586    
N     -2.0040395    -1.0305538     0.3807453    
C     -1.2604714    -0.2000370    -0.4076484    
C     -1.9318863     1.0334582    -0.8422805    
O     -0.1075453    -0.4785679    -0.7396346    
C     -1.3722075     1.7430760    -1.9076750    
C     -1.9336665     2.9037210    -2.3808049    
C     -3.6439131     2.7290971    -0.7156823    
C     -3.0824658     1.5641702    -0.2525089    
C     -0.5664075    -4.0462990     1.6321530    
C     -0.3437514    -2.8630278     0.9592810    
C      1.0883331    -2.7450016     0.5746442    
C      0.6625740    -4.8590530     1.7700758    
N     -3.7202149     4.5544109    -2.2971188    
C     -3.2055423     5.2789615    -3.4400691    
C     -2.2494809     6.3871145    -2.9923810    
N     -2.9664140     7.3027153    -2.1203205    
C     -3.4973797     6.5886094    -0.9722066    
C     -4.4408800     5.4755016    -1.4412616    
C     -2.1462467     8.4272675    -1.7246228    
C     -3.0984501     3.4416764    -1.8016806    
C      2.8629472    -4.4700278     0.8377917    
O      3.2433700    -5.5789961     1.2266059    
C      4.2426699    -2.4230174     1.0266702    
C      4.0501522    -1.0998573     0.6510393    
C      4.8207378    -2.7059020     2.2586932    
C      4.4299832    -0.0733533     1.4995370    
C      5.2030124    -1.6786348     3.1031610    
C      3.8558077    -3.5643440     0.1063300    
C      5.0075327    -0.3602332     2.7250006    
O      4.9804711    -4.3325407    -0.2552769    
H     -2.3809768    -4.8124796     2.4553134    
H     -2.9815344    -0.8265595     0.5335858    
H     -0.4701333     1.3530476    -2.3574511    
H     -1.4419912     3.4040451    -3.1987015    
H     -4.5403247     3.0820792    -0.2330958    
H     -3.5414984     1.0836607     0.5982144    
H      1.2209589    -2.6316456    -0.5043698    
H      1.5836015    -1.9016364     1.0658263    
H      0.9860509    -4.9952224     2.8075073    
H      0.6028206    -5.8452329     1.2988049    
H     -4.0601867     5.7430975    -3.9392466    
H     -2.7233812     4.6038048    -4.1433818    
H     -1.8934370     6.9443499    -3.8610190    
H     -1.3758929     5.9404105    -2.4803801    
H     -4.0469675     7.2973473    -0.3497672    
H     -2.6884529     6.1411798    -0.3630711    
H     -4.8618235     4.9709012    -0.5768847    
H     -5.2517665     5.9175549    -2.0241950    
H     -1.2549828     8.1226811    -1.1520284    
H     -1.8205248     8.9602902    -2.6159189    
H     -2.7408737     9.1013911    -1.1107367    
H      3.6010815    -0.8722547    -0.3050221    
H      4.9703567    -3.7357799     2.5504971    
H      4.2741297     0.9516622     1.1989721    
H      5.6532294    -1.9091465     4.0568516    
H      3.4048747    -3.1686764    -0.8132735    
H      5.3064813     0.4412718     3.3830953    
H      4.8877962    -5.1922480     0.2006244    
