37

C     -0.8338491     4.3813698     2.6922928    
C     -0.8787315     3.1589525     1.8080290    
C      0.5037648     2.4968507     1.6998211    
C      0.4577555     1.3153790     0.7969095    
C      0.4718489    -0.0065175     1.1047612    
S      0.2832269     1.5343974    -0.9165996    
C      0.2508800    -0.1706255    -1.1948765    
C      0.3519023    -0.8568819    -0.0260175    
C      0.2999976    -2.3551689     0.0223603    
C     -0.6672879    -2.7695687     1.1913329    
O     -0.1220572    -3.4172312     2.1100184    
O     -1.8549128    -2.4239577     1.1091318    
O      1.5782021    -2.9020658     0.2987754    
C     -0.2542012    -2.8921387    -1.3012224    
C      0.4432770    -2.2535818    -2.5035455    
O      0.0078800    -2.8124787    -3.7215932    
C      0.1453796    -0.7485644    -2.5703206    
O      1.0634408    -0.1696426    -3.4709934    
C     -1.8158798     5.4936264     2.4798913    
C     -0.3738040     5.6885128     2.1208086    
H     -0.5497939     4.1638068     3.7151363    
H     -1.2110052     3.4376097     0.8062049    
H     -1.5893544     2.4294013     2.2068626    
H      0.8347898     2.1692483     2.6867974    
H      1.2157006     3.2287780     1.3142273    
H      0.5553010    -0.3919201     2.1070898    
H      1.4633738    -3.3619455     1.1609567    
H     -1.3265228    -2.6817436    -1.3320435    
H     -0.1090692    -3.9743893    -1.3199390    
H      1.5314163    -2.3693483    -2.3885567    
H      0.2953922    -3.7349742    -3.7707620    
H     -0.8824362    -0.6344345    -2.9557657    
H      0.8336200     0.7612360    -3.6142603    
H     -2.2067123     6.0059427     3.3452504    
H     -2.5291045     5.3866521     1.6773000    
H     -0.1143467     5.7139665     1.0739731    
H      0.2260878     6.3393753     2.7375655    
