35

C     -2.9809333     0.1865156     0.8908717    
C     -3.3901078     0.5712321     2.1668673    
C     -4.6243797     0.1560507     2.6137807    
C     -5.4575018    -0.6385156     1.8203715    
C     -5.0714832    -1.0480179     0.5632680    
C     -3.8267180    -0.6322617     0.1052630    
N     -3.1870664    -0.8884314    -1.0730818    
C     -1.9756103    -0.2651628    -1.0682454    
C     -1.7955790     0.4105672     0.1143032    
C     -0.6766806     1.2298828     0.5083018    
C     -0.6555308     2.4121491     1.2384568    
N      0.5869622     2.9009563     1.3718020    
C      1.3735776     2.0410295     0.7379719    
C      2.7596791     2.0204324     0.5335704    
N      3.3616992     1.0663952    -0.1163445    
N      0.6274933     0.9923916     0.1924556    
C      1.2543788    -0.0171237    -0.4610678    
C      2.6183639     0.0337375    -0.6055279    
C      3.3558776    -1.0128608    -1.2867861    
C      4.7533835    -1.0531812    -1.4917307    
C      2.8979997    -2.1831502    -1.8729992    
N      3.9761080    -2.8149313    -2.3634355    
N      5.1059457    -2.1427305    -2.1398337    
H     -2.7477575     1.1755480     2.7895376    
H     -4.9598768     0.4447665     3.5990058    
H     -6.4190285    -0.9393238     2.2078188    
H     -5.7118782    -1.6677626    -0.0449204    
H     -3.5602963    -1.4290241    -1.8351824    
H     -1.3351627    -0.3110545    -1.9271273    
H     -1.4939880     2.9368594     1.6524130    
H      3.3705763     2.8202647     0.9251160    
H      0.6488894    -0.8319266    -0.8184705    
H      5.4757106    -0.3261924    -1.1850574    
H      1.9148794    -2.5930288    -1.9692280    
H      4.0123937    -3.6963707    -2.8527457    
