57

N      0.5959739     0.9579451     0.6333419    
C     -0.7187616     0.4474357     0.9244979    
C     -0.7276116    -0.2041016     2.3137120    
C      0.3517005    -1.2809019     2.4851924    
N      0.5405305    -1.4663720     3.9698972    
C     -0.0675659    -2.6778437     1.9789239    
C     -0.3781319    -2.8082942     0.5115205    
C     -1.6727458    -2.6341544     0.0372521    
C     -1.9617216    -2.7855991    -1.3049365    
C     -0.9760869    -3.1255787    -2.2286425    
C      0.3130025    -3.3145764    -1.7459930    
C      0.6050900    -3.1638095    -0.4008539    
C     -1.3470581    -3.2904708    -3.6928128    
C     -2.3945668    -4.4073379    -3.8187137    
C     -1.9306563    -1.9698360    -4.2160692    
C     -0.1470120    -3.6619818    -4.5691338    
C      1.6975307    -0.7924682     1.9322019    
C      1.5749300    -0.1053647     0.5694337    
C      0.9499102     2.2482314     0.5090869    
N      2.2729931     2.4700832     0.3621004    
C      2.7301419     3.6977895     0.2182328    
N      2.0453191     4.8226322     0.2020525    
C      0.7274331     4.6238837     0.3492979    
N     -0.2055411     5.6021743     0.3601072    
C     -1.4372775     5.0297185     0.5153159    
C     -1.3099526     3.6781000     0.6125315    
C      0.0802305     3.3720027     0.5111238    
H     -0.9820611    -0.2838721     0.1553878    
H     -1.4498326     1.2460229     0.9005393    
H     -1.7176919    -0.6225733     2.4887338    
H     -0.5536887     0.5949099     3.0364313    
H     -0.3374997    -1.7659919     4.4116918    
H      1.2553740    -2.1811439     4.1544583    
H      0.8425351    -0.5903989     4.4132456    
H     -0.9607261    -2.9858095     2.5250597    
H      0.7373983    -3.3789550     2.2032643    
H     -2.4743167    -2.3868634     0.7172999    
H     -2.9802282    -2.6424242    -1.6330499    
H      1.1123880    -3.5910783    -2.4135722    
H      1.6178898    -3.3383682    -0.0686794    
H     -1.9944429    -5.3442167    -3.4356234    
H     -3.2999250    -4.1702398    -3.2664795    
H     -2.6631314    -4.5511189    -4.8632797    
H     -2.8250100    -1.6841749    -3.6691283    
H     -1.1989497    -1.1695215    -4.1223157    
H     -2.1953153    -2.0695071    -5.2668691    
H      0.6208572    -2.8923006    -4.5321598    
H      0.2834396    -4.6133361    -4.2643266    
H     -0.4708112    -3.7593300    -5.6032480    
H      2.3978194    -1.6206490     1.8355311    
H      2.1237174    -0.0567035     2.6158947    
H      2.5321560     0.3267379     0.2842872    
H      1.2563868    -0.8155411    -0.1975503    
H      3.8034832     3.7898821     0.1037800    
H     -0.0103834     6.5830625     0.2545068    
H     -2.3233350     5.6316893     0.5449330    
H     -2.1397074     3.0113533     0.7273718    
