65

C      0.2499811     1.4940357     4.4834321    
C      0.0744447     0.6557128     3.2173643    
O     -0.8098171    -0.4098093     3.5768535    
C     -1.1631786    -1.3020468     2.6238373    
C     -0.6145233    -1.4092461     1.3267194    
C     -1.2001114    -2.4056360     0.5947979    
N     -0.9054735    -2.7764699    -0.6965951    
C     -1.0733204    -4.0409830    -1.2175111    
N     -0.6970596    -4.1597809    -2.4457065    
C     -0.2531622    -2.9089614    -2.8161734    
C      0.2439708    -2.4570728    -4.0286901    
C      0.6023144    -1.1298517    -4.1401592    
C      0.4584859    -0.2374723    -3.0672601    
O      0.7652855     1.0879747    -3.1141209    
C      1.2390376     1.6684902    -4.3311390    
C      2.7266447     1.3859054    -4.5629361    
C      3.5815173     2.0965667    -3.5180462    
N      3.3522450     3.5295035    -3.5668853    
C      4.2646730     4.2428040    -2.6971158    
C      1.9691559     3.8127725    -3.2236196    
C      1.0243606     3.1802311    -4.2392292    
C     -0.0429237    -0.6797927    -1.8430431    
C     -0.3767894    -2.0154508    -1.7262708    
S     -2.4310361    -3.2466310     1.4821840    
C     -2.1546726    -2.2341590     2.8627227    
C     -2.9689441    -2.5132242     4.0425773    
N     -2.7472401    -1.7480311     5.1209506    
O     -3.8187229    -3.4090744     4.0167811    
C     -0.5159911     1.4975531     2.1058288    
C     -1.8919210     1.6951067     2.0830861    
C     -2.4924736     2.4529247     1.0946669    
C     -1.7205085     3.0387770     0.1061608    
C     -0.3485086     2.8694030     0.1172669    
C      0.2550278     2.1058280     1.1111760    
C      1.7435203     1.9321694     1.0760549    
F      2.3557841     2.2482320     2.2382386    
F      2.3521434     2.6767385     0.1434283    
F      2.1208895     0.6547286     0.8136901    
H      0.9535883     2.2991664     4.3004019    
H     -0.7068600     1.9139045     4.7788007    
H      0.6298090     0.8654909     5.2829923    
H      1.0381761     0.2227605     2.9221315    
H      0.2014226    -0.8216520     0.9565174    
H     -1.4751648    -4.8383783    -0.6231942    
H      0.3430574    -3.1303068    -4.8631127    
H      0.9896923    -0.7866117    -5.0843610    
H      0.6415674     1.2779561    -5.1657121    
H      2.9941681     1.7521852    -5.5533871    
H      2.9258061     0.3148450    -4.5129442    
H      4.6379069     1.9087633    -3.7247954    
H      3.3505630     1.6882460    -2.5152502    
H      4.1365682     3.9713163    -1.6368405    
H      5.2872281     4.0176436    -2.9935442    
H      4.0953148     5.3123926    -2.8057471    
H      1.8314266     4.8958496    -3.2198130    
H      1.7340537     3.4268560    -2.2172535    
H     -0.0083904     3.3827772    -3.9549749    
H      1.2158983     3.6101428    -5.2211333    
H     -0.1717152     0.0314265    -1.0444172    
H     -3.2746882    -1.9300285     5.9587539    
H     -2.0154110    -1.0568159     5.1130256    
H     -2.4945910     1.2354213     2.8508263    
H     -3.5623164     2.5845860     1.0984596    
H     -2.1779749     3.6269926    -0.6718665    
H      0.2564626     3.3244878    -0.6503352    
