35

C     -1.9156273    -3.3072951    -1.9270973    
C     -2.1823624    -4.6633463    -1.9602936    
C     -1.6497382    -5.5063404    -0.9986628    
C     -0.8413824    -4.9870731     0.0012940    
C     -0.5727140    -3.6335728     0.0433227    
C     -1.1073813    -2.7761821    -0.9207855    
C     -0.8128014    -1.3594072    -0.8413629    
N     -0.1474275    -0.7898382     0.1518690    
N     -1.1753493    -0.4327602    -1.7655019    
C     -0.7221402     0.7824954    -1.3385478    
C     -0.9085194     2.0350399    -2.1373467    
O     -1.7229089     1.9613581    -3.0885933    
O     -0.2307178     3.0320221    -1.8096879    
C     -0.0824230     0.5350732    -0.1401829    
C      0.4555657     1.5693038     0.7757936    
O     -0.3185043     2.3327182     1.3663615    
N      1.7839808     1.6575306     0.9160254    
C      2.7338209     0.7442426     0.3278783    
C      2.3203129     2.6589609     1.8093843    
C      2.5991576     2.0950225     3.2057460    
O      2.5642923     0.8998001     3.4612988    
N      2.9214082     3.0232598     4.1129869    
H     -2.3415054    -2.6600485    -2.6794181    
H     -2.8104071    -5.0618495    -2.7427500    
H     -1.8644135    -6.5630835    -1.0287579    
H     -0.4213418    -5.6391100     0.7504650    
H      0.0485810    -3.2044475     0.8123805    
H     -1.6889436    -0.5440788    -2.6257222    
H      3.5010495     1.3125263    -0.1970841    
H      2.2269075     0.0900176    -0.3736867    
H      3.1899378     0.1428504     1.1156142    
H      1.5727204     3.4535693     1.8846472    
H      3.2448410     3.0561498     1.3838639    
H      3.0816636     2.7341396     5.0653640    
H      2.8667134     4.0032859     3.8963880    
