154

N     -6.6432491    -4.5375785    -0.4242460    
C     -6.7000133    -3.7584467    -1.6876808    
C     -5.5742169    -2.7228783    -1.7962862    
O     -4.9138168    -2.6042428    -2.8177839    
C     -8.0484062    -3.0525956    -1.8001259    
N     -5.3978943    -1.9483798    -0.7181784    
C     -4.4739534    -0.8367921    -0.7059696    
C     -3.0043314    -1.2721367    -0.6565464    
O     -2.1039113    -0.4404180    -0.8033833    
C     -4.7847483     0.0656115     0.5002761    
C     -6.2034572     0.5635460     0.4295988    
C     -6.5434369     1.6031956    -0.4266627    
C     -7.2104013    -0.0409167     1.1746747    
C     -7.8530439     2.0285004    -0.5424390    
C     -8.5233431     0.3734304     1.0656591    
C     -8.8565391     1.4114913     0.1991065    
O     -10.1607776     1.7803758     0.1216378    
N     -2.8044241    -2.5596079    -0.4456067    
C     -1.5295840    -3.2304970    -0.3331080    
C     -0.4241029    -2.6126611    -1.1920975    
O      0.6227698    -2.2486197    -0.6426641    
C     -1.7031123    -4.7222015    -0.6532526    
C     -2.8810502    -5.4002578     0.0987849    
O     -2.6765642    -6.4707284     0.6726238    
O     -3.9985195    -4.8147332     0.0303712    
N     -0.5635932    -2.5227300    -2.5137436    
C      0.5713561    -2.0581629    -3.3049660    
C      1.0291637    -0.6435145    -2.9467153    
O      2.2007322    -0.3134649    -3.0911126    
C      0.0816211    -2.1040298    -4.7600869    
C     -1.4354288    -2.0219702    -4.6199881    
C     -1.6893022    -2.8599207    -3.3718978    
N      0.0606082     0.2025450    -2.5795488    
C      0.3497657     1.5641364    -2.1754760    
C      0.9993180     1.5862443    -0.7884747    
O      2.0543510     2.1834175    -0.5753466    
C     -0.9342393     2.3844677    -2.1817834    
N      0.3297686     0.9296392     0.1603942    
C      0.8065988     0.8840086     1.5281495    
C      2.2431592     0.3540718     1.6075474    
O      3.0425777     0.8137009     2.4254022    
C     -0.1498496     0.0710084     2.4001711    
C     -1.4609010     0.8273530     2.6155139    
C     -2.4243547     0.0541989     3.5254952    
N     -3.6009311     0.8339218     3.8516774    
C     -3.6656500     1.7750378     4.7962790    
N     -2.6721954     1.9729000     5.6518435    
N     -4.7770244     2.4950933     4.9051146    
N      2.5472011    -0.6096937     0.7414436    
C      3.8795068    -1.1479313     0.5701130    
C      4.9653596    -0.0678160     0.5662896    
O      6.0866053    -0.3232127     0.9995906    
C      3.9169141    -1.8985481    -0.7690659    
C      5.2944494    -2.4642039    -1.1047187    
C      5.2807746    -3.1661713    -2.4664127    
C      6.6751339    -3.2889805    -3.0664174    
N      7.5658196    -4.0839325    -2.1859461    
N      4.6590981     1.0663808    -0.0677218    
C      5.6128749     2.1220570    -0.3003808    
C      5.3364263     3.3964830     0.5066808    
O      5.8539878     4.4644522     0.1726963    
C      5.6630013     2.4479671    -1.7975040    
C      6.1043140     1.2757000    -2.6799227    
C      5.9791570     1.6752454    -4.1492198    
C      7.5345869     0.8431428    -2.3647493    
N      4.4835582     3.2816726     1.5270811    
C      4.4077347     4.3015495     2.5466687    
C      5.6222452     4.1614635     3.5385770    
O      5.6062196     4.9120730     4.5329344    
C      3.0852825     4.2370363     3.2963129    
C      1.8572543     4.5946678     2.4510415    
C      0.5915160     4.3493985     3.2729915    
C      1.8955926     6.0447713     1.9750242    
O      6.5008025     3.3313832     3.2421692    
H     -7.1852588    -5.4019945    -0.5223128    
H     -7.0392921    -4.0102373     0.3603046    
H     -5.6551807    -4.8058915    -0.1817959    
H     -6.5599727    -4.4391770    -2.5307857    
H     -8.1017517    -2.5047779    -2.7363072    
H     -8.1923445    -2.3427989    -0.9892542    
H     -8.8583111    -3.7757721    -1.7924666    
H     -6.0006675    -2.0338454     0.0869977    
H     -4.5877132    -0.2689938    -1.6391072    
H     -4.0835429     0.8997406     0.4802593    
H     -4.6293149    -0.5227406     1.4053888    
H     -5.7775003     2.0924514    -1.0092951    
H     -6.9725471    -0.8302297     1.8725717    
H     -8.0987810     2.8410170    -1.2110530    
H     -9.3104713    -0.0870770     1.6407203    
H     -10.2821455     2.5070040    -0.5057495    
H     -3.5822243    -3.2225070    -0.2920365    
H     -1.1671639    -3.1418437     0.7036818    
H     -0.7903406    -5.2634030    -0.4047805    
H     -1.9167352    -4.8592767    -1.7138250    
H      1.4363673    -2.7080048    -3.1348599    
H      0.3707675    -3.0486548    -5.2182671    
H      0.5033378    -1.2901500    -5.3453518    
H     -1.9585864    -2.4157210    -5.4863996    
H     -1.7496452    -0.9921282    -4.4567139    
H     -2.6495947    -2.6442149    -2.9085208    
H     -1.6477701    -3.9227011    -3.6322844    
H     -0.8395156    -0.1608216    -2.2837716    
H      1.0899355     1.9767608    -2.8701387    
H     -0.7319627     3.3847324    -1.8104018    
H     -1.6745967     1.9049147    -1.5480888    
H     -1.3185984     2.4572977    -3.1950829    
H     -0.4904267     0.3825485    -0.0880477    
H      0.8768404     1.9113875     1.9069740    
H      0.3457524    -0.1155057     3.3544373    
H     -0.3269161    -0.8916002     1.9169593    
H     -1.9300284     1.0044308     1.6481436    
H     -1.2337786     1.7977297     3.0587868    
H     -1.9131738    -0.2479661     4.4408299    
H     -2.7509935    -0.8571755     3.0235941    
H     -4.3380972     0.8384675     3.1615787    
H     -2.7492958     2.6651560     6.3772052    
H     -1.7976781     1.4863398     5.5649642    
H     -5.5587206     2.3474538     4.2904227    
H     -4.8699594     3.1864871     5.6292377    
H      1.8218135    -1.0320252     0.1679528    
H      4.1271797    -1.8225391     1.4017534    
H      3.6033738    -1.2016028    -1.5502857    
H      3.1784064    -2.7016412    -0.7175315    
H      5.5831102    -3.1444222    -0.3020538    
H      6.0060111    -1.6371189    -1.1187001    
H      4.6716555    -2.5767508    -3.1517071    
H      4.8152697    -4.1464932    -2.3705740    
H      7.0989527    -2.2923073    -3.1890678    
H      6.6169381    -3.7701198    -4.0419469    
H      8.5002092    -4.1758541    -2.5994464    
H      7.1723932    -5.0197035    -2.0329315    
H      7.6549701    -3.6158154    -1.2769451    
H      3.7036716     1.2834466    -0.3352838    
H      6.5865986     1.7674856     0.0616122    
H      6.3335981     3.3001596    -1.9237737    
H      4.6594780     2.7683592    -2.0898073    
H      5.4221760     0.4405026    -2.4920302    
H      6.2959447     0.8624349    -4.7962538    
H      6.5964278     2.5463556    -4.3558762    
H      4.9470310     1.9219093    -4.3836477    
H      7.6020628     0.4168007    -1.3663083    
H      8.2007736     1.7023415    -2.4059637    
H      7.8758250     0.1117423    -3.0922447    
H      4.2176497     2.3519444     1.8368199    
H      4.5536372     5.2705692     2.0561236    
H      3.1762574     4.9086333     4.1539731    
H      2.9884750     3.2146093     3.6756585    
H      1.8679234     3.9435040     1.5682127    
H     -0.2913160     4.4828127     2.6539408    
H      0.5570983     5.0561120     4.0984091    
H      0.6098738     3.3438873     3.6847823    
H      2.7240516     6.2037671     1.2881270    
H      2.0253974     6.7162459     2.8214255    
H      0.9733198     6.2990877     1.4585236    
