60

C      3.3828488     0.3462892    -0.2859570    
C      2.7359827    -0.8070133     0.0587689    
C      3.2448462    -2.1015859     0.4874901    
N     -6.7998992     3.7445958    -1.9869513    
C      6.5371594    -5.5000824     2.3206621    
C      6.4638322    -4.3545557     3.0943973    
C      5.8092571    -3.2219710     2.6351664    
C      5.7137648    -1.9858753     3.4762513    
C     -0.9850057     1.5717644    -0.6843236    
C     -2.0111750     2.4904745    -0.8379269    
C     -3.3089047     2.0063315    -0.6100141    
C     -2.4651703    -0.0924749    -0.2044146    
C     -2.7021482    -1.5241276     0.1331860    
C     -4.4978504     4.1561250    -1.0119899    
C     -5.7149167     2.2265926    -0.2965570    
C     -7.8042021     4.6077179    -1.3037303    
C     -7.4632217     5.1860215     0.0827784    
N      0.3350740     1.9234708    -0.8264327    
C      1.3348921     1.0525033    -0.5645361    
N      2.5930578     1.3827921    -0.6369187    
S      1.0019690    -0.5901110    -0.0804417    
N      4.5431179    -2.1046612     0.8942706    
C      5.2234708    -3.2462404     1.3626664    
C      5.3322382    -4.3933297     0.5814115    
C      5.9739787    -5.5238488     1.0579623    
Cl     4.6890325    -4.4111339    -1.0349775    
O      2.5339481    -3.1063127     0.5055997    
N     -3.5038139     0.7041277    -0.3027802    
N     -1.2048424     0.2926007    -0.3771066    
N     -4.4229745     2.7575729    -0.6704398    
C     -5.4546597     4.3507747    -2.1935603    
C     -6.6810369     2.3508770    -1.4678536    
O     -8.5068501     6.0436225     0.4910743    
H      4.4471116     0.4969776    -0.3261262    
H     -7.1990430     3.6433618    -2.9278928    
H      7.0381171    -6.3772100     2.6970080    
H      6.9126988    -4.3406360     4.0757755    
H      6.0818982    -2.1826716     4.4783245    
H      4.6802247    -1.6489792     3.5402759    
H      6.3101230    -1.1831291     3.0435423    
H     -1.7853513     3.5116709    -1.0812948    
H     -3.7636569    -1.7448137     0.1114576    
H     -2.3038346    -1.7291296     1.1247921    
H     -2.1646483    -2.1593428    -0.5663750    
H     -3.5241392     4.5371053    -1.3111087    
H     -4.8269731     4.7166496    -0.1334298    
H     -6.0759008     2.7581436     0.5869057    
H     -5.5904515     1.1738843    -0.0447163    
H     -8.7290424     4.0312348    -1.2174733    
H     -8.0050243     5.4673153    -1.9490256    
H     -6.5866262     5.8346124     0.0317945    
H     -7.3013946     4.4042304     0.8311860    
H      0.5940050     2.8710082    -1.0672787    
H      5.0030894    -1.2162404     1.0308446    
H      6.0362496    -6.4008567     0.4350343    
H     -5.5722264     5.4153007    -2.3941415    
H     -5.0084826     3.8718493    -3.0672470    
H     -6.3061108     1.7252311    -2.2796130    
H     -7.6651643     1.9909088    -1.1714941    
H     -9.2920675     5.5303679     0.7282668    
