44

C     -1.9057684    -0.8361335     3.3050294    
O     -0.9860545    -1.2579468     4.0405531    
O     -3.1271563    -0.8304332     3.5771045    
C     -1.5069710    -0.2628969     1.9455303    
C     -2.6194804     0.1409523     1.0237680    
C     -2.1227948     1.1182005    -0.0351876    
C     -0.8568069     0.5685180    -0.7052768    
N     -0.4529571     1.4071414    -1.8172345    
C     -0.1874258     0.8798171    -3.0431997    
O     -0.5699160    -0.2346868    -3.3661624    
C      0.5191654     1.8244174    -3.9780723    
C      0.2798033     0.4332058     0.3248755    
C     -0.2273316    -0.1240696     1.6284000    
O      1.2582174    -0.4017305    -0.2721838    
C      2.5803863    -0.3103808     0.2545182    
C      3.3885048     0.7450847    -0.5210796    
C      3.2056696    -1.7053601     0.1775441    
C      2.5788732    -2.6625991     1.1841024    
C      3.5610477     0.3897884    -1.9942569    
N     -3.1686308     1.3225309    -1.0706937    
H     -3.4166012     0.5580155     1.6425049    
H     -3.0080453    -0.7720217     0.5655156    
H     -1.8953282     2.0786412     0.4337748    
H     -1.0387255    -0.4314108    -1.1156543    
H      0.0300459     2.2615131    -1.5745455    
H      0.6606439     1.3398578    -4.9395765    
H      1.4892713     2.0956636    -3.5694636    
H     -0.0670137     2.7291658    -4.1143638    
H      0.7198373     1.4273818     0.5218321    
H      0.5144735    -0.4478905     2.3451972    
H      2.5324031    -0.0074873     1.3107042    
H      4.3607161     0.8574062    -0.0407378    
H      2.8671390     1.7014541    -0.4365359    
H      4.2769295    -1.6218962     0.3644105    
H      3.0506540    -2.0939868    -0.8287257    
H      3.0116182    -3.6549952     1.0871621    
H      1.5056715    -2.7351936     1.0196548    
H      2.7383587    -2.3161207     2.2042308    
H      3.9300371     1.2482152    -2.5495487    
H      2.6078404     0.0726613    -2.4118996    
H      4.2711199    -0.4232955    -2.1140811    
H     -4.0306203     1.6868722    -0.6472801    
H     -3.3808220     0.4265317    -1.5282044    
H     -2.8301061     1.9753618    -1.7889626    
