43

P     -1.5058437     3.8020070     1.4165032    
O     -0.0389031     3.5781295     1.0843225    
O     -2.1857946     4.8341613     0.5543476    
O     -1.7798447     3.9179883     2.8962264    
P     -2.6351986     2.0076761    -0.4670310    
O     -1.5298931     2.3308499    -1.4087643    
O     -4.0092476     2.4833513    -0.7862462    
O     -2.2602848     2.2985112     1.0568318    
P     -2.5861088    -0.7378190    -1.3692750    
O     -2.7180109    -0.1399316    -2.7261370    
O     -3.4439127    -1.8830240    -0.9799286    
O     -2.7235497     0.3844840    -0.2028990    
O     -1.0420970    -1.2509073    -1.1502535    
C     -0.0024353    -0.3129359    -1.3348097    
C      0.5139427     0.2193295     0.0084290    
O      0.9278548    -0.8209878     0.8775004    
C      1.7545959     1.0943495    -0.1884941    
O      2.0401570     1.9229827     0.9057470    
C      2.8808922     0.0378284    -0.2342119    
O      4.1123380     0.5214000     0.1683764    
C      2.3053153    -1.0742214     0.6960894    
N      2.5136776    -2.4023589     0.1763771    
C      1.6549075    -3.1887003    -0.5457446    
N      2.1649739    -4.3310221    -0.8963033    
C      3.4422364    -4.3250979    -0.3845621    
C      4.4973245    -5.2614521    -0.4133267    
N      4.4264485    -6.4388278    -1.0339764    
N      5.6340708    -4.9358521     0.2281586    
C      5.7090678    -3.7726687     0.8500873    
N      4.8012139    -2.8150268     0.9452764    
C      3.6711322    -3.1236509     0.3024768    
H     -0.3666962     0.5359259    -1.9201757    
H      0.7896895    -0.8358015    -1.8812604    
H     -0.2978302     0.7602895     0.5047397    
H      1.6524131     1.6832428    -1.1094203    
H      1.2933908     2.5501870     1.0487890    
H      2.9931785    -0.3571511    -1.2493920    
H      3.9524191     1.2281582     0.8211510    
H      2.8056477    -1.0274484     1.6741694    
H      0.6497574    -2.8753628    -0.7571143    
H      3.5751969    -6.6854183    -1.5070057    
H      5.2229417    -7.0521911    -0.9986686    
H      6.6424259    -3.5700564     1.3560920    
