32

N     -1.3991669     0.7747251    -1.8135135    
C     -2.1460946     1.0122198    -0.6763435    
N     -3.4734132     0.6917420    -0.7646647    
C     -4.1438893     0.1048110    -1.8273802    
C     -3.2954921    -0.1152418    -2.9712982    
C     -1.9894411     0.1954915    -2.9039786    
O     -1.7048716     1.5213503     0.3414397    
O     -5.3305703    -0.1612115    -1.7342656    
C      0.0597219     0.8516893    -1.8006724    
C      0.6771024     2.1258856    -1.1718225    
O      0.9967915     3.0848480    -2.1247241    
C      1.9022570     1.5537586    -0.4261239    
C      1.4831735     0.1170746    -0.0984851    
O      2.9880379     1.6221043    -1.3131353    
O      0.5862692    -0.2738345    -1.1307227    
C      0.8670860    -0.0271045     1.2970325    
O      0.6643485    -1.3702687     1.6300289    
P      2.0243437    -2.0634094     2.4246763    
O      2.2138546    -1.2097920     3.6707262    
O      1.5639819    -3.4799949     2.6773183    
O      3.1790941    -1.9284420     1.4377673    
H     -4.0095731     0.8605538     0.0820383    
H     -3.7292179    -0.5533293    -3.8521812    
H     -1.3273451     0.0153043    -3.7368213    
H      0.3724467     0.7982945    -2.8535199    
H     -0.0182794     2.5709531    -0.4593155    
H      1.9021096     2.9083728    -2.4418761    
H      2.1144430     2.1076094     0.4958727    
H      2.3211864    -0.5890502    -0.1249879    
H      3.7523116     1.1672298    -0.9346807    
H     -0.1066831     0.4734219     1.3501402    
H      1.5510028     0.4143134     2.0369921    
