28

N      0.4925377    -1.2585674    -0.0122302    
C     -0.0338948     0.0064142    -0.0053967    
N      0.9426727     0.9654930    -0.0679353    
O     -1.2315157     0.2504126     0.0495873    
C     -0.1713060    -2.4888343     0.0412361    
C      0.6153923    -3.6408838     0.0450591    
C      0.0275842    -4.8896213     0.0929927    
C     -1.3517183    -5.0103226     0.1378541    
C     -2.1346816    -3.8689054     0.1347370    
C     -1.5562748    -2.6129868     0.0867804    
C      0.8099664     2.3580534    -0.0758227    
C     -0.4156183     3.0136579    -0.0138802    
C     -0.4590524     4.3964638    -0.0249937    
C      0.7050516     5.1418071    -0.0975336    
C      1.9267108     4.4916168    -0.1595211    
C      1.9816067     3.1117764    -0.1488740    
H      1.4994528    -1.3445169    -0.0517525    
H      1.9029076     0.6517292    -0.1149485    
H      1.6914354    -3.5555016     0.0099399    
H      0.6487274    -5.7722559     0.0951986    
H     -1.8119083    -5.9853970     0.1751112    
H     -3.2104914    -3.9503643     0.1697805    
H     -2.1708962    -1.7284285     0.0849244    
H     -1.3250553     2.4391945     0.0428018    
H     -1.4167727     4.8920771     0.0240346    
H      0.6611353     6.2197399    -0.1056344    
H      2.8413828     5.0616742    -0.2165779    
H      2.9380681     2.6125381    -0.1974970    
