48

C     -1.0611575     4.0114882    -1.7031261    
C     -0.6799223     2.7311661    -2.0452460    
C     -0.4799423     1.7650233    -1.0563905    
C     -0.6915859     2.1048261     0.2789080    
C     -1.0837774     3.3879732     0.6107397    
C     -1.2658423     4.3555190    -0.3692388    
C     -1.6845231     5.7555087    -0.0055495    
N     -3.0766372     6.0274725    -0.4265572    
C     -3.5228397     7.4155443    -0.1644365    
C     -5.0512320     7.3652946    -0.2786007    
C     -5.4124089     5.8721244    -0.1369772    
C     -4.0984028     5.1990007     0.2519335    
N     -0.0800019     0.5020819    -1.4744713    
C      0.3529718    -0.5011856    -0.7341401    
C      0.7511785    -1.7323326    -1.2419408    
C      1.2384004    -2.7966703    -0.3923860    
C      1.3571592    -2.6694053     0.9997219    
C      1.8280873    -3.7165342     1.7580652    
C      2.2062149    -4.9328639     1.2034234    
C      2.0985242    -5.0724413    -0.1604286    
C      1.6233823    -4.0292008    -0.9570037    
C      1.5418005    -4.2550708    -2.3977166    
O      1.8556324    -5.3005197    -2.9555089    
N      1.0797332    -3.1949156    -3.1310396    
C      0.6866221    -1.9604678    -2.6671863    
O      0.3040310    -1.1268655    -3.4981971    
Br     1.9658950    -3.4834058     3.6545781    
H     -1.1799654     4.7463179    -2.4841829    
H     -0.5190989     2.4661668    -3.0785022    
H     -0.5652587     1.3764225     1.0623238    
H     -1.2410500     3.6338100     1.6489236    
H     -1.0313555     6.4776742    -0.4998299    
H     -1.6173384     5.8992145     1.0734230    
H     -3.1529945     5.8467403    -1.4339088    
H     -3.0667182     8.1127000    -0.8639894    
H     -3.2178852     7.6802597     0.8479989    
H     -5.3914726     7.7542038    -1.2359565    
H     -5.5138436     7.9668347     0.4993549    
H     -5.7817521     5.4777964    -1.0827625    
H     -6.1822198     5.7044298     0.6110078    
H     -3.9317743     5.2646953     1.3273086    
H     -4.0331258     4.1589551    -0.0600473    
H     -0.0844279     0.3175229    -2.4850145    
H      0.4026802    -0.3343650     0.3312708    
H      1.0894499    -1.7567791     1.5037770    
H      2.5711103    -5.7379081     1.8203267    
H      2.3788218    -5.9922455    -0.6502174    
H      1.0206803    -3.3272730    -4.1368834    
