33

C     -0.3665959    -0.9792266    -0.2745365    
C     -0.4050573    -2.3836412    -0.4887384    
C     -1.5585095    -2.9460234    -1.0730873    
C     -2.6316591    -2.1650690    -1.4238477    
C     -2.5980218    -0.7887642    -1.2100250    
C     -1.4853581    -0.1928416    -0.6439331    
C     -1.4947665     1.2588322    -0.4369383    
O     -2.4339442     1.9867128    -0.7296188    
N     -0.3457037     1.7703412     0.1273022    
C     -0.0474648     3.0914897     0.4395316    
C     -0.7556441     4.2696095     0.2999004    
C     -0.1306488     5.4286529     0.7271582    
C      1.1518877     5.4092050     1.2724431    
C      1.8629339     4.2331594     1.4136558    
C      1.2526689     3.0591982     0.9906919    
N      1.7229476     1.7656582     1.0113492    
C      0.7770245     1.0294936     0.5034853    
C      0.7844767    -0.3907339     0.3025499    
C      1.8701413    -1.1774091     0.6432174    
C      1.8319834    -2.5508048     0.4212457    
C      0.7234595    -3.1628882    -0.1236600    
C      0.7766536    -4.6813107    -0.3146940    
O     -0.2317627    -5.3466742     0.0015447    
O      1.8524634    -5.1347810    -0.7578212    
H     -1.5765970    -4.0153619    -1.2180765    
H     -3.5049938    -2.6158873    -1.8671701    
H     -3.4347155    -0.1619394    -1.4803543    
H     -1.7469908     4.2725903    -0.1234656    
H     -0.6511124     6.3687027     0.6346515    
H      1.5986626     6.3377947     1.5914049    
H      2.8545179     4.2115402     1.8334766    
H      2.7388247    -0.7098370     1.0774533    
H      2.6825232    -3.1693107     0.6689598    
