34

O     -3.9934397     0.8951990    -2.6394652    
P     -2.6369402     0.8042238    -1.9819741    
O     -2.5094232     1.5671169    -0.6722078    
O     -1.4541829     1.0459066    -2.9141709    
O     -2.5445093    -0.8538520    -1.5709705    
C     -1.3277259    -1.2193161    -0.9812713    
C     -1.5319959    -1.7971472     0.4262267    
O     -0.2822937    -2.1024503     1.0345449    
C     -2.2296662    -0.8039618     1.3686721    
O     -2.9441170    -1.4475188     2.3948842    
C     -1.0445487    -0.0564088     1.9776797    
C      0.0689007    -1.1042253     1.9706617    
N      1.3764608    -0.5562217     1.6667493    
C      2.5196843    -0.9178479     2.4030590    
N      3.6480870    -0.3103939     1.8377158    
C      3.2370346     0.3363441     0.8004414    
C      3.9790295     1.1776863    -0.1572916    
O      5.1738803     1.3980015    -0.1349003    
N      3.1496725     1.6978820    -1.1034689    
C      1.7754439     1.4827075    -1.2608784    
N      1.2584483     1.9810267    -2.3082228    
N      1.0910075     0.7704558    -0.3036417    
C      1.7825708     0.2136091     0.6254497    
O      2.5105182    -1.6159352     3.3821279    
H     -0.6704099    -0.3433938    -0.9278621    
H     -0.8458136    -1.9737613    -1.6185802    
H     -2.0879068    -2.7369582     0.3475929    
H     -2.8695353    -0.1275415     0.7943663    
H     -3.7938880    -1.7612157     2.0559758    
H     -1.2791406     0.2932581     2.9782977    
H     -0.7976170     0.7796168     1.3254823    
H      0.1950425    -1.5922339     2.9480017    
H      3.5646626     2.2686092    -1.8360335    
H      0.2622883     1.7812765    -2.4345444    
