38

C      2.1592913     2.7936078    -5.5243474    
C      1.7682156     3.2898748    -4.1622052    
O      1.7936014     4.4678276    -3.8656748    
C      1.3462038     2.2097133    -3.1956620    
C      0.6500984     2.7637092    -1.9542661    
C      0.6203310     1.7726677    -0.7945967    
C     -0.1915758     0.5201091    -1.1236997    
N     -0.2875621    -0.3636310     0.0357235    
C     -1.4450208    -0.2802787     0.8088643    
O     -2.3587551     0.4837924     0.5158192    
C     -1.4030797    -1.1741400     1.9176676    
N     -2.2980345    -1.4403892     2.9277504    
C     -3.5889978    -0.8337471     3.0968256    
C     -1.7174128    -2.3709725     3.6974341    
N     -0.5189453    -2.7358751     3.2792438    
C     -0.3095243    -1.9971307     2.1696221    
N      0.7838052    -1.9970307     1.3621082    
C      1.9242695    -2.8500238     1.6396088    
C      0.8162418    -1.1699006     0.2726729    
O      1.7854949    -1.1485169    -0.4720877    
H      2.7448774     1.8826847    -5.4470694    
H      2.7121346     3.5595343    -6.0603874    
H      1.2512064     2.5666542    -6.0791867    
H      2.2562523     1.6816423    -2.8968070    
H      0.7146128     1.4952228    -3.7222467    
H     -0.3691276     3.0603852    -2.2084280    
H      1.1817435     3.6632907    -1.6366865    
H      0.1739041     2.2565551     0.0767327    
H      1.6378382     1.4721120    -0.5366803    
H      0.2848271    -0.0447282    -1.9249585    
H     -1.2116639     0.7907247    -1.3997493    
H     -4.0512649    -1.2253103     3.9989167    
H     -4.2158672    -1.0499981     2.2315607    
H     -3.4809770     0.2484354     3.1699051    
H     -2.1782752    -2.7834577     4.5717321    
H      1.7037002    -3.4029916     2.5468489    
H      2.8159014    -2.2373996     1.7668020    
H      2.0862434    -3.5281719     0.8028311    
