51

N     -0.8480031    -2.3001522    -4.0604219    
N     -0.1022500    -0.8201029    -1.8421893    
C     -0.6569017    -0.9981470    -4.1518737    
C     -0.2800330    -0.2445096    -3.0291965    
N     -0.0810181     1.1090508    -3.1371603    
C     -0.2994504    -2.1378592    -1.7545969    
C     -0.6763061    -2.8787143    -2.8826198    
N     -0.1039013    -2.7113033    -0.5168004    
C      0.2218131     2.0364780    -2.1609764    
C      0.3239320     3.2808274    -2.8259354    
N     -0.1725162     1.7086989    -4.3585974    
C      0.0652391     2.9807647    -4.1854586    
C      0.3758832    -2.0504641     0.5919280    
C      0.4530116    -2.9220629     1.6377335    
C     -0.0105106    -4.1787973     1.1485766    
C     -0.3389036    -4.0188213    -0.1603281    
C      0.6067194     4.4343087    -2.0884467    
N      0.9330888     3.0398510     1.2702501    
C      0.7808987     4.3137512    -0.7372134    
C      0.6835694     3.0661954    -0.0678570    
C      0.3891346     1.9108055    -0.7945978    
C      0.7123343     1.8956421     2.1258545    
C     -0.7895848     1.5669205     2.3113637    
C     -1.1176594     1.8660342     3.7804645    
C      0.0087177     2.7800841     4.2562734    
C      1.2242559     2.2045908     3.5372234    
O     -0.8570772    -1.4890350     4.2347537    
O     -0.8584778    -3.7141768     4.3032169    
C      0.8748700    -2.6377817     3.0307058    
C     -0.4005150    -2.6116283     3.9434809    
H     -0.7961998    -0.5343588    -5.1140848    
H     -0.8358583    -3.9438912    -2.8523334    
H      0.0486284     3.6464869    -5.0256853    
H      0.6313499    -1.0132232     0.5390735    
H     -0.0979059    -5.0714861     1.7361787    
H     -0.7312052    -4.7330884    -0.8535480    
H      0.6795890     5.3919901    -2.5794891    
H      0.9093145     3.9327101     1.7388810    
H      0.9990577     5.1894517    -0.1442290    
H      0.2760772     0.9551437    -0.3182175    
H      1.2519800     1.0458394     1.6968070    
H     -0.9972643     0.5197701     2.0901879    
H     -1.3855597     2.1818358     1.6355031    
H     -1.1015426     0.9278907     4.3388782    
H     -2.1030919     2.3144166     3.8985479    
H      0.1205093     2.7665175     5.3382741    
H     -0.1781011     3.8059247     3.9353559    
H      2.0821562     2.8745127     3.5202285    
H      1.5143482     1.2712559     4.0210704    
H      1.3658635    -1.6664953     3.1017217    
H      1.5251717    -3.4282223     3.4091146    
