32

N     -2.1913247     1.1426220    -0.4804462    
C     -2.2376732    -0.1485132    -0.9708448    
N     -3.4151415    -0.4953090    -1.5785425    
C     -4.5547051     0.2806658    -1.7446319    
C     -4.4194030     1.6068877    -1.1959017    
C     -3.2671638     1.9746514    -0.6077937    
O     -1.3204483    -0.9456085    -0.8780085    
O     -5.5332361    -0.1800420    -2.3084152    
C     -0.9780568     1.6361955     0.1392911    
C     -0.5290421     0.8707722     1.3950655    
O     -1.2228068     1.3570633     2.5015976    
C      0.9851221     1.1425593     1.3824059    
C      1.2881874     1.1835926    -0.1226070    
O      1.2215255     2.3695538     2.0252812    
O      0.0951473     1.6029908    -0.7755480    
C      1.7774036    -0.1753244    -0.6399412    
O      3.0418627    -0.4494497    -0.1088795    
P      3.1363359    -1.9101348     0.8075730    
O      4.5645581    -1.8652954     1.3000090    
O      2.0865762    -1.7570757     1.9019372    
O      2.8232871    -3.0189682    -0.1813273    
H     -3.4443581    -1.4434484    -1.9428286    
H     -5.2545703     2.2793027    -1.2761145    
H     -3.1332527     2.9602568    -0.1892980    
H     -1.1675859     2.6768661     0.4429480    
H     -0.6782740    -0.2097834     1.2613523    
H     -0.6949053     1.2179636     3.3014904    
H      1.5424708     0.3226854     1.8472897    
H      2.0676414     1.9226144    -0.3460185    
H      2.1678500     2.4683308     2.1971017    
H      1.8491455    -0.1479402    -1.7358364    
H      1.0764627    -0.9731285    -0.3644671    
