181

N     -1.8995506     0.4962831     12.2031004    
C     -2.3144970    -0.8031896     11.6399307    
C     -1.0533772    -1.3907602     10.9753722    
O      0.0082119    -0.7838410     11.0890303    
C     -3.4424988    -0.6764557     10.5989071    
O     -3.9146271    -1.9826029     10.3396999    
N     -1.2323890    -2.5451237     10.3439064    
C     -0.2348582    -3.0239907     9.4128320    
C     -0.0174746    -1.9452009     8.3398691    
O     -0.8210183    -1.0261193     8.1944777    
C     -0.7025639    -4.3463626     8.7812868    
C      0.3041999    -4.8656552     7.7929777    
C      0.0966243    -4.7309124     6.4250202    
C      1.4964473    -5.4296137     8.2375467    
C      1.0645997    -5.1286115     5.5191666    
C      2.4642132    -5.8318085     7.3335653    
C      2.2550546    -5.6719401     5.9729232    
N      1.0992463    -2.0836605     7.6288876    
C      1.5168405    -1.2133919     6.5419107    
C      0.6066072    -1.4587547     5.3179365    
O      0.9671164    -2.0681072     4.3212487    
C      2.9718136    -1.4877741     6.1780835    
C      4.0097354    -0.9884849     7.1893383    
C      3.9057766    -1.6566052     8.5602102    
C      5.4006747    -1.2229235     6.5994934    
N     -0.6306816    -0.9559051     5.4745514    
C     -1.6665951    -1.1654154     4.4790151    
C     -1.4531375    -0.1549583     3.3390325    
O     -1.2412813    -0.5540864     2.1982547    
C     -3.0638067    -1.0567486     5.0906794    
C     -3.3357028    -2.1897579     6.0879117    
C     -4.7420333    -2.0747361     6.6502424    
O     -4.9577452    -1.6866392     7.7949915    
N     -5.7243161    -2.4182057     5.8201328    
N     -1.5524377     1.1198723     3.7387837    
C     -1.0462769     2.3575132     3.1599295    
C     -1.3415137     2.7198084     1.7022108    
O     -1.3329181     3.9114730     1.3970064    
C      0.4866892     2.4323359     3.3154428    
C      0.9246011     2.5725310     4.7721472    
C      2.4423453     2.7041365     4.8293636    
N      2.8913534     2.8740336     6.1962816    
C      4.1446819     2.6790468     6.6128566    
N      5.0699386     2.1400761     5.8352063    
N      4.4540888     3.0287789     7.8623436    
N     -1.5470361     1.7367965     0.8344488    
C     -1.5567523     1.9635267    -0.5878749    
C     -2.8971021     1.5628224    -1.2021343    
O     -3.6480417     0.7532751    -0.6794616    
C     -0.4748394     1.0860456    -1.2603466    
C      0.8539101     1.2493544    -0.5750185    
C      1.6484933     2.3674722    -0.7980948    
C      1.2988950     0.2969225     0.3320118    
C      2.8533986     2.5248227    -0.1434183    
C      2.5015882     0.4450950     0.9976293    
C      3.2997606     1.5581181     0.7626692    
O      4.4840617     1.7736095     1.3773696    
P      5.2273127     0.5843770     2.3692769    
O      4.3185668     0.4868392     3.5962934    
O      6.5447251     1.2510424     2.6889059    
O      5.3085229    -0.6806100     1.5397127    
N     -3.1556919     2.1669642    -2.3753810    
C     -4.1396032     1.6436156    -3.2962160    
C     -3.4272564     0.7132214    -4.2859223    
O     -2.2222213     0.8124144    -4.4931551    
C     -4.8275443     2.7748390    -4.0695154    
O     -5.7122881     3.4394682    -3.2040252    
N     -4.2063754    -0.1737740    -4.9053159    
C     -3.6910876    -1.0382421    -5.9483539    
C     -2.7394671    -0.2303235    -6.8365284    
O     -3.1157522     0.8069143    -7.3692894    
C     -4.8590321    -1.5144150    -6.8166595    
O     -5.7840184    -2.1743919    -5.9898727    
N     -1.5269851    -0.7525208    -7.0237132    
C     -0.6047776    -0.1470256    -7.9682583    
C     -1.2999314    -0.1285686    -9.3367186    
O     -1.7324742    -1.1882611    -9.8005611    
C      0.6577669    -0.9897041    -8.0840302    
C      1.6943013    -0.3865265    -9.0647382    
O      1.5147987     0.7978547    -9.4406138    
O      2.6369058    -1.1099686    -9.4186824    
N     -1.4269027     1.0263003    -9.9828181    
C     -1.9812812     1.0466994    -11.3244343    
C     -0.9586740     0.6068010    -12.3754129    
O     -1.3177724     0.2157778    -13.4814981    
C     -2.3913677     2.5066801    -11.5319547    
C     -1.3437038     3.2619643    -10.7192835    
C     -1.1299933     2.3676993    -9.4983011    
N      0.3255548     0.7838897    -12.0392698    
C      1.3799259     0.2627512    -12.8756092    
C      1.3095291    -1.2531877    -12.9004756    
O      0.6798239    -1.9152485    -12.1054017    
C      2.7898149     0.6820702    -12.3377078    
O      2.7301754     1.9187172    -11.6723274    
C      3.7754449     0.8021489    -13.4936613    
H     -2.0974220     0.5901674     13.2031841    
H     -2.3161165     1.2846385     11.6967708    
H     -0.8584207     0.5103731     12.0391500    
H     -2.6590908    -1.4904480     12.4162516    
H     -3.0634365    -0.2174931     9.6786111    
H     -4.2567398    -0.0649338     11.0069961    
H     -4.4304432    -1.9667200     9.5129893    
H     -2.2032503    -2.8320490     10.2054221    
H      0.7115044    -3.1677164     9.9455478    
H     -1.6585156    -4.1835420     8.2822650    
H     -0.8426893    -5.0720903     9.5825677    
H     -0.8218619    -4.2989952     6.0554927    
H      1.6704922    -5.5540256     9.2954959    
H      0.9041401    -4.9909221     4.4594342    
H      3.3894847    -6.2634027     7.6843332    
H      3.0159606    -5.9652024     5.2638079    
H      1.6593867    -2.9148679     7.7518212    
H      1.3903703    -0.1727678     6.8621643    
H      3.1777628    -1.0074190     5.2153377    
H      3.0942626    -2.5615407     6.0061126    
H      3.8658427     0.0891414     7.3043499    
H      4.7543254    -1.3573126     9.1695545    
H      3.9363439    -2.7388205     8.4535898    
H      2.9942795    -1.3643748     9.0715279    
H      5.4860189    -0.7719178     5.6093520    
H      5.5884167    -2.2887200     6.4790194    
H      6.1765687    -0.8098676     7.2385788    
H     -0.8960984    -0.6200629     6.4044584    
H     -1.5119660    -2.1520811     4.0221384    
H     -3.7833661    -1.0852747     4.2722080    
H     -3.1693994    -0.1004463     5.6028538    
H     -2.6283687    -2.1191409     6.9142485    
H     -3.2186192    -3.1545100     5.5931728    
H     -6.6816028    -2.3350556     6.1245921    
H     -5.5383117    -2.7187844     4.8791691    
H     -1.7128308     1.2259648     4.7325777    
H     -1.4903469     3.1710378     3.7426404    
H      0.8498717     3.2862674     2.7388404    
H      0.9381886     1.5409270     2.8684229    
H      0.6249163     1.6872921     5.3329012    
H      0.4587330     3.4623313     5.1990031    
H      2.7637089     3.5511732     4.2086552    
H      2.8961796     1.8103585     4.3941523    
H      2.2956168     3.4556760     6.7711516    
H      5.9818488     1.9279390     6.2018468    
H      4.8659944     1.7150500     4.9330086    
H      3.7922202     3.5152598     8.4429186    
H      5.3923612     2.9002925     8.1996913    
H     -1.4633134     0.7648191     1.1449123    
H     -1.3543602     3.0273580    -0.7484973    
H     -0.4015729     1.3462913    -2.3171421    
H     -0.7902012     0.0432753    -1.1854717    
H      1.3284032     3.1238201    -1.4990638    
H      0.7002100    -0.5793959     0.5373854    
H      3.4828780     3.3836097    -0.3216751    
H      2.8552242    -0.2992542     1.6953084    
H     -2.4163283     2.7072349    -2.8030017    
H     -4.8768332     1.0984143    -2.7005190    
H     -5.3640053     2.3408854    -4.9234657    
H     -4.0545087     3.4514412    -4.4546151    
H     -6.0859909     4.2110114    -3.6530462    
H     -5.1806071    -0.2932780    -4.6643144    
H     -3.1755031    -1.8966376    -5.5036610    
H     -4.4619772    -2.1742701    -7.5982961    
H     -5.3062229    -0.6341064    -7.2966450    
H     -6.5148820    -2.5126095    -6.5267865    
H     -1.2552621    -1.6206611    -6.5909164    
H     -0.3615655     0.8641108    -7.6340167    
H      0.4114522    -1.9828350    -8.4671245    
H      1.1454212    -1.0909718    -7.1121265    
H     -2.8186764     0.3454799    -11.3930172    
H     -3.3847039     2.6625271    -11.1134257    
H     -2.3919155     2.7713666    -12.5863385    
H     -1.6749152     4.2562583    -10.4341358    
H     -0.4153290     3.3400291    -11.2841492    
H     -0.1060167     2.4224497    -9.1265606    
H     -1.8306217     2.5982288    -8.6888798    
H      0.5628424     0.9099467    -11.0573513    
H      1.2337067     0.6415547    -13.8927311    
O      2.0308412    -1.7831719    -13.8686427    
H      3.1174485    -0.0963366    -11.6298087    
H      2.4202550     1.7570554    -10.7600285    
H      4.7690223     0.9824152    -13.0950830    
H      3.4851832     1.6462224    -14.1120197    
H      3.7748419    -0.1090624    -14.0810932    
H      2.0031615    -2.7625196    -13.8700233    
