60

O     -3.0995080    -5.4486113     2.6039578    
O     -2.0096172    -6.0371054     0.4655001    
O     -0.6834924     5.0345551    -1.2288221    
O     -4.4761002    -5.7782004     0.6002785    
C     -1.4332944    -4.7799276     0.2869685    
C     -2.1823533    -3.6234660     0.3557909    
N     -3.3821163    -7.7369760     1.6591368    
C     -1.5853166    -2.3800576     0.1664643    
C     -0.2206902    -2.2984555    -0.1159486    
C      0.5153135    -3.4794574    -0.1571657    
S     -3.3243037    -6.1500253     1.3729917    
C     -0.0700506    -4.7151917     0.0414113    
C     -2.4518092    -1.1586256     0.2729794    
C     -1.6362658     0.1154990     0.4574965    
C     -0.5428556     0.1573393    -0.6079609    
C      0.4666000    -0.9624694    -0.3144779    
C      0.1827287     1.5111723    -0.6710073    
C      1.2766630     1.5113813    -1.7520054    
C      2.2459913     0.3498949    -1.5025334    
C      1.5298082    -0.9928494    -1.4175860    
C      0.7369956     1.4642953    -3.1910966    
C     -0.7658459     2.6775557    -0.9243609    
C     -0.0773480     3.9790772    -1.2229145    
N      1.2815889     3.9552421    -1.4697930    
C      2.0411117     2.8148875    -1.6465159    
O      3.2472601     2.8951286    -1.7661144    
C      1.9779095     5.2460175    -1.5366534    
C      2.4468260     5.6554949    -0.1675879    
C      3.7009493     5.2876817     0.3069193    
C      4.0690359     5.6630343     1.5885073    
C      3.1623845     6.3858807     2.3483634    
N      1.9624429     6.7376533     1.9104405    
C      1.6185909     6.3806837     0.6844433    
H     -3.2379028    -3.6995737     0.5684040    
H     -3.5566344    -8.2729398     0.8251804    
H     -2.5891464    -8.0618359     2.1873427    
H      1.5771677    -3.4483613    -0.3339686    
H      0.5102287    -5.6220918     0.0073309    
H     -3.1503693    -1.2890874     1.1013388    
H     -3.0489379    -1.0787314    -0.6401894    
H     -1.1840087     0.1285000     1.4503902    
H     -2.3043313     0.9707335     0.3763241    
H     -1.0113126    -0.0379358    -1.5760717    
H      0.9729608    -0.7206736     0.6295079    
H      0.6779054     1.6734322     0.2947602    
H      2.7748848     0.5359603    -0.5645600    
H      2.9951559     0.3290403    -2.2945548    
H      1.0614476    -1.2411986    -2.3694516    
H      2.2793758    -1.7531850    -1.2086128    
H      0.1558799     2.3507828    -3.4297644    
H      0.1171091     0.5874358    -3.3415176    
H      1.5744223     1.4150615    -3.8836369    
H     -1.3984557     2.8751253    -0.0572985    
H     -1.4381716     2.4583176    -1.7572021    
H      1.2701440     5.9753914    -1.9339774    
H      2.8271581     5.1234011    -2.2105670    
H      4.3666082     4.7131780    -0.3204829    
H      5.0354589     5.4027891     1.9886052    
H      3.3983755     6.7023326     3.3548751    
H      0.6295364     6.6830746     0.3647168    
