51

N      0.7903667     2.6801026    -1.0584337    
C      1.6202100     3.4111798    -0.0804515    
C      1.7845969     4.8808904    -0.6579749    
O      1.0164982     5.1216681    -1.6144325    
O      2.6032994     5.6208313    -0.1065835    
C      2.9514404     2.7233873     0.1737371    
C      2.7628108     1.3318901     0.7886829    
C      2.2695791     1.3721064     2.2375122    
N      3.4438906     1.3963188     3.1537983    
C      1.3886252     0.1650098     2.5720614    
C     -0.0630174     0.3343396     2.1236974    
O     -0.2242089     0.3753935     0.6934626    
C     -0.9454791    -0.8304743     2.6226449    
O     -1.4670383    -0.5991361     3.8962306    
C     -2.0248565    -0.9371373     1.5218422    
O     -3.1507524    -0.1699811     1.8385677    
C     -1.2739124    -0.4515007     0.2647230    
N     -0.7641672    -1.5534275    -0.5190959    
C      0.3583082    -2.3134492    -0.3223183    
N      0.4997843    -3.2776838    -1.1790406    
C     -0.5955464    -3.1852434    -2.0043697    
C     -1.0509435    -3.9211981    -3.1208416    
N     -0.3981543    -4.9666429    -3.6256676    
N     -2.2034880    -3.5318606    -3.6950575    
C     -2.8524135    -2.4868275    -3.2133974    
N     -2.5324346    -1.7166843    -2.1867725    
C     -1.3944065    -2.1067066    -1.5997302    
H      0.0984771     2.0624191    -0.6225589    
H      1.3714590     2.1393738    -1.7060536    
H      0.3653617     3.4759058    -1.6094383    
H      1.0541316     3.5396288     0.8444805    
H      3.5428228     3.3854399     0.8068833    
H      3.4889450     2.6405490    -0.7723479    
H      3.7064873     0.7902879     0.7355102    
H      2.0422065     0.7741881     0.1947445    
H      1.7021866     2.2885571     2.4140414    
H      3.1537029     1.5259573     4.1308573    
H      4.0696665     2.1700334     2.8974673    
H      3.9728808     0.5174633     3.0854734    
H      1.3285874     0.0224682     3.6523680    
H      1.8031960    -0.7389750     2.1278296    
H     -0.4591878     1.2732809     2.5337611    
H     -0.3638221    -1.7586768     2.6586898    
H     -2.4042503    -0.3507001     3.8115898    
H     -2.3882016    -1.9589866     1.3953854    
H     -2.9650154     0.7770981     1.7457592    
H     -1.9547313     0.0935709    -0.4022252    
H      1.0605004    -2.1107184     0.4597320    
H     -0.7842105    -5.4486854    -4.4194312    
H      0.4644342    -5.2615053    -3.2009166    
H     -3.7677159    -2.2273361    -3.7302216    
