46

C     -2.9260007    -3.9797122     3.4225729    
C     -3.0856037    -2.5968888     3.3224050    
C     -2.0416969    -1.8316777     2.7943888    
C     -0.8809397    -2.4488927     2.3094443    
C     -0.7426844    -3.8425487     2.4071538    
C     -1.7618411    -4.5853722     2.9665076    
C      0.2147451    -1.6982880     1.6989526    
C      0.0696086    -0.7790994     0.7315536    
C      1.1347173    -0.0399594     0.0971863    
C      0.8095460     0.8557658    -0.8707223    
C      1.6887124     1.6914915    -1.6195981    
C      1.2487804     2.5594114    -2.5563268    
C      2.0728344     3.4335130    -3.3573054    
C      1.4768689     4.2519641    -4.2486281    
C      2.0673058     5.2434395    -5.2060368    
C      3.5588833     3.3848148    -3.1619249    
C      2.5382378    -0.2979128     0.5549226    
C      0.4839348    -4.5332258     1.8907995    
C     -2.1632492    -0.3340890     2.8230519    
O     -3.8670138    -4.8072269     3.9669334    
O      1.2316751     5.8319358    -5.9440783    
O      3.3057795     5.4513654    -5.2470299    
C     -4.3602251    -1.9396086     3.7816929    
H     -1.6811426    -5.6577236     3.0596707    
H      1.2047776    -1.9660794     2.0391042    
H     -0.9244392    -0.5663700     0.3606608    
H     -0.2396902     0.9664976    -1.1201650    
H      2.7484059     1.6271831    -1.4279833    
H      0.1834940     2.6280173    -2.7451745    
H      0.3947416     4.2314772    -4.3411770    
H      3.8120915     3.6390818    -2.1345488    
H      4.0294576     4.0998303    -3.8306902    
H      3.9332533     2.3872014    -3.3838471    
H      2.7727193    -1.3560073     0.4574307    
H      2.6440664    -0.0196548     1.6021625    
H      3.2594185     0.2667796    -0.0250358    
H      0.6497480    -4.2833715     0.8443760    
H      0.3766894    -5.6107068     1.9805748    
H      1.3647827    -4.2261544     2.4532996    
H     -2.5597033    -0.0088012     3.7825282    
H     -2.8352362     0.0202302     2.0414394    
H     -1.1955049     0.1354151     2.6736964    
H     -4.5865073    -4.2933020     4.3615959    
H     -5.2086257    -2.6169972     3.7003503    
H     -4.5802079    -1.0733323     3.1659369    
H     -4.2766250    -1.6060790     4.8171212    
