67

N      0.4913159    -1.1448801     0.0485223    
N     -1.0784824    -0.0774100     1.1897894    
C     -4.6263156    -1.1705591     2.9547165    
C      0.0759467     0.0423366     0.5889300    
C     -0.4828615    -3.5182265    -0.0537399    
C      1.6794320    -1.2671168    -0.7602271    
C      1.4835437    -0.6135345    -2.1310348    
C      2.6730974     0.5531750    -4.0353037    
C      0.6139112    -4.2916528     0.6860081    
C      2.8488300     2.5655252     0.8299739    
C     -5.4487878    -3.0448271     4.4167285    
C     -5.3115867    -3.9003338     5.4956897    
C      0.3335218     2.3234798    -0.3223975    
C      1.0718506     3.4721846    -0.5431044    
C     -3.3408217    -2.0411941     4.9411207    
O     -3.1355316    -3.0225907     1.4711707    
C     -2.7104790    -1.8702179     1.6021015    
N     -3.3765516    -0.9165405     2.2734855    
C     -4.4663715    -2.1066158     4.1298504    
C     -3.1991615    -2.9015078     6.0157920    
C     -4.1849419    -3.8320800     6.2973849    
C     -1.4455750    -1.3911769     1.0364934    
C     -0.4801116    -2.0688300     0.3145796    
C     -0.4157855    -3.7515519    -1.5661861    
C      0.8464901     1.2849891     0.4499053    
C      2.3247481     3.5630946     0.0303381    
F      3.0709149     4.6856710    -0.1740104    
C      2.1018756     1.4202087     1.0351121    
C      2.8196435    -0.4042446    -2.8430925    
O      3.2817207    -1.6814669    -3.2372821    
C      2.5380585     2.0175223    -3.5816207    
O      3.6324381     2.3912642    -2.7642438    
C      2.3663281     2.9544127    -4.7741125    
C      1.9898602     4.3905024    -4.3009141    
O      2.7396882     5.3192410    -4.6642896    
O      0.9591531     4.5018969    -3.6082612    
H     -5.3284635    -1.6168447     2.2422094    
H     -5.0248686    -0.2120559     3.2926718    
H     -1.4503670    -3.8915610     0.3000532    
H      1.9411644    -2.3155336    -0.8798368    
H      2.4977000    -0.7581882    -0.2458562    
H      1.0047887     0.3559596    -2.0012423    
H      0.8475988    -1.2356956    -2.7617401    
H      1.7999288     0.2801616    -4.6272340    
H      3.5574867     0.4740173    -4.6720303    
H      0.4997935    -5.3540557     0.4888126    
H      0.5245797    -4.1284067     1.7574206    
H      1.6075039    -3.9875370     0.3684665    
H      3.8266522     2.6889780     1.2654754    
H     -6.3231175    -3.1083555     3.7856153    
H     -6.0814945    -4.6276652     5.7054086    
H     -0.6415157     2.2245512    -0.7740076    
H      0.7144510     4.2580049    -1.1906076    
H     -2.5666494    -1.3204500     4.7214058    
H     -2.9251959    -0.0154876     2.3323079    
H     -2.3153876    -2.8453328     6.6338939    
H     -4.0731993    -4.5039355     7.1349803    
H     -1.1461078    -3.1253463    -2.0741114    
H     -0.6524310    -4.7909868    -1.7781809    
H      0.5695388    -3.5388228    -1.9708587    
H      2.4928018     0.6348104     1.6633930    
H      3.5319093     0.0521933    -2.1376444    
H      4.1532660    -1.6017658    -3.6472470    
H      1.6570546     2.1390766    -2.9396864    
H      4.3806018     2.6209814    -3.3340333    
H      1.5477518     2.5994983    -5.4015408    
H      3.2815032     3.0173511    -5.3665927    
