71

N      1.3721228    -0.9002467     0.0774636    
N      0.2255485     0.7239858    -0.8829864    
C      0.1604553    -0.4894947    -0.4054704    
C      3.6803519     0.0860536     0.3420939    
C      1.5732259    -2.1465823     0.7761705    
C      1.1260991    -2.0266396     2.2385008    
C     -0.1506517    -3.2490417     4.0551997    
C      4.6067793     0.2758049    -0.8617621    
C     -2.2665438    -3.3185611    -0.8798174    
C      2.0578718     5.6232355    -4.2058812    
C      2.5314912     5.6729123    -5.5041324    
C     -2.1065197    -0.8982954     0.4728479    
C     -3.2356530    -1.6830025     0.6200420    
C      1.3766302     3.3523783    -4.5347088    
O      2.9873048     3.0198650    -0.9893953    
C      1.8830217     2.4931860    -1.1451710    
N      0.8539091     3.1225980    -1.7371032    
C      0.9455303     4.4526553    -2.2909304    
C     -0.4297145     5.1503938    -2.2259940    
O     -1.3758682     4.6254181    -3.1235618    
C      1.4757855     4.4630759    -3.7096233    
C      1.8529171     3.4015387    -5.8342600    
C      2.4297309     4.5602525    -6.3229615    
C      1.5221697     1.1412470    -0.7008905    
C      2.2498442     0.1378481    -0.0853562    
C      3.9522634     1.1505476     1.4081576    
C     -1.0502108    -1.3156596    -0.3313108    
C     -3.2853387    -2.8882632    -0.0509892    
F     -4.3862301    -3.6807979     0.0842353    
C     -1.1436676    -2.5237218    -1.0166872    
C      0.8250048    -3.3887260     2.8814833    
O      1.9975849    -4.0040271     3.3802280    
C     -1.6010594    -3.0453274     3.5879356    
O     -1.9922952    -4.0685956     2.6920956    
C     -2.5509467    -2.9336380     4.7782208    
C     -3.9678114    -2.4804353     4.3170583    
O     -4.9226504    -3.2339635     4.5938194    
O     -4.0408318    -1.3896302     3.7166150    
H      3.8814667    -0.8941169     0.7831403    
H      2.6217985    -2.4340677     0.7005934    
H      0.9608259    -2.9053260     0.2847425    
H      0.2120547    -1.4324114     2.2676756    
H      1.8829091    -1.5166109     2.8367707    
H      0.1446601    -2.4150761     4.6903689    
H     -0.0927195    -4.1647268     4.6468743    
H      5.6430285     0.1848955    -0.5484050    
H      4.4572026     1.2650029    -1.2864632    
H      4.4018261    -0.4695860    -1.6266015    
H     -2.3578934    -4.2613706    -1.3935680    
H      2.1451118     6.4887811    -3.5653296    
H      2.9840810     6.5793458    -5.8768779    
H     -2.0414144     0.0365887     1.0081472    
H     -4.0343047    -1.3941374     1.2854786    
H      0.9369428     2.4401950    -4.1598889    
H      0.0043513     2.5819652    -1.8231114    
H      1.6441322     5.0115097    -1.6541796    
H     -0.3046668     6.1957100    -2.5154635    
H     -0.8018516     5.1092317    -1.1946209    
H     -1.6346111     3.7362972    -2.8467266    
H      1.7717607     2.5290007    -6.4651923    
H      2.8001541     4.5964511    -7.3361685    
H      3.2840524     1.0246084     2.2575900    
H      3.7979791     2.1397592     0.9848208    
H      4.9794849     1.0750531     1.7538347    
H     -0.3449180    -2.8378635    -1.6712684    
H      0.3443161    -4.0424394     2.1379374    
H      2.5695649    -4.2596360     2.6438617    
H     -1.6908340    -2.1207189     3.0045631    
H     -2.1713172    -4.8707066     3.2039525    
H     -2.1818377    -2.1769616     5.4712652    
H     -2.6464255    -3.8895784     5.2973082    
