75

N      1.1571689    -0.8455823    -1.4786901    
C      1.2301985    -0.9305748    -0.1184516    
C     -0.0346386    -0.7378707     0.4044677    
C      2.2945003    -0.9030174    -2.3815861    
C      2.4736006    -1.2533574     0.6396047    
C      3.3873194    -0.0293330     0.8248613    
C      4.8847325     1.1861596     2.4727689    
C      2.6457338     0.5013707    -2.8746789    
C     -1.9822616    -1.4858259     3.5194351    
C     -2.1150939    -0.5611989    -5.8596474    
C     -2.7930575    -0.7826215    -7.0456150    
C      0.3100036    -0.1050534     2.7845355    
C     -3.9824057     1.2701954     0.4257367    
C     -0.0720790    -0.1263198     4.1132053    
C     -2.5015018    -2.8527873    -5.2366251    
C     -4.9549196     0.6279210    -0.3155264    
O      3.6171823     4.6047216     5.5990569    
C      3.3905135     4.2049270     4.4379723    
O      2.3786115     4.4589517     3.7517782    
C      4.4810392     3.3158133     3.7720153    
C      3.8911610     1.9752250     3.3400136    
O      3.4629789     1.2063597     4.4489662    
C      4.3231728    -0.1705661     2.0327852    
O      5.4277899    -1.0088730     1.7390571    
C     -0.4327708    -0.7692172     1.8094812    
C     -1.2159098    -0.8187408     4.4554435    
F     -1.6113430    -0.8456438     5.7680869    
C     -1.5829140    -1.4580808     2.1971508    
C      2.0458708    -1.8601655    -3.5456740    
C     -0.1427577    -0.6192385    -1.8395133    
C     -0.9178707    -0.5485059    -0.6955960    
C     -2.3283519    -0.1727759    -0.5874302    
C     -2.6705372     0.8630560     0.2834869    
F     -6.2574275     1.0267355    -0.1843933    
C     -4.6578862    -0.4035169    -1.1823927    
C     -3.3387814    -0.8010797    -1.3106370    
C     -0.6205822    -0.3842033    -3.2315270    
O     -0.4427453     0.6705640    -3.8274433    
N     -1.2943818    -1.4505927    -3.7246559    
C     -1.9643163    -1.5998027    -4.9463062    
C     -3.1758159    -3.0634737    -6.4240040    
C     -3.3236866    -2.0289847    -7.3341792    
H      3.1332288    -1.2858331    -1.7950678    
H      3.0201804    -2.0609213     0.1491638    
H      2.1606160    -1.6059174     1.6246820    
H      2.7729167     0.8597094     0.9738306    
H      4.0037923     0.1368400    -0.0601318    
H      5.7918715     1.0013082     3.0524851    
H      5.1539553     1.7825505     1.6012924    
H      3.5295651     0.4636836    -3.5040551    
H      2.8422133     1.1615037    -2.0325255    
H      1.8225062     0.9212294    -3.4473500    
H     -2.8693206    -2.0129688     3.8308922    
H     -1.7041469     0.4099246    -5.6370268    
H     -2.9057470     0.0308705    -7.7464716    
H      1.1857352     0.4628486     2.5165641    
H     -4.2515619     2.0713959     1.0943983    
H      0.5072051     0.3941394     4.8596895    
H     -2.3893315    -3.6601943    -4.5280390    
H      5.2982798     3.1769028     4.4828990    
H      4.8458469     3.8538462     2.8963051    
H      2.9720970     2.1882018     2.7786776    
H      4.1874479     1.1644013     5.0904538    
H      3.7615587    -0.5848573     2.8849921    
H      5.1080147    -1.9069740     1.5777594    
H     -2.1672242    -1.9770368     1.4543492    
H      2.9833200    -2.0417895    -4.0628833    
H      1.3459921    -1.4338397    -4.2587714    
H      1.6584928    -2.8084045    -3.1830488    
H     -1.8968706     1.3604950     0.8471186    
H     -5.4453307    -0.8832425    -1.7397622    
H     -3.1075508    -1.6184131    -1.9721505    
H     -1.2935865    -2.2785262    -3.1410347    
H     -3.5886235    -4.0368574    -6.6389166    
H     -3.8498518    -2.1919554    -8.2617361    
