50

C     -4.1138592     2.7203569     2.6548127    
C     -2.7450556     2.7194730     2.4686593    
C     -2.1707385     1.8745681     1.5319243    
C     -2.8901596    -0.7011374    -1.0441334    
C     -1.9156577    -1.3927047    -1.9308241    
C     -2.3817613    -1.8468834    -3.1643200    
C     -1.5465177    -2.5211970    -4.0320793    
C     -0.2321261    -2.7761889    -3.6573502    
C      0.2382743    -2.3396797    -2.4219976    
N      0.6406794    -3.4794670    -4.5283342    
C      0.2211956    -4.6935334    -5.0817641    
C      1.1818434    -5.3360083    -5.9311057    
C      1.8787339    -2.9670341    -4.7557309    
C      2.7801669    -3.5895843    -5.5561745    
C      3.6335676     1.8129977     3.1884298    
C     -2.9446527     1.0116328     0.7486596    
C     -4.3285674     1.0210499     0.9574146    
C     -4.8967373     1.8606368     1.8956096    
S     -0.3979570     1.9666047     1.4543007    
N      0.0736285     1.0617109     2.8009353    
N     -2.3253749     0.2004779    -0.1885334    
O     -4.0872903    -0.9381454    -1.1055859    
C     -0.5937187    -1.6445087    -1.5658570    
O     -0.8948633    -5.1536254    -4.8178271    
C      2.4128904    -4.8107362    -6.1612774    
C      1.3135219     1.2955655     3.3707946    
C      2.4187046     1.5989431     2.5702716    
C      3.6989981     1.7023762     4.5740408    
C      2.5535615     1.3825662     5.2841481    
N      1.3855447     1.1930183     4.6936844    
Cl     5.1967488     1.9709640     5.4011167    
O      0.0567048     3.3258437     1.6322226    
O      0.1445976     1.2975694     0.2875966    
H     -4.5643333     3.3775678     3.3795047    
H     -2.0937361     3.3761644     3.0226565    
H     -3.4100290    -1.6555231    -3.4313400    
H     -1.9113588    -2.8611953    -4.9873934    
H      1.2512830    -2.5619305    -2.1217755    
H      0.8621624    -6.2677088    -6.3726735    
H      2.0875146    -2.0210188    -4.2796747    
H      3.7520570    -3.1584074    -5.7233667    
H      4.5131498     2.0586756     2.6156511    
H     -4.9431358     0.3621304     0.3669874    
H     -5.9667514     1.8454400     2.0302175    
H     -0.6494851     0.9091672     3.4916735    
H     -1.3245966     0.3635414    -0.2783694    
H     -0.2074764    -1.3262292    -0.6090989    
H      3.1112078    -5.3223291    -6.8051419    
H      2.3002084     1.6692820     1.5021703    
H      2.5615030     1.2831358     6.3596816    
