258

N      4.0069962    -9.1655504     3.6262264    
C      3.6800279    -8.6174978     2.2890697    
C      2.7647354    -7.4094215     2.5391414    
O      2.2967372    -7.2364152     3.6690464    
C      2.9762314    -9.6500174     1.3903838    
C      3.9012358    -10.1988666     0.3043381    
C      4.2337550    -9.1450848    -0.7397856    
O      3.8552738    -7.9779850    -0.6474164    
N      4.9878721    -9.5709266    -1.7519508    
N      2.5553276    -6.6291280     1.4952652    
C      1.8051483    -5.3932320     1.5678994    
C      0.2817186    -5.5921305     1.5578038    
O     -0.4397799    -5.0788661     0.7162643    
N     -0.1570359    -6.3363854     2.5815883    
C     -1.5341722    -6.7535457     2.7389270    
C     -2.2871417    -5.7862036     3.6497810    
O     -3.4328726    -5.4147864     3.4288284    
C     -1.5917623    -8.1938525     3.2875186    
C     -0.9454833    -9.1542419     2.2801028    
C     -3.0318745    -8.5972997     3.5899390    
C     -0.5815490    -10.5001790     2.8970469    
N     -1.6113483    -5.3521030     4.7223746    
C     -2.2484351    -4.3910220     5.5949659    
C     -2.6358620    -3.1717909     4.7489219    
O     -1.8874816    -2.7243570     3.8788529    
C     -1.3541676    -4.0198179     6.7970254    
O     -2.1060755    -3.0873148     7.5482550    
C      0.0039383    -3.4511415     6.3826544    
N     -3.7989173    -2.5969037     5.0443232    
C     -4.3927960    -1.6063591     4.1630836    
C     -3.4581369    -0.4359816     3.8680755    
O     -3.4590908     0.0785668     2.7410272    
C     -5.7129464    -1.0558547     4.7198926    
C     -6.7952352    -2.1313278     4.8446447    
C     -8.1893457    -1.5329845     5.0586426    
C     -8.3183376    -0.7035079     6.3388348    
N     -8.0799465     0.7430153     6.0903410    
N     -2.7632899     0.1267039     4.8554672    
C     -1.8638130     1.2338657     4.5333810    
C     -0.8935060     0.8970209     3.4083338    
O     -0.5885992     1.7402349     2.5746736    
C     -1.1267441     1.5307086     5.8462662    
C     -2.0934169     1.0151156     6.9098117    
C     -2.6606143    -0.2444958     6.2606281    
N     -0.3364519    -0.3162902     3.4699416    
C      0.6138035    -0.7506713     2.4669319    
C     -0.0592770    -0.8749743     1.0983292    
O      0.4461658    -0.3705626     0.1006525    
C      1.2473095    -2.0732622     2.8728734    
N     -1.2436467    -1.4897995     1.0876961    
C     -1.9639028    -1.6616407    -0.1620593    
C     -1.9644288    -0.3119434    -0.8876835    
O     -1.6186857    -0.1764383    -2.0585483    
C     -3.4177476    -2.1121259     0.0695494    
C     -3.4656109    -3.5066390     0.7023526    
C     -4.1766089    -2.0879980    -1.2571659    
C     -4.8899411    -4.0139000     0.9197427    
N     -2.4185329     0.6933778    -0.1370484    
C     -2.6644152     2.0187720    -0.6713698    
C     -1.3596517     2.7274636    -1.0305683    
O     -1.2517759     3.3998418    -2.0575409    
C     -3.4539352     2.8381219     0.3495651    
C     -4.8987441     2.3433412     0.4395820    
C     -5.6740199     3.0404748     1.5508950    
N     -5.2560109     2.5270688     2.8451925    
C     -5.6876720     3.0005862     4.0024061    
N     -6.4911576     4.0526214     4.0638380    
N     -5.3838778     2.3510613     5.1458361    
N     -0.3805961     2.6157823    -0.1402912    
C      0.8827697     3.2848043    -0.3591535    
C      1.5561370     2.7989646    -1.6426943    
O      2.2520601     3.5591805    -2.3113034    
C      1.8093216     3.1150879     0.8481596    
C      2.9094834     4.1762122     0.8474258    
C      3.6757873     4.1866772     2.1770871    
N      4.5056105     5.3704539     2.2945174    
C      4.0497869     6.5914665     2.5589809    
N      2.7540919     6.8140835     2.7397004    
N      4.9006119     7.6161973     2.5679337    
N      1.3815218     1.5068615    -1.9098059    
C      1.8485011     0.8622777    -3.1193363    
C      1.0033689     1.3125160    -4.3105255    
O      1.5441355     1.7337869    -5.3454429    
C      1.8068639    -0.6613960    -2.9375567    
C      2.9242227    -1.4150345    -3.6662207    
C      2.8725396    -2.8915249    -3.2771597    
C      2.8247398    -1.2676447    -5.1824780    
N     -0.3092224     1.3112050    -4.1324576    
C     -1.2298944     1.7468453    -5.1707111    
C     -0.7648830     3.0924519    -5.7374111    
O     -0.6708888     3.2843681    -6.9546372    
C     -2.6327098     1.8738886    -4.5897346    
N     -0.4533140     4.0132980    -4.8308574    
C      0.0285967     5.3364970    -5.1868725    
C      1.0547777     5.2819682    -6.3274483    
O      1.0689479     6.1090151    -7.2315134    
C      0.7515961     5.9524164    -3.9830077    
C     -0.2026288     6.5191815    -2.9317620    
C      0.5513191     6.9373757    -1.6626083    
N      1.6307325     7.8687222    -1.9032611    
C      2.9120430     7.5483420    -2.0842397    
N      3.3715000     6.3135212    -1.9197940    
N      3.7841608     8.5369952    -2.2879538    
N      2.0324132     4.3884509    -6.1040286    
C      3.1859402     4.1826319    -6.9452809    
C      2.9780990     3.1942704    -8.0956030    
O      3.9206346     2.8528253    -8.8039739    
C      4.3063577     3.6363763    -6.0487117    
C      4.7632954     4.6419002    -4.9849990    
C      5.1902181     3.8953074    -3.7194655    
N      6.0157654     4.7434523    -2.8660417    
C      6.4813293     4.3446248    -1.6770502    
N      5.9171715     3.3269567    -1.0384046    
N      7.3935930     5.0868948    -1.0527961    
N      1.7443318     2.6845329    -8.2250104    
C      1.4144164     1.7350404    -9.2539292    
C      0.7425957     0.4802984    -8.7161028    
O      0.2542122    -0.3411188    -9.4636560    
O      0.7039871     0.3079721    -7.4158999    
H      4.9625676    -8.9443645     3.9232307    
H      3.8755431    -10.1806995     3.6830507    
H      3.3405734    -8.6905950     4.2794990    
H      4.5813961    -8.2637296     1.7863232    
H      2.1189859    -9.1931629     0.8941901    
H      2.5935763    -10.4727453     1.9925972    
H      3.4131373    -11.0307352    -0.2049361    
H      4.8344070    -10.5741845     0.7257378    
H      5.2264203    -8.9345413    -2.4957704    
H      5.2666649    -10.5331081    -1.8383575    
H      2.9462578    -6.9183107     0.5966124    
H      2.0695956    -4.7733829     0.7135337    
H      2.0692537    -4.8845180     2.5005969    
H      0.5311814    -6.7141487     3.2303071    
H     -2.0235682    -6.7076959     1.7587158    
H     -1.0167115    -8.2239922     4.2197746    
H     -0.0408384    -8.6939767     1.8790224    
H     -1.6302342    -9.3089560     1.4436342    
H     -3.4816839    -7.9406081     4.3303281    
H     -3.0715816    -9.6125205     3.9736241    
H     -3.6383362    -8.5499181     2.6878659    
H     -0.0797157    -11.1258626     2.1637438    
H     -1.4694458    -11.0336364     3.2258579    
H      0.0685343    -10.3653373     3.7568856    
H     -0.6642347    -5.6446018     4.9010428    
H     -3.1729659    -4.8340952     5.9872582    
H     -1.2011529    -4.9392367     7.3782357    
H     -1.8373714    -3.1143556     8.4748780    
H      0.5001549    -3.0308374     7.2534965    
H     -0.1195547    -2.6746013     5.6344909    
H      0.6398055    -4.2315176     5.9766418    
H     -4.4038714    -3.0383189     5.7202467    
H     -4.5835702    -2.0828951     3.1909201    
H     -6.0567210    -0.3028914     4.0093901    
H     -5.5239082    -0.6137874     5.6966942    
H     -6.5766735    -2.8094077     5.6705622    
H     -6.8185511    -2.7375945     3.9373389    
H     -8.8968836    -2.3604800     5.1039014    
H     -8.4688122    -0.9341837     4.1917692    
H     -7.6159149    -1.0622111     7.0900815    
H     -9.3231551    -0.8186571     6.7435841    
H     -8.1927383     1.2633248     6.9675420    
H     -8.7760975     1.0906973     5.4213839    
H     -7.1379278     0.9150100     5.7102567    
H     -2.4392993     2.1033884     4.1956971    
H     -0.9025320     2.5875760     5.9551279    
H     -0.1927802     0.9712166     5.8870637    
H     -1.5947690     0.7993975     7.8498393    
H     -2.8772391     1.7457328     7.1000205    
H     -1.9749987    -1.0833866     6.3942603    
H     -3.6212673    -0.5400563     6.6722198    
H     -0.7773196    -1.0537400     4.0055801    
H      1.3796782     0.0272112     2.3674373    
H      1.9588378    -2.3817068     2.1132388    
H      0.4805987    -2.8397804     2.9642671    
H      1.7673992    -1.9639035     3.8204873    
H     -1.5612099    -2.0055982     1.8988282    
H     -1.4502622    -2.3930639    -0.8005718    
H     -3.8878201    -1.4022735     0.7585102    
H     -2.9593658    -3.4937296     1.6695967    
H     -2.9179118    -4.2136387     0.0758066    
H     -4.1222244    -1.1110909    -1.7311884    
H     -5.2233663    -2.3330579    -1.1093429    
H     -3.7532413    -2.8150404    -1.9480995    
H     -4.8784928    -4.8304568     1.6373960    
H     -5.3255069    -4.3853198    -0.0039081    
H     -5.5300512    -3.2233852     1.3038895    
H     -2.6920115     0.5107012     0.8225123    
H     -3.2345681     1.9232510    -1.6045697    
H     -3.4466629     3.8827527     0.0373295    
H     -2.9509208     2.7541235     1.3135397    
H     -4.9140036     1.2652863     0.6043636    
H     -5.4001715     2.5325906    -0.5102192    
H     -6.7441332     2.8606348     1.4066751    
H     -5.4876076     4.1165944     1.4937965    
H     -4.6639274     1.7006546     2.8130592    
H     -6.7654872     4.4496745     4.9471464    
H     -6.7812937     4.5388622     3.2334960    
H     -4.6205852     1.6922737     5.1228209    
H     -5.4754529     2.8690641     6.0077536    
H     -0.4963773     2.0816956     0.7152438    
H      0.6610646     4.3478355    -0.5087128    
H      2.2297351     2.1097612     0.8377819    
H      1.1938362     3.2067952     1.7433257    
H      2.4564492     5.1549990     0.6978099    
H      3.5983402     3.9964627     0.0255150    
H      4.3209662     3.3142225     2.2533557    
H      2.9755789     4.1412884     3.0151693    
H      5.4944388     5.2670403     2.1417484    
H      2.4293489     7.7282700     3.0024070    
H      2.1026496     6.0496946     2.7895204    
H      5.8931758     7.4720537     2.5075468    
H      4.5906300     8.5362440     2.8286012    
H      0.8193937     0.9371634    -1.2872180    
H      2.8743305     1.1900646    -3.3273998    
H      0.8395781    -1.0462266    -3.2656036    
H      1.8912799    -0.8709706    -1.8696117    
H      3.8911582    -1.0130074    -3.3480026    
H      3.6708600    -3.4425706    -3.7675895    
H      1.9258058    -3.3316274    -3.5837567    
H      2.9779150    -3.0126552    -2.2025359    
H      2.9469234    -0.2351011    -5.4962063    
H      1.8591812    -1.6148833    -5.5481015    
H      3.5954389    -1.8567816    -5.6759102    
H     -0.7274029     0.8414174    -3.3285072    
H     -1.2295213     1.0316436    -6.0049329    
H     -3.3260823     2.1887463    -5.3650110    
H     -2.6325417     2.6072869    -3.7878667    
H     -2.9519085     0.9077136    -4.2068416    
H     -0.6444800     3.8301738    -3.8463560    
H     -0.7992527     5.9665803    -5.5355525    
H      1.3949479     6.7460050    -4.3659315    
H      1.3656775     5.1599706    -3.5546691    
H     -0.9355673     5.7610902    -2.6570913    
H     -0.7436653     7.3674502    -3.3537134    
H      0.9684074     6.0521457    -1.1887750    
H     -0.1527780     7.4109449    -0.9775321    
H      1.3517947     8.8125788    -2.1253177    
H      4.3411871     6.1414279    -2.1353802    
H      2.7744744     5.4953665    -1.9736229    
H      3.4788893     9.4865915    -2.4069657    
H      4.7512462     8.3413369    -2.4782961    
H      1.8319814     3.5957209    -5.5007973    
H      3.4602391     5.1399066    -7.4038641    
H      5.1326485     3.3291924    -6.6897594    
H      3.9003554     2.7390017    -5.5775473    
H      3.9369546     5.3152577    -4.7641481    
H      5.5880084     5.2269723    -5.3930298    
H      5.7509874     3.0026253    -4.0177052    
H      4.2832974     3.6025272    -3.1854619    
H      6.5668528     5.4255312    -3.3701125    
H      6.3219280     2.9820299    -0.1838057    
H      5.2751256     2.7232916    -1.5231170    
H      7.8927298     5.8088149    -1.5451726    
H      7.8157473     4.7555520    -0.2012677    
H      0.9501888     3.0994595    -7.7399245    
H      2.3410011     1.4372397    -9.7587080    
H      0.7469540     2.1635376    -10.0087898    
H      1.1237447     1.0403908    -6.8711545    
