51

C     -1.6697752     2.3228261    -1.4228066    
C     -2.8001547     2.8140516    -2.0895658    
C     -4.0115440     2.1752294    -1.9814610    
C     -4.1353464     1.0101198    -1.2151684    
C     -3.0081771     0.5226966    -0.5525329    
C     -1.7932729     1.1692836    -0.6457298    
C      0.6692258     2.5488149    -0.9998700    
C      1.7685711     3.5632015    -1.2918956    
C     -5.4217178     0.3167574    -1.1108227    
C      3.1361681     3.0908355    -0.7990482    
C      2.4419599    -0.6075239     1.0356133    
C      3.3976658    -1.2475475     1.8254246    
C      3.3135970    -2.6070222     2.0500559    
C      2.2731509    -3.3631342     1.5105929    
C      1.3164036    -2.7186731     0.7185448    
C      1.4052830    -1.3689670     0.4797228    
C      3.4822222     1.5393092     1.2029225    
C      3.2277637     2.9691797     0.7326929    
C      2.1815778    -4.8034226     1.7673772    
O     -0.5327957     3.0259254    -1.5912349    
O      2.4186797     0.7114711     0.7552977    
N     -5.4439775    -0.9929506    -0.9904935    
N     -6.5386568     1.0109078    -1.1318525    
N      3.2814672    -5.5121931     1.8971667    
N      0.9983917    -5.3684932     1.8610423    
H     -2.6886743     3.7040485    -2.6877944    
H     -4.8518455     2.5638823    -2.5335191    
H     -3.0816627    -0.3455122     0.0828030    
H     -0.9469595     0.7847051    -0.1017214    
H      0.5354810     2.4337253     0.0806456    
H      0.9348603     1.5773703    -1.4343250    
H      1.5097071     4.5159892    -0.8267991    
H      1.8092751     3.7246297    -2.3704990    
H      3.8848211     3.7988837    -1.1545181    
H      3.3578758     2.1252606    -1.2558336    
H      4.2072408    -0.6918156     2.2687983    
H      4.0495863    -3.0656759     2.6914070    
H      0.5273753    -3.2812270     0.2472105    
H      0.6880353    -0.8699575    -0.1506879    
H      3.5366452     1.5186464     2.2983366    
H      4.4311398     1.1745426     0.7908195    
H      2.3091879     3.3335343     1.1916292    
H      4.0461091     3.5807687     1.1122095    
H     -6.3157118    -1.4947470    -0.9065053    
H     -4.5898356    -1.5248663    -1.0410138    
H     -6.5182422     2.0173675    -1.1692783    
H     -7.4389804     0.5566465    -1.0858519    
H      3.2471236    -6.5016269     2.0941352    
H      4.1855066    -5.0861324     1.7736833    
H      0.1600861    -4.8102846     1.8243885    
H      0.9042507    -6.3596114     2.0289718    
