51

C     -3.3335601     1.5667696     0.2048792    
C     -2.0979618     1.3957507     0.8321733    
C     -1.3002944     2.4877776     1.1038828    
C     -1.7110390     3.7804052     0.7763988    
C     -2.9583975     3.9513123     0.1662047    
C     -3.7490107     2.8647332    -0.1212076    
C     -3.8291271    -0.7759801     0.0866799    
C     -2.8403576    -1.2584148    -0.9786022    
C     -0.8541717     4.9321097     1.0701103    
C     -2.3185253    -2.6687567    -0.7081835    
C      1.4192949    -3.3036016    -0.5196050    
C      1.8307726    -2.4866669     0.5349655    
C      2.9713008    -1.7196594     0.4137271    
C      3.7282179    -1.7326522    -0.7580646    
C      3.3222874    -2.5649522    -1.8075493    
C      2.1943415    -3.3396298    -1.6865619    
C     -0.6034203    -4.0361281     0.5468882    
C     -1.4331829    -2.7499604     0.5374588    
C      4.9158137    -0.8841816    -0.8923975    
O     -4.1995988     0.5811170    -0.1146749    
O      0.3215534    -4.0903254    -0.5293554    
N      0.4525181     4.7973774     1.0139661    
N     -1.4012606     6.0839159     1.3914529    
N      5.6397192    -0.6012907     0.1690933    
N      5.2255466    -0.3866828    -2.0694528    
H     -1.7567071     0.4152276     1.1184390    
H     -0.3671939     2.3254607     1.6189872    
H     -3.2989006     4.9312201    -0.1273542    
H     -4.7057374     2.9819351    -0.6037460    
H     -3.4325728    -0.9101289     1.0976188    
H     -4.7675181    -1.3296793     0.0088357    
H     -1.9994130    -0.5638064    -1.0330925    
H     -3.3466480    -1.2364674    -1.9448851    
H     -1.7292702    -2.9839018    -1.5716296    
H     -3.1568002    -3.3606212    -0.6114003    
H      1.2729832    -2.4490307     1.4559117    
H      3.2409124    -1.0725736     1.2329134    
H      3.9079277    -2.6400876    -2.7097156    
H      1.8757699    -3.9906780    -2.4843676    
H     -1.2514767    -4.9009109     0.3879488    
H     -0.0839901    -4.1650453     1.5026410    
H     -2.0372986    -2.7372599     1.4443619    
H     -0.7600120    -1.8911909     0.5486698    
H      1.0659562     5.5693333     1.2313223    
H      0.8636341     3.9280070     0.7139701    
H     -2.4004409     6.1701117     1.4819474    
H     -0.8368252     6.8985357     1.5824990    
H      6.4581785    -0.0145764     0.1016690    
H      5.4451335    -1.0380613     1.0558675    
H      4.6448799    -0.5656884    -2.8731351    
H      6.0538361     0.1758770    -2.1968420    
