46

C      0.1787324     1.9997717    -2.2462668    
C      0.3785402     2.0640267    -0.9062541    
C     -5.0884334    -7.1027746    -0.8315735    
C     -3.8499401    -4.9375477    -0.9614308    
C     -3.4847584    -4.9482412     1.7875703    
C     -3.1507738    -3.8958714    -0.3515036    
C      1.1216076     3.0822122    -0.1208251    
C     -1.9436536    -1.7836786    -0.8194972    
C      2.4836396     2.5300889     0.3413902    
C      4.0380159     4.3940471     0.6472033    
C      5.2408137     5.2306904    -1.1099253    
C      4.6209198     5.4011821     1.4435254    
C      5.5229151     6.2924418     0.8465363    
C      6.0199688     7.2501069     1.7772629    
C      5.5050853     7.0747588     3.0141526    
F     -5.4664274    -6.8567609    -2.0986564    
N     -0.5303159     0.9290278    -2.6956765    
C     -0.8741701     0.1630842    -1.7159517    
S     -0.3607181     0.6814726    -0.1328235    
N      5.8377018     6.2018002    -0.4607068    
N      3.1977791     3.4814433     1.1530843    
N      4.3752776     4.3397039    -0.6486007    
S      4.3995696     5.7535196     3.1277829    
F     -4.3439241    -8.2333103    -0.8892369    
F     -6.2111515    -7.4509171    -0.1715067    
C     -4.3573777    -5.9669405    -0.1857226    
C     -4.1792827    -5.9868808     1.1924403    
C     -2.9728373    -3.9101934     1.0306110    
N     -2.6609178    -2.8851702    -1.1762872    
N     -1.6021847    -0.9856043    -1.8845940    
O     -1.6104523    -1.4878306     0.3196233    
H      0.5254675     2.7180039    -2.9656429    
H     -4.0019640    -4.9467887    -2.0294906    
H     -3.3393662    -4.9470558     2.8551688    
H      0.5356208     3.3660703     0.7555867    
H      1.2866976     3.9656189    -0.7389403    
H      3.0999189     2.3094822    -0.5306806    
H      2.3294712     1.6194410     0.9235526    
H      5.4801499     5.1437627    -2.1624017    
H      6.7219448     8.0161431     1.5093984    
H      5.7027362     7.6460848     3.8992373    
H      2.8851233     3.6170261     2.1035405    
H     -4.5812740    -6.7977818     1.7778550    
H     -2.4334245    -3.1072116     1.5042030    
H     -2.8697049    -3.0064158    -2.1590885    
H     -1.8594061    -1.2045641    -2.8381680    
