26

C      0.2453978    -0.3184507     1.2159055    
C      1.5523788    -0.6289214     0.5625853    
N     -0.8008962     0.2260095     0.5474750    
C      1.6499928     0.1259882    -0.7693567    
C      0.3538070    -0.0645491    -1.5701698    
C     -0.8250171     0.5972108    -0.8458911    
C     -2.1526500     0.2006059    -1.5186282    
C     -1.3241164    -0.1056292     2.6395985    
C     -1.8126270     0.3660295     1.4575459    
N     -0.0403123    -0.5299277     2.4793463    
O      2.7034194    -0.3563337    -1.5662094    
O      2.6533443    -0.2517257     1.3575290    
O      0.4520094     0.5147494    -2.8430026    
O     -3.2237712     1.0435057    -1.1812981    
H      1.6053824    -1.7123585     0.3496581    
H      1.7965505     1.1953062    -0.5535139    
H      0.1680014    -1.1477071    -1.6625033    
H     -0.7017382     1.6863408    -0.9337598    
H     -2.4397406    -0.8014220    -1.1899556    
H     -1.9859390     0.1870425    -2.6007383    
H     -1.8037002    -0.1681789     3.5947402    
H     -2.7660805     0.7646855     1.1843878    
H      3.5311595    -0.2765215    -1.0709028    
H      2.5087599    -0.5718159     2.2593842    
H      1.3089479     0.2612884    -3.2214168    
H     -3.1139206     1.8981504    -1.6207095    
