40

I      4.2117161     2.4234816     1.5912050    
C      3.3712911     0.5445238     1.2016938    
C      2.0684099     0.4329125     0.7840476    
C      4.1943407    -0.5609556     1.3792374    
O      5.4621599    -0.3642225     1.7873950    
C      3.6572770    -1.8152462     1.1135001    
C      2.3448469    -1.9392680     0.6985345    
C      1.5351110    -0.8247497     0.5294567    
C      0.0969601    -0.9797520     0.1577867    
C     -0.7483474    -1.3209696     1.4047536    
C     -0.5901691    -0.1551939     2.4347769    
O     -1.4273998     0.7654826     2.3551767    
O      0.3655128    -0.2248390     3.2243184    
N     -2.1512060    -1.4296514     1.0837484    
C     -2.6114724    -2.2781045     0.1259802    
O     -1.9701414    -3.2616863    -0.2440017    
N     -3.9191477    -2.0691908    -0.2531949    
C     -4.2333542    -2.4236128    -1.6309069    
C     -3.1337846    -1.8592021    -2.5924191    
O     -2.4207985    -0.9309624    -2.1521201    
O     -3.0571060    -2.3750541    -3.7218990    
C     -5.5976468    -1.8727887    -2.0364830    
C     -5.6725294    -0.3543846    -1.9228357    
C     -6.5972261     0.3157813    -2.9816339    
O     -6.9656600    -0.3535417    -3.9639277    
O     -6.8911419     1.5101258    -2.7628410    
H      1.4385837     1.3039930     0.6715548    
H      5.9428487    -1.2020207     1.8848197    
H      4.2643177    -2.6982449     1.2428682    
H      1.9241597    -2.9143834     0.5018911    
H     -0.0487050    -1.7796237    -0.5756184    
H     -0.3117734    -0.0619886    -0.2793593    
H     -0.3926279    -2.2584682     1.8454468    
H     -2.6129423    -0.5312277     1.1997669    
H     -4.2439378    -1.1338931    -0.0389962    
H     -4.2121085    -3.5145417    -1.7252638    
H     -6.3796518    -2.3342732    -1.4310010    
H     -5.7658579    -2.1344566    -3.0856915    
H     -4.6816600     0.0811540    -2.1033786    
H     -6.0082923    -0.0183956    -0.9388660    
