44

O      1.4881689    -1.1117325     0.5670342    
S      0.2311533    -0.4074539     0.7419544    
O     -0.7444956    -1.0303199     1.6152459    
N      0.6298453     1.0313087     1.4399306    
C      1.9538508     1.5959385     1.2326103    
C      1.9885391     2.7086954     0.1836562    
C      2.5342257     2.1298310     2.5524783    
N      2.2205163     1.2639784     3.7145411    
C      0.9878909     1.6544621     4.4483024    
C     -0.2789118     1.2291892     3.7185657    
C     -0.3500583     1.7160234     2.2679504    
C     -0.5242438    -0.0713270    -0.8633909    
C     -0.8071767    -1.0516095    -1.8500757    
C     -0.6863103    -2.4656024    -1.7354449    
C     -0.2935060    -3.1843521    -0.4882001    
C     -1.2893868    -0.5552970    -3.1030428    
C     -1.5269352     0.8186425    -3.3092695    
C     -1.3058148     1.7134122    -2.3038525    
C     -0.7893689     1.2528586    -1.0850186    
C     -1.5435241    -1.4736338    -4.1456092    
N     -1.3835118    -2.7612735    -4.0328697    
C     -0.9786661    -3.2287304    -2.8469783    
H      2.5518521     0.7517395     0.8763513    
H      2.9937882     3.1158902     0.1243078    
H      1.3055950     3.5134447     0.4409423    
H      1.7248590     2.3220599    -0.7959202    
H      2.1461448     3.1301508     2.7479071    
H      3.6148034     2.2007511     2.4298191    
H      3.0090468     1.2903156     4.3707447    
H      2.1180540     0.2938919     3.3874987    
H      1.0009358     2.7364179     4.5857210    
H      0.9984117     1.1810276     5.4302315    
H     -1.1371077     1.6224934     4.2612942    
H     -0.3698886     0.1419835     3.7000228    
H     -1.3393961     1.4745018     1.8778416    
H     -0.1973617     2.7934922     2.1981275    
H     -0.4446551    -4.2534999    -0.6134288    
H     -0.8792487    -2.8417461     0.3619416    
H      0.7550096    -3.0069458    -0.2556253    
H     -1.8934809     1.1342692    -4.2732628    
H     -1.5035854     2.7639513    -2.4369615    
H     -0.5900815     1.9696918    -0.3093540    
H     -1.8974570    -1.1139099    -5.1021194    
H     -0.8918910    -4.3058785    -2.7984030    
