22

O     -2.3131318    -3.1200473     0.6108001    
S     -1.3091406    -2.7440114     1.5774192    
O     -1.7731087    -2.0877089     2.7765327    
N     -0.4563004    -4.0586148     1.9887875    
C     -0.2354531    -1.5916576     0.7653337    
S     -0.9178990    -0.1402206     0.1444422    
N      1.0363183    -1.7153715     0.5908680    
N      1.5736902    -0.6877819    -0.0364831    
C      0.7339759     0.2509610    -0.3614652    
C      1.1434012     1.4527738    -1.0448979    
C      2.5084820     1.6106593    -1.3324453    
C      0.2679619     2.4725342    -1.4366147    
C      0.7359888     3.6026320    -2.0856431    
C      2.0871275     3.7354928    -2.3555139    
C      2.9729180     2.7358111    -1.9785336    
Cl    -1.4348080     2.3484828    -1.1210052    
H     -0.1461263    -4.5961982     1.1953186    
H      0.2720863    -3.8754980     2.6603755    
H      3.1775083     0.8226895    -1.0297014    
H      0.0365768     4.3697306    -2.3723618    
H      2.4434926     4.6187869    -2.8598628    
H      4.0252704     2.8349311    -2.1882067    
