34

C     -1.4330895    -0.7346881     2.2314907    
C     -1.0118215     0.4010518     2.9167640    
C     -0.2563455     1.3865893     2.2898663    
C      0.0927869     1.2333953     0.9471960    
C     -0.3337423     0.0983958     0.2783998    
C     -1.0854519    -0.8932636     0.8900016    
O     -2.1631578    -1.6225219     2.9478983    
C     -2.6363070    -2.7912817     2.2998933    
O      0.0919001     2.4449685     3.0602486    
C      0.8522726     3.4884827     2.4751779    
N      0.0071405    -0.0469808    -1.1084617    
C      1.0459316    -0.7567880    -1.5208659    
N      1.3092323    -0.8913024    -2.8595412    
C      0.8915710    -0.1090578    -3.9104091    
N      0.4771318     1.1234924    -3.7084524    
N      1.8445651    -1.3660791    -0.6763705    
N      0.9381488    -0.6381839    -5.1106425    
H     -1.2817779     0.5227489     3.9525610    
H      0.6750739     1.9786846     0.4353905    
H     -1.3999591    -1.7555422     0.3281160    
H     -3.1999227    -3.3323438     3.0562733    
H     -1.8067352    -3.4128438     1.9560990    
H     -3.2989496    -2.5393925     1.4690239    
H      1.0045831     4.2147946     3.2707594    
H      0.3049208     3.9624609     1.6566282    
H      1.8226920     3.1227494     2.1312304    
H     -0.7028955     0.2496160    -1.7686109    
H      1.9033172    -1.6770797    -3.1101570    
H      0.1940930     1.6974112    -4.4896372    
H      0.6176058     1.5958724    -2.8281986    
H      1.6504834    -1.3288101     0.3141073    
H      2.6799843    -1.8505865    -0.9697827    
H      1.1892538    -1.6039106    -5.2659891    
H      0.6943127    -0.0969523    -5.9275606    
