30

C     -0.6993600     1.3388955    -0.5216733    
O     -1.7022925     2.2413291    -0.4849929    
C     -0.7539914    -0.0366280    -0.2619427    
Cl    -2.2496331    -0.8751214     0.0602145    
C      0.4141842    -0.7937346    -0.2976771    
Cl     0.2972137    -2.4993726    -0.1012812    
C      1.6556471    -0.2182093    -0.5400300    
C      1.7023435     1.1494144    -0.8017926    
C      0.5572053     1.9053142    -0.7814693    
C      2.9169819    -1.0143462    -0.5749623    
O      3.6755700    -0.9264824    -1.5268358    
C      3.2201282    -1.8591529     0.6031628    
C      2.7583157    -1.3887286     1.9523955    
C      3.4538234    -0.0831138     2.3417166    
C      3.9460657    -2.9605677     0.4203769    
C     -3.0564882     1.8952072    -0.6876355    
C     -3.2877507     0.9454120    -1.9137364    
O     -2.3140926     0.7425123    -2.6589596    
O     -4.4390166     0.4852379    -2.0178964    
H      2.6553865     1.6026143    -1.0238083    
H      0.5770223     2.9632451    -0.9837919    
H      2.9854644    -2.1592669     2.6886825    
H      1.6796982    -1.2303336     1.9455477    
H      3.1251814     0.2312861     3.3278077    
H      3.2112161     0.7026081     1.6303452    
H      4.5320641    -0.2181200     2.3557004    
H      4.2749753    -3.2419487    -0.5655540    
H      4.2020518    -3.6133230     1.2360686    
H     -3.5620836     2.8401482    -0.9012462    
H     -3.5106536     1.4511486     0.2046726    
