92

N     -1.4615576     0.2021235     3.2361105    
N      0.0230152     4.5755561     1.1176721    
C     -0.9270594     0.2219647     4.6104260    
C     -1.6495868     1.6002426     0.0632214    
C     -0.0994336     1.3775996    -0.0827394    
C     -1.4740696     5.4939271     2.9581141    
C     -0.0281172     5.0684687     2.5055135    
C     -0.3599510     5.6490566     0.1722759    
C      1.6198154     2.5714352     1.3472910    
C      2.8758491     1.9950210     0.6846678    
C      3.7835724     4.3103105     0.3978125    
C     -0.8624255    -2.9909051     0.3897406    
C     -0.5527738    -3.6321994    -0.7939313    
C      0.7729401    -3.9188923    -1.1074425    
C      1.4466341    -2.9456056     0.9948154    
C      0.5935694    -4.7041818    -3.4853443    
C      1.0948171    -5.6836290    -5.7583912    
O     -2.4211324     5.2134166     2.2038059    
O     -1.5163293     6.1030933     4.0396878    
C     -0.7185707     5.1661174    -1.2802146    
O     -1.2287440     6.0327962    -2.0020811    
O     -0.4414631     3.9941981    -1.5890118    
C      1.3313143     3.9485322     0.7235672    
C      2.5187805     4.8594573     1.0556707    
C      4.0731959     2.9118931     0.9232670    
N      0.4753425     1.6205451     1.2468260    
O     -2.4092183     1.0366790    -0.7237997    
O     -1.9437878     2.3335154     1.0447499    
C      0.7082534     0.3527180     1.9756498    
C     -0.5813365    -0.4355846     2.2133118    
C     -0.2912054     1.6277414     4.9242132    
O     -0.0202183     1.8599420     6.1044769    
O     -0.0714299     2.3442995     3.9272573    
C     -2.8409780    -0.2981639     3.1844793    
C     -3.8131278     0.7611797     3.8405107    
O     -4.9696413     0.3647632     4.0433591    
O     -3.3141932     1.8712950     4.0847107    
C     -0.2368782    -1.8948906     2.5599455    
C      0.1269613    -2.6326784     1.2960754    
C      1.7669756    -3.5821998    -0.1871202    
N      1.1829170    -4.5721555    -2.2701743    
S     -0.8524582    -3.9617488    -3.8990062    
N      1.2786321    -5.4891499    -4.3332832    
C      1.2466866    -4.3595366    -6.5300422    
O      2.5638042    -3.8733695    -6.3832354    
C     -0.2748331    -6.3041567    -6.0816083    
O     -0.2749030    -6.7134756    -7.4288891    
C      2.2087366    -6.6753101    -6.1756685    
O      3.4437027    -6.3617220    -5.5870429    
H     -1.5678390     1.2188424     3.0111562    
H     -0.7559236     3.8905805     1.0450709    
H     -0.1810824    -0.5561745     4.7539352    
H     -1.7318725     0.0893245     5.3305915    
H      0.2031653     2.1210240    -0.8176638    
H      0.1169984     0.3808724    -0.4593696    
H      0.6163245     5.9358398     2.6320686    
H      0.2504598     4.2763948     3.2028315    
H      0.4267318     6.4003416     0.1085359    
H     -1.2681493     6.1235696     0.5457898    
H      1.7781050     2.7045951     2.4231928    
H      2.6977790     1.8905717    -0.3856046    
H      3.0991837     1.0163516     1.1020399    
H      4.6178137     4.9755117     0.6156518    
H      3.6414113     4.2823584    -0.6832145    
H     -1.8973293    -2.7688969     0.6080815    
H     -1.3462373    -3.9034131    -1.4687229    
H      2.2297748    -2.6985692     1.6944593    
H      1.2598363     3.8457398    -0.3639331    
H      2.3297004     5.8683340     0.6926353    
H      2.6574692     4.9037029     2.1361021    
H      4.9480831     2.4995090     0.4240691    
H      4.2789211     2.9645558     1.9925480    
H     -0.3194724     2.1017601     1.7460068    
H      1.1746537     0.5951741     2.9309843    
H      1.3698795    -0.2722484     1.3722880    
H     -1.1729877    -0.4354926     1.2921307    
H     -2.9485472    -1.2489627     3.7025477    
H     -3.1711155    -0.3914367     2.1480868    
H     -1.1051792    -2.3697898     3.0141716    
H      0.5958149    -1.9337719     3.2608511    
H      2.7976820    -3.8165968    -0.4038301    
H      2.1321005    -4.9269326    -2.2095504    
H      0.5167808    -3.6423453    -6.1367142    
H      1.0166642    -4.5587340    -7.5834448    
H      2.6246998    -2.9931843    -6.7746064    
H     -1.0591188    -5.5633915    -5.8934726    
H     -0.4321669    -7.1586559    -5.4107883    
H     -1.1517541    -7.0544992    -7.6527361    
H      2.2701013    -6.6950722    -7.2675346    
H      1.9485171    -7.6746436    -5.8207395    
H      3.6991490    -5.4749514    -5.8943037    
H      2.2087306    -5.7981597    -4.0503610    
