21

O      1.7897970     0.2762868    -0.8493894    
C      0.7458298     0.9576526    -0.2075613    
C      0.4459337     0.3843777     1.2183843    
O      1.3888779    -0.5986928     1.5671378    
C     -0.9716306    -0.2315759     1.1135155    
N     -0.8254069    -1.6142002     0.6052456    
C     -1.6587392     0.6267960     0.0585521    
C     -0.5754614     0.7871171    -1.0114433    
O     -0.5299743    -0.3994570    -1.7791945    
H      2.2000509    -0.3201180    -0.1958172    
H      1.0046764     2.0213802    -0.1412379    
H      0.4287314     1.2078616     1.9326486    
H      1.8592290    -0.3731812     2.3756671    
H     -1.4835460    -0.2312775     2.0759661    
H     -1.6481885    -2.1923902     0.7893106    
H      0.0136624    -2.0310309     1.0352156    
H     -0.6770306    -1.5362613    -0.4308088    
H     -1.9299418     1.5979737     0.4640992    
H     -2.5451595     0.1560047    -0.3587108    
H     -0.7542601     1.6472435    -1.6658039    
H      0.3359070    -0.4392917    -2.2170310    
