57

N     -4.3017319     0.6445948     2.6544308    
O     -3.6779958    -0.6220476     2.7524974    
C     -1.2579741    -2.0433766     2.3854919    
C     -0.2083075    -3.1525762     2.3573870    
N      0.6824439    -3.0412795     1.1687728    
C      1.2459200    -4.3547267     0.8160748    
C      1.7409513    -2.0301443     1.3967687    
C      2.3325264    -1.5230086     0.0816346    
O      1.2798726    -0.9260683    -0.6819367    
C      1.7116939     0.2855834    -1.2472250    
N      0.5813805     1.1599739    -1.3565895    
C     -0.3066703     1.3753179    -0.3414909    
N     -0.2134816     1.0326331     0.9488144    
C     -1.2855584     1.3508290     1.6408197    
N     -2.4070031     1.9238510     1.2055654    
C     -2.5018168     2.3217169    -0.0791434    
N     -3.6358875     2.8682577    -0.5125809    
C     -1.3968011     2.0485136    -0.9129516    
N     -1.1637771     2.2495202    -2.2440763    
C      0.0111762     1.7261491    -2.4865598    
C      2.8092365     0.8360323    -0.3122359    
O      3.7297269     1.5760459    -1.0617597    
C      3.4279432    -0.4509584     0.2913840    
O      4.6095948    -0.8228233    -0.3637234    
C     -2.5790299    -2.4729197     1.7369801    
C     -3.4936266    -1.2752394     1.4981553    
C      1.9392926     1.9375431    -4.0107284    
C      0.6376678     1.7892808    -3.7893442    
H     -4.3822043     0.9774648     3.6262261    
H     -5.2417839     0.5604931     2.2392948    
H     -3.6660733     1.3185217     2.0858645    
H     -0.8730844    -1.1634912     1.8714845    
H     -1.4604869    -1.7621556     3.4170322    
H     -0.7036395    -4.1229079     2.3294562    
H      0.4217315    -3.1208796     3.2454995    
H      0.1269895    -2.6978636     0.3737000    
H      1.9216076    -4.2714079    -0.0297665    
H      0.4489060    -5.0449054     0.5525709    
H      1.7942506    -4.7542775     1.6659440    
H      2.5306567    -2.4687986     2.0069163    
H      1.3037905    -1.1720972     1.9108880    
H      2.7829968    -2.3311420    -0.5077177    
H      2.1260607     0.1260862    -2.2523993    
H     -1.2639207     1.0913617     2.6894785    
H     -3.6654320     3.2152898    -1.4563651    
H     -4.3386731     3.1663235     0.1437737    
H      2.3351337     1.4333909     0.4723789    
H      4.2313642     2.1745537    -0.4906471    
H      3.6531666    -0.3191520     1.3551176    
H      4.8317956    -0.1440727    -1.0243178    
H     -3.0888741    -3.1860897     2.3839558    
H     -2.4088998    -2.9482774     0.7708045    
H     -3.0272442    -0.5872167     0.7850458    
H     -4.4580369    -1.6092582     1.0990357    
H      2.3197548     2.0073467    -5.0144420    
H      2.6644525     2.0261064    -3.2190476    
H     -0.0646785     1.7839792    -4.6103535    
