44

O     -0.0996295     2.6052641     0.1341058    
C      0.0947235     1.8229128     1.0774682    
O     -0.7675291     1.2182727     1.7469829    
C      1.5833379     1.5477411     1.4861087    
C      2.2002072     2.7950941     2.1241022    
C      3.7293286     2.8579634     2.0352016    
C      4.2219223     4.1930818     2.5921526    
C      4.3907084     1.6981196     2.7756006    
N      1.6146179     0.4039330     2.3835875    
S      1.7275251    -1.0353780     1.5813608    
O      2.9558483    -0.9946951     0.8068842    
O      1.6844017    -2.0731081     2.5963741    
C      0.3548910    -1.2490013     0.4750239    
C      0.4595721    -0.8392796    -0.8388968    
C     -0.6339775    -0.9705702    -1.6742779    
C     -0.8142259    -1.7885826     0.9727615    
C     -1.9051286    -1.9171972     0.1354162    
C     -1.8311458    -1.5030113    -1.1954211    
C     -2.9989692    -1.6322154    -2.0801843    
C     -4.2766283    -1.3334898    -1.6101686    
C     -5.3767198    -1.4569322    -2.4394168    
C     -5.2190760    -1.8873744    -3.7467212    
C     -3.9531621    -2.1875437    -4.2231580    
C     -2.8502264    -2.0578951    -3.3989656    
H      2.1373959     1.2799403     0.5810430    
H      1.8804637     2.8354365     3.1673441    
H      1.7726158     3.6547271     1.5993196    
H      4.0018744     2.7919364     0.9753090    
H      5.3018495     4.2649058     2.4952888    
H      3.9594424     4.2762048     3.6441133    
H      3.7652472     5.0204335     2.0552728    
H      4.0789711     0.7439652     2.3547582    
H      4.1086516     1.7139728     3.8253632    
H      5.4723511     1.7752773     2.6988597    
H      0.7394444     0.3973053     2.9088788    
H      1.3943932    -0.4267529    -1.1846903    
H     -0.5665561    -0.6286626    -2.6954309    
H     -0.8417941    -2.0995001     2.0046912    
H     -2.8195462    -2.3465696     0.5143198    
H     -4.3961746    -0.9754122    -0.5984457    
H     -6.3587995    -1.2150462    -2.0622100    
H     -6.0783701    -1.9858543    -4.3915038    
H     -3.8237070    -2.5249716    -5.2401268    
H     -1.8664010    -2.3083704    -3.7658306    
