139

N     -3.6227193     0.5557374    -13.0970249    
C     -2.8726869    -0.4070111    -12.2548528    
C     -3.2108667    -0.0116880    -10.8016141    
O     -3.6272841     1.1284484    -10.5904309    
C     -1.3695998    -0.2506450    -12.5349453    
C     -0.4496671    -1.0848645    -11.6321093    
C     -0.7443092    -2.5695277    -11.6909593    
O     -1.7663984    -3.0567453    -11.1985071    
N      0.1491198    -3.3233712    -12.3272612    
N     -3.0710389    -0.9732225    -9.9078388    
C     -3.2055352    -0.7456956    -8.4884430    
C     -1.9654121    -0.0262433    -7.9488026    
O     -0.8974106    -0.0227616    -8.5482731    
C     -3.3554372    -2.0857705    -7.7646040    
C     -4.7241456    -2.7390444    -7.9873633    
C     -4.6543086    -4.2137394    -7.6006289    
C     -5.8116724    -2.0335581    -7.1813569    
N     -2.1705952     0.6366747    -6.8025750    
C     -1.0650432     1.0714515    -5.9786472    
C     -0.3289997    -0.1715989    -5.4577780    
O     -0.8731697    -1.2736875    -5.5018900    
C     -1.6604061     1.8464844    -4.7834146    
O     -2.5758138     1.0580201    -4.0660149    
N      0.8951335    -0.0066478    -4.9522347    
C      1.4341599    -1.0616993    -4.1100559    
C      0.4876013    -1.2467386    -2.9157184    
O     -0.4752435    -0.5111744    -2.7241661    
C      2.8083312    -0.5463145    -3.6755169    
C      2.6181745     0.9688697    -3.6962157    
C      1.7215459     1.1891711    -4.9121983    
N      0.7755679    -2.2955499    -2.1368597    
C      0.1433373    -2.4256561    -0.8362457    
C      0.3866928    -1.1236979    -0.0567924    
O      1.3941100    -0.4484726    -0.2711702    
C      0.7507807    -3.5995270    -0.0789262    
N     -0.5486184    -0.7567221     0.8171856    
C     -0.3121778     0.3927061     1.6728550    
C      0.8042677     0.0663512     2.6699194    
O      1.2112692    -1.0712726     2.8484937    
C     -1.6404719     0.6001554     2.4048030    
C     -2.1844386    -0.8233764     2.5019219    
C     -1.7754482    -1.4528309     1.1714327    
N      1.3086545     1.1518267     3.2887251    
C      2.0675166     1.0021743     4.5127993    
C      1.1086447     0.5772029     5.6357271    
O     -0.1035920     0.7001241     5.5153246    
C      2.7773512     2.3088247     4.8968711    
C      4.1703551     2.3991375     4.3376531    
C      5.2420456     2.6933374     5.1698364    
C      4.4080169     2.1891690     2.9839049    
C      6.5259511     2.7905257     4.6600129    
C      5.6917005     2.2787995     2.4752492    
C      6.7534031     2.5826042     3.3110345    
N      1.7077958     0.0027367     6.6907969    
C      1.0090915    -0.1010988     7.9549174    
C      0.8349419     1.3131551     8.5375894    
O      1.3391645     2.2921296     7.9823595    
C      1.7798914    -0.9814017     8.9366667    
C      0.8854929    -1.7908128     9.9177962    
O     -0.2180545    -1.3060013     10.2537261    
O      1.3426769    -2.8754376     10.3137832    
N      0.0373457     1.3506117     9.5986237    
C      0.0882061     2.4342746     10.5467771    
C      1.4685545     2.3733414     11.3125064    
O      2.3546008     1.6523793     10.8168400    
C     -1.0849385     2.3879004     11.5148203    
C     -2.4000726     2.9396537     10.9555938    
C     -2.8985563     2.1137175     9.7733276    
C     -3.4551118     2.9656791     12.0605687    
O      1.5664565     3.0710283     12.3365429    
H     -3.0849847     0.8779122    -13.9074916    
H     -3.8064202     1.3584954    -12.4466361    
H     -4.5254088     0.1829292    -13.4082407    
H     -3.1871683    -1.4352968    -12.4371969    
H     -1.0930146     0.7949383    -12.3907220    
H     -1.1838029    -0.5337636    -13.5720982    
H     -0.5529992    -0.7623287    -10.5926763    
H      0.5801727    -0.9029055    -11.9337628    
H      0.0111597    -4.3214604    -12.3623562    
H      0.9999979    -2.9369153    -12.6978127    
H     -2.6543150    -1.8625490    -10.2116693    
H     -4.0721856    -0.0984805    -8.3198212    
H     -3.1766727    -1.9474334    -6.6961830    
H     -2.5680571    -2.7492724    -8.1307153    
H     -4.9716785    -2.6725842    -9.0509145    
H     -5.6226211    -4.6897691    -7.7323257    
H     -4.3606949    -4.3169533    -6.5584801    
H     -3.9261082    -4.7358837    -8.2156318    
H     -5.9145448    -0.9928600    -7.4766370    
H     -5.5748390    -2.0686561    -6.1196021    
H     -6.7696981    -2.5235176    -7.3325736    
H     -3.0184833     0.4605175    -6.2774202    
H     -0.3970550     1.6976019    -6.5731957    
H     -2.2310822     2.6971404    -5.1637407    
H     -0.8650418     2.2096823    -4.1265046    
H     -2.0838235     0.4188131    -3.5250174    
H      1.4725970    -2.0054391    -4.6621098    
H      3.5643515    -0.8506404    -4.3980306    
H      3.0838234    -0.9003430    -2.6852392    
H      3.5573342     1.5095016    -3.7703560    
H      2.1043754     1.2767653    -2.7837419    
H      1.1304097     2.0972754    -4.8269753    
H      2.3154142     1.2310881    -5.8312519    
H      1.6557032    -2.7734740    -2.2636789    
H     -0.9308246    -2.5570946    -0.9955199    
H      0.3311614    -3.6632155     0.9210968    
H      1.8229428    -3.4482138     0.0301549    
H      0.5616535    -4.5293054    -0.6074085    
H     -0.0020621     1.2478144     1.0658945    
H     -2.3000367     1.2285844     1.8087594    
H     -1.4992149     1.0440814     3.3888597    
H     -3.2582404    -0.8518001     2.6619181    
H     -1.6914636    -1.3357169     3.3292205    
H     -1.6149775    -2.5255239     1.2687866    
H     -2.5290068    -1.2616528     0.4003720    
H      0.7804714     2.0117312     3.2189799    
H      2.7890027     0.1930181     4.3578581    
H      2.7988128     2.3980040     5.9862331    
H      2.1776190     3.1463770     4.5321630    
H      5.0622035     2.8471971     6.2252003    
H      3.5830229     1.9446526     2.3329984    
H      7.3462806     3.0212459     5.3230178    
H      5.8623455     2.1105046     1.4238392    
H      7.7550272     2.6552080     2.9158060    
H      2.7104671     0.0974015     6.7720695    
H      0.0131303    -0.5179971     7.7646785    
H      2.4199954    -0.3569041     9.5688849    
H      2.4016707    -1.7014600     8.4039722    
H     -0.2028093     0.4269853     9.9835766    
H      0.1092311     3.3774811     9.9849554    
H     -0.7821711     2.9646295     12.3941535    
H     -1.2146695     1.3461185     11.8244862    
H     -2.2145375     3.9654169     10.6171689    
H     -3.8683851     2.4748270     9.4413720    
H     -2.9883664     1.0679180     10.0605943    
H     -2.2009174     2.1685550     8.9416806    
H     -3.1096783     3.5667066     12.8968385    
H     -3.6408419     1.9551462     12.4141082    
H     -4.3852273     3.3830485     11.6856452    
