97

C     -1.6219448    -1.6960906    -0.5732421    
C     -4.4075617    -1.9037879     1.6097055    
C     -5.2312018    -3.0257038     2.2481321    
C     -5.2793467    -0.6568743     1.4449029    
C     -3.2279509    -1.5721652     2.5308855    
C     -3.5290265    -4.3368695    -2.1043707    
O     -1.0870575    -2.7411631    -0.1969413    
C     -3.8271179    -2.3864575     0.2528242    
C     -4.8822259    -2.3801323    -4.5982789    
C     -4.8961984    -2.7367957    -0.7962870    
N     -2.9189469    -1.3992759    -0.3010145    
N     -4.3548910    -3.1461752    -2.0746512    
S     -3.9063848    -1.9666377    -3.1529887    
O     -4.3449892    -0.6682228    -2.6682845    
O     -2.5010293    -2.0567936    -3.4951222    
N     -0.9475861    -0.7412552    -1.2630836    
C      0.5016752    -0.7457850    -1.2906270    
C      1.0690248    -0.2124591    -2.6269925    
C      2.5905520    -0.0937467    -2.4972037    
C      0.7253146    -1.2173009    -3.7295232    
C      0.4703256     1.1522152    -2.9737685    
C      0.9555473     0.0707528    -0.0804597    
O      0.5249681     1.2150999     0.1088372    
N      1.7421434    -0.5114068     0.8238371    
C      2.3273715    -1.8438378     0.7865826    
C      2.1792914     0.2902672     1.9614901    
C      2.9815220    -0.6576725     2.8212892    
C      3.0603245    -1.9779228     2.1015987    
C      2.2782162    -1.8675685     3.3844221    
C      2.9118342    -2.4875980     4.6124598    
C      0.7700948    -1.9658247     3.3951131    
C      3.0444194     1.4511662     1.4471480    
O      3.7944762     1.3070236     0.4889522    
N      2.9559165     2.5734700     2.1680582    
C      3.6227221     3.8173891     1.7954787    
B      4.4509055     4.4680488     3.0429293    
C      2.5950100     4.7989221     1.2012059    
C      1.9792596     4.2874506    -0.0929175    
C      2.8952890     4.2388507    -1.3300264    
C      1.0480879     5.2582401    -0.8438846    
C      1.8121958     4.9636423    -2.1432886    
O      5.1962583     5.5777568     2.8932892    
O      4.4361806     3.9420033     4.2819093    
H     -5.5104777    -2.7415122     3.2592396    
H     -4.6519375    -3.9436983     2.2986653    
H     -6.1421288    -3.2131645     1.6881452    
H     -4.7379235     0.1272750     0.9223309    
H     -5.5618280    -0.2800176     2.4244262    
H     -6.1878586    -0.8798449     0.8935601    
H     -2.5678709    -2.4307771     2.6302534    
H     -3.5861915    -1.2908848     3.5172547    
H     -2.6458968    -0.7474039     2.1257246    
H     -4.0972791    -5.1643885    -1.6853069    
H     -2.5929607    -4.2121346    -1.5528148    
H     -3.2811303    -4.5450733    -3.1407269    
H     -3.2096941    -3.2697722     0.4527680    
H     -4.6116481    -1.6871765    -5.3839789    
H     -5.9207891    -2.2709956    -4.3198239    
H     -4.6491444    -3.3967592    -4.8813899    
H     -5.5049008    -1.8575490    -1.0047127    
H     -5.5275110    -3.5475980    -0.4317748    
H     -3.3462926    -0.6433046    -0.8169020    
H     -1.3863942     0.1558403    -1.3999957    
H      0.7983762    -1.7898639    -1.1752965    
H      3.0112152     0.2966558    -3.4201647    
H      3.0352726    -1.0673418    -2.3060116    
H      2.8688730     0.5747676    -1.6837168    
H     -0.3451011    -1.4152553    -3.7437121    
H      1.2411541    -2.1598171    -3.5613905    
H      1.0239673    -0.8251568    -4.6978692    
H      0.5424546     1.8266174    -2.1234821    
H     -0.5742382     1.0490791    -3.2600617    
H      1.0106129     1.5890434    -3.8102571    
H      3.0316344    -1.9246639    -0.0461430    
H      1.5382117    -2.5937279     0.6698570    
H      1.2938267     0.6931654     2.4683448    
H      3.8366326    -0.2421912     3.3320596    
H      3.9725644    -2.5541580     2.0841268    
H      2.5458866    -1.9976124     5.5116335    
H      3.9936007    -2.3919910     4.5811798    
H      2.6602956    -3.5442082     4.6698357    
H      0.3153355    -1.5712525     2.4914119    
H      0.3680360    -1.4228625     4.2483322    
H      0.4747434    -3.0091302     3.4859156    
H      2.2072118     2.6546470     2.8396650    
H      4.3207964     3.5353482     0.9985813    
H      3.0882164     5.7522535     1.0087476    
H      1.8021127     4.9760733     1.9322919    
H      1.4933768     3.3236916     0.0763147    
H      3.1707779     3.2426017    -1.6713751    
H      3.7996339     4.8319190    -1.2086922    
H      1.1602524     6.2877779    -0.5090180    
H     -0.0079588     4.9960329    -0.8418611    
H      1.2685729     4.2971916    -2.8092080    
H      2.1448822     5.8327902    -2.7066586    
H      5.2573550     5.9753235     2.0232888    
H      3.9346881     3.1378225     4.4254439    
