25

O     -1.0039549    -2.7163120    -1.7086281    
S     -1.3503719    -1.4991230    -1.0125034    
O     -2.6516702    -1.4595745    -0.3783965    
N     -1.3420808    -0.2781097    -2.1397605    
C     -1.5885913     1.0363359    -1.5820436    
C     -0.2957588     1.6110732    -0.9970273    
O      0.7959803     1.2031370    -1.3633285    
N     -0.4767352     2.6107106    -0.1202138    
O      0.5846279     3.0861875     0.6481554    
C     -0.1008479    -1.1085032     0.2059083    
C      1.2168846    -1.4154214    -0.0705161    
C     -0.4656947    -0.4038096     1.3375676    
C      0.5140085     0.0205930     2.2186990    
C      1.8324817    -0.2751423     1.9223044    
F      2.7973368     0.1552326     2.7667700    
C      2.2062641    -0.9986884     0.8020620    
H     -0.4816092    -0.3046656    -2.6762340    
H     -2.3674234     0.9142530    -0.8285113    
H     -1.9523275     1.6908890    -2.3789377    
H     -1.3792428     2.8288291     0.2824851    
H      0.9729895     3.8685721     0.2049581    
H      1.4518035    -1.9714611    -0.9623914    
H     -1.5098622    -0.2046927     1.5172105    
H      0.2707407     0.5850885     3.1027680    
H      3.2469452    -1.2072569     0.6183626    
