159

N     -7.6493821     10.2204668     1.1522518    
C     -6.4201879     9.3927907     1.1860363    
C     -6.5548820     8.4158390    -0.0028475    
O     -7.5880673     8.4335487    -0.6680099    
C     -6.3141127     8.6415996     2.5080735    
N     -5.5110723     7.6371216    -0.2330486    
C     -5.4817602     6.5984652    -1.2422317    
C     -4.8226819     5.3772548    -0.5904448    
O     -3.9775363     5.5257656     0.2904795    
C     -4.6308097     7.0526306    -2.4456219    
C     -4.9634002     6.2955100    -3.7337048    
C     -3.7708412     6.3044174    -4.6881102    
N     -2.7124917     5.5164781    -4.0924062    
C     -1.4054445     5.6561399    -4.2571281    
N     -0.8897909     6.5407080    -5.1070765    
N     -0.6054738     4.9035347    -3.5051791    
N     -5.2193693     4.1964545    -1.0506013    
C     -4.6204320     2.9595255    -0.5993955    
C     -3.1597175     2.8805075    -1.0500929    
O     -2.7213469     3.5339507    -1.9910594    
C     -5.4135006     1.7698899    -1.1622767    
C     -5.4824783     1.8058534    -2.6540789    
N     -5.9438716     2.9074542    -3.3244500    
C     -5.1513862     0.8378273    -3.5620463    
C     -5.8899023     2.6088627    -4.5969003    
N     -5.4149617     1.3646559    -4.7944445    
N     -2.4083691     2.0592963    -0.3223578    
C     -1.0033866     1.8193075    -0.5579660    
C     -0.7396966     0.3294155    -0.3401035    
O     -1.5360121    -0.3768794     0.2674215    
C     -0.1442678     2.6294186     0.4304346    
C     -0.3975911     4.1287112     0.2884455    
C      0.4613996     4.9313169     1.2625315    
N      0.1330285     6.3360218     1.1163757    
C      0.9167395     7.3661736     1.4150223    
N      2.1510863     7.1860509     1.8744087    
N      0.4697501     8.6001565     1.1976447    
N      0.3905115    -0.1334907    -0.8947806    
C      0.8910248    -1.4334044    -0.4989354    
C      1.2577967    -1.3904224     0.9954077    
O      1.4224893    -0.3340209     1.5903768    
C      2.1113305    -1.8359305    -1.3265238    
C      1.7506850    -2.1479648    -2.7790560    
C      2.9790410    -2.6288056    -3.5505766    
C      2.6087017    -3.0071929    -4.9803280    
N      3.8025699    -3.4871192    -5.7173036    
N      1.3708216    -2.6011745     1.5447111    
C      1.8670961    -2.8792008     2.8734024    
C      3.0727532    -3.8023727     2.6905452    
O      3.1742887    -4.5030099     1.6891769    
C      0.7562856    -3.5495411     3.7163802    
C      1.2689519    -4.0365539     5.0685209    
C     -0.3945182    -2.5627275     3.9055910    
N      4.0167697    -3.7485269     3.6348184    
C      5.1087976    -4.7097862     3.6243093    
C      4.5074501    -6.1020372     3.3907011    
O      3.5138456    -6.4781530     4.0013759    
C      5.8492007    -4.6786194     4.9611387    
C      7.0786981    -5.5957787     5.0115906    
C      8.2081815    -5.0826321     4.1198574    
C      7.5713227    -5.6928391     6.4555425    
N      5.1132120    -6.8315661     2.4474569    
C      4.7171153    -8.1863709     2.1378948    
C      5.7019627    -9.1760659     2.7043859    
O      6.6808735    -8.8722552     3.3391782    
C      4.5421770    -8.3615478     0.6208463    
C      3.4168963    -7.4628166     0.1029787    
C      3.3774711    -7.4149873    -1.4279868    
N      2.9784610    -8.6723026    -2.0314344    
C      1.7247312    -9.1138826    -2.1186685    
N      0.6994905    -8.3426138    -1.7757906    
N      1.4978144    -10.3230775    -2.6243846    
H     -8.1870010     10.1465787     2.0218397    
H     -8.2164350     9.8072726     0.3691556    
H     -7.4760805     11.2088459     0.9509691    
H     -5.5389332     10.0187693     1.0333892    
H     -5.4323044     8.0102738     2.5300385    
H     -7.1823958     8.0046691     2.6594132    
H     -6.2420472     9.3422288     3.3351438    
H     -4.7259197     7.6091519     0.4081972    
H     -6.5072513     6.3882994    -1.5545949    
H     -3.5807162     6.9091755    -2.1891270    
H     -4.8027138     8.1183265    -2.6003208    
H     -5.8254811     6.7503076    -4.2202706    
H     -5.2198445     5.2583965    -3.5185512    
H     -3.4360519     7.3321409    -4.8458875    
H     -4.0696015     5.8821177    -5.6535004    
H     -3.0113850     4.7980554    -3.4377554    
H      0.1049999     6.6187748    -5.2272748    
H     -1.4800715     7.0732338    -5.7204045    
H     -1.0436089     4.2404782    -2.8801177    
H      0.3893992     4.8982682    -3.6434741    
H     -5.8170250     4.1006009    -1.8734175    
H     -4.6408218     2.9385185     0.4965644    
H     -6.4261049     1.8094861    -0.7541994    
H     -4.9551349     0.8330129    -0.8449839    
H     -4.7724247    -0.1525885    -3.4267725    
H     -6.1858101     3.2684219    -5.3869338    
H     -5.3116105     0.8923174    -5.6779891    
H     -2.8155755     1.4849844     0.4045356    
H     -0.7783894     2.1026433    -1.5897433    
H      0.9077570     2.4037653     0.2589338    
H     -0.3798376     2.2985060     1.4440241    
H     -1.4511038     4.3407123     0.4804079    
H     -0.1641806     4.4404498    -0.7287300    
H      1.5151974     4.7732136     1.0266172    
H      0.2769028     4.5923866     2.2880546    
H     -0.8299519     6.5223365     0.8747462    
H      2.7319625     7.9759698     2.0964558    
H      2.4790521     6.2761899     2.1450924    
H     -0.4434018     8.7598975     0.8096964    
H      1.0399462     9.4000265     1.4105095    
H      1.0814072     0.5337619    -1.2084864    
H      0.0727079    -2.1502277    -0.6242197    
H      2.5647974    -2.7132105    -0.8620209    
H      2.8463458    -1.0302407    -1.2815866    
H      1.3380743    -1.2586525    -3.2528942    
H      0.9808677    -2.9195990    -2.7950983    
H      3.4012227    -3.4890591    -3.0308404    
H      3.7274460    -1.8361668    -3.5533873    
H      2.1954816    -2.1429621    -5.4989188    
H      1.8558597    -3.7949256    -4.9732327    
H      3.5558949    -3.7651792    -6.6733629    
H      4.2181980    -4.2952474    -5.2395671    
H      4.5132732    -2.7480638    -5.7683618    
H      1.2797639    -3.4281032     0.9690755    
H      2.1675140    -1.9337012     3.3334687    
H      0.3951692    -4.4183732     3.1563106    
H      0.4384485    -4.4263857     5.6527798    
H      1.7163524    -3.2216491     5.6343273    
H      1.9922064    -4.8412383     4.9527565    
H     -0.7594348    -2.1922546     2.9506661    
H     -0.0660776    -1.7125723     4.4995833    
H     -1.2187942    -3.0439180     4.4255477    
H      3.8430823    -3.2474461     4.4924413    
H      5.7811273    -4.4551086     2.7990222    
H      5.1493475    -4.9894957     5.7414903    
H      6.1658120    -3.6545212     5.1680644    
H      6.7938233    -6.6034317     4.6881639    
H      9.0610172    -5.7532128     4.1853959    
H      8.5269107    -4.0961427     4.4489232    
H      7.9095099    -5.0216176     3.0780790    
H      6.7977772    -6.0995404     7.1038086    
H      7.8554261    -4.7118215     6.8315230    
H      8.4384252    -6.3457355     6.5186897    
H      6.0013209    -6.5266189     2.0774110    
H      3.7609348    -8.3591067     2.6516609    
H      5.4640084    -10.2320937     2.4953195    
H      4.3271013    -9.4107185     0.4211526    
H      5.4867595    -8.1025272     0.1395383    
H      3.5654164    -6.4507676     0.4808391    
H      2.4702410    -7.8252592     0.5039934    
H      4.3734770    -7.1800136    -1.8008166    
H      2.6935888    -6.6305006    -1.7519667    
H      3.7151624    -9.3351195    -2.2180966    
H     -0.2411406    -8.6896264    -1.8460324    
H      0.8466545    -7.4797730    -1.2815676    
H      2.2513668    -10.9084325    -2.9397220    
H      0.5621801    -10.6786635    -2.7192673    
