35

C      3.3073574     1.3788087    -1.3514766    
C      1.0688893     2.1604612    -0.4024496    
C      3.8754899     2.8555635    -1.2508720    
C      1.7908732     1.3908815    -1.5067485    
C     -0.8754867     0.1148556     0.2118565    
O      4.5854250     3.0617863    -0.2445734    
O     -4.5426600    -3.6440841     0.2994045    
C     -4.3140338    -2.7367131    -0.5248922    
O     -5.0969484    -2.3696512    -1.4261847    
C     -2.9474320    -2.0060035    -0.4382793    
C     -2.6665525    -1.5152718     0.9766629    
C     -1.2342724    -1.0056998     1.1649212    
C     -0.2520374    -2.1997188     1.0040330    
O     -0.0899905    -2.9302579     2.0047982    
O      0.2810238    -2.3830366    -0.1103918    
P      0.4816967     1.0909229     1.0003525    
O      1.6319106     0.2094943     1.4416121    
O     -0.1039610     1.9380531     2.0935882    
N      3.7732345     0.6833103    -0.1386749    
O      3.5988213     3.6410773    -2.1605752    
H      3.7416839     0.9212600    -2.2435936    
H      0.1824785     2.6670978    -0.7848796    
H      1.7109298     2.9286145     0.0413564    
H      1.4198000     0.3617509    -1.5222760    
H      1.5690882     1.8547685    -2.4693951    
H     -1.7226703     0.7894162     0.0577515    
H     -0.5668351    -0.3145074    -0.7419348    
H     -2.9502753    -1.1783153    -1.1527593    
H     -2.1646195    -2.7166012    -0.7284888    
H     -2.8355128    -2.3501509     1.6657866    
H     -3.3737232    -0.7164379     1.2311028    
H     -1.1218841    -0.6502049     2.2017502    
H      4.3057053    -0.1648297    -0.3253530    
H      2.9660968     0.4470551     0.4987001    
H      4.3628583     1.4271606     0.3253154    
