39

C      0.8731167     1.8982860    -0.3105172    
N      1.2722743     3.1153525     0.0536233    
C      1.8928960     3.8347510    -0.8868828    
N      2.3587156     5.0508665    -0.5304340    
N      2.1260568     3.4380083    -2.1402992    
C      1.7171797     2.2183614    -2.4907325    
N      1.9225390     1.8647540    -3.7758813    
C      1.0615519     1.3665233    -1.5657847    
C      0.6070783    -0.0145943    -1.9763958    
C     -0.0754470    -0.7518835    -0.8609925    
C      0.6816758    -1.3945350     0.1127829    
C      0.0625244    -2.0397300     1.1689206    
O      0.7351274    -2.6681795     2.1800603    
C      2.1482665    -2.5892792     2.2042438    
C     -1.3438546    -2.0796721     1.2590928    
O     -1.9517173    -2.7079740     2.3395468    
C     -1.7701894    -4.1157492     2.4182897    
C     -2.1011950    -1.4293143     0.2828751    
O     -3.4593549    -1.3373293     0.2175413    
C     -4.3009546    -1.9158041     1.1996513    
C     -1.4496729    -0.7705644    -0.7638210    
H      0.3698969     1.3334989     0.4653771    
H      2.0370234     5.4290432     0.3423661    
H      2.6599732     5.6671787    -1.2638363    
H      1.7957467     0.9126058    -4.0641647    
H      2.4808695     2.4823943    -4.3383175    
H      1.4802713    -0.5884111    -2.3023975    
H     -0.0818134     0.0786669    -2.8196376    
H      1.7563178    -1.3615697     0.0447243    
H      2.4447332    -3.1034474     3.1158386    
H      2.4832767    -1.5500003     2.2420958    
H      2.5857895    -3.0924673     1.3385243    
H     -2.3997820    -4.4386010     3.2444949    
H     -0.7283199    -4.3701167     2.6218853    
H     -2.0915162    -4.6006923     1.4905298    
H     -5.3044959    -1.6004057     0.9190127    
H     -4.0583080    -1.5510779     2.1982166    
H     -4.2416698    -3.0057173     1.1840074    
H     -2.0692537    -0.2737766    -1.4930214    
