43

O      3.1335490     2.7121775     1.7832067    
C      2.7987694     1.5427846     1.6203550    
C      3.6012109     0.4443400     2.2298084    
C      3.0093521    -0.6333482     2.8860331    
C      3.8364362    -1.5880791     3.4566687    
N      5.1587478    -1.5359127     3.4078307    
C      5.7185184    -0.5072019     2.7909341    
C      4.9917463     0.5110341     2.1943392    
C      1.6176307     1.1694554     0.8342639    
C      0.6496721     2.1446872     0.5829048    
C      1.4395715    -0.1101867     0.2951943    
C      0.3254072    -0.3955268    -0.4571944    
C     -0.6453609     0.5845846    -0.6931773    
C     -0.4765890     1.8626488    -0.1597614    
O     -1.7018270     0.1954036    -1.4363376    
C     -2.6820550     1.1524338    -1.8298043    
C     -3.5977838     0.4916912    -2.8556559    
N     -4.5337885    -0.4765113    -2.2555342    
C     -5.5301501    -1.0009264    -3.2202812    
C     -3.9153602    -1.7042474    -1.7028819    
C     -5.0973927    -2.6484712    -1.4815845    
C     -6.1637579    -2.1924064    -2.5002733    
H      1.9374044    -0.7128809     2.9688567    
H      3.4258819    -2.4426811     3.9767465    
H      6.7997989    -0.4994463     2.7808924    
H      5.4806979     1.3399295     1.7064699    
H      0.7991710     3.1296703     1.0003318    
H      2.1914374    -0.8688754     0.4435887    
H      0.1862841    -1.3739888    -0.8873310    
H     -1.2089951     2.6386638    -0.3122230    
H     -2.1948033     2.0140025    -2.2982210    
H     -3.2439595     1.4967557    -0.9536536    
H     -2.9828518    -0.0295245    -3.5912562    
H     -4.1773138     1.2676237    -3.3568770    
H     -5.0443632    -0.0158164    -1.4933473    
H     -4.9956530    -1.3271686    -4.1120092    
H     -6.2517925    -0.2349067    -3.4952655    
H     -3.3572998    -1.4919588    -0.7946762    
H     -3.2288494    -2.1006968    -2.4502941    
H     -5.4780456    -2.5654141    -0.4645420    
H     -4.8030106    -3.6834481    -1.6354039    
H     -6.4169393    -2.9815750    -3.2036179    
H     -7.0815750    -1.9011611    -1.9923404    
