41

C     -1.1416352     3.5079041    -2.2750322    
C     -0.6920567     2.2432696    -1.8386957    
C     -0.3560532     2.1032036    -0.4641092    
N     -0.4410521     3.1376909     0.3964606    
C     -0.8604420     4.2918538    -0.0436404    
C     -1.2304504     4.5362754    -1.3774138    
C     -0.5693577     1.1410562    -2.7061224    
C     -0.1150155    -0.0660779    -2.2435593    
C      0.2230489    -0.1997529    -0.8852098    
C      0.1102097     0.8424532     0.0035081    
C      0.4817090     0.6589506     1.4138589    
C      1.6369249    -0.0394880     1.7404063    
C      1.9850286    -0.2111567     3.0767697    
C      1.1974917     0.3048685     4.1043601    
C      0.0474791     0.9947596     3.7736637    
C     -0.3092247     1.1696511     2.4455875    
C     -0.0017242    -1.2677017    -3.1452075    
C     -1.0596108    -2.2678571    -2.7663716    
C     -2.3946241    -2.0449714    -3.0885449    
C     -3.3425964    -2.9739415    -2.6964357    
N     -3.0530040    -4.0761128    -2.0198331    
C     -1.7831970    -4.2862926    -1.7104275    
C     -0.7559217    -3.4222545    -2.0551146    
N      3.1722811    -0.9244942     3.3959321    
O      3.8102092    -1.4368401     2.4871828    
O      3.5125563    -1.0012666     4.5674463    
H     -1.4061647     3.6437246    -3.3137684    
H     -0.9106380     5.0824528     0.6933983    
H     -1.5700363     5.5161447    -1.6715943    
H     -0.8351940     1.2707307    -3.7453094    
H      0.5610711    -1.1618140    -0.5290777    
H      2.2882975    -0.4353491     0.9764876    
H      1.4989802     0.1519776     5.1284597    
H     -0.5774604     1.3971792     4.5541191    
H     -1.2091523     1.7062164     2.1965984    
H      0.9857980    -1.7181291    -3.0358010    
H     -0.1400483    -0.9625950    -4.1830240    
H     -2.6885663    -1.1631693    -3.6358398    
H     -4.3894427    -2.8370780    -2.9320434    
H     -1.5841555    -5.1953803    -1.1586351    
H      0.2611824    -3.6534719    -1.7783412    
