50

N     -1.9437240    -2.2977470    -1.9901065    
C     -0.8952586    -1.9481721    -2.7538725    
N     -0.8869054    -2.4068389    -4.0155266    
C      0.1007779    -2.0471570    -4.8199983    
N      1.1083334    -1.2395134    -4.5656494    
C      1.1176078    -0.7925917    -3.2999699    
C      0.1733789    -1.1420704    -2.3079190    
N      2.0148398     0.0689939    -2.7669396    
C      3.1349002     0.6447855    -3.4690743    
C      3.1138232     2.1912795    -3.4515981    
C      4.4084812     2.6253521    -2.7606472    
C      5.3689365     1.4680064    -3.0238900    
C      4.4852937     0.2375525    -2.8502378    
C      1.6766586     0.2788300    -1.4587697    
C      0.5624707    -0.4457952    -1.1196457    
C     -0.0396760    -0.5056325     0.2074022    
C     -0.4763986    -1.7166468     0.7452831    
C     -1.0426531    -1.7686229     2.0028888    
C     -1.1748403    -0.6059736     2.7564032    
C     -0.7025723     0.6005870     2.2499696    
C     -0.1475760     0.6450254     0.9864119    
O     -1.7013115    -0.7425270     4.0185166    
C     -2.4074577     0.2835657     4.5990799    
C     -3.2028376     1.1673575     3.8789053    
C     -3.9197278     2.1413214     4.5499188    
C     -3.8636173     2.2335255     5.9300579    
C     -3.0913712     1.3344614     6.6463697    
C     -2.3625067     0.3631151     5.9874370    
H     -2.0703384    -1.8762536    -1.0871660    
H     -2.6970764    -2.7921766    -2.4348734    
H      0.0599412    -2.4547324    -5.8223285    
H      3.0511570     0.2696095    -4.4917974    
H      2.2296180     2.5617644    -2.9365788    
H      3.0861655     2.5666570    -4.4725172    
H      4.2517511     2.7388391    -1.6880832    
H      4.7801458     3.5695151    -3.1516787    
H      6.2204646     1.4660180    -2.3466008    
H      5.7386125     1.5177990    -4.0478735    
H      4.8964272    -0.6497737    -3.3264395    
H      4.3477845     0.0230569    -1.7901884    
H      2.2695296     0.9193207    -0.8360330    
H     -0.3471916    -2.6271117     0.1801173    
H     -1.3799490    -2.7018963     2.4257569    
H     -0.7662916     1.4970381     2.8487333    
H      0.2022456     1.5867247     0.5923217    
H     -3.2642908     1.0862509     2.8038839    
H     -4.5300561     2.8294785     3.9859960    
H     -4.4248789     2.9976573     6.4443421    
H     -3.0505162     1.3917228     7.7227378    
H     -1.7556893    -0.3478633     6.5257763    
