38

C     -3.6927024    -1.7895003     0.7762981    
C     -3.0175155    -0.5818292     0.7840611    
C     -1.6300399    -0.5791634     0.7730763    
C     -0.9220725    -1.7736007     0.7365814    
C     -1.6039407    -2.9798155     0.7332563    
C     -2.9885697    -2.9833973     0.7556204    
C     -1.0246581     1.5434028    -0.2850889    
C     -1.3781168     2.9369914     0.2434542    
C      0.2522728     2.4157349     1.9504773    
C     -0.6450728     1.1986058     2.0966152    
C      0.5843447     4.3382972     0.5590954    
C      0.5729858    -1.6562804     0.6664302    
C      1.6836947    -0.4510456    -1.7903744    
N      1.3154432     0.1835641    -2.9202483    
S      2.7557557    -1.7628735    -1.9129101    
N      1.3787817     0.1267035    -0.6313398    
N      1.0010307    -0.2771585     0.4964724    
N     -0.8469611     0.6000272     0.7864565    
N     -0.3967992     3.4699238     1.1730421    
H     -4.7711206    -1.7999594     0.7877362    
H     -3.5593768     0.3510761     0.8026800    
H     -1.0515327    -3.9067097     0.7010745    
H     -3.5199702    -3.9219906     0.7478644    
H     -0.0567570     1.5754879    -0.8272956    
H     -1.7863804     1.1840588    -0.9797870    
H     -2.3415412     2.8820493     0.7621247    
H     -1.4914030     3.6247688    -0.5947511    
H      1.1848580     2.0822651     1.4733248    
H      0.4916948     2.8202068     2.9374103    
H     -1.6054733     1.4816080     2.5429952    
H     -0.1629611     0.4580488     2.7349979    
H      0.0741395     5.1595785     0.0594009    
H      1.2295216     3.8194316    -0.1661961    
H      1.2176484     4.7513258     1.3426862    
H      0.8238376     1.0610842    -2.8697628    
H      1.7988553    -0.0559243    -3.7699668    
H      1.0125770    -1.9922289     1.6112889    
H      0.9556236    -2.2891842    -0.1445798    
