28

C      0.4009943    -2.8060723     2.7079179    
O      0.2253407    -1.6898097     3.5607923    
C      0.0523535    -0.4251339     3.0854329    
C      0.2796210     0.5634744     4.0468550    
C      0.1954093     1.9017413     3.7328391    
C     -0.0995423     2.2858088     2.4315018    
C     -0.3334347     1.3200157     1.4765006    
C     -0.2899338    -0.0454533     1.7776734    
C     -0.6869818    -0.9875429     0.7269859    
N     -0.4157088    -0.9887333    -0.5132086    
O      0.4815341    -0.0182143    -0.9723273    
C      0.6543535    -0.0891652    -2.3783054    
C     -0.5136751     0.4830839    -3.1637141    
C     -0.1260026     0.7534523    -4.6490379    
O     -1.0567389     0.7139006    -5.4772012    
O      1.0679166     1.0117118    -4.8926503    
H      1.0451402    -3.4925277     3.2583347    
H      0.8790206    -2.5252433     1.7682976    
H     -0.5526558    -3.2969218     2.5035929    
H      0.5264279     0.2352100     5.0439339    
H      0.3687422     2.6450796     4.4950742    
H     -0.1531413     3.3286492     2.1630486    
H     -0.5831895     1.6080929     0.4660677    
H     -1.3655856    -1.7858620     0.9908569    
H      0.8402879    -1.1252492    -2.6799836    
H      1.5472869     0.5085501    -2.5779981    
H     -0.8053153     1.4484103    -2.7427638    
H     -1.3786593    -0.1797368    -3.1451112    
