15

C     -2.3304748     0.4389485     0.5653326    
C     -0.8999782     0.1638204     0.2120510    
C      0.1255308     0.7536742     0.9437654    
C      1.4499745     0.5103184     0.6300703    
C      1.7709551    -0.3294999    -0.4239843    
C      0.7591172    -0.9219952    -1.1588929    
C     -0.5661411    -0.6761656    -0.8418641    
H     -0.1220447     1.4093066     1.7666032    
H     -3.0048073    -0.0931832    -0.1001650    
H     -2.5378280     1.5054536     0.4940083    
H     -2.5322632     0.1284451     1.5892751    
H     -1.3512005    -1.1424366    -1.4202654    
H      1.0028844    -1.5777931    -1.9821911    
H      2.8050800    -0.5205652    -0.6703738    
H      2.2352129     0.9759230     1.2077731    
