21

O     -0.5754334    -0.2365947     2.3559287    
C     -0.6367284     0.6483741     1.4868897    
O     -1.3900311     1.6489619     1.4987494    
C      0.3163764     0.5744197     0.2499764    
O      0.1796607     1.7845442    -0.4617782    
C      0.0303960    -0.6418999    -0.6648126    
C      0.2796610    -1.9507420     0.0841775    
C     -1.4208496    -0.5829804    -1.1463286    
C      0.9534268    -0.5494777    -1.8999748    
O      2.3244125    -0.7233436    -1.6332637    
H      1.3484205     0.4999022     0.6295137    
H     -0.5417366     2.2530407     0.0184950    
H      0.1186703    -2.7980340    -0.5789402    
H     -0.4006401    -2.0217696     0.9293512    
H      1.2895189    -1.9779003     0.4870843    
H     -1.5886940     0.3340548    -1.7062806    
H     -2.0910948    -0.5872770    -0.2877928    
H     -1.6484727    -1.4373468    -1.7786446    
H      0.8636122     0.4525901    -2.3253126    
H      0.6199898    -1.2844105    -2.6457091    
H      2.4600287    -1.6185096    -1.2917618    
