54

C      2.3897082     0.8920974    -2.0313534    
C      1.5701284    -0.2358158    -1.9036309    
C      0.2311986    -0.0751810    -1.5913944    
C     -0.2684544     1.1869097    -1.3435791    
C      2.1220204    -1.6052309    -2.1715390    
N      2.9271301    -2.0994656    -1.2322357    
C      3.5522016    -3.4044950    -1.3546813    
C      4.1589401    -2.4613145     0.7567469    
C      2.0540490    -1.0318792     0.7949389    
C     -0.2344506    -0.2761734     2.2133430    
C     -1.4663964     0.1455422     2.9713953    
C     -4.5658224    -0.2033488     0.9076557    
C     -3.6904979     1.1957077     2.7139311    
O     -0.0202154     3.5265159    -1.1858815    
C      0.5329624     2.3254123    -1.4456467    
C      1.8634288     2.1583021    -1.8055037    
O      3.6886814     0.7036945    -2.3541067    
Cl    -1.9282124     1.3987570    -0.9344623    
O      1.8193459    -2.2277060    -3.1927492    
C      3.8503126    -3.8008375     0.0860935    
C      3.2827908    -1.4309191     0.0157194    
C      1.0421223    -1.9503803     1.0477050    
C     -0.0831508    -1.5811628     1.7597529    
N     -2.5991587     0.4453265     2.0558244    
C     -3.2586015    -0.7493399     1.4747421    
C     -4.9485167     0.9178251     1.8748894    
F     -6.0002278     0.5787698     2.6802827    
F     -5.3756308     2.0365495     1.2181431    
C      0.7770071     0.6423402     1.9631395    
C      1.9154327     0.2633998     1.2766382    
H     -0.4070653    -0.9411238    -1.5295344    
H      4.4722316    -3.3138569    -1.9430958    
H      2.8777705    -4.0834122    -1.8794500    
H      5.2108150    -2.2115209     0.6215182    
H      3.9404919    -2.4732965     1.8225266    
H     -1.2451065     1.0481403     3.5416267    
H     -1.7809437    -0.6428325     3.6569105    
H     -5.3516263    -0.9529002     0.8483125    
H     -4.4202044     0.2336749    -0.0797795    
H     -3.4798844     2.2634328     2.7626639    
H     -3.8546612     0.8047212     3.7210521    
H      0.6248862     4.2455813    -1.2626390    
H      2.4955512     3.0277071    -1.9092071    
H      4.1457530     1.5471742    -2.5033221    
H      4.6838566    -4.4949484     0.1502956    
H      2.9784143    -4.2696411     0.5399710    
H      3.8703199    -0.5347161    -0.2097144    
H      1.1320671    -2.9593160     0.6783861    
H     -0.8363171    -2.3236883     1.9690861    
H     -2.2391973     0.9951755     1.2513533    
H     -2.6323105    -1.1947179     0.7062138    
H     -3.4540216    -1.4679657     2.2713263    
H      0.6874716     1.6586112     2.3140950    
H      2.7022018     0.9814101     1.1027880    
