54

C      2.4384523    -4.3932639     1.5744772    
C      2.7116783    -4.8818064     0.1592344    
O      2.9155961    -3.7861036    -0.7383641    
C      4.1509467    -3.2606270    -0.7985033    
O      5.1242977    -3.7208359    -0.2207576    
N      4.2059663    -2.1793295    -1.5912516    
C      3.0372722    -1.5728918    -2.1960910    
C      2.0014239    -1.1511701    -1.1824109    
C      2.3604407    -0.7917854     0.1099482    
C      1.3995759    -0.4344113     1.0371348    
C      0.6582297    -1.1254395    -1.5401505    
C     -0.3113694    -0.7609149    -0.6277103    
C      0.0614585    -0.4213069     0.6669453    
N     -0.9260713    -0.0689025     1.6085311    
C     -1.1591049    -0.6492498     2.8214603    
S     -0.1939764    -1.9518540     3.4419594    
N     -2.1981709    -0.1147553     3.4061493    
N     -2.6716929     0.8412446     2.5819645    
C     -1.9278670     0.8722061     1.5071769    
C     -2.0539724     1.7778723     0.3802779    
C     -0.9174079     2.3246254    -0.2086252    
C     -0.9770749     3.1842117    -1.2872376    
C      0.2787521     3.7293384    -1.9240154    
C      1.1237383     4.5045578    -0.9120937    
C      1.0914827     2.5908679    -2.5472174    
C     -2.2415329     3.5224044    -1.7878174    
O     -2.3175262     4.3706732    -2.8412589    
C     -3.3869401     2.9893939    -1.2091861    
C     -3.3130882     2.1159106    -0.1328684    
O     -4.4141390     1.5480442     0.4064919    
H      2.2248565    -5.2420213     2.2160462    
H      1.5888250    -3.7144479     1.5847321    
H      3.3098591    -3.8703027     1.9615758    
H      1.8508332    -5.4138285    -0.2478930    
H      3.5983877    -5.5237245     0.1404670    
H      5.0989324    -1.7168171    -1.6526199    
H      2.5793993    -2.2878630    -2.8863984    
H      3.3712898    -0.7044334    -2.7662690    
H      3.3978487    -0.8018157     0.4075469    
H      1.6843264    -0.1652085     2.0431562    
H      0.3665084    -1.4008310    -2.5411276    
H     -1.3544916    -0.7451029    -0.9036614    
H      0.0470840     2.0768125     0.2056677    
H     -0.0244319     4.4163087    -2.7190452    
H      1.9701899     4.9684077    -1.4121843    
H      1.5041928     3.8437219    -0.1375164    
H      0.5314602     5.2833021    -0.4380363    
H      0.4940957     2.0605876    -3.2845630    
H      1.4037801     1.8805611    -1.7847219    
H      1.9760360     2.9900959    -3.0365984    
H     -3.2408322     4.5465842    -3.0778629    
H     -4.3567293     3.2525986    -1.6082299    
H     -5.2205045     1.8891823    -0.0122157    
H     -0.9378580    -2.1298392     4.5232523    
