13

C      0.8434039    -0.0560990    -2.1465903    
C      1.1157726    -0.0447728    -0.6132370    
C     -0.0671026     0.0348044     1.5501825    
C     -1.5635277     0.0732401     2.0019100    
O     -0.3565480    -0.0197549    -2.4893480    
O      1.8343456    -0.1001887    -2.8953705    
O      2.2548905    -0.0815019    -0.1351620    
O     -1.7624910     0.0974429     3.2284288    
N      0.0071115     0.0104820     0.1166238    
O     -2.4233103     0.0768099     1.1033304    
H      0.4093334    -0.8530745     1.9782040    
H      0.4446986     0.9161314     1.9503634    
H     -0.8912069     0.0312633    -0.3660010    
