19

C      0.3124496    -0.8627869     0.2771512    
C      0.7898670     0.9550457    -1.1204941    
C     -0.3121125     2.8545558    -2.0165220    
C     -0.1343596     4.0571869    -2.8760568    
N      0.4463178    -3.3724558     1.2373309    
N      1.8099906     0.1748933    -0.9239416    
N      1.5338074    -0.8495195    -0.1269047    
N      0.8120865     2.0688137    -1.8870218    
O     -0.2946188    -1.4267337     2.7228309    
O     -1.7694189    -2.2565097     0.9407390    
O     -1.3443051     2.5368873    -1.4491156    
S     -0.4229128    -2.0060256     1.3997411    
S     -0.6771141     0.4455531    -0.2884294    
H     -1.0455033     4.6461744    -2.8657975    
H      0.0843307     3.7485941    -3.8953086    
H      0.6947463     4.6572418    -2.5122407    
H     -0.1156717    -4.2081155     1.2447822    
H      1.2526987    -3.4144286     1.8393586    
H      1.6842054     2.3070376    -2.3489371    
