19

C      1.2046050    -1.8290857     0.4479031    
C      0.4997064    -1.6155441     1.6198400    
C     -0.2894265    -0.4902136     1.7512631    
C     -0.3853816     0.4298286     0.7120881    
C      1.1102869    -0.9120008    -0.5826408    
C      0.3236437     0.2269133    -0.4760066    
C      0.2139637     1.1812161    -1.6365310    
C     -1.0631713     0.9255163    -2.4428629    
O     -1.1924089     1.5109820     0.9190346    
H     -0.8493616    -0.2986002     2.6534328    
H      0.5632743    -2.3227259     2.4325757    
H      1.8246483    -2.7052373     0.3373533    
H      1.6605184    -1.0788596    -1.4975582    
H      0.2327859     2.2183787    -1.2902285    
H      1.0786382     1.0436241    -2.2876664    
H     -1.9480568     1.0131600    -1.8159991    
H     -1.0451453    -0.0798336    -2.8574390    
H     -1.1439114     1.6367853    -3.2613275    
H     -1.1435282     2.1193976     0.1676711    
