52

C      1.0176292     0.4571697     4.5782181    
C      1.4142232     0.9922732     3.3690610    
C      0.6998040     0.6835375     2.2232311    
C     -0.4083202    -0.1549874     2.2859760    
C     -0.0794718    -0.3783083     4.6677633    
C     -1.9752604    -0.0188388    -1.2706908    
C     -0.9971672     0.2956754    -3.4883748    
C     -0.7830700     1.2552631    -4.6150768    
C     -0.3002855     2.9521330    -6.7565271    
C      0.6617845     2.0082558    -6.3896690    
C      0.4099094     1.1632040    -5.3289572    
C      0.4736720    -2.3714032     0.5410107    
C     -0.2080047    -4.5954877     0.0670281    
F      0.1135270    -5.8835164    -0.2617232    
C      0.8082231    -3.6709051     0.2079583    
C     -1.5354166    -4.2668871     0.2514944    
C     -1.8486785    -2.9603667     0.5854875    
C     -0.8531956    -2.0030366     0.7296090    
C     -1.2012731    -0.5675563     1.0671349    
C     -0.7898395    -0.6784531     3.5207517    
S      1.9806131     0.8155514     6.0384899    
O      1.1860231     0.5184533     7.2224213    
O      2.4757618     2.1835594     5.9561236    
C      3.3889652    -0.3071403     5.9912794    
C     -0.9829044     0.3303407    -0.1574758    
N     -1.7305783     0.7605252    -2.4644643    
O     -0.5323817    -0.8418142    -3.5210988    
C     -0.0522249     3.8170291    -7.8442526    
N      0.1557405     4.5179905    -8.7296756    
C     -1.5076162     3.0355382    -6.0598704    
C     -1.7433709     2.1914183    -4.9926611    
H      2.2647525     1.6542215     3.3435832    
H      1.0166041     1.1050738     1.2842986    
H     -0.3621837    -0.7644272     5.6337749    
H     -2.9999666     0.1622655    -0.9413721    
H     -1.8635037    -1.0695929    -1.5485221    
H      1.5875289     1.9446972    -6.9398277    
H      1.1299365     0.4151298    -5.0348105    
H      1.2568811    -1.6393615     0.6589588    
H      1.8320439    -3.9711662     0.0559919    
H     -2.2977791    -5.0189681     0.1315121    
H     -2.8830498    -2.6895895     0.7290892    
H     -2.2623118    -0.5273230     1.3315999    
H     -1.6482836    -1.3291495     3.5799282    
H      3.9880600    -0.1159893     6.8719834    
H      3.9456627    -0.0954390     5.0889161    
H      2.9979914    -1.3152697     5.9979153    
H     -1.1129198     1.3738834     0.1323698    
H      0.0247907     0.1909931    -0.5500415    
H     -1.9736282     1.7388037    -2.4367513    
H     -2.2488316     3.7583675    -6.3640752    
H     -2.6895536     2.2449189    -4.4781728    
