86

C     -4.7697239    -4.2049193     2.1910203    
C     -4.5988505    -4.1583485     0.8097144    
C     -3.4981157    -3.5066642     0.2533096    
C     -2.5650100    -2.9179625     1.1082099    
C     -2.7333376    -2.9749429     2.4818504    
C     -3.8257033    -3.6026448     3.0320312    
S     -1.1032371    -2.1129501     0.4776231    
O     -0.1821294    -2.0059792     1.5948511    
O     -0.5894226    -2.8110471    -0.6762982    
N     -1.4842967    -0.5684175     0.0464846    
C     -1.9925719    -0.2978241    -1.2885399    
C     -0.8484951    -0.2378540    -2.3013758    
C     -1.2411923     0.3814774    -3.6456754    
C     -2.4958330    -0.2317222    -4.2851605    
C     -1.8588755     0.3154315     1.1233597    
C     -1.0791079     1.6452231     1.0630833    
O     -1.5431052     2.5524066     2.0255068    
C      0.4432402     1.3843903     1.1407167    
N      1.1629282     2.4999032     0.5627613    
C      1.9391520     2.3870705    -0.5175675    
O      2.0902715     1.3777063    -1.1824475    
O      2.5363857     3.5688875    -0.8033650    
C      3.3483020     3.6219876    -1.9742223    
C      3.1323188     4.9732871    -2.6604557    
O      4.0929981     5.8611898    -2.1155206    
C      5.2450872     5.1375472    -1.7276426    
O      5.6801708     5.5238985    -0.4611326    
C      5.1711551     4.5874012     0.4909581    
C      5.2342071     3.2415516    -0.2331799    
C      4.8591163     3.6351041    -1.6619035    
C      0.9512518     1.1222254     2.5662463    
C      3.3797306     1.7432454     2.8251368    
C      4.7266411     1.4333580     2.7387681    
C      5.1224651     0.1694597     2.3376944    
C      4.1666177    -0.7845757     2.0266041    
C      2.8212642    -0.4762163     2.1169066    
C      2.4167023     0.7915769     2.5193792    
O     -5.8050063    -4.8047863     2.8066243    
C     -6.8101291    -5.4415157     2.0312012    
O     -3.2784872    -3.3907366    -1.0709714    
C     -4.1220193    -4.1019617    -1.9814311    
C     -3.5960896    -3.8560276    -3.3956348    
C     -3.5650385    -2.3861922    -3.6711032    
C     -2.5254959    -1.7194114    -4.1423250    
H     -5.3199628    -4.6264642     0.1633303    
H     -1.9695849    -2.5347283     3.1008750    
H     -3.9714220    -3.6543399     4.0968915    
H     -2.5217755     0.6553118    -1.2573494    
H     -2.6879902    -1.0903141    -1.5733572    
H     -0.4785935    -1.2538194    -2.4445961    
H     -0.0240768     0.3392822    -1.8754302    
H     -0.3919318     0.2565478    -4.3192234    
H     -1.4037103     1.4528879    -3.5154736    
H     -2.5063591     0.0388712    -5.3441038    
H     -3.3911009     0.1880681    -3.8250850    
H     -1.6180727    -0.2068499     2.0492386    
H     -2.9335967     0.5321232     1.1032533    
H     -1.2784782     2.1262321     0.0991716    
H     -1.5055065     2.1460832     2.9035251    
H      0.6590902     0.5109288     0.5165434    
H      1.0955590     3.3985590     1.0176948    
H      3.0751422     2.7734323    -2.6084450    
H      2.1464632     5.3894863    -2.4556826    
H      3.2886113     4.8769640    -3.7416920    
H      6.0583100     5.3658472    -2.4303582    
H      4.1380597     4.8442455     0.7483879    
H      5.8087349     4.6543427     1.3699971    
H      4.5636259     2.4986111     0.1919876    
H      6.2521531     2.8549104    -0.2147848    
H      5.3882635     3.0483917    -2.4094753    
H      0.4081385     0.2679141     2.9707669    
H      0.7860016     2.0061952     3.1827972    
H      3.0789439     2.7323210     3.1372376    
H      5.4666551     2.1808340     2.9808043    
H      6.1716921    -0.0739501     2.2669374    
H      4.4686878    -1.7725185     1.7116437    
H      2.0713487    -1.2177836     1.8751025    
H     -7.5168039    -5.8367858     2.7565095    
H     -6.3923049    -6.2598497     1.4418898    
H     -7.3137757    -4.7258904     1.3789865    
H     -5.1471053    -3.7217378    -1.8974173    
H     -4.1011230    -5.1712993    -1.7457414    
H     -4.2613084    -4.3686348    -4.0941270    
H     -2.5923927    -4.2706629    -3.4893548    
H     -4.4700595    -1.8515081    -3.4105756    
H     -1.6195321    -2.2417337    -4.4169705    
