54

C      0.7851132    -3.5343513     4.4155416    
C      2.8270445    -1.2747265     2.4259292    
C      4.1731118    -1.0610918     2.1178005    
C      3.5559440     0.8900102     0.9125028    
C     -0.5716660     0.4924574     0.1610167    
C     -2.4983887     1.9151949     0.5698831    
C     -1.2566547     0.6342441     3.9078206    
C      0.2602258    -0.1735426    -0.7693408    
C      0.0793096     0.0610520    -2.0997531    
C     -1.6538065     1.5218781    -1.7694447    
C     -2.8772873     2.7158181    -3.5937195    
C     -2.5400101     2.6113236    -5.9774902    
C     -2.1970598     2.2083971    -4.7011803    
C     -3.5667763     3.5209120    -6.1607890    
Cl    -3.9927409     4.0307186    -7.7745679    
C     -4.2613564     4.0331891    -5.0780273    
C     -3.9152105     3.6303661    -3.8045517    
N     -2.5931857     2.3694046    -2.2852136    
N     -0.8387329     0.9005329    -2.5950788    
C     -1.5962199     1.3374928    -0.3406785    
C     -2.3950944     1.6654480     1.9127833    
C     -1.3699842     0.8668156     2.4330711    
C     -0.4511640     0.3074062     1.5619052    
N      0.5665474    -0.4962461     2.0923874    
C      1.8866472    -0.3437732     1.8845938    
N      2.2772289     0.7200819     1.1689933    
C      4.5496854     0.0213965     1.3462260    
C      2.4478780    -2.3933504     3.2607451    
N      1.1647841    -2.5303190     3.6464846    
N      1.5268525    -4.5136543     4.8982150    
C      2.8027436    -4.4081275     4.5312406    
C      3.3437157    -3.3775270     3.7227039    
N      4.6892291    -3.6051155     3.5675325    
C      4.9356490    -4.6929055     4.2332420    
N      3.8407466    -5.2294360     4.8389294    
H     -0.2638894    -3.5574578     4.6771327    
H      4.9098593    -1.7523427     2.4949407    
H      3.7924962     1.7706717     0.3291565    
H     -3.3003708     2.5525423     0.2322368    
H     -1.9868777     1.2299292     4.4465699    
H     -0.2599651     0.8967187     4.2563234    
H     -1.4240485    -0.4160612     4.1429397    
H      1.0137564    -0.8660407    -0.4350294    
H      0.6856644    -0.4294776    -2.8497311    
H     -2.0087093     2.2189427    -6.8295993    
H     -1.4011086     1.5017987    -4.5442411    
H     -5.0620938     4.7380820    -5.2317762    
H     -4.4574280     4.0316817    -2.9624614    
H     -3.1772258     2.8334564    -1.6045932    
H     -3.1070581     2.1053955     2.5946830    
H      0.3309367    -1.2060035     2.7906535    
H      5.5834426     0.1972718     1.0989415    
H      5.9087522    -5.1356026     4.3030023    
H      3.7950640    -6.0633977     5.4029281    
