39

C      0.0698896     1.5721133     1.7076821    
O      0.2947046     2.7448535     1.3991478    
C      0.3616832     0.4731373     0.6055938    
O     -0.8296111     0.4020685    -0.1303176    
C     -0.7952418    -0.5206753    -1.2227610    
C     -2.2021663    -0.4578353    -1.8502936    
C     -2.3631561     0.8340886    -2.6586354    
O     -3.6758862     1.0016611    -3.1248447    
O     -2.4584383    -1.5340264    -2.7188562    
C     -0.4431216    -1.9522872    -0.7705752    
O     -1.5031923    -2.5807458    -0.0934036    
C      0.8414908    -1.9194680     0.0782590    
O      1.1950837    -3.1950378     0.5359884    
C      0.6630106    -0.9116063     1.2257127    
O     -0.3935242    -1.3394011     2.0538701    
O      1.3916207     0.8751294    -0.2798353    
C      4.8015113     2.4245726    -0.1218731    
C      3.4134169     2.0934815    -0.6532659    
C      2.6542156     1.1796512     0.3033677    
O     -0.3728858     1.1530856     2.7981206    
H     -0.0359875    -0.1870198    -1.9419586    
H     -2.9251770    -0.4438673    -1.0229571    
H     -1.6566758     0.8100023    -3.4991034    
H     -2.1311095     1.6848327    -2.0152313    
H     -3.9206395     0.1956576    -3.6078629    
H     -2.5680659    -2.3417166    -2.1945322    
H     -0.2571965    -2.5601350    -1.6629916    
H     -1.5778699    -2.1683270     0.7871258    
H      1.6710242    -1.5771384    -0.5477645    
H      0.4466332    -3.5567016     1.0385673    
H      1.5919372    -0.8453073     1.8152698    
H     -0.6150194    -0.5685384     2.6258459    
H      5.3179261     3.0784879    -0.8171215    
H      5.3832290     1.5156050     0.0086904    
H      4.7230673     2.9260795     0.8394707    
H      3.4796104     1.5925383    -1.6196743    
H      2.8218950     3.0010618    -0.7810333    
H      3.2113638     0.2450552     0.4691976    
H      2.5084040     1.6743759     1.2708191    
