55

N     -0.2717062     3.8486780     0.3012093    
C     -1.0678731     2.9626965    -0.5292475    
C     -0.6755234     3.0129035    -2.0058662    
C      0.9067591     3.5326132     0.8665756    
C      1.4273454     2.1071806     0.7219931    
C      2.9686588     2.0728313     0.7549410    
C      1.5800945    -1.0230325     1.4892956    
C      0.3976980    -2.5493671     0.0773643    
C     -0.6783447    -2.8819589    -0.8146465    
C     -1.7020329    -2.0632726    -1.2925742    
C     -3.0614975    -0.3038800    -1.7137675    
C     -3.5316985    -2.3784735    -2.7869127    
C     -0.0402078     6.2074071    -0.4529992    
C     -0.7421758     5.2183112     0.4729968    
O      1.5320007     4.3566588     1.5354601    
C      3.4874953     1.8676582     2.1753637    
C      3.0316357     0.5033348     2.7140436    
N      1.7456553     0.1449680     2.1437196    
C      0.8939775     1.2834107     1.9155572    
C      0.4906672    -1.2884897     0.6457297    
N      1.3270696    -3.5042091     0.3276568    
C      2.3138528    -3.1446196     1.1199968    
N      2.5065213    -1.9850995     1.7086809    
N     -2.0120734    -0.7860572    -1.0860443    
C     -3.8608070    -1.0604618    -2.5806579    
N     -2.4654540    -2.8716319    -2.1487310    
N     -1.9933755    -4.1132252    -2.2283702    
C     -0.9128769    -4.1462649    -1.4314174    
N     -0.1858702    -5.2473725    -1.2369944    
H     -2.1107122     3.2683162    -0.4221517    
H     -0.9898903     1.9398616    -0.1612526    
H     -1.2169268     2.2442996    -2.5501143    
H      0.3907858     2.8377840    -2.1259915    
H     -0.9156923     3.9794472    -2.4387026    
H      1.0922199     1.6622878    -0.2141612    
H      3.3591083     3.0107509     0.3571992    
H      3.3237218     1.2566731     0.1219476    
H     -3.2806801     0.7356431    -1.5183122    
H     -4.0728198    -3.0513155    -3.4323411    
H     -0.4222415     7.2077503    -0.2715227    
H     -0.2013930     5.9523563    -1.4963058    
H      1.0279704     6.2019228    -0.2498738    
H     -0.5412596     5.5046658     1.5096045    
H     -1.8181152     5.2337987     0.3009276    
H      3.1159240     2.6816591     2.7988052    
H      4.5759628     1.9126432     2.1843688    
H      2.9490290     0.5325771     3.8052159    
H      3.7361284    -0.2833581     2.4421746    
H     -0.1357031     0.9666542     1.7578377    
H      0.9229019     1.8977160     2.8191368    
H     -0.2642234    -0.5630522     0.4051339    
H      3.0681609    -3.9000077     1.3132734    
H     -4.7103491    -0.6241878    -3.0743535    
H     -0.3721724    -6.0714714    -1.7778623    
H      0.6463031    -5.1304941    -0.6743658    
