102

N      9.3029438    -2.6971334     2.6224918    
C      8.6781919    -1.4343130     3.1011772    
C      7.7542228    -0.9479281     1.9719207    
O      7.6233111    -1.6586290     0.9780286    
C      9.8406858    -0.4708827     3.3956619    
C      11.0513378    -1.3966925     3.5153118    
C      10.7570895    -2.4471982     2.4543173    
N      7.1092861     0.1863607     2.2265677    
C      6.3769878     0.9212268     1.2064089    
C      5.5938785    -0.0117253     0.2706283    
O      5.6948156     0.0303157    -0.9460714    
C      7.3224364     1.8472853     0.4419666    
C      8.0370250     2.8758276     1.3720860    
O      8.3621818     3.9586083     0.8589761    
O      8.2547715     2.5334372     2.5568486    
N      4.7753354    -0.8505547     0.9245334    
C      3.7208539    -1.6059272     0.2756258    
C      2.3999432    -1.0328766     0.7961449    
O      2.3143958    -0.6026337     1.9441667    
C      3.8522148    -3.1068636     0.6125257    
C      2.6452796    -3.9006728     0.1209111    
C      5.1364981    -3.6557490    -0.0028441    
N      1.3798284    -1.0540336    -0.0590355    
C      0.0727871    -0.5235241     0.2439579    
C     -0.9538058    -1.2929176    -0.5878561    
O     -0.6132331    -1.9964053    -1.5320058    
C      0.0057702     0.9760034    -0.0947042    
O      0.2920072     1.1396353    -1.4666213    
N     -2.2087760    -1.1938543    -0.1421927    
C     -3.3256473    -1.6492991    -0.9371161    
C     -3.6990927    -0.5713732    -1.9651613    
O     -3.1679004     0.5312027    -1.9891401    
C     -4.5027416    -1.9165717     0.0277826    
O     -5.7029265    -2.2654141    -0.6180280    
N     -4.6446344    -0.9568393    -2.8395688    
C     -5.2851164    -0.0341617    -3.7439096    
C     -6.2661516     0.9231766    -3.0460747    
O     -6.7019785     1.9008676    -3.6408001    
C     -6.0622926    -0.8356945    -4.7948613    
O     -6.9570183    -1.6835791    -4.1131116    
N     -6.6521817     0.5518386    -1.8230174    
C     -7.5002362     1.3624771    -0.9747354    
C     -6.6210201     2.3834804    -0.2281384    
O     -6.5587652     3.5525779    -0.6053002    
C     -8.3378000     0.4427032    -0.0562971    
O     -7.5239979    -0.3849136     0.7482096    
C     -9.3111627    -0.3812551    -0.8935378    
N     -5.9384754     1.8933749     0.8040798    
C     -4.9296424     2.6304030     1.5305253    
C     -3.5415970     1.9453560     1.3292560    
O     -3.5289487     0.6973637     1.3986603    
C     -5.2595187     2.6704202     3.0205115    
O     -2.5588035     2.6793393     1.1376487    
H      8.8275672    -2.8982618     1.7145528    
H      9.1359420    -3.4716073     3.2682497    
H      8.0725096    -1.6119821     3.9900548    
H      9.6628022     0.1140201     4.2935331    
H      9.9693523     0.2361943     2.5748832    
H      11.0873771    -1.8462458     4.5065712    
H      11.9847699    -0.8732332     3.3343730    
H      10.9338765    -2.0359983     1.4609657    
H      11.3267646    -3.3644422     2.5780747    
H      7.5402144     0.8625425     2.8698922    
H      5.6349449     1.5393106     1.7302541    
H      6.7785530     2.4003286    -0.3240152    
H      8.0910180     1.2559493    -0.0633562    
H      4.6129347    -0.7033841     1.9132373    
H      3.8115942    -1.4439507    -0.8014330    
H      3.9054054    -3.1840603     1.7033942    
H      2.8000868    -4.9574963     0.3192139    
H      2.5078149    -3.7671775    -0.9493013    
H      1.7334226    -3.5853417     0.6220875    
H      5.9806827    -3.0194953     0.2465220    
H      5.0457686    -3.6808675    -1.0861439    
H      5.3218777    -4.6634812     0.3559286    
H      1.4772105    -1.3868548    -1.0100816    
H     -0.1262247    -0.6390644     1.3134115    
H      0.7558500     1.4986267     0.5165182    
H     -0.9833441     1.3729680     0.1604788    
H      0.1024142     2.0508714    -1.7219480    
H     -2.4518454    -0.4510260     0.5231515    
H     -3.0137219    -2.5527258    -1.4726771    
H     -4.6759950    -0.9932786     0.5877353    
H     -4.1916959    -2.6833181     0.7401989    
H     -5.7195284    -3.2211818    -0.7782694    
H     -5.1716774    -1.8056186    -2.6628419    
H     -4.5263822     0.5902497    -4.2254287    
H     -5.3518428    -1.4173400    -5.3935745    
H     -6.5927032    -0.1247768    -5.4388647    
H     -7.4388421    -2.2205497    -4.7579962    
H     -6.1967817    -0.2380276    -1.3836666    
H     -8.1544138     1.9463748    -1.6312345    
H     -8.8809757     1.0823170     0.6478670    
H     -7.2065943    -1.1399304     0.2205584    
H     -9.8575564    -1.0623752    -0.2478538    
H     -8.7626271    -0.9484672    -1.6420404    
H     -10.0147400     0.2737094    -1.3966729    
H     -6.0863575     0.9253381     1.0787164    
H     -4.8768918     3.6375404     1.1054211    
H     -4.4911131     3.2352471     3.5416837    
H     -5.2776715     1.6552212     3.4110792    
H     -6.2259499     3.1425461     3.1763153    
