46

O     -1.0575107    -0.8273890    -2.6514035    
C      4.0564691    -4.8598413     1.1454548    
C      2.8943973    -5.5358995     1.4729702    
C      4.1172330    -3.4852760     1.3056302    
C      1.7976063    -4.8408864     1.9524290    
C      3.0202231    -2.7950032     1.7868306    
C     -2.1071876     3.4550867    -1.3797246    
C      0.2332591     3.2373480    -1.8482455    
C     -2.2298751     2.0796095    -1.3372788    
C      0.1112027     1.8605309    -1.8217244    
C     -1.2010934    -1.0915290     1.9542096    
C     -0.5210710    -2.8873034     0.3621896    
C     -1.6905918    -0.1671957     0.8332221    
C     -1.7024174    -2.2742511    -0.4031012    
C     -0.7423798     5.5343524    -1.6408924    
C      0.6515533    -2.6922140     2.6011341    
S     -0.5521222     6.1222120     0.1073997    
C     -1.2425038    -0.2178721    -1.5930027    
C     -0.8750673     4.0480140    -1.6344287    
C      1.8453759    -3.4626165     2.1133900    
C     -1.1181511     1.2722033    -1.5514858    
C     -0.0235308    -1.9272915     1.4533312    
N     -1.5810952    -0.8319379    -0.4534228    
H      4.9120957    -5.4002078     0.7693897    
H      2.8416854    -6.6080180     1.3542176    
H      5.0228910    -2.9518374     1.0565813    
H      0.8960912    -5.3782204     2.2074109    
H      3.0750889    -1.7235553     1.9135628    
H     -2.9730384     4.0777174    -1.2095980    
H      1.1959007     3.6861210    -2.0433015    
H     -3.1918877     1.6270700    -1.1498702    
H      0.9698764     1.2318005    -2.0062907    
H     -2.0000431    -1.7567531     2.2817972    
H     -0.9029609    -0.4808455     2.8059158    
H      0.2946001    -3.1107830    -0.3261612    
H     -0.8462384    -3.8269400     0.8084366    
H     -1.0853122     0.7411426     0.8063374    
H     -2.7325237     0.1202817     1.0121865    
H     -2.6489270    -2.5150770     0.0867702    
H     -1.7325498    -2.6401911    -1.4307631    
H      0.1447693     5.8541299    -2.1835989    
H     -1.6351925     6.0129283    -2.0388730    
H      0.9688174    -1.9759799     3.3615839    
H     -0.0710062    -3.3734222     3.0518042    
H     -0.5574777     7.4152842    -0.1914000    
H      0.7137285    -1.2468101     1.0125415    
