51

C     -7.2699644    -0.8000895    -3.9491098    
C     -6.3257814    -1.2886284    -4.7316318    
C     -5.9356067    -2.7297605    -4.7960487    
C     -4.4471554    -2.9120350    -4.4934085    
C     -3.5530982    -2.1783236    -5.5534267    
O     -3.7332468    -2.4909014    -6.7458617    
O     -2.7313690    -1.3462836    -5.1178482    
N     -4.1239879    -2.4516220    -3.1533364    
C     -2.8524983    -2.7338605    -2.7067310    
N     -2.3824921    -1.9038759    -1.7492121    
C     -1.0406000    -1.9711748    -1.2254462    
C      0.0242616    -1.6848906    -2.2999061    
C      1.3938877    -2.1881330    -1.8554368    
C      2.5401990    -1.7742029    -2.7773841    
C      2.7514595    -0.2589865    -2.8493085    
N      2.8501279     0.3372323    -1.5351273    
C      1.8984786     1.1328963    -1.0173648    
C      2.0635661     1.4762360     0.4234843    
C      1.6300419     2.7262696     0.8533447    
C      1.7520388     3.1006851     2.1779049    
C      2.2961036     2.1990095     3.0706582    
I      2.5380811     2.7660806     5.0829461    
C      2.6998729     0.9386806     2.6792807    
C      2.5838357     0.5780144     1.3491465    
O      0.9985049     1.6293157    -1.6964984    
C     -0.9172061    -0.8866176    -0.1061575    
O     -1.8013925    -0.0088357    -0.0738640    
O      0.0637837    -0.9670118     0.6555412    
O     -2.2553094    -3.7583911    -3.0446948    
H     -7.5147119     0.2471925    -3.9387277    
H     -7.8303164    -1.4400035    -3.2891276    
H     -5.7517240    -0.6442197    -5.3884422    
H     -6.0857970    -3.1008560    -5.8132040    
H     -6.5248535    -3.3206915    -4.0945085    
H     -4.1711051    -3.9715823    -4.5439147    
H     -4.3952734    -1.4856142    -3.0130125    
H     -2.8160049    -1.0042549    -1.5687411    
H     -0.8703682    -2.9671894    -0.7975038    
H      0.0319436    -0.6045167    -2.4742621    
H     -0.2887725    -2.1684255    -3.2303588    
H      1.3492408    -3.2786027    -1.8068850    
H      1.5605485    -1.8161787    -0.8407680    
H      2.3358475    -2.1378860    -3.7848961    
H      3.4558567    -2.2455100    -2.4156314    
H      1.9132125     0.2234127    -3.3555209    
H      3.6696586    -0.0429210    -3.4020922    
H      3.5121113    -0.0906750    -0.9044666    
H      1.1926948     3.3937308     0.1256744    
H      1.4210572     4.0750489     2.5011520    
H      3.0948617     0.2354160     3.3955183    
H      2.8513550    -0.4246139     1.0567822    
