51

N     -2.2153759     3.4677283     0.5156759    
C     -1.0956309     2.6931967     1.1140474    
C     -1.6385166     1.4518136     1.8269792    
C     -0.4964621     0.5956961     2.3758536    
C     -0.9899679    -0.7604118     2.8824384    
C      0.2256956    -1.6288568     3.1976338    
N     -0.0522326    -3.0524197     3.5213668    
C     -0.0658967     2.2944261     0.0328575    
O      1.0905056     2.6921606     0.0892401    
C      1.2386288    -3.6920087     3.8289326    
C     -0.6431889    -3.7401348     2.3623657    
C     -0.9457334    -3.1692625     4.6833207    
N     -0.5449151     1.4514919    -0.8795818    
C      0.1294944     1.0125794    -2.0735480    
C     -0.9430121     1.0681209    -3.2302267    
O     -2.1061943     1.3219047    -2.8539472    
C      0.6376850    -0.4244438    -1.9301332    
C      1.8838487    -0.5110352    -1.0373417    
C      2.1182527    -1.9472886    -0.6212234    
O      1.6658947    -2.4068984     0.4233138    
N      2.8307817    -2.6889741    -1.4702834    
O     -0.5428952     0.8489736    -4.3811758    
H     -2.9399937     3.6427778     1.2250027    
H     -2.6460110     2.9565387    -0.2672798    
H     -1.8862558     4.3715633     0.1552827    
H     -0.5613429     3.3318114     1.8232760    
H     -2.2191085     0.8537184     1.1243260    
H     -2.2878197     1.7552116     2.6482437    
H      0.0168089     1.1323361     3.1742987    
H      0.2300297     0.4251736     1.5806405    
H     -1.5912184    -1.2159134     2.0970978    
H     -1.6125377    -0.6099469     3.7636079    
H      0.7652963    -1.1906262     4.0386885    
H      0.8841635    -1.6286398     2.3260787    
H      1.0899261    -4.7442227     4.0593058    
H      1.7044233    -3.2062981     4.6831262    
H      1.8971439    -3.6077940     2.9667525    
H     -1.6429553    -3.3678580     2.1611244    
H     -0.7052046    -4.8073877     2.5584345    
H     -0.0151813    -3.5741943     1.4886194    
H     -0.5365308    -2.6171924     5.5259357    
H     -1.0491382    -4.2143964     4.9659016    
H     -1.9295826    -2.7773130     4.4411230    
H     -1.5480671     1.2970937    -1.0010179    
H      0.9544833     1.6862949    -2.3251585    
H      0.8523246    -0.8008143    -2.9321080    
H     -0.1676056    -1.0307340    -1.5083758    
H      1.7298421     0.0942021    -0.1433682    
H      2.7473801    -0.1174207    -1.5716818    
H      2.9804431    -3.6663969    -1.2742914    
H      3.1565596    -2.3149608    -2.3439198    
