37

C     -3.5574725     0.3782096    -1.7547997    
C     -2.6816970     1.2403926    -2.3912143    
C     -3.1205060    -0.4006953    -0.6965771    
C     -0.9038771     0.5859987    -0.9417719    
C     -1.3452418     1.3740686    -2.0137410    
C     -1.8008542    -0.2851202    -0.3088267    
C      0.3979696     0.4277994    -0.2566844    
C     -0.5563091     2.3591911    -2.8239617    
C     -1.1051477    -1.0136430     0.7926332    
C      1.7319152    -2.3605119     1.2952280    
C      0.9626492    -0.7698066     3.0613964    
C      2.9172135    -2.7318992     2.1765963    
C      2.1639265    -1.1674216     3.9095224    
C      1.3180405    -0.9097675     1.5771821    
N      2.5507544    -2.5648114     3.6028302    
N      0.2359862    -0.4858230     0.7172276    
N      0.7092360     2.5880331    -2.4804357    
O      1.4777015     0.9901392    -0.4755304    
O     -1.0870261     2.9428193    -3.7760005    
H     -4.5806321     0.3181930    -2.0904020    
H     -3.0176543     1.8481949    -3.2188401    
H     -3.7914294    -1.0771671    -0.1922102    
H     -1.1216250    -2.0940645     0.6258894    
H     -1.5667991    -0.7943719     1.7594192    
H      0.8937539    -3.0297342     1.4910489    
H      2.0107974    -2.4669894     0.2475833    
H      0.6872537     0.2602819     3.2831303    
H      0.1117729    -1.4080454     3.3000759    
H      3.7640608    -2.0821997     1.9532033    
H      3.2098125    -3.7653784     1.9937644    
H      1.9193071    -1.0819482     4.9680241    
H      3.0087187    -0.5136620     3.6897260    
H      2.1498853    -0.2393258     1.3291545    
H      3.3384826    -2.8442073     4.1982882    
H      1.7584015    -3.1844790     3.8168085    
H      1.2280722     3.2485058    -3.0362852    
H      1.1721729     2.0802918    -1.7212564    
