47

C      1.3937373     2.7383268    -0.6906918    
N      2.5953228    -4.5927342    -2.0514999    
S     -0.8976303     0.4643358     0.4472145    
C      2.2772435     1.6782847    -0.7772205    
N     -3.3725467    -0.0547042     0.9332921    
C      2.8940523     1.1719678     0.3587363    
N     -2.3077722     4.9429593     0.2502289    
C      2.6117538     1.7662295     1.5833446    
N      1.4419985    -5.2453568    -1.9691238    
C      1.7300744     2.8270308     1.6704627    
N     -2.8611044    -1.1728973     0.4307776    
C      1.1042592     3.3233283     0.5346239    
N     -2.7858761     2.1400272     1.4857909    
C     -1.7249079     3.0864029     1.7648683    
C      0.0900978     4.4344675     0.6201227    
C      2.5427962    -3.3214189    -1.6366954    
C     -1.3242851     3.8546158     0.4974179    
C     -1.4671524    -3.4428995    -0.6667126    
C     -2.5077422     0.9106270     1.0305102    
C     -0.7941968    -4.5119651    -1.1756870    
C      0.5729159    -4.3581084    -1.4713078    
C      1.2247574    -3.0999284    -1.2370971    
C      0.5090753    -2.0170914    -0.7144321    
C     -0.8278322    -2.1936941    -0.4311040    
C     -1.6123641    -1.1174001     0.1190237    
C      3.8411848     0.0137081     0.2800647    
H      0.9340420     3.1100926    -1.5935655    
H      3.4025315    -5.0849289    -2.4093789    
H      2.4902333     1.2354540    -1.7400904    
H     -3.2586778     4.5568241     0.2136238    
H     -2.1114269     5.4131470    -0.6413253    
H     -2.2638100     5.6441095     1.0009399    
H      3.0922143     1.3899764     2.4747674    
H      1.5397945     3.2736488     2.6348162    
H     -3.6673246     2.2227409     1.9705221    
H     -0.8444831     2.5473242     2.1278165    
H     -2.0577100     3.7716755     2.5430196    
H      0.2738861     5.1325396    -0.1954962    
H      0.2033102     4.9573095     1.5681932    
H      3.3985357    -2.6798159    -1.6439879    
H     -1.3511148     3.1610147    -0.3468456    
H     -2.5154100    -3.5145342    -0.4230454    
H     -1.2817389    -5.4567265    -1.3517518    
H      1.0028835    -1.0710822    -0.5398156    
H      4.0314664    -0.2625508    -0.7539254    
H      3.4284241    -0.8502138     0.8010592    
H      4.7892807     0.2621220     0.7533145    
