38

C     -1.6994569     1.7463651     0.6021823    
Cl    -2.9454739     1.7238350    -2.1637153    
C     -0.8356044     2.6692671     1.1835735    
C     -1.3133422     3.6108147     2.0766070    
C     -2.6581517     3.6366504     2.4055195    
C     -3.5219985     2.7122261     1.8420649    
C     -3.0474305     1.7722204     0.9455484    
C     -1.6985905     0.6158519    -1.6533068    
C     -1.2493965    -0.3045883    -2.5549733    
C     -0.2127204    -1.1616272    -2.1479808    
C      0.3490255    -1.0466080    -0.8307615    
C     -0.1462390    -0.0806101     0.0554497    
C     -1.1726566     0.7420355    -0.3410249    
N      0.3945620    -2.1234055    -2.8480188    
N      1.3154222    -2.6203356    -2.0203532    
C      1.3490245    -2.0329543    -0.8067218    
N      2.2848607    -2.4536569     0.1194176    
C      2.3705534    -2.1648639     1.4497148    
C      3.5871745    -2.7818976     2.1033226    
C      4.8768915    -2.0691661     1.6710737    
C      4.9066092    -0.6223652     2.1479607    
O      1.5614272    -1.4774828     2.0475903    
H      0.2125384     2.6489637     0.9211808    
H     -0.6336395     4.3253711     2.5175024    
H     -3.0319752     4.3719014     3.1017763    
H     -4.5699428     2.7217456     2.1024412    
H     -3.7212901     1.0439091     0.5179583    
H     -1.6583037    -0.3765724    -3.5482010    
H      0.2534181    -0.0034300     1.0539837    
H      1.9015367    -3.3725283    -2.3557774    
H      2.9858047    -3.0861547    -0.2479222    
H      3.6425429    -3.8403081     1.8471760    
H      3.4656712    -2.6876419     3.1825507    
H      4.9728773    -2.0918806     0.5844808    
H      5.7264912    -2.6059971     2.0947161    
H      5.8146643    -0.1279156     1.8129615    
H      4.8703290    -0.5778317     3.2337183    
H      4.0511912    -0.0717597     1.7620987    
