74

C     -3.3331557     3.5094897    -3.0575414    
C     -2.2211826     3.3576414    -2.0184652    
C     -1.3272441     2.1863862    -2.4399412    
N     -0.3561331     1.8566461    -1.4160435    
C     -0.0533914     0.5704667    -1.1136669    
O     -0.7035818    -0.3904174    -1.5217811    
N      0.9596191     0.4284627    -0.2059688    
C      1.4991161    -0.8773321     0.0975839    
C      2.9908669    -0.8728702    -0.2344954    
O      3.6091113     0.1931904    -0.2479020    
N      3.6025105    -2.0251508    -0.5025798    
C      3.0888029    -3.3748707    -0.5691175    
C      3.8890692    -4.3153244     0.3480420    
C      3.6474938    -3.9911582     1.7946514    
C      4.4357534    -3.0589836     2.4577963    
C      4.1694605    -2.7206076     3.7732320    
C      3.1102757    -3.3091342     4.4423263    
C      2.3228022    -4.2451335     3.7929972    
C      2.5911341    -4.5826044     2.4782425    
C      1.3018586    -1.1917714     1.5988713    
C     -0.1574280    -1.3921855     1.8740426    
C     -0.7014279    -2.6708218     1.8995141    
C     -2.0595655    -2.8554248     2.0943154    
C     -2.8972720    -1.7662089     2.2413061    
C     -2.3658350    -0.4767894     2.2171514    
C     -3.2468727     0.6915065     2.3733839    
N     -2.8120059     1.7417037     3.0303808    
N     -4.4568510     0.6589104     1.8639472    
C     -0.9943259    -0.3000111     2.0455626    
C     -0.6790243     2.5132054    -3.7938998    
C      0.1214095     3.8133468    -3.7154982    
C     -0.8037586     4.9596950    -3.3074630    
C     -1.4204025     4.6574739    -1.9423080    
C     -1.9146950     5.1106262    -4.3465807    
C     -2.7159891     3.8112991    -4.4235375    
C     -1.7902206     2.6656592    -4.8331854    
H     -4.0013635     4.3227898    -2.7694544    
H     -3.9196655     2.5906586    -3.1157723    
H     -2.6574316     3.1370638    -1.0415833    
H     -1.9348835     1.2807928    -2.5526646    
H      0.3110556     2.5721054    -1.1749811    
H      1.6386853     1.1725982    -0.0967136    
H      0.9536028    -1.5984490    -0.5191839    
H      4.5900443    -1.9350199    -0.7128335    
H      3.1708554    -3.7293151    -1.6014920    
H      2.0399597    -3.3836147    -0.2802853    
H      4.9507726    -4.2250322     0.1151339    
H      3.5771480    -5.3384476     0.1394891    
H      5.2666396    -2.5965844     1.9458230    
H      4.7929313    -1.9971471     4.2768987    
H      2.9046806    -3.0449004     5.4682008    
H      1.5008370    -4.7128375     4.3126403    
H      1.9804419    -5.3188592     1.9757380    
H      1.6993075    -0.3535245     2.1724951    
H      1.8654282    -2.0855708     1.8595404    
H     -0.0544305    -3.5257276     1.7729067    
H     -2.4662637    -3.8538969     2.1253894    
H     -3.9498814    -1.9259880     2.4115971    
H     -3.3882637     2.5622867     3.1499701    
H     -1.9032861     1.7303825     3.4656437    
H     -4.7557031    -0.1286404     1.3108704    
H     -5.0926598     1.4364452     1.9691756    
H     -0.5691041     0.6895477     1.9941308    
H     -0.0170501     1.6865398    -4.0789111    
H      0.5647837     4.0233582    -4.6918865    
H      0.9428320     3.7175764    -3.0017029    
H     -0.2270434     5.8900294    -3.2532244    
H     -0.6346543     4.5847599    -1.1890334    
H     -2.0833123     5.4745655    -1.6522273    
H     -1.4824915     5.3395673    -5.3234756    
H     -2.5721798     5.9382769    -4.0722367    
H     -3.5108183     3.9174647    -5.1696644    
H     -2.3560341     1.7344630    -4.9101200    
H     -1.3527896     2.8719267    -5.8123219    
