38

C      1.4845533    -1.9121743    -1.4298654    
C      1.4309289    -1.4935039    -0.0689180    
N      0.7862059    -1.3283486    -2.3559380    
N      0.5818673    -0.4221110     0.2670654    
C     -0.0270445    -0.2791663    -2.0236478    
C     -0.1590814     0.2079406    -0.7090181    
C     -1.6407851     1.8180791    -1.3370367    
N     -0.9465638     1.2288226    -0.3774711    
C     -1.5874830     1.4181717    -2.6828288    
C     -0.7772694     0.3647367    -3.0198520    
C      0.7173117    -0.2156829     1.6050469    
N      1.5758926    -1.0666405     2.1214716    
C      2.0325700    -1.8649843     1.1265436    
C      2.3530410    -3.0476216    -1.8591048    
C      3.0227763    -2.9286641     1.4368288    
C     -0.0221810     0.7909981     2.4040859    
C     -1.4262978     0.2884555     2.7674644    
C     -2.1157834     1.2337930     3.7424961    
O     -2.4404046     2.8484670    -1.0310168    
C     -2.5053196     3.2426975     0.3344521    
H     -2.1831239     1.9460880    -3.4075856    
H     -0.6968732     0.0122252    -4.0348475    
H      2.2238276    -3.1972050    -2.9264922    
H      2.0755957    -3.9561602    -1.3300591    
H      3.3965396    -2.8228337    -1.6507483    
H      3.3165839    -3.4769781     0.5511197    
H      2.5949439    -3.6170681     2.1632880    
H      3.9023354    -2.4786258     1.8930484    
H     -0.1053790     1.7186010     1.8392598    
H      0.5461184     0.9640844     3.3179072    
H     -1.3430349    -0.7032131     3.2167235    
H     -2.0154347     0.1946940     1.8527197    
H     -3.1216209     0.8836559     3.9607699    
H     -2.1791042     2.2361417     3.3261774    
H     -1.5589495     1.2835367     4.6748498    
H     -3.2218863     4.0584016     0.3655566    
H     -1.5266105     3.5782441     0.6796723    
H     -2.8404222     2.4097360     0.9527793    
