43

C     -0.1356469     0.6236239     0.4629186    
C      0.9663173     1.6932805     0.5197337    
C      1.9467700     0.6821397     2.4777604    
C      0.8701794    -0.4042206     2.5054634    
C     -0.4431975     0.0809326     1.8798819    
N      2.1594594     1.1172328     1.1116490    
O      3.2710674     1.1945651    -0.8461363    
C      3.2310670     0.8858926     0.3420122    
C      4.4356596     0.2412780     1.0417665    
C      5.5482409     0.1159797     0.1403425    
N      6.4485722     0.0055318    -0.5570075    
C     -1.1719392     1.0802715     2.7761432    
N     -1.3277122     1.0904668    -0.2187999    
C     -1.6107461     2.5120203    -0.2443107    
C     -2.1634723     0.2400198    -0.8505633    
C     -2.0253608    -1.1722445    -0.9380222    
C     -1.1525361    -2.2157515    -0.5051448    
C     -1.6515813    -3.3896569    -0.9796757    
N     -2.7952020    -3.1539699    -1.6900334    
C     -3.0443380    -1.8257823    -1.6783417    
N     -4.0944774    -1.2401729    -2.2714939    
C     -4.1056252     0.0644703    -2.0985594    
N     -3.2318276     0.8060188    -1.4475397    
H      0.2783894    -0.1962602    -0.1345545    
H      0.6668113     2.5513843     1.1215408    
H      1.2226361     2.0255014    -0.4874101    
H      2.8645758     0.3062984     2.9199729    
H      1.6171350     1.5473149     3.0579114    
H      0.6959915    -0.7125636     3.5355582    
H      1.2322852    -1.2723474     1.9498944    
H     -1.1073133    -0.7814904     1.7629408    
H      4.1735071    -0.7587145     1.3961076    
H      4.7529954     0.8606602     1.8843589    
H     -2.1465990     1.3151322     2.3572334    
H     -0.6154766     2.0028487     2.9076636    
H     -1.3289307     0.6367165     3.7564179    
H     -2.6130494     2.6423581    -0.6410867    
H     -0.9064257     3.0331585    -0.8938051    
H     -1.5605588     2.9285863     0.7580605    
H     -0.2624621    -2.1392025     0.0834045    
H     -1.2713024    -4.3844294    -0.8630774    
H     -3.3689923    -3.8417107    -2.1479622    
H     -4.9328528     0.6020983    -2.5461846    
