114

C      2.1492507     4.0052584    -3.1571590    
O      3.0035092     4.7001403    -2.6095803    
C      2.1910555     3.6336473    -4.6152542    
N      1.0512526     3.5844560    -2.5020437    
C      1.0100462     3.7265176    -1.0613714    
C      2.1974436     2.9840553    -0.4317353    
O      2.6560820     1.9528841    -0.9158431    
C     -0.2934926     3.1587009    -0.4861303    
O     -1.4079247     3.9818626    -0.6984266    
N      2.6858779     3.5530777     0.6748931    
C      3.7691033     2.9798732     1.4607371    
C      3.1297860     1.9837893     2.4390595    
O      2.9810631     2.2180782     3.6296695    
C      4.5294966     4.0888560     2.1768223    
C      5.2488442     5.0048664     1.1879332    
C      5.8329589     6.2287452     1.8916593    
C      6.5325353     7.1434424     0.8928822    
N      7.0774422     8.3409068     1.5790979    
N      2.7175811     0.8583113     1.8423644    
C      1.7841277    -0.0545539     2.4547633    
C      1.9150562    -1.4124706     1.7770364    
O      2.6176292    -1.5675047     0.7859161    
C      0.3391964     0.4666042     2.2135569    
O      0.2038348     1.8213372     2.5337926    
N      1.2105550    -2.4184646     2.3319723    
C      0.9112756    -3.5688774     1.4934334    
C     -0.0808828    -4.5020710     2.1821417    
C      0.5471034    -5.2062035     3.3851671    
C     -0.4783371    -6.0429664     4.1471811    
C      0.1846038    -6.8096207     5.2922225    
N     -0.7781456    -7.3311560     6.2512480    
C     -1.6077208    -8.3764306     5.6836841    
C     -0.1075741    -7.8052058     7.4473287    
C      0.3389157    -3.0166040     0.1734101    
O     -0.2870144    -1.9628977     0.1624741    
N      0.5785857    -3.7541516    -0.9130376    
C      0.2900938    -3.2753223    -2.2527397    
C     -1.0273016    -2.4916284    -2.2715314    
O     -2.0979270    -3.0341366    -2.0062176    
C      0.1582382    -4.4202859    -3.2431225    
C      0.0044003    -3.8527724    -4.6925820    
O      0.5678589    -2.7689028    -4.9428029    
O     -0.6597452    -4.5404556    -5.4899370    
N     -0.9123203    -1.2194872    -2.6343389    
C     -2.0062234    -0.3000472    -2.8375702    
C     -1.4090621     0.9623368    -3.5341595    
O     -0.1777691     1.1425397    -3.4005867    
C     -2.6477170     0.0836049    -1.4917945    
C     -3.8592353     0.9958735    -1.6689700    
C     -4.1612860     1.7929256    -0.3938761    
N     -5.3142281     2.6544628    -0.5601915    
C     -5.3130652     3.7955707    -1.2571828    
N     -4.1908743     4.4131368    -1.5898751    
N     -6.4807928     4.3796937    -1.5203895    
H      1.4456938     4.2119688    -5.1561520    
H      3.1767655     3.8379862    -5.0220851    
H      1.9456029     2.5794012    -4.7292229    
H      0.5254808     2.8114951    -2.9098544    
H      1.1040305     4.7965523    -0.8395467    
H     -0.1635455     2.9583031     0.5848555    
H     -0.4951102     2.2101136    -0.9917652    
H     -1.2673562     4.8241695    -0.2359980    
H      2.2085914     4.3437598     1.0836028    
H      4.4131754     2.4295254     0.7665420    
H      5.2416651     3.6221083     2.8579589    
H      3.8179512     4.6509974     2.7836991    
H      4.5502289     5.3128897     0.4077169    
H      6.0423214     4.4388333     0.6974736    
H      6.5353419     5.8871325     2.6526496    
H      5.0214473     6.7628767     2.3861860    
H      5.8249870     7.4555519     0.1245835    
H      7.3450473     6.6041023     0.4065816    
H      7.5502694     8.9588061     0.9102590    
H      6.3175353     8.8624841     2.0321780    
H      7.7502358     8.0558970     2.3005737    
H      2.8430204     0.7372410     0.8425656    
H      2.0037707    -0.1028883     3.5261026    
H     -0.3777921    -0.1459841     2.7697563    
H      0.1101607     0.3678673     1.1473345    
H      0.3428226     1.9429677     3.4875905    
H      0.5170368    -2.1932646     3.0312613    
H      1.8509320    -4.0867239     1.2772646    
H     -0.4237237    -5.2385752     1.4543467    
H     -0.9523803    -3.9212728     2.4895273    
H      0.9824831    -4.4646446     4.0550268    
H      1.3538330    -5.8530514     3.0358438    
H     -0.9555604    -6.7356679     3.4531050    
H     -1.2501083    -5.3962584     4.5646257    
H      0.8359355    -6.1207278     5.8361423    
H      0.8185804    -7.6160242     4.8784001    
H     -2.1935752    -7.9728426     4.8617130    
H     -1.0151491    -9.2282395     5.3114066    
H     -2.2922576    -8.7380826     6.4484877    
H      0.5840688    -8.6381602     7.2432233    
H      0.4551741    -6.9862193     7.8907356    
H     -0.8556518    -8.1426704     8.1622083    
H      1.1532596    -4.5819035    -0.8501330    
H      1.0975073    -2.6097835    -2.5919693    
H     -0.7229557    -5.0248903    -3.0263697    
H      1.0511210    -5.0481346    -3.2333553    
H     -0.0085190    -0.8211648    -2.8701256    
H     -2.7551802    -0.7567526    -3.4978482    
O     -2.1922926     1.7207532    -4.1244078    
H     -1.8749841     0.5696119    -0.8910852    
H     -2.9147430    -0.8460919    -0.9855283    
H     -4.7179793     0.3848536    -1.9509260    
H     -3.6515722     1.6770059    -2.4967355    
H     -3.2878292     2.3883216    -0.1241966    
H     -4.3697751     1.1043142     0.4246121    
H     -6.2072902     2.1986502    -0.4418476    
H     -3.2847030     3.9851453    -1.4667132    
H     -4.2250877     5.2483669    -2.1490926    
H     -7.3499207     3.9428418    -1.2680064    
H     -6.5107857     5.2617627    -2.0022721    
