56

C      1.3565671     2.7547332     4.2116660    
C     -3.3358944    -0.8033645     3.6822873    
C     -2.9085674    -0.9234656     0.6430344    
C      0.7911850    -3.1358869    -3.1535483    
C      2.2924910    -4.7802871    -1.9633221    
C      0.0730536    -4.1409280    -0.9651154    
O      3.5144230    -2.0688574    -2.4034438    
Cl    -3.8702591     2.7502235    -4.1985623    
C     -2.9954748     2.3701631    -1.6700201    
C     -1.7547992     1.2588907    -3.4181081    
C     -2.1443314     1.8282678    -0.7255922    
C     -0.9042785     0.7295248    -2.4678380    
C      3.2231389    -0.7918892    -0.3920758    
N      1.0351855     0.2248288    -0.5098100    
N      3.2111474     2.2068563     2.6566229    
N      3.4240077     1.3702497     1.6133660    
O      1.8246024    -2.5734165    -1.0074192    
S     -0.7885666     0.3489258     3.8208927    
C      2.8740109    -1.8775844    -1.3912262    
C     -0.1624048     0.4318533    -0.1263325    
C     -2.7984142     2.0752512    -3.0095897    
C      1.9916346     2.0450740     3.0826816    
C     -1.0957308     0.9964639    -1.1134978    
C     -2.1359916    -0.3218489     2.9502509    
C     -1.9265237    -0.3350542     1.6027596    
C      2.3287520     0.7036664     1.4120388    
C     -0.6558481     0.2061716     1.2387219    
C      0.0756828     0.5892280     2.3408219    
C      2.0028874    -0.3384757     0.4011992    
N      1.3618238     1.0935897     2.3134115    
C      1.2611979    -3.6664229    -1.8011311    
H      1.2173577     2.0755272     5.0523383    
H      2.0043314     3.5702003     4.5161218    
H      0.3827251     3.1433991     3.9171986    
H     -4.2336720    -0.3370242     3.2802536    
H     -3.4393673    -1.8823829     3.5708359    
H     -3.2554850    -0.5683274     4.7393337    
H     -3.2653326    -1.8797449     1.0199451    
H     -3.7689960    -0.2676069     0.5212111    
H     -2.4519476    -1.0734088    -0.3306644    
H      0.0701088    -2.3343742    -3.0071723    
H      1.6335034    -2.7518328    -3.7237279    
H      0.3224059    -3.9381533    -3.7144561    
H      3.1380543    -4.4315217    -2.5509516    
H      2.6529547    -5.1009745    -0.9885622    
H      1.8362818    -5.6254847    -2.4686043    
H      0.4153837    -4.4831844     0.0072846    
H     -0.6258329    -3.3216094    -0.8196149    
H     -0.4317895    -4.9553454    -1.4730918    
H     -3.8037087     3.0182005    -1.3729824    
H     -1.6100303     1.0449744    -4.4644022    
H     -2.2883785     2.0678210     0.3167300    
H     -0.0756311     0.1035647    -2.7585227    
H      3.6515939     0.0491343    -0.9347248    
H      3.9859118    -1.1780082     0.2847580    
H      1.5647417    -1.1952188     0.9444039    
