55

C     -0.0300776    -1.9551003     0.0555337    
N     -0.4725141     0.4117627     0.3018498    
O     -1.1244152    -2.1217112    -0.4787812    
C      0.5963103    -0.5558862     0.1571687    
C      1.4090703    -0.2457501    -1.1074293    
C     -5.3179550     5.0182530     2.9741575    
O      0.0178873     0.9535139     2.4410593    
O     -4.7060887     3.2602086    -0.0222804    
O     -2.8146809     1.3307991    -0.5028884    
O      5.5846427     0.4098905    -5.8306513    
O      1.6241689    -4.4098648     2.7074734    
O      0.4275207    -6.3485732     2.2280632    
C      3.9277690    -0.9133031    -4.7899351    
C      5.1584136     0.6704299    -3.4711799    
C      3.2208088    -1.2902462    -3.6660353    
C      4.4425075     0.2829901    -2.3533236    
C     -5.6256809     3.5781115     2.5786204    
C      2.6760553    -1.1015096    -1.2173603    
C      0.2747502    -4.3306561     0.5768635    
C     -3.5552864     2.3327447     3.2252824    
C     -2.1162210     2.5306271     2.7899635    
N      0.7081456    -2.9432724     0.5553044    
C     -0.7122546     1.0144113     1.4639548    
C     -4.0786187     2.7586473     0.9066845    
C     -2.8542304     1.8902736     0.5842694    
B      0.7835930    -5.0881818     1.9071682    
C      4.9062004     0.0723837    -4.6995282    
C      3.4693969    -0.7032821    -2.4313436    
N     -4.4245630     2.8584509     2.1898143    
N     -1.8934521     1.8120667     1.5365736    
H     -1.1929680     0.4122449    -0.4164802    
H      1.2251278    -0.4793309     1.0491242    
H      1.6876296     0.8092523    -1.0849133    
H      0.7753132    -0.4082203    -1.9815923    
H     -4.6268264     5.0568109     3.8114772    
H     -4.8817508     5.5481402     2.1313296    
H     -6.2383368     5.5180146     3.2591849    
H      6.2364011     1.1011523    -5.6418035    
H      1.9322358    -4.8704685     3.4933708    
H     -0.1670267    -6.8278740     1.6505314    
H      3.7393752    -1.3693388    -5.7489422    
H      5.9139707     1.4382007    -3.3879292    
H      2.4638433    -2.0561165    -3.7495795    
H      4.6498186     0.7547735    -1.4043433    
H     -6.2977130     3.5650016     1.7180223    
H     -6.0862705     3.0376466     3.4070768    
H      2.3983053    -2.1531606    -1.2918104    
H      3.2813848    -0.9595458    -0.3211432    
H      0.6560909    -4.8317378    -0.3204742    
H     -0.8149553    -4.3289867     0.4880919    
H     -3.7432906     2.8790094     4.1488559    
H     -3.7641846     1.2697130     3.3897883    
H     -1.4095847     2.1292234     3.5178394    
H     -1.9073363     3.5927214     2.6323582    
H      1.5480029    -2.7390876     1.0758820    
