96

C     -1.4222691    -3.0446249    -1.7738765    
C     -1.1113469    -3.2080536    -3.2779622    
C      0.3508471    -2.7965002    -3.4770782    
O      0.4198243    -1.5383111    -4.1788098    
C      0.8882154    -2.5947869    -2.0826212    
O      1.9936830    -2.3151171    -5.5749621    
C     -0.0824166    -2.7004123    -1.1765075    
O      1.2380728    -3.2025537     0.8069428    
C      0.1049622    -2.4665396     0.2877907    
O     -1.5278285    -4.1789319     0.9173578    
C     -1.0500577    -2.8928386     1.2101283    
O     -1.8339325    -0.5823954     1.2154071    
C     -2.2552544    -1.9419633     1.1505627    
O     -2.8479120    -0.2771391     3.1946736    
C     -3.1380046    -2.1555307    -0.0821831    
O     -3.5714550    -2.3489587    -2.4293737    
C     -2.5203184    -1.9883990    -1.4836065    
O     -5.0279466    -0.7120223    -1.8875857    
C     -0.2932237    -2.9226753     2.5698463    
O     -0.0066181    -1.5955865     2.9827636    
C      1.0590197    -3.4918157     2.0903843    
O      1.8799970    -4.0617076     2.7634372    
C      1.2930542    -1.4008692    -5.1733826    
C      1.3143583    -0.0426800    -5.7608236    
C      1.6698493    -0.0327984    -7.2207772    
C      1.1164485     1.0857637    -5.0728225    
C      0.8306581     1.2752930    -3.6267641    
C      2.3292842    -2.2971979    -1.8718784    
C     -2.2074541     0.1547918     2.2628451    
C     -1.7251765     1.5714003     2.1270557    
C     -2.0268081    -0.5755736    -1.7691403    
C     -4.7093715    -1.6815442    -2.5460403    
C     -5.5646061    -2.2797639    -3.6261507    
C     -0.9587369    -3.7362005     3.6655250    
C     -0.3065768     1.6970918     2.6984663    
C      0.2215077     3.1230641     2.5681249    
C      1.6425322     3.2455416     3.1148904    
C      2.1977693     4.6696857     3.0352019    
C      1.5920128     5.6017390     4.0838739    
C      2.0668884     7.0495168     3.9544537    
C      3.5491709     7.2391444     4.2707823    
C      3.9424199     8.7147931     4.2724761    
C      5.4276637     8.9165017     4.5644165    
C      5.8066779     10.3929583     4.5814071    
H     -1.7905271    -3.9905762    -1.3731716    
H     -1.7574445    -2.5833816    -3.8892304    
H     -1.2544130    -4.2413020    -3.5821483    
H      0.9350309    -3.5223554    -4.0539535    
H      0.3067691    -1.4020733     0.4747173    
H     -0.7883853    -4.7884567     0.7747783    
H     -2.8760682    -2.1443605     2.0340059    
H     -3.9639456    -1.4449563    -0.0012996    
H     -3.5458430    -3.1652438    -0.0137311    
H      0.3784873    -1.6342969     3.8708966    
H      0.8616789    -0.4676213    -7.8081302    
H      1.8549502     0.9794511    -7.5667434    
H      2.5566421    -0.6437273    -7.3812365    
H      1.1969079     2.0121050    -5.6295360    
H     -0.1769059     1.6716661    -3.5113323    
H      0.9064661     0.3552331    -3.0591270    
H      1.5183849     2.0147480    -3.2200311    
H      2.4937060    -1.7912254    -0.9250265    
H      2.8969546    -3.2267657    -1.8626555    
H      2.7122779    -1.6845387    -2.6866366    
H     -2.4024442     2.2205270     2.6816620    
H     -1.7228315     1.8447703     1.0727857    
H     -2.8501609     0.1293902    -1.6875340    
H     -1.2614855    -0.3033028    -1.0521500    
H     -1.6097078    -0.5277000    -2.7716690    
H     -6.6098574    -2.2023358    -3.3441891    
H     -5.4145489    -1.7062918    -4.5384106    
H     -5.2783290    -3.3110374    -3.8004137    
H     -1.6991603    -3.1168251     4.1665948    
H     -1.4536668    -4.6062782     3.2448702    
H     -0.2069256    -4.0638345     4.3805951    
H      0.3525579     1.0043013     2.1738197    
H     -0.3230508     1.4074239     3.7496036    
H     -0.4425449     3.7957962     3.1102274    
H      0.2142397     3.4183050     1.5182435    
H      2.2929484     2.5791362     2.5438924    
H      1.6618995     2.9112345     4.1544650    
H      2.0092197     5.0757018     2.0389846    
H      3.2784370     4.6281203     3.1795132    
H      1.8411264     5.2296922     5.0806885    
H      0.5047915     5.5906115     3.9892548    
H      1.4847276     7.6671337     4.6418334    
H      1.8654319     7.4063001     2.9423546    
H      4.1570842     6.7114661     3.5332213    
H      3.7661684     6.8085226     5.2519802    
H      3.3540561     9.2439912     5.0257522    
H      3.7039394     9.1530028     3.3006104    
H      6.0180721     8.3988501     3.8047053    
H      5.6683601     8.4690051     5.5315893    
H      5.5903416     10.8522595     3.6194805    
H      5.2427629     10.9215093     5.3469936    
H      6.8669984     10.5143458     4.7897367    
