74

C     -0.6140540    -1.6733371    -0.8290798    
C     -0.3237845    -1.9355825    -2.3188714    
C      1.1185059    -1.4932638    -2.6030974    
O      1.1509091    -0.2812915    -3.3741574    
C      1.7812026    -1.2354873    -1.2407167    
O      1.5239670    -1.4279441    -5.2623243    
C      0.7888634    -1.7832977    -0.2012351    
O      2.1297893    -1.7926122     1.7959816    
C      0.9996886    -1.1560149     1.1711778    
O     -0.7562373    -2.5695087     1.9658357    
C     -0.1573410    -1.3204688     2.1746341    
O     -0.5487983     1.0834438     2.0038504    
C     -1.1934185    -0.1874880     2.0301983    
O     -1.7196524     1.7899963     3.7845874    
C     -2.0895258    -0.3408021     0.7989137    
O     -2.5610713    -0.5880937    -1.5250647    
C     -1.4419164    -0.3823942    -0.5996584    
O     -3.6864386     1.3232186    -1.1017084    
C      0.6127606    -1.3208612     3.5293652    
O      0.9112188     0.0131955     3.9065113    
C      1.9500887    -1.9492424     3.0937905    
O      2.7681930    -2.4479793     3.8267502    
C      1.3691764    -0.3640209    -4.6860015    
C      1.3766409     0.9409380    -5.3819006    
C      1.0456069     0.8288641    -6.8439701    
C      1.6843610     2.1143502    -4.8191628    
C      2.0913345     2.4110165    -3.4211979    
C      3.1642180    -1.8656258    -1.1347158    
C     -0.8875756     1.9878792     2.9293648    
C     -0.1102600     3.2588475     2.7371946    
C     -0.5117797     4.3428402     3.7337813    
C      0.2723114     5.6279638     3.5012455    
C     -0.7204933     0.9060427    -0.9703558    
C     -3.5546931     0.2685887    -1.6910168    
C     -4.5183866    -0.2346583    -2.7283395    
C     -0.0493727    -2.0935428     4.6606855    
H     -1.2363801    -2.4825895    -0.4441360    
H     -1.0194530    -1.4084777    -2.9673327    
H     -0.4173001    -2.9997473    -2.5236669    
H      1.6528862    -2.2545109    -3.1809848    
H      1.8745463    -0.1547782    -1.1171919    
H      0.9847019    -2.8524508    -0.0759010    
H      1.2398539    -0.0909751     1.0982263    
H     -1.5246642    -2.6692505     2.5472020    
H     -1.8436829    -0.2020373     2.9178735    
H     -2.7793083     0.5066722     0.8130982    
H     -2.6765739    -1.2533108     0.9131550    
H      1.3883391    -0.0064007     4.7503880    
H     -0.0056541     0.5747549    -6.9736255    
H      1.2532965     1.7591373    -7.3632169    
H      1.6316557     0.0254357    -7.2861641    
H      1.6514523     2.9827444    -5.4660895    
H      1.2424436     2.8267917    -2.8787186    
H      2.4302673     1.5239688    -2.8976937    
H      2.8794298     3.1606443    -3.4230657    
H      3.5855836    -1.6844542    -0.1502193    
H      3.1057818    -2.9400557    -1.2898456    
H      3.8297974    -1.4439973    -1.8843622    
H     -0.2729446     3.5965831     1.7117509    
H      0.9484475     3.0125820     2.8373446    
H     -0.3382814     3.9766323     4.7466155    
H     -1.5817112     4.5351500     3.6379711    
H      1.3393055     5.4472928     3.6055613    
H      0.0825358     6.0148695     2.5028700    
H     -0.0213526     6.3842977     4.2236630    
H     -1.4253634     1.7345860    -0.9486982    
H      0.0678554     1.1139230    -0.2586586    
H     -0.3029988     0.8229172    -1.9691166    
H     -5.5339918    -0.0168473    -2.4119258    
H     -4.3325584     0.2984379    -3.6580215    
H     -4.3759362    -1.2978827    -2.8856830    
H     -0.9504117    -1.5767912     4.9830405    
H     -0.2803973    -3.1064536     4.3461413    
H      0.6463098    -2.1544912     5.4951876    
