200

N      0.3529877     2.9090847    -0.8618834    
C      1.1161497     3.4910442    -1.9887936    
C      0.7594337     2.7144824    -3.2587804    
O     -0.0794422     1.8220582    -3.2050102    
C      2.6241099     3.4675136    -1.6581586    
O      2.9462537     4.4761882    -0.7355368    
N      1.3842268     3.0706319    -4.3807452    
C      1.1594807     2.3413334    -5.6159294    
C     -0.3479464     2.1476998    -5.8517025    
O     -0.8335064     1.0849877    -6.2128329    
C      1.8739479     0.9779818    -5.5740902    
C      3.3177630     1.1269477    -5.2317126    
C      3.9300929     0.7786630    -4.0611183    
C      4.3329190     1.6936456    -6.0630159    
N      5.2578353     1.1015325    -4.1023940    
C      5.5395212     1.6475510    -5.3189404    
C      4.3457564     2.2157382    -7.3567926    
C      6.7379742     2.1173145    -5.8435135    
C      5.5371190     2.6765541    -7.8697022    
C      6.7186769     2.6294356    -7.1223002    
N     -1.0598939     3.2562178    -5.5586818    
C     -2.4810197     3.3326581    -5.8420749    
C     -3.2393935     2.1780416    -5.1797022    
O     -4.2576784     1.7015650    -5.6686196    
C     -2.7857771     3.3980195    -7.3476858    
C     -1.7875046     4.2679063    -8.1192375    
C     -1.5392966     5.6491447    -7.4529362    
O     -2.2115952     6.6148125    -7.8472872    
O     -0.6576400     5.6986762    -6.5586554    
N     -2.7628405     1.8281093    -3.9768961    
C     -3.2373662     0.6716507    -3.2620629    
C     -3.1694534     0.9187618    -1.7556139    
O     -2.4303885     1.7511569    -1.2458957    
C     -2.3658383    -0.5631340    -3.5781168    
O     -2.8704337    -1.6734522    -2.8736196    
N     -3.9828326     0.1156633    -1.0673482    
C     -4.0373002     0.0509785     0.3801129    
C     -2.6875221     0.4405111     0.9881894    
O     -1.6704845    -0.1947718     0.7310616    
C     -4.3340738    -1.3900208     0.8365208    
C     -4.2439796    -1.4907436     2.3202360    
N     -3.0620970    -1.6646299     2.9918208    
C     -5.1941409    -1.3687231     3.2983775    
C     -3.3476292    -1.6452669     4.3090565    
N     -4.6243339    -1.4730636     4.5308881    
N     -2.7353806     1.4530131     1.8521589    
C     -1.6281668     1.8375025     2.6980624    
C     -2.1082569     1.8463666     4.1490961    
O     -3.2310880     2.2332915     4.4518473    
C     -1.1366257     3.2565771     2.3438033    
C      0.3502253     3.4250216     2.6522507    
C      0.8534858     4.8200931     2.2721107    
C      2.3023224     5.0518154     2.6846839    
N      3.2040853     4.0970037     2.0055013    
N     -1.1534465     1.5332094     5.0359433    
C     -1.3529950     1.5948596     6.4656716    
C      0.0385849     1.6121106     7.0875890    
O      0.8761338     0.7830333     6.7541321    
C     -2.1043386     0.3765753     7.0283984    
O     -2.2303843     0.5755848     8.4178418    
N      0.3285474     2.6289546     7.9086097    
C      1.6265167     2.6716185     8.5629065    
C      2.7263173     2.2249777     7.5995481    
O      3.5719031     1.3915382     7.9075109    
N      2.7563866     2.8974153     6.4374098    
C      3.7012574     2.5899974     5.3843544    
C      3.2688083     1.4116496     4.5031983    
O      3.0514071     1.5511523     3.2993403    
N      3.2155832     0.2569316     5.1540910    
C      2.7883246    -1.0030450     4.5744101    
C      1.7585388    -0.7462054     3.4725632    
O      0.7245870    -0.1220310     3.6663237    
C      2.1967266    -1.8953230     5.6689343    
C      1.5875013    -3.1876519     5.1154645    
C      0.0793573    -3.0512794     4.8306631    
O     -0.3100030    -3.0726675     3.6415470    
O     -0.6909995    -2.9678541     5.8126475    
N      2.1376503    -1.1830075     2.2641964    
C      1.2725713    -1.1895201     1.1030739    
C      1.1447982    -2.6359609     0.6374759    
O      2.0611426    -3.4315149     0.8295791    
C      1.9157348    -0.3168594    -0.0016978    
O      2.0305021     1.0157010     0.4396496    
C      1.0728271    -0.3332207    -1.2692218    
N     -0.0037919    -2.9464478     0.0326883    
C     -0.2496250    -4.2560640    -0.5335996    
C     -0.1542006    -4.1894819    -2.0612514    
O     -0.5841085    -3.2185557    -2.6879917    
C     -1.6169037    -4.7812791    -0.0789654    
C     -1.5665956    -5.0278122     1.4287640    
C     -2.9250235    -5.0350473     2.1307076    
N     -2.7051459    -4.6854463     3.5208851    
C     -3.5137702    -4.9097383     4.5471221    
N     -4.6808793    -5.5305963     4.3872083    
N     -3.1129475    -4.5590122     5.7665862    
N      0.4935346    -5.2052079    -2.6209382    
C      0.5770305    -5.4394581    -4.0410470    
C      0.0557931    -6.8990938    -4.3075125    
O     -0.0426653    -7.6327657    -3.3038991    
C      2.0112019    -5.3650393    -4.5759235    
C      2.7023619    -3.9910574    -4.5569882    
C      1.8395672    -2.9023802    -5.1907096    
C      3.1459701    -3.5693465    -3.1571782    
O     -0.1935971    -7.1970054    -5.4866154    
H     -0.5103581     2.4516913    -1.2164552    
H      0.9030171     2.1658741    -0.3735271    
H      0.0854725     3.6154483    -0.1715549    
H      0.7881098     4.5234401    -2.1533931    
H      3.2147148     3.5490743    -2.5720355    
H      2.8653256     2.5170170    -1.1769667    
H      3.0668002     5.3259547    -1.1763985    
H      2.0009969     3.8664397    -4.4157412    
H      1.5456115     2.9458087    -6.4412296    
H      1.7487759     0.5031305    -6.5493717    
H      1.3675873     0.3487507    -4.8400879    
H      3.5056522     0.2963991    -3.2029365    
H      5.9350711     0.8781850    -3.3928160    
H      3.4419743     2.2470670    -7.9496868    
H      7.6541878     2.0736937    -5.2757939    
H      5.5670926     3.0801449    -8.8720230    
H      7.6312962     2.9971404    -7.5668628    
H     -0.6153210     4.1747407    -5.7241578    
H     -2.8330960     4.2627841    -5.3789940    
H     -3.7958889     3.7888992    -7.4752914    
H     -2.7655867     2.3830294    -7.7543915    
H     -2.1738452     4.4473462    -9.1234701    
H     -0.8287841     3.7482200    -8.1988446    
H     -1.8154116     2.1000456    -3.7243501    
H     -4.2650376     0.4733695    -3.5804976    
H     -1.3317607    -0.3515444    -3.2875549    
H     -2.3850607    -0.7329348    -4.6637661    
H     -2.1733106    -2.3541939    -2.8704290    
H     -4.4419719    -0.6253577    -1.5785181    
H     -4.8224408     0.7246800     0.7442177    
H     -3.5960718    -2.0456105     0.3686817    
H     -5.3316669    -1.6778582     0.5068726    
H     -2.1454902    -1.8157710     2.5958291    
H     -6.2494644    -1.2202078     3.1941216    
H     -2.5985263    -1.7745408     5.0634027    
H     -3.6178004     1.8869229     2.0863184    
H     -0.8326283     1.1011967     2.5670650    
H     -1.7315855     3.9814125     2.9041837    
H     -1.3527863     3.4077434     1.2864363    
H      0.8994553     2.6481566     2.1240608    
H      0.4951579     3.2573884     3.7207098    
H      0.2320513     5.5686332     2.7633975    
H      0.7629115     4.9812632     1.1990743    
H      2.3995462     4.9412210     3.7640839    
H      2.5905851     6.0674012     2.4159675    
H      4.1825887     4.3512371     2.1525565    
H      3.0662625     3.1340680     2.3661735    
H      3.0325394     4.1163642     0.9807408    
H     -0.3601358     0.9724337     4.7267970    
H     -1.9308081     2.4921081     6.7052039    
H     -1.5265504    -0.5335314     6.8097137    
H     -3.0831922     0.3061695     6.5397865    
H     -2.7669205    -0.1339707     8.7952451    
H     -0.4214509     3.1670590     8.3178395    
H      1.6613116     2.0074698     9.4324637    
H      1.8237782     3.6955729     8.8827378    
H      1.9628232     3.4754537     6.2028089    
H      4.6471484     2.3168132     5.8611282    
H      3.8405447     3.4822542     4.7769218    
H      3.3632676     0.2621815     6.1574226    
H      3.6597542    -1.5080626     4.1347171    
H      1.4243088    -1.3386543     6.2050017    
H      2.9918840    -2.1358043     6.3770403    
H      1.6791525    -3.9789197     5.8625654    
H      2.0865903    -3.5115285     4.1989111    
H      2.8908849    -1.8572091     2.1909019    
H      0.2952349    -0.7839153     1.3745389    
H      2.9156693    -0.7280423    -0.2093054    
H      2.4010904     1.0287129     1.3399799    
H      1.0725974    -1.3198766    -1.7235272    
H      0.0443349    -0.0650024    -1.0414486    
H      1.4701533     0.3619338    -2.0009999    
H     -0.6923984    -2.2221647    -0.1309258    
H      0.5449443    -4.9113964    -0.1623484    
H     -1.8500768    -5.6948530    -0.6277988    
H     -2.3723859    -4.0345393    -0.3309041    
H     -0.9678406    -4.2315602     1.8751188    
H     -1.0445148    -5.9650929     1.6220779    
H     -3.3808056    -6.0242763     2.0567625    
H     -3.5913893    -4.3017514     1.6612050    
H     -1.8720872    -4.1189846     3.6872398    
H     -5.0013398    -5.7942556     3.4730016    
H     -5.2714082    -5.7124163     5.1794510    
H     -2.2632571    -4.0090890     5.8785462    
H     -3.7535027    -4.5958705     6.5401037    
H      0.6539592    -6.0595066    -2.0940744    
H     -0.0733641    -4.7392795    -4.5703288    
H      1.9548419    -5.7235593    -5.6079843    
H      2.6152851    -6.0836625    -4.0138820    
H      3.6038041    -4.1094669    -5.1705411    
H      1.4655567    -3.2263714    -6.1598181    
H      0.9845751    -2.6703983    -4.5589147    
H      2.4220339    -1.9955607    -5.3311634    
H      2.2864092    -3.3529103    -2.5295397    
H      3.7239344    -4.3581264    -2.6822553    
H      3.7607254    -2.6761683    -3.2269507    
