17

C     -1.1740227     2.1362225     0.1955540    
C     -2.1808378     1.3137108    -0.3515565    
C      0.0731413     1.6431433     0.4660238    
C     -1.9651332    -0.0047889    -0.6371140    
C      0.3298026     0.2957778     0.1857894    
C     -0.6922709    -0.5443821    -0.3710091    
C      1.4444647    -0.5551136     0.3171964    
N      1.0431038    -1.7549962    -0.1360991    
N     -0.2462448    -1.7877007    -0.5614497    
N      2.6866085    -0.3092022     0.7876837    
H     -1.4041905     3.1714688     0.4001613    
H     -3.1505330     1.7496817    -0.5475313    
H      0.8425058     2.2753472     0.8854830    
H     -2.7377603    -0.6312912    -1.0555954    
H      1.5848060    -2.6032547    -0.1899393    
H      2.9166785     0.6148441     1.0964409    
H      3.3814814    -1.0305286     0.8082482    
