56

N     -3.4493652    -3.3255255     3.9477839    
C     -3.3831535    -3.9340638     2.7483474    
N     -2.6371999    -3.5438785     1.7282878    
C     -2.0282645    -2.3521882     1.8383232    
C     -2.1645204    -1.5253522     2.9985471    
C     -2.8222061    -2.1733227     4.1032979    
C      3.1899671    -0.5484469     2.9926019    
C     -1.9680645     0.8068565     4.0058372    
N     -4.1204040    -5.0495751     2.6020099    
N     -2.8270484    -1.6739327     5.3553170    
C      1.4587471     0.2116295    -6.8433860    
C      2.6142787     0.6549652    -6.2220019    
C      0.2778529     0.9146919    -6.6771569    
C      2.5894371     1.7984494    -5.4432156    
C      0.2543674     2.0552469    -5.8937142    
C      3.2335317     1.3327541    -0.7810116    
C      3.2573137     0.7080396     0.4513290    
C     -0.7166458    -0.7918660     0.8310700    
C      1.0000018     2.0897898    -0.3644818    
C      1.0603739     3.3075790    -2.9389178    
C      1.3684359     3.7207094    -4.3812795    
C     -0.1933250     1.4877078     1.7684801    
N     -1.2953193    -1.9658401     0.7795779    
O      2.0730295     0.1774076     2.5239894    
O      2.1883569     2.6130971    -2.4364715    
C      1.4099711     2.5115066    -5.2729535    
C      2.1073015     2.0307705    -1.2040860    
C     -0.8583933     0.1347430     1.8667568    
C      1.0084905     1.4596203     0.8684469    
C     -1.6434380    -0.2176435     2.9598294    
C      2.1488235     0.7623747     1.2858474    
H      2.9028358    -0.9119376     3.9768902    
H      4.0715989     0.0928139     3.0800918    
H      3.4128009    -1.3978027     2.3411433    
H     -2.9154567     0.5835216     4.4858390    
H     -2.0458722     1.7872585     3.5424021    
H     -1.1772420     0.8588931     4.7544749    
H     -4.5501871    -5.4446134     3.4188636    
H     -3.9655739    -5.6061197     1.7809698    
H     -2.1417714    -0.9935059     5.6294882    
H     -3.2115444    -2.2828400     6.0599629    
H      1.4783794    -0.6795342    -7.4525384    
H      3.5374042     0.1079226    -6.3454245    
H     -0.6273858     0.5718583    -7.1558403    
H      3.4890989     2.1400313    -4.9530584    
H     -0.6707492     2.5988103    -5.7645380    
H      4.0888185     1.2861166    -1.4352053    
H      4.1469619     0.1757396     0.7448298    
H     -0.1189001    -0.5433426    -0.0382063    
H      0.1095569     2.6215293    -0.6599351    
H      0.1764823     2.6569531    -2.9209897    
H      0.8680956     4.1961894    -2.3228690    
H      2.3310186     4.2318580    -4.3926896    
H      0.5912735     4.4095385    -4.7122785    
H      0.1352197     1.7889356     2.7650729    
H     -0.9131287     2.2228170     1.3985274    
