24

C      2.1310061     0.3126723     1.4726833    
C      1.2203256     0.4153867     0.4259540    
C     -0.0879003    -0.1228399     0.5563933    
Cl     2.8006307    -0.4699738     3.9508533    
C     -0.5072146    -0.7569414     1.7161523    
Cl    -0.0532471    -1.6248845     4.2124992    
C      0.4109306    -0.8461999     2.7432118    
C      1.7069699    -0.3205377     2.6217190    
N     -0.6978449     0.1273245    -0.6354367    
C      0.2124336     0.8022400    -1.4042798    
N      1.3604678     0.9887916    -0.8102011    
C     -0.2617422     1.2605272    -2.7390580    
N     -0.8230330     0.2638256    -3.4582424    
C     -3.2738441     0.3875062    -3.4264709    
O     -3.1064565     0.1036519    -2.2215448    
O     -4.3505546     0.5690335    -4.0085539    
O     -0.1923293     2.4244568    -3.1106212    
C     -1.9681330     0.5207487    -4.2951140    
H      3.1253193     0.7152541     1.3878371    
H     -1.4998136    -1.1621456     1.8174433    
H     -1.6655064    -0.0288142    -0.9172471    
H     -0.8758429    -0.6368347    -2.9971630    
H     -2.0136609    -0.1853270    -5.1245957    
H     -1.9171359     1.5393154    -4.6801491    
