94

C      3.1424808     0.7982225     1.1332804    
N      5.5478567     0.7064223     1.1078807    
O      3.3104567     2.0083479     0.9696725    
C      4.3414963    -0.1268244     0.8430068    
C      4.3736695    -1.4695133     1.5785544    
C      3.6733463    -2.5821472     0.7959943    
C      5.8505778     0.9132904     2.5379448    
O     -2.4672388    -0.0984439    -0.3557939    
O      0.0108134    -1.3281671     1.0802423    
C      6.1131701     6.5010451     0.0501153    
C     -0.0975976    -4.9909662    -3.1883921    
C     -7.1535447    -4.1418732    -2.2281188    
C      5.4045385     6.9904247    -1.0342396    
C      5.5439048     5.5369638     0.8668854    
C      0.1248067    -4.2315514    -2.0528361    
C     -1.3317297    -4.9387123    -3.8143894    
C     -6.8591895    -2.8643822    -2.6730385    
C     -6.1781247    -4.8911515    -1.5899235    
C      4.1320554     6.5143791    -1.3045542    
C      4.2701935     5.0661189     0.6028964    
C     -0.8823276    -3.4345451    -1.5360704    
C     -2.3391971    -4.1406259    -3.3012451    
C     -5.5937000    -2.3364483    -2.4801650    
C     -4.9134999    -4.3645030    -1.3994681    
C      0.8212793     3.0217635    -1.3584182    
C      0.5766669     1.7442825    -0.5616448    
C     -1.0501700     2.5170077     1.1872887    
C     -1.4820241     2.4029494     2.6469000    
C     -3.5367827     0.9095495     2.7062861    
C     -3.7847787    -0.5886678     2.5634384    
C      2.1622977     5.0448645    -0.7660671    
N      2.1678728     3.5890400    -1.0550952    
N      2.0206067     0.2167904     1.5077637    
N     -3.0673330    -2.2676838    -0.1819286    
C     -2.6816859    -1.0944354     0.3218354    
C     -0.2940823    -0.2813614     1.6603960    
C      3.5548356     5.5520127    -0.4874331    
C     -2.1274530    -3.3911062    -2.1507062    
C     -4.6106862    -3.0830936    -1.8465435    
C      0.3894209     2.0434242     0.9352895    
C     -2.0324395     1.0102746     2.9806562    
C     -2.5215283    -1.0772990     1.8500690    
C      0.7410105     0.8269186     1.8203581    
C     -3.2349956    -2.5064567    -1.6068839    
N     -1.5018527    -0.0920246     2.1797011    
H      5.3339474     1.6369960     0.7061657    
H      6.3702484     0.3151228     0.6376267    
H      4.3133416    -0.3310869    -0.2348816    
H      3.9344234    -1.3844483     2.5719946    
H      5.4134739    -1.7752643     1.7000530    
H      3.7577965    -3.5186568     1.3419595    
H      4.1391322    -2.7243091    -0.1764241    
H      2.6131583    -2.3970808     0.6351761    
H      6.6839346     1.6033103     2.6364516    
H      6.1159475    -0.0222541     3.0202050    
H      4.9850704     1.3388291     3.0386751    
H      7.1039600     6.8765406     0.2589481    
H      0.6848639    -5.6182381    -3.5880304    
H     -8.1397486    -4.5543058    -2.3801655    
H      5.8429722     7.7452205    -1.6702941    
H      6.0963654     5.1686060     1.7174279    
H      1.0852616    -4.2642182    -1.5624042    
H     -1.5151654    -5.5238992    -4.7036987    
H     -7.6165318    -2.2787206    -3.1721163    
H     -6.4054341    -5.8880712    -1.2432671    
H      3.5886081     6.9082839    -2.1506657    
H      3.8313908     4.3278029     1.2547894    
H     -0.6918334    -2.8389416    -0.6553480    
H     -3.2987905    -4.1055282    -3.7956929    
H     -5.3687069    -1.3395035    -2.8291528    
H     -4.1512787    -4.9602857    -0.9184189    
H      0.0608017     3.7583700    -1.1058534    
H      0.7419721     2.8131729    -2.4237614    
H      1.3993853     1.0499427    -0.7271983    
H     -0.3213072     1.2512185    -0.9378996    
H     -1.1374759     3.5568353     0.8755174    
H     -1.7374758     1.9328601     0.5736022    
H     -2.2855999     3.1128686     2.8446915    
H     -0.6608495     2.6677388     3.3122171    
H     -4.1288552     1.3565775     3.5007139    
H     -3.7680939     1.4110711     1.7659295    
H     -4.6849420    -0.8122302     1.9946999    
H     -3.8639283    -1.0610653     3.5423016    
H      1.5275231     5.2199174     0.1050835    
H      1.7386707     5.5772428    -1.6182769    
H      2.8013860     3.4207583    -1.8417573    
H      2.5741664     3.0883081    -0.2337535    
H      1.9487263    -0.7964918     1.4723650    
H     -3.2079193    -3.0602168     0.4258374    
H      1.0676770     2.8411538     1.2486591    
H     -1.8432630     0.7738608     4.0368731    
H     -2.2028906    -2.0699243     2.1834617    
H      0.7548891     1.1396902     2.8703553    
H     -3.1606899    -1.5206142    -2.0846912    
