50

C      0.2707408     0.5808137    -4.0086704    
C      0.4565604     2.0886102    -4.3205917    
C     -1.0013341     2.6395796    -4.2197555    
O     -1.8057038     1.6091447    -3.7448063    
C     -0.9918537     0.5877415    -3.1381866    
C     -0.6846777     0.8788513    -1.6990264    
N     -1.0606161     3.8279324    -3.3606081    
O      0.1234527    -0.1465626    -5.1968460    
O      1.0361704     2.3237845    -5.5640993    
C     -1.1894923     0.1881765    -0.6901185    
C     -0.9229811     0.4994922     0.7517862    
N     -0.6839059    -0.7031313     1.5204100    
C      0.5208598    -1.0274336     2.0006547    
C      0.6123547    -2.3139627     2.7684888    
C     -0.3519946    -3.3321759     2.7458769    
C     -0.1449500    -4.5117918     3.5084342    
C      0.9863725    -4.6645634     4.2742932    
C      1.9407181    -3.6413518     4.2836988    
C      1.7563422    -2.4879686     3.5362331    
N      3.1057678    -3.7968255     5.0685941    
O     -1.4685655    -3.2392458     2.0206442    
O     -1.1306655    -5.4319652     3.4164612    
O      1.5128594    -0.3114288     1.8683837    
O      3.2377029    -4.8287241     5.7162166    
O      3.9393973    -2.9008908     5.0754648    
C     -1.8684664     3.8907496    -2.2773367    
C     -1.9265039     4.9902338    -1.4915410    
C     -1.1360064     6.1643347    -1.7744383    
C     -0.2999436     4.9020208    -3.6893492    
C     -0.3066300     6.0348404    -2.9513873    
O     -1.1682770     7.1950268    -1.0742991    
H      1.1350324     0.1617814    -3.4922328    
H      1.0804658     2.5662122    -3.5573469    
H     -1.3625297     2.9382173    -5.2135791    
H     -1.5628467    -0.3390298    -3.2271545    
H     -0.0336091     1.7214291    -1.5124040    
H     -0.7768402    -0.0362725    -5.5401834    
H      1.0100321     1.4925119    -6.0749009    
H     -1.8437695    -0.6530345    -0.8722440    
H     -1.7928864     1.0128961     1.1748526    
H     -0.0465975     1.1423132     0.8561059    
H     -1.4499629    -1.3569722     1.6079359    
H      1.1627911    -5.5485378     4.8670699    
H      2.5026776    -1.7080415     3.5401666    
H     -1.9973214    -4.0572992     2.1161107    
H     -0.9500331    -6.2143647     3.9584516    
H     -2.4628422     3.0103179    -2.0868087    
H     -2.5776801     5.0165286    -0.6331058    
H      0.3120760     4.7936248    -4.5726654    
H      0.3069442     6.8756649    -3.2309265    
