54

C      3.7340531    -4.6431971     0.8708004    
C      2.3534173    -1.5509588    -0.1244626    
C      0.8942215    -0.5848804     1.6693029    
O      0.2999798     5.3897081    -1.9312916    
O     -4.0669100     3.6948495    -3.6752654    
O     -2.6365400    -1.3034550     0.1251336    
C      4.5633175    -3.2486785     4.2819135    
C      3.3967852    -2.5907146     4.6271961    
C      4.6455600    -3.8922098     3.0608943    
C      2.3420873    -2.5646758     3.7342457    
C     -4.1622741     1.5655797    -2.6764174    
C     -3.6315806     0.5826227    -1.8648820    
C     -0.2463218     3.5416146    -0.4722708    
C     -0.5424464    -0.8389402    -0.9591104    
C      1.2412805    -3.0972954     1.5579192    
N     -0.0648940    -1.9777626    -0.1394443    
N     -1.4874058     4.1171607    -2.4486713    
O     -0.5714315     2.1862789    -0.7203200    
C     -0.4282873     4.4385659    -1.6856447    
C      3.5924336    -3.8751271     2.1529818    
C     -3.4965797     2.7716029    -2.8622377    
C      2.4293386    -3.1735340     2.4863326    
C     -2.4342620     0.7779742    -1.1921900    
C     -2.2668365     2.9683336    -2.2245655    
C     -1.7635725     1.9872303    -1.3718675    
C     -1.8033852    -0.2482096    -0.2801091    
C      1.1334735    -1.7781213     0.7585286    
H      3.7297955    -3.9842353     0.0065914    
H      4.6745656    -5.1894996     0.8683622    
H      2.9294917    -5.3700910     0.7647801    
H      3.2515730    -1.5698084     0.4869439    
H      2.4400276    -2.3229192    -0.8847963    
H      2.3146833    -0.5831225    -0.6155064    
H      0.0133799    -0.7325804     2.2880432    
H      1.7510609    -0.4573830     2.3238730    
H      0.7811907     0.3323869     1.0990224    
H     -3.6903976     4.5778728    -3.5538548    
H     -3.0877171    -1.6858631    -0.6404116    
H      5.3988283    -3.2781888     4.9663477    
H      3.3074006    -2.1091920     5.5898723    
H      5.5494656    -4.4292245     2.8091811    
H      1.4272213    -2.0731721     4.0266046    
H     -5.1030923     1.4247926    -3.1813681    
H     -4.1926810    -0.3274378    -1.7343899    
H      0.7979049     3.5662564    -0.1590748    
H     -0.8724503     3.9417726     0.3393192    
H     -0.8136732    -1.1939759    -1.9533380    
H      0.2166139    -0.0690223    -1.0592363    
H      0.3430384    -3.2063046     2.1685148    
H      1.2922121    -3.9333714     0.8621824    
H      0.1514719    -2.7736068    -0.7464566    
H     -0.8900285    -2.2430001     0.4342645    
H     -1.6404539     4.6634928    -3.2875748    
H     -1.5149394     0.2603485     0.6447772    
