156

C     -5.4824614    -3.4452660    -9.0896426    
O     -4.7995025    -2.8221525    -8.2677926    
C     -5.4758779    -3.1279272    -10.5624833    
N     -6.2979192    -4.4306862    -8.6982815    
C     -6.2902940    -4.8792087    -7.3109268    
C     -4.8435555    -5.0026355    -6.8350644    
O     -4.0308958    -5.6743701    -7.4591780    
C     -6.9945572    -6.2386773    -7.3637258    
C     -7.9284138    -6.1016096    -8.5641850    
C     -7.0840686    -5.3039614    -9.5540467    
N     -4.5718796    -4.4260388    -5.6550864    
C     -3.2236522    -4.3428030    -5.1390635    
C     -3.2842188    -4.3749461    -3.6180789    
O     -4.1082259    -3.6771163    -3.0272044    
C     -2.5780765    -2.9974118    -5.5340445    
C     -1.0984498    -2.9126949    -5.1807125    
C     -0.5875384    -1.4672624    -5.4438659    
O     -0.0572693    -1.2364053    -6.5462301    
O     -0.7575093    -0.6388529    -4.5235628    
C     -1.3697106    -3.6442750    -1.4542903    
N     -2.4182720    -5.1526909    -2.9596035    
O     -0.1558150    -3.6437011    -1.6367439    
N     -1.2925970    -9.2574837    -1.8108174    
O     -1.6681620    -8.1455506    -2.5030020    
C      3.0602626    -10.3654327     2.6205803    
O      2.4021096    -11.5816318     2.3289960    
O      1.0343384    -14.0318352     1.6321035    
C      0.7741897    -12.8143312     1.0878530    
C      1.4023802    -11.5881322     1.3875947    
C     -0.2322158    -12.8330420     0.1199369    
C     -2.1876555    -4.9462886    -1.5319351    
C     -1.3833349    -6.1577233    -1.0665888    
C     -1.4041887    -6.0215619    -3.5131412    
C     -0.9715823    -6.9107060    -2.3441696    
C      0.9900677    -10.4467355     0.7176838    
C     -0.6269632    -11.6958759    -0.5447285    
C     -0.0168084    -10.4786723    -0.2482199    
C     -0.3861349    -9.2497105    -0.9208459    
C      1.9593550    -14.2093872     2.6924578    
N     -2.1042194    -2.5445995    -1.3138794    
C     -1.5196006    -1.2271465    -1.3524377    
C     -0.6183868    -1.0259360    -0.1312150    
O     -0.6959218    -1.7286376     0.8662872    
C     -2.6365328    -0.1676287    -1.3565982    
O     -3.4396512    -0.4014648    -0.2188635    
C     -3.4353385    -0.2377340    -2.6551223    
N      0.2527391    -0.0188042    -0.2646733    
C      0.9802183     0.5484599     0.8515073    
C      0.5006556     1.9923596     1.0288262    
O      0.1299831     2.6467580     0.0505809    
C      2.4828238     0.5660030     0.5693308    
N      0.4823032     2.4892424     2.2625798    
C      0.2069133     3.9047242     2.4604346    
C      1.4059581     4.7004123     1.9364958    
O      2.5052089     4.1640184     1.7879489    
C      0.0604788     4.0296464     3.9764150    
C      1.0638555     2.9976619     4.4809376    
C      0.9036655     1.8407097     3.4939117    
N      1.1859322     5.9697545     1.5934056    
C      2.3145518     6.8242647     1.2706125    
C      3.1111812     7.0755634     2.5568006    
O      2.7746670     6.5917165     3.6303887    
C      1.6626283     8.0947404     0.7266248    
C      0.3846440     8.1886068     1.5574829    
C     -0.0395501     6.7337896     1.7710380    
N      4.2174259     7.8314741     2.4158704    
C      4.7980911     8.4104488     3.6146120    
C      3.7957569     9.4543148     4.1389966    
O      3.0933757     10.0957770     3.3620226    
C      6.1805390     9.0047895     3.3528573    
C      6.8113217     9.5417577     4.6393537    
C      6.8614435     8.4396658     5.7300509    
O      6.0361110     8.5312134     6.6787265    
O      7.7029334     7.5381378     5.6037706    
N      3.7772251     9.5815548     5.4632334    
C      2.7745314     10.3297060     6.1788112    
C      3.3417165     11.1370297     7.3455513    
O      2.6804226     12.0484482     7.8365376    
C      1.6794997     9.3870773     6.7158989    
C      0.9710133     8.6595521     5.5857772    
C     -0.0987105     7.6310904     6.0444822    
O     -0.2477841     7.4234233     7.2627970    
O     -0.7334878     7.0702045     5.1247569    
N      4.5494585     10.8114981     7.8023255    
H     -4.7452554    -2.3447202    -10.7431661    
H     -5.2081732    -4.0155657    -11.1291695    
H     -6.4589578    -2.7855178    -10.8745104    
H     -6.8227386    -4.1526661    -6.6873963    
H     -7.5121216    -6.4603945    -6.4351000    
H     -6.2433071    -7.0075454    -7.5501252    
H     -8.8139217    -5.5332824    -8.2828160    
H     -8.2304411    -7.0649980    -8.9643849    
H     -6.4183257    -5.9633240    -10.1202073    
H     -7.6862474    -4.7161464    -10.2463145    
H     -5.2230750    -3.7805577    -5.2309853    
H     -2.6559741    -5.1644695    -5.5764441    
H     -3.1092665    -2.1901251    -5.0220658    
H     -2.7069114    -2.8511077    -6.6097904    
H     -0.5152793    -3.6030473    -5.7919106    
H     -0.9382817    -3.1165729    -4.1200727    
H      3.5615946    -9.9615763     1.7369269    
H      2.3676048    -9.6218350     3.0234251    
H      3.8003815    -10.6201733     3.3757630    
H     -0.6893132    -13.7863177    -0.0898533    
H     -3.1451986    -4.8276041    -1.0235685    
H     -1.9902257    -6.8030536    -0.4334882    
H     -0.5083345    -5.8161709    -0.5141874    
H     -0.5531526    -5.4428859    -3.8831584    
H     -1.8156832    -6.6407151    -4.3104736    
H      0.1069043    -7.0988217    -2.3879181    
H      1.4560433    -9.4995073     0.9379340    
H     -1.3998627    -11.7222269    -1.2927158    
H      0.1608058    -8.3552113    -0.6163660    
H      2.9761513    -13.9700438     2.3790003    
H      1.6923329    -13.6033550     3.5587278    
H      1.8856276    -15.2664224     2.9411418    
H     -3.0871393    -2.5964864    -1.0863968    
H     -0.9256868    -1.1144873    -2.2697316    
H     -2.1525657     0.8194631    -1.2786271    
H     -4.1845137     0.2175033    -0.2265318    
H     -2.7471905    -0.1387817    -3.4924788    
H     -3.9452488    -1.1959561    -2.7340144    
H     -4.1638745     0.5667171    -2.6993493    
H      0.2132499     0.5668727    -1.0885265    
H      0.7415348    -0.0631433     1.7243375    
H      2.8599760    -0.4499714     0.5066573    
H      2.6619646     1.0748808    -0.3748925    
H      3.0069908     1.1115295     1.3492427    
H     -0.6896638     4.1882270     1.9048689    
H     -0.9546680     3.7626216     4.2697395    
H      0.2648013     5.0354971     4.3411065    
H      0.8755733     2.7023568     5.5091133    
H      2.0683322     3.4176899     4.4092480    
H      1.8371077     1.2971820     3.3552723    
H      0.1197988     1.1499651     3.8194608    
H      2.9675217     6.3114603     0.5578408    
H      1.4284353     7.9598503    -0.3282558    
H      2.2866428     8.9747765     0.8623446    
H     -0.3934306     8.7700002     1.0712067    
H      0.6099400     8.6425908     2.5237434    
H     -0.4587150     6.5962309     2.7709215    
H     -0.7670698     6.4098994     1.0204562    
H      4.3409299     8.3534506     1.5597911    
H      4.8763372     7.6041648     4.3526957    
H      6.0941953     9.8110795     2.6213510    
H      6.8173826     8.2148080     2.9509570    
H      6.2444102     10.3930742     5.0178124    
H      7.8381196     9.8450276     4.4326240    
H      4.3991322     8.9808415     6.0067764    
H      2.3147676     11.0265692     5.4680138    
H      0.9567594     9.9691807     7.2896520    
H      2.1249230     8.6481508     7.3861911    
H      1.6837002     8.0760669     4.9939585    
H      0.4806130     9.3663431     4.9110441    
H      4.8888303     11.3075730     8.6124060    
H      5.0942652     10.0300133     7.4507858    
