15

N     -0.1609394    -1.4490762    -0.0391421    
C      0.6329105    -0.4818348    -0.5040274    
C      0.4075238     0.8200837    -0.1459851    
C     -0.6708978     1.0979382     0.7118569    
C     -1.4717995     0.0952476     1.1778377    
C     -1.2422448    -1.2548115     0.8105134    
C      1.3129136     1.9314929    -0.6741083    
O      2.2482811     1.5834813    -1.4246341    
O      1.0427906     3.0944783    -0.3118029    
O     -1.8799532    -2.2683692     1.1499823    
O      0.0619086    -2.7565053    -0.4039277    
H      1.4421343    -0.7634799    -1.1594772    
H     -0.8364458     2.1300184     0.9832917    
H     -2.3030110     0.2884407     1.8360442    
H     -0.6602547    -3.2465552     0.0777452    
