48

C     -1.2548838    -1.5659000     2.2178467    
N     -1.4941451    -2.9839739     4.1660613    
O     -0.7589273    -0.7551175     2.9910863    
N      4.3910748     1.1601247    -1.0203545    
C      3.5754433     0.1538404    -0.7666041    
N      2.2921668     0.0294268    -1.0565596    
C      1.7967088     1.1064709    -1.6819097    
C      2.5521897     2.2373706    -2.0283617    
C      3.9145640     2.2394812    -1.6645643    
N      4.7411455     3.2521448    -1.9263463    
N      1.7547530     3.1483272    -2.6789005    
C      0.5861387     2.5900044    -2.7208694    
N     -1.2042436    -1.5017671     0.8935114    
N      0.5340661     1.3443650    -2.1517465    
C     -2.0078888    -2.7750487     2.7972781    
C     -3.5250306    -2.4595479     2.9009310    
O     -4.0152748    -3.3691519     3.8692621    
C     -0.6998431     0.5998655    -1.9951013    
C     -0.4838938    -0.7690501    -1.3242928    
O     -1.5006304    -1.6759215    -1.6619390    
C     -0.6141299    -0.4085858     0.1688755    
C     -1.4825037     0.8726636     0.1758456    
O     -1.6059900     1.2938561    -1.1807123    
C     -0.9003881     1.9721360     1.0695051    
O      0.4477263     2.2210610     0.7187853    
C     -4.2279668    -2.6112641     1.5581094    
H     -0.7140502    -3.6472762     4.2016099    
H     -1.1589381    -2.0589222     4.4993284    
H     -2.2787168    -3.3304388     4.7454489    
H      4.0218425    -0.6873345    -0.2532330    
H      4.3904890     4.0614788    -2.4076893    
H      5.7035720     3.1823765    -1.6452586    
H     -0.2838153     3.0402641    -3.1556729    
H     -1.6726404    -2.1816107     0.3036698    
H     -1.8702116    -3.6706664     2.1902303    
H     -3.6490094    -1.4289709     3.2695802    
H     -4.9774397    -3.3314808     3.9134727    
H     -1.1719162     0.5160274    -2.9817028    
H      0.5112286    -1.1612213    -1.5435803    
H     -1.2833365    -2.1445079    -2.4793328    
H      0.3729853    -0.1693024     0.5759935    
H     -2.4999752     0.6573234     0.5230057    
H     -0.9672069     1.6287342     2.1082774    
H     -1.5034934     2.8784135     0.9358122    
H      0.8119454     2.8524658     1.3523287    
H     -3.8356005    -1.9078042     0.8308766    
H     -4.1105265    -3.6237713     1.1807303    
H     -5.2908828    -2.4113226     1.6708326    
