60

C      4.3087743     0.3693413    -7.0899256    
N      1.4189341     0.1061590    -3.8085899    
O     -0.4355858    -1.0139980    -4.4950780    
C      3.0916932    -0.1364032    -6.3178739    
N     -2.3268574     1.7353824    -1.6993435    
O     -1.9950776     1.0565723    -4.1746727    
C      2.4333051    -1.2934021    -7.0646105    
O     -1.4046028    -0.3343184     4.2465572    
C      3.5202680    -0.5424449    -4.9021891    
O      2.4727612    -0.8169748    -1.6048029    
C      2.3666917    -0.9669935    -3.9975459    
O      3.7300513    -2.3660290    -2.6010459    
C      0.1086695    -0.0532536    -3.9501304    
C     -0.7879542     1.0893545    -3.4542329    
C     -1.1229739     0.8977863    -1.9500120    
C      0.0034621     1.2848760    -0.9942234    
C     -0.3604954     0.9169351     0.4217797    
C      0.0061160    -0.3300571     0.9201606    
C     -0.3525977    -0.7119598     2.1943117    
C     -1.0909674     0.1484768     3.0116019    
C     -2.1772842     0.4772675     5.1173814    
C     -2.4669608    -0.2974463     6.3758847    
C     -2.4199879     0.3267752     7.6149779    
C     -2.7165057    -0.3826766     8.7659605    
C     -3.0531129    -1.7234544     8.6884902    
C     -3.0945808    -2.3524453     7.4553461    
C     -2.8088875    -1.6417090     6.3036466    
C     -1.4428213     1.4029413     2.5285449    
C     -1.0775243     1.7734861     1.2434428    
C      2.9153613    -1.4294127    -2.5950142    
H      4.0207474     0.6916946    -8.0872572    
H      5.0486772    -0.4230352    -7.1815242    
H      4.7687646     1.2080112    -6.5731381    
H      1.7725374     0.8821095    -3.2654859    
H      2.3652689     0.6795321    -6.2353362    
H     -2.8078207     1.4560814    -0.8390498    
H     -2.9365775     1.6184637    -2.5309618    
H     -2.0622469     2.7252411    -1.6297736    
H     -2.0473704     0.1869852    -4.6130839    
H      1.4877571    -1.5679759    -6.6025562    
H      3.0843712    -2.1657900    -7.0582223    
H      2.2375759    -1.0134259    -8.0972358    
H      4.0393959     0.2941163    -4.4241483    
H      4.2203541    -1.3804421    -4.9413228    
H      1.8326945    -1.8223336    -4.4210232    
H     -0.3049378     2.0564356    -3.6241281    
H     -1.3901972    -0.1514207    -1.7931632    
H      0.2120672     2.3519148    -1.0729038    
H      0.9053160     0.7289097    -1.2552756    
H      0.5998078    -0.9910853     0.3040119    
H     -0.0649804    -1.6735061     2.5903902    
H     -3.1276030     0.7416360     4.6292336    
H     -1.6334676     1.3995498     5.3589807    
H     -2.1505473     1.3704895     7.6803375    
H     -2.6791682     0.1109271     9.7252345    
H     -3.2793839    -2.2781024     9.5866334    
H     -3.3542892    -3.3982844     7.3909230    
H     -2.8362501    -2.1281543     5.3403892    
H     -1.9891970     2.1004833     3.1421523    
H     -1.3364037     2.7649446     0.9062289    
