46

C     -2.1494738     0.7219200     2.4283638    
C     -0.2398045     2.2938767     2.3087360    
N      0.6982755     3.0235230     2.9851931    
S     -2.0612505     0.4897607     0.7151738    
C     -3.0379046    -1.0835757     0.4955455    
C     -2.6856917    -1.6130335    -0.8607041    
C     -3.6476171    -2.1009927    -1.7373829    
C     -3.2899365    -2.5332161    -3.0022860    
C     -1.9691340    -2.4464893    -3.4179249    
C     -0.9945513    -1.9565071    -2.5569092    
C     -1.3605738    -1.5739311    -1.2790869    
Cl    -1.5302355    -2.9158833    -5.0100654    
Cl     0.6869746    -1.7088558    -3.0555020    
O     -0.1475488     2.2013852     1.0776403    
S      1.9020839     3.7736290     2.0617282    
O      2.7201848     4.4132642     3.0700425    
O      1.2806927     4.6642206     1.1143065    
C     -1.2695218     1.6200193     3.0294104    
C     -3.0212019     0.1199968     3.3665870    
C     -2.7992472     0.5581681     4.6333259    
S     -1.5308483     1.7114838     4.7394815    
C      2.8066946     2.4654897     1.2971323    
C      3.6994279     1.7508805     2.0716875    
C      4.4383253     0.7360730     1.4942916    
C      4.2774768     0.4252007     0.1387946    
C      3.3471306     1.1537494    -0.6300217    
C      2.6284342     2.1775174    -0.0415213    
O      4.9877350    -0.5219464    -0.4972015    
C      5.9641120    -1.2628546     0.2321614    
C      3.0931806     0.8443898    -2.1070585    
O      2.9371994     1.8241142    -2.8634668    
O      3.0236341    -0.3562007    -2.4410619    
H      0.7005425     3.1263535     3.9897565    
H     -4.0978260    -0.8594837     0.5723275    
H     -2.7196169    -1.7679676     1.2784376    
H     -4.6813877    -2.1422618    -1.4352567    
H     -4.0281340    -2.9164681    -3.6868820    
H     -0.5891005    -1.1980256    -0.6244797    
H     -3.7798066    -0.5903880     3.1032229    
H     -3.3207520     0.2735194     5.5253952    
H      3.8232733     2.0158102     3.1083879    
H      5.1416116     0.1911777     2.1008223    
H      1.9258504     2.7483082    -0.6295699    
H      6.3876658    -1.9461388    -0.4996035    
H      5.4983971    -1.8270324     1.0419908    
H      6.7392620    -0.5987661     0.6191369    
