37

N      3.7641200     1.2062353     0.5483735    
C      3.4390100     0.8046461    -0.7034440    
N      4.4532822     0.4381274    -1.4876761    
N      2.1987529     0.7398877    -1.2022226    
C      1.2587315     1.1138324    -0.3485826    
C      1.4799813     1.5554304     0.9845892    
C      2.8122604     1.5710219     1.3699904    
Cl     3.2931350     2.0675884     2.9502624    
N      0.2732868     1.8533718     1.5695042    
C     -0.6086567     1.6087343     0.6483051    
N     -0.0845508     1.1627051    -0.5323495    
C     -2.2692800    -3.7387157     1.3675208    
C     -5.0008457    -3.0040138    -0.5875969    
C     -0.0779166    -1.9219394    -0.5732223    
C     -4.0672299    -0.8132859    -1.4036546    
C     -0.8146185     0.7597946    -1.7105940    
N     -3.1007031     0.0492591    -1.6523703    
O     -2.2524452    -3.6753044    -0.0518076    
C     -3.8619081    -2.0727867    -0.8530095    
C     -1.4968003    -1.5320295    -0.8460445    
C     -1.8463659    -0.2940521    -1.3891329    
C     -2.5399827    -2.4218378    -0.5663050    
H      5.3893178     0.5048807    -1.1301359    
H      4.2659163     0.1604621    -2.4345396    
H     -1.6637231     1.7396947     0.7837749    
H     -2.0393983    -4.7714580     1.6179399    
H     -3.2530233    -3.4705142     1.7615075    
H     -1.5148521    -3.0752842     1.7997801    
H     -5.7626239    -2.8950783    -1.3546566    
H     -5.4564064    -2.7755494     0.3757382    
H     -4.6476916    -4.0320439    -0.5696718    
H      0.5852221    -1.5616367    -1.3558910    
H     -0.0024755    -3.0045499    -0.5081807    
H      0.2614242    -1.4951065     0.3719537    
H     -5.0644388    -0.4790118    -1.6544575    
H     -0.0781177     0.3875811    -2.4263368    
H     -1.3368545     1.6204397    -2.1361032    
