68

C      0.0283833    -2.4812658    -3.3131076    
C      0.7097845    -3.3348105    -4.3809572    
C      2.1486436    -2.8763513    -4.6866874    
O      2.2892968    -2.3980441    -6.0126951    
C      2.6042370    -1.8359076    -3.6637028    
C      2.3096141    -2.2917437    -2.2333575    
C      2.9559726    -1.2952752    -1.2692609    
C      2.4925456    -1.4617768     0.1781462    
O      3.2499486    -0.6012483     1.0071901    
C      0.9437567    -1.3209146     0.3083533    
C      0.2932755    -1.2924298    -1.0908675    
C      0.7875768    -2.4722024    -1.9702484    
C     -1.2312980    -1.2158707    -0.9740164    
C     -1.7160985    -0.0043793    -0.1560285    
O     -1.5370560     1.2059788    -0.8720903    
C     -1.0725158    -0.0182557     1.2410445    
C      0.4690111    -0.0920714     1.0890751    
C      0.9332184     0.0861498     2.5356764    
C     -0.0456803     1.1260084     3.1043139    
C     -1.1859808     1.2843089     2.0714508    
C     -1.6546561    -1.1923359     2.0369866    
C      0.5518480    -3.8181292    -1.2744113    
C     -2.5190567     1.6353900     2.7455502    
C     -3.7008902     1.6613195     1.7738009    
C     -2.4112801     2.9897964     3.4720546    
C     -2.1479732     4.1972700     2.5704721    
O      0.1544114     4.3919579     3.2278643    
C     -0.6461149     4.4385866     2.2686524    
O     -0.3374648     4.7032028     1.0840105    
H     -0.9733804    -2.8793638    -3.1520397    
H     -0.0794716    -1.4585338    -3.6781302    
H      0.1288203    -3.2898515    -5.3044542    
H      0.7206885    -4.3768085    -4.0638900    
H      2.8260793    -3.7363340    -4.6507030    
H      1.7832450    -1.5791446    -6.1055642    
H      2.0984633    -0.8876444    -3.8590892    
H      3.6757703    -1.6641704    -3.7807727    
H      2.7945212    -3.2618053    -2.0887337    
H      2.7460261    -0.2701514    -1.5865311    
H      4.0407129    -1.4212512    -1.2916493    
H      2.7817947    -2.4598916     0.5264410    
H      3.1730258     0.3008220     0.6708209    
H      0.5826897    -2.1984886     0.8463149    
H      0.6058427    -0.3692608    -1.5924069    
H     -1.6303634    -2.1184914    -0.5172459    
H     -1.6715089    -1.1104089    -1.9652709    
H     -2.8040261    -0.0812888    -0.0682524    
H     -0.6029600     1.4470130    -0.8615319    
H      0.7784769     0.8098987     0.5411790    
H      1.9606080     0.4299324     2.6164141    
H      0.8629654    -0.8624282     3.0671476    
H      0.4452088     2.0871453     3.2653236    
H     -0.4452644     0.8059499     4.0679608    
H     -0.9382563     2.1257473     1.4126291    
H     -1.3138512    -2.1483533     1.6539386    
H     -2.7397489    -1.1712630     1.9785680    
H     -1.3734359    -1.1238764     3.0817634    
H      0.8142375    -4.6319580    -1.9446497    
H     -0.4925292    -3.9321513    -0.9972432    
H      1.1626685    -3.9135516    -0.3824125    
H     -2.7273147     0.8879537     3.5206225    
H     -4.5233880     2.2281811     2.2045433    
H     -4.0567672     0.6567095     1.5659340    
H     -3.4150900     2.1272290     0.8342159    
H     -1.6025526     2.9600318     4.2070655    
H     -3.3469285     3.1550502     4.0143400    
H     -2.4810637     5.1061861     3.0818323    
H     -2.6727986     4.1292759     1.6175895    
