15

C     -0.6409495    -0.1412645    -0.0565437    
C     -0.2862788     1.1348024     0.3941144    
C      1.0371728     1.4481564     0.5697306    
C      2.0326491     0.4969254     0.2984633    
C      1.6677075    -0.7777672    -0.1546578    
C      0.3424683    -1.0954203    -0.3298613    
O      3.3009560     0.8567608     0.4890903    
N     -1.9986980    -0.4677021    -0.2333181    
O     -2.8486497     0.3862848     0.0013727    
O     -2.2915486    -1.5964628    -0.6164189    
H     -1.0653682     1.8522031     0.5978257    
H      1.3402544     2.4219573     0.9170898    
H      2.4269606    -1.5142919    -0.3666229    
H      0.0397750    -2.0713240    -0.6759451    
H      3.9263019     0.1439479     0.2745782    
