55

N     -0.1184971    -3.9632296     0.4916353    
C      1.1939540    -3.3002302     0.3049354    
C      0.8622791    -1.8421384    -0.0469805    
O     -0.1696354    -1.3609584     0.4285583    
C      1.9525530    -3.3399907     1.6485995    
C      3.1838117    -2.4736098     1.6439476    
C      3.0892865    -1.1234284     1.9589810    
C      4.4251845    -3.0033193     1.3132727    
C      4.2119726    -0.3151417     1.9353063    
C      5.5501803    -2.1962652     1.2915304    
C      5.4447718    -0.8498706     1.5985132    
N      1.6870817    -1.1588788    -0.8205274    
C      1.3578113     0.2209538    -1.1548172    
C     -0.0432465     0.2686401    -1.7697953    
O     -0.4673635    -0.6333519    -2.4737678    
C      2.4240428     0.6314222    -2.1786279    
C      3.5807324    -0.3219492    -1.8821531    
C      2.8626103    -1.6223354    -1.5361767    
Cl    -5.2711433     5.0162962     0.2063404    
N     -0.7473229     1.3723738    -1.4783584    
C     -2.0249816     1.6618693    -2.1033436    
C     -3.1040349     1.9060714    -1.0842350    
N     -3.5567144     0.8998322    -0.3116046    
C     -3.6244250     3.1820588    -0.9313710    
C     -4.6088487     3.4327611     0.0189880    
C     -5.0443114     2.3764568     0.8166740    
C     -4.4937608     1.1319475     0.6158075    
C     -3.0483618    -0.4401039    -0.4528176    
H     -0.0677032    -4.7383610     1.1616085    
H     -0.5085765    -4.3092039    -0.3924855    
H     -0.7448549    -3.2161651     0.8579682    
H      1.7714279    -3.7835451    -0.4812854    
H      2.2437648    -4.3681312     1.8617075    
H      1.2860754    -2.9830608     2.4350170    
H      2.1351340    -0.7013646     2.2368458    
H      4.5226272    -4.0530779     1.0797221    
H      4.1324578     0.7318631     2.1870860    
H      6.5115991    -2.6168190     1.0382354    
H      6.3229057    -0.2214901     1.5831426    
H      1.4028265     0.8286710    -0.2462153    
H      2.7059353     1.6761225    -2.0828569    
H      2.0506621     0.4570217    -3.1890239    
H      4.1509133     0.0263168    -1.0203510    
H      4.2561345    -0.4331867    -2.7261450    
H      2.5534675    -2.1425403    -2.4489400    
H      3.4784816    -2.2743882    -0.9214395    
H     -0.3268901     2.1099182    -0.9338482    
H     -2.2626719     0.8048502    -2.7420476    
H     -1.9329812     2.5451951    -2.7388270    
H     -3.2677143     3.9850839    -1.5544514    
H     -5.7977594     2.5249044     1.5708810    
H     -4.8139656     0.2924825     1.2155205    
H     -2.0503021    -0.5196054    -0.0159332    
H     -2.9683323    -0.7201800    -1.5011726    
H     -3.7115530    -1.1370440     0.0499425    
