31

C     -1.0875025    -2.2754508     0.9740724    
N     -1.4108244    -4.9342205     1.2196345    
O     -1.1526884    -3.5577088     3.2916996    
S     -1.8102065    -3.5239184     1.9997453    
C      0.2792464    -2.0730211     1.0336719    
O     -3.2559301    -3.3668436     2.0242396    
C      0.8547534    -1.1229279     0.2150148    
C      0.0617363    -0.3764737    -0.6637194    
C     -1.3160796    -0.5926448    -0.7067239    
C     -1.8867381    -1.5461169     0.1166286    
N      0.7038245     0.5560007    -1.4716301    
C      0.1664133     1.5085918    -2.2756566    
O     -1.0249812     1.6731794    -2.4684488    
C      1.2268631     2.4027939    -2.9147247    
C      1.7778207     3.3290564    -1.8823403    
C      1.4158849     4.6133839    -1.6192120    
C      2.1248063     5.1797605    -0.5331948    
C      3.0129385     4.3202422     0.0220374    
S      3.0082337     2.7982912    -0.7739060    
H     -1.1419551    -5.6624699     1.8636287    
H     -2.1431394    -5.2362295     0.5959051    
H      0.8623601    -2.6543982     1.7277922    
H      1.9188180    -0.9505490     0.2546425    
H     -1.9275820    -0.0138614    -1.3776447    
H     -2.9484120    -1.7304220     0.1118356    
H      1.7135448     0.5691855    -1.3715326    
H      0.7459276     2.9813816    -3.7038204    
H      2.0188193     1.7870138    -3.3409541    
H      0.6685794     5.1432819    -2.1816460    
H      1.9718928     6.1843544    -0.1825203    
H      3.6757659     4.4759632     0.8487354    
