50

N      6.3359044    -1.9707495     0.6920459    
C      5.1529783    -2.7924213     0.3650725    
C      5.7365444    -4.2089416    -0.0859215    
O      4.9383187    -5.0361671    -0.5240809    
O      6.9706568    -4.3019921     0.0842558    
C      4.2811492    -2.1902431    -0.7256470    
C      3.4355954    -1.0361892    -0.1941808    
S      2.3215734    -0.4098081    -1.4987282    
C      3.4830552     0.6496972    -2.3957099    
C      1.4608451     0.9117800    -0.5710425    
C      0.3716427     0.3146740     0.3080702    
O     -0.5470668     1.3278208     0.7037394    
C     -0.4860379    -0.7388664    -0.4239644    
O      0.1495803    -1.9739228    -0.5067325    
C     -1.7693069    -0.7114873     0.4268284    
O     -1.5666284    -1.6015229     1.4889503    
C     -1.8258535     0.7704200     0.8955882    
N     -2.7954104     1.5441818     0.1670869    
C     -2.7347181     1.9948706    -1.1244883    
N     -3.7684517     2.6875856    -1.4910606    
C     -4.5876770     2.7151719    -0.3883563    
C     -5.8469467     3.2921909    -0.1154190    
N     -6.5425229     3.9973048    -1.0051383    
N     -6.3607191     3.1079817     1.1137236    
C     -5.6835422     2.4094110     2.0063975    
N     -4.5053578     1.8223326     1.8772346    
C     -3.9848749     2.0036765     0.6584074    
H      6.3255069    -1.5621422     1.6276546    
H      6.5242773    -1.2531996    -0.0127749    
H      7.1035472    -2.7135335     0.6218099    
H      4.5639036    -2.9952689     1.2603626    
H      3.6382807    -2.9927176    -1.0940173    
H      4.9161075    -1.8754054    -1.5537909    
H      4.0439184    -0.2061207     0.1565247    
H      2.7868604    -1.3948504     0.6011969    
H      2.9259652     1.1814641    -3.1595212    
H      4.2107557     0.0115399    -2.8845163    
H      3.9656972     1.3511192    -1.7260992    
H      1.0014840     1.5685149    -1.3085378    
H      2.1740729     1.4770420     0.0239671    
H      0.7923941    -0.1509691     1.2103565    
H     -0.7071531    -0.4069773    -1.4440826    
H     -0.1055030    -2.5073207     0.2642657    
H     -2.6647278    -0.9637999    -0.1507303    
H     -2.3849576    -1.7678632     1.9732682    
H     -2.1187577     0.8302564     1.9524853    
H     -1.8979289     1.7957821    -1.7612913    
H     -7.4323161     4.3800357    -0.7361531    
H     -6.1614353     4.1534331    -1.9217831    
H     -6.1582053     2.3018972     2.9725459    
