26

C      1.2821996     0.7761689     3.4948815    
O      0.8062411     0.5873153     2.1744948    
C      0.9307054     1.6026684     1.2759746    
C      1.4155447     2.8647219     1.6058153    
C      1.5510879     3.8450978     0.6389806    
C      1.2217648     3.5807048    -0.6785550    
C      0.7436207     2.3304304    -1.0174107    
C      0.5754683     1.3337612    -0.0600252    
C      0.0458913     0.0360410    -0.4938629    
C     -0.7830551    -0.7499571     0.3179101    
C     -1.2124220    -1.9337614    -0.2463074    
Cl    -2.2433761    -2.9916142     0.6666942    
N     -0.9033647    -2.3438548    -1.4531492    
C     -0.1177709    -1.5134814    -2.1679508    
N      0.1972774    -1.8887032    -3.4079494    
N      0.3603240    -0.3471421    -1.7268450    
H      1.1426096    -0.1845924     3.9857472    
H      0.7037272     1.5420607     4.0182325    
H      2.3425557     1.0396851     3.4988460    
H      1.6885955     3.0928198     2.6227391    
H      1.9221432     4.8174743     0.9234513    
H      1.3355738     4.3412518    -1.4338060    
H      0.4797723     2.0952307    -2.0354087    
H     -1.0748345    -0.4533257     1.3066224    
H     -0.1360960    -2.7707640    -3.7531135    
H      0.8029370    -1.3004815    -3.9516434    
