38

C     -1.7921155     0.7800011    -0.6183725    
C     -0.4697073     0.5875410    -1.2549184    
C     -1.9162428     0.5734323     0.7665008    
C     -2.9171120     1.1386552    -1.3422851    
C      0.1297931    -0.6673876    -1.2573788    
N      0.1092786     1.6439779    -1.8093263    
C     -3.1538405     0.7235739     1.3791039    
O     -0.7643135     0.2456492     1.4030012    
C     -4.1548149     1.2898124    -0.7381593    
Cl    -2.7780524     1.3631388    -3.0580300    
C      1.3791643    -0.7741452    -1.8650751    
C      1.3055262     1.4443056    -2.3802692    
C     -4.2590943     1.0796582     0.6237207    
C     -0.7818650    -0.0500009     2.7933722    
N      1.9623720     0.2764066    -2.4233831    
C      2.1166602    -2.0740426    -1.9076451    
N      1.8952229     2.5003441    -2.9548554    
C      0.6546758    -0.3875487     3.1847706    
C      1.1501996    -1.5973351     2.3880401    
C      2.6290818    -1.8158483     2.5732980    
F      2.9746658    -2.0740106     3.8492258    
F      3.0859867    -2.8611059     1.8514748    
F      3.3755933    -0.7608138     2.1978691    
H     -0.3630517    -1.5209925    -0.8227842    
H     -3.2642255     0.5677423     2.4390314    
H     -5.0112693     1.5624584    -1.3308807    
H     -5.2158611     1.1935256     1.1069048    
H     -1.4452981    -0.9010351     2.9853000    
H     -1.1271425     0.8196188     3.3622753    
H      2.9506852    -2.0002450    -2.5980641    
H      1.4488788    -2.8757356    -2.2142362    
H      2.5040530    -2.3140061    -0.9175752    
H      1.4313651     3.3896009    -2.9324538    
H      2.7953674     2.3811481    -3.3817517    
H      0.7022128    -0.5889841     4.2541769    
H      1.2857719     0.4729520     2.9574145    
H      0.9789749    -1.4244215     1.3237160    
H      0.6389711    -2.5104698     2.6943741    
