93

C     -0.6925629     1.9416381    -1.7504353    
N     -1.9116776     0.2791219    -0.5134036    
O     -1.6767795     2.6078784    -1.4169072    
C     -0.7356076     0.4388606    -1.3937137    
C     -1.0706751    -0.4784487    -2.6152871    
C      5.4602134    -4.3440781    -1.3198988    
O      0.9562990     5.8524147     1.7204572    
O      4.4303412    -1.2105756    -3.5290346    
O      0.4461482     0.1606007     3.3859337    
O     -5.9452880    -1.1599701     2.5362668    
O     -1.3867257    -1.2806141     1.7217377    
O      0.3302239     1.7613310     1.2707214    
O     -4.0835687     0.4322326     1.0213294    
O      1.1297290    -0.9548624     0.8563019    
C      0.7501770     3.3982199     5.0470430    
C     -4.8897366    -3.4909362    -0.0089554    
C     -0.7549949    -4.5942615     0.3289931    
C      0.6836572     2.0261994     4.8879182    
C     -5.5038693    -2.9591593     1.1022230    
C     -1.3939623    -3.5481326     0.9806769    
C      0.6755390     4.2282280     3.9361549    
C     -4.0455423    -2.7000203    -0.7896806    
C      0.5274990    -4.4358482    -0.1594246    
C      0.7341814     4.9257296    -1.8849419    
C      2.8449277     2.3665168    -2.3112616    
C     -0.2281100     5.2344934    -0.7296660    
C      4.0449574     1.4867483    -2.6617178    
C      0.2549136     3.8338316    -2.8495654    
C      1.5371589     1.7144411    -2.7711145    
N     -0.0656621     4.3387936     0.3910120    
N      4.0701340     0.2806169    -1.8574754    
N      3.1728677    -1.9162923    -0.4421834    
O      3.0652554    -3.9630087    -1.3378326    
C      0.4956768     4.7229984     1.5426459    
C      4.3119423    -0.9351855    -2.3430460    
C     -2.9125249    -0.5241869    -1.3027042    
C      0.5393469     1.4884865     3.6192590    
C     -5.2943541    -1.6265824     1.4621569    
C     -0.7446405    -2.3401917     1.1533164    
C      0.4594939     2.3286038     2.4727969    
C     -4.3997995    -0.8289540     0.6988319    
C      0.5683545    -2.1643992     0.6770084    
C      0.5247989     3.7185425     2.6512141    
C     -3.8002136    -1.3865129    -0.4396801    
C      1.1989251    -3.2234270     0.0042203    
C      4.3250126    -3.4580702    -1.8052346    
C      2.5126778    -3.0112434    -0.5759543    
C      4.3671625    -2.0177024    -1.2422548    
N      0.3612467     2.4610160    -2.3669006    
O     -2.1255648    -1.2997048    -2.1394456    
C      0.0431647    -1.4007166    -3.0839942    
H     -2.2824974     1.2442088    -0.3505102    
H     -1.7153561    -0.1954315     0.3972196    
H      0.1704674     0.1117370    -0.8864764    
H     -1.4329470     0.1344137    -3.4536150    
H      6.4040806    -3.9688748    -1.7045580    
H      5.3139328    -5.3590978    -1.6794017    
H      5.4938056    -4.3611046    -0.2324889    
H      0.5739093    -0.3457629     4.2038537    
H     -5.9669523    -0.1908496     2.6090744    
H     -0.7546863    -0.7455572     2.2517447    
H      0.5354156     0.7984956     1.3338916    
H     -4.4355010     0.7291114     1.8760535    
H      2.0671503    -0.9889314     0.5527183    
H      0.8684426     3.8257113     6.0291840    
H     -5.0722700    -4.5159665    -0.2850236    
H     -1.2643145    -5.5346011     0.2008967    
H      0.7462820     1.3794331     5.7490511    
H     -6.1772310    -3.5423255     1.7093633    
H     -2.3965238    -3.6620295     1.3580636    
H      0.7470167     5.2994267     4.0438006    
H     -3.5694243    -3.1039484    -1.6669318    
H      1.0275271    -5.2359107    -0.6810964    
H      1.7111857     4.6888091    -1.4687866    
H      0.8382354     5.8376308    -2.4731446    
H      2.9900465     3.3255223    -2.8045628    
H      2.8184150     2.5293745    -1.2339093    
H     -1.2616498     5.1761119    -1.0761266    
H     -0.0280571     6.2431239    -0.3600052    
H      4.9689076     2.0493176    -2.4980908    
H      4.0172852     1.1767490    -3.7086923    
H      0.8341571     3.9007522    -3.7710368    
H     -0.7948859     4.0254087    -3.0875822    
H      1.4962799     0.7124784    -2.3558111    
H      1.5480431     1.6344284    -3.8633989    
H     -0.4643636     3.4158190     0.3004507    
H      4.0483311     0.4031224    -0.8546187    
H     -3.5244978     0.1930146    -1.8779323    
H      4.2922065    -3.4404366    -2.9015983    
H      5.2618420    -1.8377900    -0.6370892    
H     -0.3974563    -2.1610792    -3.7227121    
H      0.5089765    -1.9050802    -2.2429420    
H      0.7936022    -0.8744986    -3.6623260    
