166

N      11.2557476     9.1445939    -3.6190152    
C      10.0383948     8.5199227    -3.0456727    
C      9.5705452     9.4789966    -1.9324176    
O      10.2906474     10.4294007    -1.6338073    
C      10.3695308     7.1500651    -2.4624415    
N      8.4041217     9.2007876    -1.3754888    
C      7.8540245     9.9187630    -0.2476398    
C      6.8426891     8.9861882     0.4259393    
O      6.5599113     7.8946936    -0.0640094    
C      7.1905451     11.2507427    -0.6635015    
C      8.0597864     12.4567277    -0.3117591    
C      8.1535779     12.6983351     1.1824491    
O      7.6418517     11.9615176     2.0258404    
N      8.8577122     13.7778047     1.5305827    
N      6.3565740     9.4753344     1.5592712    
C      5.2683142     8.8832074     2.3043886    
C      4.3662238     8.0839036     1.3595166    
O      3.7529109     8.6489811     0.4534189    
C      4.4038445     10.0176291     2.9220421    
O      4.0328456     10.9434867     1.9286540    
C      5.1439708     10.7588445     4.0306562    
N      4.2321383     6.7907924     1.6372630    
C      3.3932135     5.8943157     0.8725245    
C      2.8700060     4.8232842     1.8293984    
O      3.4362583     4.5884079     2.8914074    
C      4.1960437     5.2199731    -0.2461271    
N      1.7877877     4.1727779     1.4008932    
C      1.2288486     3.0171701     2.0649364    
C      0.9293304     1.9620735     0.9980278    
O      0.8236009     2.2646950    -0.1850601    
C     -0.0827643     3.3638366     2.7909787    
C      0.1439597     4.3243869     3.9564823    
C     -1.1622635     4.6386091     4.6760467    
N      0.7948689     0.7196899     1.4648677    
C      0.2821627    -0.3823298     0.6761082    
C      1.3700427    -1.4632905     0.5069886    
C      1.0860588    -2.4222417    -0.6468856    
C      2.1727508    -3.4898832    -0.8063816    
C      2.1849290    -4.4324396     0.4016340    
N      2.7300816    -5.7925109     0.1488176    
C     -0.8992842    -0.9743117     1.4474424    
O     -0.9772228    -0.8494489     2.6637953    
C      1.8338772    -6.5614527    -0.7281557    
C      2.8057442    -6.4964336     1.4408307    
C      4.0746502    -5.7114908    -0.4416843    
N     -1.8311126    -1.6055742     0.7121011    
C     -2.7319902    -2.5464328     1.3532465    
C     -1.8818798    -3.7067261     1.9016886    
O     -0.6936803    -3.7921170     1.6332187    
C     -3.8097427    -3.0224056     0.3695110    
O     -4.8258550    -2.0723520     0.1828241    
N     -2.5014227    -4.5509314     2.7272676    
C     -1.8116957    -5.7056789     3.2752159    
C     -1.5744713    -6.7103503     2.1351079    
O     -0.4671739    -6.8577290     1.6356260    
C     -2.6305876    -6.2702852     4.4473025    
O     -3.9757522    -6.3691523     4.0057917    
C     -2.5032848    -5.3702590     5.6734661    
N     -2.6606084    -7.3871511     1.7529725    
C     -2.7008425    -8.0975450     0.4993326    
C     -2.9999267    -7.1156726    -0.6377274    
O     -3.0550639    -5.9106486    -0.4416159    
N     -3.1017767    -7.6782006    -1.8608291    
C     -3.7812109    -6.9399152    -2.9016981    
C     -5.2667861    -6.8067763    -2.5413122    
O     -5.7081060    -7.2800754    -1.5020541    
N     -5.9965610    -6.0781706    -3.4008617    
C     -7.4462541    -6.0831242    -3.3014065    
C     -7.9386920    -7.5058793    -3.6101561    
O     -7.2879371    -8.2398432    -4.3521575    
C     -8.0353275    -5.0723638    -4.2888566    
C     -9.5076020    -4.7570744    -4.0287360    
C     -10.0315790    -3.7321836    -5.0299488    
N     -9.0621371    -7.8743336    -2.9992571    
C     -9.7978608    -9.0731599    -3.3285415    
C     -11.3149772    -8.6916241    -3.4529879    
O     -11.6358077    -7.5697161    -3.0130637    
C     -9.6250339    -10.1490197    -2.2583152    
H      11.1155730     9.5209676    -4.5610972    
H      11.4643340     9.9412391    -2.9663263    
H      12.0495599     8.4960724    -3.6285512    
H      9.2549243     8.4306016    -3.7997862    
H      11.1425666     7.2349775    -1.7026696    
H      9.4941837     6.7071731    -1.9971670    
H      10.7037618     6.4762055    -3.2461355    
H      7.8705776     8.3705668    -1.6190661    
H      8.6561929     10.1266545     0.4694407    
H      6.2219942     11.3532725    -0.1717433    
H      7.0137838     11.2325070    -1.7389083    
H      7.6386144     13.3516482    -0.7710489    
H      9.0695426     12.3102302    -0.7015148    
H      8.9316628     14.0253931     2.5047816    
H      9.2505344     14.3931551     0.8390464    
H      6.6728751     10.4047592     1.8500483    
H      5.6535332     8.2383961     3.1023848    
H      3.5012642     9.5428173     3.3463891    
H      3.6681174     10.4391382     1.1764922    
H      5.4312729     10.0676704     4.8159221    
H      6.0263136     11.2551135     3.6367406    
H      4.4852884     11.5170008     4.4439286    
H      4.7257208     6.3520348     2.4046108    
H      2.5738593     6.4810329     0.4463042    
H      4.6621345     5.9895478    -0.8552118    
H      4.9744144     4.5961553     0.1853482    
H      3.5460535     4.6083896    -0.8640588    
H      1.4127647     4.3463314     0.4763973    
H      1.9695792     2.6557202     2.7848583    
H     -0.5363656     2.4435264     3.1638280    
H     -0.7731293     3.8122195     2.0732811    
H      0.5897037     5.2499477     3.5866349    
H      0.8517888     3.8785966     4.6580306    
H     -1.8692137     5.1113492     3.9980308    
H     -1.6138282     3.7271341     5.0612708    
H     -0.9836890     5.3126945     5.5096208    
H      0.7864505     0.5501151     2.4634434    
H     -0.0248778     0.0195375    -0.2938891    
H      1.4381997    -2.0157334     1.4443168    
H      2.3157372    -0.9489789     0.3288350    
H      1.0087295    -1.8488204    -1.5727274    
H      0.1399235    -2.9333300    -0.4690534    
H      3.1399781    -3.0020116    -0.9288289    
H      1.9450443    -4.0357824    -1.7204384    
H      1.1654364    -4.5502483     0.7738255    
H      2.7808058    -3.9833242     1.1960388    
H      0.8547500    -6.6418846    -0.2580293    
H      1.7274680    -6.0804249    -1.6953613    
H      2.2357794    -7.5602945    -0.8770311    
H      3.4555944    -5.9609704     2.1280062    
H      1.8075911    -6.5702442     1.8697035    
H      3.1945415    -7.5007285     1.2933417    
H      4.0306762    -5.2481723    -1.4230641    
H      4.7230846    -5.1213401     0.2011285    
H      4.4946271    -6.7092204    -0.5443523    
H     -1.6334731    -1.7754041    -0.2645309    
H     -3.2088464    -2.0404239     2.2003083    
H     -4.3043425    -3.9143125     0.7577093    
H     -3.3415147    -3.3040645    -0.5808193    
H     -4.4655969    -1.2852269    -0.2490226    
H     -3.5037546    -4.5299362     2.8533257    
H     -0.8267801    -5.3749333     3.6227525    
H     -2.2454721    -7.2732982     4.6833076    
H     -4.5415493    -6.6148282     4.7496915    
H     -1.4728400    -5.3474858     6.0129199    
H     -2.8164892    -4.3580447     5.4309105    
H     -3.1241286    -5.7459894     6.4826636    
H     -3.5459865    -7.1381431     2.1782859    
H     -3.4767325    -8.8621608     0.5369205    
H     -1.7240527    -8.5582868     0.3285897    
H     -3.2197690    -8.6806569    -1.8966237    
H     -3.6716045    -7.4578345    -3.8528950    
H     -3.3482596    -5.9392156    -2.9611670    
H     -5.6205144    -5.9014437    -4.3213513    
H     -7.7151785    -5.8286750    -2.2717569    
H     -7.9227909    -5.4663206    -5.3019524    
H     -7.4615220    -4.1472029    -4.2070820    
H     -9.6222174    -4.3646141    -3.0158751    
H     -10.1141189    -5.6642436    -4.0967191    
H     -9.4607992    -2.8090071    -4.9681954    
H     -9.9584541    -4.1226107    -6.0422564    
H     -11.0761941    -3.5130696    -4.8257765    
H     -9.6426450    -7.1942160    -2.5163282    
H     -9.4545288    -9.4505735    -4.2981161    
O     -12.0598626    -9.5385509    -3.9726718    
H     -8.5825999    -10.4536458    -2.2026627    
H     -9.9422826    -9.7599217    -1.2933561    
H     -10.2471119    -11.0017701    -2.5170612    
