28

C     -1.3295725     1.5706431     1.8156446    
C     -2.4646986     0.7600903     1.8168401    
N     -2.6611670    -0.1678654     0.8901508    
C     -1.7892883    -0.3167616    -0.1062872    
C     -0.6497552     0.5028087    -0.2309584    
C     -0.3955952     1.4233698     0.7822621    
C      0.8848023     2.2253645     0.8347334    
O      0.6878220     3.5891116     1.1586086    
O     -1.1751095     2.4678040     2.8324277    
C     -3.4891767     0.8934309     2.8994297    
C      0.3015976     0.3379130    -1.3838835    
O      1.5025415    -0.2871799    -0.9698241    
P      1.7533088    -1.8087669    -1.7110220    
O      1.8974433    -1.5012469    -3.1954090    
O      0.4947992    -2.6140528    -1.3942106    
O      3.0100268    -2.3020385    -1.0302451    
N     -2.1145251    -1.2735919    -1.0464235    
H      1.4458051     2.1123521    -0.0961551    
H     -0.4262584     3.0590515     2.6255992    
H     -3.0203343     0.7219688     3.8657081    
H     -3.8892469     1.9044095     2.8972054    
H     -4.2813495     0.1729030     2.7331537    
H      0.5751442     1.3095691    -1.8233892    
H     -0.1430039    -0.2609453    -2.1859110    
H     -2.8245881    -1.9005097    -0.6918313    
H     -1.3061002    -1.7758206    -1.4056807    
H      1.5160239     1.8137512     1.6309199    
H      0.2479023     4.0328031     0.4189921    
