139

N     -6.7021860     8.0663771    -0.7473718    
C     -5.6520976     7.0731349    -1.0481412    
C     -4.5049268     7.2664997    -0.0466399    
O     -4.3883068     8.3338579     0.5412916    
C     -5.1022636     7.3492524    -2.4577393    
C     -6.1881270     7.2849261    -3.4820084    
N     -7.4087433     7.8628813    -3.2493162    
C     -6.1896737     6.7343655    -4.7329512    
C     -8.1244584     7.6624127    -4.3266739    
N     -7.4264743     6.9848699    -5.2552057    
N     -3.7011325     6.2148533     0.1002269    
C     -2.4531136     6.2598826     0.8327857    
C     -1.3247480     6.0057872    -0.1700274    
O     -1.5587820     5.4909411    -1.2565140    
C     -2.4658222     5.1755315     1.9253511    
C     -1.4402579     5.3434579     3.0507135    
C     -1.6440727     6.6342673     3.8414256    
C     -1.5550406     4.1372331     3.9839587    
N     -0.1130858     6.4412878     0.2049047    
C      1.0957966     6.1184937    -0.5310149    
C      1.5030919     4.6730241    -0.2102732    
O      1.5249524     3.8156882    -1.0887743    
C      2.1902835     7.1450423    -0.2408456    
C      3.5552969     6.6691240    -0.7261073    
C      4.2319174     5.7237879     0.3070842    
O      4.0003320     5.9499056     1.5168332    
O      4.9587459     4.8155341    -0.1378202    
N      1.6654803     4.3875994     1.0889839    
C      1.8899843     3.0062196     1.4798588    
C      0.6784477     2.2251506     0.9584267    
O     -0.4520343     2.6946359     0.9989340    
C      2.0096563     2.9100410     3.0116462    
C      1.7203088     1.4983138     3.5167903    
C      3.4007052     3.3546044     3.4570408    
N      0.9475229     1.0119194     0.4690315    
C     -0.0742248     0.1059259     0.0008316    
C     -0.0647127    -1.1432049     0.8790094    
O      0.8550383    -1.3711283     1.6618202    
C      0.1655299    -0.2851414    -1.4675822    
C      0.3100753     0.9535678    -2.3474073    
C     -0.9377508     1.8217823    -2.3300533    
O     -2.0488153     1.3860107    -2.0460970    
N     -0.7310861     3.0824450    -2.7407416    
N     -1.1113389    -1.9566728     0.7155819    
C     -1.2527962    -3.2196267     1.4123452    
C     -0.4049948    -4.3417794     0.8004094    
O     -0.8981467    -5.3857674     0.3923437    
N      0.8966539    -4.0467063     0.7236343    
C      1.8682678    -5.0426028     0.3327581    
C      1.7624719    -6.2577480     1.2652201    
O      1.3506677    -6.1444392     2.4161075    
C      3.2868540    -4.4648031     0.4260359    
C      3.5003059    -3.3852824    -0.5979404    
C      3.7022142    -3.7173361    -1.9314007    
C      3.4773787    -2.0412376    -0.2456153    
C      3.8687242    -2.7402800    -2.8940776    
C      3.6489388    -1.0545954    -1.1986236    
C      3.8403628    -1.3971506    -2.5346224    
O      3.9854394    -0.3963377    -3.4397664    
N      2.1107642    -7.4150479     0.6959820    
C      2.3862075    -8.6080872     1.4607678    
C      3.9431208    -8.7306496     1.6631389    
O      4.6441498    -7.8925809     1.0635867    
C      1.8555674    -9.8607355     0.7679900    
C      0.3635171    -9.9477512     0.7084137    
C     -0.5578899    -8.9414707     0.7721222    
C     -0.3774878    -11.1601104     0.5457991    
N     -1.8234155    -9.4501538     0.6603260    
C     -1.7493890    -10.8027185     0.5203450    
C     -0.0187801    -12.5023733     0.4217473    
C     -2.7490718    -11.7570397     0.3721333    
C     -1.0146406    -13.4421020     0.2767529    
C     -2.3633648    -13.0746990     0.2508236    
O      4.3375417    -9.6548953     2.3941125    
H     -7.3304600     7.7516883    -0.0045495    
H     -6.2284941     8.9230446    -0.4226428    
H     -7.2440857     8.2282091    -1.6569265    
H     -6.0562919     6.0615790    -0.9936509    
H     -4.3194396     6.6339371    -2.7061638    
H     -4.6511272     8.3453558    -2.4676786    
H     -5.4313961     6.2021585    -5.2669444    
H     -9.1358428     7.9888592    -4.4550307    
H     -7.7468618     6.7109354    -6.1700252    
H     -3.8009427     5.4045022    -0.4965983    
H     -2.3665026     7.2598024     1.2654801    
H     -2.2899180     4.2070388     1.4517975    
H     -3.4630161     5.1680656     2.3692862    
H     -0.4340959     5.3259482     2.6190440    
H     -1.5015402     7.5175613     3.2246688    
H     -2.6468752     6.6618456     4.2599259    
H     -0.9301247     6.6812827     4.6603178    
H     -2.5472021     4.0871555     4.4262597    
H     -1.3743275     3.2202729     3.4266086    
H     -0.8240384     4.2012180     4.7866684    
H      0.0149101     6.7729071     1.1500944    
H      0.8443986     6.1259908    -1.5980671    
H      2.2763084     7.3073006     0.8377432    
H      1.9226604     8.0882141    -0.7175467    
H      4.2343043     7.5161592    -0.8449554    
H      3.4982057     6.1371172    -1.6769569    
H      2.0482291     5.1022284     1.6974737    
H      2.8050308     2.6260834     1.0029488    
H      1.2597793     3.5863531     3.4322379    
H      0.6970909     1.2029260     3.2977491    
H      2.3870278     0.7724698     3.0571107    
H      1.8661182     1.4604033     4.5927093    
H      4.1425255     2.6153169     3.1608401    
H      3.6868495     4.3016199     3.0010495    
H      3.4340017     3.4650334     4.5372585    
H      1.8828305     0.6378727     0.5221556    
H     -1.0289944     0.6349302     0.0901967    
H     -0.6813511    -0.8742893    -1.8182160    
H      1.0727454    -0.8885357    -1.5350480    
H      0.4908094     0.6454904    -3.3781948    
H      1.1563479     1.5597949    -2.0229269    
H     -1.4524736     3.7685615    -2.5638538    
H      0.2122449     3.4391069    -2.6867760    
H     -1.7992690    -1.7311221     0.0128639    
H     -2.2969817    -3.5258920     1.3949064    
H     -0.9199907    -3.0911534     2.4466370    
H      1.2321220    -3.2263092     1.2200064    
H      1.6462272    -5.3654114    -0.6912100    
H      4.0006785    -5.2812763     0.2869759    
H      3.4284077    -4.0721007     1.4350203    
H      3.7393215    -4.7581320    -2.2159956    
H      3.3237675    -1.7630694     0.7870686    
H      4.0273989    -3.0220330    -3.9240796    
H      3.6538068    -0.0072558    -0.9345876    
H      4.1391940    -0.7581567    -4.3267223    
H      2.6026732    -7.3765657    -0.1864244    
H      1.9296442    -8.4895423     2.4483568    
H      2.2561068    -10.7182372     1.3168135    
H      2.2777585    -9.8976708    -0.2439416    
H     -0.4125828    -7.8849420     0.8908515    
H     -2.6621208    -8.8962221     0.6808735    
H      1.0226915    -12.7898896     0.4435251    
H     -3.7899708    -11.4734220     0.3545044    
H     -0.7532885    -14.4854840     0.1811161    
H     -3.1135150    -13.8425431     0.1344696    
