22

C      1.0217059    -0.4602159    -3.1433873    
O      0.5743226    -1.3911385    -3.8534950    
C      0.5354450    -0.3884399    -1.7044221    
C      1.1100154     0.5084392    -0.8137000    
C     -0.4753302    -1.2322316    -1.2600786    
C      0.6782622     0.5769712     0.4977153    
C     -0.9195567    -1.1688753     0.0454681    
C     -0.3536637    -0.2529446     0.9284560    
N     -0.8137740    -0.2355486     2.2627232    
C     -1.0331111     0.8353396     3.0401172    
N     -0.9257127     2.0673981     2.5669618    
N     -1.3833533     0.6374321     4.3047573    
O      1.8358700     0.4169963    -3.5155212    
H      1.9079222     1.1382778    -1.1800285    
H     -0.8942792    -1.9327785    -1.9680477    
H      1.1768909     1.2442544     1.1827624    
H     -1.7052693    -1.8309393     0.3749967    
H     -1.0948531    -1.1372776     2.6246462    
H     -1.0993062     2.8632903     3.1576791    
H     -0.7568030     2.2201120     1.5864950    
H     -1.4263521    -0.2885142     4.6954863    
H     -1.5639376     1.4174361     4.9147013    
