21

C      0.9800187     0.1085990    -2.7754872    
N     -1.1381513     0.6031404     2.8299703    
C      0.5247540     0.2173875    -1.3694467    
N     -0.3567435    -0.4930677     0.5387473    
C      0.5410063     1.2845185    -0.4883686    
N     -0.0237944    -0.8219465    -0.7054609    
C     -0.0223735     0.7842784     0.6902684    
C     -0.2510527     1.4545215     2.0068357    
C     -0.2627847    -2.1446017    -1.2069931    
H      1.3926362     1.0567939    -3.1065385    
H      0.1506694    -0.1588607    -3.4297695    
H      1.7464576    -0.6595431    -2.8740270    
H     -1.1531152     0.9028936     3.8100202    
H     -0.7979094    -0.3651578     2.7524978    
H     -2.0910012     0.6143258     2.4512364    
H      0.9084863     2.2720730    -0.6751073    
H      0.7068024     1.5846727     2.5162272    
H     -0.6914264     2.4410129     1.8564414    
H     -0.7331568    -2.7248376    -0.4183422    
H      0.6750615    -2.6192651    -1.4970944    
H     -0.9211068    -2.1099086    -2.0755243    
