25

N     -2.0846122    -0.7900361     2.0836458    
N      1.0865087     0.6019921    -4.1141632    
C      0.8129969     0.2990163    -0.7064848    
C      0.7409667     0.4120400    -2.8389129    
C      0.1933332     0.3967011    -5.2311017    
C     -0.5064061    -0.0925484    -1.0948513    
C     -1.4720918    -0.4551548    -0.1897297    
C     -1.7693146    -0.7650455     3.3204718    
C     -1.1271787    -0.4302985     1.1642755    
C      0.1794624    -0.0418457     1.5646796    
C      1.1516168     0.3223122     0.6309876    
N      1.5525517     0.6024503    -1.8179373    
N     -0.5147201    -0.0083444    -2.4630322    
C      0.4957161    -0.0261124     2.9808703    
O      1.5786744     0.2881696     3.4752825    
N     -0.5460439    -0.4056165     3.8024077    
H      2.0303641     0.9085494    -4.2742267    
H      0.7278203     0.6222892    -6.1478652    
H     -0.6743846     1.0563963    -5.1627632    
H     -0.1467949    -0.6402579    -5.2727478    
H     -2.4663592    -0.7521470    -0.4772458    
H     -2.5141804    -1.0456635     4.0503627    
H      2.1326544     0.6106057     0.9733300    
H     -1.2900002    -0.2123933    -3.0700119    
H     -0.3603863    -0.4057143     4.7985407    
