45

C     -2.0452918     1.7206532     0.4450000    
C     -1.6904773     2.5724426     1.4535307    
C     -2.5113523     3.6598930     1.8156122    
C     -3.6633764     3.8594665     1.1264490    
N     -4.0339637     2.9971770     0.1497878    
C     -3.3064115     1.8994627    -0.2455643    
C      1.9741387    -1.0094385    -2.6812324    
C      2.4837039     0.1861576    -2.2185748    
C      3.8510228     0.4626901    -2.3965174    
N      4.6762498    -0.3961474    -3.0054986    
C      4.1718455    -1.5419663    -3.4389671    
C      2.8472933    -1.9051630    -3.3068625    
C      0.2705573    -1.6752764     2.6017748    
C      0.9804688    -2.4968191     1.7097470    
C      0.9293117    -2.2698469     0.3538168    
C     -0.4907357    -0.6056368     2.1700619    
C     -0.5385521    -0.3522059     0.8026493    
C      0.1584475    -1.2040043    -0.0992217    
N     -0.0814077    -0.7688220    -1.3656387    
C     -0.8796574     0.3437643    -1.3104119    
C     -1.1911002     0.6301932     0.0040063    
C     -1.2578027     1.1842434    -2.5111391    
O     -1.4441422     0.6024540    -3.6030195    
C      0.5100040    -1.3372266    -2.5492228    
C      0.3558692    -2.0039750     4.0536197    
O     -1.3184891     2.4171518    -2.3144967    
F     -0.1954520    -3.2048350     4.3617866    
F      1.6290295    -2.0901920     4.5086148    
F     -0.2527546    -1.1173727     4.8603783    
O     -3.7838042     1.1369454    -1.0971423    
N      4.4070554     1.6021022    -1.9095558    
H     -0.7473574     2.4231951     1.9581606    
H     -2.2134749     4.3300920     2.6021238    
H     -4.3304670     4.6841202     1.3168501    
H     -4.8960079     3.1493960    -0.3605209    
H      1.8417753     0.9149828    -1.7403678    
H      4.8833004    -2.2002469    -3.9199419    
H      2.4888775    -2.8491623    -3.6846087    
H      1.5671976    -3.3103428     2.1052925    
H      1.4749577    -2.8959199    -0.3326496    
H     -1.0327136     0.0128402     2.8677424    
H      0.3618364    -2.4210068    -2.5368726    
H     -0.0358642    -0.9232004    -3.4064482    
H      5.3289532     1.8256207    -2.2482622    
H      3.7925842     2.3604158    -1.6672636    
