50

C     -0.4828476     1.2181010    -0.6246277    
C     -0.4703673     0.3369870     0.5053664    
C     -0.2676509    -0.9768533     0.1152999    
S     -0.0725247    -1.1657791    -1.5806669    
C     -0.2751804     0.5557690    -1.7911179    
C     -0.2185510     1.1853722    -3.1445400    
N     -0.1977945     2.6278609    -3.0062366    
C     -1.1059795     3.1635739    -2.0114632    
C     -0.7035076     2.6979071    -0.6104569    
N     -0.2223940    -2.0537499     0.9556948    
C     -0.0258408    -3.3168442     0.5134690    
C     -0.0172531    -4.3956263     1.5785026    
C     -0.3361033    -3.9057714     2.9480723    
C     -1.5512288    -3.8323123     3.5575283    
C     -1.4889528    -3.2784342     4.8565872    
C     -0.2290889    -2.9331012     5.2170862    
S      0.9133119    -3.2755258     3.9803236    
O      0.1312075    -3.5508112    -0.6779845    
C     -0.6273785     0.6747021     1.9118281    
O     -0.7499655     1.9741177     2.1426109    
C     -0.8872761     2.4280982     3.4989486    
C     -0.0505228     3.6812012     3.6864134    
O     -0.6396159    -0.1658808     2.8101265    
C      0.6649165     3.4315060    -3.6458128    
O      1.4694885     2.7615228    -4.4925643    
C      2.3693885     3.5252359    -5.3089576    
C      2.2300284     3.0881250    -6.7577355    
O      0.7041448     4.6448816    -3.4967757    
H     -1.0954300     0.8878436    -3.7340945    
H      0.6762980     0.8641916    -3.6794943    
H     -2.1120342     2.8057481    -2.2454039    
H     -1.0762036     4.2506174    -2.0842773    
H      0.2154194     3.1996512    -0.2982960    
H     -1.4828495     2.9588745     0.1031919    
H     -0.3632937    -1.8316901     1.9448797    
H      0.9723761    -4.8595675     1.5527405    
H     -0.7379554    -5.1560506     1.2686614    
H     -2.4633471    -4.1676409     3.0975521    
H     -2.3467215    -3.1457852     5.4896917    
H      0.1091415    -2.4943648     6.1336960    
H     -0.5718900     1.6247166     4.1716148    
H     -1.9488152     2.6360180     3.6636422    
H      1.0009444     3.4618530     3.5227011    
H     -0.3627885     4.4464402     2.9820204    
H     -0.1828874     4.0502570     4.6981652    
H      3.3810281     3.3376201    -4.9376491    
H      2.1319938     4.5862122    -5.1839257    
H      2.4732722     2.0340804    -6.8546978    
H      1.2108386     3.2447127    -7.0999376    
H      2.9057927     3.6711052    -7.3744207    
