41

C     -0.3569888    -3.0010726     0.1201873    
F     -1.0647234     0.8330790    -3.5791847    
N     -3.8825405    -2.6316211    -1.1028189    
Cl     3.9297633     2.2107096    -0.4221012    
C     -1.7426763    -2.4586994    -0.0235013    
F      0.9127543     0.6893473    -4.4090563    
N     -1.6555036    -0.7180659     2.9929232    
C     -2.6411305    -3.0418088    -0.9133956    
F     -0.0481457    -1.0578407    -3.6042594    
N     -0.2135689     0.0003586     1.4831116    
C     -4.3117924    -1.6007373    -0.3907031    
N      2.1849896     1.3741786     1.7498907    
C     -3.5188757    -0.9340069     0.5266296    
C     -2.2031567    -1.3553296     0.7051678    
C     -1.3685526    -0.6837590     1.7060377    
C     -0.6771548    -0.0696340     3.6567969    
C      0.2608677     0.3980518     2.7408460    
C      0.4556381     0.3800877     0.3347990    
C     -0.0392978     0.1592707    -0.9424636    
C      0.7134165     0.5452109    -2.0406626    
C      1.9512932     1.1612417    -1.8941074    
C      2.4207550     1.4165236    -0.6219172    
C      1.6919206     1.0515457     0.5246660    
C      1.4964543     1.0917447     2.8181458    
C      2.0519852     1.5062540     4.1323359    
C      0.1458837     0.2632570    -3.3969570    
C     -0.7047675     0.0486185     5.1341596    
H     -0.3664177    -4.0819910     0.0083698    
H      0.0644099    -2.7492761     1.0909018    
H      0.2892529    -2.5899174    -0.6568743    
H     -2.3374698    -3.8936060    -1.5067985    
H     -5.3352560    -1.3025186    -0.5678390    
H     -3.9030802    -0.1009860     1.0920492    
H     -1.0056109    -0.2939131    -1.0893538    
H      2.5312049     1.4482220    -2.7556156    
H      2.2362670     0.6325882     4.7528733    
H      1.3433462     2.1448980     4.6538548    
H      2.9814496     2.0417488     3.9727606    
H     -0.7066470     1.0935872     5.4365089    
H      0.1636398    -0.4351658     5.5750059    
H     -1.6059279    -0.4309188     5.5034814    
