80

C     -1.4398893    -1.6673057     1.1455539    
O     -0.3399312    -2.1115496     0.8642694    
O     -2.3961501    -2.3738956     1.7756109    
C     -2.0441215    -3.6866653     2.2426176    
C     -3.1245820    -4.1441602     3.2197618    
C     -4.1794484    -4.9026087     2.3863613    
O     -5.3661011    -4.1606984     2.1682949    
C     -5.2292370    -3.4346892     0.9640578    
C     -4.3636645    -4.2937661     0.0320219    
C     -3.5361825    -5.1606797     1.0023968    
C     -2.0726351    -4.7345589     1.1279724    
O     -5.2177569    -5.0469687    -0.7991112    
N      1.6711678     1.6574024     0.5013054    
C      2.6466274     1.8043188     1.5662359    
C      2.1831188     1.2469926     2.9167380    
C      1.9771633    -0.2620936     2.8333582    
C      3.2237295     1.5895957     3.9820680    
C      0.5006301     2.5064948     0.5318732    
C     -0.7520378     1.7643070     1.0433482    
O     -1.8288469     2.6506747     1.1919380    
C     -1.0767274     0.5440109     0.1491450    
N     -1.8547367    -0.4175889     0.9010034    
C     -1.8194750     0.9093728    -1.1448906    
C     -3.3377732    -0.9222560    -1.9753044    
C     -3.5592184    -2.0788803    -2.7045188    
C     -2.5178444    -2.6660216    -3.4024207    
C     -1.2570830    -2.0912481    -3.3711174    
C     -1.0400975    -0.9308505    -2.6508052    
C     -2.0804277    -0.3341821    -1.9476611    
S      2.3775628     1.4209443    -0.9822947    
O      1.3197017     1.4039892    -1.9711608    
O      3.1866156     0.2243683    -0.9008467    
C      3.4382471     2.8179228    -1.2908593    
C      2.9001903     3.9733949    -1.8356813    
C      4.7741192     2.7531942    -0.9473633    
C      3.7071639     5.0722710    -2.0277925    
C      5.5928008     3.8523420    -1.1363116    
C      5.0628825     5.0269134    -1.6740735    
O      5.7623178     6.1551920    -1.8947217    
C      7.1420521     6.1948453    -1.5608530    
H     -1.0497910    -3.6144074     2.6951363    
H     -3.5813919    -3.2955114     3.7245194    
H     -2.6852624    -4.8074158     3.9603407    
H     -4.4948676    -5.8151430     2.8970629    
H     -4.7394456    -2.4724389     1.1485134    
H     -6.2273173    -3.2837683     0.5534146    
H     -3.7137634    -3.6574076    -0.5846266    
H     -3.6211698    -6.2079464     0.7125199    
H     -1.4607008    -5.5800062     1.4383839    
H     -1.6631208    -4.3341248     0.2012243    
H     -4.6967999    -5.6617096    -1.3336775    
H      2.9231806     2.8618255     1.6769443    
H      3.5217005     1.2423493     1.2373734    
H      1.2382571     1.7257333     3.1875223    
H      1.5720581    -0.6448826     3.7666671    
H      2.9242467    -0.7599313     2.6372805    
H      1.2971287    -0.5233970     2.0252734    
H      3.3428945     2.6659821     4.0727119    
H      4.1850877     1.1531070     3.7233805    
H      2.9134879     1.1934813     4.9444958    
H      0.3095626     2.8395229    -0.4897332    
H      0.6804213     3.3782667     1.1686119    
H     -0.5583256     1.3812376     2.0497109    
H     -1.9794920     3.1246659     0.3613382    
H     -0.1291383     0.0540810    -0.0997442    
H     -2.7838600    -0.1526201     1.1925858    
H     -1.1852183     1.5798490    -1.7256621    
H     -2.7639383     1.3949824    -0.8971939    
H     -4.1545127    -0.4716344    -1.4306835    
H     -4.5449975    -2.5195021    -2.7270421    
H     -2.6850577    -3.5660902    -3.9741819    
H     -0.4401843    -2.5463915    -3.9115747    
H     -0.0598745    -0.4737565    -2.6299197    
H      1.8619779     3.9861272    -2.1218406    
H      5.1652016     1.8304194    -0.5509200    
H      3.3205254     5.9832653    -2.4531567    
H      6.6329155     3.7824724    -0.8671481    
H      7.4687040     7.1969273    -1.8282925    
H      7.7067926     5.4583671    -2.1354866    
H      7.2909751     6.0312531    -0.4918988    
