36

O      2.1162935    -2.3324765    -1.5963923    
O     -1.6264364     1.8146609    -1.8341063    
O     -0.8723938     0.8919316     0.4201083    
O     -2.1155945     3.0973142     0.3099695    
F     -0.7044673    -2.4625838     3.2421315    
F      0.3199374    -0.9853741     2.1056017    
F     -1.8352589    -0.8706354     2.3911645    
C     -1.4993927    -4.3795510    -1.1388772    
C      2.9798465     4.1931947    -0.6370622    
C     -2.1501331    -4.5451345     0.0736156    
C      1.8995055     4.9288787    -0.1860306    
C     -0.6487549    -3.3099306    -1.3335315    
C      2.8143076     2.8821687    -1.0561541    
C     -1.9219023    -3.6467029     1.0970523    
C      0.6431388     4.3442240    -0.1396251    
C      2.2442132     0.0483329    -1.3611490    
N      0.4051057    -1.2739355    -0.5358122    
O      1.2568352     1.0496536    -1.4612425    
C      1.5672267    -1.3122663    -1.1943634    
C     -0.4187722    -2.3824333    -0.3179740    
C      1.5490695     2.3123391    -1.0220420    
C     -1.0472165    -2.5774352     0.9164008    
C      0.4587650     3.0396647    -0.5486517    
C     -0.8117343    -1.7016402     2.1080619    
P     -1.1655305     2.1555806    -0.4194260    
H     -1.6619299    -5.0783695    -1.9437085    
H      3.9627366     4.6368223    -0.6672830    
H     -2.8272888    -5.3686846     0.2258922    
H      2.0280180     5.9492801     0.1400735    
H     -0.1490290    -3.1593886    -2.2763850    
H      3.6577629     2.3110258    -1.4140931    
H     -2.4067146    -3.7646357     2.0539478    
H     -0.2268679     4.8709911     0.2313743    
H      2.8833533     0.2131117    -0.4827568    
H      2.8676280     0.0155846    -2.2652423    
H      0.0123056    -0.3530104    -0.2313796    
