63

N      1.8759636    -1.2434796     2.5536300    
O     -1.4048964     1.2737005     4.6644186    
C      2.5570844    -2.4271606     2.3541404    
N     -1.7384166     0.2166126     0.1462593    
O      2.0946231    -3.5136753     2.6524177    
N      3.8021310    -2.3017893     1.8007332    
C      4.4442850    -1.1343868     1.4133128    
O      5.5634079    -1.1809611     0.9268294    
C      3.6557472     0.0517136     1.6428380    
C      2.4337439    -0.0528980     2.1925835    
C      0.5445100    -1.3137242     3.1719187    
C     -1.3269443     0.4996040    -1.2763851    
C     -2.1029256    -0.4380415    -2.2076657    
C     -3.4711970    -0.6244395    -2.0315709    
C      0.3686780    -0.3162328     4.3165722    
C     -4.1914709    -1.4194093    -2.9047284    
C     -3.5623059    -2.0246949    -3.9796766    
C     -2.2099586    -1.8138024    -4.1827315    
C     -1.4860450    -1.0231861    -3.3070057    
C      0.1727669     0.2310094    -1.3132714    
C      1.1159156     1.2419696    -1.4452627    
C      2.4673030     0.9374265    -1.4695313    
C      2.8924676    -0.3738108    -1.3408528    
C      1.9580527    -1.3812620    -1.1590764    
C      0.6086132    -1.0818364    -1.1397103    
C     -0.4525946     0.8455474     3.7266619    
C     -1.7434949     1.8894134    -1.7358996    
C     -2.6763761     2.6671439    -1.0617411    
C     -3.0760939     3.8890178    -1.5792291    
C     -2.5668356     4.3443226    -2.7817104    
C     -1.6623213     3.5585564    -3.4775635    
C     -1.2623492     2.3397341    -2.9636690    
C     -1.1243785     0.1934295     2.4914918    
O     -0.4478461    -1.0401305     2.2239127    
C     -1.0880474     1.0248222     1.2073816    
H     -1.5622189     2.2238289     4.6003886    
H     -1.4717280    -0.7610967     0.3451691    
H     -2.7600472     0.2736440     0.2275577    
H      4.3125764    -3.1700519     1.6691284    
H      4.0800737     1.0007434     1.3697017    
H      1.8321859     0.8204271     2.3820286    
H      0.4437357    -2.3570568     3.4920335    
H     -4.0134601    -0.1364842    -1.2366589    
H      1.3188879     0.0020131     4.7349533    
H     -0.2272163    -0.7654582     5.1106930    
H     -5.2506137    -1.5603292    -2.7522636    
H     -4.1243208    -2.6425637    -4.6627855    
H     -1.7133846    -2.2633446    -5.0293492    
H     -0.4340473    -0.8690500    -3.4902080    
H      0.8048846     2.2701156    -1.5418968    
H      3.1917025     1.7269757    -1.5930904    
H      3.9458165    -0.6097835    -1.3757282    
H      2.2821907    -2.4044765    -1.0404146    
H     -0.1004151    -1.8876412    -1.0212647    
H      0.1917692     1.6763904     3.4244162    
H     -3.1271981     2.3542825    -0.1345900    
H     -3.7984691     4.4841705    -1.0424336    
H     -2.8807095     5.2959043    -3.1821432    
H     -1.2741503     3.8918971    -4.4280646    
H     -0.5768893     1.7271327    -3.5282673    
H     -2.1584619    -0.0465457     2.7724223    
H     -1.5957781     1.9782917     1.3369375    
H     -0.0524684     1.2039661     0.9136646    
