47

N     -5.5043256    -0.3967737     1.7417352    
C     -4.6203781    -0.7558630     0.6081091    
C     -3.3809117    -1.4223462     1.2458639    
O     -3.2776402    -1.4250029     2.4673136    
C     -4.2087454     0.4880930    -0.1905196    
C     -3.3992825     1.4815226     0.6484839    
C     -2.6900489     2.5101147    -0.2345317    
C     -1.8277243     3.4533397     0.5955412    
N     -0.5918899     2.7731410     1.0483931    
N     -2.5223746    -1.9852228     0.3982241    
C     -1.1871802    -2.3662737     0.8012180    
C     -0.2437774    -1.1816344     0.5372330    
O     -0.6084151    -0.0470534     0.8384850    
N      0.8969986    -1.4789910    -0.0608092    
C      1.8933460    -0.5538342    -0.5501879    
C      2.8571563    -1.4099024    -1.4418209    
O      3.6268622    -0.8135624    -2.2121981    
C      2.6597585     0.1302933     0.5904673    
C      3.6045928     1.2104368     0.0802897    
C      2.9199808     2.4502381    -0.5473417    
O      1.6750510     2.5495579    -0.4749315    
O      3.6679105     3.2946602    -1.0735178    
O      2.7571020    -2.6492323    -1.3009746    
H     -5.7701024     0.5926417     1.7238686    
H     -4.9185897    -0.5848245     2.5920580    
H     -6.3491946    -0.9721519     1.7906827    
H     -5.1121807    -1.4706190    -0.0538200    
H     -5.0981321     0.9674904    -0.6001941    
H     -3.5985507     0.1746045    -1.0373581    
H     -2.6510432     0.9296286     1.2155387    
H     -4.0397874     2.0181870     1.3478079    
H     -3.4262981     3.0946883    -0.7853812    
H     -2.0513240     2.0079674    -0.9627835    
H     -2.3862949     3.7849154     1.4715287    
H     -1.5492348     4.3264550     0.0069229    
H     -0.2364313     3.1704689     1.9180600    
H      0.1818512     2.8279900     0.3546555    
H     -0.7332283     1.7562095     1.1640309    
H     -2.6651506    -1.8751701    -0.5955517    
H     -0.8602895    -3.2528060     0.2631752    
H     -1.2039744    -2.5636204     1.8765665    
H      1.1877273    -2.4370997    -0.2713201    
H      1.4338690     0.2228167    -1.1723897    
H      3.2340699    -0.6272372     1.1314798    
H      1.9302747     0.5786435     1.2687952    
H      4.2586692     0.8034780    -0.6955537    
H      4.2430860     1.5758414     0.8893862    
