25

C     -0.6187555    -0.8178009    -1.6953578    
C      0.1966081     0.4873980    -1.7079986    
O      0.9318930     0.6308978    -2.8944968    
C      1.0996273     0.5681263    -0.4596013    
O      1.6835781     1.8447124    -0.3343643    
C      0.2499822     0.3424872     0.8074426    
O     -0.7712156     1.3089086     0.9015550    
C     -0.4483761    -1.0216397     0.7417732    
N     -1.3608013    -0.9526959    -0.4251486    
C     -1.2322348    -1.3325800     2.0374858    
O     -0.3886546    -1.8628016     3.0286315    
H      0.0526853    -1.6726646    -1.8057854    
H     -1.3131621    -0.8029879    -2.5364255    
H     -0.4777810     1.3509889    -1.6946384    
H      1.5279631    -0.1218310    -3.0173323    
H      1.8854199    -0.2012717    -0.5119029    
H      2.0615476     2.1089698    -1.1849885    
H      0.9175659     0.3946469     1.6760730    
H     -0.3680159     2.1867324     0.9238094    
H      0.2861543    -1.8175820     0.5935195    
H     -1.9719648    -1.7768450    -0.4578388    
H     -1.9445394    -0.1128457    -0.2753419    
H     -1.9649728    -2.1197980     1.8425109    
H     -1.7516362    -0.4350110     2.3859934    
H      0.1210104    -1.1617742     3.4535743    
