33

P     -0.4837158    -4.1511733     0.1465412    
O     -1.0749087    -3.7937256     1.4699019    
O      0.0232157    -5.5047444    -0.1504090    
O     -1.5500590    -3.7342041    -1.0402284    
C     -1.9940197    -2.3872016    -1.0481617    
C     -0.7578300    -1.5287441    -1.2602750    
O     -0.9425878    -0.1322656    -1.2663131    
C      0.2163981    -1.7712657    -0.1082865    
O      0.7513189    -3.0647195    -0.1589336    
C      1.2194112    -0.6371532    -0.3293119    
O      2.1857804    -0.9546962    -1.2861189    
C      0.2924757     0.4756863    -0.8939483    
N      0.0317988     1.5243703     0.0422763    
C     -0.6735143     1.4548436     1.2154604    
N     -0.7481638     2.5822327     1.8509103    
C     -0.0557743     3.4785466     1.0694882    
C      0.2369568     4.8542193     1.1939901    
N     -0.1540018     5.6014164     2.2241649    
N      0.9538905     5.4263291     0.2100783    
C      1.3513042     4.6929379    -0.8129733    
N      1.1489262     3.4051261    -1.0415920    
C      0.4338084     2.8281855    -0.0716742    
H     -2.4677963    -2.1428845    -0.0909167    
H     -2.7120682    -2.2989897    -1.8652878    
H     -0.2712784    -1.8550894    -2.1940799    
H     -0.3112104    -1.6366108     0.8466041    
H      1.6945435    -0.3133903     0.6071696    
H      2.4831813    -1.8667571    -1.1402198    
H      0.7731706     0.9337773    -1.7694239    
H     -1.1198567     0.5391824     1.5485962    
H      0.0957866     6.5754899     2.2420845    
H     -0.6962126     5.1788257     2.9569659    
H      1.9220915     5.2145793    -1.5689194    
