24

P     -1.0473902    -1.1872872     0.7869404    
O     -0.4212926    -1.9527360     1.9297776    
O     -2.0900302    -1.9384347    -0.0232941    
O     -1.4616633     0.2428566     1.1252189    
O      0.2888472    -0.9774473    -0.2844396    
C      0.0315729    -0.1207676    -1.3725638    
C      1.1470945     0.9137205    -1.5752382    
N      1.2637227     2.0026932    -0.5696540    
C     -0.0135653     2.7143370    -0.3952000    
C      2.2762647     2.9576362    -1.0628323    
C      1.7043036     1.4774000     0.7327085    
H     -0.9533382     0.3379713    -1.2256773    
H     -0.0234242    -0.7379202    -2.2806063    
H      0.9723927     1.3726439    -2.5493770    
H      2.0884062     0.3617645    -1.5850320    
H      0.1455976     3.5972745     0.2178058    
H     -0.7310028     2.0692924     0.1142494    
H     -0.4169012     3.0007795    -1.3626687    
H      3.2155954     2.4415787    -1.2436037    
H      2.4345411     3.7325790    -0.3173988    
H      1.9324099     3.4145525    -1.9872452    
H      0.9795849     0.7575523     1.1135255    
H      1.7876493     2.2909793     1.4479195    
H      2.6596799     0.9695955     0.6303368    
