24

P     -1.0544415    -1.1735342     0.7949027    
O     -1.4876415     0.2559220     1.1128151    
O     -0.4537785    -1.9272576     1.9587235    
O     -2.0703645    -1.9382218    -0.0388200    
O      0.3067469    -0.9578848    -0.2441784    
C      0.0440092    -0.1549343    -1.3710971    
C      1.1257267     0.9096402    -1.5983861    
N      1.1974052     2.0360336    -0.6299935    
C      2.1819895     3.0066333    -1.1478782    
C      1.6429385     1.5705524     0.6928931    
C     -0.1040594     2.7096529    -0.4896974    
H     -0.9592550     0.2733183    -1.2635070    
H      0.0296684    -0.8096436    -2.2539119    
H      0.9435322     1.3287502    -2.5892494    
H      2.0856274     0.3908071    -1.5828564    
H      2.3037966     3.8143606    -0.4309406    
H      1.8344435     3.4162658    -2.0931112    
H      3.1410272     2.5180582    -1.2983403    
H      0.9251198     0.8590556     1.1023692    
H      1.7178733     2.4144312     1.3734618    
H      2.6034476     1.0675570     0.6122277    
H     -0.5029878     2.9593064    -1.4692698    
H      0.0181803     3.6120999     0.1034762    
H     -0.8079068     2.0549031     0.0263678    
