48

C      3.5679529     0.5896817    -2.2799752    
C      3.5175854     1.4620681    -3.5267503    
N      4.1971867     2.7510922    -3.2564947    
C      3.5417659     3.4877301    -2.1506090    
C      3.5886015     2.6522694    -0.8781796    
C      2.8995263     1.3036678    -1.1021896    
C      2.9634676     0.4542899     0.1762014    
N      2.1723243    -0.7438669     0.0600714    
C      0.8009486    -0.8039481     0.1895568    
C     -0.1396958     0.1360368     0.5336623    
C      2.5690435    -2.0059879    -0.3024484    
N      3.8516893    -2.3130002    -0.5954227    
N      1.5709591    -2.8612149    -0.4072605    
C      0.4474241    -2.1483685    -0.1067798    
C     -0.8876754    -2.5391907    -0.0598491    
C     -1.8283815    -1.6024135     0.3066287    
C     -1.4732703    -0.2775650     0.6152016    
C     -2.4767491     0.7265118     0.9839997    
O     -2.2802036     1.9293291     0.8066851    
C     -3.7429844     0.2515206     1.5926446    
C     -4.9305493     0.9097341     1.2807303    
C     -6.1233200     0.5048301     1.8492598    
C     -6.1371488    -0.5451131     2.7539455    
C     -4.9550535    -1.1848615     3.0926959    
C     -3.7614161    -0.7940353     2.5142119    
H      4.6038487     0.3598695    -2.0273202    
H      3.0623056    -0.3531472    -2.4843854    
H      2.4814943     1.6640168    -3.8010878    
H      4.0090487     0.9586625    -4.3586160    
H      4.2024734     3.3281037    -4.1045317    
H      5.1733682     2.5616071    -2.9951973    
H      2.5052465     3.6835952    -2.4278674    
H      4.0492755     4.4394679    -1.9957783    
H      3.0910104     3.1985236    -0.0777531    
H      4.6229323     2.4885346    -0.5723117    
H      1.8426833     1.4707034    -1.3344872    
H      2.5719629     1.0297577     1.0193020    
H      3.9959643     0.1790414     0.3983168    
H      0.1001612     1.1629719     0.7645076    
H      4.0251418    -3.3005997    -0.6951421    
H      4.5738543    -1.7903400    -0.1250018    
H     -1.1707204    -3.5502948    -0.3031563    
H     -2.8708272    -1.8816668     0.3296722    
H     -4.8989909     1.7323587     0.5810406    
H     -7.0413476     1.0104501     1.5916317    
H     -7.0677227    -0.8595380     3.2010739    
H     -4.9642415    -1.9911561     3.8103463    
H     -2.8388137    -1.2819492     2.7912206    
