45

C      0.1551296    -0.5483006    -1.9350768    
C     -0.7196343     1.0516113    -3.5105753    
C     -0.2362758     0.2753003    -0.8501356    
C     -0.5758803     0.7383454     1.4785754    
C     -1.1701554     1.8551729    -2.5072813    
C     -0.9684712     1.4688033    -1.1488863    
C      0.0126688    -0.0808556     0.5087523    
C     -0.0832864    -0.1778392    -3.2306471    
C     -0.6162934     0.8634789     2.9084654    
C     -1.3258157     1.8707686     1.0287907    
C      0.2469065    -2.2960359     1.5635062    
C      2.0530553    -1.4791444     0.2100612    
C      1.2357022    -2.8779848     2.5750156    
C      3.0590089    -1.9342759     1.2687920    
C     -1.8896408     3.1336694    -2.7903844    
C      0.0402866     0.0512751     3.9650104    
C      0.8876869    -2.1611653    -4.1464389    
N     -1.3155789     1.9149258     3.2554536    
N     -1.7544811     2.5208852     2.1347007    
N     -1.5104792     2.2622054    -0.2109290    
N      0.8178575    -1.1498393     0.8865937    
N      2.5301030    -3.1580234     1.9126112    
O      0.2443238    -0.9150547    -4.3336948    
H      0.5930753    -1.5068716    -1.7372225    
H     -0.8637506     1.3173436    -4.5466802    
H     -0.6692752    -1.9954393     2.0677406    
H     -0.0201604    -3.0679585     0.8248453    
H      1.9355717    -2.2964998    -0.5165078    
H      2.4253171    -0.5986467    -0.3115114    
H      0.8259219    -3.7958574     2.9951900    
H      1.4128050    -2.1650780     3.3779591    
H      3.1814538    -1.1579074     2.0232131    
H      4.0218107    -2.1408767     0.8036074    
H     -1.9031211     3.3410428    -3.8564515    
H     -1.4104034     3.9560009    -2.2650851    
H     -2.9124442     3.0712697    -2.4244277    
H     -0.0658484     0.5781744     4.9089090    
H      1.0962793    -0.0592943     3.7362488    
H     -0.4318867    -0.9230284     4.0628503    
H      1.0482258    -2.5544185    -5.1478765    
H      0.2518885    -2.8498343    -3.5839317    
H      1.8506356    -2.0324984    -3.6459590    
H     -2.3028574     3.3621366     2.1861671    
H      2.3966587    -3.8825758     1.1947227    
H      3.2010233    -3.5168207     2.6015717    
