68

C     -0.5034906    -0.4430851    -2.6366843    
C     -1.5674518    -0.0131681    -3.4098509    
C     -1.5532560    -0.2137650    -4.7807249    
C     -0.4645150    -0.8278018    -5.3780159    
C      0.6060414    -1.2470717    -4.6093547    
C      0.5904586    -1.0669296    -3.2289916    
C      1.7324187    -1.4928574    -2.4033250    
C      1.5804274    -2.2258623    -1.2791819    
C      3.0617140    -1.0405708    -2.7572257    
O      3.3653717    -0.3238227    -3.7007010    
N      4.0490595    -1.5534640    -1.9378897    
C      3.8911563    -2.2149540    -0.7505043    
O      4.8736600    -2.5091089    -0.0869363    
N      2.6086604    -2.6072553    -0.4596388    
C      2.2404544    -3.3976788     0.7407750    
O      0.9452208    -3.0812509     1.1640515    
C      3.1086744    -3.1642996     1.9825223    
O      2.9187172    -4.2598621     2.8338466    
C      2.4611885    -1.8875187     2.5416036    
O      2.7205620    -1.7614713     3.9084978    
C      0.9720476    -2.1162916     2.2148340    
C      0.2399127    -0.8363315     1.8070940    
O      0.7977142    -0.2879329     0.6284179    
P      1.9674008     0.8430601     0.7329184    
O      2.1416466     1.2681368     2.1471192    
O      3.1440870     0.3915496    -0.0561840    
O      1.2992562     2.0214125    -0.1789887    
P      0.0390011     2.9261044     0.2406964    
O      0.1074137     3.3257693     1.6790515    
O     -0.1346408     3.9755201    -0.7937446    
O     -1.1438347     1.7972435     0.0873049    
C     -2.4378993     2.3012252    -0.1797762    
O     -3.1984621     1.3130450    -0.7862122    
C     -3.3699628     0.1326596     0.0077820    
C     -4.3324089    -0.7613558    -0.8038934    
O     -4.8518466    -1.8312966    -0.0703744    
C     -3.9289129     0.4257837     1.4111235    
O     -5.3004573     0.7108719     1.3324459    
C     -3.1691718     1.5876276     2.0708597    
O     -3.8409740     1.9108196     3.2607801    
C     -3.1395540     2.7760315     1.1019829    
O     -2.5828158     3.9229822     1.6882514    
H     -0.4875923    -0.2523538    -1.5716722    
H     -2.3925656     0.4917875    -2.9285025    
H     -2.3850468     0.1233499    -5.3790208    
H     -0.4443782    -0.9750305    -6.4465409    
H      1.4654273    -1.7106080    -5.0675166    
H      0.6061831    -2.5659453    -0.9608440    
H      4.9891564    -1.2019245    -2.0983105    
H      2.2370710    -4.4569919     0.4570783    
H      4.1661177    -3.0240183     1.7534461    
H      3.1165558    -3.9691902     3.7409417    
H      2.8311409    -1.0285845     1.9707965    
H      2.6817205    -0.8319401     4.1654051    
H      0.4606138    -2.5541456     3.0810002    
H      0.3011904    -0.0997669     2.6149376    
H     -0.8058005    -1.0572707     1.5727314    
H     -2.3442079     3.1297915    -0.8959789    
H     -2.3909441    -0.3495252     0.1336736    
H     -3.7864079    -1.1831179    -1.6491612    
H     -5.1249343    -0.1058238    -1.1790296    
H     -5.5133276    -1.4834611     0.5489130    
H     -3.7709589    -0.4761734     2.0245645    
H     -5.5649413     1.1037639     2.1824468    
H     -2.1274634     1.2913478     2.2754596    
H     -3.5620541     2.7979084     3.5380466    
H     -4.1651380     3.0511350     0.8247766    
H     -1.6147290     3.8150887     1.7706669    
