66

C     -4.7322461     1.1055520     1.8072884    
N     -4.7547260     0.1163420     2.6817143    
C     -5.5164366     0.2527008     3.7572117    
C     -6.2866947     1.3803857     4.0041619    
C     -6.2556618     2.4189583     3.0892300    
C     -5.4617926     2.2891857     1.9509044    
C     -5.3740403     3.3337421     0.9212817    
N     -4.2420076     3.3755764     0.2239083    
C     -6.4172977     4.2234433     0.6600885    
C     -6.1994351     5.1470503    -0.3527862    
N     -5.0822180     5.1971314    -1.0509654    
C     -4.1336851     4.2926147    -0.7369138    
N     -3.0181090     4.3743133    -1.4946799    
C     -1.8566937     3.6098637    -1.4816709    
C     -0.9334593     3.8087202    -2.5091595    
C      0.2348239     3.0772199    -2.5702882    
C     -1.5696810     2.6655367    -0.4967135    
C     -0.4033906     1.9319188    -0.5594877    
C      0.5089361     2.1198355    -1.5967215    
N      1.6568005     1.3183929    -1.6001075    
C      2.6766338     1.2719443    -2.4894535    
O      2.7893400     2.0148597    -3.4601574    
C      3.6966411     0.2237263    -2.1900111    
C      5.0246152     0.4834712    -2.5182788    
C      5.9937765    -0.4714053    -2.2741680    
C      5.6573384    -1.6944978    -1.7212860    
C      4.3281261    -1.9737937    -1.4116255    
C      3.3518374    -1.0066254    -1.6445589    
N      3.9096065    -3.1906409    -0.8624378    
C      4.6225064    -4.3217769    -0.6374314    
O      5.8083310    -4.4540884    -0.9022757    
C      3.8248509    -5.4334033     0.0168968    
C      4.2736978    -5.5827747     1.4755172    
C      3.5516960    -6.7473883     2.1540244    
N      3.7811136    -6.7711770     3.5914588    
C      2.8177130    -7.6240507     4.2612551    
C      5.1335871    -7.1772941     3.9238355    
H     -4.1091272     0.9621876     0.9354680    
H     -5.5017582    -0.5799730     4.4448238    
H     -6.8835260     1.4497883     4.8978912    
H     -6.8221415     3.3225944     3.2645432    
H     -7.3487959     4.1900437     1.1961235    
H     -6.9492265     5.8805908    -0.6200973    
H     -3.0698080     5.0897584    -2.2091697    
H     -1.1357610     4.5422239    -3.2730233    
H      0.9365104     3.2414065    -3.3710761    
H     -2.2664964     2.5158386     0.3089208    
H     -0.1999871     1.2013004     0.2090247    
H      1.7235701     0.6945121    -0.8056586    
H      5.2736610     1.4361992    -2.9593575    
H      7.0244532    -0.2672724    -2.5181255    
H      6.4148463    -2.4391655    -1.5410743    
H      2.3180436    -1.2420442    -1.4365665    
H      2.9239632    -3.2230759    -0.6266367    
H      4.0456399    -6.3613456    -0.5146315    
H      2.7528451    -5.2428293    -0.0303940    
H      4.0600746    -4.6703747     2.0316302    
H      5.3522296    -5.7388173     1.4830940    
H      3.8534880    -7.6994337     1.6777124    
H      2.4757998    -6.6225070     2.0016159    
H      1.8106515    -7.2678269     4.0488885    
H      2.8950991    -8.6775974     3.9456808    
H      2.9865418    -7.5699270     5.3360437    
H      5.3702688    -8.1909412     3.5588308    
H      5.8427054    -6.4779109     3.4911189    
H      5.2526751    -7.1613079     5.0044638    
