30

O      5.6354211     0.7480462     1.5336711    
S      5.1579796    -0.4663845     0.8924204    
O      5.5089595    -1.7141566     1.5393054    
N      5.7273762    -0.5519099    -0.6627448    
C      3.4004030    -0.3718225     0.6607003    
C      2.7499970     0.8343402     0.8280463    
C      1.3858581     0.9011016     0.6049459    
C      2.7229707    -1.5150909     0.2835753    
C      1.3584097    -1.4485529     0.0666063    
C      0.6789293    -0.2385831     0.2196843    
C     -0.7707370    -0.1658418    -0.0230444    
C     -1.3140818     0.9346832    -0.6846937    
C     -2.6731562     0.9870164    -0.9061319    
F     -3.1920604     2.0557927    -1.5540355    
C     -1.6185746    -1.1883678     0.4025353    
C     -2.9805224    -1.1227429     0.1793909    
C     -3.5255860    -0.0282772    -0.4830274    
C     -4.9953370     0.0845327    -0.7455395    
F     -5.6935078    -0.9690604    -0.2955450    
F     -5.2884394     0.1876968    -2.0598665    
F     -5.5497527     1.1694634    -0.1636554    
H      5.9723210     0.3548033    -1.0290015    
H      6.4834410    -1.2125848    -0.7502380    
H      3.3200759     1.6956695     1.1363515    
H      0.8646286     1.8331617     0.7520867    
H      3.2727502    -2.4347827     0.1749239    
H      0.8226214    -2.3294860    -0.2474785    
H     -0.6931354     1.7369203    -1.0473029    
H     -1.2116588    -2.0326436     0.9336444    
H     -3.6308302    -1.9139702     0.5160859    
