44

C      2.3547202     1.4949367     4.0828027    
C      2.4952542     1.6615807     5.4549600    
C      2.2299522     0.5842838     6.2773852    
C      1.8254448    -0.6414321     5.7542579    
C      1.6794825    -0.8316775     4.3909324    
C      1.9534033     0.2468175     3.5675001    
O      1.8875000     0.2601965     2.2046325    
C      2.2257299     1.5281117     1.8183088    
C      2.5340445     2.3377949     2.9300222    
C      2.9266218     3.6580501     2.7485975    
C      2.9994219     4.1395285     1.4572276    
C      2.6993717     3.3301355     0.3675475    
C      2.3077001     1.9996470     0.5075504    
C      2.0005328     1.1514332    -0.6500256    
C      1.0163014     0.1719660    -0.5617809    
C      2.6909860     1.2984227    -1.8524828    
C      2.3790417     0.5051248    -2.9389659    
C      1.3934078    -0.4613078    -2.8383236    
C      0.7054226    -0.6357257    -1.6441979    
C     -0.3451427    -1.6788608    -1.5188154    
C     -1.7051453    -1.2607385    -2.0464165    
P     -2.8204231    -2.7271037    -1.7582468    
O     -2.9378649    -2.9663093    -0.2541641    
O     -4.1631582    -2.4499030    -2.4271742    
O     -2.0979378    -3.8908559    -2.4518116    
P     -2.3348446     0.3033813    -1.2726199    
O     -2.2756564     0.1812689     0.2482397    
O     -1.4185281     1.4151789    -1.7949982    
O     -3.7527559     0.4960175    -1.8081577    
O     -1.6395637    -1.0265019    -3.4531856    
H      2.8001853     2.6140807     5.8562648    
H      2.3301863     0.6892911     7.3456827    
H      1.6138900    -1.4649158     6.4180173    
H      1.3504783    -1.7669629     3.9625612    
H      3.1565744     4.2798712     3.5979025    
H      3.2884048     5.1633262     1.2797973    
H      2.7359637     3.7413233    -0.6288458    
H      0.4208927     0.0493056     0.3352501    
H      3.4760737     2.0350459    -1.9309778    
H      2.9022722     0.6319561    -3.8744504    
H      1.1115221    -1.0818642    -3.6791684    
H     -0.5397438    -1.9464427    -0.4713116    
H     -0.0855230    -2.5993588    -2.0626008    
H     -2.4863640    -0.5904444    -3.6426809    
