23

N      2.4782446     1.5705929     1.7234534    
N      0.4054004     2.2159712     0.6905252    
C      1.2499719     2.1780065     1.7605605    
N      0.7120593     2.7161535     2.8323387    
C     -0.5431324     3.1076875     2.4513867    
C     -0.7552574     2.8080310     1.1451850    
C     -0.6615542    -2.3345370    -1.1068944    
Cl    -1.1691606    -3.9645537    -1.4076956    
N     -0.4206108    -1.6016191    -2.1730620    
C     -0.0320426    -0.3512621    -1.9882768    
C      0.1370277     0.2241285    -0.7330287    
C     -0.1239104    -0.5715946     0.3774487    
C     -0.5341577    -1.8817028     0.1974274    
C      0.5976500     1.6580677    -0.6185349    
H      3.0277322     1.7813347     2.5424390    
H      2.9910643     1.6813722     0.8609477    
H     -1.1991345     3.5822938     3.1532260    
H     -1.5984243     2.9623317     0.5051666    
H      0.1514819     0.2086079    -2.8943454    
H     -0.0081526    -0.1779639     1.3756834    
H     -0.7469664    -2.5297081     1.0301590    
H      1.6597746     1.7078161    -0.8791751    
H      0.0461977     2.2701728    -1.3380178    
