49

F      0.4265354    -3.4221760     3.3049782    
C      1.7468987    -3.1831293     3.1405973    
F      2.3417844    -3.7250443     4.2149810    
F      2.1221740    -3.9590866     2.0946336    
C      2.0690601    -1.7327805     2.9444895    
C      3.0332525    -1.1459990     3.7561730    
C      3.3570945     0.1879903     3.5894585    
C      2.7194523     0.9307729     2.6110765    
C      1.7606869     0.3439466     1.8033175    
C      1.4184180    -0.9939438     1.9508379    
C      0.3583136    -1.6226632     1.0717672    
N      0.1667317    -0.9276419    -0.1718843    
C      0.8620011    -1.1919216    -1.3343035    
C      1.8579107    -2.1038765    -1.6324487    
C      2.3263529    -2.1152820    -2.9315543    
C      1.8286026    -1.2423310    -3.9024499    
C      2.3837235    -1.3087804    -5.3148643    
O      2.0352740    -0.4120096    -6.1183472    
O      3.1575144    -2.2576252    -5.5891156    
C      0.8391819    -0.3203198    -3.5967340    
C      0.3498442    -0.2964081    -2.3004210    
N     -0.6177385     0.4955624    -1.7241769    
C     -0.6959610     0.1048888    -0.4760221    
N     -1.5100909     0.6177069     0.4817555    
C     -2.4409858     1.6396248     0.3590856    
C     -2.6820251     2.2926633    -0.8496871    
C     -3.6189556     3.2977946    -0.8867249    
F     -3.8521365     3.9307819    -2.0759129    
C     -4.3506398     3.7077632     0.2314122    
O     -5.2458188     4.7188911     0.0550005    
C     -6.0114597     5.1333339     1.1742534    
C     -4.0977855     3.0401491     1.4263109    
C     -3.1586351     2.0267046     1.4877702    
H      3.5247753    -1.7369400     4.5124459    
H      4.1055784     0.6390793     4.2194308    
H      2.9650954     1.9710374     2.4708433    
H      1.2794171     0.9317999     1.0374561    
H     -0.5916365    -1.6731330     1.6158456    
H      0.6374196    -2.6482836     0.8169283    
H      2.2605984    -2.7799353    -0.8927370    
H      3.0983675    -2.8058969    -3.2406226    
H      0.4803551     0.3449273    -4.3674624    
H     -1.4256775     0.2211679     1.4068764    
H     -2.1408705     2.0102159    -1.7365228    
H     -6.6425952     5.9352333     0.7997960    
H     -5.3676654     5.5105977     1.9735068    
H     -6.6334108     4.3157234     1.5472564    
H     -4.6309035     3.3093716     2.3221956    
H     -2.9885378     1.5309860     2.4309299    
