50

C      3.5126822     0.8408116    -0.0738853    
C      4.3014437     0.2188670    -1.2455352    
C      3.3237512     0.0279716    -2.4155107    
C      2.1641323    -0.8603703    -1.9462866    
C      1.4897187    -0.2061544    -0.7352705    
C      0.3774120    -1.0853117    -0.1484900    
C      2.4574737     2.8872702     0.5184092    
O      3.1568475     2.1328731    -0.4680474    
O      4.8459043    -1.0262720    -0.9099822    
O      3.9026138    -0.5966465    -3.5314098    
O      1.1956127    -1.0194251    -2.9535272    
O      2.4248451     0.0397427     0.3042361    
N     -0.8642683    -0.9975762    -0.8821489    
S     -1.7801514     0.3492145    -0.5034577    
O     -2.8528606     0.4179930    -1.4792961    
O     -0.9539031     1.5469766    -0.4883991    
C     -2.4315263    -0.0706112     1.1113472    
C     -2.2111820     0.7196127     2.2384979    
C     -2.7795638     0.3188731     3.4437426    
C     -3.5490570    -0.8287240     3.5491223    
C     -3.7457425    -1.5936114     2.4065679    
C     -3.1996792    -1.2363348     1.1820554    
C     -1.3730071     1.9587446     2.2351759    
C     -3.4361322    -2.1178471     0.0001796    
C     -4.1576816    -1.2418992     4.8503661    
H      4.1304536     0.8735183     0.8402555    
H      5.0829010     0.9349076    -1.5391952    
H      2.9237641     1.0178104    -2.6863199    
H      2.5849448    -1.8342702    -1.6549869    
H      1.0442482     0.7424941    -1.0684885    
H      0.1806080    -0.7543906     0.8730351    
H      0.7025656    -2.1272931    -0.1276974    
H      2.4607697     3.9109792     0.1543945    
H      2.9703767     2.8190026     1.4806691    
H      1.4274933     2.5345675     0.6190109    
H      5.5259000    -0.9264929    -0.2281077    
H      4.6978672    -0.1192408    -3.8065949    
H      1.6528459    -1.2957657    -3.7636168    
H     -0.7229988    -1.0882684    -1.8810733    
H     -2.6124749     0.9270153     4.3193924    
H     -4.3407716    -2.4916272     2.4689948    
H     -1.5885622     2.5812388     1.3726228    
H     -0.3186671     1.6912198     2.1802844    
H     -1.5397995     2.5268130     3.1448642    
H     -3.6546361    -1.5233439    -0.8812592    
H     -4.2598994    -2.7973023     0.1976221    
H     -2.5409130    -2.6975642    -0.2110165    
H     -3.8860771    -0.5527264     5.6438018    
H     -3.8230926    -2.2409754     5.1193421    
H     -5.2416442    -1.2679012     4.7623366    
