101

N      5.6872307     0.7387447    -5.2006418    
C      4.3758341     1.3372876    -4.8370407    
C      4.4014424     1.5234203    -3.3109076    
O      5.3792772     1.1298626    -2.6871322    
C      3.3188929     0.2999765    -5.2562589    
C      4.1171366    -0.9972115    -5.3804138    
C      5.4417743    -0.5157834    -5.9496180    
N      3.3660087     2.1831778    -2.7824554    
C      3.1061049     2.0571190    -1.3599860    
C      2.8229274     0.5683351    -1.0764424    
O      2.6216616    -0.2164909    -1.9973362    
C      1.9411361     2.9482709    -0.9467621    
C      1.8784402     3.3245050     0.5592838    
O      2.5493656     2.6570038     1.3820143    
O      1.1458757     4.2858185     0.8488225    
N      2.8977630     0.2404454     0.2075685    
C      2.6968459    -1.1063952     0.6972077    
C      1.6236831    -1.0917732     1.7860833    
O      1.7692894    -1.6366650     2.8746559    
C      4.0242318    -1.6769626     1.2300369    
C      5.1185890    -1.4645674     0.2394866    
C      6.0877600    -0.5041981     0.2968986    
C      5.3134760    -2.1573748    -0.9937196    
N      6.8970809    -0.5745323    -0.8004604    
C      6.4367435    -1.5596391    -1.6203983    
C      4.6560185    -3.2112921    -1.6277357    
C      6.9057520    -2.0029202    -2.8513238    
C      5.1236864    -3.6417061    -2.8493749    
C      6.2371472    -3.0481998    -3.4529348    
N      0.5313375    -0.4079879     1.4451214    
C     -0.5252974    -0.0590470     2.3573209    
C     -1.8146620    -0.8049377     2.0038602    
O     -1.9497656    -1.4447445     0.9704271    
C     -0.8212427     1.4414300     2.2117711    
C     -1.4068173     1.7124335     0.7975063    
O     -0.6979781     1.4050885    -0.1860156    
O     -2.5478352     2.2037015     0.7337869    
N     -2.7744014    -0.6916028     2.9349941    
C     -4.1735992    -0.9164138     2.6351469    
C     -4.8543024     0.4543845     2.7044446    
O     -4.5118803     1.2770450     3.5501062    
C     -4.8065014    -1.8795084     3.6558079    
C     -4.1391902    -3.2221505     3.5692688    
C     -4.6693229    -4.2233987     2.7664947    
C     -2.9519224    -3.4636732     4.2484724    
C     -4.0289768    -5.4446157     2.6493972    
C     -2.3064617    -4.6813919     4.1273088    
C     -2.8450578    -5.6757799     3.3288057    
N     -5.8501360     0.6442190     1.8428214    
C     -6.4710324     1.9333024     1.6391039    
C     -7.9340598     1.7021273     1.2356862    
O     -8.4012814     0.5823333     1.0932705    
C     -5.7012334     2.7314802     0.5718046    
C     -5.7016141     2.0454886    -0.7819158    
O     -5.9284439     0.8500654    -0.9339439    
N     -5.4807893     2.8675615    -1.8213645    
N     -8.6541813     2.8150151     1.0744112    
H      6.1112585     0.5353977    -4.2630473    
H      6.3054957     1.3820103    -5.6998020    
H      4.2196843     2.3022889    -5.3184023    
H      2.8743977     0.5758940    -6.2107767    
H      2.5305944     0.2037904    -4.5121898    
H      3.6239329    -1.7227688    -6.0189521    
H      4.2537637    -1.4388662    -4.3927414    
H      6.2526295    -1.2221218    -5.7930611    
H      5.3391485    -0.2850345    -7.0096958    
H      2.5422491     2.3249806    -3.3513344    
H      4.0085912     2.3411772    -0.8068792    
H      0.9808645     2.4622521    -1.1461493    
H      1.9672947     3.8921543    -1.4936169    
H      2.9259991     1.0189308     0.8746411    
H      2.3406847    -1.7007550    -0.1538140    
H      3.8736273    -2.7360632     1.4456926    
H      4.2590985    -1.1682666     2.1671913    
H      6.2541867     0.2255002     1.0667468    
H      7.6246685     0.0834302    -1.0206536    
H      3.7947268    -3.6729617    -1.1650876    
H      7.7743956    -1.5522723    -3.3056776    
H      4.6213294    -4.4538499    -3.3537514    
H      6.5724395    -3.4270326    -4.4060116    
H      0.4330264     0.0437426     0.5368569    
H     -0.1950158    -0.3167754     3.3704784    
H      0.1043917     2.0152098     2.3053503    
H     -1.5409404     1.7906369     2.9526128    
H     -2.6326591    -0.0338003     3.6931125    
H     -4.2272631    -1.3279968     1.6233195    
H     -5.8699502    -1.9594559     3.4301305    
H     -4.6822558    -1.4466135     4.6496309    
H     -5.5880295    -4.0404222     2.2284651    
H     -2.5269942    -2.6888882     4.8696154    
H     -4.4532598    -6.2141816     2.0227752    
H     -1.3783793    -4.8483535     4.6534770    
H     -2.3402590    -6.6250756     3.2343126    
H     -6.0103718    -0.0063512     1.0824748    
H     -6.4230369     2.4685231     2.5940142    
H     -4.6493233     2.7834643     0.8761153    
H     -6.0849183     3.7452880     0.4823001    
H     -5.3118062     2.4411572    -2.7198055    
H     -5.0874828     3.7787585    -1.6547587    
H     -9.6189121     2.7294948     0.7947158    
H     -8.2567637     3.7271444     1.2159292    
