39

C      0.9516175     0.5749273    -0.4668493    
C      0.6702790     1.2833766    -1.6177852    
Cl     1.5622452     2.7112997    -1.9484039    
C     -0.3118526     0.8520695    -2.4946154    
Cl    -0.6708691     1.7488614    -3.9097827    
C     -1.0059634    -0.3150675    -2.2221453    
C     -0.7380821    -1.0096531    -1.0622369    
C      0.2377245    -0.5805987    -0.1608231    
C      0.5814087    -1.4272196     0.9880752    
P      1.8638231    -2.6482090     0.2424744    
O      2.2272581    -3.5845520     1.3901618    
O      1.1522864    -3.3536493    -0.9061392    
O      3.0219283    -1.7655049    -0.2103804    
C      1.2496516    -0.7856168     2.1873056    
C      0.5009932     0.4101373     2.7859856    
N     -0.8404381     0.0763043     3.1985639    
O     -0.8624654    -0.8876701     4.2220103    
C     -1.9713386     0.1361190     2.4631821    
O     -2.9216397    -0.6050588     2.7557736    
C     -2.0748825     1.1777944     1.4196988    
C     -1.5681004     2.4647612     1.5891216    
C     -1.7171609     3.4029981     0.5843724    
C     -2.3834986     3.0759336    -0.5853917    
C     -2.9334209     1.8146985    -0.7361892    
C     -2.7870446     0.8720127     0.2642117    
H      1.7635787     0.8967046     0.1663261    
H     -1.7505558    -0.6699784    -2.9168526    
H     -1.2602071    -1.9311986    -0.8519360    
H     -0.2729985    -2.0493155     1.2840450    
H      2.2539303    -0.4771869     1.8832874    
H      1.3812171    -1.5729300     2.9343045    
H      0.4334793     1.2046139     2.0467302    
H      1.0366898     0.7568222     3.6730100    
H     -1.7567720    -1.2939921     4.1483749    
H     -1.0848460     2.7341800     2.5154181    
H     -1.3108610     4.3930221     0.7161704    
H     -2.4821931     3.8040118    -1.3746698    
H     -3.4733078     1.5597111    -1.6344730    
H     -3.2082548    -0.1173748     0.1636006    
