66

O      0.9468069     4.9767218     1.1283502    
B      0.1659782    -2.5345686     1.9402656    
P     -0.0021912     4.3344247     0.1250856    
N      2.5664597     2.8268154    -4.4703909    
O      1.0541234    -3.5550158     2.5418886    
C      1.6061937     1.9214673    -4.4083374    
N      1.2613437     1.1339726    -3.4035276    
C      2.0053766     1.3535796    -2.3171214    
C      3.0948819     2.2359127    -2.2553189    
C      3.3496189     3.0150768    -3.3952410    
N      4.3876288     3.8678858    -3.4997319    
N      3.6813236     2.1566941    -1.0128941    
C      2.9596203     1.2943371    -0.3667587    
N      1.9524051     0.7278212    -1.1009594    
C      0.8869757    -0.1566222    -0.6778452    
C      0.3884002    -4.7961752     2.5967308    
C     -1.1020435    -4.5145770     2.4589474    
C     -1.2852906    -3.2569342     2.0264315    
C     -2.0428687    -5.5706764     2.7865716    
C     -3.2694817    -5.4028657     3.2692460    
C     -2.6027761    -2.6112380     1.7666266    
C      0.9008840    -5.6956836     1.4510528    
N      0.6343824    -5.0394364     0.1534459    
O     -2.5143160    -1.6825446     0.6952716    
O     -1.1800070     5.1889714    -0.2827911    
C      1.3226386    -1.0582045     0.4852905    
O      0.6749315    -2.2713573     0.4921767    
C     -3.7245017    -0.9927494     0.4952169    
C     -3.6276251    -0.0826015    -0.7224781    
C     -3.2189004    -0.8562674    -1.9755436    
O     -3.6500507    -0.1490941    -3.1223997    
C      0.8361657    -0.2933673     1.7380866    
O      0.2956573    -1.2084496     2.6081060    
C     -0.1937268     0.7195308     1.1714120    
O     -0.2541844     0.5293428    -0.2335124    
C      0.1626209     2.1619173     1.5386196    
O     -0.7624010     3.0666064     1.0193402    
O      0.7223314     3.6509906    -1.0235006    
H      1.0254297     1.7985134    -5.3126855    
H      4.8011711     4.1662190    -2.6313890    
H      4.3462143     4.5211086    -4.2660746    
H      3.1464914     1.0170596     0.6522785    
H      0.5763023    -0.7126444    -1.5701376    
H     -2.9219024    -2.0761340     2.6797486    
H     -3.3774771    -3.3591180     1.5181560    
H      0.4099846    -6.6669124     1.4848053    
H      1.9763785    -5.8086486     1.5772936    
H      1.1384574    -5.4925569    -0.6135072    
H      0.9063931    -4.0322095     0.2182482    
H     -0.3721601    -5.0230338    -0.0382384    
H     -3.9693998    -0.3887425     1.3857427    
H     -4.5353504    -1.7271647     0.3437362    
H     -2.9006572     0.7139605    -0.5409233    
H     -4.6004209     0.3800224    -0.8974786    
H     -3.6985865    -1.8462146    -1.9664636    
H     -2.1330679    -0.9820736    -1.9623991    
H     -3.0845585    -0.3737782    -3.8727291    
H      1.6455701     0.2671334     2.2361484    
H     -1.1994716     0.5052811     1.5512203    
H      1.1593463     2.4211974     1.1512206    
H      0.1860026     2.2635861     2.6354677    
H      2.4166526    -1.1975337     0.4830407    
H      0.6186886    -5.2703792     3.5589155    
H     -3.9008648    -6.2448969     3.4951639    
H     -3.6699042    -4.4280748     3.4853598    
H     -1.6696601    -6.5780075     2.6540095    
