126

C     -5.0700930     1.7593518    -0.0887501    
C     -4.7589222     3.2390379    -0.3781954    
C     -3.3770185     3.5619699     0.1993722    
C     -3.2863981     3.1627744     1.6842486    
C     -3.7901402     1.7259105     1.8994512    
C     -3.9545063     1.3896173     3.3897619    
O     -4.1123455     0.9844721    -0.7477539    
O     -4.8018706     3.4304327    -1.7670555    
O     -3.0314324     4.9105522     0.0095982    
O     -5.0690569     1.5352709     1.2947113    
O     -4.5602736     0.1410408     3.5815122    
C     -3.5195859    -2.3722565    -3.0284235    
C     -4.1910989    -1.2017458    -3.7672591    
C     -4.0314663     0.0725085    -2.9337922    
C     -4.5220276    -0.1531943    -1.4926681    
C     -3.8942930    -1.4258517    -0.8976466    
C     -4.5009187    -1.7963736     0.4551352    
O     -2.1484096    -2.1071245    -2.9575807    
O     -3.5868004    -1.0795740    -5.0264029    
O     -4.7602001     1.0888549    -3.5755696    
O     -4.0940670    -2.5387866    -1.7627730    
O     -3.6632043    -2.7373220     1.0825943    
C      1.5516950    -3.9088482    -3.1890443    
C      0.9319228    -3.4909363    -4.5346108    
C     -0.2443707    -2.5429441    -4.2799085    
C     -1.2265360    -3.1436489    -3.2597144    
C     -0.4720537    -3.6124723    -2.0047019    
C     -1.3532019    -4.3679723    -1.0116278    
O      2.1212426    -2.7741122    -2.6057148    
O      1.9338684    -2.8839105    -5.3038614    
O     -0.8720312    -2.3043216    -5.5153083    
O      0.5777788    -4.5000781    -2.3743333    
O     -0.6412369    -4.4778767     0.1990364    
C      5.1218085    -1.5758046    -0.1113126    
C      5.4624769    -1.4820798    -1.6129435    
C      4.1537250    -1.6178443    -2.4052206    
C      3.3932501    -2.8874402    -1.9792798    
C      3.2556567    -3.0084224    -0.4526431    
C      2.8050658    -4.4123208    -0.0229905    
O      4.3031930    -0.4817784     0.2064178    
O      6.1652115    -0.3064276    -1.8867819    
O      4.4511871    -1.6663844    -3.7766588    
O      4.5072137    -2.7930864     0.1994587    
O      3.7012958    -5.4034714    -0.4546262    
C      3.4811805     2.2048998     3.1982068    
C      4.5790206     2.6387831     2.2094086    
C      4.4522280     1.7497803     0.9638019    
C      4.5849910     0.2765210     1.3706432    
C      3.6122348    -0.0736919     2.5128911    
C      3.9505248    -1.4368655     3.1323932    
O      2.2343427     2.3926283     2.5804364    
O      4.5162507     3.9981755     1.8874217    
O      5.4492340     2.0309420     0.0144416    
O      3.6720311     0.8726680     3.5808022    
O      2.9932772    -1.8594334     4.0653918    
C     -1.5240273     3.9373825     3.1908026    
C     -0.4525837     4.9706335     2.7869898    
C      0.7501444     4.2059738     2.2177030    
C      1.2430192     3.1671054     3.2335664    
C      0.0821518     2.2747873     3.7064818    
C      0.5098857     1.3887512     4.8845075    
O     -1.9128037     3.2757823     2.0160519    
O     -0.9500099     5.9031137     1.8704287    
O      1.8205908     5.0699424     1.9237981    
O     -1.0260424     3.0536183     4.1532214    
O     -0.5388509     0.5954727     5.3678569    
H     -6.0860982     1.5150066    -0.4232169    
H     -5.5264049     3.8521834     0.1202829    
H     -2.6275221     2.9815300    -0.3482991    
H     -3.8851335     3.8553980     2.2923623    
H     -3.0701281     1.0356516     1.4403855    
H     -4.5416385     2.1794306     3.8742552    
H     -2.9675308     1.3339821     3.8524368    
H     -4.3726440     4.2753467    -1.9806552    
H     -3.6867108     5.4879945     0.4326716    
H     -5.4721150     0.1938671     3.2595198    
H     -3.7152116    -3.3107427    -3.5624542    
H     -5.2630328    -1.4245782    -3.8697967    
H     -2.9619332     0.3251142    -2.8869757    
H     -5.6155602    -0.2440651    -1.4942430    
H     -2.8164578    -1.2546583    -0.7713292    
H     -5.4959297    -2.2234797     0.2753246    
H     -4.5876895    -0.8910839     1.0636801    
H     -3.9363095    -0.2789451    -5.4505014    
H     -4.7299069     1.9035928    -3.0405048    
H     -3.9721756    -2.8740090     1.9896893    
H      2.3059179    -4.6899175    -3.3500024    
H      0.5497944    -4.3941758    -5.0325263    
H      0.1477417    -1.6065772    -3.8555456    
H     -1.7426270    -3.9980043    -3.7164941    
H     -0.0437356    -2.7351083    -1.5012690    
H     -1.5629042    -5.3592205    -1.4317092    
H     -2.2902307    -3.8217501    -0.8591006    
H      1.5238520    -2.5434342    -6.1153211    
H     -1.7079003    -1.8244455    -5.3689685    
H     -1.1783949    -4.9718175     0.8340919    
H      6.0474687    -1.5595896     0.4789234    
H      6.1281622    -2.3037535    -1.8943873    
H      3.5141433    -0.7504210    -2.1800953    
H      3.9279751    -3.7674698    -2.3611894    
H      2.5258258    -2.2647564    -0.1076696    
H      1.8358445    -4.6430536    -0.4659717    
H      2.7054311    -4.4221055     1.0684078    
H      5.7183859     0.4506755    -1.4674305    
H      3.6499757    -1.9271043    -4.2640285    
H      4.5540151    -5.2488560    -0.0216816    
H      3.5552996     2.7849709     4.1267681    
H      5.5591982     2.4739647     2.6707818    
H      3.4559325     1.8965049     0.5200592    
H      5.6193041     0.0992074     1.6942108    
H      2.5930355    -0.0929481     2.1036958    
H      4.9419874    -1.3673426     3.5964832    
H      3.9709511    -2.1931202     2.3461999    
H      3.5877720     4.2814239     1.7743634    
H      5.5631154     2.9945177    -0.0310757    
H      3.0152431    -1.2611693     4.8257541    
H     -2.3751473     4.4364076     3.6712234    
H     -0.1416016     5.5370984     3.6704176    
H      0.4351078     3.6722022     1.3082233    
H      1.6770024     3.6971101     4.0913382    
H     -0.2376322     1.6438874     2.8667414    
H      0.9124941     2.0272146     5.6805573    
H      1.2880191     0.7047302     4.5416590    
H     -1.3946091     5.4381076     1.1341044    
H      1.4667384     5.8660155     1.4948313    
H     -1.2037547     1.1740726     5.7682225    
