60

N      3.5373031    -1.8089249    -0.3762838    
C      2.2390444    -2.0047824     0.3123431    
C      1.1813275    -1.4747400    -0.6720457    
O      1.5564387    -0.7185273    -1.5729518    
C      2.1645226    -1.1647999     1.6007123    
C      2.4416808    -1.9725451     2.8705885    
C      3.8682853    -2.5264588     2.9180009    
C      4.1106669    -3.4143226     4.1337473    
N      4.0621017    -2.6326222     5.3943672    
N     -0.0743245    -1.8608726    -0.5072863    
C     -1.1288528    -1.1928930    -1.2488865    
C     -1.2124764     0.2566535    -0.7470759    
O     -0.6200518     0.6187557     0.2608517    
C     -2.3889199    -1.9870364    -0.9008520    
C     -2.1013115    -2.4530835     0.5258125    
C     -0.6058781    -2.7686751     0.4991809    
N     -1.9580150     1.0566794    -1.5090830    
C     -2.2672443     2.4253286    -1.1655591    
C     -3.7916150     2.5834910    -1.1837674    
O     -4.5035043     1.7639302    -1.7546056    
C     -1.6415542     3.4000523    -2.1772904    
C     -0.1173382     3.2678585    -2.2957401    
C      0.3773687     4.1880301    -3.4107571    
C      0.5849614     3.6020748    -0.9818992    
N     -4.2637560     3.6577180    -0.5525677    
H      3.8707917    -2.6522445    -0.8534274    
H      3.3155235    -1.0930784    -1.1115879    
H      4.2703671    -1.4483382     0.2418999    
H      2.0662247    -3.0607833     0.5215036    
H      1.1788366    -0.7018702     1.6722348    
H      2.8679835    -0.3352536     1.5250188    
H      1.7287556    -2.7949839     2.9405313    
H      2.2610935    -1.3012450     3.7095048    
H      4.5848502    -1.7048283     2.9161805    
H      4.0510261    -3.1452426     2.0416729    
H      5.0917543    -3.8824333     4.0537563    
H      3.3563400    -4.2004061     4.1776840    
H      4.2497461    -3.2354946     6.2030231    
H      4.7660847    -1.8855359     5.3774243    
H      3.1362490    -2.2077460     5.5166891    
H     -0.8990260    -1.1824343    -2.3176644    
H     -2.4867469    -2.8390851    -1.5735657    
H     -3.2901029    -1.3812796    -0.9740149    
H     -2.7025067    -3.3122635     0.8101470    
H     -2.3014280    -1.6382639     1.2222931    
H     -0.1514780    -2.5982570     1.4719278    
H     -0.4356250    -3.8001292     0.1778023    
H     -2.5038234     0.6782235    -2.2717657    
H     -1.8796820     2.6088964    -0.1600723    
H     -1.8901760     4.4211926    -1.8866226    
H     -2.0931834     3.2125413    -3.1548005    
H      0.1265541     2.2347688    -2.5654958    
H     -0.1138887     3.9551397    -4.3532050    
H      0.1702258     5.2277166    -3.1663858    
H      1.4497476     4.0771982    -3.5500335    
H      0.2851295     4.5854647    -0.6270816    
H      0.3540574     2.8618145    -0.2207695    
H      1.6611252     3.6084970    -1.1323617    
H     -5.2555575     3.8373704    -0.5623739    
H     -3.6523620     4.3122129    -0.0951631    
