33

C      3.9653751     2.4677321    -1.4477463    
C      3.8381019     0.4246714    -0.0278770    
N     -1.8342650     0.0023166     2.8041733    
C     -1.8876083    -0.4307798     1.3910490    
C     -0.6150934    -1.1880730     1.0058377    
C     -0.5428233    -1.4809510    -0.4951763    
C     -0.0808258    -0.2784412    -1.3131940    
N      1.2955975     0.0381198    -0.9733003    
C      1.9377155     1.1512903    -1.3391057    
N      1.3018306     2.0834533    -2.0487464    
N      3.1995020     1.3407032    -0.9528679    
C     -3.1654738    -1.3661186     1.2953254    
O     -3.5152724    -1.7619203     0.1815119    
O     -3.6940771    -1.5958469     2.4071616    
H      3.8221789     2.5901713    -2.5201722    
H      3.6980865     3.3906151    -0.9312971    
H      5.0213603     2.2782000    -1.2789752    
H      3.1819459     0.2099206     0.8143132    
H      4.1243117    -0.5093190    -0.5171229    
H      4.7372927     0.8895903     0.3634789    
H     -0.9614337    -0.2594122     3.2678064    
H     -2.0238684     0.9965840     2.9391727    
H     -2.6396593    -0.5785564     3.2063354    
H     -2.0544960     0.4145131     0.7240522    
H     -0.5961248    -2.1340150     1.5495071    
H      0.2525838    -0.5936805     1.2975708    
H     -1.5325116    -1.7890815    -0.8348641    
H      0.1344619    -2.3172733    -0.6709974    
H     -0.7163311     0.5804846    -1.0916473    
H     -0.1775725    -0.5215944    -2.3766880    
H      1.8452728    -0.7455027    -0.6567957    
H      0.3875676     1.9037270    -2.4211994    
H      1.7200884     2.9765126    -2.2289396    
