50

C     -2.8754551    -0.0412768    -4.8122450    
C     -2.3862801     0.4675415    -3.4875725    
O     -2.6761218     1.5845927    -3.0847713    
C     -1.5325102    -0.4346410    -2.6784303    
C     -0.9385399     0.0996116    -1.5333997    
C     -1.3063474    -1.7711776    -3.0034035    
C     -0.5169770    -2.5523673    -2.1777919    
C      0.0684224    -2.0131379    -1.0461229    
C     -0.1149345    -0.6684192    -0.7258975    
C      0.4881272    -0.1264984     0.5462874    
C      0.5952043     1.3843642     0.6126341    
C      1.1054699     2.0724283    -0.4845325    
C      1.2696853     3.4432955    -0.4385148    
C      0.9399831     4.1480693     0.7077587    
C      0.4602359     3.4680416     1.8112431    
C      0.2935774     2.0943663     1.7654756    
S     -0.6009248    -0.7854512     1.8759207    
C     -2.2560957    -0.1263452     1.3845395    
C     -3.2200681    -0.3328008     2.5401518    
N     -3.3083345    -1.7697927     2.8804641    
C      1.8972817    -0.6347298     0.7972534    
C      2.7687648    -0.8155140    -0.2709768    
C      4.0781526    -1.2000721    -0.0492184    
C      4.5378715    -1.4062587     1.2401764    
C      3.6777813    -1.2219345     2.3080904    
C      2.3686879    -0.8328920     2.0882320    
H     -3.5129494    -0.9090981    -4.6653230    
H     -3.4431188     0.7392672    -5.3104123    
H     -2.0344654    -0.3325011    -5.4349495    
H     -1.1386156     1.1372897    -1.3075258    
H     -1.7495162    -2.2086510    -3.8818920    
H     -0.3549970    -3.5915622    -2.4170606    
H      0.6719978    -2.6355908    -0.4019033    
H      1.3796823     1.5363031    -1.3813320    
H      1.6591273     3.9629210    -1.3013770    
H      1.0674509     5.2196977     0.7382363    
H      0.2182328     4.0060876     2.7144883    
H     -0.0664300     1.5805441     2.6439076    
H     -2.5791911    -0.6469818     0.4845850    
H     -2.1407016     0.9325939     1.1637767    
H     -4.2034031     0.0454112     2.2583719    
H     -2.8632812     0.2149757     3.4116916    
H     -3.9118875    -1.9176785     3.6963935    
H     -3.6714246    -2.3101984     2.0874235    
H     -2.3610598    -2.1141776     3.0899019    
H      2.4291147    -0.6598436    -1.2844132    
H      4.7429682    -1.3371046    -0.8889254    
H      5.5609130    -1.7058948     1.4089426    
H      4.0266679    -1.3766161     3.3171617    
H      1.7138650    -0.6871196     2.9340602    
