106

C     -2.3160070     2.0657326    -0.3034599    
O     -2.4529018     1.1202481     0.4642346    
C     -1.0804946     2.3694383    -1.1490314    
C     -1.2967144     3.8542851    -1.5363391    
C     -2.8166792     4.0356676    -1.4559793    
N     -3.2406865     3.0060321    -0.5332541    
C     -4.5139912     3.0127156     0.1321631    
C     -4.8508345     4.2777254     0.8759875    
C     -6.2291740     4.4844076     0.8484110    
C     -6.9056870     3.3923440     0.0700608    
C     -5.7610866     2.8084595    -0.7811102    
O     -5.6556413     3.4603125    -2.0216988    
C     -6.7829983     5.5769739     1.4849499    
C     -5.9396545     6.4616478     2.1449398    
C     -4.5703687     6.2537138     2.1681161    
C     -4.0103002     5.1521694     1.5340018    
O     -0.7318968     4.7685021    -0.6221449    
C      1.4914121     2.2289598    -1.0847159    
C      2.6884885     2.0636024    -0.1521350    
C      0.1784087     2.1120787    -0.3114936    
C     -1.0977210     1.4406676    -2.3850179    
C     -2.4256397     1.3700038    -3.0849857    
C     -2.6902647     2.1600836    -4.1975595    
C     -3.9177077     2.1010662    -4.8339285    
C     -4.8982183     1.2429334    -4.3691073    
C     -4.6400568     0.4390069    -3.2720907    
C     -3.4129328     0.5007172    -2.6365263    
C      3.4212941    -4.7601502     3.6010537    
C      3.4770773    -3.3689685     3.1270506    
C      4.7014129    -2.7693567     2.8471337    
C      4.7547456    -1.4775334     2.3601789    
C      3.5905092    -0.7527944     2.1486411    
C      2.3677767    -1.3353590     2.4602892    
C      2.3121732    -2.6291144     2.9398061    
C      3.6376640     0.6291551     1.5578679    
N      2.6739588     0.7486226     0.4718615    
N      2.8876286    -0.2610732    -0.4801042    
C      1.9839771    -1.2314512    -0.6993084    
C      2.5592512    -2.3359315    -1.6134661    
N      3.4667305    -3.1459845    -0.8223945    
C      4.7639775    -2.8505249    -0.6714710    
O      5.4100290    -3.7998527     0.0243924    
C      6.8190826    -3.6244191     0.1771972    
O      5.3043764    -1.8530019    -1.1249461    
C      1.5134925    -3.2154069    -2.3346620    
C      0.5638194    -2.3029628    -3.1157421    
C      2.2525614    -4.1318959    -3.3162457    
C      0.7080865    -4.0612461    -1.3453223    
O      0.8591909    -1.2318413    -0.2326911    
C      2.6041966    -5.1197634     4.6693349    
C      2.5648685    -6.4296927     5.1125383    
C      3.3310384    -7.3994673     4.4871609    
C      4.1376801    -7.0533827     3.4142736    
C      4.1869582    -5.7427689     2.9764518    
H     -0.9277477     4.0595376    -2.5475807    
H     -3.2956474     3.8956993    -2.4273572    
H     -3.0531758     5.0235114    -1.0551891    
H     -4.4695893     2.1727499     0.8405458    
H     -7.7239947     3.7479334    -0.5555428    
H     -7.2951412     2.6322172     0.7495036    
H     -5.8983122     1.7535286    -1.0286134    
H     -5.6979768     4.4154526    -1.8691570    
H     -7.8492178     5.7432114     1.4688105    
H     -6.3569055     7.3225945     2.6446958    
H     -3.9305903     6.9528572     2.6846372    
H     -2.9435194     4.9838265     1.5500375    
H      0.2262364     4.8040576    -0.7374811    
H      1.5364336     1.4514831    -1.8473269    
H      1.5678577     3.1969877    -1.5818233    
H      2.6346816     2.7958201     0.6541828    
H      3.6258974     2.2241487    -0.7114504    
H      0.1011809     1.1034537     0.1005463    
H      0.1799358     2.8054683     0.5322621    
H     -0.8276160     0.4431727    -2.0307186    
H     -0.3374831     1.7816294    -3.0892052    
H     -1.9262857     2.8270612    -4.5714042    
H     -4.1088554     2.7263351    -5.6928682    
H     -5.8582905     1.1983405    -4.8598181    
H     -5.3968004    -0.2421336    -2.9103941    
H     -3.2150689    -0.1262465    -1.7781129    
H      5.6139035    -3.3194029     3.0201946    
H      5.7110542    -1.0240456     2.1384286    
H      1.4586860    -0.7777546     2.2941920    
H      1.3534111    -3.0804873     3.1493291    
H      4.6622918     0.8487442     1.2094179    
H      3.3595454     1.3674660     2.3143098    
H      3.8343429    -0.3746126    -0.8498711    
H      3.1754452    -1.8375259    -2.3726661    
H      3.0882333    -3.9269558    -0.3093612    
H      7.1416662    -4.4134411     0.8502044    
H      7.0342225    -2.6415524     0.5973382    
H      7.3152204    -3.7159118    -0.7902849    
H     -0.1074818    -2.9011640    -3.7254729    
H      1.1178308    -1.6323006    -3.7681090    
H     -0.0355941    -1.7093882    -2.4311637    
H      2.9893379    -4.7409670    -2.7995193    
H      2.7638830    -3.5453491    -4.0756989    
H      1.5446365    -4.7914837    -3.8094598    
H      0.3005727    -3.4330536    -0.5580594    
H      1.3155771    -4.8448521    -0.8995480    
H     -0.1190855    -4.5375143    -1.8652077    
H      2.0138337    -4.3624459     5.1642740    
H      1.9343386    -6.6944797     5.9488554    
H      3.2962537    -8.4223215     4.8316427    
H      4.7291882    -7.8084976     2.9184830    
H      4.8017616    -5.4729056     2.1300054    
