79

C      2.3340460    -3.8665993     3.7471165    
O      1.7444387    -2.6471988     4.1794146    
C      1.7778839    -1.5745827     3.3591112    
C      2.3752846    -1.5661232     2.1072079    
C      2.3249922    -0.4274611     1.3018931    
O      2.8135526    -0.3586785     0.0476955    
C      3.6933285    -1.3924985    -0.3898409    
C      1.7152818     0.7132553     1.8111227    
C      1.1410813     0.7262886     3.0669922    
C      1.1418406    -0.4124648     3.8495629    
N      0.5348564    -0.4787760     5.1065113    
C     -0.4950350     0.2758410     5.5599761    
O     -1.0379535     1.1509702     4.8965665    
C     -0.8959929    -0.0477654     6.9776518    
C      0.1050163     0.5552879     7.9634131    
C      0.0007027    -0.1143560     9.3709662    
O      0.2524191     0.6164332     10.3487911    
O     -0.2928473    -1.3239102     9.4070668    
S      1.5919451     2.1817907     0.8181190    
O      1.1135409     3.2551474     1.6680634    
O      2.8401612     2.4575978     0.1367724    
N      0.4500903     1.9469834    -0.3443423    
C     -0.8383852     1.5079737     0.1761152    
C     -0.9063286     0.0112567     0.3529254    
C     -1.2950689    -0.5118736     1.5772385    
C     -1.2425927    -1.8722028     1.8293263    
C     -0.7820819    -2.7266189     0.8445433    
C     -0.4195393    -2.2274144    -0.3922169    
C     -0.4948157    -0.8628712    -0.6710923    
N     -0.1022525    -0.3367009    -1.9135854    
C      0.8470227    -1.0881440    -2.7113682    
C      1.5593364    -0.1210015    -3.6573034    
C      0.5710068     0.6085801    -4.5712447    
C      0.0142027    -0.3311456    -5.6496391    
O     -0.8359393     0.3893026    -6.5459267    
C     -2.1108015    -0.0443234    -6.6856019    
O     -2.6457535    -0.7820064    -5.8606465    
C     -2.8950654     0.9052402    -7.5866691    
C     -3.6731355     0.0650167    -8.5858558    
C     -2.7477781    -1.0963990    -8.9956641    
O     -2.9915877    -1.7534876    -10.0144330    
O     -1.7757920    -1.2964118    -8.2136009    
C     -0.5422090     1.2340315    -3.7245811    
C     -1.1469627     0.2189142    -2.7596262    
H      2.1616017    -4.5639379     4.5634354    
H      3.4062964    -3.7455735     3.5845505    
H      1.8488885    -4.2288903     2.8393217    
H      2.8502759    -2.4574306     1.7385575    
H      4.0522181    -1.0619321    -1.3612844    
H      3.1636952    -2.3427822    -0.4894871    
H      4.5340846    -1.4996363     0.2974140    
H      0.6811481     1.6364499     3.4118944    
H      0.8303272    -1.2594629     5.6805241    
H     -0.9200988    -1.1258954     7.1542803    
H     -1.8872102     0.3643329     7.1699808    
H     -0.0353275     1.6301107     8.0828179    
H      1.1304773     0.3834112     7.6260907    
H      0.7629145     1.3159023    -1.0819018    
H     -1.6121335     1.8801079    -0.5014561    
H     -0.9678383     2.0064092     1.1395605    
H     -1.6139837     0.1640919     2.3581326    
H     -1.5413680    -2.2503391     2.7946997    
H     -0.7217363    -3.7877696     1.0322922    
H     -0.0947234    -2.9087013    -1.1624126    
H      0.3543090    -1.8809550    -3.2951845    
H      1.5782196    -1.5395178    -2.0437344    
H      2.2835060    -0.6696560    -4.2594166    
H      2.0909160     0.6197625    -3.0562463    
H      1.0923850     1.4100836    -5.1035404    
H     -0.5734579    -1.1504762    -5.2274796    
H      0.8249276    -0.7497872    -6.2542486    
H     -2.1790753     1.5531036    -8.0902902    
H     -3.5591219     1.4947856    -6.9546353    
H     -3.9887612     0.6212235    -9.4665938    
H     -4.5487755    -0.3870624    -8.1156029    
H     -1.3265490     1.6154498    -4.3809254    
H     -0.1298378     2.0659843    -3.1517046    
H     -1.9097929     0.6943996    -2.1456455    
H     -1.6467005    -0.5794544    -3.3335537    
