55

C     -6.5337332     3.5370777     1.9393387    
N     -5.8860446     3.7184139     3.2501093    
C     -6.1539521     2.5582631     4.1170850    
C     -4.4407551     4.0499389     3.1472402    
C     -3.6040585     3.0693513     2.3208952    
N     -3.4999397     1.7663831     2.9558162    
S     -3.6999450     0.4367672     1.9965910    
O     -3.6094163    -0.7084508     2.8736904    
O     -4.9565901     0.6369744     1.3038267    
C     -2.3653790     0.4172941     0.8168358    
C     -2.5941348     0.7910245    -0.4932749    
C     -1.5419292     0.7908272    -1.3913792    
C     -0.2610038     0.4233211    -0.9744088    
C     -0.0583993     0.0428148     0.3559210    
C     -1.1086378     0.0391110     1.2522463    
C      0.8715028     0.4138455    -1.9020575    
C      0.9239286     1.1853854    -3.0723248    
N      1.9479908     1.1604318    -3.8940617    
C      2.9909627     0.3578286    -3.6005722    
C      2.9591312    -0.4081021    -2.3961137    
N      1.9134779    -0.3583434    -1.5879945    
C      4.0847347    -1.2848271    -1.9912917    
O      5.1182333    -1.3861754    -2.6531953    
N      3.8346540    -1.9349407    -0.8329547    
C      4.6319751    -2.8238453    -0.1227824    
C      4.1319142    -3.3669389     1.0623413    
C      4.9197103    -4.2466191     1.7795263    
C      6.1811384    -4.5553762     1.2894816    
N      6.6631406    -4.0474298     0.1660059    
C      5.9148645    -3.2061056    -0.5235426    
N      4.0091250     0.3255627    -4.4523853    
H     -7.6132230     3.5193459     2.0650805    
H     -6.2290052     2.5869362     1.5028908    
H     -6.2707022     4.3517535     1.2698971    
H     -6.3229493     4.5340110     3.6973830    
H     -5.6858110     2.6937981     5.0876510    
H     -5.7610399     1.6543579     3.6576240    
H     -7.2264136     2.4433522     4.2526652    
H     -4.0326509     4.1034441     4.1570152    
H     -4.3504689     5.0296082     2.6751350    
H     -2.6175756     3.5143033     2.1671877    
H     -4.0569812     2.9005012     1.3448025    
H     -2.7583733     1.6562781     3.6275344    
H     -3.5933327     1.0545426    -0.8004811    
H     -1.7241387     1.0554519    -2.4201575    
H      0.9323710    -0.2412614     0.6694388    
H     -0.9732693    -0.2700172     2.2762439    
H      0.1319473     1.8670035    -3.3457219    
H      2.9137332    -1.7303437    -0.4475384    
H      3.1439084    -3.0996560     1.4056144    
H      4.5671063    -4.6852826     2.6986624    
H      6.8382803    -5.2362410     1.8114144    
H      6.3504015    -2.8185288    -1.4321961    
H      4.8075994    -0.2534275    -4.2275349    
H      3.9724542     0.8953174    -5.2808072    
