46

O      1.8525004     4.3258312    -5.8284907    
C      2.3177617     4.2354814    -4.6779138    
O      1.8598145     4.7148692    -3.6292933    
C      3.6454176     3.4058476    -4.5609958    
O      4.0457686     3.1757199    -3.2309710    
C      3.2294204     2.4764667    -2.4070141    
C      2.0920447     1.7712429    -2.7990705    
C      1.3634622     1.0585306    -1.8700184    
C      3.6188686     2.4323669    -1.0624337    
C      2.8947902     1.7141210    -0.1428694    
C      1.7456973     1.0123328    -0.5285797    
C      0.9898648     0.2581578     0.4508627    
N      1.5826402    -0.2965049     1.5597348    
C      0.6626079    -0.9186008     2.3067177    
C      0.7696926    -1.6425606     3.4945851    
C     -0.3732304    -2.1470352     4.0609980    
C     -0.3697280    -0.0280957     0.5230210    
N     -0.5585348    -0.7344009     1.6954810    
C     -1.7033247    -1.1789713     2.2794523    
C     -1.6157472    -1.8872639     3.4452225    
Br    -3.2261036    -2.5212748     4.2665216    
N     -1.4213489     0.3893301    -0.2451144    
C     -2.3026582    -0.5731702    -0.9005004    
C     -1.7348816    -1.1167502    -2.2147805    
C     -2.6730979    -2.1461287    -2.8422170    
C     -2.1063570    -2.6975789    -4.1451924    
H      4.4451190     3.9940223    -5.0157450    
H      3.5298093     2.4715216    -5.1234753    
H      1.7627858     1.8022621    -3.8263593    
H      0.5069326     0.5013214    -2.2106646    
H      4.4956727     2.9891620    -0.7749825    
H      3.2056334     1.7358680     0.8890464    
H      2.5757302    -0.2699020     1.7462335    
H      1.7333668    -1.7918933     3.9498076    
H     -0.3372294    -2.7176833     4.9735156    
H     -2.6401984    -0.9195506     1.8158044    
H     -1.1617717     1.1470188    -0.8662539    
H     -3.2504006    -0.0668580    -1.0936543    
H     -2.4851525    -1.4127719    -0.2303190    
H     -0.7646217    -1.5845533    -2.0286264    
H     -1.5877496    -0.2944679    -2.9206299    
H     -3.6411605    -1.6816296    -3.0387695    
H     -2.8318477    -2.9692720    -2.1428608    
H     -2.7832329    -3.4319909    -4.5739036    
H     -1.1445125    -3.1759305    -3.9744805    
H     -1.9647846    -1.8991526    -4.8709029    
