69

C      2.7581571     0.5594641     0.4874654    
C      3.6795809    -0.6200955     0.1460302    
C      4.8458761    -0.7251486     1.1372511    
C      4.3432462    -1.0261841     2.5212888    
C      3.8510430    -2.2904294     2.8262157    
C      4.3154029    -0.0460090     3.5051826    
C      3.3455621    -2.5698874     4.0830946    
C      3.8121633    -0.3222733     4.7653634    
C      3.3238050    -1.5848193     5.0574362    
C      1.5129575     0.4395060    -0.3576999    
O      1.4791772     0.9075954    -1.5024823    
C     -1.3371486     0.5329759    -1.3240282    
O     -1.4625565     1.5201751    -0.5924476    
C     -0.5095858    -0.6751451    -0.8988604    
C     -1.3204593    -1.8012675    -0.2506454    
C     -0.4459293    -2.2498783     0.9227870    
C      0.3185284    -0.9918311     1.3623459    
C     -0.3785880    -0.1843355     2.5017499    
C     -0.1561170    -0.9493866     3.8113876    
C     -1.8806029     0.0043543     2.2826935    
C      0.2449118     1.2069508     2.6400029    
N      0.4830153    -0.2906854     0.0952078    
C     -4.1182310     1.6344029    -2.5591457    
O     -4.2077724     1.4922470    -1.1563818    
C     -4.8319813     2.9318058    -3.0087989    
O     -5.3131082     2.8794182    -4.3292197    
C     -2.6598908     1.6051347    -3.0572966    
C     -2.5540954     1.4030151    -4.5672356    
C     -2.5789480    -0.1174542    -4.7091300    
C     -1.7667311    -0.5936327    -3.5043489    
N     -1.9354805     0.4583595    -2.5132352    
H      3.2516239     1.4985530     0.2339732    
H      2.5290573     0.5508871     1.5475009    
H      4.0611168    -0.4931389    -0.8684831    
H      3.1048658    -1.5487344     0.1734061    
H      5.4052460     0.2108596     1.1369811    
H      5.5110041    -1.5248674     0.8064816    
H      3.8699948    -3.0642287     2.0722363    
H      4.6945395     0.9417161     3.2833045    
H      2.9645190    -3.5552046     4.3052680    
H      3.7970888     0.4502750     5.5201301    
H      2.9282433    -1.8001961     6.0385460    
H      0.0414340    -1.0257671    -1.7801283    
H     -1.4951962    -2.6143325    -0.9514139    
H     -2.2826553    -1.4230151     0.0869745    
H      0.2717009    -2.9940417     0.5759613    
H     -1.0290873    -2.6860293     1.7275250    
H      1.3068651    -1.2661807     1.7422961    
H     -0.6178732    -1.9322542     3.7795437    
H      0.9060488    -1.0742692     4.0114161    
H     -0.5957340    -0.3948717     4.6364304    
H     -2.0612251     0.5581824     1.3663716    
H     -2.4098928    -0.9425434     2.2513676    
H     -2.2933058     0.5837851     3.1054699    
H      1.2688996     1.1483305     3.0019493    
H      0.2259008     1.7337839     1.6875982    
H     -0.3254985     1.7924538     3.3566218    
H     -4.6649646     0.7749996    -2.9657677    
H     -3.4538561     1.9428074    -0.7435150    
H     -4.1349768     3.7731260    -2.9732228    
H     -5.6447222     3.1255428    -2.2989376    
H     -6.0847387     2.2969636    -4.3691175    
H     -2.1615661     2.5185557    -2.7102206    
H     -1.6010743     1.7983872    -4.9178609    
H     -3.3619954     1.8991347    -5.0976443    
H     -2.1442580    -0.4514304    -5.6469870    
H     -3.6007606    -0.4875767    -4.6465402    
H     -0.7064416    -0.6828203    -3.7645194    
H     -2.1229152    -1.5480965    -3.1138982    
