44

C      3.4759623     2.4705990     1.2605560    
N      3.1145514     1.3775583     0.3931330    
C      3.9375459     0.8294924    -0.5025716    
O      5.1131335     1.1807532    -0.6599802    
C      3.3159305    -0.2598957    -1.3042319    
N      2.0569154    -0.5535931    -1.0451573    
C      4.0363492    -0.9547357    -2.3230513    
N      5.3034698    -0.6869646    -2.6164861    
N      3.4161906    -1.9300204    -3.0167905    
C      2.1592200    -2.1962243    -2.7380859    
C      1.4412561    -1.5111853    -1.7490999    
C      0.0424084    -1.7775935    -1.4138032    
C     -0.4586366    -1.2824769    -0.2074013    
C     -0.8205840    -2.4876244    -2.2527216    
C     -2.1399247    -2.7088203    -1.9015604    
C     -2.6215588    -2.2005365    -0.7032638    
Cl    -4.2487393    -2.4304973    -0.1837540    
C     -1.7780239    -1.4811918     0.1258636    
S     -2.4520914    -0.8522295     1.6567399    
O     -3.5857611     0.0189076     1.4546816    
O     -2.6616888    -1.9563429     2.5645602    
N     -1.1928308     0.0012789     2.3436372    
C     -0.8401637     1.3178173     2.0928947    
C     -0.0932339     2.0432579     3.0254396    
C      0.2989919     3.3430647     2.7746372    
C     -0.0441813     3.9735251     1.5885421    
C     -0.7788003     3.2619155     0.6627240    
F     -1.1266084     3.8418127    -0.5112054    
C     -1.1658337     1.9494012     0.8944658    
F     -1.8515899     1.2955147    -0.0820066    
H      3.2828816     2.2025786     2.2982409    
H      2.9016379     3.3615720     1.0069009    
H      4.5369231     2.6701555     1.1201735    
H      2.1674369     1.0243550     0.4100714    
H      5.7572704    -1.2054299    -3.3497093    
H      5.7692026     0.0426928    -2.0901733    
H      1.7207393    -2.9983538    -3.3123336    
H      0.1961368    -0.7380853     0.4507837    
H     -0.4677237    -2.8641805    -3.1984877    
H     -2.8019133    -3.2625654    -2.5451449    
H     -0.9124914    -0.3699563     3.2391088    
H      0.1735266     1.5667831     3.9539925    
H      0.8745314     3.8770997     3.5119939    
H      0.2392019     4.9893087     1.3734449    
