36

F      0.0263502     2.0360322     5.4014385    
N     -1.2222992    -0.1857784    -1.7118718    
N     -1.9135378     0.3023410    -3.7549228    
C     -0.9052057     1.4348135     1.4472637    
C     -1.6084333     2.3786911     2.1959794    
C     -1.2993784     2.5804553     3.5281431    
C     -1.2156755     1.1927495     0.0388507    
C     -1.7636205     2.2092144    -0.8151058    
C     -1.7672690     0.7987684    -2.5512405    
C      0.8550440    -2.3057867    -1.4108648    
C      3.1685619    -1.6658646    -1.6085462    
N     -2.0337140     2.0162868    -2.0712148    
C      2.2358574    -2.1289270     0.5546048    
C      1.9467916    -1.9368832    -2.1884535    
C      3.3228305    -1.7584634    -0.2272966    
O      4.5422058    -1.4766142     0.2989458    
C      1.0138997    -2.3963541    -0.0369594    
C     -0.4824271    -2.5559496    -2.0627718    
C     -1.0635497    -1.2682178    -2.5147934    
N     -0.9537152    -0.0010980    -0.4311384    
N     -1.4758718    -0.9608120    -3.7228165    
C      0.1131545     0.6931666     2.0499131    
C      0.4342354     0.8925608     3.3774373    
C     -0.2808477     1.8356066     4.0936775    
H     -2.4135743     2.9401150     1.7535363    
H     -1.8341703     3.2986895     4.1266250    
H     -1.9537148     3.2031784    -0.4401368    
H      4.0193649    -1.3824951    -2.2066529    
H      2.3426683    -2.2119431     1.6256602    
H      1.8359524    -1.8622679    -3.2599729    
H      4.5363102    -1.5789473     1.2629974    
H      0.1766809    -2.6732955     0.5824371    
H     -1.1619978    -3.0247796    -1.3493094    
H     -0.3814959    -3.1977209    -2.9369105    
H      0.6479177    -0.0314161     1.4575144    
H      1.2203645     0.3359238     3.8589268    
