40

O      0.0915450     2.1208922    -4.2000034    
C      0.4338899     2.1057060    -2.8335770    
C      0.7447050     0.6746387    -2.3802866    
O     -0.4804086     0.0776135    -1.9710313    
C      1.4034653    -0.1587589    -3.4943033    
O      2.6369823     0.3958127    -3.8775585    
C      1.6574317    -1.5777820    -2.9728474    
O      2.1071000    -2.3740501    -4.0457959    
C      0.3481573    -2.1770913    -2.4227569    
O     -0.5461094    -2.4642958    -3.4635504    
O     -1.2928243     1.7712586     7.8722040    
C     -2.1138622     2.1646211     6.7865254    
C     -1.7242951     1.5657892     5.5207300    
C     -1.3311557     1.0511594     4.5056901    
C     -0.9116701     0.4735503     3.2838798    
C      0.2444645    -0.3076546     3.2295572    
C      0.6520045    -0.8597901     2.0349277    
C     -0.0855230    -0.6429653     0.8717963    
O      0.4224791    -1.2351647    -0.2686791    
C     -0.3365823    -1.2084661    -1.4488212    
C     -1.2358479     0.1335181     0.9165444    
C     -1.6435050     0.6852558     2.1174197    
H     -0.3134032     2.9716412    -4.4180527    
H     -0.3918540     2.4658727    -2.2117117    
H      1.3198942     2.7281325    -2.6570286    
H      1.4298828     0.7146865    -1.5199043    
H      0.7100975    -0.2192948    -4.3411451    
H      2.4738569     1.1188826    -4.4996960    
H      2.4004386    -1.5158435    -2.1707955    
H      2.7350273    -3.0395463    -3.7341272    
H      0.5786438    -3.0975205    -1.8610054    
H     -0.0180109    -2.7621167    -4.2264692    
H     -0.3711862     1.9779697     7.6658593    
H     -2.1117026     3.2603066     6.6807528    
H     -3.1259463     1.8406891     7.0489022    
H      0.8162392    -0.4789119     4.1285043    
H      1.5414891    -1.4658486     1.9746884    
H     -1.3647782    -1.5563106    -1.2697963    
H     -1.8031133     0.3219854     0.0192317    
H     -2.5367216     1.2897851     2.1527547    
