39

N      1.5341212    -3.2730381     1.6908325    
C      1.9359429    -2.4948641     0.5013598    
C      2.1793882    -0.0379124    -0.2020206    
C      2.1658815     1.3138682     0.1268088    
C      2.6420871     2.2651034    -0.7546585    
C      3.1327850     1.8590942    -1.9843398    
O      2.1050133    -0.7564667     2.1155899    
Cl     3.7328557     3.0559708    -3.1116853    
C      3.1481991     0.5207346    -2.3336306    
C      2.6711312    -0.4253327    -1.4420716    
C      0.0891001    -0.8282035     0.8110213    
C     -0.6117328    -0.9166792    -0.3871018    
C     -1.9805006    -0.7511739    -0.4084607    
C     -2.6896337    -0.4874659     0.7652821    
C     -1.9782544    -0.3962178     1.9600233    
C     -0.6069743    -0.5659553     1.9824107    
C     -4.1318609    -0.3079290     0.7398222    
C     -5.0305929    -0.3196593     1.8294465    
N     -6.2723441    -0.1291982     1.4323464    
N     -6.2092407     0.0128943     0.1084199    
C     -4.9528127    -0.0900058    -0.3563845    
C      1.6055748    -1.0104327     0.8131751    
H      1.9519344    -4.2080802     1.7022206    
H      0.5126386    -3.3508515     1.7432223    
H      1.8469696    -2.7224904     2.5117872    
H      1.3983363    -2.8365593    -0.3791845    
H      3.0104009    -2.5995665     0.3496568    
H      1.7685206     1.6268701     1.0805330    
H      2.6282942     3.3106136    -0.4949218    
H      2.9848384    -0.3649000     2.0657582    
H      3.5289554     0.2219696    -3.2965872    
H      2.6914820    -1.4584803    -1.7430210    
H     -0.0856663    -1.0974951    -1.3118486    
H     -2.5108248    -0.8261846    -1.3443916    
H     -2.5018384    -0.1775414     2.8775586    
H     -0.0723464    -0.4750194     2.9141390    
H     -4.8264610    -0.4699602     2.8702265    
H     -7.0543799     0.1750788    -0.4172537    
H     -4.7330654     0.0123609    -1.3989612    
