19

O     -1.0485868     2.4234897     0.3991381    
C     -1.0093371     1.0676468     0.4941858    
C      0.1009214     0.4006891    -0.0940764    
C      1.1278681     1.1073941    -0.7510200    
C      2.1842864     0.4420570    -1.3082948    
C     -1.9900828     0.3447245     1.1275454    
C     -1.9096265    -1.0525787     1.2006293    
C     -0.8568521    -1.7221513     0.6448540    
C      0.1703739    -1.0134524    -0.0133357    
C      1.2746776    -1.6666368    -0.5997136    
C      2.2574690    -0.9569432    -1.2316366    
H     -1.8440561     2.7687639     0.8319544    
H      1.0570789     2.1833119    -0.8013945    
H      2.9682749     0.9887569    -1.8104869    
H     -2.8332325     0.8509172     1.5755181    
H     -2.6962569    -1.5932863     1.7051376    
H     -0.7948366    -2.7985576     0.7008584    
H      1.3281590    -2.7440433    -0.5386511    
H      3.0979794    -1.4686801    -1.6767033    
