39

O     -1.7935506     3.9780043     2.4769447    
C     -1.7909413     3.3434673     3.7410960    
C     -2.1087950     1.8599477     3.5486875    
C     -1.0486884     1.1886958     2.7104048    
C      0.1681500     0.6091617     3.3491752    
C     -0.8816101    -0.3114156     2.7713820    
C     -0.6212167    -1.0968854     1.5544409    
C     -1.1411779    -2.3843056     1.4263249    
N     -0.9511116    -3.1512917     0.3663927    
C     -0.2368764    -2.6781578    -0.6351138    
C      0.3297922    -1.4004026    -0.6254201    
O      1.0420363    -1.0431589    -1.7259401    
C      1.5631071     0.2805356    -1.8181395    
C      2.0905593     0.4433514    -3.2355050    
C      1.0966447     0.2193168    -4.3858079    
C      2.1155325    -0.7585030    -4.9792919    
N      2.8842446    -0.7357552    -3.7017594    
C      0.1367996    -0.6034148     0.4940754    
H     -1.6352783     4.9234281     2.5915127    
H     -2.5463998     3.7952640     4.3966637    
H     -0.8055721     3.4482210     4.2147400    
H     -3.0768588     1.7763094     3.0497121    
H     -2.1785203     1.3866935     4.5287947    
H     -0.9358401     1.6587295     1.7420849    
H      0.2499170     0.6478211     4.4247351    
H      1.1165137     0.6814066     2.8401392    
H     -1.5077205    -0.8305145     3.4874664    
H     -1.7380296    -2.8202769     2.2163378    
H     -0.1099427    -3.3348342    -1.4827461    
H      2.3629379     0.4208584    -1.0817585    
H      0.7783759     1.0232198    -1.6421463    
H      2.6545927     1.3714944    -3.3202704    
H      0.8567774     1.0912498    -4.9822580    
H      0.1796959    -0.2602999    -4.0577278    
H      2.6938019    -0.3366555    -5.7971530    
H      1.7459146    -1.7410962    -5.2553046    
H      2.6648702    -1.5443961    -3.1072393    
H      3.9006235    -0.6351312    -3.7670688    
H      0.5594556     0.3860827     0.5580546    
