57

C     -1.1851722     0.6158383    -4.4904235    
C     -1.3312592    -0.6409829    -3.6386000    
C     -1.6473255    -0.2881417    -2.1790057    
N     -1.9654792    -1.5129314    -1.3968017    
C     -3.3553454    -2.0388922    -1.5219460    
C     -3.3545560    -3.5056706    -1.1104607    
C     -4.2908737    -1.2104807    -0.6298248    
C     -3.8048200    -1.1334847     0.8038238    
O     -2.6010253    -1.0322364     1.0798165    
N     -4.7441780    -1.1051339     1.7469160    
C     -4.4196013    -1.0978072     3.1612895    
C     -4.6918032     0.2575817     3.8100212    
N     -3.7541387     1.2855133     3.2972169    
C     -0.4936361     0.4479732    -1.5371335    
C     -0.5953657     1.7950124    -1.2097888    
C      0.4756749     2.4849050    -0.6719085    
C      1.6810684     1.8422613    -0.4425535    
Cl     3.0571668     2.7379504     0.1609220    
C      1.8167508     0.4796666    -0.7286599    
O      2.9711284    -0.2327664    -0.5926867    
C      3.6668897    -0.1901306     0.5967694    
C      3.0475453     0.0395189     1.8185616    
C      3.8015741     0.0105810     2.9779004    
C      5.1593643    -0.2550614     2.9264196    
C      5.7676358    -0.4982129     1.7051944    
C      5.0272014    -0.4662619     0.5380771    
C      0.7177914    -0.1794279    -1.2792681    
F      0.8543391    -1.5010430    -1.5591458    
H     -0.9753319     0.3440833    -5.5215275    
H     -0.3668917     1.2368356    -4.1340245    
H     -2.0988481     1.2039245    -4.4775301    
H     -0.4082571    -1.2193852    -3.6915286    
H     -2.1361070    -1.2502180    -4.0500884    
H     -2.5208077     0.3673018    -2.1585473    
H     -1.8645883    -1.3094562    -0.3545017    
H     -1.2940750    -2.2477231    -1.6394655    
H     -3.6792765    -1.9551291    -2.5621616    
H     -4.3580257    -3.9153987    -1.1740374    
H     -2.9990299    -3.6275046    -0.0902886    
H     -2.7218681    -4.0938600    -1.7699997    
H     -5.2878234    -1.6437043    -0.6768434    
H     -4.3596233    -0.1902972    -1.0127284    
H     -5.7151952    -1.2135472     1.4933036    
H     -3.3625271    -1.3593042     3.2554362    
H     -5.0108661    -1.8608504     3.6682855    
H     -4.5646435     0.1571170     4.8869972    
H     -5.7157941     0.5728601     3.6093100    
H     -3.8899090     2.1759471     3.7905411    
H     -3.9062377     1.4459612     2.2955781    
H     -2.7798586     0.9823178     3.4270608    
H     -1.5148219     2.3223746    -1.4016662    
H      0.3944489     3.5330371    -0.4403623    
H      1.9889268     0.2434982     1.8577085    
H      3.3260344     0.1946821     3.9284077    
H      5.7445316    -0.2759999     3.8328593    
H      6.8252330    -0.7095504     1.6582450    
H      5.4845260    -0.6517082    -0.4215184    
