43

C     -0.2156721     3.0400653    -2.4548289    
O      0.7181531     3.7981826    -2.7843319    
O     -1.3672651     3.0120528    -2.9291793    
C      0.1017976     2.0224556    -1.3499601    
C      1.3165116     1.9183534    -0.8157665    
C      1.6669423     0.8818337     0.2139772    
C      0.5994742    -0.2364139     0.1561654    
N      0.7340616    -1.1501150     1.2656383    
C      1.3184029    -2.3637541     1.1278650    
O      1.9242139    -2.6778955     0.1127069    
C      1.1964065    -3.2470528     2.3386735    
C     -0.7961967     0.3969412     0.1237293    
O     -0.9636576     1.2537641    -1.0054845    
C     -1.9147439    -0.6562588    -0.0025224    
O     -1.9211983    -1.2281259    -1.2836375    
C     -3.2737085     0.0005149     0.3472626    
O     -3.2374395     0.5381367     1.6457227    
C     -4.3972955    -1.0336143     0.2221752    
O     -4.2502547    -1.9346995     1.3006330    
N      2.9823988     0.3421251    -0.0681987    
C      3.8157081    -0.2372754     0.7994936    
N      4.8941029    -0.8547430     0.3314234    
N      3.6374317    -0.1486407     2.1113243    
H      2.0760800     2.5961532    -1.1659125    
H      1.6662017     1.3404368     1.2089239    
H      0.7438320    -0.8128162    -0.7669002    
H      0.2008731    -0.9506109     2.0987372    
H      0.1600493    -3.5560053     2.4485290    
H      1.8149177    -4.1288842     2.2064038    
H      1.4951553    -2.7138033     3.2353549    
H     -0.9662184     0.9866640     1.0362871    
H     -1.7415084    -1.4844859     0.6918524    
H     -1.9243633    -0.5072063    -1.9313835    
H     -3.4424830     0.8316855    -0.3470391    
H     -3.4857648    -0.1784090     2.2564188    
H     -4.3004255    -1.5442559    -0.7407663    
H     -5.3663713    -0.5235392     0.2728004    
H     -4.9204979    -2.6271537     1.2353563    
H      3.1527854     0.1762894    -1.0499690    
H      4.9984164    -1.0248952    -0.6538551    
H      5.5255351    -1.3247211     0.9585769    
H      2.8781009     0.3834161     2.4974925    
H      4.3320109    -0.5153477     2.7400630    
