38

C     -3.3279804    -3.6810855     0.5925728    
N     -3.9401388    -2.6023885    -0.1398427    
C     -3.3437838    -1.4447589    -0.3846456    
N     -3.8625991    -0.4970619    -1.1209964    
C     -3.0892244     0.6052353    -1.1756998    
C     -3.5250737     1.7143120    -2.0668021    
C     -1.9144985     0.5375064    -0.4510008    
C     -0.7994929     1.4154715    -0.2992779    
N      0.3677154     0.8057647    -0.0909100    
C      1.4737620     1.5321971     0.0091490    
N      2.6697131     0.9630787     0.2344472    
C      3.0319605    -0.3699285     0.4208109    
C      4.3850424    -0.6272281     0.6248186    
C      4.8351301    -1.9269464     0.8136266    
O      6.1672073    -2.1119111     1.0058633    
C      3.9263966    -2.9804977     0.8009812    
C      2.5836906    -2.7167992     0.6025703    
C      2.1248580    -1.4259103     0.4133714    
N      1.5211897     2.8809613    -0.1203949    
C      0.3754942     3.4981337    -0.2603054    
C     -0.8586766     2.8347871    -0.3264009    
C     -2.0339814     3.5828918    -0.2658995    
N     -2.9648653     4.2509839    -0.1409370    
S     -1.7630846    -1.0510400     0.2834041    
H     -4.1053323    -4.2731200     1.0677482    
H     -2.6685868    -3.2694478     1.3558650    
H     -2.7392308    -4.3205472    -0.0683985    
H     -4.8075988    -2.7774301    -0.6255992    
H     -2.6689675     2.2404117    -2.4835653    
H     -4.1305559     2.4327154    -1.5156400    
H     -4.1308358     1.2992333    -2.8674774    
H      3.4287379     1.6329595     0.2749823    
H      5.1075556     0.1737869     0.6373450    
H      6.3671172    -3.0532382     1.1213288    
H      4.2665091    -3.9943657     0.9443184    
H      1.8770595    -3.5315988     0.5959210    
H      1.0787438    -1.2322099     0.2599351    
H      0.4152366     4.5786830    -0.3130711    
