32

N      0.0403636    -0.6623227     0.2199961    
C     -1.1275585     0.0010293     0.3918661    
N     -1.2939435     1.2767495     0.1348444    
C     -0.2760307     1.9605402    -0.4174232    
C      0.9767286     1.3397670    -0.7027793    
C      1.0559412    -0.0109279    -0.2775192    
C     -0.4561886     3.3201392    -0.7449875    
C      0.5477547     4.0123684    -1.3636038    
C      1.7581283     3.3819003    -1.6966978    
C      1.9742479     2.0689205    -1.3760500    
C     -2.1098765    -2.1296483     1.1912359    
C     -3.1791695    -2.8524793     1.6839156    
C     -4.3961824    -2.2280090     1.9111878    
C     -4.5425474    -0.8748894     1.6441675    
C     -3.4785006    -0.1459206     1.1503125    
C     -2.2514128    -0.7686961     0.9195527    
C      3.5370163    -0.3564720    -0.1296063    
N      2.2464811    -0.7430438    -0.3682773    
C      2.3684948    -2.0691285    -0.6768868    
N      3.6122363    -2.4306039    -0.6510805    
N      4.3467775    -1.3550571    -0.2920292    
H     -1.4038192     3.7745396    -0.5079366    
H      0.4087485     5.0510069    -1.6193581    
H      2.5219482     3.9396069    -2.2149470    
H      2.8955210     1.5824918    -1.6587185    
H     -1.1571493    -2.6027543     1.0126248    
H     -3.0644964    -3.9053005     1.8925247    
H     -5.2294455    -2.7953501     2.2965676    
H     -5.4896719    -0.3892111     1.8219796    
H     -3.5739560     0.9062595     0.9363500    
H      3.8270926     0.6187453     0.1985327    
H      1.5376202    -2.6969253    -0.9194851    
