38

C      2.0087337    -1.6217684    -0.9821620    
C      2.6868726    -2.7266273    -1.4617958    
C      4.0053912    -2.6117484    -1.8747158    
C      4.6529126    -1.3872727    -1.8107592    
C      3.9895610    -0.2713109    -1.3341570    
C      2.6691026    -0.4001792    -0.9226482    
N      1.9834763     0.7131414    -0.4330898    
N      0.7290662     0.6589411    -0.0373509    
N      2.5031264     1.9152608    -0.3057380    
N      1.5878708     2.6774188     0.1817510    
C      0.4845764     1.9055634     0.3506045    
C     -0.7659216     2.3953607     0.8853250    
C     -0.8650367     3.7243142     1.2862930    
C     -2.0456650     4.2175688     1.8056893    
C     -3.1403935     3.3776742     1.9265580    
C     -3.0633154     2.0528617     1.5327168    
C     -1.8808848     1.5419828     1.0074664    
O     -1.7098127     0.2657286     0.5915376    
C     -2.7794051    -0.6658641     0.7121415    
C     -2.2762313    -1.9717165     0.1939596    
O     -2.8015958    -2.4545060    -0.9537778    
C     -2.1687631    -3.6095804    -1.2267798    
C     -1.3016810    -2.8099558     0.6501415    
C     -1.2341397    -3.8794404    -0.2772515    
H      0.9831512    -1.6827186    -0.6533249    
H      2.1818669    -3.6779895    -1.5122418    
H      4.5297577    -3.4773687    -2.2472568    
H      5.6781525    -1.2993844    -2.1323916    
H      4.4700553     0.6914411    -1.2745462    
H      0.0058231     4.3514433     1.1799127    
H     -2.1114932     5.2483182     2.1136720    
H     -4.0675343     3.7530301     2.3308007    
H     -3.9302929     1.4210694     1.6358527    
H     -3.6388438    -0.3497557     0.1088620    
H     -3.0742033    -0.7596309     1.7652130    
H     -2.4744152    -4.1361527    -2.1078275    
H     -0.7121151    -2.6781584     1.5331973    
H     -0.5831872    -4.7270072    -0.2338500    
