51

Cl     1.9634850     2.8327245     0.0321753    
O     -2.6863993    -2.3433287     1.3391108    
S     -1.2759139    -2.1641499     1.6499620    
C     -0.5387236    -1.1128365     0.4196138    
C      0.8408777    -1.0773171     0.3430167    
C      1.4509023    -0.2630378    -0.5915480    
C     -1.3288291    -0.3551313    -0.4261396    
C     -0.7273261     0.4670512    -1.3583812    
C      0.6636405     0.5175267    -1.4361660    
O      1.1878135     1.3112360    -2.4142632    
C      2.4871232     1.7089968    -2.3690515    
C      3.3346501     1.4807645    -3.4651198    
N      2.8996110     0.6813625    -4.5722932    
O      3.4991505     0.8046191    -5.6242561    
O      1.9797206    -0.0971141    -4.4090962    
C      4.6259498     2.0030578    -3.4979496    
C      5.1015411     2.7342090    -2.4282767    
C      4.2853698     2.9676113    -1.3315320    
C      2.9913389     2.4721896    -1.3087946    
N     -1.2508751    -1.3730959     3.0932930    
C     -2.0633362    -0.1731091     3.2377381    
C     -3.2741458    -0.4586329     4.1321566    
N     -4.1681903    -1.4947269     3.5512527    
C     -4.4193142    -2.6168843     4.4913612    
C     -3.1719053    -3.4552121     4.7236686    
C     -5.4424378    -0.9235153     3.0465133    
C     -5.2203656    -0.0092201     1.8529809    
O     -0.4942028    -3.3649680     1.8186529    
H      1.4237548    -1.7052263     0.9963848    
H      2.5260726    -0.2420266    -0.6768341    
H     -2.4019727    -0.4276832    -0.3650164    
H     -1.3087058     1.0660691    -2.0387402    
H      5.2348938     1.8086108    -4.3668901    
H      6.1037406     3.1278864    -2.4461647    
H      4.6420740     3.5466766    -0.4951572    
H     -0.3472074    -1.3727481     3.5322601    
H     -2.3865074     0.1449880     2.2453348    
H     -1.4756397     0.6288522     3.6838378    
H     -3.8390858     0.4616379     4.2782233    
H     -2.9185389    -0.8028178     5.1018365    
H     -3.6733363    -1.8999829     2.7275097    
H     -5.1903821    -3.2528085     4.0558256    
H     -4.7956548    -2.2062647     5.4297888    
H     -3.4331579    -4.3283202     5.3142038    
H     -2.3986878    -2.9109179     5.2557601    
H     -2.7556988    -3.7973515     3.7775982    
H     -5.9329786    -0.3921753     3.8636150    
H     -6.0818775    -1.7507281     2.7376667    
H     -6.1830121     0.2861516     1.4461879    
H     -4.6753164    -0.5410912     1.0765526    
H     -4.6809369     0.8939472     2.1195988    
