62

N     -3.9883580    -3.6397408     2.6514693    
N     -4.9436645    -4.5731416     2.7393701    
N     -5.4226204    -4.7456325     1.5829168    
N     -4.8258738    -3.9518724     0.7005633    
C     -3.9196794    -3.2533013     1.3595198    
C     -3.0281650    -2.2273760     0.7670208    
C     -2.4969358    -2.6663249    -0.6096220    
N     -3.6157165    -3.0199545    -1.5052013    
C     -1.7770076    -1.4621078    -1.2622313    
O     -2.3487196    -0.8580792    -2.1589521    
N     -0.5999453    -1.1387372    -0.7420961    
C      0.2513184    -0.1062200    -1.2819801    
C      0.2126019     1.1444645    -0.4051698    
C     -1.1925125     1.6649912    -0.3315205    
C     -2.0324458     1.2885350     0.7081549    
C     -3.3548833     1.6978337     0.7300329    
C     -3.8524430     2.4889699    -0.2906578    
C     -3.0190891     2.8772679    -1.3266134    
C     -1.6985808     2.4662486    -1.3467237    
P      1.9314878    -0.9464017    -1.3095647    
O      1.7420045    -2.2729757    -1.9853794    
O      2.4320147    -1.0111099     0.1082877    
C      2.9978543     0.1462910    -2.3753125    
C      4.1721141     0.7381649    -1.6019160    
C      5.2342967     1.2986584    -2.5453937    
C      3.6363735     1.8551384    -0.7180651    
O      3.2848803     2.9396535    -1.1764429    
N      3.6320303     1.5902207     0.5991003    
C      3.0427115     2.5163214     1.5527236    
C      3.2131681     1.9683861     2.9658411    
C      3.7033621     3.8937310     1.4437306    
O      3.0525019     4.9238542     1.5539335    
N      5.0338888     3.8765360     1.3260886    
H     -3.4695297    -3.3382852     3.4641705    
H     -2.1933067    -2.0272860     1.4360606    
H     -3.5915263    -1.2958200     0.6496944    
H     -1.8053767    -3.5046336    -0.5034280    
H     -3.8898805    -2.1425485    -1.9892107    
H     -4.4034910    -3.4355078    -0.9509379    
H     -3.3272004    -3.6853652    -2.2292677    
H     -0.1318634    -1.7415487    -0.0756687    
H     -0.0850886     0.1191002    -2.2980118    
H      0.8865525     1.8899871    -0.8333125    
H      0.5848004     0.8673693     0.5836662    
H     -1.6368655     0.6819395     1.5098484    
H     -3.9971920     1.4054144     1.5472628    
H     -4.8832334     2.8082221    -0.2788859    
H     -3.3968900     3.5013997    -2.1220756    
H     -1.0465875     2.7683950    -2.1547312    
H      2.4013929     0.9406017    -2.8286014    
H      3.3605451    -0.5063308    -3.1727289    
H      4.5984438    -0.0522779    -0.9765353    
H      6.1037333     1.6282959    -1.9822753    
H      4.8256124     2.1508686    -3.0842673    
H      5.5435136     0.5392329    -3.2585072    
H      3.6296291     0.6109567     0.8634353    
H      1.9779873     2.6726480     1.3316963    
H      2.7531953     2.6478904     3.6775752    
H      4.2671979     1.8634494     3.2057032    
H      2.7325781     0.9955778     3.0381618    
H      5.5204866     4.7480079     1.1888599    
H      5.5122309     3.0110099     1.1429629    
