58

C      1.5164648    -0.1559373    -4.3983117    
N      1.3270409    -1.4847366    -3.7848538    
C     -0.0590371    -1.7735291    -3.3052864    
C     -0.8423914    -2.1191267    -4.5923949    
O     -1.3624032    -1.2534230    -5.2781853    
C     -0.6841969    -0.6117306    -2.5615497    
S      0.3507338    -0.1456464    -1.1051647    
N     -0.8141644    -3.4268385    -4.8976410    
C     -0.7442487    -3.8350927    -6.2779827    
C      0.7441264    -3.6933563    -6.7721212    
O      1.0093216    -4.1537984    -7.8867495    
O      1.5310406    -3.1216979    -5.9844750    
N     -1.3343389    -0.4088697     1.7639206    
C     -1.6464269    -1.7810563     2.0511080    
C     -1.5115122    -1.9790527     3.6001880    
O     -1.0688847    -0.9981205     4.2305371    
O     -1.8458964    -3.0817476     4.0558438    
C     -1.8990769     0.3264639     0.8117350    
O     -2.6217393    -0.1200573    -0.0781232    
C     -1.5732530     1.8317438     0.8672704    
N     -0.5204043     2.1616756     1.7929965    
C     -1.3000995     2.3652071    -0.5337018    
S      0.3336939     1.8735644    -1.1913567    
C      1.3769593     2.1186213     6.1319648    
C      2.7956450     2.0253248     5.4223181    
O      3.0703047     1.0029766     4.7955054    
O      3.4942485     3.0496187     5.5926458    
N      1.3747218     3.4311476     6.8143027    
C      0.2440474     1.9848256     5.1208441    
C      0.4308004     2.8908141     3.8953259    
C     -0.7691304     2.7252244     2.9909923    
O     -1.8921218     3.0860178     3.3219007    
H      2.4719718    -0.1451161    -4.9140411    
H      1.5055592     0.6221586    -3.6393326    
H      0.7297012     0.0225372    -5.1274777    
H      1.9874356    -1.5803778    -3.0073466    
H      1.5442762    -2.1969423    -4.5335818    
H     -0.0188663    -2.6452491    -2.6478072    
H     -1.6632433    -0.8937739    -2.1715437    
H     -0.7923507     0.2599189    -3.2020074    
H     -0.3065498    -4.0401256    -4.2735282    
H     -1.3609804    -3.1748083    -6.8889823    
H     -1.0738013    -4.8645427    -6.4052986    
H     -0.9219736     0.0324037     2.5890302    
H     -0.9395545    -2.4569094     1.5598579    
H     -2.6593050    -2.0367494     1.7326912    
H     -2.4828328     2.3174503     1.2503318    
H      0.4118256     1.8355421     1.5783751    
H     -1.2713992     3.4524114    -0.5456734    
H     -2.0688046     1.9988147    -1.2137785    
H      1.3129671     1.2954396     6.8431172    
H      0.6324570     4.0419178     6.4662670    
H      2.3423672     3.7912045     6.5119769    
H      1.3200969     3.3603134     7.8311106    
H     -0.7155478     2.2096758     5.5922018    
H      0.1990964     0.9417869     4.7979624    
H      1.3528855     2.6251658     3.3794981    
H      0.4780667     3.9391640     4.1930277    
