30

S      1.0913605    -0.8810717     0.6505495    
C      1.3809712     3.8261455     1.3761093    
C      1.3270914     0.5303737    -1.7396181    
C      0.5006666     0.4983802    -0.4477238    
O     -1.5420018     0.9814606    -1.5401582    
C      3.9994984     2.5050511     1.1879703    
C      2.8825827     1.8525293     0.8851436    
C      1.5566534     2.4505601     0.8061175    
C      0.5079555     1.8284680     0.2529029    
C     -0.4287024    -1.7715946     0.5620592    
O     -0.5722251    -2.8252462     1.1471491    
C     -1.3683399    -1.0804926    -0.3054282    
C     -2.6841623    -1.7089187    -0.5428288    
C     -3.2955437    -1.5169672    -1.9077604    
C     -0.9085452     0.1020403    -0.8008876    
O     -3.2325738    -2.3802987     0.3130772    
H      1.7773732     3.8697553     2.3882279    
H      0.3333779     4.1094704     1.3933311    
H      1.9239506     4.5468200     0.7681434    
H      0.8818349     1.2522047    -2.4188570    
H      1.3366778    -0.4519530    -2.2045932    
H      2.3452254     0.8302524    -1.5186359    
H     -2.4605389     0.7396906    -1.7550558    
H      4.9454751     1.9939455     1.2357532    
H      4.0205523     3.5625702     1.3815609    
H      2.9303334     0.7890044     0.6949230    
H     -0.4498287     2.3285962     0.2542933    
H     -3.7751514    -2.4516545    -2.1921378    
H     -2.5591085    -1.2450462    -2.6565432    
H     -4.0879685    -0.7728693    -1.8455457    
