42

F     -7.1006211    -1.3421942    -4.0021644    
C     -5.9211977    -1.1182719    -3.3732449    
C     -4.7235989    -1.1479205    -4.0724503    
N     -3.5812373    -0.9293088    -3.4548844    
C     -5.8779933    -0.8534331    -2.0124860    
N     -4.7286993    -0.6339152    -1.4081616    
C     -3.6102543    -0.6765605    -2.1413042    
C     -2.3428141    -0.4301594    -1.4655833    
C     -1.1386417    -0.4957482    -2.1697015    
C      0.0554247    -0.2562183    -1.5243035    
C     -2.3156175    -0.1216986    -0.1038301    
C     -1.1164845     0.1146920     0.5336622    
C      0.0893077     0.0515130    -0.1644906    
C      1.3891148     0.3007692     0.4842901    
C      1.5397394     1.3845330     1.5435945    
C      2.7638415     2.2161731     1.4650525    
N      2.6328558     3.4511465     1.9697273    
O      3.7166760     4.3350998     1.9098937    
O      3.8396478     1.8497847     0.9886805    
C      1.6671183    -0.0768097     1.9091305    
C      2.9876092    -0.6433898     2.2980871    
C      3.5992397    -0.2278260     3.4752199    
C      3.6134746    -1.6028287     1.5136174    
C      4.8361789    -2.1279762     1.8929180    
C      5.4446627    -1.7015749     3.0609909    
C      4.8221666    -0.7511454     3.8527598    
H     -4.6851999    -1.3486045    -5.1340223    
H     -6.7731281    -0.8171350    -1.4076008    
H     -1.1614578    -0.7309541    -3.2213137    
H      0.9818032    -0.3061932    -2.0770037    
H     -3.2473414    -0.0702464     0.4348419    
H     -1.1227541     0.3508183     1.5861258    
H      2.2434061     0.2340443    -0.1807123    
H      0.6484732     1.9064690     1.8606902    
H      1.8031768     3.8967485     2.3269250    
H      4.4368490     3.8154826     1.4919642    
H      0.8376326    -0.4821639     2.4781172    
H      3.1171298     0.5179567     4.0917495    
H      3.1406734    -1.9387822     0.6028386    
H      5.3163738    -2.8704799     1.2735311    
H      6.4020668    -2.1063530     3.3529662    
H      5.2925361    -0.4144624     4.7644390    
