47

C     -3.0260775    -1.6709168    -1.2533210    
N     -2.1493733    -1.4972906    -2.2758843    
C     -1.4482836    -0.6769993     0.3180098    
C     -0.4960824    -0.3973329    -0.8703696    
C     -1.1702547    -0.4432372    -2.2600465    
C     -0.0924050    -0.6122394    -3.3462320    
C     -3.4355254    -3.2164150    -2.6496911    
C     -2.4094793    -2.4912487    -3.1808786    
N     -3.8105232    -2.6998461    -1.4455680    
O     -1.1748013    -1.9281640     0.9071327    
O     -3.7765496    -1.0059896     0.9631338    
C     -2.9375754    -0.7167303    -0.1117308    
O      0.7643027    -1.7016519    -3.1179378    
C      1.2710225     0.9122255     0.0101988    
C      1.9427764     2.2805664    -0.1881127    
C      3.1888555     2.3554871     0.7044576    
C      2.7851219     2.0524771     2.1604695    
C      2.0503423     0.7076495     2.2239303    
C      1.5450634     0.4231068     3.6446254    
O      0.1225365     0.8804282    -0.7684255    
O      1.1013322     3.3401541     0.1836939    
O      3.8196624     3.6031531     0.6068967    
O      3.9097729     1.9810943     2.9966812    
O      0.9257694     0.7017644     1.3596272    
O      0.8509260    -0.7956425     3.7296591    
H     -1.3260822     0.1302500     1.0496805    
H      0.2836611    -1.1737898    -0.8566399    
H     -1.6702747     0.5204263    -2.4197018    
H      0.5438686     0.2747605    -3.3230028    
H     -0.5685091    -0.6767504    -4.3304646    
H     -3.9307801    -4.0779300    -3.0484271    
H     -1.8966882    -2.5935069    -4.1127146    
H     -0.3219202    -1.8981674     1.3642835    
H     -3.5860319    -1.9047517     1.2711618    
H     -3.2252491     0.2865843    -0.4524212    
H      0.2818161    -2.5324472    -3.2372723    
H      1.9800849     0.1178696    -0.3068078    
H      2.2346899     2.3713608    -1.2448136    
H      3.9267156     1.6142234     0.3783029    
H      2.0987786     2.8444593     2.5002921    
H      2.7466659    -0.0897121     1.9199857    
H      0.9178467     1.2576179     3.9728047    
H      2.4128942     0.3445297     4.3008035    
H      0.2545331     3.2522035    -0.2763241    
H      3.1370922     4.2927786     0.6399609    
H      4.4910352     2.7312043     2.7924021    
H     -0.0333708    -0.6760543     3.3572219    
