29

O     -0.4349071     1.4136200    -1.7824984    
C     -0.1819570     1.9265163    -0.7117995    
N      0.3015407     3.2003100    -0.6292823    
C      0.6443980     3.9185172     0.5015763    
O      1.0527892     5.0533965     0.3868420    
C      0.4508380     3.2135227     1.8114454    
C      0.5871422     1.7026075     1.6724995    
C     -0.3987490     1.2099910     0.6146461    
N     -0.3010451    -0.2135687     0.3801643    
C      0.5304959    -4.5292631    -0.9622575    
C      1.1540047    -3.2836902    -0.9198187    
C      0.4330453    -2.2256920    -0.4068919    
C     -0.8791463    -2.3972370     0.0552823    
O      1.8195074    -0.2220131    -0.5116073    
O     -2.4495909    -0.7697854     0.9712565    
C     -1.4958344    -3.6304166     0.0131329    
C     -0.7669513    -4.6989062    -0.5053085    
C     -1.3685229    -1.0894860     0.5290145    
C      0.7972446    -0.8078180    -0.2275069    
H      0.4501933     3.6769866    -1.5167600    
H     -0.5487917     3.4712215     2.1723507    
H      1.1714421     3.6143498     2.5239840    
H      0.3760572     1.2157316     2.6240514    
H      1.6006535     1.4395171     1.3635051    
H     -1.4356261     1.3921739     0.9335512    
H      1.0691879    -5.3748865    -1.3592627    
H      2.1623730    -3.1413954    -1.2738995    
H     -2.5056832    -3.7533918     0.3699770    
H     -1.2231530    -5.6748611    -0.5518312    
