49

C     -4.2689713     1.9523301    -0.8110029    
C      3.3033364     0.6186105     0.4343487    
C      3.7391236     0.4729041     1.7373298    
C     -0.8047379    -0.7814998     0.0252268    
C      2.5565040    -1.6334703     1.8597404    
C     -2.7772727    -0.0956329     1.1707133    
C     -2.9024477     2.1648185    -0.9839468    
C     -1.8170968     0.1750121     0.2082066    
C     -1.8038450     1.3938170    -0.5732922    
C      2.4950756    -0.3451871    -0.1652651    
C      2.1497971    -1.5017959     0.5367632    
C     -0.7752217    -1.9108286     0.8011855    
C      3.3352690    -0.6508670     2.4326130    
C     -0.6909137     2.1042370    -1.0784605    
C     -1.8257758    -2.1028570     1.7454906    
C      2.0882810    -0.1416591    -1.5952474    
C      0.7746538     1.8496289    -0.8914569    
C      1.3312434    -2.6264600    -0.0667360    
C      2.1463895    -3.9154726    -0.1292362    
C     -3.1492382     4.2900452    -2.2879673    
C      1.0087671     1.2331494    -3.2564855    
N     -5.4020059     1.7879112    -0.6959243    
N     -2.7898649    -1.2009873     1.9023898    
N     -1.0944314     3.1957424    -1.7226260    
N     -2.4050039     3.2283488    -1.6728100    
N      1.3306143     0.9319272    -1.8762784    
N     -1.8422436    -3.2011297     2.5306023    
O      2.4654499    -0.9263486    -2.4689852    
O      0.1781406    -2.8915570     0.7327741    
F      3.7270332    -0.8004825     3.7268345    
H      3.5957127     1.4893843    -0.1306716    
H      4.3654831     1.2101022     2.2108124    
H     -0.0839414    -0.6295208    -0.7561083    
H      2.2634986    -2.4928799     2.4405553    
H     -3.5771984     0.6026178     1.3774336    
H      0.9404010     1.4501230     0.1097834    
H      1.2824724     2.8146784    -0.9910162    
H      1.0215622    -2.3706894    -1.0875366    
H      1.5316375    -4.7114038    -0.5389653    
H      2.4862812    -4.2033576     0.8604129    
H      3.0045599    -3.7565143    -0.7753559    
H     -2.4334306     4.9716082    -2.7395332    
H     -3.7439584     4.8168819    -1.5416250    
H     -3.8166613     3.8918182    -3.0525378    
H      1.6700485     0.6535721    -3.8969921    
H      1.1485779     2.2975919    -3.4306152    
H     -0.0253154     0.9651164    -3.4787403    
H     -2.6739963    -3.3804137     3.0645549    
H     -1.2252835    -3.9577649     2.2927006    
