25

C      1.0156616     0.1072020    -1.7005771    
C     -0.2663496    -0.7413383    -1.6242623    
O     -0.8891934    -0.8530093    -2.8768990    
C     -1.2252187    -0.1796261    -0.5530810    
O     -2.2892654    -1.0714068    -0.3084283    
C     -0.4660103    -0.0144561     0.7782183    
O      0.0468326    -1.2555937     1.2083861    
C      0.7408738     0.9114425     0.5894705    
N      1.6399128     0.2255697    -0.3670992    
C      1.4333490     1.1826523     1.9323859    
O      0.5905430     2.0688839     2.6384745    
H      0.7726350     1.1071262    -2.0667809    
H      1.7065903    -0.3677112    -2.3981396    
H     -0.0168200    -1.7713616    -1.3460053    
H     -1.1164757     0.0232029    -3.2214090    
H     -1.6195828     0.7971260    -0.8720430    
H     -2.6629857    -1.3618195    -1.1527518    
H     -1.1447136     0.4139775     1.5253078    
H     -0.6916386    -1.8629931     1.3441985    
H      0.4133707     1.8716214     0.1837748    
H      2.5418534     0.7104213    -0.4389108    
H      1.7972394    -0.7181823     0.0252402    
H      2.4122141     1.6495986     1.7609818    
H      1.5637334     0.2421506     2.4792171    
H      0.9315042     2.2054501     3.5311696    
