75

C     -4.6171435    -1.4792747    -1.1838455    
O     -4.6555320    -0.2609167    -0.9949471    
C     -5.3437526    -2.1628808    -2.3081858    
N     -3.9289184    -2.3038272    -0.3785156    
C     -3.0640432    -1.8179553     0.6865249    
C     -1.7648841    -1.3050216     0.0508208    
O     -0.7383449    -1.9673443     0.0050225    
C     -2.7930377    -2.9279024     1.6900094    
N     -1.8500745    -0.0511960    -0.4369082    
C     -0.7880589     0.4551391    -1.2793145    
C      0.1594798     1.4134587    -0.5577585    
O      1.1260851     1.8943561    -1.1422300    
C     -1.2915166     1.0531381    -2.5946960    
C     -2.1070434     0.0463278    -3.4095132    
C     -1.4649138    -1.3632027    -3.4556837    
O     -0.2904076    -1.4501961    -3.8823549    
O     -2.1557324    -2.3232234    -3.0663288    
N     -0.1122326     1.6586156     0.7273398    
C      0.8351463     2.3231107     1.6051349    
C      1.6779267     1.2049184     2.2415871    
O      1.1565593     0.3543700     2.9540937    
C      0.1194650     3.1456368     2.6828139    
C     -0.8874529     4.1346590     2.0785653    
C      1.1604028     3.8405699     3.5599260    
C     -0.2902561     5.1300973     1.0886401    
C      5.1010610     0.6725172     2.9897855    
N      2.9766731     1.2137073     1.9210484    
O      5.9074117    -0.3329131     3.5502034    
C      3.8795973     0.1201581     2.2277949    
C      4.2787845    -0.6186557     0.9406945    
C      3.3278670    -1.7881190    -1.1413375    
C      2.0529944    -1.7676348    -1.9735006    
C      3.0453453    -0.9386077     0.0990253    
N      2.0761055    -2.5900967    -3.2013632    
H     -4.5879773    -2.5028889    -3.0172314    
H     -6.0096905    -1.4592810    -2.7995458    
H     -5.9023088    -3.0197619    -1.9448029    
H     -3.7563104    -3.2458888    -0.6986905    
H     -3.5818854    -0.9740285     1.1568642    
H     -2.2164394    -2.5333735     2.5222624    
H     -2.2118835    -3.7148129     1.2157058    
H     -3.7293214    -3.3345060     2.0593597    
H     -2.7780516     0.3471474    -0.5466623    
H     -0.1672732    -0.4140547    -1.5302348    
H     -0.4117325     1.3637092    -3.1600851    
H     -1.9042202     1.9338152    -2.3912716    
H     -2.1989592     0.4013315    -4.4378204    
H     -3.1098919    -0.0620189    -2.9930884    
H     -0.8496638     1.1304775     1.1731716    
H      1.4597801     2.9599198     0.9749753    
H     -0.4370093     2.4375831     3.3086108    
H     -1.3496902     4.6839446     2.9008917    
H     -1.6762552     3.5729064     1.5747622    
H      1.7723437     3.0998083     4.0705926    
H      0.6668487     4.4533706     4.3088126    
H      1.8115304     4.4740161     2.9640992    
H     -1.0633878     5.8170841     0.7528682    
H      0.1061942     4.6210300     0.2132225    
H      0.5028884     5.7128982     1.5475711    
H      5.6887760     1.3173848     2.3236082    
H      4.7498406     1.2714242     3.8337351    
H      3.3223963     1.9190603     1.2862779    
H      6.3416669    -0.8313874     2.8439807    
H      3.3272369    -0.5574619     2.8879503    
H      4.7855927    -1.5438893     1.2123323    
H      4.9626923     0.0038492     0.3601346    
H      4.1578638    -1.3547417    -1.6988226    
H      3.5874918    -2.8037487    -0.8453666    
H      1.8475801    -0.7391581    -2.2760112    
H      1.2197477    -2.1080022    -1.3539924    
H      2.5936445    -0.0017375    -0.2342389    
H      2.3021566    -1.4447324     0.7206730    
H      1.1521532    -2.3989278    -3.6662138    
H      2.1576549    -3.5866208    -2.9841097    
H      2.8323013    -2.3009823    -3.8277444    
