34

O     -2.7644909    -0.0755178     1.6125768    
C     -2.1076418     0.3832991     0.6864792    
C     -2.6831147     1.3429514    -0.2908024    
C     -2.3776627     1.3489118    -1.6532011    
N     -1.5915644     0.5586750    -2.4518343    
C     -1.7221194     1.0420308    -3.7187344    
N     -2.5019684     2.0734758    -3.8098543    
C     -2.9519991     2.3031275    -2.5314218    
C     -3.8378625     3.2631344    -2.0548280    
C     -4.1563578     3.2344095    -0.7121135    
C     -3.6009885     2.2896748     0.1470710    
N     -0.7978541     0.0926228     0.4514997    
C      0.0627134    -0.7599931     1.1511814    
C      1.3910139    -0.8037680     0.7383008    
C     -0.3534382    -1.5630769     2.2106264    
C      0.5557281    -2.3919295     2.8464108    
C      1.8764164    -2.4398587     2.4429686    
C      2.2951088    -1.6411093     1.3804602    
C      3.6739211    -1.6811123     0.9404279    
N      4.6499001    -2.4052877     1.5426899    
N      5.7304688    -2.1958025     0.8808705    
N      5.4347214    -1.3724043    -0.0964274    
N      4.1672580    -1.0191323    -0.1064929    
H     -1.1001842    -0.2795224    -2.1856816    
H     -1.2122077     0.6049904    -4.5544291    
H     -4.2627131     3.9925037    -2.7237049    
H     -4.8506440     3.9564949    -0.3125100    
H     -3.8687680     2.2853195     1.1929079    
H     -0.3369534     0.6455286    -0.2607775    
H      1.7377259    -0.1891743    -0.0781592    
H     -1.3807950    -1.5292948     2.5327298    
H      0.2226063    -3.0067195     3.6675859    
H      2.5899401    -3.0821471     2.9326765    
H      6.1067911    -1.0384587    -0.7758580    
