32

C     -1.4815017    -0.0513837    -2.4079688    
C     -1.2770267     0.3537617    -3.7264987    
C     -0.0375208     0.8498336    -4.1226759    
C      0.9961807     0.9681268    -3.2092726    
C      0.7994109     0.5802235    -1.8576019    
C     -0.4548328     0.0461700    -1.4865773    
C      1.8111319     0.8175295    -0.8627618    
C      1.3874801     0.5421740     0.5604805    
C      0.4089385    -0.6315470     0.6082119    
O     -0.7154398    -0.3906369    -0.2370168    
O      2.9348414     1.2647751    -1.1204493    
C     -0.0905802    -0.8606237     2.0114444    
C     -1.0915076    -0.0537871     2.5391463    
C     -1.5223288    -0.2261241     3.8378408    
C     -0.9475472    -1.2090133     4.6405188    
C      0.0493431    -2.0238163     4.1142193    
C      0.4692860    -1.8481159     2.8085246    
O     -1.3934223    -1.3303002     5.9154823    
O     -2.2411462     0.2690928    -4.6549635    
O      2.1639276     1.4669507    -3.6296796    
H     -2.4256850    -0.4540499    -2.0785637    
H      0.1192980     1.1522990    -5.1437731    
H      0.8997662     1.4433906     0.9441601    
H      2.2629465     0.3409367     1.1773432    
H      0.9205964    -1.5352255     0.2398303    
H     -1.5420448     0.7065484     1.9201758    
H     -2.2991727     0.3938545     4.2564224    
H      0.4979765    -2.7952844     4.7230340    
H      1.2432641    -2.4863447     2.4085900    
H     -0.9084731    -2.0246399     6.3865492    
H     -3.0641645    -0.0905959    -4.2849110    
H      2.7878991     1.5236021    -2.8652996    
