47

C     -2.5875869     0.1091298     0.0260784    
N     -2.3380105    -1.0665840     0.8424064    
C     -2.0110981    -0.7409553     2.0842972    
N     -2.0126051     0.6159677     2.2274042    
C     -2.3299482     1.2311410     1.0344865    
C     -4.0406451     0.2243574    -0.4183236    
O     -2.4025621     2.4209183     0.8618880    
C     -1.5844682     0.1918219    -1.1168766    
C     -0.2317725     0.2312986    -0.8013983    
C      0.7322945     0.3120805    -1.8003167    
C      0.3232589     0.3442812    -3.1319074    
C     -1.0211890     0.2964576    -3.4458264    
C     -1.9781758     0.2232496    -2.4464436    
N     -1.7240063    -1.5718698     3.0528704    
C     -1.7125836     1.3260377     3.4510937    
C     -5.1388924    -0.4337213     0.3633284    
C     -4.7750568    -0.9478356    -0.9964713    
C      2.1577727     0.3699824    -1.4517276    
C      2.6921559    -0.4070400    -0.4298800    
C      4.0522139    -0.3130686    -0.1381129    
C      4.8240691     0.5655764    -0.9052411    
C      3.0304506     1.2194036    -2.1356446    
C      4.6391523    -1.0794279     0.8937787    
N      4.3228256     1.3110042    -1.8728197    
C      5.1405907    -1.7273303     1.7757881    
C      5.7419346    -2.5002206     2.8336026    
H     -2.3664378    -2.0030136     0.4689543    
H     -4.2410381     1.2069914    -0.8275004    
H      0.0889732     0.2276221     0.2297429    
H      1.0620318     0.3907094    -3.9171762    
H     -1.3308874     0.3164632    -4.4790696    
H     -3.0205024     0.1885231    -2.7127378    
H     -1.7349830    -2.5704119     2.9037022    
H     -1.4947688    -1.2279790     3.9742817    
H     -0.6949285     1.1170501     3.7762894    
H     -2.4266896     1.0634665     4.2297281    
H     -1.8036114     2.3887666     3.2347855    
H     -6.0651429     0.1067933     0.4771696    
H     -4.8856104    -1.0350927     1.2211653    
H     -4.2633676    -1.8935245    -1.0716087    
H     -5.4526648    -0.7643254    -1.8156913    
H      2.0749421    -1.0998617     0.1217517    
H      5.8863839     0.6673661    -0.7285023    
H      2.6710997     1.8701430    -2.9215385    
H      5.2030059    -3.4368131     2.9672319    
H      5.7122258    -1.9349279     3.7642200    
H      6.7802564    -2.7177817     2.5878552    
