128

N      5.6263576    -2.4498663     5.3426438    
C      5.0802015    -2.0148129     4.0364587    
C      4.4620270    -3.2872894     3.4235678    
O      4.9015955    -4.3774270     3.7689173    
C      6.2122313    -1.4872228     3.1462130    
C      5.7005242    -0.8893042     1.8338464    
C      6.8433140    -0.2496338     1.0451397    
N      7.3499072     0.9047581     1.7633130    
C      8.6069712     1.3379517     1.8036419    
N      8.8893402     2.4172110     2.5299586    
N      9.5915101     0.6831781     1.1994579    
N      3.5062136    -3.0850054     2.5267218    
C      2.7240615    -4.1337536     1.9188431    
C      2.3497775    -3.6686643     0.5207384    
O      2.3411659    -2.4560016     0.2690455    
C      1.4092228    -4.3240229     2.7263388    
C      1.7411528    -4.7119503     4.1274723    
C      1.9243134    -5.9763147     4.6132631    
C      2.0733957    -3.8199691     5.1917372    
N      2.3496718    -5.9299796     5.9089180    
C      2.4611767    -4.6285020     6.2920875    
C      2.0715321    -2.4301855     5.3276626    
C      2.8847470    -4.0705091     7.4935278    
C      2.5040595    -1.8834657     6.5172941    
C      2.9159160    -2.6938475     7.5851819    
N      2.0132521    -4.5718343    -0.3906536    
C      1.4132410    -4.1210105    -1.6457690    
C      0.1296062    -3.3670448    -1.2657119    
O     -0.7814476    -3.9159275    -0.6602177    
C      1.1344270    -5.4118167    -2.4163775    
C      0.9592338    -6.4480020    -1.3072347    
C      1.9975309    -6.0205596    -0.2735553    
N      0.1299332    -2.0661245    -1.5790046    
C     -0.9309970    -1.1570535    -1.2076268    
C     -1.2950922    -0.3441347    -2.4441805    
O     -0.4223720     0.0090588    -3.2276103    
C     -0.4304875    -0.1854352    -0.0933961    
O      0.1740214    -0.8889615     0.9616969    
C     -1.5852799     0.6239734     0.4847721    
N     -2.6013095    -0.1005737    -2.6310992    
C     -3.0362681     0.8199379    -3.6613080    
C     -3.0290557     2.2528864    -3.1218909    
O     -3.1501201     2.4806176    -1.9253694    
C     -4.4624938     0.4851172    -4.1385612    
O     -4.4967940    -0.5917419    -5.0329163    
N     -2.8443397     3.2014310    -4.0524274    
C     -3.2108462     4.5790906    -3.7652556    
C     -4.7444126     4.6006487    -3.6783071    
O     -5.4096591     3.8864364    -4.4303411    
C     -2.6797329     5.5152936    -4.8606430    
C     -1.1479229     5.4338187    -4.9163760    
C     -3.1529113     6.9453422    -4.6097980    
C     -0.5684840     6.0216329    -6.1978720    
N     -5.2598501     5.3373147    -2.6995601    
C     -6.6741841     5.5397390    -2.5016575    
C     -6.9358044     7.0823513    -2.3907099    
O     -5.9395174     7.7872310    -2.1355824    
C     -7.1531709     4.8783329    -1.2045269    
C     -6.8744548     3.3728530    -1.1138654    
C     -7.3059559     2.8627320     0.2603624    
C     -7.5942527     2.5994377    -2.2160159    
O     -8.1077276     7.4627153    -2.5504170    
H      6.4385542    -1.9005222     5.6421207    
H      5.8882435    -3.4493823     5.2104576    
H      4.9024488    -2.4207422     6.0748565    
H      4.3135348    -1.2525275     4.1810629    
H      6.9019321    -2.3020787     2.9249612    
H      6.7479868    -0.7102564     3.6909685    
H      4.9349934    -0.1385996     2.0334117    
H      5.2496296    -1.6602999     1.2106367    
H      6.4792085     0.0472914     0.0563939    
H      7.6372488    -0.9854945     0.9194177    
H      6.6355585     1.5094875     2.1448392    
H      9.8237751     2.7865319     2.5581342    
H      8.1659072     2.9435691     2.9875447    
H      9.4070437    -0.0901622     0.5848295    
H      10.5368663     1.0200758     1.2587475    
H      3.1855897    -2.1536353     2.2911653    
H      3.3106679    -5.0544239     1.9203077    
H      0.7902667    -5.0847521     2.2524599    
H      0.8538270    -3.3836944     2.7068704    
H      1.7737170    -6.9163514     4.1176434    
H      2.5394118    -6.7318765     6.4858754    
H      1.7141582    -1.8029185     4.5248290    
H      3.1662465    -4.6928325     8.3287808    
H      2.4965242    -0.8118161     6.6495464    
H      3.2304574    -2.2291801     8.5073774    
H      2.0966720    -3.4470042    -2.1671473    
H      1.9890147    -5.6582485    -3.0449974    
H      0.2497703    -5.3206391    -3.0415650    
H      1.1114017    -7.4654575    -1.6560114    
H     -0.0420917    -6.3577373    -0.8858388    
H      1.7328463    -6.3426968     0.7305256    
H      2.9873842    -6.4085098    -0.5339626    
H      0.8667782    -1.6534656    -2.1357780    
H     -1.7659186    -1.7530367    -0.8311250    
H      0.3012000     0.4940912    -0.5589730    
H      0.9602625    -1.3656981     0.6251862    
H     -1.2128542     1.2422225     1.2962672    
H     -2.3401808    -0.0456137     0.8887988    
H     -2.0314021     1.2711469    -0.2656719    
H     -3.2429225    -0.2424004    -1.8629325    
H     -2.3350559     0.7330935    -4.4968389    
H     -4.8768586     1.3440348    -4.6738854    
H     -5.0992719     0.3041408    -3.2636536    
H     -4.2428175    -1.4078370    -4.5776918    
H     -2.9394811     2.9320645    -5.0224091    
H     -2.7917932     4.8423620    -2.7906929    
H     -3.0986175     5.1730420    -5.8140989    
H     -0.8491166     4.3876024    -4.8404201    
H     -0.7406361     5.9624730    -4.0532834    
H     -4.2401754     7.0079181    -4.5916340    
H     -2.7967199     7.6049782    -5.3950681    
H     -2.7846382     7.3134602    -3.6546514    
H      0.5100979     5.8917232    -6.2116734    
H     -0.7845864     7.0833571    -6.2742721    
H     -0.9881910     5.5237946    -7.0686739    
H     -4.7042549     6.0495048    -2.2356917    
H     -7.2221312     5.1534321    -3.3653288    
H     -8.2256151     5.0722857    -1.1227417    
H     -6.6579502     5.3890045    -0.3727655    
H     -5.7941707     3.2186587    -1.2261255    
H     -7.0780279     1.8051544     0.3601877    
H     -8.3769259     3.0033956     0.3886747    
H     -6.7900430     3.4071356     1.0470662    
H     -7.1812971     2.8466023    -3.1912074    
H     -8.6545395     2.8433938    -2.2176770    
H     -7.4835188     1.5291981    -2.0600577    
