16

C      0.3533370    -1.3184061     0.9614659    
O      1.5277176    -1.7806637     0.9593792    
O     -0.5706821    -1.8141452     1.6636166    
C      0.0442319    -0.1363588     0.0955766    
C     -1.2533784     0.4024237     0.0537140    
C     -1.5326885     1.4995550    -0.7566530    
C     -0.5333002     2.0665142    -1.5227147    
C      0.7489588     1.5546910    -1.4965709    
C      1.0450351     0.4558267    -0.6940005    
O     -2.2628408    -0.1174022     0.7874599    
O      2.3128542    -0.0125196    -0.7023427    
H     -2.5400678     1.8824810    -0.7623349    
H     -0.7563547     2.9167247    -2.1477621    
H      1.5441317     1.9813042    -2.0859657    
H     -1.8699371    -0.8832668     1.2941694    
H      2.3240188    -0.7923596    -0.0775352    
