15

C     -0.4644112    -1.9569959     0.8556993    
O     -1.6702134    -2.3026863     0.8926912    
O      0.4976877    -2.6480015     1.2709395    
C     -0.1441434    -0.5982298     0.2624456    
C      1.1665436    -0.1427651     0.2122677    
C      1.4659038     1.0937196    -0.3255624    
C      0.4463016     1.8976898    -0.8247610    
C     -0.8712719     1.4477943    -0.7786449    
C     -1.1570626     0.2112659    -0.2389025    
O      0.6859171     3.1224337    -1.3638484    
H      1.9402822    -0.7870429     0.6063201    
H      2.4916111     1.4321352    -0.3557757    
H     -1.6515823     2.0819389    -1.1693625    
H     -2.1712462    -0.1598097    -0.1911395    
H      1.6342765     3.3262089    -1.3365972    
