32

B      3.7544940    -0.8109178     2.8918647    
O      4.7807105    -1.6797827     2.8870945    
O      3.4088584    -0.1876866     4.0311033    
C      2.8944715    -0.4403386     1.5752552    
N      1.7223160     0.3653537     1.9007028    
S      1.3248624     1.5805926     0.8752998    
O      0.5971043     2.5977364     1.5966262    
O      2.4768675     2.0439222     0.1249409    
C      0.2533040     0.7374129    -0.2950717    
C      0.8461940     0.2971032    -1.4653592    
C      0.1179039    -0.4171340    -2.3993363    
C     -1.2253040    -0.6944128    -2.1554008    
C     -2.0077320    -1.4470608    -3.1161457    
N     -3.3117850    -1.7813111    -2.9551237    
N     -3.6555771    -2.4440970    -3.9966989    
N     -2.6030838    -2.5178942    -4.7767102    
N     -1.5515536    -1.9154254    -4.2769564    
C     -1.8290449    -0.2497730    -0.9804829    
C     -1.0872456     0.4601122    -0.0458650    
C     -1.7696758     0.9395189     1.2041761    
F     -2.9738807     0.3603259     1.3789530    
F     -2.0206461     2.2610527     1.1933234    
F     -1.0903907     0.6698333     2.3304655    
H      5.0268917    -2.1239882     2.0736092    
H      3.9230426    -0.4042800     4.8155601    
H      2.5459681    -1.3254906     1.0355585    
H      3.5159722     0.1390168     0.8841919    
H      1.6668649     0.6371547     2.8702415    
H      1.8828969     0.5429434    -1.6253083    
H      0.5754334    -0.7617616    -3.3123652    
H     -2.5963196    -2.9908572    -5.6728440    
H     -2.8708843    -0.4704225    -0.8082616    
