64

C      9.0871421    -1.6717585    -2.2490316    
C      7.6852286    -0.1470976    -3.6680536    
C      3.7043102     1.9650333    -0.4998470    
C      6.8189787    -1.0776146    -1.4694671    
C      3.0919189    -0.4552156    -0.2928358    
C      6.2439416     0.0564099    -1.1087071    
C      1.6471794    -0.2573147    -0.6543838    
C     -0.4513172     0.8456871     0.1530072    
C     -1.3731060    -0.3292748    -0.1958533    
C      5.4212748     0.2127470     0.1395147    
C     -6.8741601    -0.2885770     1.7963401    
C     -4.6473149    -0.5502788     2.8967631    
C     -5.0712802    -1.5901053     0.6684853    
C     -5.3451165     1.6750693     1.9922787    
C     -5.7624619     0.6378538    -0.2388242    
N      0.9109860     0.3794743     0.4807390    
N     -2.7692359     0.1341543    -0.3585479    
C      7.6607736    -1.3184516    -2.6901119    
C      3.9937745     0.5218940    -0.2267097    
C     -5.8285416     0.3963274     2.6773790    
C     -6.2497337    -0.6409130     0.4455629    
C     -4.0196355    -0.9071009     1.5456415    
C     -4.7143622     1.3216665     0.6420897    
C     -3.5208383     0.3950647     0.9070273    
H      9.7034368    -1.9170258    -3.1114848    
H      9.0861957    -2.5265966    -1.5756516    
H      9.5410306    -0.8274895    -1.7321548    
H      6.6788455     0.1104704    -3.9888378    
H      8.2656794    -0.4146139    -4.5487298    
H      8.1500257     0.7251197    -3.2131248    
H      2.7982696     2.1178197    -1.0769625    
H      4.5318044     2.4024107    -1.0551593    
H      3.6408631     2.5177964     0.4379567    
H      6.7258645    -1.9471581    -0.8285193    
H      3.4029222    -1.4648937    -0.0743915    
H      6.3321928     0.9383265    -1.7258532    
H      1.2005678    -1.2224591    -0.8800657    
H      1.5601843     0.3911401    -1.5270040    
H     -0.8405042     1.3900128     1.0144209    
H     -0.3816668     1.5344795    -0.6914977    
H     -1.3474392    -1.0867063     0.5888127    
H     -1.0574719    -0.7867776    -1.1337855    
H      5.8356358     1.0306899     0.7345271    
H      5.4803008    -0.7068525     0.7227588    
H     -7.7332680     0.3710144     1.6531158    
H     -7.2405305    -1.1933100     2.2872737    
H     -4.9943477    -1.4568962     3.3946962    
H     -3.9129165    -0.0764849     3.5504345    
H     -4.6642371    -1.9121981    -0.2923866    
H     -5.4254269    -2.4907258     1.1725011    
H     -4.6248842     2.1890661     2.6310623    
H     -6.1885017     2.3503474     1.8410724    
H     -6.6066908     1.3144105    -0.3811536    
H     -5.3736172     0.4057953    -1.2314745    
H      1.4740421     1.1818956     0.7909808    
H      0.8885437    -0.2815303     1.2680759    
H     -3.3034922    -0.5714349    -0.8816860    
H     -2.7811270     0.9904569    -0.9284602    
H      7.2464220    -2.1928937    -3.2099289    
H     -6.2787304     0.6482007     3.6431098    
H     -7.0031043    -1.1291542    -0.1811294    
H     -3.1920747    -1.5984069     1.7215447    
H     -4.3772473     2.2460525     0.1631004    
H     -2.8511029     0.8963172     1.6088897    
