70

N     -3.0008745     3.2195889     0.2307956    
C     -4.1455236     3.6801093    -4.9151900    
O     -1.9182026    -3.4145969     2.7718408    
C     -4.7853113     2.8984031    -3.7598817    
N     -0.7501960     1.1972560     1.1425212    
O     -4.9363916     1.5289168    -4.1304056    
C     -6.1563726     3.5050809    -3.4379777    
N      1.6852719    -1.4647177     0.7380863    
C     -3.8305629     2.8505650    -2.5418653    
N      2.7796821     0.6108447     0.4571701    
C     -3.4187598     4.2164219    -1.9927952    
N      4.2837980    -4.7673176     1.5800776    
C     -2.4164065     4.0347316    -0.8585769    
N      5.4837451    -4.6284327     1.0345337    
C     -3.3937858     1.8814227    -0.2718585    
N     -0.5616485    -1.7304535     0.9613905    
C     -4.4152070     2.0276347    -1.3902940    
C     -2.1100957     3.1495178     1.4201108    
C     -0.7743583     2.5130592     1.1216314    
C      0.3690862     3.2868955     0.8665381    
C      1.5597563     2.6487253     0.6394846    
C      1.6066522     1.2378151     0.6640147    
C      0.3923267     0.5427469     0.9161017    
C      0.4879876    -0.9021865     0.8977541    
C      2.7667615    -0.7074244     0.5298610    
C      4.0380868    -1.4049362     0.3405630    
C      5.0883799    -0.7790977    -0.2949301    
C      6.3132960    -1.4252005    -0.5303559    
C      6.5345823    -2.7168461    -0.1349762    
C      5.4962395    -3.3852855     0.5331918    
C      4.2387869    -2.7351229     0.7766822    
C      3.4971248    -3.6884327     1.4677646    
C     -0.3709710    -3.1668821     0.9233184    
C     -0.6166029    -3.7346593     2.3267068    
C     -2.1214999    -2.0138739     2.7970957    
C     -1.8930105    -1.3869288     1.4133465    
H     -3.8662858     3.6879053     0.5268154    
H     -4.1175617     4.7428524    -4.6980313    
H     -4.7304737     3.5424716    -5.8226619    
H     -3.1361754     3.3242043    -5.1073191    
H     -5.4537897     1.4718853    -4.9423008    
H     -6.6981724     2.8784269    -2.7359091    
H     -6.7473660     3.5719637    -4.3490696    
H     -6.0552261     4.5064512    -3.0332404    
H     -2.9375049     2.3313594    -2.9064390    
H     -4.2955200     4.7550185    -1.6326978    
H     -2.9492619     4.8187106    -2.7676724    
H      4.0550033    -5.6443785     2.0272305    
H     -1.5239867     3.5253038    -1.2248613    
H     -2.1275540     5.0061109    -0.4557944    
H     -3.8163829     1.3077341     0.5524989    
H     -2.5011018     1.3700589    -0.6306408    
H     -4.6914794     1.0421556    -1.7610931    
H     -5.3157706     2.5094188    -1.0095723    
H     -2.6100814     2.5533298     2.1848590    
H     -1.9490346     4.1609888     1.7940267    
H      0.3168309     4.3639125     0.8608896    
H      2.4760574     3.1837126     0.4486314    
H      4.9527221     0.2372017    -0.6300170    
H      7.0931265    -0.8807426    -1.0412427    
H      7.4701728    -3.2200354    -0.3173413    
H      2.5095890    -3.6530444     1.8734433    
H      0.6374966    -3.3855063     0.5793589    
H     -1.1045514    -3.5916851     0.2329140    
H     -0.5530089    -4.8227536     2.3259431    
H      0.1268694    -3.3222844     3.0263234    
H     -1.4368094    -1.5566518     3.5266120    
H     -3.1520997    -1.8720560     3.1209475    
H     -2.6105593    -1.8119726     0.7066159    
H     -1.9925816    -0.3064759     1.4675056    
