40

N      0.3491835     1.4303448     1.3074627    
C     -0.6463862     3.3344473    -1.4806066    
N     -0.2069559     3.2002393    -0.2485129    
C     -0.0529186     1.9147385     0.1161505    
C     -0.3059362     0.8036681    -0.7247918    
C     -0.8552545     1.1052124    -1.9913950    
N     -0.9874684     2.3927551    -2.3468058    
N      0.3824007     0.0906486     1.2861476    
C      0.0063613    -0.3210233     0.0899302    
N     -1.2672654     0.1830731    -2.8681868    
C     -0.0182653    -1.7375847    -0.2512536    
C      0.4042213    -2.1770704    -1.5037283    
C      0.3796811    -3.5234074    -1.8176828    
C     -0.0650257    -4.4639750    -0.8967637    
C     -0.4671791    -4.0213883     0.3596366    
C     -0.4411274    -2.6798998     0.6835283    
C     -0.0850316    -5.9236051    -1.2305230    
C      0.7322354     2.1943067     2.4900688    
C      1.0911346     1.2187326     3.6065118    
C      1.9369152     3.0650562     2.1261178    
C     -0.4544567     3.0697538     2.8996117    
H     -0.7671393     4.3523316    -1.8305932    
H     -1.7083825     0.5011911    -3.7136959    
H     -1.2753384    -0.7898921    -2.6147715    
H      0.7910585    -1.4641025    -2.2178194    
H      0.7174994    -3.8475690    -2.7907097    
H     -0.8027784    -4.7406135     1.0925488    
H     -0.7487891    -2.3417061     1.6606539    
H     -0.0261124    -6.0781261    -2.3044259    
H     -0.9913748    -6.3907164    -0.8520642    
H      0.7656888    -6.4209453    -0.7656284    
H      1.3775826     1.7761222     4.4928099    
H      1.9160679     0.5817323     3.3018868    
H      0.2417240     0.5846042     3.8426859    
H      2.2408793     3.6531938     2.9862500    
H      1.6742448     3.7366448     1.3128171    
H      2.7718677     2.4419293     1.8131514    
H     -0.1913056     3.6631058     3.7695965    
H     -1.3150151     2.4507511     3.1436734    
H     -0.7206979     3.7365914     2.0836228    
