41

C     -1.4262734     0.9219630    -2.5580383    
C     -0.3887299     0.4311095    -2.1956009    
C      0.8189049    -0.1132498    -1.6999694    
C      1.7452061    -0.6848899    -2.5894579    
C      2.9232614    -1.2268170    -2.1317449    
C      4.2807907    -1.6482691     0.0354745    
N      2.7595064    -0.7223237     1.4071247    
C      2.2599997    -0.5992739     0.1202479    
C      2.1519464    -0.2364304     2.5479646    
C      0.7985912     1.3788724     3.4655279    
C      1.6013622    -0.2060656     4.8656790    
C      2.2609071    -0.8313655     3.8172603    
C     -5.1257176    -1.3822695    -3.8586131    
C     -3.1531655     2.6036204    -2.1017445    
C     -2.6713696     1.5054354    -3.0609909    
O     -2.5242608     1.9859399    -4.3873463    
C      3.1919711    -1.1901886    -0.7640293    
C      3.9842005    -1.3545688     1.3247229    
C      1.0663614    -0.0684937    -0.3312797    
N      1.4159093     0.8539601     2.3992840    
N      0.0529974     2.4647412     3.2738558    
N      0.8846878     0.8871815     4.7146816    
Cl     3.0875987    -2.3327034     4.1268697    
C     -3.6719498     0.3899530    -3.1306261    
N     -4.2512280    -0.1667039    -2.1252480    
C     -5.0759255    -1.1678528    -2.5193394    
S     -4.0899806    -0.2805854    -4.6818044    
H      1.5106233    -0.6961138    -3.6432327    
H      3.6290438    -1.6759079    -2.8133388    
H      5.1712652    -2.1274835    -0.3179008    
H      1.6487363    -0.6145574     5.8652859    
H     -5.6978574    -2.1024714    -4.4045588    
H     -4.0331064     3.0836131    -2.5230443    
H     -2.3683549     3.3407263    -1.9560703    
H     -3.4097350     2.1528542    -1.1489964    
H     -1.8273425     2.6565885    -4.4107760    
H      4.5781981    -1.5125298     2.2018702    
H      0.3519010     0.3686043     0.3449867    
H     -0.0103676     2.8595092     2.3520940    
H     -0.4072901     2.8835534     4.0625988    
H     -5.6253215    -1.7053681    -1.7693095    
