79

C     -7.6680574     1.3013786    -2.0241873    
N     -2.9907380     2.8530824    -0.1509602    
O     -1.7493749    -3.5715514     2.4853281    
C     -7.1901325     1.9265936    -0.7045792    
N     -1.0410098     0.9597389     0.1210425    
O     -6.9706512     0.9126972     0.2698670    
C     -8.2601595     2.9128558    -0.2128330    
N      0.6856803     2.3015893    -0.3340149    
C     -5.8285927     2.6426515    -0.8985752    
N      2.4606987     0.6616407    -0.3456078    
C     -5.3513317     3.2718603     0.4149484    
N      1.6744551    -1.5489039     0.0506462    
C     -3.9621119     3.8796447     0.2819949    
N     -0.5229752    -2.1314469     0.4054381    
C     -3.3911255     2.3199440    -1.4728314    
C     -4.7577857     1.6589019    -1.3828674    
C     -1.5996732     3.3447490    -0.1505811    
C     -0.6562890     2.1881694    -0.1233391    
C      0.0999272     0.1986742     0.0661027    
C      1.1874052     1.0398979    -0.2156978    
C      1.4374540     3.4949502    -0.6181801    
C      2.6122810    -0.6480662    -0.2109434    
C      0.3930001    -1.1779340     0.2038267    
C     -1.8929435    -1.8453875     0.7741402    
C     -2.0972589    -2.2186371     2.2484235    
C     -0.4053159    -3.8284549     2.1339307    
C     -0.1526407    -3.5071723     0.6552972    
N      3.9050607    -1.1464577    -0.3176510    
C      4.4683706    -2.0449719     0.5866598    
C      3.9196825    -2.8472022     1.5643325    
C      4.7911789    -3.6179546     2.3174700    
C      6.1638510    -3.5822765     2.0957117    
C      6.7193595    -2.7721711     1.1220770    
C      5.8610653    -1.9916003     0.3605504    
N      6.1371326    -1.1196175    -0.6646177    
C      4.9779020    -0.6413208    -1.0526383    
N      4.8430352     0.2250917    -2.0720417    
C      3.6574174     0.3102894    -2.8938928    
C      6.0487862     0.7526966    -2.6748708    
H     -7.6439494     2.0354325    -2.8241586    
H     -8.6918920     0.9474840    -1.9214937    
H     -7.0486011     0.4521850    -2.2964653    
H     -3.0307575     2.0602084     0.5061399    
H     -7.7921137     0.4295807     0.4139294    
H     -8.0652822     3.2160196     0.8115754    
H     -9.2418739     2.4441109    -0.2391249    
H     -8.2898094     3.7924545    -0.8488076    
H     -5.9735617     3.4246540    -1.6484066    
H     -5.3594930     2.5010040     1.1861673    
H     -6.0336467     4.0617061     0.7218028    
H     -3.9664796     4.6792111    -0.4604284    
H     -3.6514840     4.2885268     1.2434180    
H     -2.6489884     1.5895439    -1.7930353    
H     -3.4174148     3.1490374    -2.1815118    
H     -5.0130930     1.2817045    -2.3709387    
H     -4.7281779     0.8119229    -0.6961544    
H     -1.4340202     3.9668820     0.7346487    
H     -1.4266359     3.9603344    -1.0372040    
H      1.2997593     4.2285077     0.1754155    
H      1.1264620     3.9229469    -1.5709043    
H      2.4877259     3.2171075    -0.6721080    
H     -2.5481063    -2.4640929     0.1546550    
H     -2.1033797    -0.7907785     0.6121944    
H     -1.4820966    -1.5657667     2.8854714    
H     -3.1455677    -2.1305371     2.5324747    
H     -0.2322612    -4.8853506     2.3362642    
H      0.2664075    -3.2233983     2.7627440    
H      0.8959053    -3.6490201     0.4008089    
H     -0.7796398    -4.1531384     0.0342961    
H      2.8547331    -2.8753610     1.7306731    
H      4.3956733    -4.2604001     3.0893565    
H      6.8105381    -4.2009337     2.7000897    
H      7.7834325    -2.7410962     0.9507467    
H      3.1294459     1.2464961    -2.7031440    
H      2.9859171    -0.5223903    -2.6918912    
H      3.9525701     0.2711357    -3.9428729    
H      6.8458681     0.7304439    -1.9383643    
H      5.8601834     1.7773126    -2.9910286    
H      6.3551914     0.1558712    -3.5379742    
