48

O     -1.3539260    -5.6563102     1.7797918    
C     -1.0832439    -4.4812124     1.6468866    
N     -1.0976261    -3.6087967     2.7115990    
N     -0.7421680    -3.9405077     0.4160106    
C     -0.6984313    -4.7838599    -0.7651869    
C     -0.4503223    -2.6248590     0.3454320    
C     -0.4787386    -1.7719154     1.4412211    
C     -0.8201075    -2.2467632     2.7515177    
O     -0.8764653    -1.6085366     3.7857139    
N     -0.0898529    -1.9210558    -0.7719940    
C      0.1068952    -0.6373925    -0.3696038    
N     -0.1219978    -0.5247013     0.9599452    
N      0.4770134     0.5441601    -0.8648312    
C      0.6955376     0.8583118    -2.2617286    
C     -0.6112086     0.8184545    -3.0577802    
C     -1.6079486     1.8784837    -2.5913644    
C     -2.8530943     1.8914058    -3.4707142    
C      0.4695258     1.4389818     0.1966829    
C      0.0961780     0.7740254     1.3313401    
C      0.8223934     2.8556882     0.0365243    
C      2.1451483     3.2383482    -0.2108293    
C      3.2492347     2.2272735    -0.2809011    
C      2.4194078     4.5910956    -0.3694553    
C      1.4191483     5.5421771    -0.2735275    
C      0.1169857     5.1556219    -0.0006632    
C     -0.1791682     3.8149082     0.1556627    
H     -1.3497875    -4.0339858     3.5998249    
H     -0.9882733    -5.7876932    -0.4617789    
H      0.3118110    -4.8145570    -1.1685219    
H     -1.4029721    -4.4216390    -1.5109538    
H      0.0271870    -2.2907932    -1.7065736    
H      1.4134086     0.1467797    -2.6733757    
H      1.1160742     1.8627101    -2.3085245    
H     -1.0746464    -0.1656523    -2.9840277    
H     -0.3681075     0.9953076    -4.1055452    
H     -1.1369294     2.8629240    -2.6223136    
H     -1.9059492     1.6849531    -1.5590207    
H     -3.5537259     2.6491409    -3.1293218    
H     -3.3568381     0.9278199    -3.4461795    
H     -2.5922028     2.1136330    -4.5026809    
H     -0.0143355     1.1202700     2.3368470    
H      4.1996101     2.6980911    -0.0439057    
H      3.3312865     1.8052287    -1.2816089    
H      3.0771953     1.4178848     0.4244856    
H      3.4348778     4.9033106    -0.5631038    
H      1.6580799     6.5871426    -0.3997923    
H     -0.6623644     5.8958969     0.0912992    
H     -1.1907346     3.5046969     0.3656543    
