25

C      1.8196415    -0.9806074    -0.1866988    
C     -0.6671497    -0.0011923     0.2936558    
C      3.1718243    -1.5693495    -0.4047383    
C      0.2345774     0.5924478    -0.6214731    
C     -2.2079626     1.5941525    -0.1723769    
C     -0.2248017     1.7683298    -1.3043659    
N     -0.2930846    -1.1117275     0.9753012    
N     -3.4229631     2.1152180     0.0390233    
N     -1.4348876     2.2464291    -1.0651912    
N     -1.8878272     0.4988374     0.5145978    
C      0.9090279    -1.5785176     0.7397590    
O      1.3374085    -2.6681854     1.3852248    
C      0.4371951    -3.2698395     2.3098997    
N      1.4629162     0.0923372    -0.8469429    
N      0.5675682     2.3821887    -2.1836765    
H      3.7183424    -1.5937628     0.5360276    
H      3.0742813    -2.5949373    -0.7553432    
H      3.7143526    -0.9774542    -1.1343138    
H     -4.0391804     1.6574956     0.6851315    
H     -3.6947303     2.9344344    -0.4728955    
H      0.1529746    -2.5535525     3.0814253    
H     -0.4632897    -3.6066552     1.7952976    
H      0.9811819    -4.1085861     2.7348443    
H      0.2434980     3.2096103    -2.6523289    
H      1.4836749     1.9994222    -2.3418139    
