160

N      4.9562662    -3.7313346    -6.0377192    
C      3.8312173    -3.6140676    -5.0789221    
C      3.1566341    -5.0005234    -5.0645121    
O      3.5098589    -5.8419475    -5.8843594    
C      2.8367936    -2.5555937    -5.5448834    
N      2.2560701    -5.1919557    -4.1088371    
C      1.3852779    -6.3469152    -4.0538023    
C     -0.0233844    -5.8313480    -3.7533519    
O     -0.1841951    -4.7065452    -3.2863017    
C      1.8150840    -7.3027640    -2.9264769    
C      3.2068364    -7.8773459    -3.1859326    
C      3.5669348    -8.9356078    -2.1360536    
N      4.8812437    -9.4981830    -2.3723353    
C      5.1666102    -10.4404568    -3.2666536    
N      4.2166905    -11.0047429    -4.0033913    
N      6.4354555    -10.8030037    -3.4418930    
N     -1.0097573    -6.6938665    -3.9853177    
C     -2.4037718    -6.4303409    -3.6896106    
C     -2.6463115    -6.7214792    -2.1946989    
O     -3.2897139    -7.6943059    -1.8111936    
C     -3.2665945    -7.3561045    -4.5717864    
O     -2.7985700    -8.6834882    -4.4399064    
C     -3.1887140    -6.9576383    -6.0412997    
N     -2.0007620    -5.8793515    -1.3922695    
C     -2.0117622    -5.9592822     0.0517111    
C     -2.4022858    -4.5862759     0.6016751    
O     -2.5418767    -3.6128207    -0.1303627    
C     -0.6188534    -6.3697443     0.5654439    
C      0.4096391    -5.2621540     0.3334622    
C      1.7449377    -5.5549843     1.0174629    
C      2.5739304    -4.2764330     1.0755980    
N      3.7988264    -4.4704336     1.8886894    
N     -2.5171362    -4.5061663     1.9321522    
C     -2.7399184    -3.2155806     2.5583146    
C     -1.6019373    -2.2832693     2.1169871    
O     -0.4361329    -2.6548697     2.1096511    
C     -2.7425551    -3.3484948     4.0817290    
C     -3.0070077    -2.0016780     4.7581310    
C     -4.3844902    -1.4732768     4.3904208    
O     -5.3998961    -2.1558575     4.5179098    
N     -4.4083215    -0.2327116     3.8958952    
N     -1.9825515    -1.0580620     1.7627697    
C     -1.0649760    -0.0163445     1.3807986    
C     -1.0660270     1.0809635     2.4499073    
O     -1.8771499     1.0952613     3.3702507    
C     -1.5011608     0.5746292     0.0192864    
O     -2.8304685     1.0292258     0.2051557    
C     -1.3778252    -0.4729802    -1.0829737    
N     -0.0874215     1.9798809     2.3175816    
C     -0.0694014     3.2403594     3.0304168    
C     -0.0753142     4.3563854     1.9797620    
O      0.2273248     4.1278901     0.8137407    
C      1.1849968     3.3602691     3.8996501    
N     -0.4022023     5.5617271     2.4415300    
C     -0.3533378     6.7705612     1.6488393    
C      0.1663967     7.8829840     2.5688489    
O     -0.0758026     7.8436920     3.7736039    
C     -1.7604468     7.1415545     1.1402556    
C     -1.7086776     8.3099874     0.1605536    
C     -3.0766502     8.9388603    -0.1181215    
N     -2.8924978     10.3659023    -0.3119537    
C     -3.7512079     11.1997927    -0.8784643    
N     -4.9039876     10.7764529    -1.3918219    
N     -3.4225411     12.4879245    -0.9772156    
N      0.9026670     8.8299939     1.9834294    
C      1.2624322     10.0714878     2.6325405    
C      0.3788801     11.2630945     2.1144691    
O      0.5534645     12.3581849     2.6704337    
C      2.7410315     10.3918886     2.4207235    
C      3.6554492     9.3644025     3.0852684    
C      5.1284353     9.6913033     2.8456104    
C      6.0332773     8.6450207     3.4886977    
N      7.4605239     8.9747488     3.2544341    
O     -0.4213674     11.0168208     1.1886322    
H      4.9189713    -3.0086632    -6.7636177    
H      4.8177413    -4.6687670    -6.4889517    
H      5.8790494    -3.7093418    -5.5938771    
H      4.1992454    -3.3673625    -4.0822865    
H      1.9695886    -2.5175859    -4.8925958    
H      2.4817131    -2.7781185    -6.5483347    
H      3.2977676    -1.5718977    -5.5425702    
H      1.9136687    -4.4106463    -3.5568615    
H      1.4154856    -6.8605103    -5.0192187    
H      1.0828236    -8.1075098    -2.8587931    
H      1.8010364    -6.7569846    -1.9830927    
H      3.9449301    -7.0776182    -3.1584927    
H      3.2364661    -8.3160550    -4.1834984    
H      2.8175698    -9.7299583    -2.1251304    
H      3.5770133    -8.4880323    -1.1433071    
H      5.6576349    -9.0597809    -1.9005944    
H      4.4356386    -11.7637511    -4.6251552    
H      3.2465539    -10.7818076    -3.8660783    
H      7.1741779    -10.4237447    -2.8751911    
H      6.6725311    -11.5471222    -4.0749687    
H     -0.8415449    -7.6237103    -4.3516376    
H     -2.6287482    -5.3781460    -3.8898162    
H     -4.3069134    -7.2844954    -4.2257708    
H     -3.0523091    -9.0036104    -3.5603132    
H     -3.7834298    -7.6499578    -6.6299681    
H     -2.1628922    -7.0029710    -6.3937576    
H     -3.5785142    -5.9541078    -6.1778750    
H     -1.5968828    -5.0328018    -1.7838868    
H     -2.7630503    -6.7040441     0.3357659    
H     -0.3311336    -7.2908349     0.0558533    
H     -0.6951194    -6.5863430     1.6306885    
H      0.0112983    -4.3361418     0.7485672    
H      0.5439592    -5.1055093    -0.7366762    
H      2.2724553    -6.3473903     0.4871570    
H      1.5373962    -5.9001797     2.0304514    
H      1.9621510    -3.4922730     1.5239075    
H      2.8557603    -3.9644738     0.0719410    
H      4.3361212    -3.5983360     1.9461535    
H      4.3926411    -5.2039785     1.4851712    
H      3.5415223    -4.7522430     2.8411912    
H     -2.4540340    -5.3225684     2.5191929    
H     -3.7001178    -2.8081954     2.2185219    
H     -1.7788476    -3.7381247     4.4110530    
H     -3.5358910    -4.0399810     4.3725229    
H     -2.2474767    -1.2668201     4.4959573    
H     -2.9986917    -2.1447725     5.8398432    
H     -5.2984123     0.1916128     3.6889922    
H     -3.5661491     0.3278145     3.8157699    
H     -2.9556250    -0.7902777     1.7722156    
H     -0.0702564    -0.4618884     1.3031189    
H     -0.8593566     1.4388816    -0.2153445    
H     -3.2129252     1.2592936    -0.6509811    
H     -1.7543805    -0.0743324    -2.0212266    
H     -1.9460820    -1.3657575    -0.8296850    
H     -0.3358917    -0.7439481    -1.2121589    
H      0.4679902     1.9933899     1.4694724    
H     -0.9709114     3.2928308     3.6478847    
H      1.1855603     4.3110297     4.4245542    
H      2.0737889     3.2982826     3.2783898    
H      1.1992755     2.5576187     4.6307112    
H     -0.6191491     5.7159729     3.4185905    
H      0.3165094     6.5962014     0.8022631    
H     -2.3718206     7.4064368     2.0059987    
H     -2.1956370     6.2593163     0.6683958    
H     -1.2438315     7.9902105    -0.7713162    
H     -1.0924870     9.0949793     0.5976253    
H     -3.7423027     8.7627667     0.7350424    
H     -3.5223210     8.5026176    -1.0137504    
H     -2.0791095     10.7639411     0.1508211    
H     -5.5263075     11.4230381    -1.8442577    
H     -5.1943954     9.8201448    -1.2932759    
H     -2.5690747     12.8172309    -0.5597755    
H     -4.0641315     13.1624484    -1.3560497    
H      0.9936150     8.8320732     0.9765536    
H      1.0413904     9.9652582     3.7000497    
H      2.9115444     11.3898523     2.8306891    
H      2.9337078     10.4367955     1.3457809    
H      3.4200540     8.3768150     2.6855185    
H      3.4412238     9.3491040     4.1552307    
H      5.3324457     10.6789969     3.2611553    
H      5.3019067     9.7326250     1.7696555    
H      5.8181632     7.6646149     3.0646815    
H      5.8441221     8.6096327     4.5614980    
H      8.0745862     8.2667314     3.6729570    
H      7.6828523     9.8875794     3.6683881    
H      7.6508419     9.0272038     2.2467361    
