199

N      2.0743372     6.9107395    -8.8563542    
C      1.8616998     5.6712092    -9.6281466    
C      1.1145187     4.6949401    -8.7054594    
O      1.0023895     4.9802062    -7.5198224    
C      3.2469240     5.0718380    -9.9579054    
O      4.0804988     6.1597482    -10.3001161    
N      0.6468273     3.5855266    -9.2715416    
C      0.2505013     2.4673729    -8.4343629    
C      1.4278199     2.1587715    -7.4895069    
O      2.5690727     2.5129085    -7.7582429    
C     -0.0835815     1.2508999    -9.2856582    
N      1.0852836     1.5356939    -6.3641369    
C      2.0313958     1.1907022    -5.3301859    
C      1.8801360    -0.2809216    -4.9528239    
O      0.8351593    -0.8919071    -5.1475131    
C      1.7407706     2.0112249    -4.0590027    
C      1.9990707     3.5006052    -4.2725779    
C      1.5622494     4.2841943    -3.0282337    
N      1.8077778     5.7055580    -3.1545622    
C      2.9839711     6.3014059    -2.9760767    
N      4.0363537     5.6271922    -2.5283450    
N      3.0926126     7.6078754    -3.2098415    
N      2.9571050    -0.8042846    -4.3478028    
C      2.8568093    -1.9573896    -3.4742705    
C      2.5626125    -1.4122230    -2.0742560    
O      3.0084394    -0.3279834    -1.7206657    
C      4.1716057    -2.7559892    -3.4556533    
C      4.0633958    -3.9665629    -2.5869826    
C      3.7038817    -5.2239070    -2.9821278    
C      4.2983564    -4.0385917    -1.1782718    
N      3.7028711    -6.0756047    -1.9147270    
C      4.0626634    -5.3828612    -0.7974929    
C      4.6848509    -3.1125055    -0.2086079    
C      4.2160676    -5.8085944     0.5159583    
C      4.8280928    -3.5397070     1.0915438    
C      4.6032999    -4.8727459     1.4495065    
N      1.7676999    -2.1596433    -1.3096297    
C      1.4684470    -1.8070906     0.0591576    
C      1.4576272    -3.0921965     0.8839776    
O      1.2488634    -4.1871209     0.3767804    
C      0.1045136    -1.0985698     0.1669254    
C      0.0898855     0.1927151    -0.6528748    
C     -1.2109538     0.9877266    -0.4883103    
N     -1.2646187     1.7405670     0.7549518    
C     -0.7302752     2.9582381     0.8884945    
N      0.2539834     3.3598244     0.0770147    
N     -0.9768631     3.6558078     1.9940325    
N      1.7144667    -2.9170699     2.1862120    
C      1.6311370    -4.0323250     3.1094518    
C      0.1883425    -4.5368373     3.1089739    
O     -0.7395140    -3.7236505     3.0281847    
C      2.0444084    -3.5644056     4.5141109    
C      2.3021911    -4.7286142     5.4293033    
C      1.2842142    -5.2585244     6.2124806    
C      3.5643535    -5.3087335     5.4828055    
C      1.5231351    -6.3553226     7.0231819    
C      3.8043614    -6.4035608     6.2936748    
C      2.7818944    -6.9316756     7.0647417    
N     -0.0401847    -5.8410180     3.1893423    
C     -1.4136991    -6.3259010     3.2648479    
C     -2.2333926    -5.4663370     4.2319377    
O     -1.8456323    -5.2458970     5.3697188    
C     -1.2436786    -7.7587401     3.7691771    
C      0.0613996    -8.1883527     3.1034784    
C      0.9248228    -6.9291329     3.1887266    
N     -3.4047804    -5.0336034     3.7391511    
C     -4.4071223    -4.3066945     4.4983009    
C     -4.0015050    -2.8819129     4.9001790    
O     -4.7792595    -2.1908531     5.5605864    
C     -4.8454483    -5.0801730     5.7449460    
N     -2.8224140    -2.4269701     4.4925562    
C     -2.4579855    -1.0433748     4.7508978    
C     -3.6010356    -0.1747833     4.2119264    
O     -4.0313455    -0.3602782     3.0717730    
C     -1.1667284    -0.7075401     4.0076667    
C     -0.6531500     0.6945121     4.3320121    
C      0.6280767     0.9912747     3.5542844    
N      1.0646907     2.3487282     3.8175171    
C      1.9874792     2.9961168     3.1144659    
N      2.6274393     2.4050758     2.1139536    
N      2.2492890     4.2708602     3.3960259    
N     -4.0605433     0.8134054     4.9790408    
C     -5.1413863     1.6435160     4.4747117    
C     -4.5685754     2.6377110     3.4611487    
O     -3.3750396     2.9019857     3.4213153    
C     -5.6831051     2.3540165     5.7197954    
C     -4.4479200     2.4440992     6.6122610    
C     -3.7524059     1.1063891     6.3693033    
N     -5.4930878     3.2492102     2.7117118    
C     -5.1551539     4.1714839     1.6532303    
C     -4.6601348     3.4486172     0.3955733    
O     -4.1433177     2.3403998     0.4510761    
N     -4.8583486     4.1230523    -0.7485750    
C     -4.0902484     3.7634094    -1.9176486    
C     -2.5781885     4.0855009    -1.6528689    
O     -2.2822608     4.5934824    -0.5648417    
C     -4.5664060     4.4626795    -3.2018455    
O     -3.8396686     3.9551454    -4.2997367    
C     -4.4285570     5.9871406    -3.1052470    
O     -1.7770734     3.7846614    -2.5645409    
H      3.0379236     7.2352970    -9.0465374    
H      1.9400653     6.6393367    -7.8592562    
H      1.4112586     7.6523086    -9.0961018    
H      1.3092086     5.8690430    -10.5468367    
H      3.1559702     4.3618318    -10.7830792    
H      3.6389683     4.5360115    -9.0835752    
H      4.9300023     5.8456353    -10.6264906    
H      0.8534162     3.3832379    -10.2381419    
H     -0.6136631     2.7685550    -7.8321205    
H     -0.3828543     0.4196802    -8.6530422    
H      0.7848648     0.9420734    -9.8637232    
H     -0.9022480     1.4765993    -9.9636456    
H      0.1459983     1.1890126    -6.2279720    
H      3.0309756     1.4008200    -5.7201485    
H      2.3545898     1.6248024    -3.2435688    
H      0.6923015     1.8562845    -3.7937974    
H      1.4378435     3.8489936    -5.1408726    
H      3.0576607     3.6568076    -4.4810492    
H      2.0813575     3.8982711    -2.1505081    
H      0.4874222     4.1494070    -2.8861067    
H      1.0591227     6.2442319    -3.5600892    
H      4.9203821     6.0898179    -2.4036729    
H      4.0127031     4.6248829    -2.4548004    
H      2.2885836     8.1586942    -3.4534984    
H      3.9507135     8.0944455    -3.0146833    
H      3.7353967    -0.1932357    -4.1364610    
H      2.0311717    -2.5804708    -3.8270595    
H      4.9688237    -2.1095074    -3.0848064    
H      4.4083451    -3.0582756    -4.4763226    
H      3.4547419    -5.5764733    -3.9645076    
H      3.4826901    -7.0558484    -1.9515207    
H      4.8707632    -2.0841841    -0.4776788    
H      4.0428689    -6.8395537     0.7901688    
H      5.1339506    -2.8432806     1.8564098    
H      4.7479160    -5.1796154     2.4750129    
H      1.4808385    -3.0864723    -1.5931368    
H      2.2683573    -1.1426003     0.4004706    
H     -0.1037793    -0.8927631     1.2149136    
H     -0.6725918    -1.7775846    -0.1903401    
H      0.1921098    -0.0635202    -1.7078114    
H      0.9445923     0.8062291    -0.3736308    
H     -2.0657838     0.3110433    -0.4984142    
H     -1.3359288     1.6673184    -1.3385833    
H     -2.0691590     1.5477029     1.3364987    
H      0.4639408     4.3465965     0.0956894    
H      0.2907122     2.9401290    -0.8397883    
H     -1.7965048     3.4169802     2.5408308    
H     -0.7161821     4.6289663     2.0026577    
H      1.7057276    -1.9872349     2.5775565    
H      2.3030276    -4.8155070     2.7492953    
H      1.2475050    -2.9449073     4.9285743    
H      2.9578289    -2.9776341     4.4146800    
H      0.2921323    -4.8330123     6.1785727    
H      4.3684670    -4.8992550     4.8898983    
H      0.7209164    -6.7603143     7.6229078    
H      4.7882502    -6.8472246     6.3284252    
H      2.9657307    -7.7866114     7.6984168    
H     -1.8607828    -6.3022470     2.2636434    
H     -2.0873269    -8.3921335     3.5080271    
H     -1.1314708    -7.7385072     4.8547923    
H     -0.1241433    -8.4523225     2.0624678    
H      0.5234712    -9.0345896     3.6042864    
H      1.5067769    -6.9170046     4.1133246    
H      1.5961779    -6.8340787     2.3327132    
H     -3.6189436    -5.2214842     2.7729960    
H     -5.2768164    -4.1806624     3.8451096    
H     -5.5603751    -4.4792562     6.2996405    
H     -3.9850260    -5.2782627     6.3784736    
H     -5.3067292    -6.0219860     5.4622576    
H     -2.2007830    -2.9810713     3.9125993    
H     -2.3561492    -0.9135589     5.8318700    
H     -1.3872403    -0.8018620     2.9425878    
H     -0.4266000    -1.4642438     4.2709268    
H     -0.4576391     0.7595370     5.4035946    
H     -1.4236757     1.4222949     4.0723425    
H      0.4218530     0.8727254     2.4881116    
H      1.4044763     0.2823014     3.8638273    
H      0.5792028     2.8395925     4.5514226    
H      3.3607615     2.8856861     1.6226376    
H      2.4528264     1.4450100     1.8805828    
H      1.8224951     4.7173127     4.1887285    
H      3.0216284     4.7413806     2.9557837    
H     -5.8846981     1.0118711     3.9773420    
H     -6.4454633     1.7314341     6.1874861    
H     -6.1113957     3.3261971     5.4882275    
H     -4.6987985     2.5933925     7.6584093    
H     -3.8100955     3.2596959     6.2743273    
H     -2.6777670     1.1743976     6.5270931    
H     -4.1687442     0.3176893     7.0054632    
H     -6.4298149     2.8760594     2.7107433    
H     -4.3276895     4.7990795     1.9989773    
H     -6.0208055     4.7928791     1.4306618    
H     -5.1471828     5.0884456    -0.6892961    
H     -4.1668349     2.6774781    -2.0548569    
H     -5.6164150     4.2040236    -3.3948811    
H     -2.9070999     3.8661970    -3.9993369    
H     -4.5503653     6.4105895    -4.0985756    
H     -3.4465363     6.2547781    -2.7222472    
H     -5.1943467     6.4051558    -2.4586908    
