84

O      1.8095785    -0.2753107     1.2006386    
N     -0.2855620    -4.0954807     1.6647148    
O      0.8520605    -3.9779134     0.9235327    
C      1.6111426    -0.0435817     0.0061143    
C      1.9149016    -1.0353134    -1.1053414    
C      1.9979004    -2.4676755    -0.5922764    
C     -0.3805026    -2.2095369     0.4578180    
C     -1.0315443    -3.0405379     1.4120979    
C     -2.2710469    -2.7793902     2.1261658    
C     -2.6878949    -3.6347201     3.1477997    
C     -3.7895894    -3.3227217     3.9169811    
C     -4.4941016    -2.1394800     3.6995373    
C     -4.1076585    -1.3140568     2.6462680    
C     -3.0157712    -1.6298589     1.8620696    
C      0.8035287    -2.8386231     0.2087309    
Cl    -6.6964470     1.5862260     6.4883010    
C     -6.6789852    -0.0498043     5.8976277    
C     -5.6528605    -0.4296665     5.0534125    
C     -7.6691823    -0.9379106     6.2828264    
C     -7.6118821    -2.2389809     5.8111347    
C     -6.5850595    -2.6430094     4.9764336    
C     -5.6000757    -1.7407323     4.5830430    
C      3.2162709    -0.6235307    -1.7768809    
P      3.4706781    -1.6228620    -3.3360503    
O      2.1430430    -1.9974413    -3.9319665    
O      4.4162683    -2.7567896    -3.0642389    
C      4.2716403    -0.3663038    -4.4031141    
C      5.5784645    -0.5335286    -4.8322166    
C      6.1769244     0.4163529    -5.6400796    
C      5.4354196     1.5251854    -5.9996966    
Br     6.2360623     2.8243173    -7.0924780    
C      4.1271643     1.7108298    -5.6009304    
C      3.5462276     0.7484304    -4.7976513    
N      1.1150595     1.1100216    -0.4370035    
C      0.7370597     2.1961804     0.4438429    
C     -0.5303374     1.7245915     1.1607055    
O     -1.4336829     1.1490581     0.5429840    
C      0.5191117     3.4645737    -0.3761218    
C      1.8022577     3.9313888    -1.0583837    
C      2.2231158     3.1215147    -2.3155994    
O      3.3862882     3.2957533    -2.7251064    
O      1.3774167     2.3641233    -2.8517459    
N     -0.5867958     1.9741169     2.4621515    
C     -1.4721566     1.2366422     3.3516788    
C     -2.8381236     1.9290545     3.4868031    
O     -3.3430998     2.1996687     4.5681782    
C     -0.7763860     1.0553605     4.6976860    
C      0.5971209     0.3902028     4.5606675    
C      1.7928066     1.3727847     4.4819448    
O      2.8423886     1.0363797     5.0547698    
O      1.6411163     2.4493227     3.8465186    
N     -3.4407406     2.1585838     2.3210672    
H      1.1242585    -0.9697457    -1.8621850    
H      2.8813893    -2.5785928     0.0443961    
H      2.1251612    -3.1307974    -1.4543667    
H     -0.7134750    -1.2757074     0.0548156    
H     -2.1098023    -4.5254642     3.3292833    
H     -4.0821064    -3.9760708     4.7245719    
H     -4.6622901    -0.4110937     2.4432601    
H     -2.7221758    -0.9710479     1.0580602    
H     -4.8787903     0.2758583     4.7884939    
H     -8.4599975    -0.6112879     6.9367320    
H     -8.3746006    -2.9431938     6.1022961    
H     -6.5476868    -3.6554007     4.6067034    
H      4.0668306    -0.7824346    -1.1103664    
H      3.1862045     0.4375270    -2.0389455    
H      6.1090398    -1.4173962    -4.5087656    
H      7.1960297     0.3006778    -5.9773374    
H      3.5697986     2.5917742    -5.8824270    
H      2.5286234     0.8698294    -4.4511106    
H      1.0254651     1.2951163    -1.4373827    
H      1.5267997     2.3398118     1.1942290    
H      0.1531133     4.2439944     0.2927471    
H     -0.2355905     3.2548394    -1.1383756    
H      2.6464182     3.8980925    -0.3657395    
H      1.6902126     4.9630206    -1.3996039    
H      0.2690716     2.3251342     2.9384311    
H     -1.6631476     0.2514051     2.8972258    
H     -1.4214736     0.4493554     5.3341216    
H     -0.6624993     2.0366336     5.1644841    
H      0.6570741    -0.2033244     3.6413800    
H      0.7994969    -0.2752264     5.4003729    
H     -4.3350592     2.6240286     2.3019989    
H     -2.9929945     1.8673033     1.4610076    
