36

N      1.8510585    -0.4321003     1.8178105    
C      1.1698534    -0.6557518     2.9950217    
N      1.1339258     0.4041718     3.8631246    
C      1.4900778     1.7113918     3.5733280    
C      2.2619989     1.8415153     2.3692860    
C      2.3552029     0.7946517     1.5279342    
O      0.7674399    -1.7574944     3.3238829    
O      1.2160403     2.6091600     4.3617724    
C      1.8203325    -1.5113568     0.8240741    
C      0.3929508    -1.7893188     0.3020509    
O     -0.2553334    -2.8534063     0.9330073    
C      0.6316464    -2.1079522    -1.1855770    
C      1.8313433    -1.2226561    -1.5006529    
O      2.5986430    -1.1985162    -0.2899432    
O      0.9476974    -3.4593696    -1.3597602    
C      1.4268871     0.1907552    -1.9994575    
O      0.0270633     0.4174524    -2.0589979    
P     -0.7403625     1.4574127    -1.0179497    
O     -1.4978181     2.4154356    -1.8763445    
O      0.2743391     1.9911586    -0.0641299    
O     -1.7942988     0.4335149    -0.3932389    
P     -2.2320744     0.1611318     1.2347078    
O     -3.4914387     0.9696626     1.4145417    
O     -2.4586166    -1.3459664     1.2216010    
O     -1.0651634     0.5916700     2.0919165    
H      0.5046155     0.2767483     4.6494593    
H      2.6495502     2.8080928     2.1046807    
H      2.8755284     0.8515025     0.5846369    
H      2.2103844    -2.4080297     1.3283387    
H     -0.1770998    -0.8656985     0.3937021    
H     -1.1411472    -2.5154083     1.1992250    
H     -0.2500357    -1.8332717    -1.7795220    
H      2.4829634    -1.7021474    -2.2359555    
H      0.4841360    -3.9484493    -0.6541492    
H      1.7788170     0.3357489    -3.0243609    
H      1.8664653     0.9485002    -1.3428167    
