30

C      1.0476888     1.0061817     0.7332689    
C      1.0648053     0.7702548     2.1539251    
O      1.7746548     1.4153277     2.9368140    
C      0.1661004    -0.3005748     2.5958157    
C      0.0580519    -0.6626917     3.9420083    
C     -0.7930618    -1.6718830     4.3280363    
C     -1.5561369    -2.3419704     3.3732112    
C     -1.4679744    -2.0033795     2.0412008    
C     -0.6049443    -0.9794350     1.6466662    
O     -0.5562137    -0.6830148     0.3260353    
C      0.2566243     0.2961097    -0.1161805    
C      0.1828614     0.4963557    -1.5640884    
C      0.8936487     1.5101598    -2.2130704    
C      0.7869157     1.6769202    -3.5771646    
C     -0.0271052     0.8473736    -4.3459272    
C     -0.1345315     1.0526842    -5.8221453    
C     -0.7295570    -0.1638361    -3.7013026    
C     -0.6288930    -0.3393953    -2.3361350    
H      1.6981540     1.7823233     0.3692535    
H      0.6640558    -0.1216541     4.6531214    
H     -0.8704369    -1.9446091     5.3682422    
H     -2.2223210    -3.1325772     3.6797713    
H     -2.0511640    -2.5098760     1.2895905    
H      1.5285971     2.1755206    -1.6515789    
H      1.3417797     2.4666651    -4.0610643    
H     -0.8135918     0.3316903    -6.2679349    
H      0.8438371     0.9497816    -6.2879457    
H     -0.4973459     2.0565243    -6.0354427    
H     -1.3649362    -0.8216326    -4.2749967    
H     -1.1819998    -1.1301414    -1.8551407    
