75

O     -0.7533923    -0.7219230     2.4191503    
C     -0.4260001     0.4065496     2.7340432    
O     -0.4101773     0.8552406     4.0157167    
C     -0.7486935    -0.0713471     5.0364983    
C     -2.1500051     0.1653181     5.6552479    
C     -2.7696824     1.5228324     5.3264729    
C     -2.1763402     2.4227085     6.4101863    
O     -2.0758542     1.5899699     7.5681579    
C     -1.8634948     0.2574716     7.1754641    
O     -0.5423310    -0.1728511     7.3848601    
C      0.2180302     0.1011075     6.2225886    
N     -0.0081753     1.3642172     1.9019538    
C     -0.0416457     1.2265213     0.4602426    
C     -1.1702041     2.0972735    -0.1166619    
C     -2.4779053     1.6809768     0.4969843    
C     -3.0843910     0.4991162     0.0872844    
C     -4.2592267     0.0734747     0.6794366    
C     -4.8455870     0.8271456     1.6836770    
C     -4.2529348     2.0088833     2.0909771    
C     -3.0711451     2.4292078     1.5041214    
C      1.3568822     1.5491256    -0.1149336    
O      1.6444974     2.9213488    -0.1334118    
C      1.5342228     0.9305023    -1.5172197    
N      1.3376227    -0.5036846    -1.5149267    
C      2.5150747    -1.3538531    -1.5495734    
C      3.2887907    -1.3915857    -0.2270262    
C      4.5604515    -2.2167039    -0.4170223    
C      2.4275788    -1.9813089     0.8847737    
S      0.1183348    -1.0898441    -2.4759974    
O     -0.9338920    -0.0944673    -2.4972209    
O     -0.2599597    -2.3868936    -1.9596023    
C      0.7779898    -1.2812951    -4.1239532    
C      1.1709506    -2.5336153    -4.5568435    
C      1.7182019    -2.6652531    -5.8209400    
C      0.9164962    -0.1602262    -4.9215304    
C      1.4668911    -0.2992599    -6.1829178    
C      1.8729184    -1.5496399    -6.6344507    
C      2.4810937    -1.6975361    -8.0353979    
O      2.5853657    -0.6564688    -8.7158653    
O      2.8228950    -2.8469521    -8.3816466    
H     -0.6923321    -1.0802348     4.6144559    
H     -2.8135128    -0.6614069     5.4104612    
H     -3.8516652     1.4615407     5.4345914    
H     -2.5255766     1.8565445     4.3212432    
H     -2.8124354     3.2638676     6.6830862    
H     -1.1843725     2.7872996     6.1200359    
H     -2.4889011    -0.3751486     7.8133385    
H      0.5944054     1.1312494     6.2319127    
H      1.0521955    -0.5993446     6.2085197    
H     -0.2570048     0.1748525     0.2439007    
H     -1.2136817     1.9314342    -1.1934225    
H     -0.9717630     3.1470339     0.1013211    
H     -2.6261015    -0.0833256    -0.7013668    
H     -4.7166233    -0.8496683     0.3549752    
H     -5.7634091     0.4920517     2.1427162    
H     -4.7100463     2.6033829     2.8673761    
H     -2.6104683     3.3516556     1.8268252    
H      2.0929989     1.1128383     0.5673374    
H      1.1242041     3.3571688    -0.8237540    
H      2.5308147     1.1776103    -1.8961643    
H      0.7821434     1.3605379    -2.1808316    
H      3.1808030    -1.0403164    -2.3657951    
H      2.1442044    -2.3557081    -1.7727594    
H      3.5741531    -0.3702085     0.0375332    
H      5.1243149    -2.2505511     0.5104209    
H      5.1885319    -1.7842081    -1.1913592    
H      4.3094168    -3.2336754    -0.7076294    
H      1.4857410    -1.4454325     0.9768849    
H      2.9505078    -1.9367419     1.8360599    
H      2.1920383    -3.0200302     0.6640927    
H      1.0244116    -3.3817229    -3.9075705    
H      2.0351033    -3.6231087    -6.2050524    
H      0.5750394     0.7963681    -4.5622756    
H      1.5943269     0.5430912    -6.8460422    
H      0.2328605     2.2676237     2.2840560    
