96

N     -7.4593494     5.8684054     1.3407570    
C     -7.2248464     5.9188863     2.8086711    
C     -5.7528129     5.6692692     3.1815307    
O     -5.1700756     6.4060641     3.9612304    
C     -8.1072625     4.8862199     3.5000679    
N     -5.2210709     4.5789660     2.6206551    
C     -3.8667316     4.1118143     2.8024312    
C     -3.5315215     3.3195231     1.5352987    
O     -4.4438783     2.9470687     0.7936365    
C     -3.7983902     3.2201329     4.0468456    
S     -2.0649564     2.6727438     4.3968431    
N     -2.2510847     3.0712454     1.3326805    
C     -1.7868838     2.4132284     0.1380618    
C     -0.3416763     2.8455448    -0.1626749    
O     -0.1364282     4.2165507    -0.0143581    
C     -1.7076646     0.8981231     0.3305084    
O     -0.9783234     0.4213445     1.2050541    
P      0.7419222     4.6250268     1.4000320    
O      1.0134227     6.0919516     1.2101366    
O     -0.2091906     4.3122556     2.5594006    
O      1.9594424     3.7114204     1.3885353    
N     -2.3952286     0.1150316    -0.4938296    
C     -1.9748966    -1.2805906    -0.6258488    
C     -0.4694535    -1.2403851    -0.9164722    
O     -0.0390001    -0.5381415    -1.8276942    
C     -2.7953124    -1.8038256    -1.8084853    
C     -4.0004993    -0.8652808    -1.8540123    
C     -3.3831796     0.4837431    -1.4938244    
N      0.3101384    -1.9802576    -0.1280005    
C      1.7483048    -2.0107558    -0.2563898    
C      2.1721493    -3.4359702    -0.6351541    
O      1.4563744    -4.4009031    -0.4104188    
C      2.4450333    -1.5827386     1.0409831    
C      2.1784204    -0.1199412     1.3869330    
C      2.6716673     0.2322768     2.7764102    
O      2.8908939    -0.6187725     3.6349179    
N      2.8813213     1.5339921     3.0011746    
N      3.3687590    -3.5155169    -1.2215720    
C      3.9383255    -4.7468134    -1.7118759    
C      5.4509125    -4.6983822    -1.4920956    
O      6.0266695    -3.6254519    -1.3210778    
C      3.6652306    -4.8982640    -3.2295471    
C      2.1900668    -4.7828431    -3.4850793    
C      1.6158737    -3.5367646    -3.7019114    
C      1.3676098    -5.9000424    -3.4291677    
C      0.2468339    -3.4061001    -3.8487928    
C     -0.0009936    -5.7717831    -3.5801839    
C     -0.5659281    -4.5237421    -3.7829711    
N      6.0559123    -5.8840832    -1.5044475    
C      7.4781780    -6.0601317    -1.6405058    
C      7.7319335    -7.2170728    -2.6706159    
O      8.9098661    -7.4256806    -2.9956376    
O      6.7170603    -7.8269131    -3.0578397    
H     -8.4412101     6.1062257     1.1424903    
H     -7.2796870     4.9275387     0.9676379    
H     -6.8507197     6.5301497     0.8450103    
H     -7.4610979     6.9223269     3.1724347    
H     -7.9338349     4.9166204     4.5713467    
H     -7.8758551     3.8829862     3.1556924    
H     -9.1565530     5.1010943     3.3226361    
H     -5.7156046     3.9718948     1.9692000    
H     -3.1639548     4.9463161     2.9112897    
H     -4.4028340     2.3262830     3.9030599    
H     -4.1358920     3.7942884     4.9079428    
H     -2.4817076     1.9770964     5.4608303    
H     -1.5148106     3.5065474     1.9089329    
H     -2.4470325     2.6926169    -0.6880154    
H     -0.0779761     2.5620929    -1.1902874    
H      0.3319749     2.3122017     0.5218750    
H     -2.1666594    -1.8136794     0.3084471    
H     -3.0631745    -2.8476827    -1.6749159    
H     -2.1996492    -1.6986983    -2.7156290    
H     -4.7262154    -1.1531896    -1.0957163    
H     -4.4752788    -0.8490355    -2.8302253    
H     -2.8881534     0.9338063    -2.3605546    
H     -4.0946790     1.1877208    -1.0614704    
H     -0.0822067    -2.5598139     0.5987048    
H      2.0042686    -1.3176891    -1.0648243    
H      3.5203900    -1.7386559     0.9406165    
H      2.0953926    -2.2016177     1.8693698    
H      1.1013289     0.0771314     1.3830071    
H      2.6316908     0.5601398     0.6634932    
H      3.1035932     1.8180256     3.9429664    
H      2.5574094     2.2640751     2.3687439    
H      3.9667403    -2.7044844    -1.3140058    
H      3.4773484    -5.5747301    -1.1661445    
H      4.0528565    -5.8630341    -3.5594849    
H      4.2054794    -4.1063639    -3.7532338    
H      2.2433805    -2.6571397    -3.7454531    
H      1.8080085    -6.8711068    -3.2574123    
H     -0.1724615    -2.4215506    -3.9968367    
H     -0.6286926    -6.6476240    -3.5281070    
H     -1.6346514    -4.4216123    -3.8884410    
H      5.5620924    -6.7076923    -1.8503088    
H      7.9355789    -6.3466620    -0.6893106    
H      7.9498332    -5.1406933    -1.9926650    
