225

N      3.1564571     4.1853568    -7.4760916    
C      1.8785046     4.7015099    -8.0302955    
C      1.0689866     5.5436302    -7.0330926    
O      0.4145161     6.4973185    -7.4283849    
C      1.0247813     3.5551448    -8.5894521    
C      0.6941359     2.4500631    -7.5816474    
C     -0.2320943     1.4295952    -8.2442189    
N     -0.3093855     0.2286476    -7.4317121    
C     -0.7791916    -0.9383151    -7.8558643    
N     -1.2643293    -1.0735563    -9.0852079    
N     -0.7269198    -1.9919990    -7.0469809    
N      1.1224029     5.1626459    -5.7539282    
C      0.4385103     5.8744283    -4.6956669    
C      1.2655677     5.6254074    -3.4352660    
O      1.8072374     4.5304997    -3.2886017    
C     -0.9791322     5.2813792    -4.5105186    
C     -1.8220677     6.0473895    -3.5547193    
N     -1.7511819     5.8751946    -2.1958090    
C     -2.7589035     7.0049889    -3.8353264    
C     -2.6228824     6.7098598    -1.6803677    
N     -3.2577218     7.4150524    -2.6332992    
N      1.3805643     6.6074789    -2.5465442    
C      2.2400790     6.4341849    -1.3877234    
C      1.7073404     5.4425832    -0.3585937    
O      2.4867836     4.9262665     0.4415522    
C      2.3343353     7.8359006    -0.7675644    
C      1.0360032     8.5011423    -1.2188494    
C      0.8532558     7.9601135    -2.6336650    
N      0.3961749     5.2179077    -0.3485841    
C     -0.1889955     4.3539929     0.6510779    
C     -0.6314626     3.0198546     0.0606729    
O     -0.3117714     1.9663809     0.6160284    
C     -1.3822067     4.9969860     1.3654993    
C     -1.0809878     6.3849063     1.9443419    
C     -2.3382641     6.9363129     2.6159352    
C      0.0723910     6.3501418     2.9444475    
N     -1.2902183     3.0523262    -1.0939337    
C     -1.9010837     1.8373252    -1.6213644    
C     -0.9016774     0.6813386    -1.5722367    
O     -1.1885575    -0.4288612    -1.1332064    
C     -2.3292008     2.0661797    -3.0743490    
C     -2.8105591     0.8004129    -3.7969532    
C     -4.0519225     0.2087499    -3.1347649    
C     -3.0966234     1.1369657    -5.2605018    
N      0.2755643     0.9286756    -2.1629455    
C      1.2868032    -0.1048959    -2.2630188    
C      1.5983602    -0.7519752    -0.9117276    
O      1.7964791    -1.9572235    -0.8147273    
C      2.5585738     0.4726412    -2.8872231    
C      2.4196734     0.7048721    -4.3998311    
C      3.4873598     1.7003505    -4.8580212    
C      2.5571699    -0.6101879    -5.1677974    
N      1.7380467     0.1135275     0.1062818    
C      1.9554970    -0.3360024     1.4638677    
C      0.7550320    -1.1180163     2.0024482    
O      0.9291423    -2.1836000     2.6046556    
C      2.2845359     0.8748637     2.3401994    
C      3.6471188     1.4579735     1.9633919    
C      3.8867088     2.8177455     2.6337423    
N      5.2876024     3.1837975     2.5922248    
C      5.9199768     3.7873132     1.5860141    
N      5.2740964     4.3157348     0.5585997    
N      7.2523755     3.8487096     1.6207195    
N     -0.4486302    -0.6133497     1.7531368    
C     -1.6687184    -1.2989412     2.1231916    
C     -1.6849044    -2.7506063     1.6312082    
O     -2.2607611    -3.6283435     2.2707101    
C     -2.8853277    -0.5965027     1.5066197    
C     -3.2485067     0.6691077     2.2073442    
N     -3.4698233     1.8410156     1.5386170    
C     -3.4812434     0.8535566     3.5461534    
C     -3.8293475     2.7065062     2.4526670    
N     -3.8473732     2.1600562     3.6863684    
N     -1.0955476    -2.9630957     0.4505984    
C     -1.0904057    -4.2585762    -0.1912592    
C     -0.1034814    -5.2502024     0.4388746    
O     -0.1997125    -6.4512265     0.1972954    
C     -0.7518472    -4.1060808    -1.6760227    
C     -1.8159212    -3.3505054    -2.4837593    
C     -1.2786778    -3.0643326    -3.8853591    
C     -3.1198999    -4.1386092    -2.5759424    
N      0.8905965    -4.7177281     1.1541855    
C      1.8371898    -5.5130942     1.9068293    
C      1.3134572    -5.7855551     3.3216253    
O      1.3520342    -6.9011879     3.8363075    
C      3.1879184    -4.7943233     1.9791957    
C      3.7633677    -4.4178137     0.6071786    
C      5.0623101    -3.6383335     0.8076063    
C      4.0139988    -5.6502192    -0.2574974    
N      0.8791952    -4.6962054     3.9626373    
C      0.0989021    -4.7591962     5.1820784    
C     -0.7820569    -6.0144002     5.1357315    
O     -1.4673831    -6.2749158     4.1537760    
C     -0.8092196    -3.5295241     5.2346325    
C     -1.5293898    -3.3772722     6.5772573    
C     -2.8340243    -2.6352342     6.3594894    
O     -2.8811135    -1.4974173     5.8947829    
N     -3.9260548    -3.3108307     6.7189656    
N     -0.7121004    -6.8031904     6.2208820    
C     -1.6490041    -7.8822713     6.4278087    
C     -2.9578122    -7.3479669     7.1324297    
O     -3.8045103    -8.1950936     7.4482844    
C     -1.0306657    -9.0307925     7.2153718    
C     -0.1237977    -9.9462047     6.4088665    
O     -0.1571634    -11.1650939     6.5601332    
N      0.7549712    -9.3624532     5.5886210    
O     -3.0347831    -6.1149170     7.2935923    
H      3.6827604     3.7171545    -8.2258547    
H      3.0064261     3.5014713    -6.7196295    
H      3.7392627     4.9489326    -7.1133178    
H      2.1000520     5.3846011    -8.8554417    
H      1.5429187     3.1219167    -9.4456357    
H      0.1000781     3.9937063    -8.9665399    
H      0.2015574     2.8703288    -6.7061347    
H      1.5976092     1.9214869    -7.2807390    
H      0.1765002     1.1652571    -9.2232808    
H     -1.2279259     1.8617941    -8.3892865    
H     -0.0247920     0.2968568    -6.4654535    
H     -1.6061723    -1.9638831    -9.4015576    
H     -1.3899644    -0.2825225    -9.6913386    
H     -0.3457368    -1.9271609    -6.1192967    
H     -1.0861390    -2.8858568    -7.3309613    
H      1.6106867     4.3392696    -5.4147985    
H      0.3740630     6.9294379    -4.9672867    
H     -0.8709049     4.2573296    -4.1553682    
H     -1.4708913     5.2883609    -5.4838271    
H     -3.0956846     7.4055978    -4.7679896    
H     -2.8137901     6.8316894    -0.6339000    
H     -3.9786440     8.1044222    -2.4934225    
H      3.2184685     6.0577574    -1.7034152    
H      3.1914037     8.3701254    -1.1749970    
H      2.4325341     7.7983274     0.3149496    
H      1.0948021     9.5860849    -1.1961882    
H      0.2069582     8.1878049    -0.5839665    
H     -0.1881612     7.9650314    -2.9487342    
H      1.4431136     8.5473416    -3.3455694    
H     -0.2371589     5.6125593    -1.0497385    
H      0.5928292     4.1279404     1.3834338    
H     -1.6819599     4.3255277     2.1721355    
H     -2.2202261     5.0646285     0.6713560    
H     -0.8071191     7.0579677     1.1255834    
H     -2.1732990     7.9528284     2.9651418    
H     -2.6069064     6.3263992     3.4759315    
H     -3.1848148     6.9445515     1.9327044    
H      1.0083139     6.0831224     2.4625775    
H     -0.1300976     5.6288619     3.7332769    
H      0.1966171     7.3268976     3.4060553    
H     -1.5961549     3.9493090    -1.4748261    
H     -2.7528527     1.5611087    -0.9877114    
H     -1.4675188     2.4548182    -3.6162403    
H     -3.1252509     2.8114651    -3.0906318    
H     -2.0212053     0.0442163    -3.7480988    
H     -4.4393379    -0.6238539    -3.7182261    
H     -4.8414666     0.9518314    -3.0458592    
H     -3.8271407    -0.1696409    -2.1400869    
H     -2.2257146     1.5776173    -5.7330549    
H     -3.9208829     1.8430310    -5.3238710    
H     -3.3843136     0.2412731    -5.8029013    
H      0.5480324     1.8793369    -2.3757392    
H      0.8882910    -0.9233603    -2.8746278    
H      3.3816395    -0.2182116    -2.6981375    
H      2.7866528     1.4127539    -2.3823900    
H      1.4277660     1.1289230    -4.5843117    
H      3.5450095     1.7010651    -5.9420731    
H      4.4614439     1.3899267    -4.4870418    
H      3.2735426     2.6879728    -4.4572537    
H      1.8697061    -1.3630220    -4.7911131    
H      3.5616088    -1.0111489    -5.0452956    
H      2.3787281    -0.4742403    -6.2306170    
H      1.2887997     1.0204603     0.0373045    
H      2.7884340    -1.0502037     1.4599397    
H      2.2778474     0.5653994     3.3862981    
H      1.4960331     1.6164164     2.2038142    
H      3.7040749     1.5681727     0.8815738    
H      4.4235106     0.7572314     2.2748262    
H      3.5915083     2.7635489     3.6825631    
H      3.2843780     3.5863249     2.1501303    
H      5.8650080     2.7323148     3.2858141    
H      5.7968168     4.8513575    -0.1130403    
H      4.2636925     4.4229865     0.5584019    
H      7.7731095     3.4404214     2.3759928    
H      7.7637250     4.3532360     0.9176930    
H     -0.5457926     0.2975564     1.3062402    
H     -1.7764148    -1.3419997     3.2154377    
H     -3.7293780    -1.2910578     1.5659700    
H     -2.6754790    -0.3970371     0.4554275    
H     -3.4071109     0.1740225     4.3706207    
H     -4.0995344     3.7234807     2.2563214    
H     -4.1046684     2.6033260     4.5530908    
H     -0.7650618    -2.1698309    -0.0899957    
H     -2.0739214    -4.7258584    -0.0490012    
H     -0.6154541    -5.1102683    -2.0828767    
H      0.2060578    -3.5814185    -1.7258021    
H     -2.0203619    -2.4019534    -1.9786612    
H     -2.0172021    -2.4954088    -4.4423610    
H     -1.0804647    -4.0033278    -4.3955569    
H     -0.3507135    -2.5060051    -3.8006998    
H     -3.5602917    -4.2916585    -1.5924412    
H     -2.9452683    -5.1194082    -3.0145831    
H     -3.8475594    -3.6076412    -3.1845854    
H      0.8589200    -3.7293819     1.3799297    
H      1.9176460    -6.4863550     1.4128406    
H      3.8834360    -5.4452305     2.5122251    
H      3.0465271    -3.8874492     2.5702200    
H      3.0383486    -3.7765217     0.0976347    
H      5.4527221    -3.3071242    -0.1495828    
H      5.8068417    -4.2684995     1.2882989    
H      4.8880401    -2.7710393     1.4383193    
H      3.0799109    -6.1522673    -0.4983664    
H      4.6560561    -6.3579061     0.2637232    
H      4.4966440    -5.3653560    -1.1882411    
H      0.8268674    -3.8164865     3.4589864    
H      0.7670976    -4.8003961     6.0510472    
H     -1.5458769    -3.6485368     4.4336279    
H     -0.2174797    -2.6376698     5.0238603    
H     -0.9088429    -2.8195740     7.2789721    
H     -1.7632457    -4.3544378     6.9966095    
H     -4.8375444    -2.9209334     6.5359300    
H     -3.8565985    -4.2815658     6.9956845    
H     -0.2682133    -6.4449665     7.0548915    
H     -1.9786936    -8.2219785     5.4380880    
H     -1.8449313    -9.6356983     7.6214627    
H     -0.4574746    -8.6297407     8.0544614    
H      1.3146410    -9.9609854     5.0002547    
H      0.6987363    -8.3890599     5.3260562    
