46

N     -6.9959186     1.3308884     2.5385316    
C     -5.8733389     0.5268986     2.5612568    
C     -4.6119699     1.0723073     2.3404781    
C     -5.9747633    -0.8385224     2.8875583    
C     -7.3162124    -1.4529640     3.1538455    
C     -4.8175176    -1.5969862     2.9574097    
C     -3.5667389    -1.0575076     2.7157439    
C     -3.4608284     0.2942424     2.4014457    
C     -2.1741585     0.9626174     2.1426215    
O     -2.0077425     2.1636200     2.3177151    
N     -1.1671552     0.1261590     1.7190450    
C      0.0806711     0.5836203     1.3146106    
C      0.7721891     1.4555450     2.1377418    
C      2.0708331     1.8652424     1.8294270    
C      2.6864203     1.3747268     0.7166276    
S      4.3533127     1.8635569     0.3293560    
O      4.3152774     2.5814515    -0.9531574    
O      4.7941748     2.7499713     1.4182410    
O      5.1820472     0.6500756     0.2720289    
C      0.6704227     0.1301850     0.0959639    
C      2.0261904     0.5131528    -0.1692269    
C      2.6798549     0.0399833    -1.3257066    
C      0.0156732    -0.6403953    -0.8906628    
S     -1.7299359    -1.0463778    -0.9035147    
O     -2.0336842    -1.6498229    -2.1993723    
O     -2.4831558     0.1938950    -0.6985387    
O     -1.9630698    -2.0126562     0.1879771    
C      0.6695420    -1.0631575    -2.0114818    
C      2.0081421    -0.7398830    -2.2099626    
S      2.8270830    -1.4001901    -3.6327875    
O      1.8662172    -1.3701518    -4.7455136    
O      4.0087226    -0.5758867    -3.9132057    
O      3.1926901    -2.7806798    -3.2785599    
H     -6.8540714     2.2206798     2.0879534    
H     -7.8491528     0.8658740     2.2718561    
H     -4.5008091     2.1176880     2.0908140    
H     -7.1951944    -2.4737772     3.5000158    
H     -7.9126883    -1.4684182     2.2428041    
H     -7.8474679    -0.8797954     3.9092446    
H     -4.8906204    -2.6460869     3.2040522    
H     -2.6872493    -1.6786069     2.7716640    
H     -1.4803444    -0.7409221     1.2863450    
H      0.2901191     1.8132338     3.0321410    
H      2.6244808     2.5407757     2.4604661    
H      3.7049511     0.3140846    -1.5128177    
H      0.1429163    -1.6284642    -2.7624447    
