75

O      4.0043565    -1.8089597    -3.5305551    
C      3.5598344    -1.6017650    -2.4015261    
N      4.3574790    -1.5535676    -1.3222677    
C      5.7968759    -1.6718660    -1.4070239    
C      6.4669696    -0.3096097    -1.1830521    
C      7.9824882    -0.4560081    -1.2194591    
N      8.4384675    -1.4110273    -0.1846024    
C      9.9065532    -1.4904743    -0.1361577    
C      7.8336307    -2.7429361    -0.4126167    
C      6.3130530    -2.6618323    -0.3596823    
C      2.0970456    -1.4198445    -2.1791463    
C      1.2554439    -1.8258646    -3.2225291    
C     -0.1152738    -1.6884991    -3.1570275    
O     -0.9869998    -2.0720025    -4.1287987    
C     -0.4741725    -2.6829137    -5.2996639    
C      1.4865615    -0.8609967    -1.0657263    
F      2.2258551    -0.4188500    -0.0058612    
C      0.1188287    -0.7053821    -0.9667850    
C     -0.7049179    -1.1079882    -2.0062169    
N     -2.0767658    -0.9950468    -1.9847015    
C     -2.9027767    -0.3914296    -1.0946173    
N     -4.2065487    -0.5817333    -1.3376772    
C     -5.0386656    -0.0111862    -0.4894410    
C     -4.6491693     0.7564697     0.6027655    
N     -5.6739452     1.3315055     1.3958461    
C     -6.8735175     1.8046983     0.7175977    
C     -5.6982197     1.3266939     2.7311859    
O     -6.6389729     1.7136738     3.4115423    
N     -2.4176579     0.3244004    -0.0904982    
C     -3.2459420     0.9132309     0.7795566    
N     -2.6451526     1.6489979     1.7477569    
C     -3.3015415     1.9976128     2.9827372    
C     -4.3637410     0.9679579     3.3916068    
F     -4.5147699     0.9891145     4.7475034    
F     -3.9565755    -0.3109558     3.1170849    
C     -1.1954216     1.8231920     1.7247840    
C     -0.7578410     3.2532402     2.0933933    
C      0.5301025     3.0601411     2.8937643    
C      0.2530409     1.7984204     3.7068235    
C     -0.4541585     0.8831751     2.7038503    
H      3.9699570    -1.3655737    -0.4118279    
H      6.0098959    -2.0314577    -2.4195070    
H      6.1412077     0.0980577    -0.2241697    
H      6.1528266     0.3842224    -1.9621155    
H      8.4555325     0.5108536    -1.0476290    
H      8.2973267    -0.8311723    -2.1942789    
H      8.1018585    -1.0678330     0.7236532    
H      10.2199330    -2.1747824     0.6477699    
H      10.3293062    -0.5091176     0.0630690    
H      10.2856943    -1.8498704    -1.0896824    
H      8.1960241    -3.4337807     0.3489614    
H      8.1555302    -3.1003055    -1.3920077    
H      5.8949434    -3.6503256    -0.5458315    
H      5.9832409    -2.3417480     0.6305977    
H      1.7381708    -2.2483354    -4.0892912    
H     -1.3459596    -2.9051824    -5.9101503    
H      0.0548805    -3.6080624    -5.0608371    
H      0.1899146    -2.0040003    -5.8388752    
H     -0.3169726    -0.2809955    -0.0812494    
H     -2.5572832    -1.4442706    -2.7564414    
H     -6.0846080    -0.1834402    -0.6940676    
H     -6.5944296     2.2276924    -0.2430664    
H     -7.3284780     2.5647936     1.3510235    
H     -7.5967719     1.0010557     0.5808298    
H     -3.8015270     2.9734886     2.9331752    
H     -2.5516018     2.0295994     3.7782317    
H     -0.9025869     1.6101151     0.6990027    
H     -1.5054222     3.7450784     2.7127152    
H     -0.6065660     3.8635208     1.2053908    
H      0.7615490     3.9203518     3.5183197    
H      1.3652964     2.8838489     2.2158597    
H     -0.3995082     2.0331889     4.5503796    
H      1.1598727     1.3477052     4.1031697    
H      0.2853248     0.2981553     2.1590152    
H     -1.1399758     0.1827230     3.1800838    
