139

N     -1.6255425    -8.1701904    -1.6766261    
C     -1.4496622    -6.8121371    -2.2421334    
C     -0.4874200    -6.0960743    -1.2739879    
O     -0.1688831    -6.6683803    -0.2299882    
C     -2.7686089    -6.0268842    -2.3539493    
C     -3.1482504    -5.7104534    -3.7982864    
C     -2.2948602    -4.6163756    -4.4979326    
O     -2.4911577    -4.4726306    -5.7192771    
O     -1.4881535    -3.9434752    -3.8115277    
N     -0.0552633    -4.9217374    -1.6902648    
C      0.6770949    -4.0291876    -0.8197353    
C     -0.1892007    -3.6584513     0.3838636    
O     -1.4135671    -3.6276736     0.3260019    
C      1.0296836    -2.7547231    -1.5893579    
C      2.2585275    -2.9299907    -2.4889100    
C      2.2141760    -1.8987026    -3.6120770    
C      3.5460430    -2.7785473    -1.6842554    
N      0.4953297    -3.3803393     1.5001327    
C     -0.1535114    -2.8040736     2.6690082    
C     -0.4936797    -1.3496138     2.3006031    
O      0.3299467    -0.4448727     2.3394557    
C      0.7437007    -2.9005148     3.8900555    
N     -1.7706724    -1.1831663     1.9121207    
C     -2.2249112     0.0680725     1.3382032    
C     -1.8797765     1.2576838     2.2313792    
O     -1.5567285     2.3397095     1.7583190    
N     -2.0611689     1.0396302     3.5408645    
C     -1.5061336     1.9071468     4.5561139    
C     -0.4406436     1.1144356     5.3108869    
O     -0.3923722    -0.1117390     5.2607168    
C     -2.5963386     2.4531760     5.5032014    
C     -3.3409930     1.3061889     6.1989287    
C     -3.5442605     3.3536860     4.7157180    
C     -4.1315025     1.7722912     7.4164996    
N      0.3804795     1.8485798     6.0755477    
C      1.5714041     1.2744723     6.6766263    
C      2.7078865     1.3779609     5.6579391    
O      3.5948744     2.2150389     5.7552730    
N      2.6399890     0.4712560     4.6626026    
C      3.2405770     0.7874961     3.3801459    
C      2.2424140     1.7187112     2.6602897    
O      1.4708929     2.4090224     3.3184301    
C      3.5882278    -0.4757949     2.6068685    
N      2.3320469     1.7616578     1.3317741    
C      1.3584324     2.4122501     0.4840344    
C      0.9704859     1.4373250    -0.6216294    
O      1.6319610     0.4313569    -0.8568601    
C      1.9295231     3.6984285    -0.1362344    
C      1.7630767     4.9222694     0.7717294    
C      2.6753387     6.0469750     0.2885760    
C      0.3094197     5.3918213     0.7880715    
N     -0.1773548     1.7409410    -1.2479922    
C     -0.4765804     1.2469941    -2.5732266    
C      0.6394022     1.6970003    -3.5351783    
O      1.5140385     2.4743135    -3.1666644    
C     -1.8320800     1.8554423    -3.0215876    
O     -1.7851816     3.2609465    -2.9125853    
C     -2.9797018     1.3466626    -2.1541128    
N      0.6110048     1.1303146    -4.7510572    
C      1.2550972     1.8126095    -5.8503261    
C      0.5838679     3.2234856    -6.0485503    
O      1.0560317     3.9405160    -6.9429820    
C      1.2250714     1.0194573    -7.1581919    
C      2.1085365    -0.2208595    -7.0810148    
C     -0.2027287     0.6502922    -7.5640422    
O     -0.3683764     3.5066129    -5.2922759    
H     -2.6102282    -8.4124821    -1.5294911    
H     -1.1324900    -8.0978144    -0.7454745    
H     -1.1717357    -8.8977165    -2.2354625    
H     -0.9779720    -6.8522345    -3.2249292    
H     -2.6913714    -5.0829873    -1.8097051    
H     -3.5796834    -6.5952677    -1.8963798    
H     -4.1694472    -5.3260550    -3.8393014    
H     -3.1110828    -6.5940766    -4.4359874    
H     -0.5180933    -4.5057372    -2.5144612    
H      1.5784329    -4.5424875    -0.4674557    
H      1.2013405    -1.9158725    -0.9116918    
H      0.1640427    -2.4976897    -2.2055465    
H      2.2191966    -3.9279969    -2.9385960    
H      3.0910323    -1.9791699    -4.2493444    
H      2.1802500    -0.8889810    -3.2022959    
H      1.3255332    -2.0475738    -4.2242728    
H      3.5916000    -3.4972472    -0.8708643    
H      3.5907756    -1.7730665    -1.2702843    
H      4.4097940    -2.9262527    -2.3250294    
H      1.5029946    -3.3172391     1.4631194    
H     -1.0858447    -3.3543776     2.8277128    
H      0.2599392    -2.4003135     4.7239762    
H      1.6927276    -2.4084439     3.6998269    
H      0.9168211    -3.9423484     4.1397856    
H     -2.2827504    -2.0154501     1.6417359    
H     -3.3083523     0.0229304     1.2206892    
H     -1.7643926     0.2505836     0.3597661    
H     -2.1978546     0.0833119     3.8460304    
H     -1.0108426     2.7332490     4.0323242    
H     -2.0878421     3.0537607     6.2635420    
H     -2.6154602     0.5546696     6.5190074    
H     -4.0191850     0.8356955     5.4858339    
H     -2.9908254     4.1528415     4.2269615    
H     -4.2848458     3.7977139     5.3742648    
H     -4.0552269     2.7818327     3.9443907    
H     -4.6021686     0.9207539     7.9003690    
H     -4.9104763     2.4729640     7.1309092    
H     -3.4740903     2.2551104     8.1348235    
H      0.4165125     2.8424068     5.9011424    
H      1.3621598     0.2305571     6.9174564    
H      1.8308728     1.8384576     7.5721027    
H      1.7813230    -0.0642523     4.5893493    
H      4.1385350     1.3806519     3.5960362    
H      4.2775233    -0.2552747     1.7977357    
H      2.6805225    -0.9069751     2.1917926    
H      4.0633015    -1.1859801     3.2780865    
H      2.8845106     1.0695480     0.8410671    
H      0.4727518     2.6370213     1.0857596    
H      1.4508621     3.8855894    -1.0997176    
H      2.9879507     3.5237135    -0.3427882    
H      2.0525359     4.6369682     1.7901736    
H      2.5646589     6.9265125     0.9167980    
H      2.4195393     6.3167572    -0.7345969    
H      3.7156161     5.7319482     0.3106386    
H     -0.3467182     4.6216138     1.1857258    
H     -0.0180802     5.6281746    -0.2230325    
H      0.2060662     6.2808792     1.4022745    
H     -0.5786419     2.6540410    -1.0657086    
H     -0.5205508     0.1530810    -2.5678457    
H     -2.0014164     1.5722508    -4.0709205    
H     -1.2976274     3.6120544    -3.6778254    
H     -3.9125986     1.7551027    -2.5277150    
H     -2.8336983     1.6890979    -1.1339147    
H     -3.0162222     0.2625321    -2.1857713    
H     -0.2116661     0.5996034    -4.9980267    
H      2.2906360     2.0194123    -5.5559168    
H      1.6251160     1.7100796    -7.9102132    
H      2.0965066    -0.7457838    -8.0313164    
H      1.7461181    -0.8885396    -6.3044383    
H      3.1314362     0.0594600    -6.8437464    
H     -0.8540658     1.5192240    -7.4725462    
H     -0.5945160    -0.1563064    -6.9459147    
H     -0.2174433     0.3159697    -8.5975730    
