123

N      6.3997741     2.5708754    -2.4894382    
C      6.6725596     4.0136846    -2.7739950    
C      5.4206812     4.8084859    -2.3641961    
O      5.4565523     5.6551551    -1.4866326    
C      7.0601649     4.2179249    -4.2380358    
C      7.3653164     5.6914052    -4.5152452    
C      7.7563429     5.9203098    -5.9801105    
N      8.9868838     5.2366631    -6.3325659    
C      10.2133975     5.6520845    -6.0253678    
N      11.2566478     4.9018762    -6.3712156    
N      10.4119903     6.7754045    -5.3459643    
N      4.3016173     4.4504180    -3.0206272    
C      3.0207110     4.5626584    -2.3541780    
C      3.0930059     3.6393854    -1.1294426    
O      3.9642132     2.7590314    -1.0835245    
C      1.9114731     4.0948664    -3.2987563    
C      1.6743191     5.0621367    -4.4663068    
C      0.8526307     4.3658617    -5.5497409    
C      0.9589073     6.3289857    -4.0018361    
N      2.2434765     3.8322398    -0.1334405    
C      2.1551871     2.8332731     0.9190253    
C      1.6524590     1.5247706     0.2958876    
O      1.1701565     1.4855678    -0.8231992    
C      1.1229410     3.4011004     1.8978452    
C      0.2247640     4.2345182     0.9841169    
C      1.2148128     4.8502688    -0.0026857    
N      1.8354179     0.4425390     1.0768889    
C      1.1068236    -0.7882730     0.8276972    
C     -0.0775615    -0.8118667     1.7956793    
O      0.0336519    -0.3129902     2.9104511    
C      2.0296505    -2.0072239     1.0761851    
O      3.1838854    -1.9194456     0.2782671    
C      1.3346613    -3.3186668     0.7304622    
N     -1.2027223    -1.3568355     1.3289022    
C     -2.3732765    -1.5500104     2.1500288    
C     -2.6805682    -3.0488819     2.2366584    
O     -2.2281457    -3.8314227     1.4112173    
C     -3.5856783    -0.8176869     1.5514757    
O     -3.3394389     0.5657921     1.6128263    
N     -3.4446124    -3.4016038     3.2725005    
C     -4.0675964    -4.7047970     3.3974379    
C     -5.5797265    -4.4555254     3.3206355    
O     -6.0533697    -3.4320118     3.8126933    
C     -3.6879124    -5.3717132     4.7373054    
C     -2.1616877    -5.4912359     4.8427629    
C     -4.3595937    -6.7367565     4.8586786    
C     -1.6864649    -5.8461927     6.2467064    
N     -6.2835538    -5.3542904     2.6365420    
C     -7.7264651    -5.3924002     2.6145170    
C     -8.1733381    -6.8725595     2.8796777    
O     -7.2683757    -7.7314145     2.8644717    
C     -8.3123680    -4.9005106     1.2784311    
C     -7.7385670    -5.7127638     0.1107198    
C     -8.0677844    -3.4038206     1.1055657    
C     -8.5084646    -5.5135399    -1.1897341    
O     -9.3848073    -7.0612299     3.0763215    
H      7.1672613     2.1385033    -1.9655675    
H      6.2598691     2.0327004    -3.3523918    
H      5.5301172     2.4764752    -1.9110862    
H      7.4748010     4.3680780    -2.1219681    
H      6.2500596     3.8953376    -4.8922568    
H      7.9485538     3.6229367    -4.4485220    
H      8.1670658     6.0211473    -3.8552702    
H      6.4876599     6.2974351    -4.2902260    
H      7.8522818     6.9903113    -6.1760861    
H      6.9705952     5.5408879    -6.6328422    
H      8.9010335     4.3723819    -6.8442597    
H      12.1948737     5.2041001    -6.1727738    
H      11.1415346     4.0585213    -6.9062132    
H      9.6482721     7.3875242    -5.1173118    
H      11.3454052     7.1014224    -5.1635447    
H      4.3463948     3.6980363    -3.6944735    
H      2.8758783     5.5937313    -2.0244479    
H      0.9826834     3.9553234    -2.7458142    
H      2.1831491     3.1089471    -3.6835380    
H      2.6412821     5.3491144    -4.8901109    
H      0.6741670     5.0384461    -6.3850238    
H     -0.1129808     4.0568130    -5.1539496    
H      1.3622665     3.4816174    -5.9244029    
H      1.5400086     6.8684892    -3.2582691    
H     -0.0105786     6.0836827    -3.5718340    
H      0.7909361     6.9967396    -4.8431509    
H      3.1362179     2.6659191     1.3711304    
H      1.6171610     4.0373357     2.6314240    
H      0.5747383     2.6191528     2.4214979    
H     -0.3434061     4.9854428     1.5258818    
H     -0.4710204     3.5789322     0.4582816    
H      0.7482785     5.0854832    -0.9567230    
H      1.6649660     5.7577030     0.4129632    
H      2.0456681     0.5920676     2.0573321    
H      0.7764617    -0.7746980    -0.2139393    
H      2.3060763    -2.0080132     2.1434703    
H      3.6336927    -1.0799992     0.4523689    
H      2.0326551    -4.1369016     0.8831538    
H      1.0382408    -3.3166840    -0.3150580    
H      0.4599543    -3.4846012     1.3522683    
H     -1.2046748    -1.8518783     0.4472390    
H     -2.1521311    -1.1299950     3.1359954    
H     -4.4810588    -1.0903914     2.1251376    
H     -3.7214845    -1.1452285     0.5118264    
H     -4.1188882     1.0458153     1.3009089    
H     -3.8792616    -2.6908208     3.8486059    
H     -3.7333081    -5.3209665     2.5585322    
H     -4.0552824    -4.7230738     5.5407140    
H     -1.7143336    -4.5389058     4.5527833    
H     -1.8203406    -6.2475617     4.1338526    
H     -5.4437748    -6.6599741     4.7990981    
H     -4.1151328    -7.1954397     5.8117442    
H     -4.0297891    -7.4002135     4.0619725    
H     -0.6005242    -5.8456377     6.2809105    
H     -2.0350221    -6.8316568     6.5415530    
H     -2.0562379    -5.1202957     6.9667378    
H     -5.8863958    -6.2688057     2.4324861    
H     -8.1159982    -4.7723432     3.4309824    
H     -9.3901713    -5.0925115     1.3455990    
H     -7.7683344    -6.7711668     0.3864749    
H     -6.6915997    -5.4368849    -0.0329058    
H     -8.4287486    -2.8635620     1.9770614    
H     -8.5831598    -3.0316521     0.2257777    
H     -7.0017420    -3.2120078     1.0043682    
H     -8.0997294    -6.1561649    -1.9650446    
H     -8.4434454    -4.4822153    -1.5241365    
H     -9.5553785    -5.7703734    -1.0456830    
