52

F      0.4255752    -3.4587992    -3.5307403    
C      0.1041203    -2.2982828    -2.9313306    
F     -1.1215095    -2.4642936    -2.4097884    
F     -0.0700793    -1.4123880    -3.9449390    
C      1.1314634    -1.8379512    -1.9422102    
C      0.7304226    -1.2659853    -0.7437549    
C      2.4754330    -2.0009961    -2.2554439    
C      3.4282522    -1.6077529    -1.3293608    
C      3.0462318    -1.0581104    -0.1216591    
C      1.6944778    -0.8685928     0.1788326    
N      1.3659570    -0.3571370     1.4227862    
C      0.2403102     0.2619748     1.8358844    
N     -0.6412026     0.7036725     0.9481085    
C      0.0454872     0.4721248     3.2408868    
C      1.0105994     0.0965945     4.2452397    
O      2.1197358    -0.3812603     3.9827442    
N      0.6888639     0.2895654     5.5967950    
C     -0.4230103     0.7978017     5.9360437    
C     -1.5089491     1.2545458     5.0396730    
C     -1.1725387     1.0764838     3.5977680    
N     -2.0356659     1.5127987     2.7073361    
C     -1.7120433     1.3674068     1.4036187    
N     -2.5605187     1.9507647     0.5592913    
C     -2.4232187     2.0906921    -0.8785657    
C     -1.0913633     2.7582484    -1.2379251    
C     -0.9619621     2.9102247    -2.7508351    
C     -1.0325706     1.5287886    -3.3914629    
N     -0.8442767     1.6277862    -4.8639562    
C     -2.3796574     0.8801432    -3.0872735    
C     -2.5551902     0.7345799    -1.5787156    
H     -0.3122074    -1.1629840    -0.4969230    
H      2.7655127    -2.4470576    -3.1927268    
H      4.4748232    -1.7417856    -1.5495546    
H      3.7908084    -0.7749310     0.6062758    
H      2.0513313    -0.4918194     2.1702476    
H     -0.5850727     0.9034921     7.0034764    
H     -1.7470198     2.3015474     5.2470643    
H     -2.4241703     0.7031268     5.2782620    
H     -3.3374625     2.4025749     1.0171167    
H     -3.2450105     2.7374691    -1.1978954    
H     -0.2799277     2.1412266    -0.8514681    
H     -1.0351045     3.7332047    -0.7533393    
H     -0.0123117     3.3948298    -2.9750190    
H     -1.7726721     3.5407151    -3.1184047    
H     -0.2307642     0.9079825    -2.9851630    
H     -0.8317720     0.6896752    -5.2806861    
H      0.0429880     2.0944181    -5.0858525    
H     -1.6127565     2.1646747    -5.2844110    
H     -2.4425275    -0.1085679    -3.5418343    
H     -3.1889474     1.4960915    -3.4811230    
H     -3.5308543     0.3028170    -1.3564024    
H     -1.7970992     0.0680711    -1.1754274    
