34

C     -0.7901015     0.0463000    -3.0704747    
C     -0.7091032    -0.3865449    -4.3797521    
C     -1.6616338    -1.2601606    -4.8908543    
C     -1.5555005    -1.7578038    -6.3252919    
O     -2.4494718    -2.5355091    -6.7331374    
O     -0.5777299    -1.3615170    -7.0021088    
C     -2.7018012    -1.6802491    -4.0727079    
C     -2.7825965    -1.2466484    -2.7618844    
C     -1.8250676    -0.3828243    -2.2455995    
C     -1.8455996     0.0482152    -0.8066047    
C     -0.8794238    -0.8248196     0.0054212    
N     -0.5388598    -0.1751891     1.2695888    
S      0.7479122     0.8714756     1.0967820    
O      0.3138346     2.0162469     0.3172097    
O      1.9175010     0.2053515     0.5399182    
C      1.1054950     1.4222098     2.7306881    
C      0.8995214     2.7445060     3.1890232    
C      1.3437570     2.9090534     4.4616795    
S      2.0304543     1.4559651     5.0941723    
C      1.7044770     0.6038484     3.6473128    
C      2.0842946    -0.8458854     3.4778408    
O      3.1544010    -1.2119423     3.9910315    
O      1.2658671    -1.5526543     2.8447495    
H     -0.0428471     0.7194827    -2.6695251    
H      0.0913457    -0.0644149    -5.0321868    
H     -3.4326128    -2.3574181    -4.4931237    
H     -3.5932962    -1.5838057    -2.1336032    
H     -2.8461429    -0.0340898    -0.3848514    
H     -1.5054665     1.0808632    -0.7204554    
H      0.0413696    -0.9971128    -0.5711705    
H     -1.3273378    -1.7940745     0.2257191    
H     -0.1772968    -0.8581287     1.9431993    
H      0.4454756     3.4917329     2.5670817    
H      1.3123426     3.7884079     5.0712627    
