68

C      3.1957643    -3.1791329     2.5141596    
C      3.7090040    -3.1280618     1.2042868    
C      3.4743930    -2.0516955     0.3987138    
C      2.7143325    -0.9495415     0.8531162    
C      2.1961968    -0.9838188     2.1325053    
C      1.6325583     1.1913120     0.2408390    
C      0.1907923     0.7493641     0.4588932    
C      1.4710418     1.9797246    -1.0490124    
C     -0.3428140    -0.2391906    -0.3649337    
C      1.8819511    -2.1543199     4.2814289    
C      2.4183559    -2.0851986     2.9726721    
C     -6.1295083    -0.0268098     0.9517756    
C     -1.9593338     1.0327556     1.4909973    
C     -4.7533746     0.2330887     1.5560380    
N      0.9067567     3.2046236    -0.9308321    
S      0.1617588     3.8891574    -2.3055790    
C     -0.9292859     2.6087118    -2.8670732    
C     -2.0518905     2.3378660    -2.1079061    
C     -2.9081282     1.3305059    -2.5223013    
C     -2.6228183     0.6159650    -3.6760463    
C     -1.4873428     0.8980531    -4.4210870    
C     -0.6263352     1.9063683    -4.0154532    
N      2.8829824    -4.2978692     4.6365394    
C      2.1368323    -3.2588721     5.0399095    
C      3.4016281    -4.2704515     3.4188824    
N      4.1051851    -5.3710741     3.0521165    
N      2.5743544     0.1312666     0.0191162    
C     -1.6749850    -0.5917601    -0.2720442    
C     -2.5098195     0.0662553     0.6657957    
C     -0.6192579     1.3792584     1.3825940    
O     -3.8095446    -0.3120422     0.6297125    
O     -2.2886761    -1.5252756    -1.0393268    
C     -1.5151790    -2.2615908    -1.9769019    
C     -2.4489960    -3.2452903    -2.6638501    
C     -4.6162109    -0.4295163     2.9261713    
O      1.7133753     1.4998651    -2.1405257    
O     -0.5815647     4.9998219    -1.7578339    
O      1.1722158     4.2175010    -3.2757303    
H      4.2868611    -3.9527413     0.8166300    
H      3.8722851    -2.0251374    -0.6052215    
H      1.5998192    -0.1681949     2.5091440    
H      1.9613864     1.8352643     1.0637240    
H      0.2992605    -0.7134518    -1.0885346    
H      1.2812353    -1.3417059     4.6598876    
H     -6.9009945     0.3482697     1.6168557    
H     -6.2665514    -1.0944085     0.8063504    
H     -6.2169877     0.4682880    -0.0113065    
H     -2.5633020     1.5385248     2.2257088    
H     -4.5953091     1.3170813     1.6402146    
H      0.6464712     3.5773528    -0.0300432    
H     -2.2420093     2.9225887    -1.2230279    
H     -3.7860495     1.0953308    -1.9426735    
H     -3.2921484    -0.1669710    -3.9949140    
H     -1.2692486     0.3369486    -5.3155000    
H      0.2711990     2.1577767    -4.5556991    
H      1.7448869    -3.3554833     6.0449998    
H      4.3033126    -6.0233283     3.7917635    
H      4.7584942    -5.3102877     2.2924029    
H      2.7926906    -0.0171926    -0.9577300    
H     -0.2169879     2.1361921     2.0384319    
H     -0.7118422    -2.7966713    -1.4539657    
H     -1.0697385    -1.5740921    -2.7080793    
H     -1.8971958    -3.8194530    -3.4005493    
H     -3.2563482    -2.7090145    -3.1525482    
H     -2.8780400    -3.9196205    -1.9288388    
H     -3.6109391    -0.3042274     3.3208134    
H     -4.8179893    -1.4938688     2.8373671    
H     -5.3257529     0.0101922     3.6206178    
