88

C     -8.5820297    -2.0080420    -0.9161056    
O     -8.1322185    -0.9964469    -1.7311841    
C     -9.5774026    -2.9500483    -1.5728567    
N     -7.3967666    -2.8332787    -0.4346154    
C     -6.3691593    -2.0575049     0.3019054    
C     -5.4229538    -1.5174718    -0.7813763    
O     -5.2947283    -2.1661832    -1.8173100    
C     -5.6336242    -2.9944101     1.2738008    
C     -4.3210204    -2.4388477     1.8268396    
C     -4.4341418    -1.1082475     2.5389448    
O     -5.4402871    -0.4019037     2.4763099    
N     -3.3727425    -0.7899374     3.2919118    
N     -4.8911290    -0.3277291    -0.5399529    
C     -3.8421675     0.2560800    -1.3462617    
C     -2.6666177     0.5771489    -0.4220702    
O     -2.8397038     0.7816153     0.7733925    
C     -4.3321695     1.5423817    -2.0157036    
N     -1.4837187     0.7351137    -1.0352613    
C     -0.2436504     0.7517224    -0.2933745    
C      0.8291711     1.3957469    -1.1634552    
O      0.7730590     1.3328687    -2.3862958    
C      0.2192520    -0.6875751     0.0141508    
C     -0.9356953    -1.4629855     0.7007904    
O     -1.8036534    -1.9540863    -0.0502612    
O     -0.9383745    -1.5195656     1.9440450    
N      1.8136754     2.0142721    -0.5003634    
C      3.0103477     2.4766180    -1.1773770    
C      3.9415164     1.3069691    -1.5322263    
O      4.5822912     1.2883381    -2.5774578    
C      3.7691615     3.4821867    -0.3120216    
C      2.9633846     4.7411581     0.0356083    
C      3.7305171     5.5562646     1.0758359    
C      2.6871697     5.5918574    -1.2014894    
N      4.0210893     0.3733200    -0.5884998    
C      4.7059563    -0.8880586    -0.6730059    
C      4.0761218    -1.8032954     0.4354232    
O      3.2626869    -1.2460113     1.2037165    
C      6.2239216    -0.7388382    -0.4552338    
C      6.4881889     0.0088566     0.8179232    
C      6.5390720    -0.6594056     2.0347002    
C      6.6188566     1.3922728     0.8047771    
C      6.7136401     0.0423374     3.2144967    
C      6.7906237     2.0962065     1.9839158    
C      6.8382034     1.4214483     3.1918309    
O      4.4327727    -2.9904889     0.4553556    
H     -9.0057350    -1.5233638    -0.0301281    
H     -7.9463389    -1.3315631    -2.6221767    
H     -9.9642065    -3.6671418    -0.8569498    
H     -9.1177572    -3.4801319    -2.4032791    
H     -10.4122687    -2.3692989    -1.9542874    
H     -6.8697209    -3.1841855    -1.2666950    
H     -7.7276336    -3.6293927     0.1194214    
H     -6.8180813    -1.2293191     0.8513976    
H     -5.3856890    -3.9227641     0.7559361    
H     -6.2946735    -3.2058828     2.1154755    
H     -3.5763870    -2.3067941     1.0320483    
H     -3.8869331    -3.1560193     2.5247026    
H     -3.3313880     0.1613496     3.6282355    
H     -2.4758534    -1.2027133     3.0472338    
H     -4.9867469     0.0772184     0.3865804    
H     -3.5336285    -0.4872714    -2.0871127    
H     -3.5399045     1.9684988    -2.6227075    
H     -4.6189103     2.2596946    -1.2517384    
H     -5.1910150     1.3205218    -2.6412328    
H     -1.3724442     0.4619071    -2.0034664    
H     -0.4122934     1.2909446     0.6429646    
H      1.0940661    -0.6982452     0.6665127    
H      0.4632840    -1.1957294    -0.9235071    
H      1.8481936     1.9339924     0.5058991    
H      2.6994294     2.9209073    -2.1280640    
H      4.6750013     3.7656068    -0.8508912    
H      4.0732899     2.9732790     0.6066406    
H      2.0060084     4.4313605     0.4667777    
H      3.1597990     6.4353094     1.3626628    
H      4.6851812     5.8788685     0.6680895    
H      3.9187185     4.9600722     1.9654750    
H      2.0762371     5.0492877    -1.9181562    
H      3.6209308     5.8705550    -1.6839078    
H      2.1564141     6.4975153    -0.9199131    
H      3.4271945     0.3878582     0.2416785    
H      4.5257137    -1.3585116    -1.6480306    
H      6.6364151    -0.2020529    -1.3118801    
H      6.6421123    -1.7464840    -0.4141145    
H      6.4182595    -1.7345989     2.0489423    
H      6.5761822     1.9119468    -0.1419752    
H      6.7438218    -0.4921781     4.1520695    
H      6.8832247     3.1713315     1.9580836    
H      6.9682842     1.9662158     4.1140337    
