82

C     -2.2080343     3.4997319     5.4011054    
C     -3.2925735     2.7341470     6.1752858    
C     -2.6486562     1.4055771     5.7490017    
C     -1.7452654     2.1677746     4.7609684    
C     -2.1280033     1.9919998     3.2960107    
O     -0.3783841     1.8528696     4.9754775    
C      0.5238342     2.1563925     4.0024025    
C      1.8622813     1.9161747     4.3081195    
C      2.8513737     2.1926566     3.3893478    
C      2.5336082     2.7211411     2.1432063    
C      3.6091747     3.0750442     1.1564686    
C      4.0763806     4.5179753     1.3634551    
C      1.2019860     2.9603530     1.8449661    
C      0.1863090     2.6753235     2.7511405    
C     -1.2719811     2.9300638     2.4464880    
N     -1.5904763     2.7691013     1.0023567    
C     -1.2909592     1.4417576     0.4229865    
C     -1.0174448     1.6065172    -1.0839337    
O     -0.2569467     2.7878977    -1.2144235    
C     -0.2688075     0.3576815    -1.6102847    
C      0.0913088     0.4984385    -3.0973866    
C      0.8057857    -0.7241585    -3.6087751    
C      0.1693453    -1.6305684    -4.4444111    
C      2.1246551    -0.9625301    -3.2398875    
C      2.7890236    -2.0789135    -3.7107188    
C      2.1453322    -2.9703876    -4.5523444    
C      0.8257325    -2.7570184    -4.9276092    
C      0.0966421    -3.7447308    -5.7947221    
C     -0.8641225    -4.6035021    -4.9588184    
C     -0.1133922    -5.4717013    -3.9496224    
C     -1.0051854    -6.0808558    -2.8658590    
C     -1.7739984    -5.0591156    -2.0212087    
C     -0.8942440    -3.9283353    -1.4917700    
C     -1.6789626    -2.9855352    -0.5685118    
C     -0.9004003    -1.6985411    -0.4115351    
O     -0.1669109    -1.4593692     0.5405277    
N     -1.0847156    -0.8235401    -1.4177319    
H     -1.4399863     3.9179334     6.0468515    
H     -2.5632731     4.2682370     4.7204510    
H     -4.2890496     2.8745934     5.7647707    
H     -3.3255492     2.9161743     7.2458684    
H     -3.3056811     0.6599611     5.3094455    
H     -2.0590174     0.9439902     6.5366114    
H     -3.1894277     2.2072607     3.1864349    
H     -1.9346220     0.9525270     3.0245018    
H      2.0969276     1.5073802     5.2782912    
H      3.8827597     1.9965825     3.6430004    
H      3.2329996     2.9648573     0.1386698    
H      4.4596276     2.4027033     1.2813694    
H      4.8602805     4.7686854     0.6531201    
H      4.4692269     4.6487128     2.3693071    
H      3.2491316     5.2096697     1.2277056    
H      0.9748846     3.3666199     0.8715974    
H     -1.5082667     3.9687147     2.7093495    
H     -1.0137075     3.4255566     0.4432388    
H     -2.5762283     3.0067279     0.8502333    
H     -2.1082245     0.7450293     0.5883083    
H     -0.3940076     1.0453483     0.9012362    
H     -1.9645607     1.7041022    -1.6327589    
H     -0.1870313     3.0514461    -2.1393425    
H      0.6417637     0.2236330    -1.0149180    
H      0.7528385     1.3564784    -3.2178784    
H     -0.8183923     0.6614871    -3.6777446    
H     -0.8528156    -1.4558818    -4.7508268    
H      2.6380517    -0.2691351    -2.5906753    
H      3.8155017    -2.2575130    -3.4256159    
H      2.6742228    -3.8366127    -4.9234942    
H      0.8136906    -4.3929854    -6.3017095    
H     -0.4774326    -3.2122690    -6.5562649    
H     -1.4519341    -5.2404020    -5.6224648    
H     -1.5534082    -3.9403367    -4.4376017    
H      0.6670685    -4.8778095    -3.4710184    
H      0.3870031    -6.2839325    -4.4826066    
H     -0.3700929    -6.6773358    -2.2064227    
H     -1.7257543    -6.7600131    -3.3280575    
H     -2.2300056    -5.5863130    -1.1805152    
H     -2.5860882    -4.6339761    -2.6141376    
H     -0.4971597    -3.3538065    -2.3302553    
H     -0.0440342    -4.3418368    -0.9466055    
H     -1.8147251    -3.4467576     0.4091393    
H     -2.6568565    -2.7795821    -1.0038635    
H     -1.6612368    -1.1055474    -2.1965827    
