59

N      1.7127831    -3.0527153    -0.9608780    
C      0.8065034    -2.0566057    -1.1705423    
C      0.2120059    -2.3022063    -2.3877675    
C      0.8278164    -3.4786296    -2.8613915    
N      1.7308835    -3.9069144    -2.0001838    
N      0.6703253    -1.0093560    -0.2722382    
C     -0.2969821    -0.0373175    -0.3504390    
C      0.5370502    -4.1873484    -4.1526960    
C     -0.9220404    -4.6625275    -4.1336819    
C      0.7433963    -3.2095469    -5.3164655    
C      1.4683100    -5.3892900    -4.3183794    
C      2.5757314    -3.2486146     0.1306543    
C      3.8742560    -3.6852759    -0.1058795    
C      4.7386184    -3.8844756     0.9532782    
C      4.3339850    -3.6528604     2.2631569    
C      3.0254031    -3.2381978     2.4874927    
C      2.1456062    -3.0437479     1.4387876    
C      5.2659937    -3.8715901     3.4135547    
O     -1.1641182    -0.0331759    -1.2102466    
N     -0.1726835     0.8934699     0.6441594    
C     -0.9564016     2.0252308     0.8821463    
C     -0.6403781     2.8069315     1.9944819    
C     -1.3695210     3.9400138     2.2855409    
C     -2.4314201     4.3344041     1.4717960    
C     -2.7387284     3.5500646     0.3615983    
C     -2.0190920     2.4088422     0.0683907    
C     -3.1986997     5.5469775     1.7742025    
C     -3.5143120     5.9122900     3.0832529    
C     -4.2408799     7.0680821     3.3081190    
C     -4.6356203     7.8243363     2.2147126    
N     -4.3405704     7.4976176     0.9648832    
C     -3.6419707     6.3958620     0.7573198    
H     -0.5506729    -1.7126044    -2.8499148    
H      1.3828980    -0.9585948     0.4445935    
H     -1.1601276    -5.1739761    -5.0630622    
H     -1.5981861    -3.8180006    -4.0174973    
H     -1.0843439    -5.3498263    -3.3059623    
H      1.7703882    -2.8509935    -5.3322772    
H      0.0812437    -2.3521029    -5.2207842    
H      0.5336907    -3.7058101    -6.2609184    
H      1.3320449    -6.0858441    -3.4963603    
H      2.5052874    -5.0650683    -4.3170580    
H      1.2568462    -5.8984484    -5.2552663    
H      4.1826307    -3.8710149    -1.1218996    
H      5.7450940    -4.2224947     0.7570147    
H      2.6854007    -3.0784109     3.4998955    
H      1.1193178    -2.7752926     1.6390301    
H      6.2919357    -3.9659125     3.0693923    
H      4.9955117    -4.7853534     3.9416712    
H      5.2029446    -3.0474816     4.1206895    
H      0.5771537     0.7660093     1.3113294    
H      0.1846175     2.5254840     2.6321377    
H     -1.0989138     4.5396955     3.1418031    
H     -3.5681149     3.8238515    -0.2728534    
H     -2.2763133     1.8108092    -0.7902536    
H     -3.2109288     5.2859177     3.9092732    
H     -4.5017106     7.3742787     4.3085703    
H     -5.2137549     8.7306069     2.3348974    
H     -3.4086776     6.1841749    -0.2780662    
