79

C     -1.1344494    -5.7294665    -3.0002480    
C     -2.3826563    -6.4673895    -2.4903613    
C     -3.0082467    -5.1196246    -2.0967874    
C     -1.6526392    -4.4284352    -2.3384109    
C     -0.9213682    -4.0208035    -1.0645553    
O     -1.7945734    -3.3287181    -3.2250282    
C     -0.7963247    -2.4049628    -3.2874957    
C     -0.9466998    -1.4013517    -4.2425607    
C      0.0091225    -0.4179114    -4.3812092    
C      1.1428258    -0.4136748    -3.5768749    
C      2.2159438     0.6222262    -3.7541447    
C      3.2943050     0.1207222    -4.7185129    
C      1.2902885    -1.4169291    -2.6327251    
C      0.3307540    -2.4089397    -2.4638328    
C      0.4691234    -3.5062892    -1.4336502    
N      1.2004388    -3.0558128    -0.2180289    
C      0.6228957    -1.8890477     0.4835959    
C      1.7564262    -1.1031398     1.1765658    
O      2.8783374    -1.1880737     0.3253782    
C      1.2956851     0.3569866     1.3877882    
C      2.3583373     1.2080627     2.1021703    
C      1.8610174     2.6192907     2.2544992    
C      1.2521712     3.0354027     3.4300419    
C      1.9551098     3.5115187     1.1946843    
C      1.4610775     4.7977637     1.3203869    
C      0.8560582     5.1996022     2.4971620    
C      0.7363817     4.3168798     3.5642173    
C      0.0421214     4.7371346     4.8262866    
C     -1.4779160     4.8777152     4.6545194    
C     -2.1810253     3.5769077     4.2502385    
C     -2.2688099     3.3851968     2.7353978    
C     -3.0531628     2.1351487     2.3318257    
C     -2.2767629     0.8381826     2.5718377    
C     -1.1229225     0.7244447     1.5962218    
O     -1.2601050     0.8750873     0.3877161    
N      0.0589838     0.3791946     2.1409175    
H     -1.1092596    -5.6388384    -4.0838332    
H     -0.1788178    -6.1090385    -2.6488699    
H     -2.1797376    -7.1071133    -1.6347997    
H     -2.9296992    -7.0397156    -3.2343083    
H     -3.4095627    -5.0382875    -1.0899292    
H     -3.7517187    -4.7704492    -2.8089024    
H     -0.8669870    -4.8848033    -0.4042517    
H     -1.5030668    -3.2301086    -0.5872720    
H     -1.8300660    -1.4157998    -4.8617048    
H     -0.1268595     0.3542845    -5.1241428    
H      2.6754812     0.8507195    -2.7914689    
H      1.7794826     1.5410040    -4.1500623    
H      4.0617070     0.8783637    -4.8573191    
H      2.8578333    -0.1073076    -5.6886615    
H      3.7614506    -0.7822027    -4.3334307    
H      2.1758654    -1.3946629    -2.0169085    
H      1.0527716    -4.3268765    -1.8688103    
H      2.1549709    -2.7446908    -0.4803056    
H      1.2943265    -3.8480586     0.4263683    
H     -0.1239953    -2.1972794     1.2113281    
H      0.1494641    -1.2382170    -0.2545850    
H      1.9890433    -1.5505431     2.1524691    
H      3.6680461    -0.8505681     0.7628987    
H      1.0741793     0.7955844     0.4074329    
H      3.2698583     1.2182588     1.5058538    
H      2.5738453     0.7791673     3.0822715    
H      1.1826650     2.3567467     4.2684226    
H      2.4203298     3.2059024     0.2693907    
H      1.5464461     5.4913116     0.4965024    
H      0.4709821     6.2050056     2.5901478    
H      0.4379815     5.7033389     5.1496652    
H      0.2423817     4.0119631     5.6175226    
H     -1.6907513     5.6486254     3.9112437    
H     -1.8847402     5.2221631     5.6079080    
H     -3.1993907     3.5909203     4.6463954    
H     -1.6618772     2.7362129     4.7113113    
H     -1.2707407     3.3410560     2.2967101    
H     -2.7713651     4.2577677     2.3097244    
H     -3.2851419     2.1933256     1.2658185    
H     -3.9954597     2.1051939     2.8818455    
H     -2.9456414    -0.0044656     2.3849442    
H     -1.9272705     0.7848862     3.6009083    
H      0.1388365     0.3258410     3.1449782    
