129

C     -2.4759665    -3.6847557     0.3265529    
C     -1.3842602    -3.7961729    -0.6213061    
C     -0.1128358    -3.5039519    -0.2142437    
C      0.1708926    -2.8950275     1.0670087    
C     -0.8205075    -1.3142367     2.7390472    
C     -1.9798356    -0.7667080     3.3304714    
C     -3.2515543    -1.2648821     3.1125781    
C     -3.3771985    -2.3058585     2.1777252    
C     -2.2465570    -2.7795969     1.4577580    
C     -0.9562586    -2.3326305     1.7802752    
C      0.2976048    -0.5286006     3.2120090    
C     -0.3217669     0.5488455     4.1378425    
C      0.2139181     0.4141218     5.5608430    
C     -4.4548859    -0.7189897     3.8081578    
C     -2.5350861    -3.4955110    -2.7232318    
C     -2.0877520    -3.1908815    -4.0971104    
C     -2.7719135    -2.2015694    -4.7077126    
C     -2.3372428    -1.2958932    -5.7442742    
C     -1.0868011    -0.8286426    -5.7867309    
C     -0.6502929     0.4381416    -6.4549750    
C     -0.9490667     1.5238298    -5.3749794    
C     -0.1457983     2.8356152    -5.4831440    
C     -0.3911181     3.7283511    -4.2378717    
C     -0.0560228     3.0482134    -2.8879009    
C     -0.2135808     4.0723323    -1.7425872    
C     -0.6272049     3.3915136    -0.4148783    
C     -0.1218418     4.1974004     0.7993110    
C     -0.5311602     3.5944364     2.1553137    
C     -0.1674033     2.1222901     2.3171900    
C     -0.8509089    -3.8289742    -4.6562013    
C      0.8171693     0.3478613    -6.8630292    
C     -0.4889291     3.6288488    -6.7449712    
C      1.3382430     2.4241269    -2.8653284    
C     -2.1462339     3.2384208    -0.3928248    
C      1.0783304     6.0771625    -1.8362628    
C      2.4514050     6.6251544    -1.5610817    
C     -0.0031708     6.4858530     1.4789309    
N     -1.6072086    -4.1678018    -1.9538896    
O      0.9244620    -3.7787093    -1.0607158    
C      2.1948220    -3.6620105    -0.5817754    
C      2.4075529    -3.2113558     0.7375316    
N      1.3822363    -2.7910941     1.5206879    
O     -3.5410779    -4.3067360     0.1832779    
O     -4.5949722    -2.7886180     1.9753787    
O     -1.7352709     0.2846044     4.1311675    
O      1.4925389    -0.5920534     3.0099871    
O     -0.0758295     1.8544524     3.7173580    
O     -0.6173292     5.5196789     0.6551559    
O      1.0242466     4.7767761    -1.5758931    
O      0.1518632     6.7355389    -2.2581399    
O     -1.7168184     4.2139674    -4.2074083    
O     -2.3428101     1.7609864    -5.3085835    
O     -3.5651219    -3.0404156    -2.2363368    
C      3.2572365    -3.9762258    -1.4118712    
C      4.5445215    -3.8570408    -0.9153706    
C      4.7900695    -3.4264417     0.3803999    
C      3.7361816    -3.0996810     1.2247446    
O      3.8483370    -2.6854924     2.4863087    
C      5.0696582    -2.1259080     2.9623632    
C      4.7285484    -1.0809037     4.0236373    
N      4.3498040    -1.6690101     5.3293146    
C      4.3608465    -0.6319586     6.3953454    
C      4.3582351    -1.2518172     7.7836879    
C      3.0497797    -2.4065546     5.2734700    
C      3.2597208    -3.9046603     5.4170310    
H     -0.2622118     1.1686075     6.1791313    
H      1.2840192     0.5877683     5.5317622    
H     -0.0133281    -0.5756585     5.9439916    
H     -4.1816118     0.1524065     4.3942642    
H     -4.8828568    -1.4791522     4.4589475    
H     -5.2169273    -0.4538020     3.0776585    
H     -1.2694249     0.6421667    -7.3330992    
H     -0.7137208     1.0708469    -4.4063003    
H      0.9138868     2.5829827    -5.4996288    
H      0.2337715     4.6264426    -4.3376690    
H     -0.8116089     2.2772569    -2.7112400    
H     -0.9787444     4.8098859    -2.0132633    
H     -0.1553957     2.4062154    -0.3690506    
H      0.9796740     4.2245855     0.7526580    
H     -1.6010553     3.7361449     2.3044079    
H     -0.0094049     4.1355568     2.9459632    
H      0.8077782     1.9151895     1.8569624    
H     -0.9208777     1.4765023     1.8543216    
H      0.0510538    -3.4880452    -4.1469622    
H     -0.7644666    -3.5730815    -5.7082872    
H     -0.9165851    -4.9125910    -4.5713321    
H      0.9538884    -0.5156161    -7.5089784    
H      1.4515508     0.2265126    -5.9888946    
H      1.1341465     1.2313992    -7.4072456    
H     -0.4602281     2.9964207    -7.6278129    
H      0.2265172     4.4368597    -6.8756993    
H     -1.4749285     4.0798522    -6.6564400    
H      1.3686168     1.5243581    -3.4716291    
H      1.6074042     2.1651884    -1.8452798    
H      2.0727387     3.1299705    -3.2426248    
H     -2.4992640     2.8018912    -1.3231702    
H     -2.6057039     4.2164607    -0.2773810    
H     -2.4636091     2.5983325     0.4248085    
H      2.8718902     6.9998736    -2.4910088    
H      3.0869637     5.8510122    -1.1462028    
H      2.3656416     7.4640802    -0.8756307    
H     -0.3060989     7.4520618     1.0787563    
H      1.0877310     6.3976719     1.4381690    
H     -0.3388332     6.4030691     2.5163661    
H     -0.7676486    -4.4701477    -2.4330798    
H     -4.5608524    -3.4953679     1.2765707    
H      3.0684948    -4.3123876    -2.4172793    
H      5.3763156    -4.1109419    -1.5522720    
H      5.8089002    -3.3633461     0.7241893    
H      5.5969165    -1.6258579     2.1455345    
H      5.7081996    -2.9196767     3.3660281    
H      3.8918709    -0.4795081     3.6608245    
H      5.6025975    -0.4453364     4.1667098    
H      5.0692787    -2.3590035     5.5842830    
H      3.4937337     0.0128645     6.2533293    
H      5.2611276    -0.0278477     6.2820322    
H      4.3818633    -0.4601190     8.5264333    
H      5.2372789    -1.8734258     7.9344628    
H      3.4711293    -1.8494193     7.9693270    
H      2.5619676    -2.1873662     4.3244840    
H      2.4098393    -2.0479656     6.0773535    
H      2.2947405    -4.4028100     5.4238984    
H      3.7658866    -4.1483385     6.3484365    
H      3.8251531    -4.3051513     4.5812491    
H     -2.6336809     2.1065195    -6.1648552    
H     -2.3023901     3.4417480    -4.3179457    
H     -3.7225632    -1.9308331    -4.2583153    
H     -3.1127576    -0.8430765    -6.3457399    
H     -0.3440704    -1.2543489    -5.1273998    
