57

C      4.9100726    -1.6746895     0.4104714    
C      4.2996852    -2.4439476     1.5761299    
C      2.8449719    -2.8384470     1.3018841    
C      2.2624784    -3.7293226     2.4091441    
C      2.8592717    -5.1317694     2.4210548    
O      2.1388208    -1.5993144     1.1900894    
C      0.7946999    -1.6143887     0.7549923    
C      0.4414281    -0.1507646     0.4530420    
N      0.8435810     0.7109095     1.5406634    
C      1.5256389     1.8601316     1.3421093    
C      2.0082248     2.5172151     2.6098266    
O      1.7091164     2.3315713     0.2265646    
C      0.5174157    -2.4462829    -0.4958764    
C     -0.8735697    -2.2079622    -0.9950406    
C     -1.4983441    -3.3145104    -1.8501852    
O     -2.6256238    -3.0910365    -2.3388042    
O     -0.8364735    -4.3673597    -1.9782264    
C     -1.5730245    -1.1221458    -0.6959969    
C     -1.0694078    -0.0140245     0.1810654    
N     -1.3297426     1.2741531    -0.4152641    
C     -1.7420925     2.3951762     0.2141583    
N     -1.1094707     1.5282481    -1.6964550    
N     -1.3685096     2.7662649    -1.9219785    
C     -1.7651452     3.3580469    -0.7732392    
C     -2.1601068     4.8014501    -0.7011315    
C     -3.6858743     4.9447200    -0.5745675    
C     -4.4078752     4.4918237    -1.8356866    
O     -1.4936634     5.4773010     0.3495732    
H      5.9297229    -1.3804474     0.6428984    
H      4.3246620    -0.7821797     0.2035839    
H      4.9204132    -2.2897146    -0.4870767    
H      4.3183179    -1.8229169     2.4723950    
H      4.8794157    -3.3470052     1.7596114    
H      2.7915783    -3.3765747     0.3448029    
H      1.1856819    -3.8159928     2.2463676    
H      2.4214635    -3.2437443     3.3735675    
H      2.3404392    -5.7459588     3.1525684    
H      3.9143706    -5.1107162     2.6768944    
H      2.7465488    -5.5954933     1.4433463    
H      0.1379744    -1.9725361     1.5668638    
H      0.9842003     0.1775751    -0.4417791    
H      0.8400908     0.3017573     2.4627972    
H      2.3168935     3.5342122     2.3884146    
H      2.8626035     1.9600703     2.9867752    
H      1.2262629     2.5194095     3.3623584    
H      0.6213459    -3.5188985    -0.3135872    
H      1.2261348    -2.1780122    -1.2856451    
H     -2.5716538    -1.0190133    -1.0970833    
H     -1.6101798    -0.0318557     1.1371587    
H     -1.9710535     2.4098390     1.2582373    
H     -1.8166224     5.2862507    -1.6201340    
H     -3.9065279     5.9953128    -0.3771269    
H     -4.0252447     4.3519946     0.2788947    
H     -5.4836440     4.5591414    -1.7004701    
H     -4.1501851     3.4621626    -2.0740369    
H     -4.1202591     5.1118301    -2.6803848    
H     -1.8337827     5.1552505     1.1960006    
