66

C      2.0191815     0.4510143    -1.3952368    
C      4.3922817     0.8899925    -1.1097191    
C     -3.8495622    -0.8057524     1.3678996    
C     -4.9916868    -1.3898487     2.0405732    
O     -2.1710772     0.7157694     1.2398547    
C     -0.7150285     2.5368759     0.8293608    
C     -1.8683035     2.0459131     1.7014072    
C     -1.5049234     2.0527855     3.1814682    
C      5.3664105     3.1819249    -0.7113386    
O      1.7989181     0.5786305    -0.1868160    
N      3.2141017     0.7649684    -1.9476424    
C      5.2066209     2.0870243    -1.5140395    
N      5.7940131     2.0597845    -2.7270177    
O      5.5790713     0.9868296    -3.5623487    
C      6.5192296     3.1055387    -3.2036627    
C      6.7118017     4.2139037    -2.4440068    
O      7.4400108     5.2610936    -2.8813243    
C      6.1305362     4.3157276    -1.1134330    
O      6.3259083     5.3516485    -0.4375967    
N      1.0329981     0.1659150    -2.3044947    
C     -0.2483172    -0.3438991    -1.8635608    
C     -0.1642372    -1.8040571    -1.3956127    
N      0.6133043    -1.9440527    -0.1771631    
S      2.0126856    -2.7616850    -0.5380629    
O      1.5730323    -4.0924295    -0.9503811    
O      2.8145533    -2.7648741     0.6766310    
O      2.6887135    -2.0761963    -1.6441298    
C     -1.5588023    -2.4172990    -1.1345984    
C     -1.3677126    -3.9024877    -0.9157921    
O     -1.5696857    -4.4709279     0.1232162    
N     -2.1620879    -1.7958606     0.0144693    
C     -3.4429721    -1.4056131     0.0526969    
O     -4.2096258    -1.5444110    -0.8969973    
N     -3.2594390     0.1902292     1.9114179    
C     -3.1015035     2.9858922     1.4105864    
O     -3.9589449     2.5541542     0.6191555    
O     -3.0870789     4.0979326     1.9661704    
N     -5.3218581    -1.0463582     3.3239867    
C     -6.3789807    -1.6561487     3.7340933    
N     -6.9177449    -1.5647809     4.9509985    
S     -7.0866796    -2.7521497     2.5141263    
C     -5.8198884    -2.3064113     1.4513623    
H      4.9843448    -0.0308168    -1.1744820    
H      4.0434588     1.0017020    -0.0822085    
H     -0.4289518     3.5291581     1.1646660    
H     -1.0432785     2.5956706    -0.2073779    
H      0.1365868     1.8609364     0.8947550    
H     -1.5065653     3.0834134     3.5250328    
H     -0.5241339     1.6050546     3.3271583    
H     -2.2548195     1.4891455     3.7312884    
H      4.8908228     3.2017930     0.2552914    
H      3.3941793     0.4418643    -2.8876432    
H      6.4305784     0.5530396    -3.7707813    
H      6.9235865     3.0151587    -4.1985130    
H      7.4212246     5.9263440    -2.1615032    
H      1.3617700    -0.2509403    -3.1641888    
H     -0.9477015    -0.2595366    -2.6959278    
H     -0.6057033     0.2717600    -1.0335425    
H      0.3508051    -2.4105737    -2.1508491    
H      0.8939217    -1.0497811     0.2123740    
H     -2.2232329    -2.2572763    -1.9913076    
H     -1.0172242    -4.4423774    -1.8090251    
H     -1.5531682    -1.6675540     0.8094123    
H     -6.5734945    -0.8356833     5.5533339    
H     -7.8322861    -1.9547569     5.1030052    
H     -5.7638484    -2.7030490     0.4596822    
