39

C     -0.4189960     2.3000119     1.5544363    
C     -0.4483651     2.2453172    -0.0186050    
C      0.8956100     2.5622295    -0.6712286    
C      1.9089126     1.4598951    -0.3700208    
C      1.3244098     0.0879154    -0.7302661    
C     -0.0205449    -0.0692960     0.0066695    
C     -0.7253254    -1.4217459    -0.2256174    
C     -2.1181868    -1.3836393     0.4394499    
C     -2.7581085    -2.7767157     0.4059141    
C      2.4457481    -2.0581707    -1.1221545    
C      3.5832205    -2.9343576    -0.6750194    
N      2.2724097    -0.9450298    -0.3917626    
O     -1.4191553     1.7911146     2.1055947    
O      0.5546088     2.8311350     2.1081611    
O     -1.3914503     3.1590874    -0.4961688    
O      3.1053782     1.6154945    -1.0955721    
O     -0.9023586     0.9509680    -0.4075424    
O     -0.9142449    -1.7248159    -1.5776144    
O     -2.0680285    -0.9970525     1.7983715    
O     -4.0701091    -2.7609672     0.9052115    
O      1.7225131    -2.3355822    -2.0781820    
H      1.2384435     3.5178606    -0.2735247    
H      0.7313426     2.6434407    -1.7469736    
H      2.1150921     1.4749991     0.7145570    
H      1.1389418     0.0440263    -1.8097674    
H      0.1744414     0.0217570     1.0897067    
H     -0.1205465    -2.1975949     0.2695014    
H     -2.7343779    -0.6877817    -0.1424405    
H     -2.1332003    -3.4575977     1.0000406    
H     -2.8064026    -3.1250982    -0.6258701    
H      3.6210887    -3.8180940    -1.3042029    
H      3.4387548    -3.2280338     0.3607366    
H      4.5172917    -2.3857626    -0.7592114    
H      2.8952071    -0.7563145     0.3790076    
H     -2.2526770     2.9501355    -0.1028919    
H      3.4617076     2.5015817    -0.9388655    
H     -0.0450525    -1.9612764    -1.9737297    
H     -1.9329286    -0.0348878     1.8839434    
H     -4.0494953    -2.2867484     1.7513310    
