68

C      3.7988857     2.3121533    -1.2855520    
C      3.6672198     3.4266911    -2.1330659    
C      2.7560249     4.3274615    -1.6609808    
Cl     2.3140918     5.8126122    -2.4031932    
S      2.0487450     3.8385156    -0.1695269    
C      2.9938494     2.3846566    -0.1811837    
C      2.7981056     1.4894860     0.9587841    
O      2.1952620     1.8763520     1.9575981    
N      3.3119154     0.2459360     0.8604119    
C      2.9796377    -0.7582120     1.8426666    
C      1.6262301    -1.4484707     1.5393519    
C      0.5815160    -0.3900153     1.1516864    
O      0.4008058    -0.1729726    -0.0477419    
N     -0.0947867     0.2568052     2.1023054    
C      0.1797513     0.2130770     3.5264267    
C     -1.1252863     0.3036383     4.3149930    
N     -1.8686294     1.5302227     3.9611402    
C     -3.0974596     1.6636268     4.7589478    
C     -2.1621268     1.5143209     2.5127368    
C     -0.8696363     1.4293298     1.7160390    
N      1.7789360    -2.3776330     0.4283498    
S      0.6982292    -3.6280872     0.4568693    
O      0.9432662    -4.4647595    -0.6895591    
O      0.8241715    -4.2514393     1.7524644    
C     -0.9345529    -2.8768752     0.3902732    
C     -1.4298070    -2.3532368    -0.7925550    
Cl    -0.5151846    -2.5028334    -2.2383567    
C     -1.6124064    -2.7274910     1.5857172    
C     -2.8131296    -2.0424729     1.5666242    
F     -3.4616198    -1.8324983     2.7301493    
C     -3.3461905    -1.5173828     0.4039383    
C     -2.6620609    -1.6840554    -0.7932885    
N     -3.1954057    -1.1539830    -1.9867609    
C     -3.1330850     0.3026383    -2.0945110    
C     -3.9633004     0.8125953    -3.2601316    
C     -3.5781158     0.0337821    -4.5093571    
C     -3.9545547    -1.4274850    -4.3036721    
C     -3.4784913    -2.0111393    -2.9964288    
O     -3.4278711    -3.2285669    -2.8201929    
H      4.4841194     1.5103369    -1.4887693    
H      4.2177226     3.5603223    -3.0452548    
H      3.6821374    -0.0663987    -0.0220325    
H      2.9181308    -0.2550017     2.8094424    
H      3.7609780    -1.5154474     1.8635458    
H      1.3333584    -2.0679551     2.3870800    
H      0.8422761     1.0517459     3.7701572    
H      0.6825847    -0.7128222     3.7920539    
H     -0.8953006     0.3105342     5.3805012    
H     -1.7622694    -0.5552415     4.0989943    
H     -1.2601295     2.3376920     4.1510157    
H     -3.6252302     2.5726059     4.4842201    
H     -2.8554457     1.7028904     5.8174849    
H     -3.7452214     0.8088431     4.5780373    
H     -2.6915755     2.4253660     2.2351087    
H     -2.7981753     0.6539532     2.3042842    
H     -1.0805937     1.3521626     0.6493803    
H     -0.2433736     2.3152445     1.8758360    
H      1.7357865    -1.8923464    -0.4633221    
H     -1.2025935    -3.1573204     2.4847618    
H     -4.2959853    -1.0043439     0.4202130    
H     -2.0825768     0.5875542    -2.2236786    
H     -3.4962287     0.7203219    -1.1547011    
H     -3.7740064     1.8764530    -3.3927079    
H     -5.0250486     0.6699712    -3.0584568    
H     -2.5040720     0.1185876    -4.6832934    
H     -4.0946507     0.4203805    -5.3873799    
H     -3.5663912    -2.0650844    -5.1002627    
H     -5.0424987    -1.5428268    -4.3116558    
