37

O      4.4455190    -1.7071809    -1.5560958    
P      3.6559658    -1.3515397    -0.3073211    
O      4.2357106    -2.0115925     0.9452219    
O      3.4747231     0.1528551    -0.1093281    
C      1.9440891    -2.0477538    -0.4251841    
P      0.9662385    -1.4913247    -1.9137172    
O      0.8345071     0.0255255    -1.8104322    
O     -0.4046656    -2.1663553    -1.7521924    
O      1.6719543    -1.9642311    -3.1731613    
N      1.2936672    -1.5451954     0.7646852    
C     -0.0512476    -1.7503258     0.8870473    
N     -0.5085026    -2.9979538     1.0438157    
C     -1.8140325    -3.1520414     1.2012395    
N     -2.7592662    -2.2346256     1.2477971    
C     -2.2925435    -0.9898067     1.1342308    
S     -3.2714315     0.4258700     1.1321622    
C     -0.9445102    -0.6550768     0.9971179    
C     -0.7292722     0.7385440     0.8638661    
C     -1.8750271     1.4721469     0.9013315    
C     -2.0465849     2.9041661     0.7776051    
C     -1.0288456     3.6959326     0.2418518    
C     -1.1930445     5.0634499     0.1390934    
C     -2.3667021     5.6818268     0.5586473    
C     -2.5285825     7.1670626     0.4686482    
C     -3.3834917     4.8854248     1.0773522    
C     -3.2325410     3.5188962     1.1833564    
H      1.9938175    -3.1502226    -0.4231893    
H      1.5413536    -0.5537273     0.7512314    
H     -2.1396604    -4.1774742     1.3127329    
H      0.2571170     1.1454433     0.7001960    
H     -0.1214557     3.2210752    -0.1138169    
H     -0.3915291     5.6503202    -0.2861851    
H     -3.5620577     7.4232412     0.2557998    
H     -1.8849822     7.5729147    -0.3061435    
H     -2.2494639     7.6198264     1.4186044    
H     -4.3067042     5.3412994     1.3995297    
H     -4.0151167     2.8883688     1.5768139    
