65

C      1.9803375     2.5603463    -0.4814500    
C      0.7377232     2.9220666     0.0296448    
C      0.5940661     3.7582996     1.1197726    
C      1.7566413     4.2633676     1.7166243    
C      3.0059245     3.9161713     1.2171226    
C      3.1351976     3.0693964     0.1247533    
O      4.3451015     2.6809623    -0.3417837    
O      1.6327172     5.0854220     2.7885191    
C     -0.7698969     4.1140522     1.6625345    
C      2.0595682     1.6678334    -1.6315726    
C     -1.4870099     2.8613855     2.1708592    
C     -1.6121393     4.8280574     0.6037478    
N      2.8564627     1.8792736    -2.6466129    
O      2.6329799     0.8822153    -3.5519812    
C      1.6698111     0.0547416    -3.0778362    
C      1.2511666     0.5017198    -1.8477131    
C      0.2300850     0.0133899    -0.9236623    
C     -1.0665728    -0.2477017    -1.3556708    
C     -2.0375863    -0.6312294    -0.4482742    
C     -1.7325848    -0.7582446     0.9009415    
C     -0.4310103    -0.5122609     1.3284850    
C      0.5412672    -0.1290613     0.4279646    
C     -2.7872378    -1.1469334     1.9030135    
N     -2.5455005    -2.5127203     2.4389041    
N      1.3382566    -0.9631726    -3.9395622    
C      0.8369458    -2.2255935    -3.7338521    
O      0.5747791    -2.9127592    -4.7137123    
C      0.6510979    -2.6959338    -2.3498074    
C     -0.6366493    -3.4197596    -2.0153089    
C      0.3978353    -4.1789729    -2.1553895    
C     -2.6687282    -3.5487865     1.3871761    
C     -2.3911667    -4.9294101     1.9876566    
O     -3.2784502    -5.2083976     3.0512856    
C     -3.1496001    -4.2468039     4.0780405    
C     -3.4589779    -2.8401725     3.5574934    
H     -0.1454205     2.5475845    -0.4619245    
H      3.8958512     4.3126091     1.6866220    
H      5.0595389     3.1382607     0.1273609    
H      2.5006127     5.3813675     3.1006226    
H     -0.6226733     4.7992499     2.5021499    
H     -2.4363291     3.1389511     2.6209681    
H     -0.8746847     2.3630039     2.9175238    
H     -1.6723024     2.1743128     1.3494508    
H     -1.0940941     5.7112140     0.2369469    
H     -2.5625883     5.1399792     1.0297772    
H     -1.8107074     4.1747374    -0.2420570    
H     -1.3095723    -0.1324230    -2.4008641    
H     -3.0433617    -0.8096064    -0.7964290    
H     -0.1716303    -0.5881048     2.3731088    
H      1.5471207     0.0736477     0.7616035    
H     -3.7754960    -1.1244167     1.4436808    
H     -2.7710032    -0.4446594     2.7389079    
H     -1.5796237    -2.5431551     2.7928213    
H      1.6104904    -0.7801215    -4.9010974    
H      1.1744267    -2.1335620    -1.5879768    
H     -1.6736523    -3.2430179    -1.8874924    
H      0.8934665    -5.1151029    -2.1775836    
H     -1.9581022    -3.3428648     0.5869798    
H     -3.6874051    -3.5209311     0.9971833    
H     -1.3516542    -4.9922671     2.3400222    
H     -2.5575304    -5.7052974     1.2409465    
H     -2.1356605    -4.2862618     4.5010648    
H     -3.8650069    -4.5294173     4.8497702    
H     -4.4839525    -2.8076392     3.1850110    
H     -3.3401946    -2.1137283     4.3600928    
