67

C      0.2123927    -2.6455113    -6.0341578    
C      0.7366814    -3.9063764    -5.7992654    
C      0.8443374    -4.3633172    -4.4917699    
C      0.4352392    -3.5687387    -3.4271256    
C     -0.0874768    -2.3155749    -3.6749630    
C     -0.1982109    -1.8508937    -4.9746891    
S     -0.5119478    -1.2722866    -2.2370056    
O     -1.5559200    -0.4100396    -2.7759070    
O     -0.8861881    -2.2820452    -1.2620579    
C      1.0751151    -0.4583564    -2.1334130    
C      1.2194714     0.7155322    -2.8460966    
C      2.3543046     1.4825789    -2.6580998    
C      3.3254889     1.0741594    -1.7487005    
C      3.2179885    -0.1783502    -1.1497747    
C      2.0962806    -0.9636271    -1.3567326    
C      4.2785357     2.0979616    -1.1852677    
N      3.6023526     2.6464986    -0.0069396    
C      2.5018589     3.4229376    -0.1762810    
O      2.2783765     4.0399262    -1.2100969    
C      1.5821281     3.4862931     0.9917676    
C      2.0019737     3.5227254     2.3092233    
C      1.0054435     3.5053325     3.2798462    
C      0.9180260     3.5229029     4.6957304    
N     -0.3221700     3.4203083     5.0828900    
N     -1.1143766     3.3621658     3.9858569    
C     -0.3488276     3.4064020     2.8593297    
N     -0.7587431     3.4774930     1.5938492    
C      0.2037212     3.5040714     0.7011333    
C     -2.4414661     2.8142210     4.1852279    
C     -3.2875964     2.7755073     2.9052075    
C     -2.8853142     1.4167494     2.2943489    
C     -2.2604916     0.6306294     3.4693714    
O     -2.3468016     1.4710670     4.6080069    
C     -0.7961384     0.1868714     3.2132492    
O     -0.3138836     0.5078446     1.9453794    
P     -0.6922925    -0.7079048     0.7791655    
O     -0.5248648     0.1439581    -0.4806749    
O      0.3740044    -1.7393768     1.0542441    
O     -2.1198824    -1.1189737     1.0735863    
O     -4.0054694     0.7645289     1.7567273    
O     -4.6440529     2.8344609     3.2378137    
C      1.3721815    -5.7314138    -4.1846321    
F      1.9409956    -6.3405484    -5.2384325    
F      2.3083474    -5.7367414    -3.2163749    
F      0.4087052    -6.5804007    -3.7625910    
H      0.1219374    -2.2814416    -7.0440344    
H      1.0569269    -4.5317208    -6.6175378    
H      0.4954939    -3.9034867    -2.4025620    
H     -0.6270571    -0.8733850    -5.1241070    
H      0.3939969     1.0490797    -3.4530807    
H      2.4444112     2.4352580    -3.1552141    
H      3.9833515    -0.5275321    -0.4737642    
H      1.9431289    -1.8929918    -0.8307966    
H      4.4353353     2.9171684    -1.8860837    
H      5.2233484     1.6654267    -0.8642727    
H      3.5727856     2.0209930     0.7865694    
H      3.0461817     3.5858980     2.5749773    
H      1.7071250     3.5999031     5.4157651    
H     -0.1149309     3.5383762    -0.3323571    
H     -2.9231175     3.3616068     5.0001017    
H     -3.0282361     3.5951579     2.2268953    
H     -2.1312155     1.5652897     1.5135749    
H     -2.8648466    -0.2574236     3.6745789    
H     -0.7111802    -0.8993360     3.3515565    
H     -0.1428322     0.6863761     3.9409924    
H     -3.6453760    -0.0216777     1.3029021    
H     -5.0952778     2.1191871     2.7571377    
