21

O     -2.8478097     1.5716093     1.6385424    
C     -1.9208268     1.1298652     1.0435444    
C     -1.7575077    -0.1593954     0.2693278    
Cl    -3.1262744    -1.2272449     0.1561342    
C     -0.3963421    -0.7823584     0.7125327    
Cl    -0.3819147    -2.1214265     1.8178559    
C     -0.0114271    -1.0010505    -0.7796517    
Cl    -0.4060102    -2.5425749    -1.4808823    
C     -0.9874077     0.1840145    -1.0450602    
Cl    -1.8478271     0.2788453    -2.5517496    
C     -0.1426821     1.4307968    -0.6526515    
C     -0.5195311     1.6601093     0.8362735    
Cl    -0.1242186     3.1980038     1.5509603    
C      0.4578870     0.4735383     1.1127902    
Cl     1.3187750     0.3801322     2.6182471    
C      1.2063198     0.8074319    -0.2097031    
Cl     2.5840484     1.8633614    -0.0904732    
C      1.4065218    -0.4904831    -0.9780384    
Cl     1.7784807    -0.2079138    -2.6774726    
Cl     2.6088540    -1.5427359    -0.2244677    
H     -0.1586810     2.2599665    -1.3526863    
