37

C     -2.4663683    -2.6663652    -0.6964825    
C     -1.7511963    -1.8170419     0.3663089    
C     -0.2638685    -2.1694102     0.3355522    
C     -2.3389209    -2.2016100     1.7289255    
C     -2.0313344    -0.3385272     0.0099854    
C     -1.1622970     0.8125118     0.5717224    
C     -1.1911108     0.8408332     2.1016171    
C     -1.8063036     2.1296028     0.0917877    
C      0.2519775     0.7890244     0.0131287    
C      1.3832900     0.8654547     0.8185986    
C      2.6567915     0.8775661     0.2820845    
C      2.8406421     0.8235785    -1.0934687    
O      4.1138531     0.8388784    -1.5820902    
C      1.7229998     0.7626892    -1.9150792    
C      0.4563460     0.7498287    -1.3633892    
H     -2.3531280    -3.7255689    -0.4754736    
H     -2.0499365    -2.4805349    -1.6846120    
H     -3.5292886    -2.4347261    -0.7211468    
H      0.2883782    -1.6349075     1.1028818    
H      0.1728908    -1.9220011    -0.6293100    
H     -0.1360962    -3.2369164     0.5062517    
H     -3.3905098    -1.9278943     1.7831210    
H     -1.8147129    -1.7208165     2.5472829    
H     -2.2622418    -3.2778596     1.8715695    
H     -3.0641235    -0.1291788     0.3007666    
H     -1.9938650    -0.2626534    -1.0777430    
H     -0.7704978     1.7744864     2.4685808    
H     -0.6314527     0.0178068     2.5339039    
H     -2.2201058     0.7769493     2.4458790    
H     -1.8989192     2.1539553    -0.9905542    
H     -1.1952855     2.9761442     0.3990339    
H     -2.7976448     2.2449527     0.5240911    
H      1.2928936     0.9156945     1.8910889    
H      3.5256400     0.9313117     0.9198728    
H      4.1023159     0.7994121    -2.5500126    
H      1.8411800     0.7276513    -2.9891561    
H     -0.3856462     0.7076587    -2.0374899    
