38

C     -0.7390330    -0.3344250    -0.0891383    
C     -0.5462524    -0.7295847    -1.4046000    
C      0.6048803    -0.3636590    -2.0741825    
C      1.5898673     0.3974181    -1.4554334    
C      1.4218024     0.8107327    -0.1169814    
C      0.2570506     0.4280884     0.5239858    
C      2.4833037     1.6432735     0.5940585    
C      2.0982161     1.9833052     2.0385074    
C      3.8024117     0.8591448     0.6368778    
C      2.6769906     2.9684804    -0.1570649    
O      2.7385108     0.7661223    -2.1018879    
C      2.9505243     0.3443287    -3.4335785    
C     -1.9525993    -0.6938296     0.6529117    
C     -2.5364344    -2.0064727     0.4667106    
O     -2.1154492    -2.9022207    -0.2767852    
N     -3.6640871    -2.2577212     1.2185709    
C     -4.2355830    -1.3876844     2.0809002    
C     -3.6955605    -0.1535609     2.2570166    
C     -2.5403999     0.1836277     1.5264673    
H     -1.2924896    -1.3225175    -1.9093166    
H      0.7254534    -0.6831834    -3.0962933    
H      0.1065984     0.7019440     1.5539312    
H      2.8933772     2.5764035     2.4846718    
H      1.9758080     1.0837628     2.6372707    
H      1.1833243     2.5698561     2.0744060    
H      4.1686390     0.6613951    -0.3646300    
H      3.6559238    -0.0906789     1.1472725    
H      4.5567660     1.4298015     1.1737240    
H      1.7375853     3.5160575    -0.1961887    
H      3.0191749     2.7929927    -1.1712140    
H      3.4149760     3.5806639     0.3556446    
H      3.9238811     0.7472581    -3.7073360    
H      2.1872190     0.7461707    -4.1053611    
H      2.9731123    -0.7462211    -3.5075089    
H     -4.0664190    -3.1796131     1.0892832    
H     -5.1184963    -1.7260592     2.5982601    
H     -4.1396215     0.5534182     2.9349389    
H     -2.1159658     1.1688477     1.6450359    
