44

C      0.3313162     0.7852324     0.3833321    
C      0.4452022    -3.2671489     1.8128795    
C     -0.8143296    -1.2976513     1.2381982    
C     -3.1856073    -2.5032952     1.9043637    
C     -2.0521636    -3.2357209     2.0501194    
O     -0.7710628     0.6185936    -2.8108639    
C     -0.4940011     1.8366489    -2.7241248    
O     -0.9807128     2.7833827    -3.3441277    
C      0.6593886     2.1493727    -1.6799819    
C      1.8819107     2.6575813    -2.4368440    
C      2.9177508     3.4061402    -1.5858399    
C      3.9189488     4.0907494    -2.5164260    
C      3.6601529     2.4837875    -0.6198369    
N      0.8901708     0.8717465    -0.9806250    
C      0.3612634    -0.6346734     0.8803637    
C      1.5776425    -1.3136782     0.9850715    
O      2.6913620    -0.6627455     0.6025181    
C      1.6072333    -2.6280240     1.4605908    
C     -0.7946408    -2.6220035     1.7079782    
O     -1.9740289    -0.5979309     1.1169678    
C     -3.1761641    -1.1485012     1.4322190    
O     -4.1635459    -0.4388982     1.2963839    
C     -2.0913460    -4.6368259     2.5513518    
H     -0.7010286     1.1359713     0.3646285    
H      0.9218723     1.4251403     1.0441581    
H      0.4836602    -4.2810705     2.1718303    
H     -4.1591125    -2.9012772     2.1403312    
H      0.2940133     2.9150187    -0.9943156    
H      1.5010078     3.3402352    -3.2013693    
H      2.3566173     1.8248796    -2.9604605    
H      2.3963768     4.1811358    -1.0136845    
H      4.6517325     4.6541916    -1.9441608    
H      3.4111362     4.7776007    -3.1899618    
H      4.4447103     3.3515552    -3.1171679    
H      3.0096241     2.1117881     0.1647985    
H      4.4668930     3.0341936    -0.1417196    
H      4.0999250     1.6499437    -1.1609889    
H      0.3383199     0.2192226    -1.6233269    
H      1.8818234     0.6083485    -0.9546659    
H      3.4831280    -1.1988513     0.7702864    
H      2.5501233    -3.1449906     1.5457983    
H     -3.1144660    -4.9373116     2.7531900    
H     -1.5101485    -4.7226135     3.4669092    
H     -1.6642297    -5.3111537     1.8123219    
