48

O      3.7345943     1.1058945    -1.8577503    
C      2.5160446     0.9418171    -1.7067383    
O      1.6952814     1.7572782    -1.2398263    
C      1.9545405    -0.4602005    -2.1566119    
N      0.5441219    -0.4136970    -2.3736646    
C     -0.1107579    -0.5038193    -3.5706462    
C      0.3250518    -0.9472565    -4.8176690    
C     -0.5799302    -0.9616526    -5.8489075    
C     -1.9177492    -0.5494666    -5.6702866    
O     -2.6880414    -0.6259848    -6.7979042    
C     -4.0395375    -0.2139573    -6.7175774    
C     -2.3641733    -0.1143627    -4.4412156    
C     -1.4513147    -0.0834429    -3.3794205    
C     -1.5597336     0.3201821    -2.0291619    
C     -0.3249738     0.1160969    -1.4520675    
C      0.1186283     0.3782005    -0.0873735    
O      0.8572190    -0.3546696     0.5631068    
N     -0.4820764     1.4383518     0.5484662    
S      0.2808248     1.9077486     1.9887140    
O     -0.4112819     3.1314687     2.3454848    
O      1.7104963     2.0361541     1.8476527    
C     -0.1511403     0.6262067     3.1335078    
C      0.8242026    -0.1700643     3.6533442    
C      0.4764483    -1.1909139     4.5634523    
C      1.4434713    -2.0456295     5.1341873    
C      1.0721496    -3.0264239     6.0119273    
C     -0.2784648    -3.1951496     6.3581406    
C     -1.2389235    -2.3822721     5.8221153    
C     -0.8923685    -1.3601112     4.9130972    
C     -1.8640298    -0.5052033     4.3454996    
C     -1.5031576     0.4772944     3.4659115    
H      2.2020428    -1.1484905    -1.3427796    
H      2.4763713    -0.7601662    -3.0637922    
H      1.3437924    -1.2654243    -4.9738142    
H     -0.2913918    -1.2914311    -6.8337517    
H     -4.4336965    -0.3381660    -7.7232028    
H     -4.1147631     0.8342491    -6.4159653    
H     -4.6001542    -0.8395400    -6.0183120    
H     -3.3780628     0.2063723    -4.2719945    
H     -2.4341384     0.6813156    -1.5274152    
H     -0.8617694     2.1826872    -0.0173434    
H      1.8455548    -0.0111038     3.3445222    
H      2.4765784    -1.9046092     4.8558742    
H      1.8166581    -3.6768592     6.4430605    
H     -0.5511172    -3.9744734     7.0522001    
H     -2.2776323    -2.5090264     6.0844255    
H     -2.8995600    -0.6401373     4.6162110    
H     -2.2127261     1.1546074     3.0215953    
