325

C      3.4220108     2.7144674     13.6250529    
O      3.5153797     2.0955673     12.5635069    
C      4.1647476     3.9935063     13.8957715    
N      2.6151122     2.3024794     14.6119951    
C      1.9235999     1.0252937     14.5877890    
C      1.3303527     0.7419622     13.2125558    
O      1.4022374    -0.3613191     12.6901853    
C      0.7982687     1.0125345     15.6324603    
C      0.1218760    -0.3530336     15.7670690    
C      1.0065335    -1.4015989     16.4420837    
C      0.2313895    -2.6989164     16.6448539    
N      1.0768842    -3.7149363     17.3179224    
N      0.6674095     1.7643239     12.6490482    
C     -0.1143360     1.5935549     11.4521819    
C      0.5730349     2.0934635     10.1781673    
O     -0.0572206     2.1502191     9.1216326    
C     -1.5027370     2.2173470     11.6257545    
C     -2.2310464     1.4595108     12.7285090    
O     -2.2199123     1.8451524     13.8930721    
N     -2.8158588     0.3303279     12.3311911    
N      1.8703255     2.3693372     10.2585050    
C      2.6291657     2.6190886     9.0463075    
C      2.5248718     1.3945787     8.1343640    
O      2.2023589     1.5378522     6.9511807    
C      4.0513367     3.0783839     9.3741501    
C      4.9224618     3.2840572     8.1316401    
C      5.5930563     1.9998737     7.6302400    
C      6.4512787     2.2940100     6.4374931    
N      2.7005799     0.1769626     8.6438841    
C      2.5340387    -0.9718049     7.7567578    
C      1.1735855    -0.9549185     7.0740495    
O      1.0521775    -1.1968144     5.8802894    
C      2.7520938    -2.1882840     8.6593653    
C      3.7008649    -1.6418659     9.7229114    
C      3.1531061    -0.2379046     9.9631434    
N      0.1241608    -0.7223043     7.8687262    
C     -1.2226718    -0.6523814     7.3354960    
C     -1.2599774     0.2741552     6.1139710    
O     -1.7140533    -0.1008733     5.0371624    
C     -2.1849405    -0.1368500     8.4162101    
O     -2.0901524    -0.8619001     9.6174069    
N     -0.7700134     1.4923453     6.3218153    
C     -0.7481820     2.5019662     5.2788636    
C     -0.0695780     1.9594070     4.0212187    
O     -0.5819586     2.0965359     2.9092584    
C     -0.0070842     3.7358110     5.7977069    
C      0.2215967     4.8249259     4.7432688    
C     -1.0942735     5.3282574     4.1533844    
C      0.9936263     5.9794446     5.3798278    
N      1.0925677     1.3532608     4.2169305    
C      1.9011934     0.8542697     3.1218037    
C      1.1399675    -0.1802719     2.2982418    
O      1.2928585    -0.2531388     1.0775267    
C      3.1901446     0.2334271     3.6662159    
C      4.1270247     1.2975509     4.2355194    
C      5.4116790     0.6746310     4.7970410    
C      6.3736347     1.7376731     5.2375468    
N      0.3761042    -1.0279339     2.9764986    
C     -0.3801918    -2.0677839     2.3156392    
C     -1.6218208    -1.5305456     1.5944034    
O     -2.0386429    -2.0909999     0.5855986    
C     -0.7891404    -3.1617842     3.3016583    
C      0.4007117    -3.8110855     4.0192736    
C      1.5297695    -4.2545393     3.0892541    
N      1.0271552    -5.1504436     2.0651791    
C      1.5141503    -5.2957733     0.8379982    
N      2.5670189    -4.5951143     0.4235896    
N      0.8970095    -6.1105448    -0.0131040    
N     -2.1786616    -0.4321629     2.1017562    
C     -3.2126820     0.2722770     1.3670457    
C     -2.5875034     0.7714044     0.0575519    
O     -3.0623162     0.5149431    -1.0461911    
C     -3.7919089     1.4282580     2.1917045    
C     -4.7640303     2.2449866     1.3428291    
C     -4.4937800     0.8938058     3.4384862    
N     -1.4483996     1.4456080     0.2197346    
C     -0.7244616     2.0125384    -0.9008931    
C     -0.4393610     0.9355307    -1.9451865    
O     -0.5078503     1.1796812    -3.1534834    
C      0.6075063     2.6012512    -0.4388740    
C      0.4553900     3.8554357     0.4202044    
C      1.7776738     4.2255295     1.0600256    
O      2.6692983     3.4016865     1.2516215    
N      1.9082177     5.5023089     1.4244523    
N     -0.0745426    -0.2480001    -1.4747288    
C      0.2065045    -1.3762054    -2.3393027    
C     -0.8699309    -1.6117684    -3.3971996    
O     -0.5424232    -2.0688776    -4.4931863    
C      0.3685559    -2.6348036    -1.4927314    
N     -2.1386439    -1.3866820    -3.0593574    
C     -3.2073970    -1.6041306    -4.0048655    
C     -3.3183537    -0.5169072    -5.0829262    
O     -3.9708929    -0.7333991    -6.0998756    
C     -4.5453962    -1.7730368    -3.2704682    
C     -4.6191151    -3.1220021    -2.6436026    
N     -5.1129820    -4.2056337    -3.3164333    
C     -4.1869566    -3.5274228    -1.4103070    
C     -4.9934507    -5.2323391    -2.5080494    
N     -4.4339507    -4.8680456    -1.3425824    
N     -2.6717900     0.6226237    -4.8376532    
C     -2.4416495     1.6279660    -5.8537771    
C     -1.2803755     1.1483299    -6.7327989    
O     -1.4058498     1.0298755    -7.9539374    
C     -2.1565572     2.9967568    -5.2173025    
C     -3.3849416     3.4597410    -4.4240873    
C     -1.7559154     3.9968790    -6.2981017    
C     -3.1008060     4.6699179    -3.5409643    
N     -0.1770248     0.7937157    -6.0774592    
C      1.0084526     0.3096435    -6.7681676    
C      0.5833109    -0.7463876    -7.7976079    
O      0.9463454    -0.7091389    -8.9769310    
C      2.0151796    -0.2865336    -5.7820533    
C      2.5571925     0.7564390    -4.8019622    
C      3.7703495     0.2061304    -4.0342260    
N      4.2034658     1.1189476    -2.9957830    
C      3.7443691     1.1694868    -1.7393981    
N      3.0604554     0.1657616    -1.2144549    
N      4.0535293     2.2229932    -0.9904532    
N     -0.1839106    -1.6994830    -7.2827235    
C     -0.7850134    -2.8059183    -8.0008561    
C     -1.1994372    -2.4401641    -9.4227086    
O     -0.9884104    -3.2094185    -10.3549167    
C     -2.0069627    -3.2418466    -7.1817546    
C     -2.7231290    -4.4800973    -7.7117140    
C     -3.8655378    -4.8976065    -6.7814089    
C     -5.0325595    -3.9137930    -6.8091715    
N     -6.0547975    -4.3147821    -5.8181507    
N     -1.9135616    -1.3116104    -9.5458219    
C     -2.4476906    -0.8740722    -10.8123583    
C     -1.8296777     0.4160298    -11.3428795    
O     -2.4070849     1.1108887    -12.1763154    
C     -3.9759345    -0.7924345    -10.7627841    
C     -4.6510908    -2.1608274    -10.6350946    
C     -4.1737981    -3.2115828    -11.6417806    
C     -4.4104954    -2.8031074    -13.0959525    
N     -3.3839779    -3.4070759    -13.9761764    
N     -0.5887069     0.6777247    -10.9092844    
C      0.2678964     1.6218066    -11.5793938    
C      0.9165029     1.0083841    -12.8355614    
O      1.5110960     1.7221427    -13.6415770    
C      1.3413100     2.1463627    -10.6264453    
C      0.7089892     3.0121527    -9.5479869    
S      1.8783479     3.4660331    -8.2425068    
C      2.8897456     4.7023799    -9.0945419    
N      0.8025892    -0.3131269    -12.9422931    
C      1.0409449    -1.0835845    -14.1395173    
C     -0.3063698    -1.7542809    -14.5361732    
O     -1.0782357    -2.0346056    -13.5862199    
C      2.0988289    -2.1783230    -13.8929583    
C      2.5077722    -2.8123791    -15.2191329    
C      3.3161785    -1.5998585    -13.1744607    
H      3.4657553     4.8012641     14.0978821    
H      4.7726091     4.2523526     13.0338133    
H      4.8118715     3.8752908     14.7611700    
H      2.5992660     2.8152649     15.4816554    
H      2.6437680     0.2220286     14.7894752    
H      0.0388514     1.7441089     15.3482409    
H      1.2126097     1.3103503     16.5969836    
H     -0.1739611    -0.7024201     14.7771029    
H     -0.7887747    -0.2124846     16.3507634    
H      1.3421322    -1.0105055     17.4033269    
H      1.8780731    -1.5895143     15.8155961    
H     -0.0917446    -3.0869531     15.6792020    
H     -0.6512316    -2.5084715     17.2552379    
H      0.5526271    -4.5847683     17.4659030    
H      1.3923832    -3.3666119     18.2310500    
H      1.9061013    -3.9232584     16.7489937    
H      0.5720177     2.6359242     13.1476162    
H     -0.2302129     0.5068718     11.3098261    
H     -2.0484843     2.1543367     10.6865581    
H     -1.4069224     3.2650764     11.9133430    
H     -3.3095468    -0.2331651     13.0045528    
H     -2.7424004     0.0073908     11.3754755    
H      2.3873335     2.2635294     11.1294039    
H      2.1246469     3.4213330     8.4881439    
H      4.5329731     2.3753403     10.0536841    
H      3.9587704     4.0272409     9.9061398    
H      5.7042959     4.0078481     8.3699750    
H      4.3178610     3.7098468     7.3278857    
H      4.8362163     1.2618275     7.3770168    
H      6.2209635     1.5955034     8.4301795    
H      7.1977977     3.0602856     6.6106535    
H      3.2890816    -0.9273257     6.9611665    
H      3.1695993    -3.0280130     8.1116143    
H      1.8122294    -2.4930745     9.1185944    
H      4.7182702    -1.5912013     9.3356393    
H      3.6977257    -2.2332647     10.6335552    
H      2.3138020    -0.2805202     10.6639441    
H      3.8999541     0.4407233     10.3672567    
H      0.2451206    -0.4854927     8.8423502    
H     -1.5254726    -1.6511498     6.9923438    
H     -3.2060003    -0.1485232     8.0196931    
H     -1.9146237     0.8908929     8.6674739    
H     -2.4014502    -1.7683263     9.4779687    
H     -0.4028614     1.7563092     7.2296947    
H     -1.7806555     2.7546240     5.0049710    
H      0.9609866     3.4058354     6.1815562    
H     -0.5765366     4.1538485     6.6309217    
H      0.8305488     4.4067443     3.9342357    
H     -0.9166141     6.1886096     3.5135069    
H     -1.7745684     5.6349323     4.9448653    
H     -1.5760759     4.5568638     3.5590651    
H      1.9459184     5.6357808     5.7767179    
H      0.4195363     6.4150030     6.1949553    
H      1.1879528     6.7615533     4.6511640    
H      1.4775985     1.2961475     5.1523603    
H      2.1540101     1.6893255     2.4532204    
H      3.7000901    -0.2902285     2.8578183    
H      2.9233683    -0.4872659     4.4410109    
H      3.6301083     1.8464908     5.0366313    
H      4.3844521     2.0150067     3.4547426    
H      5.8896105     0.0704992     4.0249825    
H      5.1616517     0.0193956     5.6324664    
H      7.0509805     2.0879622     4.4696883    
H      0.2813286    -0.9332593     3.9798355    
H      0.2434976    -2.4901217     1.5190547    
H     -1.3620552    -3.9050426     2.7479437    
H     -1.4500281    -2.7195934     4.0489318    
H      0.0305256    -4.6661675     4.5858141    
H      0.8183667    -3.1015086     4.7326161    
H      2.2977763    -4.7543365     3.6889382    
H      1.9703417    -3.3729487     2.6244066    
H      0.2729728    -5.7558933     2.3522952    
H      2.9455589    -4.7666866    -0.4926941    
H      3.1529315    -4.1109896     1.0813417    
H      0.0869641    -6.6369476     0.2622291    
H      1.2660357    -6.2661462    -0.9352346    
H     -1.8647121    -0.0508570     2.9849768    
H     -4.0121871    -0.4288481     1.0951027    
H     -2.9615982     2.0707712     2.5016690    
H     -5.1637358     3.0749491     1.9199128    
H     -5.5970274     1.6263966     1.0162370    
H     -4.2764781     2.6490801     0.4585296    
H     -3.7980772     0.3585927     4.0791234    
H     -5.3043408     0.2238436     3.1618846    
H     -4.9165654     1.7187793     4.0070659    
H     -1.1097546     1.6493428     1.1550984    
H     -1.3385520     2.7790018    -1.3935465    
H      1.2012896     2.8441035    -1.3205240    
H      1.1270749     1.8433644     0.1465436    
H     -0.2395042     3.6645715     1.2423461    
H      0.0719188     4.6927928    -0.1611783    
H      2.7538955     5.8056597     1.8811836    
H      1.1744297     6.1725402     1.2767762    
H      0.1007904    -0.3706089    -0.4804976    
H      1.1195051    -1.1813545    -2.9167471    
H      0.5568723    -3.4824149    -2.1427509    
H     -0.5458224    -2.8072024    -0.9309907    
H      1.1984175    -2.5007752    -0.8064030    
H     -2.3830022    -0.9251471    -2.1886098    
H     -2.9817450    -2.5241373    -4.5592216    
H     -5.3524967    -1.6480872    -3.9912987    
H     -4.6264692    -0.9947936    -2.5107537    
H     -3.7199868    -2.9785024    -0.6200846    
H     -5.2998238    -6.2309334    -2.7420036    
H     -4.2619807    -5.4616422    -0.5474871    
H     -2.0973407     0.7160034    -4.0048654    
H     -3.3258063     1.6838444    -6.4995177    
H     -1.3198010     2.8776171    -4.5237054    
H     -3.7206132     2.6360444    -3.7906332    
H     -4.1950462     3.6966426    -5.1171715    
H     -0.8517960     3.6737589    -6.8107638    
H     -1.5637414     4.9745466    -5.8675173    
H     -2.5456859     4.0980153    -7.0411192    
H     -3.9644973     4.8886524    -2.9176780    
H     -2.8882809     5.5526826    -4.1377389    
H     -2.2461948     4.4768391    -2.8975556    
H     -0.1221439     0.9474017    -5.0754460    
H      1.4718485     1.1356215    -7.3230303    
H      2.8364752    -0.6947038    -6.3733189    
H      1.5350660    -1.1079360    -5.2488370    
H      1.7772156     1.0442700    -4.0964460    
H      2.8465937     1.6481360    -5.3600383    
H      4.6013365     0.0665809    -4.7270245    
H      3.5341435    -0.7684443    -3.6083383    
H      4.6875680     1.9364819    -3.3352074    
H      2.6701324     0.2097896    -0.2814225    
H      2.8650012    -0.6512117    -1.7640176    
H      4.5616832     2.9966967    -1.3805252    
H      3.6657217     2.3525029    -0.0638005    
H     -0.3642309    -1.7004244    -6.2780035    
H     -0.0652809    -3.6304393    -8.0969515    
H     -2.6910181    -2.3935023    -7.1493564    
H     -1.6444161    -3.4470801    -6.1734073    
H     -2.0045589    -5.2972324    -7.7915937    
H     -3.1014852    -4.2897701    -8.7167097    
H     -3.4803839    -4.9750567    -5.7645364    
H     -4.2163696    -5.8820638    -7.0921064    
H     -5.4722485    -3.8988936    -7.8074230    
H     -4.7010677    -2.9029208    -6.5702831    
H     -6.8620544    -3.6922201    -5.8739498    
H     -5.6595938    -4.2655285    -4.7997823    
H     -6.3658747    -5.2710518    -6.0004498    
H     -1.9496165    -0.6361316    -8.7905456    
H     -2.1304022    -1.6127598    -11.5623200    
H     -4.2997188    -0.2612778    -11.6582349    
H     -4.2552073    -0.1752677    -9.9062685    
H     -5.7263652    -2.0143661    -10.7398143    
H     -4.4508656    -2.5376865    -9.6324006    
H     -4.6964185    -4.1455512    -11.4348937    
H     -3.1079803    -3.3886276    -11.4908145    
H     -4.3392237    -1.7216373    -13.2026590    
H     -5.3990692    -3.1219306    -13.4273358    
H     -3.6120998    -3.2761502    -14.9641522    
H     -3.2711160    -4.4048497    -13.7808068    
H     -2.4476726    -2.9238864    -13.8222088    
H     -0.1385158     0.0731442    -10.2222354    
H     -0.3533416     2.4501238    -11.9471356    
H      2.0702292     2.7077578    -11.2148120    
H      1.8401805     1.2883277    -10.1682395    
H     -0.0934420     2.4577628    -9.0596659    
H      0.3012055     3.9348625    -9.9638662    
H      3.5885317     5.0972919    -8.3666427    
H      2.2428110     5.4930913    -9.4640592    
H      3.4256685     4.2328661    -9.9140764    
H      0.2347346    -0.8112034    -12.2655135    
H      1.3643179    -0.4062707    -14.9360236    
O     -0.5305701    -1.9943832    -15.7295351    
H      1.6362863    -2.9400735    -13.2532523    
H      3.1241414    -3.6907172    -15.0477072    
H      3.0725174    -2.0973768    -15.8141582    
H      1.6284905    -3.1020509    -15.7907352    
H      3.0509825    -1.2741871    -12.1720976    
H      3.6997136    -0.7423801    -13.7243046    
H      4.0964441    -2.3528167    -13.1078440    
