24

C     -2.0072400     3.0566504     0.6305116    
C     -2.5715476     3.2339630    -0.6174820    
C     -2.3200483     2.3764522    -1.6704188    
C     -1.4728738     1.3042377    -1.4593050    
C     -0.8807307     1.0931279    -0.2147953    
C     -1.1592008     1.9818023     0.8229139    
C     -0.2576501    -1.2967413    -0.5457958    
C      0.0264537    -0.0456313     0.0000010    
C      1.1901422     0.1084054     0.7526485    
C      2.0462869    -0.9567998     0.9466781    
C      1.7589555    -2.2023478     0.4018294    
C      0.5971885    -2.3619703    -0.3430829    
F     -3.4090807     4.2962211    -0.8175754    
C      2.7092131    -3.3700359     0.6141985    
O      3.7715634    -3.1424207     1.2412178    
O      2.3671520    -4.4832780     0.1473506    
H     -2.2330580     3.7470242     1.4266830    
H     -2.7783905     2.5534921    -2.6297726    
H     -1.2502408     0.6321056    -2.2728959    
H     -0.7205792     1.8162925     1.7942540    
H     -1.1648098    -1.4415047    -1.1134339    
H      1.4378528     1.0744886     1.1665913    
H      2.9582007    -0.8558276     1.5188792    
H      0.3898385    -3.3410258    -0.7526098    
