21

C     -0.5158522     2.2871196    -3.4155046    
C     -0.2243718     1.2703079    -1.2519763    
C      0.0720734     0.1184924    -0.4053945    
C     -0.3805764     2.5264586    -0.6675146    
C     -0.6080975     3.6381792    -1.4555275    
C     -0.3094672     1.1357278    -2.6489459    
O     -0.1836592    -0.0412793    -3.2993573    
C     -0.6657295     3.5331692    -2.8369246    
C      1.1161836    -1.7554110     0.2257239    
C      0.2586757    -1.4168139     1.2483084    
C     -0.3972528    -0.2292412     0.8518338    
N      0.9878005    -0.8364316    -0.7686233    
Br    -1.7187439     0.6299502     1.8852970    
Br     0.0120098    -2.3547402     2.8632292    
Cl    -0.8044208     5.1851043    -0.7089882    
Br     2.2811950    -3.2184094     0.0939556    
Cl    -0.5876302     2.1229744    -5.1351297    
H     -0.2990084     2.6336865     0.4009688    
H     -0.4662987    -0.7937794    -2.7583929    
H     -0.8293421     4.4005302    -3.4530733    
H      1.5509571    -0.7988536    -1.6096260    
