30

C      1.7084713    -0.9214027     2.2951384    
C      1.0854270    -1.2134143     0.1009131    
C     -1.3157704    -1.1077909    -0.4601575    
N      0.0766444    -1.3300600    -0.7953510    
C     -1.7515190     0.3314291    -0.6237385    
C     -2.2892637     0.7487246    -1.8344105    
C     -2.7189763     2.0483362    -2.0273723    
C     -2.6217703     2.9573655    -0.9868664    
C     -2.0828928     2.5668806     0.2218500    
C     -1.6303181     1.2616052     0.4157221    
O     -1.1163721     0.9610842     1.6313874    
C      2.4333089    -1.3988148    -0.3010375    
C      2.7798565    -1.6557697    -1.7354682    
N      0.7523048    -0.9732721     1.3721723    
C      3.0414174    -1.0995544     2.0086437    
C      3.3970996    -1.3345165     0.6793693    
H      1.3620444    -0.7197638     3.2996512    
H     -1.4670546    -1.4424212     0.5679277    
H     -1.9155204    -1.7343852    -1.1243132    
H      0.3157888    -1.2772987    -1.7715868    
H     -2.3827869     0.0319035    -2.6375476    
H     -3.1341610     2.3483242    -2.9769312    
H     -2.9627220     3.9732707    -1.1165095    
H     -1.9955069     3.2584973     1.0457347    
H     -0.5683118     0.1312433     1.5981671    
H      3.8522255    -1.7984724    -1.8393349    
H      2.4851549    -0.8131340    -2.3611022    
H      2.2752266    -2.5503121    -2.0978298    
H      3.7873061    -1.0500509     2.7845652    
H      4.4372012    -1.4686636     0.4179336    
