66

C     -1.5173521    -1.4174805     2.5349682    
C     -1.0510632    -1.6876515     3.9624268    
C      0.0411637    -0.7184045     4.4031989    
N     -0.4674278     0.6706662     4.5224252    
C     -1.1399848     0.9219934     5.8227069    
C     -2.0173752     2.1437140     5.7338225    
C     -1.6937319     3.3139782     6.4060307    
C     -2.5014182     4.4327309     6.2885874    
C     -3.6314067     4.3936573     5.4900518    
C     -3.9600988     3.2286046     4.8158395    
C     -3.1579968     2.1094502     4.9374260    
C      0.5981504     1.6759704     4.2588167    
C      0.9297000     1.7021184     2.7913859    
C      0.0139437     2.2411991     1.8934143    
C      0.2627698     2.2408521     0.5350013    
C      1.4468533     1.6916701     0.0487658    
N      1.7641081     1.6413169    -1.3122850    
C      1.0784673     2.1311145    -2.3695081    
O      0.0241563     2.7391864    -2.3005233    
C      1.7388302     1.8014154    -3.7078623    
C      1.3821866     0.3812355    -4.0480626    
C      2.2892681    -0.6549043    -3.8476373    
C      1.9278266    -1.9640537    -4.1191618    
C      0.6562591    -2.2291118    -4.5864666    
C     -0.2618920    -1.2155582    -4.7929244    
C      0.1039512     0.0896704    -4.5213449    
S      0.1549522    -3.9184632    -4.9065337    
O     -0.6139343    -3.9499686    -6.1459500    
O      1.3389935    -4.7669284    -4.8946264    
C     -0.9312469    -4.4086994    -3.5351982    
C     -0.1790993    -4.2413860    -2.2349378    
C      2.3706106     1.1571706     0.9456447    
C      2.1127371     1.1624084     2.3022596    
H     -2.2091219    -2.1920824     2.2178888    
H     -0.6747904    -1.4188108     1.8478515    
H     -2.0359396    -0.4649274     2.4377274    
H     -0.6400831    -2.6954603     4.0145054    
H     -1.9032294    -1.6525119     4.6417360    
H      0.8324499    -0.7261632     3.6533598    
H      0.4601240    -1.0147219     5.3641643    
H     -1.1727298     0.7927106     3.7828344    
H     -0.3771211     1.0484628     6.5909834    
H     -1.7504859     0.0523698     6.0697860    
H     -0.8158949     3.3562922     7.0318983    
H     -2.2473805     5.3385396     6.8167974    
H     -4.2582036     5.2672675     5.3949793    
H     -4.8442118     3.1954639     4.1981047    
H     -3.4365594     1.2017380     4.4218748    
H      1.4734816     1.4210671     4.8561690    
H      0.2229559     2.6536752     4.5675172    
H     -0.9029995     2.6848796     2.2533300    
H     -0.4484236     2.6663966    -0.1524731    
H      2.6336862     1.1656890    -1.5191017    
H      2.8174429     1.9301830    -3.6480294    
H      1.3293100     2.4808199    -4.4541977    
H      3.2889608    -0.4457711    -3.4986186    
H      2.6130256    -2.7848663    -3.9848783    
H     -1.2372227    -1.4589615    -5.1817364    
H     -0.6025840     0.8919928    -4.6721600    
H     -1.1938339    -5.4418397    -3.7433239    
H     -1.8102580    -3.7777113    -3.6123391    
H     -0.7594916    -4.6412232    -1.4088928    
H      0.0286114    -3.1910148    -2.0509268    
H      0.7630136    -4.7800389    -2.2988409    
H      3.2938101     0.7375197     0.5764453    
H      2.8454848     0.7522642     2.9797026    
