116

N      6.1378959     4.2448831    -3.7527181    
C      4.9405370     4.8558067    -3.1324770    
C      4.6596246     4.0246841    -1.8706353    
O      5.1254474     2.8825542    -1.8218022    
C      3.7458475     4.7021398    -4.0941740    
C      3.9601097     5.4972681    -5.3417599    
C      3.6443321     6.8121082    -5.5438310    
C      4.5672772     5.0358197    -6.5521324    
N      4.0234388     7.2017318    -6.7940508    
C      4.5848616     6.1414611    -7.4399037    
C      5.0750313     3.8055307    -6.9816826    
C      5.1095424     6.0385935    -8.7234258    
C      5.5908556     3.7134160    -8.2544757    
C      5.6143862     4.8173023    -9.1133304    
N      3.9486916     4.5721311    -0.8982989    
C      3.5043781     3.7547997     0.2172506    
C      2.4410118     2.7677344    -0.2897175    
O      1.9666448     2.8448308    -1.4134588    
C      2.9132647     4.7667681     1.2007595    
C      2.3503225     5.8366373     0.2667580    
C      3.4037058     5.9204759    -0.8374827    
O      1.6731348    -6.9088372    -2.3159770    
C      1.1687625    -5.7845736    -2.3554560    
C      1.0407217    -5.0065444    -3.6403732    
N      0.6906437    -5.2186444    -1.2400859    
C      0.1407118    -3.8917840    -1.0735866    
C      1.2072945    -2.8774193    -0.6481490    
C      0.5723859    -1.5198321    -0.3545713    
C      1.6173713    -0.5089477     0.1084576    
C      1.0299559     0.8836412     0.4106727    
N      2.0953603     1.8418448     0.6087617    
C      0.2277576     0.8351412     1.7105307    
O      0.7623018     1.0912959     2.7820078    
N     -1.0761428     0.5420640     1.5829074    
C     -1.8926592     0.2220215     2.7348688    
C     -2.0140483    -1.2984576     2.8813282    
O     -1.8785592    -2.0400731     1.9164154    
C     -3.3137830     0.8034153     2.5855770    
O     -3.3534840     2.1925790     2.7470190    
N     -2.2512906    -1.7212932     4.1280282    
C     -2.7233850    -3.0649258     4.4082623    
C     -4.2570631    -2.9855626     4.4359612    
O     -4.8109851    -2.0113915     4.9434264    
C     -2.1668014    -3.5671291     5.7515160    
C     -0.6335255    -3.5840919     5.7044623    
C     -2.7336004    -4.9473830     6.0719461    
C      0.0030619    -3.7183951     7.0832543    
N     -4.8943436    -3.9701025     3.8078337    
C     -6.3253827    -4.1490219     3.8314159    
C     -6.6161861    -5.6639478     4.1151274    
O     -5.6309112    -6.4284974     4.0776649    
C     -6.9899498    -3.7230100     2.5094824    
C     -6.3798961    -4.4949821     1.3337463    
C     -6.8755701    -2.2133688     2.3161354    
C     -7.1871661    -4.3593621     0.0481764    
O     -7.7968673    -5.9708695     4.3478703    
H      6.0579101     4.2146584    -4.7777953    
H      6.1548886     3.2740822    -3.3621565    
H      7.0088278     4.7177469    -3.4935092    
H      5.1115826     5.9067905    -2.9018728    
H      2.8315727     5.0244308    -3.5985012    
H      3.6203957     3.6448816    -4.3331280    
H      3.1643222     7.5013726    -4.8771182    
H      3.8758579     8.1140995    -7.1905743    
H      5.0331409     2.9284539    -6.3528835    
H      5.1143881     6.8840845    -9.3947127    
H      5.9806505     2.7701963    -8.6081096    
H      6.0268589     4.7023706    -10.1048441    
H      4.3429315     3.1833959     0.6239252    
H      3.7045803     5.1805455     1.8252147    
H      2.1547788     4.3245278     1.8425867    
H      2.1963319     6.7895246     0.7649675    
H      1.4010254     5.4976550    -0.1488912    
H      2.9664738     6.2236568    -1.7866293    
H      4.2000934     6.6166518    -0.5579261    
H     -0.0104878    -4.9009670    -3.8973437    
H      1.5438164    -5.5575851    -4.4292789    
H      1.4838501    -4.0210228    -3.5388883    
H      0.8177448    -5.7632009    -0.3981738    
H     -0.6329747    -3.9390093    -0.3033736    
H     -0.3283443    -3.5766656    -2.0054078    
H      1.9603141    -2.7819949    -1.4315075    
H      1.7043815    -3.2461950     0.2504112    
H     -0.1860683    -1.6672390     0.4151133    
H      0.0819313    -1.1497587    -1.2564303    
H      2.3696930    -0.3820763    -0.6724502    
H      2.1175734    -0.8785001     1.0058813    
H      0.4198249     1.2235114    -0.4310151    
H      2.4755062     1.8531906     1.5468041    
H     -1.4162027     0.1907547     0.6981351    
H     -1.4051847     0.6552687     3.6131064    
H     -3.9564420     0.3869035     3.3661561    
H     -3.7228016     0.5016670     1.6129149    
H     -2.8696947     2.6198659     2.0243624    
H     -2.4973065    -1.0403063     4.8348300    
H     -2.3978695    -3.7104767     3.5887867    
H     -2.4979517    -2.8648702     6.5246016    
H     -0.2874560    -2.6564993     5.2449116    
H     -0.3127253    -4.4116993     5.0688103    
H     -3.8207593    -4.9268196     6.1282096    
H     -2.3586228    -5.2996778     7.0277202    
H     -2.4572927    -5.6680749     5.3052253    
H      1.0850343    -3.6663476     6.9988176    
H     -0.2572620    -4.6674327     7.5438389    
H     -0.3327547    -2.9159760     7.7357879    
H     -4.4161502    -4.8435274     3.5990617    
H     -6.7500463    -3.5647550     4.6566883    
H     -8.0453448    -4.0047093     2.6088983    
H     -6.3248439    -5.5511125     1.6130148    
H     -5.3592542    -4.1411887     1.1691542    
H     -7.2387556    -1.6939384     3.1985906    
H     -7.4571398    -1.8927742     1.4582943    
H     -5.8338309    -1.9369637     2.1654588    
H     -6.7539227    -4.9835922    -0.7291809    
H     -7.1944883    -3.3299791    -0.2973419    
H     -8.2126084    -4.6800839     0.2169511    
