44

C      2.1947379     5.3896020    -2.2189784    
C      1.2862806     4.4978792    -1.7046538    
C      1.5522488     3.0621092    -1.8125493    
C      2.6573820     2.6238100    -2.4598778    
C      3.6554959     3.5172886    -3.0742544    
C      3.3855293     5.0088572    -2.8874854    
O      4.2016945     5.8309633    -3.3308757    
C      3.8167132     3.1992646    -4.5716106    
N      0.5553006     2.2376510    -1.3299497    
N      0.8225628     1.0092475    -1.2017060    
C     -0.1373212     0.1647513    -0.7040046    
C     -0.1208206    -1.1627998    -1.1583661    
C     -1.0076936    -2.0794502    -0.6365269    
C     -1.8911250    -1.6812026     0.3534322    
C     -1.9128772    -0.3835206     0.8310400    
C     -1.0384008     0.5435566     0.3033748    
S     -2.9919747    -2.9080395     1.0215176    
O     -3.5898437    -3.6811683    -0.0417959    
O     -3.9065184    -2.2928389     1.9556384    
N     -2.0174547    -3.9882507     1.8332429    
C     -1.0756287    -3.5955428     2.7752180    
N     -0.0038337    -4.3733841     2.8863230    
C      0.9127358    -4.0501131     3.7909942    
C      0.8207142    -2.9396341     4.6093308    
C     -0.3048849    -2.1308224     4.4883164    
C     -1.2761149    -2.4591766     3.5602931    
N      0.1635805     4.8689611    -1.0826622    
H      2.0086082     6.4502140    -2.1328880    
H      2.7925738     1.5584615    -2.5877126    
H      4.6263746     3.3161421    -2.6020048    
H      4.1371214     2.1708417    -4.7126160    
H      4.5600662     3.8711159    -4.9965505    
H      2.8718575     3.3576509    -5.0877940    
H      0.5719181    -1.4402197    -1.9344051    
H     -1.0366525    -3.0978177    -0.9874004    
H     -2.6266970    -0.1204002     1.5948387    
H     -1.0205668     1.5585625     0.6667548    
H     -1.7502701    -4.7980167     1.2937426    
H      1.7582705    -4.7224049     3.8424164    
H      1.5980971    -2.7162205     5.3223837    
H     -0.4264001    -1.2591121     5.1103300    
H     -2.1805764    -1.8867289     3.4416621    
H     -0.0944738     5.8396598    -1.0395491    
H     -0.4890825     4.1556987    -0.8003768    
