51

C     -6.3873770    -1.9170757    -1.5605844    
O     -5.9144225    -0.6320669    -1.1955970    
C     -4.6055482    -0.4910368    -0.8613033    
C     -3.6664390    -1.5116771    -0.9011272    
C     -4.2227807     0.7957247    -0.4540904    
O     -5.1972439     1.7744156    -0.3558653    
C     -5.0942647     2.8271731    -1.3049857    
C     -2.8901520     1.0422175    -0.1030801    
O     -2.5982300     2.3158651     0.2838817    
C     -1.2974502     2.6020056     0.7636171    
C     -1.9531366     0.0166183    -0.1597688    
C     -2.3409611    -1.2564716    -0.5568939    
N     -1.4554135    -2.3299034    -0.6201366    
C     -0.1207629    -2.3695815    -0.4563021    
O      0.6052293    -1.2370599    -0.2682428    
N      0.5647950    -3.4762183    -0.4834286    
C      1.8729587    -3.0826835    -0.2944934    
C      3.0508215    -3.8120280    -0.2135240    
C      4.2179120    -3.1006760    -0.0028707    
C      4.2257279    -1.7172393     0.1313546    
C      3.0580799    -0.9571634     0.0567760    
C      1.8976446    -1.6829650    -0.1647488    
C      3.0471705     0.5041004     0.1859899    
C      3.8118805     1.1736368     1.1422756    
N      4.6504057     0.7395964     2.1360616    
C      5.0905003     1.8520870     2.7807857    
N      4.6198863     2.9618122     2.2980423    
C      3.7987298     2.5845221     1.2610174    
C      3.0206370     3.3566172     0.4045582    
C      2.2637195     2.6934287    -0.5386335    
C      2.2687532     1.3029805    -0.6411587    
H     -7.4488539    -1.7815813    -1.7542328    
H     -6.2503531    -2.6326074    -0.7466826    
H     -5.8914739    -2.2769980    -2.4654905    
H     -3.9493004    -2.5049599    -1.2045508    
H     -5.9229827     3.4959638    -1.0858292    
H     -5.1896600     2.4371063    -2.3232063    
H     -4.1465137     3.3601231    -1.1997120    
H     -1.3245330     3.6506767     1.0498800    
H     -0.5416875     2.4524669    -0.0114312    
H     -1.0542682     1.9898926     1.6351450    
H     -0.9322635     0.2079483     0.1141043    
H     -1.8587645    -3.2360135    -0.8181995    
H      3.0439684    -4.8837367    -0.3135152    
H      5.1543259    -3.6333526     0.0575412    
H      5.1676413    -1.2067633     0.2589101    
H      4.8686445    -0.2171078     2.3615011    
H      5.7674814     1.8053189     3.6110588    
H      3.0144492     4.4307680     0.4857298    
H      1.6523354     3.2626923    -1.2227743    
H      1.6631701     0.8297324    -1.4000448    
