135

C      10.7053256     0.1663810     3.0010086    
O      11.2452731     1.2533094     2.8397156    
C      10.2049361    -0.3224804     4.3358969    
N      10.5412949    -0.7256160     1.9974970    
C      10.6581852    -0.3521242     0.6031604    
C      9.2476690    -0.0113201     0.1011474    
O      8.8995059     1.1407409    -0.1372774    
C      11.3316547    -1.4618452    -0.2108578    
O      11.2962656    -1.0920630    -1.5713861    
N      8.4152240    -1.0512472     0.0562583    
C      6.9976488    -0.8815435    -0.1650254    
C      6.4907728     0.2587112     0.7198248    
O      6.8078956     0.3347344     1.9018076    
C      6.2703220    -2.1611676     0.2817635    
C      6.8108742    -3.3735154    -0.3951455    
N      8.1243702    -3.7430986    -0.2678534    
C      6.1661587    -4.2799205    -1.1919537    
C      8.2608505    -4.8376617    -0.9711789    
N      7.1024354    -5.2068215    -1.5501003    
N      5.6564118     1.1246086     0.1318905    
C      4.8915691     2.0444880     0.9500655    
C      4.0644357     1.1998970     1.9294123    
O      3.6811328     0.0704608     1.6464235    
C      4.0386911     2.9792166     0.0721647    
C      2.9134597     2.2400079    -0.6499665    
C      3.4767061     4.1393268     0.8910715    
N      3.8051231     1.7871852     3.1056960    
C      3.1140578     1.1162271     4.1864336    
C      1.6406193     1.5441095     4.2844019    
O      1.0277323     1.5227486     5.3417597    
C      3.8365638     1.3413404     5.5081813    
N      1.1106168     1.9647275     3.1269128    
C     -0.2975725     2.2520716     2.9508705    
C     -0.7965368     1.3550344     1.8179072    
O     -0.0914642     1.1419487     0.8361315    
C     -0.5026744     3.7362528     2.5685410    
C     -1.9829823     4.0396661     2.3566727    
C      0.0772243     4.6388629     3.6539823    
N     -2.0265652     0.8644355     1.9687749    
C     -2.7055442     0.0588989     0.9782627    
C     -4.1831023     0.4381766     1.0284729    
O     -4.6889123     0.8634351     2.0606818    
C     -2.5494969    -1.4394347     1.3028719    
C     -3.1367928    -2.3694065     0.2520737    
C     -2.7084559    -3.8415964     0.5424420    
O     -3.6156715    -4.6956342     0.5848092    
O     -1.4911588    -4.0550420     0.7066052    
N     -4.8492128     0.3093568    -0.1210812    
C     -6.2893744     0.3967894    -0.2076900    
C     -6.7496197    -0.6645075    -1.2127113    
O     -5.9370420    -1.2395028    -1.9343915    
C     -6.7304761     1.7924096    -0.6946612    
C     -8.1073821     2.1863510    -0.1919037    
O     -8.9788422     1.3654925     0.0944450    
N     -8.3147768     3.4966252    -0.0811850    
N     -8.0637090    -0.8888233    -1.2183142    
C     -8.6758131    -1.5276799    -2.3643150    
C     -8.3553473    -0.6915609    -3.6179274    
O     -7.9707413     0.4726280    -3.5305231    
C     -10.1832549    -1.6266054    -2.1708299    
N     -8.4933713    -1.3534825    -4.7656580    
C     -8.5490058    -0.7204513    -6.0605902    
C     -9.9510033    -1.0596104    -6.6917455    
O     -10.2624707    -0.4368826    -7.7189354    
C     -7.4596249    -1.2016685    -7.0206036    
C     -6.0527695    -0.6585788    -6.7442538    
C     -5.3939609    -1.3434965    -5.5496566    
C     -5.1841586    -0.8420236    -7.9894922    
O     -10.6190543    -1.9356154    -6.1097353    
H      10.5495250    -1.3332342     4.5295844    
H      9.1164612    -0.3147839     4.3112957    
H      10.5475999     0.3466082     5.1188089    
H      9.9639246    -1.5337656     2.1856954    
H      11.2496792     0.5677433     0.5526975    
H      10.7986057    -2.4093018    -0.0555267    
H      12.3649333    -1.5673579     0.1412100    
H      11.7778109    -1.7519863    -2.0909198    
H      8.7191680    -2.0259794     0.1313355    
H      6.7968764    -0.6620154    -1.2209124    
H      5.2023472    -2.0626359     0.0845090    
H      6.4024281    -2.2492377     1.3638446    
H      5.1451891    -4.3303811    -1.5063660    
H      9.1789870    -5.3771986    -1.0761360    
H      6.9414369    -6.0166899    -2.1267606    
H      5.3324370     0.9507810    -0.8064115    
H      5.6126728     2.6342162     1.5283215    
H      4.7225621     3.3871695    -0.6801269    
H      2.4171999     2.9124661    -1.3449580    
H      2.1614761     1.8617441     0.0403025    
H      3.2844299     1.3874842    -1.2138614    
H      4.2751647     4.6765770     1.3957948    
H      2.7609314     3.7832099     1.6273193    
H      2.9623777     4.8310276     0.2295147    
H      4.1956233     2.6952424     3.3090371    
H      3.1000322     0.0466829     3.9339527    
H      3.2894117     0.8399295     6.3007070    
H      3.8729241     2.4033533     5.7362006    
H      4.8454469     0.9444472     5.4517534    
H      1.5958036     1.7611775     2.2617356    
H     -0.8060535     2.0273206     3.8922875    
H      0.0339748     3.9040187     1.6284268    
H     -2.1105335     5.0929325     2.1248616    
H     -2.5518637     3.8115477     3.2543951    
H     -2.3899565     3.4558165     1.5348818    
H      1.1330142     4.4324235     3.8048665    
H     -0.4399874     4.4694167     4.5949104    
H     -0.0386790     5.6801560     3.3698496    
H     -2.5871559     1.0735239     2.7860966    
H     -2.2669090     0.2674024    -0.0014754    
H     -3.0160231    -1.6468527     2.2695305    
H     -1.4831033    -1.6676012     1.3853854    
H     -2.7490344    -2.1204497    -0.7389203    
H     -4.2272789    -2.3416741     0.2248978    
H     -4.4311621    -0.1775425    -0.9080677    
H     -6.7174380     0.2003397     0.7816810    
H     -6.7690418     1.7943539    -1.7886024    
H     -5.9923157     2.5207112    -0.3612008    
H     -9.2263509     3.8224018     0.2011803    
H     -7.6068250     4.1618374    -0.3403398    
H     -8.6379057    -0.2234436    -0.6892244    
H     -8.2219619    -2.5167650    -2.4948610    
H     -10.6533369    -1.9975560    -3.0789034    
H     -10.5843692    -0.6398935    -1.9509378    
H     -10.4088048    -2.2966420    -1.3472105    
H     -8.9838743    -2.2423161    -4.7573108    
H     -8.4844191     0.3635087    -5.9248472    
H     -7.7798000    -0.8802885    -8.0154075    
H     -7.4471291    -2.2940223    -7.0081379    
H     -6.1391854     0.4114939    -6.5265483    
H     -4.3685509    -1.0002356    -5.4369952    
H     -5.3803303    -2.4221865    -5.6869412    
H     -5.9176960    -1.1282663    -4.6218932    
H     -5.6234739    -0.3253612    -8.8382412    
H     -5.1026489    -1.8985982    -8.2298445    
H     -4.1875737    -0.4469543    -7.8150296    
