33

C     -0.0851470    -1.6447861    -2.8572547    
C     -0.7900519    -1.8957183    -1.6960966    
C     -1.0075045    -0.8762876    -0.7680820    
C     -0.5333103     0.4075722    -1.0488531    
C      0.1839284     0.6302384    -2.2080013    
C      0.4245366    -0.3822064    -3.1192012    
Cl     0.8149376     2.2216877    -2.5090265    
C     -1.7205169    -1.1356143     0.4745302    
C     -1.5619060    -0.5763602     1.7193655    
C     -2.6556912    -1.1008947     2.6059186    
O     -2.8455332    -0.7944425     3.7645457    
N     -3.3636420    -1.9775725     1.8520742    
C     -2.8553054    -2.0510224     0.5439351    
O     -3.3465556    -2.7608984    -0.3103305    
N     -0.6965476     0.2712025     2.2960135    
C      0.5291387     0.7374859     1.8355728    
C      1.3288689    -0.0246813     0.9840643    
C      2.5204719     0.4928202     0.5186115    
C      2.9624899     1.7643043     0.8932190    
C      2.1739486     2.4935932     1.7823304    
C      0.9776675     1.9916658     2.2488840    
O      4.1265202     2.2254609     0.3944075    
Cl     3.4862396    -0.4479154    -0.5749779    
H      0.0850051    -2.4404583    -3.5651947    
H     -1.1734965    -2.8835502    -1.4970227    
H     -0.7418931     1.2273545    -0.3827183    
H      0.9927084    -0.1882443    -4.0145212    
H     -4.1764271    -2.4905891     2.1632794    
H     -0.9839167     0.5780912     3.2229081    
H      1.0429422    -1.0235866     0.7055465    
H      2.5022792     3.4711718     2.0993095    
H      0.3775160     2.5807038     2.9234238    
H      4.3209030     3.1147704     0.7318599    
