18

C     -0.7135361    -0.7942246     3.0577945    
C     -0.8430563    -0.4754761     1.5726721    
C      0.2034879    -1.2116091     0.7411126    
C      0.0504306    -0.9432103    -0.7595098    
B      0.3564294     0.5633015    -1.2245537    
O      0.9423263     1.4246919    -0.3680137    
O      0.0764882     1.0134246    -2.4793583    
H     -1.4601407    -0.2527528     3.6333088    
H      0.2720509    -0.5128557     3.4205402    
H     -0.8506721    -1.8597204     3.2312126    
H     -0.7227899     0.5970366     1.4148903    
H     -1.8411279    -0.7556124     1.2276398    
H      0.1179069    -2.2856891     0.9306092    
H      1.1978146    -0.8914147     1.0585912    
H     -0.9567083    -1.2375554    -1.0638378    
H      0.7355923    -1.6067647    -1.2934354    
H      1.1222551     2.3001531    -0.7220102    
H     -0.3325287     0.4040353    -3.0955041    
