58

C      1.5000771     5.7360873    -0.4161590    
C     -0.9584119    -0.2518697    -5.1805156    
C     -3.9486259    -2.6410645    -0.2011772    
O      2.4954710     3.5707475    -3.3403238    
O      0.3290733    -2.2909353     3.8741969    
O      1.5341257    -3.0232947     1.8507303    
C      0.1481602     0.4381109     2.7104011    
C      0.1025751     1.7351751     2.2353051    
C      0.7021379    -0.3567290     0.5104808    
C      1.4695929     1.4977434    -4.0006726    
C      0.1237720     5.5894217     0.2228018    
C      0.3243730    -0.6978318    -4.4733225    
C      0.0599013     4.3743660     1.1434219    
C     -3.3364476    -3.3448291     2.0831737    
C     -2.1302803    -4.2644562     0.1806554    
C     -2.1896606    -2.3668093     2.3236819    
C     -1.0019614    -3.2676566     0.4295415    
N      0.5495810     0.2020632    -2.2433318    
N      1.5927640     2.2610174    -1.7534071    
O      0.2606374     3.2213889     0.3329417    
C      0.8096275     0.3682981    -3.5401155    
C      0.4450312    -0.5986723     1.8457139    
C      0.3445850     2.0098102     0.8838832    
C      0.6583344     0.9381250     0.0166837    
C      0.9463661     1.1553674    -1.4093011    
C      1.8516025     2.4405341    -3.0424691    
N     -3.4320239    -3.7270352     0.6517087    
N     -0.9567697    -2.9685972     1.8494671    
S      0.4370876    -2.2811180     2.4318221    
H      1.5125089     6.5794252    -1.1009998    
H      1.7526920     4.8349082    -0.9696304    
H      2.2606454     5.8988617     0.3443283    
H     -1.3031578    -1.0350828    -5.8494420    
H     -0.7825733     0.6483439    -5.7649271    
H     -1.7370066    -0.0412702    -4.4526220    
H     -4.9353640    -2.3431921     0.1435889    
H     -4.0244222    -2.9857390    -1.2287942    
H     -3.2928497    -1.7780346    -0.1708964    
H      2.6536334     3.6619299    -4.2945903    
H     -0.0349120     0.2147565     3.7489293    
H     -0.1237641     2.5355842     2.9191676    
H      0.9726673    -1.1635844    -0.1492852    
H      1.6819625     1.6368552    -5.0480622    
H     -0.6285217     5.4728490    -0.5581179    
H     -0.1179065     6.4778097     0.8075673    
H      1.0953159    -0.9063493    -5.2158443    
H      0.1300373    -1.5996617    -3.8956787    
H     -0.9196607     4.3201283     1.6335262    
H      0.8468427     4.4345635     1.9040413    
H     -4.2745882    -2.8915395     2.4023400    
H     -3.1491093    -4.2445409     2.6695329    
H     -1.9129500    -5.1795946     0.7319217    
H     -2.1915272    -4.4860400    -0.8844493    
H     -2.0672986    -2.1960879     3.3930060    
H     -2.3692654    -1.4009212     1.8370114    
H     -1.1337810    -2.3556525    -0.1641338    
H     -0.0433122    -3.7163680     0.1699239    
H     -4.1112574    -4.4948995     0.5916339    
