65

C      4.1431178     5.2840924    -1.2366550    
C      4.5104187     6.4629796    -1.8533963    
C      3.5387460     7.3436533    -2.3300068    
C      3.9196691     8.5451031    -2.9557785    
N      4.2334737     9.5265181    -3.4669576    
C      2.1835465     7.0272463    -2.1810198    
C      1.8199167     5.8541884    -1.5657940    
C      2.7929677     4.9689237    -1.0848232    
O      2.3232851     3.8488237    -0.5020529    
C      3.2316035     2.8849369     0.0269235    
C      2.3876711     1.7733676     0.6475428    
C      1.5557753     1.0889809    -0.4374687    
N      0.4592994     0.2618330     0.1107098    
C      0.9491838    -0.9420964     0.8201021    
C     -0.2095132    -1.7065019     1.4447318    
C     -0.4919317    -0.1363968    -0.9518214    
C     -1.6886995    -0.8679313    -0.3587895    
C     -1.2323817    -2.1252654     0.3840097    
C     -2.4051573    -2.8851635     1.0628996    
C     -3.4885924    -3.2911023     0.0357732    
C     -2.9823017    -4.0736553    -1.1831750    
C     -4.1848737    -4.9024363    -1.6764492    
C     -5.3108109    -4.6624311    -0.6597215    
C     -4.5832787    -4.2027665     0.5995843    
O     -2.9805744    -2.0694362     2.0734551    
C     -1.8532911    -4.1366039     1.7255133    
N     -0.9577004    -4.8307902     1.0289570    
C     -0.4880135    -5.9554806     1.5419691    
C     -0.8714661    -6.4506065     2.7780876    
C     -1.7902418    -5.7185752     3.5144080    
C     -2.2914493    -4.5435044     2.9813921    
H      4.9152221     4.6229990    -0.8790652    
H      5.5544342     6.7106949    -1.9709906    
H      1.4343589     7.7099190    -2.5515015    
H      0.7807446     5.5985330    -1.4396993    
H      3.8670334     3.3470356     0.7896991    
H      3.8645982     2.4911781    -0.7763134    
H      1.7336468     2.2295260     1.3916361    
H      3.0627931     1.0784956     1.1433314    
H      2.1888251     0.4559035    -1.0601004    
H      1.1166925     1.8690113    -1.0617038    
H     -0.0606539     0.8272998     0.7936484    
H      1.6485250    -0.6407192     1.5977351    
H      1.4663566    -1.5760193     0.0993383    
H     -0.7125408    -1.1040148     2.2033747    
H      0.1836775    -2.5914171     1.9437141    
H      0.0326834    -0.7851061    -1.6542808    
H     -0.8287527     0.7565018    -1.4793691    
H     -2.3639769    -1.1237232    -1.1726266    
H     -2.2205414    -0.2123550     0.3325750    
H     -0.7666818    -2.8268429    -0.3088464    
H     -3.9768698    -2.3728616    -0.3089937    
H     -2.1693249    -4.7318395    -0.8774037    
H     -2.6127894    -3.4134552    -1.9652505    
H     -3.9283319    -5.9615183    -1.7148254    
H     -4.4947301    -4.6049512    -2.6780907    
H     -5.9117257    -5.5550582    -0.4891591    
H     -5.9766831    -3.8717028    -1.0110310    
H     -5.2433182    -3.7005286     1.3052524    
H     -4.1360231    -5.0626391     1.1009809    
H     -3.7428321    -1.6012403     1.7107769    
H      0.2315805    -6.4807537     0.9279566    
H     -0.4626284    -7.3751513     3.1531218    
H     -2.1154939    -6.0605919     4.4860827    
H     -3.0061098    -3.9428799     3.5192102    
