40

P     -3.3520786    -1.4850152     2.3127907    
O     -3.1416790    -2.9254160     2.7149602    
O     -4.4339421    -0.7607684     3.0812118    
O     -3.3767175    -1.2460899     0.8170074    
O     -1.9493513    -0.6257665     2.8498467    
P     -0.4601131    -1.1768151     2.7476563    
O     -0.0878276    -2.0499731     3.8945033    
O      0.3991139     0.0265070     2.4801938    
O     -0.4344537    -2.1580844     1.4319370    
C     -0.3973627    -1.5451487     0.1628219    
C      0.9539441    -1.7968234    -0.5298003    
O      1.1561261    -0.8951461    -1.6012799    
C      2.1579116    -1.6223175     0.4118535    
O      3.2166706    -2.4762598     0.0735080    
C      2.6138772    -0.1674283     0.1587266    
O      3.9946617    -0.0135670     0.1446230    
C      1.9739615     0.1891715    -1.2050277    
N      1.2577132     1.4389046    -1.1912000    
C      0.4199897     1.9943655    -0.2524094    
N     -0.0705775     3.1395439    -0.6117670    
C      0.4457130     3.3796393    -1.8665150    
C      0.2598218     4.4682221    -2.7692557    
O     -0.4260618     5.4816830    -2.6635655    
N      1.0065054     4.2823873    -3.9348980    
C      1.8188665     3.2133938    -4.2054367    
N      2.4962644     3.2144233    -5.3540894    
N      1.9787847     2.2044343    -3.3733997    
C      1.2762648     2.3186003    -2.2355245    
H     -0.5716308    -0.4695758     0.2720598    
H     -1.2318388    -1.9472083    -0.4214352    
H      0.9460934    -2.8021727    -0.9624745    
H      1.8440987    -1.7484932     1.4524677    
H      3.1218835    -3.3252286     0.5268013    
H      2.1967647     0.4670477     0.9465501    
H      4.3863708    -0.8813726    -0.0810284    
H      2.7401667     0.3103069    -1.9839123    
H      0.2076450     1.5282337     0.6923317    
H      0.9167661     5.0290435    -4.6174764    
H      3.0388074     2.3932774    -5.5628169    
H      2.3243395     3.9085791    -6.0604490    
