42

C      2.0922890     4.8568507    -1.3863071    
O      1.3897010     3.6750233    -1.0006222    
C      0.6739673     3.0967660    -1.9531646    
N      0.5279125     3.5428691    -3.1697391    
C     -0.2727808     2.6133147    -3.7909797    
C     -0.7795164     2.5368344    -5.0771893    
C     -1.5717557     1.4341853    -5.3594123    
C     -1.8231382     0.4800861    -4.3788729    
N     -1.3498444     0.5292301    -3.1395102    
C     -0.5916115     1.5785786    -2.8761428    
N      0.0246013     1.9135811    -1.6899345    
C      0.0219004     1.1819143    -0.4830195    
C      0.0000447    -0.2077080    -0.5195864    
C      0.0008896    -0.9407520     0.6491200    
C      0.0276072    -0.2951639     1.8859689    
N      0.0355880    -0.9574025     3.0991670    
C      0.0581534    -2.2959567     3.3918000    
C      0.0687421    -2.6809972     4.7455170    
C      0.0980107    -4.0197640     5.0546265    
C      0.1161621    -4.9713518     4.0308498    
C      0.1498497    -6.4359619     4.3335240    
C      0.0999877    -4.4834297     2.7355773    
N      0.0724010    -3.1979200     2.4143609    
C      0.0421539     1.1027420     1.9110951    
C      0.0350651     1.8357404     0.7436898    
H      2.5962624     5.1947736    -0.4855884    
H      1.3921198     5.6087130    -1.7507395    
H      2.8110146     4.6277434    -2.1726455    
H     -0.5674671     3.2959395    -5.8124284    
H     -1.9985661     1.3094274    -6.3412130    
H     -2.4406054    -0.3807189    -4.5914138    
H     -0.0296648    -0.7095607    -1.4729226    
H     -0.0142091    -2.0160726     0.6213516    
H      0.0353952    -0.3509987     3.9082399    
H      0.0546845    -1.9332213     5.5230209    
H      0.1083635    -4.3416652     6.0860530    
H      0.1913829    -7.0169811     3.4162848    
H     -0.7388084    -6.7263617     4.8920024    
H      1.0202227    -6.6762830     4.9418718    
H      0.1101339    -5.1569492     1.8877762    
H      0.0537745     1.6216578     2.8579745    
H      0.0414874     2.9125543     0.7833559    
