68

C     -4.7807259     1.0888514    -0.3431009    
C     -6.5938239     2.5815207     0.1498344    
C     -7.8257239     2.6012230     1.0557068    
C     -7.4321007     2.5169063     2.5179963    
C     -10.0030163     3.4797510     3.4570607    
C     -4.1900381    -0.1483570    -0.0966406    
C     -2.3933356    -1.8511104    -0.4648082    
C     -1.1601329    -0.0085574    -2.3114808    
C      1.2089689    -0.7275960    -3.5740308    
C      1.2515572    -0.0958707    -2.3368535    
C      2.5823319     0.1716848    -1.6851708    
C      4.4154854    -1.1316788    -0.8452036    
C      6.4400774    -0.1564002     0.0352642    
C      8.2555774    -1.8856338     0.8149512    
C     -2.3586684     2.5570849    -2.8510611    
C     -3.0046207     1.6097779    -1.8849766    
C     -4.1839213     1.9630469    -1.2410095    
O     -5.9346637     1.3404209     0.3456264    
S     -8.8709454     2.0819515     3.5277290    
O     -9.5301464     0.9178472     2.9534455    
O     -8.4309656     1.9124498     4.9067126    
C     -3.0177856    -0.5157646    -0.7307343    
C     -2.4202843     0.3717905    -1.6295626    
C     -1.1878493    -0.6393381    -3.5488749    
C     -0.0069000    -0.9990330    -4.1747361    
O      3.1721788    -1.0941317    -1.3964637    
C      5.1737984    -0.0112492    -0.5210755    
C      6.9371588    -1.4163588     0.2720010    
C      9.4357029    -1.4895642    -0.0752214    
C      10.7518933    -2.0346246     0.5469327    
O      11.0985230    -1.5498205     1.6442411    
O      11.3538971    -2.9256139    -0.0879116    
C      8.0465224    -3.4155724     0.8472948    
O      6.7846487    -3.7139506     0.2439604    
C      6.1681803    -2.5345898    -0.0522835    
C      4.9141876    -2.4182716    -0.6077979    
C      0.0656188     0.2564872    -1.7117410    
H     -5.9197387     3.4074200     0.4092702    
H     -6.9011747     2.6793453    -0.8983571    
H     -8.4485342     1.7352622     0.8239869    
H     -8.3867192     3.5119872     0.8540235    
H     -7.0447330     3.4470575     2.9202542    
H     -6.7170577     1.7140571     2.6802194    
H     -10.8257501     3.2630658     4.1260679    
H     -10.3514558     3.5705803     2.4384227    
H     -9.4608769     4.3548177     3.7868159    
H     -4.6726714    -0.8149997     0.6012798    
H     -3.0032549    -2.4311308     0.2232772    
H     -1.3991180    -1.7287663    -0.0367095    
H     -2.2799278    -2.4076220    -1.3932999    
H      2.1333554    -1.0117801    -4.0539927    
H      2.4526146     0.7449112    -0.7575434    
H      3.2333188     0.7347061    -2.3699344    
H      7.0272960     0.7147012     0.2814846    
H      8.4612422    -1.4977092     1.8183938    
H     -2.9318710     3.4757687    -2.9359557    
H     -2.2797037     2.0980663    -3.8351489    
H     -1.3489341     2.7997721    -2.5237983    
H     -4.6222661     2.9248099    -1.4551028    
H     -2.1390777    -0.8508987    -4.0153151    
H     -0.0335615    -1.4923082    -5.1347068    
H      4.7973934     0.9829336    -0.6965567    
H      9.5091555    -0.4013483    -0.1283537    
H      9.3243755    -1.9019758    -1.0804501    
H      8.0319237    -3.8048676     1.8700431    
H      8.8310465    -3.9361438     0.2898988    
H      4.3209898    -3.2804167    -0.8601510    
H      0.0879139     0.7428193    -0.7466438    
