46

C      1.5864969    -1.0612948    -0.8371087    
C      2.5181665    -2.2150845    -0.4487633    
C      3.8760131    -1.6758240     0.0040409    
C      3.6373126    -0.8647461     1.2412979    
C      4.3673448    -1.0399929     2.4026062    
C      4.0561540    -0.3016209     3.5319341    
C      3.0007984     0.5900224     3.4996113    
C      2.2530319     0.7884303     2.3440825    
C      1.0980922     1.7448885     2.3897080    
C      2.5882640     0.0626248     1.1969531    
C      1.9049526     0.2136142    -0.0953955    
C      1.7091361     1.4269589    -0.6291920    
C      1.1154163     1.7206929    -1.9304931    
C      1.9675878     2.5613107    -2.8348463    
C     -0.1143233     1.3145572    -2.3042082    
C     -1.0522941     0.6393195    -1.4582094    
C     -2.2433987     0.1790338    -1.8865970    
C     -3.2348001    -0.4928043    -1.0758604    
C     -2.9240349    -0.7305319     0.3715376    
C     -4.3926267    -0.8758467    -1.6489953    
C     -5.5935859    -1.5501311    -1.0538498    
O     -6.6053601    -1.5911977    -1.8044090    
O     -5.5599550    -2.0295323     0.1067675    
H      0.5507575    -1.3543444    -0.6431159    
H      1.6557820    -0.8614333    -1.9090841    
H      2.6356422    -2.8915167    -1.2959366    
H      2.0829153    -2.7859505     0.3753169    
H      4.2987284    -1.0494445    -0.7861681    
H      4.5693347    -2.4928293     0.2071279    
H      5.1756560    -1.7565118     2.4247459    
H      4.6247409    -0.4337993     4.4403543    
H      2.7413733     1.1443827     4.3905732    
H      0.6166924     1.7018389     3.3649225    
H      0.3623867     1.5155581     1.6228905    
H      1.4415757     2.7676510     2.2340018    
H      2.1028618     2.2902309    -0.1072315    
H      1.4735628     2.7333794    -3.7872769    
H      2.9240640     2.0710034    -3.0133418    
H      2.1724385     3.5220506    -2.3638868    
H     -0.4637870     1.5491634    -3.3021898    
H     -0.7763777     0.5291290    -0.4203100    
H     -2.5089873     0.3048274    -2.9298242    
H     -3.7553670    -1.2550016     0.8333681    
H     -2.7657551     0.2169038     0.8843647    
H     -2.0252169    -1.3372834     0.4697623    
H     -4.5592838    -0.6553405    -2.6997409    
