61

C     -7.3972208     1.0380615     0.4969637    
N     -7.3234731     0.8868995    -0.9668037    
C     -6.3580574     1.8460873    -1.5254442    
C     -7.0866462    -0.5202997    -1.3920080    
C     -5.8793755    -1.2245032    -0.7763500    
C     -4.5121772    -0.9132068    -1.4248355    
C     -3.8069582    -2.1910762    -1.8241017    
C     -3.5518820    -2.4766791    -3.1572660    
C     -2.9156891    -3.6550214    -3.5110167    
C     -2.5249683    -4.5537008    -2.5339439    
C     -2.7769389    -4.2739679    -1.2001164    
C     -3.4174897    -3.1011366    -0.8473292    
N     -3.6596723    -0.1758225    -0.5055616    
C     -2.3138080    -0.1381274    -0.5100701    
C     -1.9393445     0.7031126     0.5242585    
C     -3.1495016     1.1317429     1.0933209    
N     -4.1702770     0.5897150     0.4537024    
N     -0.6645158     1.0639288     0.9400565    
C      0.4949487     0.6542940     0.3794695    
O      0.5598398    -0.0813060    -0.6067325    
C      1.6821397     1.1767676     1.0642806    
C      3.0489043     0.9786517     0.7157808    
C      3.7404997     0.3079710    -0.2952595    
C      5.1097383     0.3627876    -0.2822461    
C      5.8295761     1.0661337     0.7115634    
C      5.1560724     1.7362898     1.7202639    
C      3.7673786     1.6880842     1.7082394    
N      2.8339058     2.2312679     2.5344691    
N      1.5943995     1.9282625     2.1537960    
C      7.2826407     1.0838725     0.6673577    
C      8.1390596     0.2163383     0.0061799    
N      9.3910344     0.6323530     0.2585421    
N      9.4168828     1.7165345     1.0333671    
C      8.1571628     2.0005691     1.2932985    
H     -7.8116610     2.0111488     0.7446143    
H     -6.3953610     0.9717832     0.9169857    
H     -8.0298627     0.2659209     0.9252314    
H     -8.2444028     1.1294698    -1.3489541    
H     -6.2838990     1.7307995    -2.6036751    
H     -5.3867831     1.6902041    -1.0642918    
H     -6.6796383     2.8605483    -1.3047426    
H     -7.0035177    -0.5388015    -2.4799703    
H     -7.9739974    -1.0909432    -1.1100626    
H     -6.0556589    -2.2942003    -0.8880232    
H     -5.8130033    -1.0183841     0.2888221    
H     -4.6465937    -0.3032978    -2.3258255    
H     -3.8429552    -1.7794700    -3.9284427    
H     -2.7184289    -3.8697232    -4.5505546    
H     -2.0226801    -5.4688812    -2.8093577    
H     -2.4717746    -4.9727058    -0.4356198    
H     -3.6054098    -2.8871795     0.1940790    
H     -1.7071799    -0.6789678    -1.2044657    
H     -3.3028019     1.7948907     1.9192541    
H     -0.5877727     1.6632556     1.7521344    
H      3.1945794    -0.2292088    -1.0550221    
H      5.6655135    -0.1354650    -1.0612366    
H      5.6897392     2.2675812     2.4913111    
H      2.9784586     2.8009618     3.3542511    
H      7.9437682    -0.6504346    -0.5903599    
H      10.2574794     0.2267333    -0.0597113    
H      7.9150022     2.8530873     1.8953051    
