60

O     -6.1988226     4.4683152     1.0120285    
C     -5.9909464     4.0715582    -0.1590864    
O     -6.8480411     4.0299539    -1.0725349    
C     -4.5837632     3.6079023    -0.4982522    
C     -3.5917354     3.6020923     0.4755142    
C     -2.3119842     3.1913285     0.1686578    
C     -4.2672127     3.1893843    -1.7840975    
C     -2.9884510     2.7770247    -2.1050392    
C     -1.9973536     2.7790684    -1.1272049    
N     -0.6807235     2.3755527    -1.3733536    
C     -0.0983207     1.9764368    -2.5312681    
O     -0.6553932     1.9438880    -3.6227439    
C      1.3292360     1.5745662    -2.3752175    
C      2.2161749     1.8499432    -3.4124209    
C      3.5421955     1.4704576    -3.3083936    
C      1.7797716     0.8899478    -1.2534472    
C      3.1078506     0.4890026    -1.1521712    
C      3.9894290     0.7932651    -2.1876719    
C      3.5362475    -0.2691388     0.0337901    
C      4.8109734    -0.1760439     0.5211946    
N      2.5819439    -1.0524262     0.6005798    
C      2.8837531    -1.7842352     1.6516612    
C      4.1974256    -1.7400186     2.2122845    
N      4.7096741    -2.3789567     3.2549393    
C      5.9891633    -1.9577132     3.3333820    
C      6.2758786    -1.0538376     2.3374213    
N      5.1309494    -0.9171917     1.6214518    
N      2.0053775    -2.6108386     2.2632154    
C      0.6952364    -2.9460517     1.9423446    
C      0.0037863    -2.3586467     0.8872127    
C     -1.3017227    -2.7238139     0.5847162    
O     -2.0178920    -2.1452198    -0.4369472    
C     -1.4584175    -1.0391986    -1.1091189    
C      0.0590321    -3.9125843     2.7164350    
C     -1.2294555    -4.2915008     2.4084457    
C     -1.9301218    -3.7242003     1.3478723    
O     -3.2028979    -4.2116842     1.1904404    
C     -3.9186377    -4.0176608    -0.0149649    
H     -3.8582425     3.9295224     1.4704410    
H     -1.5502770     3.1909703     0.9344346    
H     -5.0527281     3.1992084    -2.5266139    
H     -2.7523137     2.4603281    -3.1077617    
H     -0.0792006     2.4175836    -0.5597785    
H      1.8452518     2.3610007    -4.2876277    
H      4.2274579     1.6923701    -4.1112180    
H      1.1077565     0.6263402    -0.4519932    
H      5.0176642     0.4728393    -2.1330148    
H      5.5727401     0.4623232     0.1095018    
H      6.6380574    -2.3264695     4.1020362    
H      7.1737227    -0.5248273     2.0984851    
H      2.4001851    -3.1013296     3.0570640    
H      0.5159147    -1.6152570     0.3037475    
H     -2.2157534    -0.7161953    -1.8219098    
H     -0.5464289    -1.3116673    -1.6469223    
H     -1.2554988    -0.2224405    -0.4118984    
H      0.5719526    -4.3715476     3.5459730    
H     -1.7390413    -5.0441268     2.9876869    
H     -4.7784582    -4.6812014     0.0635488    
H     -3.3162585    -4.2911644    -0.8833450    
H     -4.2587263    -2.9856171    -0.1217814    
