57

F     -3.9844552     3.8220379     4.5532253    
C     -3.4165307     4.6981971     3.6451023    
C     -2.4868478     3.9304919     2.7111318    
O     -2.0055809     4.8721598     1.7740100    
C     -1.1582184     4.4356827     0.7942050    
C     -0.7098863     3.1414506     0.6504453    
C     -0.7370616     5.4331387    -0.1185819    
O     -1.2348736     6.6754465     0.1056612    
C     -0.8572635     7.7237712    -0.7697890    
C      0.1258747     5.0872825    -1.1477738    
C      0.5707970     3.7840654    -1.2868227    
C      0.1600734     2.8021249    -0.3951889    
C      0.6030073     1.4357056    -0.5111337    
N      0.3176493     0.4907285     0.3201532    
S      1.6179594     0.8980926    -1.8453468    
C      1.6031936    -0.7001348    -1.1724711    
C      2.3605123    -1.8016092    -1.8240432    
C      3.8749799    -1.6404739    -1.6311752    
C      4.2745949    -1.7069827    -0.1627785    
C      0.8668553    -0.7038517    -0.0169302    
C      0.6184749    -1.8928886     0.8466900    
C      0.4508376    -1.5253850     2.3104230    
S     -0.9168987    -2.7648646     0.2530638    
C     -0.2826956    -4.2977926    -0.3321286    
N     -1.2222973    -5.1348763    -0.7212709    
N      1.0227336    -4.4851600    -0.3397715    
C      1.4542910    -5.6748442    -0.8112738    
N      2.7895680    -5.8468368    -0.8648506    
C      0.5542917    -6.6456451    -1.2434670    
C     -0.8045405    -6.3306144    -1.1858197    
N     -1.7635224    -7.1744644    -1.6082103    
H     -2.8715975     5.4466751     4.2234323    
H     -4.2360271     5.1591331     3.0908562    
H     -3.0442819     3.1279628     2.2105848    
H     -1.6604665     3.4890924     3.2830997    
H     -1.0119005     2.3568839     1.3230649    
H     -1.3737374     8.6045306    -0.3953310    
H     -1.1772926     7.5163722    -1.7939934    
H      0.2221710     7.8897266    -0.7435103    
H      0.4610070     5.8308684    -1.8513394    
H      1.2429924     3.5309489    -2.0927790    
H      2.1359328    -1.8022964    -2.8936872    
H      2.0310799    -2.7555610    -1.4066884    
H      4.1847224    -0.6804837    -2.0508538    
H      4.3796809    -2.4313553    -2.1872830    
H      5.3535399    -1.6278592    -0.0582447    
H      3.9490161    -2.6456970     0.2799292    
H      3.8141629    -0.8941145     0.3954731    
H      1.3983982    -2.6415542     0.7075734    
H      0.2233368    -2.4132859     2.8939801    
H     -0.3566684    -0.8075517     2.4205964    
H      1.3713515    -1.0787193     2.6786763    
H      3.1689382    -6.7476025    -1.0903746    
H      3.3802455    -5.1470063    -0.4534465    
H      0.8941717    -7.5965512    -1.6150722    
H     -1.5298511    -8.1220697    -1.8412875    
H     -2.7198770    -6.9109010    -1.4524327    
