70

N      4.5259674    -1.9076266     3.7840793    
C      3.4956968    -1.6675835     2.7385994    
C      2.8199068    -2.9615237     2.3106326    
C      2.0459183    -3.6720760     3.4326841    
C      1.4840322    -4.9799457     2.8770398    
C      0.9019291    -2.8012346     3.9480774    
C      4.2407054    -0.9501041     1.5775976    
O      5.0375054     0.0662612     2.1337309    
C      3.2071422    -0.3344571     0.6322936    
O      2.8094821     0.8038725     0.8586326    
N      2.8154687    -1.0847303    -0.4002374    
C      1.6368075    -0.7236179    -1.1715438    
C      0.4547411    -0.6934780    -0.1950325    
O      0.2879581    -1.6114209     0.6017316    
C      1.3907620    -1.7520970    -2.2834855    
C      0.0199366    -1.5285626    -2.9184499    
C      2.4897960    -1.6632376    -3.3393830    
N     -0.2810319     0.4189595    -0.2201226    
C     -1.5205784     0.5440668     0.5364767    
C     -2.5154045     0.9439365    -0.5548865    
O     -3.1386772     0.0824824    -1.1790636    
C     -1.3810145     1.4973927     1.7320123    
C     -2.7130356     1.5732262     2.4732464    
C     -0.2634327     1.0131573     2.6546442    
N     -2.5234384     2.2373483    -0.8682999    
C     -2.9099091     2.7212183    -2.1694031    
C     -1.9645894     2.0660937    -3.2397264    
O     -2.3862167     2.0011030    -4.4041406    
C     -2.7085548     4.2356293    -2.2469971    
C     -3.2498351     4.9411001    -0.9729433    
O     -2.5828291     4.7708469     0.0733323    
O     -4.2883581     5.6149812    -1.0743679    
O     -0.8410876     1.7009522    -2.8361024    
H      4.1106878    -2.0053797     4.7149873    
H      5.1542047    -1.0822890     3.7589694    
H      5.0715527    -2.7493252     3.5647728    
H      2.7526273    -0.9672384     3.1284487    
H      3.5613260    -3.6464846     1.8968191    
H      2.0938828    -2.7260795     1.5309064    
H      2.7113016    -3.9228373     4.2634285    
H      0.9454480    -5.5248212     3.6486132    
H      2.2774439    -5.6188331     2.4973836    
H      0.7901853    -4.7708882     2.0651081    
H      1.2533058    -1.9282655     4.4909833    
H      0.2619026    -3.3725050     4.6159902    
H      0.2951244    -2.4588637     3.1107521    
H      4.8984333    -1.6425477     1.0446112    
H      4.5573066     0.9069202     2.0449515    
H      3.1097438    -2.0495465    -0.4611586    
H      1.7668966     0.2753011    -1.5991768    
H      1.3922039    -2.7473096    -1.8244540    
H     -0.1122683    -2.1797863    -3.7783991    
H     -0.1007669    -0.4971940    -3.2516133    
H     -0.7881941    -1.7271286    -2.2142888    
H      3.4756083    -1.7397688    -2.8912599    
H      2.4149347    -0.7112814    -3.8602426    
H      2.3674436    -2.4600375    -4.0674272    
H     -0.1927277     1.0518116    -1.0115848    
H     -1.7820466    -0.4605886     0.8934549    
H     -1.1242723     2.4977288     1.3668313    
H     -2.6300238     2.2439476     3.3233642    
H     -3.0110293     0.5871007     2.8211135    
H     -3.4886378     1.9578281     1.8130946    
H      0.6841848     1.0251890     2.1212511    
H     -0.4726236    -0.0003169     2.9868500    
H     -0.1928261     1.6702220     3.5163964    
H     -2.1156072     2.9468511    -0.2624226    
H     -3.9477328     2.4481740    -2.3982122    
H     -3.2100416     4.6237836    -3.1335229    
H     -1.6350942     4.4401613    -2.3155471    
