16

S     -0.7101471    -1.8896984     0.5642180    
C      0.1352392    -0.7861165    -0.3746288    
C      0.1283482     0.6254142    -0.2085305    
C     -0.7071656     1.1899768     0.8999619    
F     -0.6526128     2.5326223     0.9513525    
F     -2.0165596     0.8890947     0.7912944    
F     -0.3261439     0.7690690     2.1232808    
C      0.8592385     1.4530922    -1.0288803    
C      1.6302769     0.8970136    -2.0531651    
C      1.6315685    -0.4649242    -2.2111664    
N      0.9149012    -1.2484970    -1.4049189    
O      0.9697488    -2.5799773    -1.6376543    
H      0.8336576     2.5206948    -0.8788065    
H      2.2116599     1.5213183    -2.7067437    
H      2.1934960    -0.9816786    -2.9741732    
H      0.3992168    -3.0198379    -0.9537833    
