43

C      4.2113959     0.1786546    -2.0996979    
C      5.2156256    -0.9360764    -1.8286218    
C      5.9833241    -0.6883925    -0.5177988    
C      7.3620527    -0.0877004    -0.7839610    
C      5.1692167     0.2410920     0.3924520    
C      3.6744341    -0.0379669     0.2965591    
N      3.2046898     0.1915961    -1.0565633    
C      1.8957628     0.2263354    -1.3629923    
C      0.8795716     0.0974824    -0.3875956    
N      1.5707617     0.3989147    -2.6522904    
C      0.2757054     0.4672608    -2.9617273    
N     -0.0300565     0.6916841    -4.2559976    
N     -0.7466552     0.3677632    -2.1084004    
C     -0.4300365     0.1748690    -0.8214202    
C     -1.5676708     0.0602074     0.1085145    
C     -1.4752385    -0.6576569     1.2992933    
C     -2.5601537    -0.7483727     2.1489775    
C     -3.7552394    -0.1259999     1.8070282    
C     -4.9132062    -0.2158338     2.7479011    
F     -4.8124534     0.6533428     3.7856749    
F     -5.0404957    -1.4307408     3.3210038    
F     -6.1017953     0.0476649     2.1769365    
C     -3.8655745     0.5897281     0.6207364    
C     -2.7742896     0.6760039    -0.2197667    
H      3.6931931     0.0211393    -3.0448923    
H      4.7164372     1.1488399    -2.1425021    
H      5.9113092    -1.0040564    -2.6644196    
H      4.6698273    -1.8796291    -1.7722544    
H      6.1191369    -1.6474939    -0.0074734    
H      7.8701326     0.1280618     0.1528911    
H      7.2696995     0.8380972    -1.3468569    
H      7.9761795    -0.7787885    -1.3553713    
H      5.3509463     1.2800165     0.1156651    
H      5.4834735     0.1165403     1.4290079    
H      3.1408297     0.6289157     0.9815407    
H      3.4696839    -1.0749283     0.5977284    
H      1.1103656    -0.0373583     0.6525126    
H      0.7048636     0.6118874    -4.9349680    
H     -0.9895976     0.5927233    -4.5326256    
H     -0.5607995    -1.1664070     1.5584407    
H     -2.4924705    -1.3095551     3.0683454    
H     -4.7991990     1.0630142     0.3602709    
H     -2.8372496     1.2171349    -1.1489958    
