32

N     -2.5716007    -3.2431752     1.0157701    
C     -1.7482434    -3.5550655    -0.1828602    
C     -1.5496503    -2.3256242    -1.0714336    
C     -0.2466547    -1.5639884    -0.8142223    
C     -0.1838686    -0.9448020     0.5825929    
N      0.9669491    -0.0125310     0.7102824    
C      0.7663733     1.2992327     0.0517669    
C      1.9813860     2.2006491     0.2832135    
C      1.9459458     3.4562265    -0.5802166    
N      0.8558582     4.3768109    -0.1696023    
H     -2.6904721    -4.0822968     1.5926718    
H     -3.5044085    -2.9269391     0.7293238    
H     -2.1431327    -2.5122106     1.5921809    
H     -2.2601060    -4.3352820    -0.7460201    
H     -0.7865081    -3.9568379     0.1363541    
H     -2.4012119    -1.6526316    -0.9706962    
H     -1.5348356    -2.6533751    -2.1101545    
H     -0.1825325    -0.7880035    -1.5749099    
H      0.5942100    -2.2423596    -0.9626730    
H     -0.0510356    -1.7305507     1.3261665    
H     -1.0968104    -0.3826415     0.7866824    
H      1.8043325    -0.4613757     0.3165594    
H      1.1615331     0.1485324     1.7063330    
H     -0.1393006     1.7412783     0.4688791    
H      0.6291041     1.1387576    -1.0180711    
H      2.8920135     1.6627608     0.0175865    
H      2.0617473     2.4806538     1.3340818    
H      1.8095672     3.1948517    -1.6296084    
H      2.8973372     3.9787018    -0.4858830    
H      0.9280189     5.2601655    -0.6859565    
H      0.9212273     4.5951783     0.8319993    
H     -0.0681459     3.9779898    -0.3662007    
