114

C     -1.6301623     0.5469797    -5.5603621    
O     -1.7648249     1.7604624    -5.5465923    
C     -1.7901769    -0.3063484    -6.8283387    
N     -2.2274742     0.4581180    -8.0167054    
O     -3.0167520     2.7280248    -9.5607206    
C     -1.2488314     1.4848021    -8.4491448    
C     -3.5543627     1.0997387    -7.8395625    
C     -1.7471921     2.1359863    -9.7410841    
C     -3.9678453     1.7682755    -9.1520412    
N     -1.3503283    -0.1852935    -4.4799050    
C     -1.0672808     0.3953913    -3.1885242    
C      0.1539336    -0.3076018    -2.5965259    
O      0.4813802    -1.4286705    -2.9659161    
C     -2.2315211     0.1782194    -2.2054009    
C     -3.4423372     1.0604782    -2.5212138    
C     -4.5195423     0.8215601    -1.5017363    
C     -5.6237195     0.0343823    -1.7954066    
C     -4.4017233     1.3571290    -0.2249093    
C     -6.5968405    -0.2037716    -0.8397213    
C     -5.3719296     1.1214205     0.7313082    
C     -6.4747431     0.3418789     0.4253170    
N      0.7927637     0.3988118    -1.6607890    
C      1.7243238    -0.1869873    -0.7235335    
C      1.1096433    -0.0289212     0.6708652    
O      0.1733896     0.7388314     0.8643117    
C      3.0906988     0.5118647    -0.7735127    
C      3.7447158     0.4752738    -2.1603223    
C      5.0681706     1.2364434    -2.1094711    
C      3.9705032    -0.9549450    -2.6434546    
N      1.6748327    -0.7666914     1.6268853    
C      1.2113980    -0.7763338     2.9945528    
C      2.4365404    -0.7445302     3.9090256    
O      3.4721760    -1.3231295     3.5888703    
C      0.3889050    -2.0561314     3.2676553    
C     -0.8026488    -2.0698001     2.3555225    
C     -0.7138924    -2.6261631     1.0860046    
C     -1.9872239    -1.4515823     2.7338697    
C     -1.7838070    -2.5622718     0.2115093    
C     -3.0593760    -1.3922194     1.8629646    
C     -2.9597146    -1.9427101     0.5969155    
N      2.2710583    -0.0711595     5.0443983    
C      3.3003452     0.1307624     6.0407800    
C      3.6736201     1.6175757     6.1332120    
C      4.4361547     2.1842683     4.9274426    
C      5.1279712     3.4838925     5.3382655    
C      3.5439453     2.4525402     3.7166272    
C      2.7951652    -0.3703124     7.4243312    
C      2.9822478    -1.8814944     7.6822692    
C      4.4548892    -2.2764461     7.7363258    
C      2.2534662    -2.7556318     6.6511862    
O      0.8655228    -2.4824352     6.5643952    
O      1.4520735     0.0156999     7.6247366    
H     -2.5243861    -1.0890768    -6.6237314    
H     -0.8260741    -0.7729846    -7.0448754    
H     -2.3190689    -0.2156918    -8.7911159    
H     -0.2772519     1.0231735    -8.6146206    
H     -1.1703108     2.2335868    -7.6609090    
H     -3.4638285     1.8514878    -7.0542251    
H     -4.2925958     0.3521279    -7.5532642    
H     -1.0774652     2.9422359    -10.0387070    
H     -1.7954652     1.3923148    -10.5514703    
H     -4.1002618     1.0140467    -9.9411015    
H     -4.9051347     2.3088478    -9.0197394    
H     -1.1465519    -1.1761577    -4.5358219    
H     -0.8825236     1.4648377    -3.3258909    
H     -1.8882081     0.3873589    -1.1901445    
H     -2.5256069    -0.8722378    -2.2368244    
H     -3.8167564     0.8340792    -3.5190490    
H     -3.1390118     2.1084209    -2.4974869    
H     -5.7290651    -0.3968100    -2.7796894    
H     -3.5408451     1.9602782     0.0259720    
H     -7.4565861    -0.8108575    -1.0836970    
H     -5.2705771     1.5528482     1.7169206    
H     -7.2340304     0.1584030     1.1707045    
H      0.3766449     1.2617031    -1.3311340    
H      1.8214203    -1.2474709    -0.9695425    
H      3.7534154     0.0354728    -0.0502563    
H      2.9570732     1.5512025    -0.4686183    
H      3.0795681     0.9767836    -2.8706312    
H      5.5314002     1.2582260    -3.0923759    
H      5.7554168     0.7545402    -1.4183419    
H      4.9123075     2.2603041    -1.7801714    
H      3.0256419    -1.4486374    -2.8553346    
H      4.5103151    -1.5327550    -1.8968602    
H      4.5583202    -0.9497987    -3.5575621    
H      2.4712955    -1.3594219     1.4370480    
H      0.5809667     0.1065951     3.1319047    
H      0.0854040    -2.0653569     4.3141487    
H      1.0279912    -2.9211406     3.0830660    
H      0.1987902    -3.1160812     0.7776052    
H     -2.0686278    -1.0147497     3.7176488    
H     -1.6910310    -2.9962223    -0.7732226    
H     -3.9755332    -0.9093524     2.1663005    
H     -3.7977234    -1.8833968    -0.0803619    
H      1.3927595     0.3890344     5.2358538    
H      4.1721754    -0.4475747     5.7265934    
H      4.3104712     1.7325475     7.0104351    
H      2.7661744     2.1992517     6.3096732    
H      5.2045865     1.4605419     4.6366411    
H      5.7104074     3.8810383     4.5104300    
H      5.7963053     3.3195725     6.1790634    
H      4.3904961     4.2286827     5.6265141    
H      3.1962075     1.5294602     3.2640943    
H      4.1040639     2.9997433     2.9620285    
H      2.6812860     3.0508563     3.9978597    
H      3.3650726     0.1626086     8.1943664    
H      2.5325618    -2.0669145     8.6657404    
H      4.5537757    -3.2966345     8.0985628    
H      5.0022951    -1.6190260     8.4057816    
H      4.9044205    -2.2231164     6.7485778    
H      2.4190638    -3.8096740     6.8952439    
H      2.6643686    -2.5811444     5.6560576    
H      0.4160726    -2.8972284     7.3129777    
H      0.8969011    -0.6501769     7.1785748    
