114

C     -1.6177536     0.4932398    -5.5916285    
O     -1.8491989     1.6923730    -5.5845454    
C     -1.7171965    -0.3790947    -6.8528186    
N     -2.2595785     0.3275961    -8.0329891    
O     -3.3156881     2.5050397    -9.5541376    
C     -1.3999557     1.4462176    -8.4956122    
C     -3.6385371     0.8349499    -7.8209618    
C     -1.9984147     2.0441604    -9.7706418    
C     -4.1518355     1.4518630    -9.1234201    
N     -1.2709159    -0.2057595    -4.5094970    
C     -1.0064130     0.4029402    -3.2262507    
C      0.2301709    -0.2665960    -2.6281220    
O      0.5916645    -1.3764779    -3.0011775    
C     -2.1669725     0.1761938    -2.2411338    
C     -3.3900405     1.0398318    -2.5632827    
C     -4.4549630     0.8107037    -1.5291305    
C     -5.5487979    -0.0012767    -1.7921146    
C     -4.3333076     1.3798502    -0.2675528    
C     -6.5078007    -0.2348449    -0.8213446    
C     -5.2901757     1.1527505     0.7044643    
C     -6.3824587     0.3452140     0.4293079    
N      0.8457076     0.4545642    -1.6885917    
C      1.7879330    -0.1088660    -0.7480831    
C      1.1565740     0.0213731     0.6426737    
O      0.1840289     0.7448602     0.8275126    
C      3.1356523     0.6241599    -0.7868039    
C      3.7981757     0.6148524    -2.1704735    
C      5.1058639     1.4017287    -2.1012744    
C      4.0625737    -0.8045587    -2.6664920    
N      1.7474044    -0.6874329     1.6036983    
C      1.2688820    -0.7256916     2.9655461    
C      2.4806751    -0.6766925     3.8962455    
O      3.5491160    -1.1830567     3.5620727    
C      0.4741355    -2.0284414     3.2122030    
C     -0.7182342    -2.0520756     2.3002557    
C     -0.6267164    -2.6070403     1.0302587    
C     -1.9086457    -1.4462195     2.6827679    
C     -1.7008013    -2.5556627     0.1591292    
C     -2.9842992    -1.3978622     1.8150811    
C     -2.8821098    -1.9482038     0.5486408    
N      2.2645135    -0.0787998     5.0647894    
C      3.2694805     0.1137770     6.0880723    
C      3.5806098     1.6073202     6.2591426    
C      4.2594064     2.2780912     5.0549767    
C      5.0292815     3.5101234     5.5362361    
C      3.2686027     2.6972929     3.9692314    
C      2.7662122    -0.4726096     7.4377232    
C      3.0121182    -1.9852497     7.6268848    
C      4.4987589    -2.3203060     7.7027383    
C      2.3434605    -2.8376310     6.5389742    
O      0.9443995    -2.6270633     6.4484578    
O      1.4049492    -0.1523444     7.6338394    
H     -2.3570255    -1.2347551    -6.6289140    
H     -0.7137005    -0.7407489    -7.0883262    
H     -2.3037020    -0.3584585    -8.8003384    
H     -0.3924005     1.0830127    -8.6925330    
H     -1.3733285     2.2002166    -7.7076033    
H     -3.6024574     1.5980813    -7.0419349    
H     -4.2902706     0.0184996    -7.5118227    
H     -1.4196163     2.9118012    -10.0850600    
H     -1.9947486     1.2995668    -10.5806317    
H     -4.2208733     0.6862259    -9.9103449    
H     -5.1373103     1.8900727    -8.9682156    
H     -0.9851005    -1.1778447    -4.5614842    
H     -0.8442755     1.4744170    -3.3764099    
H     -1.8270489     0.3990008    -1.2274966    
H     -2.4458418    -0.8783739    -2.2635532    
H     -3.7706787     0.7916426    -3.5540304    
H     -3.0967746     2.0910103    -2.5633263    
H     -5.6568173    -0.4577168    -2.7657306    
H     -3.4818481     2.0052312    -0.0402517    
H     -7.3553875    -0.8678557    -1.0390474    
H     -5.1873344     1.6087902     1.6784796    
H     -7.1309410     0.1675786     1.1875735    
H      0.4026816     1.3030438    -1.3570017    
H      1.9158822    -1.1655675    -0.9983058    
H      3.8076024     0.1590415    -0.0637973    
H      2.9762669     1.6586535    -0.4751739    
H      3.1279730     1.1116586    -2.8795798    
H      5.5689349     1.4597447    -3.0827974    
H      5.8035162     0.9141087    -1.4238225    
H      4.9315139     2.4138102    -1.7429381    
H      3.1332116    -1.3304552    -2.8683416    
H      4.6312666    -1.3670445    -1.9297195    
H      4.6374373    -0.7748479    -3.5888478    
H      2.5734609    -1.2417078     1.4227032    
H      0.6141832     0.1390821     3.1086468    
H      0.1695320    -2.0666363     4.2579829    
H      1.1314241    -2.8763546     3.0106145    
H      0.2911253    -3.0862192     0.7205990    
H     -1.9913709    -1.0104284     3.6678858    
H     -1.6068912    -2.9897495    -0.8257123    
H     -3.9049308    -0.9225837     2.1186075    
H     -3.7249949    -1.8975420    -0.1243651    
H      1.3636145     0.3295409     5.2672331    
H      4.1676689    -0.4135567     5.7589357    
H      4.2486887     1.6981424     7.1169242    
H      2.6544040     2.1314886     6.5061995    
H      4.9740435     1.5702683     4.6196052    
H      5.5194194     4.0061162     4.7022604    
H      5.7906012     3.2327018     6.2605535    
H      4.3498232     4.2186291     6.0055222    
H      2.8185400     1.8355233     3.4817200    
H      3.7831280     3.2791805     3.2068966    
H      2.4784922     3.3144235     4.3930083    
H      3.3020551     0.0469462     8.2408599    
H      2.5492583    -2.2364519     8.5895945    
H      4.6325869    -3.3537074     8.0091636    
H      4.9973030    -1.6790994     8.4245790    
H      4.9768057    -2.1930415     6.7355990    
H      2.5581934    -3.8941450     6.7302805    
H      2.7571203    -2.5908590     5.5603444    
H      0.5063604    -3.1001017     7.1699945    
H      0.8843075    -0.8199363     7.1499078    
