97

O      0.4481485    -0.0091600     4.3983585    
C     -0.3514854     0.9059034     4.4810848    
O     -0.1530989     2.0250515     5.1963619    
C      1.0522950     2.1206644     5.9734675    
C      0.7798677     1.8009192     7.4194997    
C      0.8377997     2.7914678     8.3907511    
C      0.5693379     2.4890728     9.7150130    
C      0.2304497     1.1960902     10.0770158    
C      0.1661177     0.2042464     9.1119399    
C      0.4425109     0.5042893     7.7900163    
N     -1.5828593     0.9008165     3.9270750    
C     -1.8354415     0.0057417     2.8162563    
C     -0.9141207     0.3887403     1.6474970    
O     -0.2004493     1.3867694     1.6922197    
C     -3.3277541    -0.0561914     2.4709085    
C     -4.0016868     1.2620831     2.0678329    
C     -3.4654676     1.8102499     0.7477192    
C     -5.5079186     1.0212963     1.9527257    
N     -0.8952490    -0.4910799     0.6430884    
C     -0.2011481    -0.2584582    -0.6021494    
C     -1.2574925    -0.1229007    -1.7073179    
O     -2.4064340    -0.5150761    -1.5467267    
C      0.7620063    -1.4025418    -0.9550185    
C      2.0740940    -1.4046530    -0.1589925    
C      1.8701993    -1.7807333     1.3075578    
C      3.0507562    -2.3825773    -0.8132954    
N     -0.8142544     0.4317082    -2.8385198    
C     -1.6355378     0.6085052    -4.0195868    
C     -1.5934843     2.0599165    -4.4963266    
C     -2.0115630     3.0746397    -3.4250907    
C     -3.4742909     2.8990187    -3.0223905    
C     -1.7759441     4.4887169    -3.9527749    
C     -1.1789045    -0.3729773    -5.1338227    
O     -1.6240759    -1.6844472    -4.8964839    
C      0.3563659    -0.3674975    -5.2090005    
O      0.9589978     0.6455016    -5.5499732    
N      0.8985738    -1.5304863    -4.8308669    
C      2.2428482    -1.9198273    -4.7390108    
C      3.2857214    -1.0446744    -5.0196747    
C      4.5973192    -1.4634524    -4.9079515    
C      4.8987761    -2.7615372    -4.5172405    
C      6.3222295    -3.2160669    -4.4160763    
C      3.8475512    -3.6251676    -4.2382860    
C      2.5215334    -3.2339399    -4.3373654    
C      1.4207835    -4.2003752    -4.0125584    
H      1.3950253     3.1495445     5.8522380    
H      1.7870672     1.4254914     5.5515128    
H      1.0979621     3.8003976     8.1075772    
H      0.6212978     3.2650054     10.4637629    
H      0.0183519     0.9609011     11.1085701    
H     -0.0959888    -0.8060726     9.3883426    
H      0.3999818    -0.2662761     7.0327590    
H     -2.0524948     1.7953012     3.9126457    
H     -1.5066425    -0.9885336     3.1449550    
H     -3.8401128    -0.4481157     3.3510607    
H     -3.4643421    -0.7697786     1.6572675    
H     -3.8378584     2.0115179     2.8490798    
H     -4.0527618     2.6703261     0.4342012    
H     -3.5209485     1.0525097    -0.0313795    
H     -2.4310360     2.1322554     0.8408630    
H     -5.9141339     0.6607906     2.8941527    
H     -5.7111325     0.2837448     1.1804700    
H     -6.0190209     1.9431506     1.6886020    
H     -1.5788495    -1.2346792     0.6211646    
H      0.3463836     0.6831852    -0.4917116    
H      1.0110045    -1.3159254    -2.0145007    
H      0.2434493    -2.3512294    -0.8051991    
H      2.5066049    -0.3987583    -0.2006389    
H      2.8334668    -1.9019143     1.7976685    
H      1.3269560    -2.7188712     1.3911373    
H      1.3255383    -1.0137815     1.8525881    
H      3.2542071    -2.1010079    -1.8436026    
H      2.6391878    -3.3885667    -0.8043974    
H      3.9919641    -2.3940658    -0.2709479    
H      0.1353399     0.7694049    -2.8930176    
H     -2.6505317     0.3296010    -3.7188969    
H     -2.2555082     2.1612560    -5.3575060    
H     -0.5766561     2.2795733    -4.8298782    
H     -1.3893803     2.9288192    -2.5349903    
H     -3.7634744     3.6801063    -2.3237587    
H     -3.6340011     1.9413739    -2.5337817    
H     -4.1196035     2.9624057    -3.8951972    
H     -0.7331925     4.6261997    -4.2286739    
H     -2.0303173     5.2249709    -3.1946084    
H     -2.3906068     4.6712822    -4.8309671    
H     -1.5507079     0.0013292    -6.0973479    
H     -2.5908491    -1.7131079    -4.9016577    
H      0.2199414    -2.2540075    -4.6136155    
H      3.0615034    -0.0364640    -5.3278050    
H      5.3947914    -0.7696036    -5.1275799    
H      6.3947604    -4.1478160    -3.8620031    
H      6.9301926    -2.4612918    -3.9222943    
H      6.7329278    -3.3750103    -5.4129426    
H      4.0687917    -4.6360323    -3.9283150    
H      0.8040281    -3.8273714    -3.1956171    
H      1.8425696    -5.1545706    -3.7104867    
H      0.7827264    -4.3698542    -4.8790189    
