35

O      2.2121121    -3.7362623     1.3406100    
C      0.8257847    -3.5770066     1.5598565    
C      0.2715643    -2.6129560     0.5038183    
C     -1.2668914    -2.5494408     0.5478050    
O     -1.7615804    -1.9651902     1.7299663    
C      0.8777020    -1.2240071     0.7204342    
N      0.6787370    -0.3755283    -0.4558704    
C      1.0367381     1.0520338    -0.3554725    
C      1.8852345     1.3541153    -1.6667549    
O      2.0947127     0.3451862    -2.3782769    
O      2.3622796     2.4828437    -1.8195708    
C     -0.2010313     1.9276492    -0.1675267    
C      0.1312040     3.4092126    -0.1179580    
C     -1.0156999     1.5359725     1.0610464    
S     -1.3495483     1.7009365    -1.6762175    
O     -1.6052295     0.1920412    -1.6015909    
O     -0.4584713     1.9964369    -2.8447622    
H      2.5813489    -4.3032775     2.0308080    
H      0.6472777    -3.1658761     2.5607193    
H      0.3145092    -4.5439558     1.4647594    
H      0.5722788    -2.9848850    -0.4791945    
H     -1.6804072    -3.5540692     0.4067594    
H     -1.6319596    -1.9206632    -0.2698382    
H     -1.6897832    -2.5952440     2.4597554    
H      1.9487284    -1.3200801     0.9092656    
H      0.3894786    -0.7569787     1.5772616    
H     -0.3175533    -0.3885218    -0.8158093    
H      1.2609156    -0.6789011    -1.2817683    
H      1.7366594     1.2064572     0.4761081    
H     -0.7893897     3.9874192    -0.1344599    
H      0.7291167     3.6857504    -0.9836091    
H      0.6973379     3.6484405     0.7803403    
H     -1.4375322     0.5394962     0.9623453    
H     -1.8448660     2.2305794     1.1596222    
H     -0.4027852     1.5920319     1.9582430    
