59

C      7.9035052     1.0429059    -3.3892848    
C      5.2043729    -1.7367876    -0.7941042    
C      3.4203333     1.5182950     1.2031359    
C      1.0437369    -0.1482397     3.4453230    
C     -0.2771634     0.3270118     2.9011127    
C     -0.7198195    -0.1151979     1.6590154    
C     -1.0696259     1.2093695     3.6235090    
C     -2.7387294     1.1749992     1.8875877    
C     -4.4872798     2.9518889     1.3330462    
S      2.1201826    -2.6474126     2.2222736    
C      2.6306824    -1.1007107     1.8325076    
C      3.6429700    -0.8784567     0.8349026    
C      4.0429229     0.4388880     0.5111770    
C      5.0210066     0.6416480    -0.4640097    
C      5.6086497    -0.4286707    -1.1219577    
C      6.6204477    -0.1960728    -2.1291661    
C      7.3719894    -1.0620631    -2.8935214    
C      8.1961809    -0.2619517    -3.7026378    
C      8.4798170     2.3256071    -3.9317284    
O      9.3339470     2.2016432    -4.8366625    
O      8.0653323     3.3951301    -3.4368957    
O      6.9521013     1.0833012    -2.4377045    
C      4.2451908    -1.9504151     0.1592223    
C      2.4810251     1.2537944     2.1350208    
N      2.0997413    -0.0144405     2.4556499    
C     -1.9324689     0.3051701     1.1529896    
C     -2.2875229     1.6304476     3.1243891    
C     -4.0069080     1.6602285     1.3582533    
C     -5.6866806     2.8986196     0.5926836    
C     -6.5780834     4.0797724     0.2890919    
O     -7.2359572     4.0687137    -0.7721833    
O     -6.5635040     5.0011385     1.1379840    
N     -5.9277325     1.6610259     0.1992340    
N     -4.9162238     0.9079452     0.6671784    
C     -4.9575914    -0.4765882     0.4836103    
C     -4.4658459    -1.3626245     1.4395989    
C     -4.5337802    -2.7239845     1.2155657    
C     -5.1079854    -3.2140185     0.0521962    
Cl    -5.1888153    -4.9123723    -0.2194522    
C     -5.6276880    -2.3296089    -0.8871761    
Cl    -6.3656653    -2.9219972    -2.3306196    
C     -5.5514991    -0.9655802    -0.6767010    
H      5.6543109    -2.5724367    -1.3028266    
H      3.7041607     2.5306093     0.9723869    
H      0.9771014    -1.2091227     3.7087529    
H      1.3187845     0.4238437     4.3332591    
H     -0.1116952    -0.7967812     1.0827239    
H     -0.7372023     1.5665629     4.5863023    
H     -4.0507008     3.8369025     1.7483080    
H      5.3275248     1.6468098    -0.7136715    
H      7.3426925    -2.1316153    -2.8785794    
H      8.9193069    -0.5706386    -4.4290082    
H      3.9343697    -2.9541138     0.4080860    
H      1.9753836     2.0359483     2.6780637    
H     -2.2582219    -0.0342614     0.1811523    
H     -2.9062974     2.3111271     3.6888365    
H     -4.0379110    -0.9918210     2.3556644    
H     -4.1470215    -3.4146465     1.9460277    
H     -5.9587464    -0.2674414    -1.3894471    
