48

O     -1.8507201    -0.3944311     1.8980493    
P     -2.3703721    -0.6869865     3.3299484    
O     -2.1279295    -2.1260611     3.7602730    
O     -3.8135066    -0.2367657     3.4765715    
C     -1.3142460     0.4055896     4.4378129    
C     -1.1458551     1.7882621     3.8235943    
O      0.1685282     2.3154995     3.8436023    
C      1.1760911     1.6077869     3.1461679    
C      1.0362605     1.6273358     1.6150307    
N      0.4527961     0.3956643     1.0385458    
C      1.3631300    -0.7660558     1.1358746    
C      0.6908265    -2.1114953     1.0483804    
P      2.1095642    -3.3233514     0.7819453    
O      2.7078076    -2.8651665    -0.5513591    
O      3.0649222    -3.1019685     1.9514556    
O      1.5333663    -4.7314001     0.7233850    
C     -0.0326135     0.6170585    -0.3388554    
C      1.0541373     1.0009958    -1.3610856    
N      0.8265512     0.3112653    -2.6046335    
C      0.1031961     0.7892501    -3.6505190    
N     -0.4277287     2.0260309    -3.7914381    
C     -1.0633167     2.1903714    -4.9036340    
N     -1.2055334     1.2498398    -5.8646608    
C     -0.6807038    -0.0462531    -5.8106989    
O     -0.8801845    -0.8124075    -6.7450414    
C      0.0398858    -0.2476161    -4.5876423    
N      0.7139518    -1.3382335    -4.1011785    
C      1.1521892    -0.9758107    -2.9290605    
H     -0.3630628    -0.1204980     4.5496611    
H     -1.7895397     0.4310406     5.4181909    
H     -1.7397518     2.5193688     4.3736402    
H     -1.5329030     1.7433151     2.7950032    
H      1.2452173     0.5716798     3.4999326    
H      2.0873576     2.1327970     3.4381137    
H      2.0239089     1.7619161     1.1719354    
H      0.3919382     2.4659559     1.3450842    
H     -0.4575459     0.0851389     1.5636630    
H      1.9008161    -0.7526855     2.0836903    
H      2.1157083    -0.7482857     0.3434891    
H      0.0277628    -2.2074542     0.1858365    
H      0.1128928    -2.3620326     1.9411418    
H     -0.8132676     1.3775329    -0.2880052    
H     -0.5106347    -0.3146737    -0.6507804    
H      2.0414918     0.7132164    -0.9974630    
H      1.0237576     2.0700588    -1.5778602    
H     -1.5149399     3.1539187    -5.0820489    
H     -1.7412096     1.4629736    -6.7011078    
H      1.7127378    -1.6177982    -2.2719079    
