63

C     -8.4820448     2.5284363    -0.6349820    
C     -6.9797474     2.4251647    -0.7802406    
C     -6.2118032     3.2895862     0.2103536    
C     -4.7631944     2.9574182     0.2115742    
N     -3.7948260     3.7845515     0.5762258    
N     -2.6581277     3.1124239     0.4324722    
C     -2.8580045     1.8543229    -0.0553018    
C     -1.8094710     0.8896874    -0.4046251    
O     -2.0355103    -0.0648765    -1.1446390    
N     -0.5884154     1.1536353     0.1258761    
C      0.5588697     0.3880212    -0.0753551    
C      0.7935894    -0.6357187    -1.0075203    
N      2.0211812    -1.1010175    -0.8782995    
N      2.5895768    -0.4036621     0.0995657    
C      1.7470317     0.5056645     0.6220404    
C      3.9261096    -0.7091709     0.5562022    
C      4.0239369    -2.2124649     0.8173374    
C      5.4127178    -2.6694476     1.2300521    
C      5.4666843    -4.1656095     1.5332755    
C      4.6800849    -4.5325510     2.7900140    
C      3.1901228    -4.3167066     2.6031887    
S      2.9083868    -2.5725237     2.2195251    
O      3.3229113    -1.7423801     3.3429817    
O      1.5124824    -2.3968907     1.8429908    
C      4.9727857    -0.2362960    -0.4325296    
C      6.0319527     0.5485556     0.0032475    
C      7.0020241     0.9689376    -0.8908037    
C      6.9161882     0.6107256    -2.2253962    
C      5.8580331    -0.1682655    -2.6643740    
C      4.8899348    -0.5951242    -1.7718068    
C     -4.2340528     1.7218812    -0.2007609    
C     -5.0629738     0.5859959    -0.6808284    
C     -6.3844434     1.0921068    -1.2255096    
C     -6.4252001     2.2552978    -2.1594542    
F     -5.2978637     2.8890935    -2.5772098    
F     -7.2613955     2.2189683    -3.2395892    
H     -8.7817864     2.1506777     0.3391158    
H     -8.9862060     1.9536958    -1.4070528    
H     -8.7940551     3.5670496    -0.7190043    
H     -6.6252290     3.1165524     1.2080328    
H     -6.3450626     4.3470627    -0.0276934    
H     -1.7900164     3.6023233     0.5838479    
H     -0.5070016     1.8648805     0.8391832    
H      0.1195543    -1.0337486    -1.7356850    
H      2.0295718     1.1446880     1.4333967    
H      4.0630251    -0.1942660     1.5145549    
H      3.6241553    -2.7647310    -0.0305495    
H      5.7048199    -2.1067258     2.1194843    
H      6.1134666    -2.4294948     0.4278809    
H      6.5097372    -4.4474871     1.6800895    
H      5.0836897    -4.7276540     0.6806776    
H      5.0148321    -3.9150505     3.6256313    
H      4.8585932    -5.5783062     3.0449227    
H      2.6134446    -4.5342511     3.4976550    
H      2.7826910    -4.8567540     1.7539914    
H      6.0980343     0.8279822     1.0440624    
H      7.8229414     1.5771701    -0.5442833    
H      7.6710815     0.9401234    -2.9230211    
H      5.7859752    -0.4470892    -3.7042446    
H      4.0561199    -1.1917313    -2.1073184    
H     -5.2659408    -0.0992830     0.1482236    
H     -4.5147335     0.0270131    -1.4445511    
H     -7.0922647     0.3063630    -1.4606813    
