210

N      8.7275886    -3.0576573     1.5841934    
C      8.4861862    -1.6729552     2.0532667    
C      7.3236837    -1.1383811     1.2009467    
O      7.0860064    -1.7141926     0.1405865    
C      9.7231092    -0.7958802     1.7956662    
C      10.1199699    -0.7747566     0.3146161    
C      11.0042416     0.4314531     0.0011892    
C      11.2657156     0.5751775    -1.4948759    
N      9.9883803     0.7530935    -2.2278051    
N      6.7017011    -0.0620155     1.6618713    
C      5.7209967     0.7493448     0.9481333    
C      4.3896532     0.0444224     0.6455403    
O      3.3210776     0.5291811     1.0272583    
C      6.2691030     1.2619199    -0.4034304    
C      7.1705001     2.4391501    -0.2432518    
N      8.4506960     2.4433339    -0.7222739    
C      6.9134098     3.6540564     0.3357480    
C      8.9516385     3.6236078    -0.4410112    
N      8.0552821     4.3902784     0.2028242    
N      4.4918524    -1.0678546    -0.0657125    
C      3.3720221    -1.6954714    -0.7344074    
C      2.1698273    -1.8257526     0.1883360    
O      1.0393139    -1.5296857    -0.1837384    
C      3.7762870    -3.0792630    -1.2571563    
C      4.8614912    -2.9818926    -2.3310594    
C      5.1504220    -4.3533773    -2.9418366    
C      6.2807902    -4.2407429    -3.9588224    
N      6.5412502    -5.5532662    -4.5983123    
N      2.4095195    -2.3865228     1.3815350    
C      1.3520486    -2.5768845     2.3562496    
C      0.5008035    -1.3081451     2.4977747    
O     -0.7269371    -1.3435388     2.4630769    
C      1.9576715    -2.9994728     3.7085619    
C      2.6234661    -4.3796058     3.5788273    
C      0.8798233    -3.0142241     4.7898237    
C      3.6441281    -4.6406153     4.6826662    
N      1.2108649    -0.1944943     2.7340860    
C      0.5671115     1.0960902     2.8815303    
C     -0.1804468     1.4657383     1.5977302    
O     -1.3708104     1.7704463     1.6045089    
C      1.6205832     2.1478687     3.2358234    
C      1.0856973     3.5833564     3.2215256    
C     -0.0131734     3.7844383     4.2633083    
C      2.2388598     4.5559379     3.4673133    
N      0.5466860     1.4041758     0.4765597    
C     -0.0338670     1.7767061    -0.7987416    
C     -1.3565487     1.0351600    -1.0170911    
O     -2.3840543     1.6357036    -1.3526897    
C      0.9612979     1.4878545    -1.9312135    
C      2.0009147     2.5571528    -2.0203136    
N      3.3367141     2.3355836    -1.8408490    
C      1.7949414     3.8864225    -2.2912839    
C      3.9148443     3.5007605    -1.9986244    
N      3.0236629     4.4744081    -2.2716232    
N     -1.2822144    -0.2847489    -0.8902139    
C     -2.4414329    -1.1515542    -0.9824945    
C     -3.5995401    -0.5621336    -0.1721231    
O     -4.6917383    -0.3498017    -0.7031535    
C     -2.0731530    -2.5540201    -0.4943001    
C     -1.1631983    -3.2682293    -1.4980992    
C     -0.4887145    -4.4807247    -0.8573223    
N      0.3621994    -5.1426505    -1.8270118    
C      1.4275743    -5.8908162    -1.5567278    
N      1.9014065    -6.0129409    -0.3204848    
N      2.1316981    -6.4076299    -2.5676971    
N     -3.3229597    -0.3034233     1.1068160    
C     -4.2773393     0.2124213     2.0603414    
C     -4.5178820     1.7260463     1.9911245    
O     -5.1012679     2.3088427     2.9027269    
C     -3.8747053    -0.2396118     3.4611127    
C     -4.1607778    -1.7266607     3.7009053    
C     -3.2556305    -2.2692192     4.8044707    
C     -5.6322614    -1.9404793     4.0462430    
N     -4.1015426     2.3442443     0.8823011    
C     -4.5822875     3.6383829     0.4552063    
C     -5.5904522     3.4556870    -0.6866356    
O     -6.6888388     4.0061800    -0.6736937    
C     -3.4358135     4.5476650     0.0021495    
C     -2.4204509     4.8534217     1.1103397    
C     -1.2661309     5.6680642     0.5276983    
C     -3.0619712     5.6043116     2.2738760    
N     -5.1561792     2.7131987    -1.7139395    
C     -6.0379903     2.3173015    -2.7938046    
C     -7.3455989     1.7110359    -2.2669758    
O     -8.4261831     2.0552240    -2.7495862    
C     -5.3168032     1.3236401    -3.7079427    
C     -6.2468918     0.7374330    -4.7759189    
C     -7.0003537    -0.4655878    -4.2224914    
O     -6.3831734    -1.4466570    -3.8118381    
N     -8.3381055    -0.4291672    -4.3161113    
N     -7.1929979     0.7689178    -1.3428213    
C     -8.2801024     0.0251810    -0.7488219    
C     -8.3526033     0.3782296     0.7741481    
O     -7.4167326    -0.0337864     1.4866937    
C     -8.0747207    -1.4812440    -0.9376292    
C     -9.4323508    -2.1428367    -1.2603873    
O     -9.8935689    -1.9465523    -2.4080431    
O     -9.9796361    -2.8233280    -0.3730725    
O     -9.3230072     1.0559506     1.1545410    
H      9.7236412    -3.2978729     1.5922490    
H      8.3536827    -3.0856202     0.6104745    
H      8.2225411    -3.7520009     2.1444330    
H      8.2398589    -1.6550337     3.1152743    
H      10.5523810    -1.1407404     2.4134732    
H      9.4972213     0.2207706     2.1174422    
H      9.2148902    -0.7005346    -0.2822740    
H      10.6627778    -1.6792701     0.0443880    
H      11.9610296     0.3428940     0.5160561    
H      10.5255172     1.3418705     0.3616246    
H      11.7916679    -0.2990726    -1.8785186    
H      11.8987546     1.4458979    -1.6605808    
H      10.1529680     1.1608591    -3.1499867    
H      9.3438669     1.4047454    -1.6763569    
H      9.5176648    -0.1451006    -2.3562782    
H      6.9836771     0.2967697     2.5619745    
H      5.4737515     1.5994644     1.5861089    
H      5.4097976     1.5484940    -1.0151347    
H      6.8067669     0.4652285    -0.9112881    
H      6.0347295     4.0417456     0.8083249    
H      9.9425787     3.9513240    -0.6820114    
H      8.1884870     5.3361806     0.5211906    
H      5.4316760    -1.3933419    -0.3218792    
H      3.0503908    -1.0615415    -1.5714907    
H      2.8838087    -3.5398107    -1.6786323    
H      4.1185964    -3.6911248    -0.4245429    
H      5.7784518    -2.5883304    -1.8980337    
H      4.5314909    -2.2951682    -3.1104218    
H      4.2466791    -4.7242696    -3.4235346    
H      5.4285007    -5.0445143    -2.1480751    
H      7.1939314    -3.9065899    -3.4699773    
H      6.0144521    -3.5166686    -4.7282816    
H      7.3098459    -5.4873207    -5.2738857    
H      5.7074311    -5.8777015    -5.1000576    
H      6.7868830    -6.2559748    -3.8911793    
H      3.3607562    -2.5037100     1.7013980    
H      0.6551638    -3.3525450     2.0139408    
H      2.7048044    -2.2523864     3.9932841    
H      3.1248162    -4.4561493     2.6152435    
H      1.8470403    -5.1441419     3.6211608    
H      0.4598104    -2.0221564     4.9484823    
H      1.2855388    -3.3560514     5.7379006    
H      0.0571516    -3.6727164     4.5160073    
H      4.1170514    -5.6075645     4.5372400    
H      3.1689765    -4.6542066     5.6605264    
H      4.4068973    -3.8680151     4.6965936    
H      2.1791106    -0.1463491     2.4259809    
H     -0.1985124     1.0184680     3.6624389    
H      2.4290638     2.0716412     2.5072829    
H      2.0088751     1.9261761     4.2307003    
H      0.6499502     3.7907461     2.2375554    
H     -0.2940683     4.8340769     4.3262690    
H      0.3160735     3.4630514     5.2492112    
H     -0.9131519     3.2305858     3.9988451    
H      3.0039238     4.4371949     2.7058234    
H      2.6753340     4.3803009     4.4470356    
H      1.8791025     5.5813450     3.4369420    
H      1.5398762     1.1792158     0.5142415    
H     -0.3027760     2.8421093    -0.7826003    
H      0.4029859     1.4452427    -2.8684878    
H      1.4247944     0.5202630    -1.7492141    
H      0.8921256     4.4265734    -2.4924278    
H      4.9676798     3.6810719    -1.9306313    
H      3.2089258     5.4501251    -2.4386018    
H     -0.4160332    -0.7097275    -0.5496018    
H     -2.8039386    -1.1821511    -2.0197334    
H     -2.9989183    -3.1134903    -0.3425744    
H     -1.5838608    -2.4489478     0.4763097    
H     -0.3973006    -2.5678732    -1.8288890    
H     -1.7654597    -3.5655594    -2.3576357    
H     -1.2559422    -5.1622854    -0.4728700    
H      0.1136295    -4.1138071    -0.0251635    
H      0.0109003    -5.1233442    -2.7733775    
H      2.6498188    -6.6617466    -0.1371146    
H      1.3423047    -5.7285281     0.4643676    
H      1.7314567    -6.4112636    -3.4916381    
H      2.8076427    -7.1276959    -2.3650230    
H     -2.3978457    -0.4963228     1.4830735    
H     -5.2777531    -0.1733876     1.8027719    
H     -4.4225707     0.3727436     4.1790436    
H     -2.8067663    -0.0367899     3.5737526    
H     -3.9485807    -2.2650217     2.7708599    
H     -3.4815125    -3.3144404     4.9932007    
H     -3.4134438    -1.7079218     5.7216236    
H     -2.2178670    -2.1707804     4.5000146    
H     -6.2844185    -1.4933054     3.2940232    
H     -5.8728725    -1.4734191     4.9996295    
H     -5.8724894    -2.9996823     4.1072455    
H     -3.5459672     1.8350134     0.2059071    
H     -5.1379977     4.0715009     1.2925367    
H     -3.8782925     5.4737191    -0.3710428    
H     -2.9313780     4.0435544    -0.8242771    
H     -2.0480598     3.8943961     1.4833919    
H     -0.5197196     5.8610915     1.2931723    
H     -1.6380390     6.6189465     0.1544378    
H     -0.8039159     5.1295900    -0.2954776    
H     -3.7817118     4.9727527     2.7912677    
H     -3.5819608     6.4913989     1.9171426    
H     -2.3057199     5.9079800     2.9934213    
H     -4.2757255     2.2150228    -1.6366754    
H     -6.3411459     3.2144916    -3.3505250    
H     -4.9355742     0.5051264    -3.0923467    
H     -4.4811908     1.8426913    -4.1771703    
H     -5.6477306     0.3749717    -5.6118860    
H     -6.9493726     1.4903243    -5.1266427    
H     -8.8761063    -1.1036072    -3.7640814    
H     -8.7834681     0.4737177    -4.3937936    
H     -6.2685774     0.4987673    -1.0138535    
H     -9.2115574     0.3640535    -1.2205838    
H     -7.6619640    -1.9065055    -0.0192734    
H     -7.3884763    -1.6617723    -1.7684008    
