13

O     -1.8160689    -0.5466452    -2.2989544    
C     -1.0118531    -0.2805423    -1.2784890    
C     -0.0670280     0.7534431    -1.2915324    
Cl     0.0662245     1.7429264    -2.6987918    
C      0.7582576     0.9942551    -0.1987115    
Cl     1.9081184     2.2706108    -0.2500843    
C      0.6546173     0.1996139     0.9395481    
Cl     1.6731303     0.4895397     2.2942317    
C     -0.2797763    -0.8330560     0.9742576    
Cl    -0.4145922    -1.8146660     2.3738225    
C     -1.1012400    -1.0683355    -0.1221586    
Cl    -2.2556558    -2.3402067    -0.0879207    
H     -1.6624613     0.0661852    -3.0438304    
