80

N      3.3849408    -5.0708478     0.2752459    
C      2.6023526    -5.4147425    -0.7883362    
C      4.4546063    -4.2347169     0.1129823    
O      5.1794871    -3.8995820     1.0384070    
N      4.7726454    -3.9308041    -1.1859795    
C      3.9478270    -4.1136537    -2.2869299    
O      4.2610605    -3.6052906    -3.3584855    
C      2.8505044    -5.0256064    -2.0554499    
C      1.9575129    -5.3784568    -3.2006046    
C     -0.4790616    -6.0253649     1.2272238    
C      0.7097465    -5.6279106     2.1039219    
O      1.9258232    -6.2781242     1.7197217    
C      2.9871739    -5.3742631     1.6689812    
C      2.5345111    -4.1218987     2.4183308    
C      1.0260571    -4.1230855     2.1345434    
O      0.2695461    -3.4593818     3.1176429    
P     -1.3461003    -4.3733656    -0.6775018    
O     -2.4093265    -4.0789164     0.3204063    
O     -1.6848030    -4.7034399    -2.0808995    
O     -0.4016989    -5.5762099    -0.1280791    
O     -0.2339635    -3.1361482    -0.6966504    
P     -0.7644406    -1.6954005    -0.2167229    
O     -0.8439109    -1.6354934     1.2714683    
O     -1.9414362    -1.2694085    -1.0120271    
O      0.5363834    -0.8307102    -0.6654739    
P      1.8206558    -1.5511409    -1.3403001    
O      2.5415507    -2.3624688    -0.3232876    
O      1.5069504    -2.1255134    -2.6699770    
O      2.7328892    -0.2269829    -1.5959466    
P      2.3380093     1.2941644    -1.1885527    
O      3.3624021     2.1464016    -1.8407990    
O      2.1348560     1.4212820     0.2771032    
O      0.9381726     1.3951069    -2.0132655    
P     -0.1039735     2.6256681    -1.7919149    
O      0.5431878     3.9216662    -2.1120278    
O     -1.3468829     2.2375234    -2.5132950    
O     -0.3477716     2.6762490    -0.1865808    
C     -0.9900499     1.6348022     0.5095287    
C     -2.3418673     2.0916068     1.0592756    
O     -2.2227210     3.1776071     1.9652035    
C     -2.5782044     4.4079148     1.3392223    
C     -2.9805075     4.0863970    -0.1192632    
O     -4.0707628     4.8396776    -0.5337220    
C     -3.2883047     2.5723073    -0.0423961    
O     -4.6428139     2.3851614     0.2526259    
N     -1.5687258     5.4128333     1.4807440    
C     -1.7495572     6.5177740     2.2743578    
N     -2.8114376     6.8633265     3.0090669    
C     -2.6285120     8.0161886     3.6362180    
N     -1.5800560     8.8180056     3.6188027    
C     -0.5082432     8.4796200     2.8780212    
N      0.5389472     9.3031310     2.8557071    
C     -0.5742695     7.2668351     2.1587054    
N      0.3042223     6.6196426     1.3157552    
C     -0.3108817     5.5396414     0.9409077    
H      1.7555047    -6.0399024    -0.5499947    
H      5.4874554    -3.2167881    -1.2904756    
H      1.2142940    -6.1087672    -2.8970215    
H      2.5448403    -5.7216538    -4.0484716    
H      1.4323649    -4.4648337    -3.4904605    
H     -1.3899109    -5.6091052     1.6698885    
H     -0.5309544    -7.1157804     1.1599795    
H      0.4729505    -5.9473745     3.1295350    
H      3.8700055    -5.8429290     2.1224322    
H      3.0022571    -3.2162849     2.0421935    
H      2.6998455    -4.2244205     3.4897927    
H      0.8596104    -3.6811611     1.1472409    
H     -0.2105552    -2.7303645     2.6928921    
H     -0.3174338     1.3303357     1.3206521    
H     -1.1311437     0.7626727    -0.1337873    
H     -2.7427740     1.2320699     1.6082849    
H     -3.4439062     4.8211818     1.8843792    
H     -2.1304506     4.2445783    -0.7955239    
H     -4.8611244     4.2589038    -0.5013022    
H     -3.0693988     2.0656981    -0.9836686    
H     -4.7910955     2.4892339     1.2094011    
H     -3.4586450     8.3434746     4.2453936    
H      1.3457681     9.0388530     2.3189897    
H      0.5102224     10.1349062     3.4210466    
H      0.1021486     4.8056737     0.2749289    
