53

N     -4.4994712     0.8417663    -1.8145985    
P     -0.7284527    -0.4897462    -0.7816743    
C      0.9360727    -0.3181394    -2.8306358    
C      1.9274315     0.4393740    -1.9424805    
C      3.1235876     0.9819070    -2.7348976    
C     -3.2431691    -0.8516307    -0.3258748    
O      0.0509696    -1.1115234    -2.0718620    
C     -4.5060385    -0.4622625    -1.0977040    
O     -2.1710071    -1.1777524    -1.1978533    
C     -3.5690985     0.8200678    -2.9546626    
O     -0.2526100    -1.0912912     0.4948831    
C     -5.8661672     1.0727666    -2.3224574    
O     -0.8789251     0.9950788    -0.8910512    
C     -4.1319485     1.9476268    -0.9147492    
C      2.3682385    -0.0741819     0.3329213    
O      2.3913560    -0.4710979    -0.9398132    
C      2.8327999    -1.1702226     1.2520143    
O      2.0473083     1.0418511     0.6774188    
C      3.4577308    -0.6104577     2.5284438    
C      3.7578576    -1.6861906     3.5709407    
C      4.8687952    -2.6459959     3.1487433    
C      5.2163290    -3.6249547     4.2646152    
O      4.0035598     1.7404674    -1.9478297    
H      1.4654482    -1.0227132    -3.4770094    
H      0.3767176     0.4075620    -3.4289948    
H      1.4006929     1.2518006    -1.4256226    
H      2.7440910     1.5697186    -3.5789902    
H      3.7140008     0.1429496    -3.1082837    
H     -3.4739778    -1.7454697     0.2648119    
H     -2.9119552    -0.0725612     0.3680996    
H     -4.6917839    -1.2489806    -1.8301042    
H     -5.3188454    -0.4396980    -0.3705998    
H     -3.6437489     1.7540130    -3.5057012    
H     -3.7962679    -0.0144477    -3.6124070    
H     -2.5477607     0.7080063    -2.5968648    
H     -6.5643882     1.1537671    -1.4932798    
H     -6.1707035     0.2511475    -2.9659403    
H     -5.8915157     1.9961069    -2.8956580    
H     -3.0793003     1.8796998    -0.6437167    
H     -4.7370053     1.9139434    -0.0124548    
H     -4.2892066     2.8958908    -1.4213646    
H      3.5173041    -1.8099356     0.6969684    
H      1.9339940    -1.7470243     1.4875129    
H      2.7624231     0.1208320     2.9457495    
H      4.3768426    -0.0802207     2.2689641    
H      2.8459075    -2.2509248     3.7755533    
H      4.0570100    -1.1906705     4.4973446    
H      5.7562520    -2.0686545     2.8809854    
H      4.5545613    -3.2043070     2.2657933    
H      6.0045860    -4.3022548     3.9461645    
H      4.3437404    -4.2146610     4.5366575    
H      5.5568831    -3.0900273     5.1479171    
H      3.5306826     2.4862280    -1.5522132    
