41

C      0.7053149     3.4700549     3.3305396    
C     -0.5032824     2.9528565     2.6473798    
C     -0.7091964     1.9527395     1.7293472    
C      0.2799353     1.1054509     1.0649518    
C      0.1127521    -0.2754275     1.0423440    
C      1.0640365    -1.0847645     0.4357697    
N      0.8884845    -2.4807062     0.4487990    
S     -0.5630948    -3.0907206    -0.0977489    
C     -0.9413446    -2.2076483    -1.5980373    
C     -0.0099416    -2.2205253    -2.6182193    
C     -0.2837456    -1.5209346    -3.7821416    
C     -1.4770127    -0.8245650    -3.9053598    
C     -2.4041992    -0.8282146    -2.8747750    
C     -2.1358786    -1.5262420    -1.7075505    
O     -1.5905860    -2.8423998     0.8883425    
O     -0.3005991    -4.4868128    -0.3842050    
C      2.1788298    -0.5162861    -0.1636671    
C      2.3431911     0.8605183    -0.1564368    
C      3.5666603     1.4798689    -0.8301689    
O      3.7329186     2.7106043    -0.6885223    
O      4.3109779     0.7077172    -1.4739866    
C      1.3959242     1.6670848     0.4534254    
C     -2.1285169     1.9349234     1.5609037    
C     -2.9203273     1.0576325     0.6668181    
N     -2.6877689     2.8492388     2.3098042    
O     -1.6922303     3.4809732     2.9948231    
H      0.5239864     4.4875789     3.6646669    
H      1.5601026     3.4403578     2.6614038    
H      0.9286329     2.8505854     4.1982015    
H     -0.7385279    -0.7409900     1.5115903    
H      1.6618728    -2.9909440     0.0467084    
H      0.9056831    -2.7772053    -2.5001602    
H      0.4361251    -1.5186160    -4.5846794    
H     -1.6847785    -0.2795263    -4.8122782    
H     -3.3332703    -0.2909864    -2.9753989    
H     -2.8292881    -1.5610134    -0.8837393    
H      2.9381719    -1.1188437    -0.6416489    
H      1.5481926     2.7360441     0.4238398    
H     -3.9203037     1.4627161     0.5522359    
H     -2.9865986     0.0583582     1.0949676    
H     -2.4259092     0.9817371    -0.2989268    
