23

C     -0.1281772    -1.2937335    -0.5435310    
C     -0.0295350    -2.2913038    -1.5114601    
C      1.1930707    -2.4669988    -2.1609788    
C      2.2637057    -1.6328271    -1.8968382    
C      0.9354319    -0.4483074    -0.3237566    
C     -2.4429473    -2.6428515    -1.8652644    
C     -1.1914235    -3.0963697    -1.8719917    
C      2.1368545    -0.5909865    -0.9914742    
O     -0.2493749     2.5775996    -0.0306095    
O      0.0433638     1.2388392     2.6256488    
O      2.3468176     1.9967856     0.9833677    
C     -2.8822031    -1.2422962    -1.4668904    
O     -3.7179288    -1.1820924    -0.5358802    
O     -2.4027633    -0.2675502    -2.0870862    
Sb     0.6259786     1.1934802     0.9617688    
H      2.9466862     0.0969699    -0.8009753    
H      3.1996332    -1.7753488    -2.4138509    
H      1.2860170    -3.2500967    -2.8981316    
H     -1.0448859    -1.1735010     0.0164909    
H     -3.2676723    -3.2898990    -2.1321082    
H     -0.9865605    -4.1059999    -2.2080726    
H      2.4475358     2.6108979     1.7182199    
H     -1.0306704     2.2770669    -0.4983419    
