49

O      0.4009918    -2.1212828    -1.9628394    
C      0.1960163    -1.4022728    -0.7715236    
C      1.0687687    -0.1271347    -0.7787945    
N      2.5284778    -0.4248830    -0.7129212    
C      3.0695332    -0.8565268    -2.0278459    
C      3.0708656     0.3384207    -2.9872516    
C      3.2449236     0.7857371    -0.2449813    
C      2.8790053     1.9828642    -1.1451812    
C      2.0433306     3.0096524    -0.4347546    
C      2.2860498     4.3060761    -0.4879200    
C      2.1664550     1.4161680    -2.3883400    
C      0.8379749     0.7607109    -2.0042388    
C     -1.2491911    -0.9695230    -0.5833587    
C     -2.0767068    -0.8743600    -1.6754526    
C     -3.4037545    -0.4562678    -1.5054188    
N     -3.9184967    -0.1449997    -0.3477573    
C     -3.1362375    -0.2305491     0.7452879    
C     -1.7722269    -0.6388398     0.6952446    
C     -1.0335887    -0.6935731     1.8968323    
C     -3.7087637     0.1049618     1.9937553    
C     -2.9736314     0.0422001     3.1359718    
C     -1.6186490    -0.3642002     3.0965953    
O     -0.9979024    -0.3888780     4.3025375    
C      0.3655456    -0.7695963     4.3651849    
H     -0.1744245    -2.8952792    -1.9872488    
H      0.4900414    -2.0299609     0.0845270    
H      0.8182854     0.4177594     0.1350122    
H      2.6837936    -1.1852271    -0.0457235    
H      2.4314540    -1.6548607    -2.4030924    
H      4.0759924    -1.2444724    -1.8776471    
H      2.6973839     0.0350783    -3.9634969    
H      4.0758077     0.7349508    -3.1268339    
H      4.3148892     0.5856395    -0.2866125    
H      2.9708374     0.9912638     0.7903671    
H      3.7925535     2.4799259    -1.4799453    
H      1.1956229     2.6509878     0.1317076    
H      1.6639346     5.0248956     0.0167270    
H      3.1181265     4.7099778    -1.0410539    
H      1.9927463     2.2173698    -3.1068295    
H      0.0763516     1.5074003    -1.7881992    
H      0.4882044     0.1560804    -2.8400698    
H     -1.7185417    -1.1116956    -2.6640782    
H     -4.0656715    -0.3718538    -2.3567257    
H     -0.0080566    -1.0187417     1.8764850    
H     -4.7426378     0.4082918     2.0072633    
H     -3.3949804     0.2911445     4.0967337    
H      0.6278461    -0.7207518     5.4194350    
H      0.9902986    -0.0722460     3.8024410    
H      0.5053426    -1.7908067     4.0030011    
