14

C     -0.6512070     0.5729946     2.0972573    
O     -0.9385654    -0.2595188     2.9821716    
O     -0.2377326     1.7298765     2.3027366    
C     -0.8678734     0.1351163     0.6188784    
C     -2.0830441     0.8400765     0.0220748    
O      0.2981553     0.4482744    -0.1187335    
P      0.8361412    -0.7954374    -1.1378263    
O     -0.3145874    -1.0692296    -2.1028239    
O      2.0550146    -0.1702313    -1.7888121    
O      1.1488130    -1.9880980    -0.2392142    
H     -1.0091841    -0.9603207     0.6017543    
H     -2.1646730     0.5506536    -1.0242963    
H     -1.9187203     1.9128734     0.0978151    
H     -2.9719752     0.5488528     0.5748569    
