80

C      1.6588379    -7.4137154     0.7971101    
O      1.3865612    -6.0902530     0.3702575    
N     -0.4378410    -6.4345599     4.6816002    
C     -0.2350642    -5.4107596     3.8520330    
O     -0.9780301    -4.4581037     3.7111972    
O      0.9368783    -5.5495120     3.1739634    
C      2.0741378    -5.0832457     1.0783901    
C      1.2501146    -4.5146317     2.2407051    
C      2.0649724    -3.4209342     2.9422781    
O      3.2645162    -3.9081707     3.4778597    
C      2.4283854    -2.3393552     1.9151132    
O      3.0384090    -2.8442195     0.7777364    
C      2.4304520    -3.9483404     0.0837237    
C      1.2029993    -3.5072483    -0.7148469    
C      3.5163667    -4.4507408    -0.8695547    
O      1.2378650    -1.6229143     1.6677377    
C      1.3100771    -0.3989137     1.0617207    
C      0.1585439     0.3900897     1.1277561    
C     -1.0791422    -0.0625009     1.8363600    
C      0.1867360     1.6512639     0.5272440    
C      1.3356682     2.1433498    -0.1127387    
C      2.4621203     1.3120991    -0.1767966    
C      2.4480255     0.0621879     0.3937538    
O     -0.9508866     2.3891003     0.6254316    
C     -1.0454171     3.6480412     0.1428361    
O     -2.0830933     4.2566933     0.3563965    
C      0.1002101     4.1842640    -0.5553899    
C      1.2706755     3.4715820    -0.6615115    
O      2.3073639     4.0568870    -1.2676066    
N      0.0397494     5.5031842    -1.0331982    
C     -1.0182348     6.1030961    -1.6352420    
O     -1.0735374     7.3294984    -1.7076450    
C     -2.0227536     5.2128457    -2.2534475    
C     -1.6394108     4.0531708    -2.9220701    
C     -2.5696147     3.2164357    -3.5082696    
C     -3.9280220     3.5483262    -3.4110669    
O     -4.8341897     2.7078862    -3.9677740    
C     -4.3126615     4.7239007    -2.7745842    
C     -3.3682951     5.5552198    -2.2080414    
C     -2.1421468     1.9517704    -4.2035708    
C     -2.2288960     0.7906448    -3.2518827    
C     -1.2160772     0.0938731    -2.7517546    
C      0.2298717     0.3654854    -3.0607014    
C     -1.4531632    -1.0910431    -1.8631074    
H      1.0709442    -8.0564343     0.1460054    
H      1.3601221    -7.5651046     1.8363044    
H      2.7231257    -7.6438450     0.6859213    
H     -1.2811540    -6.4577653     5.2296325    
H      0.2169863    -7.1967101     4.7177450    
H      3.0094627    -5.4814160     1.4964203    
H      0.3094656    -4.0857200     1.8791293    
H      1.4427934    -2.9553797     3.7219431    
H      3.0721141    -4.6389023     4.0853901    
H      3.1840336    -1.6774030     2.3641597    
H      1.4946437    -2.7414520    -1.4287932    
H      0.4287667    -3.1043845    -0.0693587    
H      0.8038308    -4.3670767    -1.2429691    
H      3.7356568    -3.6875890    -1.6090859    
H      3.1671859    -5.3492676    -1.3674223    
H      4.4229687    -4.6657189    -0.3115560    
H     -0.9791542    -1.0932051     2.1604455    
H     -1.9422414     0.0373030     1.1822024    
H     -1.2570951     0.5701110     2.7036324    
H      3.3572332     1.6320974    -0.6844814    
H      3.3134256    -0.5750166     0.3163323    
H      3.1084473     3.5068960    -1.2456447    
H      0.7995615     6.1181864    -0.7619563    
H     -0.5913296     3.8118729    -3.0164455    
H     -5.7334042     3.0518639    -3.8563234    
H     -5.3591375     4.9863368    -2.7183520    
H     -3.6598563     6.4646629    -1.7059896    
H     -1.1314805     2.0661563    -4.5902278    
H     -2.8237930     1.7634652    -5.0362872    
H     -3.2411700     0.5331254    -2.9680731    
H      0.8600165    -0.0464368    -2.2761481    
H      0.4254614     1.4314359    -3.1376413    
H      0.5071661    -0.1025290    -4.0048514    
H     -2.5129106    -1.2240975    -1.6592777    
H     -0.9241126    -0.9707463    -0.9191191    
H     -1.0744215    -1.9929951    -2.3430454    
