137

C      1.1835922    -5.2595331     8.6629953    
O      2.2250938    -5.9182344     8.6350851    
C      0.3089064    -5.2185734     9.8661086    
C     -1.0576720    -4.9575386     9.7984900    
C     -1.8186641    -4.9550399     10.9543368    
C     -1.2288151    -5.2083700     12.1828065    
C      0.1285261    -5.4773635     12.2555092    
C      0.8911718    -5.4885266     11.1026055    
N      0.7661880    -4.5516031     7.6006833    
C      1.5419656    -4.4294134     6.3916473    
C      1.1434728    -3.1427173     5.6812381    
O      0.2531296    -2.4238200     6.1191986    
N      1.8397827    -2.8776322     4.5727174    
C      1.5130406    -1.7925161     3.6711611    
C      1.2801113    -2.4160896     2.2928701    
O      1.8990830    -3.4137688     1.9386378    
C      2.6493836    -0.7458264     3.6161080    
C      2.2672136     0.4241360     2.7123300    
C      2.9573400    -0.2435014     5.0250228    
N      0.3205300    -1.8435327     1.5592885    
C      0.0342041    -2.2477622     0.2005457    
C      0.9759753    -1.5347040    -0.7754608    
O      1.6146530    -0.5367145    -0.4558624    
C     -1.4206431    -1.9211689    -0.1695431    
C     -2.4020652    -3.0696694     0.0926358    
C     -2.4732034    -3.4193219     1.5766151    
C     -3.7867877    -2.6846938    -0.4256800    
N      1.0424862    -2.0975527    -1.9897930    
C      1.6055025    -1.3647513    -3.1099297    
C      1.0933600     0.0804973    -3.0107294    
O     -0.0395867     0.3181029    -2.5939949    
C      1.2310416    -2.0007296    -4.4511220    
C     -0.2713174    -1.9810512    -4.7366413    
C     -0.5969734    -2.5088988    -6.1330875    
C     -2.0935201    -2.3816808    -6.3978904    
N     -2.4307093    -2.8030818    -7.7800021    
N      2.0038504     1.0047288    -3.3037373    
C      1.7258508     2.4259712    -3.3720247    
C      0.7323485     2.8452749    -2.2887075    
O     -0.2351212     3.5664928    -2.5169400    
C      1.2499777     2.8521187    -4.7664178    
C      2.1050539     2.2581302    -5.8901745    
C      3.6225244     2.2891553    -5.5714939    
O      4.2752233     3.2855546    -5.9260309    
O      4.0950954     1.2863163    -4.9746348    
N      1.0507378     2.4301353    -1.0576564    
C      0.3148123     2.8348982     0.1227087    
C     -1.2074417     2.7716591    -0.0816329    
O     -1.9567759     3.6077963     0.4070545    
C      0.7293957     4.2501047     0.5637273    
C      2.1368394     4.2707897     1.0818359    
C      2.3949903     4.0681882     2.4304336    
C      3.2127742     4.4647885     0.2234852    
C      3.6890277     4.0646517     2.9175772    
C      4.5098327     4.4617898     0.6964638    
C      4.7582763     4.2642049     2.0520078    
O      6.0491321     4.2755493     2.4780070    
N     -1.6455403     1.6594404    -0.6893680    
C     -3.0484758     1.4346988    -0.9299790    
C     -3.5035313     1.4530494    -2.3874160    
O     -4.4780985     0.7770321    -2.7200964    
N     -2.8675864     2.2847476    -3.2072976    
C     -3.2380364     2.4114090    -4.6021655    
C     -2.5295056     1.2978318    -5.4392230    
O     -1.3206730     1.0869393    -5.2068137    
C     -2.8795982     3.8052483    -5.1281343    
C     -3.3809950     3.9671973    -6.5620538    
C     -3.4685142     4.8947018    -4.2319438    
H     -1.5357948    -4.7796887     8.8472874    
H     -2.8779224    -4.7564431     10.8954548    
H     -1.8275252    -5.2016948     13.0807153    
H      0.5920132    -5.6808346     13.2086513    
H      1.9492071    -5.7039613     11.1334047    
H      0.0095687    -3.8807308     7.6719054    
H      1.3497127    -5.2797092     5.7270437    
H      2.6084854    -4.4289912     6.6385511    
H      2.4890103    -3.5573377     4.1986334    
H      0.5981873    -1.3243309     4.0468473    
H      3.5370528    -1.2369831     3.2034412    
H      3.0543434     1.1739966     2.7221457    
H      1.3522003     0.8940573     3.0674210    
H      2.1328913     0.1065381     1.6807469    
H      3.2855443    -1.0563883     5.6669918    
H      2.0689349     0.2033164     5.4648675    
H      3.7425629     0.5052332     4.9849560    
H     -0.0652272    -0.9605393     1.8597999    
H      0.2312477    -3.3235858     0.1403486    
H     -1.4676311    -1.6381000    -1.2235649    
H     -1.7301364    -1.0425649     0.3994912    
H     -2.0576009    -3.9512462    -0.4579356    
H     -3.1705503    -4.2378829     1.7333542    
H     -2.8177483    -2.5620947     2.1503568    
H     -1.5004278    -3.7195788     1.9564773    
H     -3.7458415    -2.3823677    -1.4700074    
H     -4.1885932    -1.8490140     0.1435996    
H     -4.4742939    -3.5208138    -0.3325002    
H      0.4243980    -2.8657145    -2.2057254    
H      2.6968827    -1.3354229    -3.0073480    
H      1.6084889    -3.0245600    -4.4653914    
H      1.7538783    -1.4342092    -5.2245200    
H     -0.6354733    -0.9540217    -4.6581313    
H     -0.8052497    -2.5721797    -3.9906214    
H     -0.2748048    -3.5482049    -6.2122792    
H     -0.0431572    -1.9084065    -6.8561567    
H     -2.3982467    -1.3398177    -6.2618372    
H     -2.6507589    -2.9933865    -5.6893566    
H     -3.4313967    -2.6556238    -7.9513585    
H     -2.1937917    -3.7919283    -7.9249056    
H     -1.9024589    -2.2254429    -8.4439463    
H      2.8584015     0.7659861    -3.8291812    
H      2.6781992     2.9335839    -3.1576747    
H      1.2689561     3.9424108    -4.8114911    
H      0.2191969     2.5109696    -4.8977542    
H      1.9353066     2.8274059    -6.8053089    
H      1.8075738     1.2200475    -6.0543990    
H      1.7947076     1.7572520    -0.9421542    
H      0.5650435     2.1188060     0.9120152    
H      0.0245770     4.5734451     1.3304601    
H      0.6191959     4.9107038    -0.2987685    
H      1.5696603     3.9149288     3.1086706    
H      3.0326984     4.6224737    -0.8311753    
H      3.8669370     3.9085045     3.9714205    
H      5.3444669     4.6101439     0.0293087    
H      6.0918416     4.1350984     3.4371842    
H     -0.9950260     1.1005253    -1.2328502    
H     -3.5962640     2.2273835    -0.4076677    
H     -3.3481437     0.4666770    -0.5184988    
H     -1.9927182     2.7137710    -2.9270917    
H     -4.3189271     2.2340091    -4.6692899    
O     -3.2194723     0.6828397    -6.2790215    
H     -1.7847171     3.8860271    -5.1118731    
H     -3.0397056     4.9130325    -6.9732611    
H     -4.4680592     3.9416464    -6.5787708    
H     -3.0109376     3.1566826    -7.1864319    
H     -3.0246980     4.8579985    -3.2394443    
H     -4.5446558     4.7621884    -4.1401329    
H     -3.2672864     5.8720659    -4.6617306    
