26

C     -3.0746884     0.4811342    -1.8811737    
N     -2.1167184    -0.0386651    -0.9373963    
C     -0.8331226     0.3996416    -0.7173474    
C     -0.0952701     1.4278619    -1.2774573    
C      1.2017169     1.6130195    -0.8313941    
C      1.7570853     0.7964757     0.1566898    
C      1.0063725    -0.2247166     0.7384348    
C     -0.2834250    -0.4186295     0.2916959    
N     -1.2563940    -1.3268350     0.6476433    
C     -1.1700986    -2.3588388     1.6502290    
C     -2.3824636    -1.0967211    -0.1011443    
O     -3.4363459    -1.7195590    -0.0377323    
C      3.1455764     0.9860652     0.6603601    
N      4.0189963     1.5570507    -0.1821716    
O      3.4765503     0.6305645     1.7917043    
H     -2.6525143     1.3526611    -2.3711588    
H     -3.9915154     0.7559572    -1.3584460    
H     -3.3171710    -0.2812209    -2.6227491    
H     -0.5091277     2.0722448    -2.0349119    
H      1.7720524     2.4308086    -1.2399452    
H      1.4559094    -0.8248003     1.5134803    
H     -0.1931934    -2.3131064     2.1211690    
H     -1.3155816    -3.3367223     1.1895734    
H     -1.9494979    -2.2115915     2.3989111    
H      4.9707190     1.6787145     0.1238796    
H      3.7748998     1.7627512    -1.1337234    
