35

N     -0.0096985    -1.7106410    -2.1201928    
N      0.2336735    -1.8860049    -4.3798405    
C     -1.8739235     0.6315284     5.7850408    
C     -0.4698993     0.7812775     5.1932283    
C      0.5835168     0.1862057     6.1305122    
C     -0.4043603     0.1408388     3.8289438    
C     -0.1677616     0.9032522     2.7027886    
C     -0.1109258     0.3326080     1.4275312    
C     -0.3015909    -1.0455694     1.2944867    
C     -0.5422203    -1.8255952     2.4245580    
C     -0.5908462    -1.2357971     3.6676062    
C     -0.0277915    -0.9779505    -1.0211186    
C      0.2211049    -1.1124317    -3.2992922    
C      0.4468849     0.2965551    -3.3983802    
C      0.4189952     1.0254735    -2.2409099    
C      0.1793905     0.4115767    -0.9980037    
C      0.1468722     1.1578593     0.2424637    
C      0.7130801     0.9985236    -4.7198482    
O     -0.2653175    -1.6888391     0.0942191    
O      0.3215715     2.3813648     0.3099855    
O      0.7305507     0.3044703    -5.7679304    
O      0.8983282     2.2318454    -4.6791124    
H      0.4078613    -1.4044107    -5.2614529    
H      0.0656621    -2.8724363    -4.2856510    
H     -1.9305922     1.1438505     6.7415042    
H     -2.1182066    -0.4161402     5.9361544    
H     -2.6116498     1.0643795     5.1131086    
H     -0.2592306     1.8485471     5.0709702    
H      1.5732157     0.2760299     5.6890321    
H      0.3840787    -0.8645516     6.3197789    
H      0.5763662     0.7165624     7.0788551    
H     -0.0172814     1.9719231     2.7644037    
H     -0.6851352    -2.8853941     2.2922499    
H     -0.7774172    -1.8553048     4.5300774    
H      0.5849308     2.0938700    -2.2788966    
