64

C     -1.3197446    -0.6652571     2.7948927    
C      1.1133856    -0.8905216     3.2309039    
C      1.4881791    -2.5531665     6.6001218    
C      1.3290195    -1.0618891     4.7133060    
C      1.5235834     0.0245851     5.5547738    
C      1.7016445    -0.1613879     6.9157095    
C      1.6754769    -1.4495615     7.4110991    
C      1.3184800    -2.3473722     5.2436041    
C     -2.2801690    -1.6677575     4.8850763    
C     -3.0495589     0.5902899     4.0882150    
C     -1.8681445    -0.3708179     4.1969763    
N     -0.1373724    -1.4993480     2.8171050    
F      1.8429881    -1.6413414     8.7518613    
S     -0.0692396    -2.6707621     1.6564558    
O      1.1335646    -3.4446100     1.9002829    
O     -1.3166146    -3.4049430     1.7000358    
C      0.0621960    -1.8669100     0.0852700    
C      1.3047747    -1.4441384    -0.3891800    
C      1.3608639    -0.7809306    -1.5866538    
C      0.1541327    -0.5511688    -2.2936411    
N     -1.0333908    -0.9711445    -1.8216256    
C     -1.0659498    -1.6081251    -0.6702862    
N      0.1629148     0.0850874    -3.4708719    
C     -1.0272376     0.3334768    -4.2579493    
C     -1.7260195     1.6337702    -3.8312855    
C     -0.9115366     2.8578915    -4.2429174    
N     -0.6890617     2.8143959    -5.6730445    
C      0.0773573     1.6663357    -6.1066640    
C     -0.6821057     0.3876248    -5.7487333    
S     -0.4155029     4.2404544    -6.4390485    
O     -0.3926354     3.9721153    -7.8627664    
O     -1.4195891     5.1800890    -5.9839192    
C      1.2062934     4.8515816    -5.9461269    
H     -1.1064997     0.2759505     2.2705365    
H     -2.0674886    -1.2226402     2.2284736    
H      1.9073363    -1.4208138     2.7013823    
H      1.1296519     0.1672609     2.9513109    
H      1.4785011    -3.5424892     7.0275555    
H      1.5383785     1.0250408     5.1513663    
H      1.8531202     0.6695934     7.5845122    
H      1.1746804    -3.1837697     4.5749825    
H     -2.6142730    -1.4723089     5.9003510    
H     -1.4399714    -2.3571280     4.9191365    
H     -3.0862360    -2.1480959     4.3349435    
H     -2.7455596     1.5244267     3.6237194    
H     -3.4442400     0.8074218     5.0764663    
H     -3.8417146     0.1472963     3.4898280    
H     -1.0772859     0.1003891     4.7870339    
H      2.1895964    -1.6670618     0.1854183    
H      2.3001992    -0.4458950    -1.9933097    
H     -2.0333089    -1.9449003    -0.3258055    
H      1.0437330     0.4299540    -3.8177516    
H     -1.7061871    -0.5004665    -4.0595590    
H     -1.8694098     1.6285410    -2.7522954    
H     -2.7006286     1.6788851    -4.3133445    
H      0.0424678     2.8753554    -3.6993607    
H     -1.4601347     3.7776016    -4.0389663    
H      1.0716954     1.6700088    -5.6400489    
H      0.1940552     1.7561100    -7.1865965    
H     -1.6114747     0.3663098    -6.3151984    
H     -0.0861634    -0.4798469    -6.0289225    
H      1.3411318     5.8038068    -6.4397233    
H      1.9454514     4.1377187    -6.2810539    
H      1.2030736     4.9732705    -4.8721458    
