65

C      8.0530614    -0.3904187     1.6074153    
C      1.6218122    -3.2867830    -1.8575840    
C      0.2451730    -2.7094457    -1.5229050    
C      7.7328668    -1.7158413     0.9192578    
C      2.7308314    -2.2367834    -1.8578190    
C     -0.3096522    -1.8080970    -2.6247914    
C     -6.7160495     2.4222498     1.4687812    
C      7.2989725    -1.5204168    -0.5312589    
C      4.1091304    -2.8219548    -2.1913165    
C     -1.7727841    -1.4218641    -2.4063539    
C      7.0787397    -2.8520334    -1.2639486    
C      4.6846199    -3.6208059    -1.0613469    
C     -1.9801702    -0.4792328    -1.2227574    
C      5.9499058    -3.6404788    -0.6688874    
C     -3.4336314    -0.0221335    -1.1263344    
C     -3.6593513     0.9243457     0.0512312    
C     -7.8254486     4.5573008     2.2083102    
C     -6.4816105     3.8747896     1.8964405    
O     -5.7134274     1.7116667    -0.9454903    
C     -5.0482820     1.5052449     0.0445620    
O     -5.4625818     1.7636434     1.2849977    
O     -5.8239750     4.5311392     0.8297681    
O     -8.6955177     4.5362904     1.1050057    
C      8.4745345    -0.5897315     3.0612765    
C      8.8181856     0.7286385     3.7442086    
H      7.1745796     0.2569050     1.5713329    
H      8.8570215     0.1134281     1.0656151    
H      1.5811576    -3.7659371    -2.8386723    
H      1.8575658    -4.0601080    -1.1243463    
H      0.3110267    -2.1538941    -0.5865913    
H     -0.4510965    -3.5376937    -1.3703588    
H      6.9379773    -2.2225808     1.4699968    
H      8.6181936    -2.3563059     0.9470531    
H      2.7748667    -1.7523411    -0.8800756    
H      2.4961415    -1.4719377    -2.5989005    
H     -0.2293759    -2.3351814    -3.5776875    
H      0.2879607    -0.8989528    -2.6968379    
H     -7.2780664     2.3945585     0.5318727    
H     -7.2468094     1.8808773     2.2511587    
H      8.0664147    -0.9497992    -1.0605553    
H      6.3737413    -0.9402787    -0.5567837    
H      4.7848963    -2.0072997    -2.4533910    
H      4.0109997    -3.4698582    -3.0698134    
H     -2.3677220    -2.3253238    -2.2582008    
H     -2.1433227    -0.9303935    -3.3086658    
H      7.9952891    -3.4417793    -1.2012568    
H      6.8827677    -2.6489806    -2.3170433    
H      3.9738589    -4.2467509    -0.5387555    
H     -1.3348445     0.3924927    -1.3431186    
H     -1.7001428    -0.9808401    -0.2966345    
H      6.2207973    -4.2667594     0.1716652    
H     -4.0847539    -0.8921644    -1.0202195    
H     -3.7237685     0.4912444    -2.0453559    
H     -2.9677626     1.7683011    -0.0212232    
H     -3.4909756     0.4306708     1.0077195    
H     -7.6388865     5.5933486     2.5261056    
H     -8.3353503     4.0288273     3.0152874    
H     -5.8512182     3.8750550     2.7954411    
H     -5.4889639     5.3873630     1.1317196    
H     -8.2065869     4.8506654     0.3287157    
H      9.3427856    -1.2506974     3.0943617    
H      7.6651903    -1.0804204     3.6043276    
H      9.1138315     0.5586062     4.7759335    
H      7.9609866     1.3966023     3.7379875    
H      9.6387257     1.2210181     3.2291105    
