139

N      2.0042776     3.3679381     1.2240464    
C      0.8309161     3.0346936     0.4006411    
C     -0.3908553     3.8032649     0.9364845    
O     -0.4210949     4.1090058     2.1279687    
C      0.4058806     1.5906747     0.6587738    
S      1.1504759     0.3734818    -0.5210263    
N     -1.4024667     3.9864818     0.0963013    
C     -2.7551922     4.1282709     0.6244159    
C     -3.0011188     2.9120630     1.5231652    
O     -2.6756513     1.7876545     1.1401283    
C     -3.6570310     4.0990111    -0.6187825    
C     -2.7072686     4.4519710    -1.7631988    
C     -1.3993387     3.7857629    -1.3443078    
N     -3.5937534     3.1395594     2.6936384    
C     -3.6460622     2.1601560     3.7687474    
C     -3.5977400     0.7140796     3.2620564    
O     -2.6871372    -0.0375453     3.5971298    
C     -4.8913082     2.3923597     4.6217473    
N     -4.6491789     0.3075402     2.5319344    
C     -4.8806105    -1.0831005     2.2251614    
C     -4.6712640    -1.4513801     0.7532901    
O     -5.1807652    -2.4587009     0.2721807    
C     -6.2792114    -1.5101577     2.6986280    
C     -6.4060555    -1.3544315     4.1867168    
C     -5.7305879    -2.2150282     5.0421549    
C     -7.1613369    -0.3291081     4.7412825    
C     -5.8006336    -2.0581893     6.4134524    
C     -7.2423131    -0.1620990     6.1098134    
C     -6.5564580    -1.0254340     6.9584531    
O     -6.6563255    -0.8191365     8.2981539    
N     -3.9400956    -0.5920463     0.0273289    
C     -3.5105458    -0.9908095    -1.2936996    
C     -2.6619461    -2.2689667    -1.2432121    
O     -2.1879241    -2.7195560    -0.1963905    
C     -2.6862087     0.1380155    -1.9506949    
O     -2.3623739    -0.1458842    -3.2830989    
N     -2.4538859    -2.8045331    -2.4489990    
C     -1.5924950    -3.9304698    -2.7179381    
C     -0.2082633    -3.5225069    -3.2601014    
O      0.6331620    -4.3887277    -3.4933303    
C     -2.2596474    -4.8809624    -3.7097460    
N     -0.0277681    -2.2270851    -3.5238452    
C      1.2782813    -1.6959257    -3.8632403    
C      2.2986245    -2.1249482    -2.8023201    
O      1.9781176    -2.6209496    -1.7225098    
C      1.1569413    -0.1713130    -4.0156488    
C      2.4555634     0.5179922    -4.3298535    
C      3.0876348     0.3424900    -5.5577512    
C      3.0277893     1.3767298    -3.3998780    
C      4.2549997     1.0180020    -5.8577829    
C      4.1948669     2.0605571    -3.6936482    
C      4.8129837     1.8927279    -4.9285264    
O      5.9512938     2.5519996    -5.2684148    
N      3.5784301    -1.9216611    -3.1421240    
C      4.6658420    -2.5052979    -2.3828816    
C      4.8048541    -1.9068630    -0.9838098    
O      5.2937588    -2.5769078    -0.0685546    
C      5.9778972    -2.3967349    -3.1714423    
C      6.4785068    -0.9572472    -3.3798266    
C      7.4787962    -0.5651029    -2.2935801    
C      7.1263610    -0.8180347    -4.7571162    
N      4.4422639    -0.6335647    -0.8346005    
C      4.6085185     0.0967696     0.4090560    
C      3.4267287    -0.1199514     1.3614318    
O      2.9170741     0.8085872     1.9795065    
C      4.7902687     1.5731858     0.0849674    
N      2.9812388    -1.3807008     1.4089863    
C      1.7699312    -1.8070685     2.0522664    
C      2.0190841    -3.0630297     2.9635401    
O      3.0345456    -3.7287604     2.7042744    
C      0.7811084    -2.3495678     1.0322458    
S      0.0035192    -1.2169323    -0.1174577    
O      1.1405021    -3.3009406     3.8096557    
H      2.5365317     2.5025858     1.4520349    
H      1.6325833     3.7519572     2.1114866    
H      2.6192123     4.0541377     0.7785448    
H      1.0297553     3.1731186    -0.6590527    
H     -0.6675426     1.4476259     0.5561847    
H      0.6899410     1.2863634     1.6641405    
H     -2.8424301     5.0555285     1.1951639    
H     -4.4884011     4.7919386    -0.5293692    
H     -4.0508726     3.0905854    -0.7491624    
H     -2.5766210     5.5320465    -1.8129083    
H     -3.0672510     4.0978314    -2.7236669    
H     -1.3925621     2.7208392    -1.5862431    
H     -0.5352635     4.2694551    -1.7934942    
H     -3.7682453     4.0924292     2.9849205    
H     -2.7454843     2.2699788     4.3904250    
H     -4.9809799     1.6039459     5.3643104    
H     -5.7885259     2.3931997     4.0112428    
H     -4.8104789     3.3446729     5.1377087    
H     -5.3855110     0.9585449     2.3035099    
H     -4.1144756    -1.6525807     2.7733600    
H     -6.4186609    -2.5510256     2.4010668    
H     -7.0262062    -0.9054759     2.1829557    
H     -5.1374876    -3.0210770     4.6313915    
H     -7.7046543     0.3440513     4.0966427    
H     -5.2649877    -2.7408776     7.0578593    
H     -7.8277225     0.6313104     6.5451463    
H     -6.1416564    -1.4767136     8.7883426    
H     -3.3940316     0.1183209     0.5086326    
H     -4.4080911    -1.2220203    -1.8805699    
H     -1.7445943     0.2265748    -1.4010455    
H     -3.2499782     1.0688369    -1.8573410    
H     -3.0788433     0.1423908    -3.8680259    
H     -2.8329036    -2.3288278    -3.2595651    
H     -1.4067401    -4.4442930    -1.7650218    
H     -1.5797259    -5.7014799    -3.9217350    
H     -2.4763951    -4.3557086    -4.6353243    
H     -3.1784913    -5.2778080    -3.2884340    
H     -0.7229223    -1.5499563    -3.2271091    
H      1.6005152    -2.1659097    -4.8009325    
H      0.7542150     0.2302260    -3.0869416    
H      0.4430004     0.0079475    -4.8202128    
H      2.6546228    -0.3138697    -6.2981847    
H      2.5330746     1.5064970    -2.4486596    
H      4.7420452     0.8952735    -6.8122529    
H      4.6252194     2.7329949    -2.9684764    
H      6.1753665     3.2069499    -4.5899035    
H      3.7965369    -1.5408993    -4.0543311    
H      4.4415465    -3.5693210    -2.2072949    
H      5.8095070    -2.8799781    -4.1354538    
H      6.7317798    -2.9807920    -2.6410156    
H      5.6245950    -0.2767010    -3.3343357    
H      7.7225381     0.4905250    -2.3607804    
H      8.3987603    -1.1349594    -2.4073982    
H      7.0819527    -0.7746973    -1.3041537    
H      6.4168079    -1.0601985    -5.5440052    
H      7.9793446    -1.4871219    -4.8449201    
H      7.4705530     0.2004442    -4.9121735    
H      3.9394354    -0.1549031    -1.5738061    
H      5.4874754    -0.3262425     0.9149728    
H      4.9464025     2.1220206     1.0064188    
H      3.9017834     1.9208586    -0.4315163    
H      5.6632004     1.6880444    -0.5484224    
H      3.5738814    -2.1455477     1.1033952    
H      1.3372868    -0.9991021     2.6513439    
H     -0.0824795    -2.7888113     1.5445282    
H      1.2661366    -3.1264804     0.4298908    
