52

C      2.2452336     0.7773873    -0.6597869    
C      3.4441072     1.1410465    -1.2655841    
C      3.3449523     2.1620595    -2.1990177    
N      2.2069046     2.7578207    -2.4977087    
N      1.0872363     1.3632203    -0.9354505    
C     -3.3421589     1.2855639     1.0688056    
C     -2.9835211     2.0745008    -0.1543487    
C     -1.6649024     2.1488132    -0.5807893    
C     -3.9687496     2.7280270    -0.8806484    
C     -3.6545065     3.4617093    -2.0183399    
C     -4.7315117     4.1864626    -2.7677639    
C     -2.3340861     3.5257646    -2.4323644    
C     -1.3321969     2.8660650    -1.7226466    
N     -0.0243099     2.9870407    -2.1929248    
C      1.1053753     2.3417591    -1.8445655    
N      2.1932785    -0.2390298     0.2818136    
C      1.0905672    -0.6765500     0.9400715    
N      3.2912149    -0.9111710     0.6613972    
C      2.9049638    -1.7825505     1.5668558    
C      3.8518553    -2.7189233     2.2235312    
C      1.5009398    -1.6746395     1.7877804    
C      0.6719816    -2.4702528     2.7372729    
N      0.4345117    -3.8362487     2.2183165    
C     -0.4485540    -3.9253210     1.0200184    
C     -0.5149067    -4.6695826     3.0091902    
C     -1.4883472    -4.7527850     1.8198220    
O     -2.6856753    -4.0966978     2.1020125    
H      4.3687754     0.6544412    -1.0185110    
H      4.2128602     2.5204207    -2.7355799    
H     -2.4686083     1.1258954     1.6945980    
H     -3.7508400     0.3183659     0.7788826    
H     -4.1006579     1.8056001     1.6487401    
H     -0.8819352     1.6659178    -0.0245415    
H     -4.9972221     2.6761580    -0.5535821    
H     -4.3695195     4.5402312    -3.7294866    
H     -5.0711823     5.0468586    -2.1918267    
H     -5.5886296     3.5366450    -2.9311570    
H     -2.0762738     4.0952441    -3.3137405    
H      0.1160918     3.6618332    -2.9339542    
H      0.1334405    -0.2374540     0.7526999    
H      3.6964855    -2.7276741     3.2991697    
H      4.8698750    -2.4048814     2.0154042    
H      3.7302987    -3.7292700     1.8375794    
H     -0.2966706    -1.9888911     2.8814427    
H      1.1808880    -2.5576726     3.6998744    
H      1.3445283    -4.2822258     2.0795037    
H      0.0136091    -4.4344331     0.1792633    
H     -0.8104503    -2.9464676     0.7119147    
H     -0.9409884    -4.1284107     3.8516195    
H     -0.0940421    -5.6132801     3.3418239    
H     -1.6571522    -5.7610246     1.4357234    
H     -3.3331502    -4.2313465     1.3992122    
