36

O      0.0144142    -0.7841802    -5.0748510    
C     -0.0356264    -0.3527429    -3.9241471    
C     -0.3258878     1.0176374    -3.5543242    
N     -0.5820906     2.0383661    -4.3546184    
C     -0.7856471     3.0966602    -3.5459234    
C     -0.6568666     2.7391132    -2.2241930    
N     -0.3642920     1.4163311    -2.2282794    
C     -0.1271338     0.5177827    -1.2284221    
N      0.1943993    -1.1916463    -2.8602236    
C      0.1530945    -0.7747369    -1.5577665    
C      0.3669132    -1.5351371    -0.3436264    
C      0.6489323    -2.8782128    -0.1472381    
C      0.7645591    -3.3351896     1.1551278    
C      0.5974126    -2.4752560     2.2280552    
C      0.3258152    -1.1177436     2.0443195    
C      0.2168217    -0.6531047     0.7426676    
C     -0.1114019     0.7297420     0.2488729    
C      0.1401518    -0.2402633     3.2153189    
C     -0.7922391    -0.5815121     4.1907436    
C     -0.9766977     0.2260100     5.2982583    
C     -0.2238976     1.3785162     5.4510070    
C      0.7152869     1.7185317     4.4914689    
C      0.8948302     0.9170368     3.3785464    
H     -1.0136765     4.0579157    -3.9594557    
H     -0.7488430     3.3080308    -1.3237074    
H      0.4006027    -2.1588659    -3.0779062    
H      0.7691010    -3.5527333    -0.9800645    
H      0.9818512    -4.3760244     1.3384695    
H      0.6894257    -2.8539411     3.2347772    
H     -1.0737948     1.0734520     0.6328089    
H      0.6394007     1.4644034     0.5423583    
H     -1.3821543    -1.4778118     4.0684321    
H     -1.7076166    -0.0451792     6.0452330    
H     -0.3654392     2.0067096     6.3172424    
H      1.3116479     2.6104547     4.6124328    
H      1.6460992     1.1729372     2.6468858    
