75

C     -0.4125218    -1.3062538    -1.0111434    
C      0.1122218    -2.6231050    -0.4193443    
C      0.0314905    -3.6834931    -1.5264604    
C     -1.4224885    -3.7925783    -2.0199872    
C     -1.8606494    -2.4010636    -2.5240978    
C     -3.3351220    -2.3823405    -2.9544671    
N      1.6690920    -6.7357598    -1.2099270    
C      0.0093087     7.8255065     2.1185610    
C     -0.8094962     8.9360309     2.3180628    
C     -0.4588197     9.8486001     3.2882609    
C     -0.4364454     1.4233218    -0.7819698    
S     -0.4480148    -0.0398773     0.3015207    
O     -1.7182276    -1.4180998    -1.5049037    
O      0.7542339     1.3735129    -1.5094627    
C      0.8841134     2.4371771    -2.4394654    
C      2.1544703     2.1634898    -3.2455527    
O     -3.6632804    -1.2385226    -3.6968474    
O      1.8487164     1.1734148    -4.1996492    
C      0.8955013     3.7911741    -1.6980938    
O     -2.1999531    -4.2551299    -0.9454563    
O      1.9490314     3.8979155    -0.7780101    
C     -0.4265774     3.8964313    -0.9112136    
C     -0.5393278     2.7019501     0.0617349    
O     -1.6880555     2.7508237     0.8479122    
O      1.4472593    -2.5251905    -0.0158328    
N     -0.5297535     5.1439306    -0.2078255    
C      0.1941321     5.6047148     0.8293489    
C     -0.3495409     6.8507892     1.1039014    
N     -1.3594525     7.0513913     0.2187590    
N     -1.4558081     6.0366575    -0.5522343    
N      0.5242485    -4.9538744    -1.0743653    
N      1.4014067    -5.6361501    -1.8043767    
C      0.9628566    -6.8060897    -0.0522636    
C      0.2135359    -5.6429143     0.0394189    
C      0.6705200     9.7114892     4.0729636    
C      1.4780659     8.6050206     3.8641407    
C      1.1546873     7.6698236     2.8986079    
C      1.0504421    -7.9405094     0.8497898    
C      1.8553780    -9.0305491     0.5198481    
C      1.9499542    -10.1180275     1.3670418    
C      1.2447176    -10.1437461     2.5601154    
C      0.4533605    -9.0546150     2.8691013    
C      0.3369553    -7.9540906     2.0474420    
F     -1.2636687     10.9354284     3.4865664    
F     -0.2483195    -9.0654827     4.0431276    
H      0.2835374    -0.9507156    -1.7861900    
H     -0.5455912    -2.9126931     0.4129165    
H      0.6874604    -3.3898638    -2.3518997    
H     -1.4561283    -4.4972347    -2.8621402    
H     -1.2270765    -2.1280205    -3.3820913    
H     -3.9612698    -2.4555876    -2.0582304    
H     -3.5256337    -3.2281286    -3.6177413    
H     -1.6970633     9.0708167     1.7226701    
H     -1.3085095     1.3389902    -1.4512774    
H      0.0298797     2.4224075    -3.1344627    
H      2.9312797     1.8138055    -2.5574379    
H      2.4696891     3.0896068    -3.7426487    
H     -3.5836258    -0.4601630    -3.1292839    
H      2.6563325     0.9120166    -4.6645231    
H      0.9335705     4.6043018    -2.4374776    
H     -3.0671439    -4.5463661    -1.2561451    
H      2.7960316     3.9806306    -1.2366683    
H     -1.2672008     3.8883017    -1.6136919    
H      0.3051228     2.7225611     0.7584206    
H     -2.4847726     2.6531053     0.3046212    
H      1.5380858    -1.8441003     0.6686442    
H      0.9947228     5.0473575     1.2614590    
H     -0.4900847    -5.2863784     0.7579725    
H      0.9013053     10.4527091     4.8203569    
H      2.3661468     8.4760195     4.4617003    
H      1.7946891     6.8162152     2.7441415    
H      2.3996016    -9.0009722    -0.4098557    
H      2.5756934    -10.9549849     1.1020749    
H      1.3008281    -10.9788692     3.2385655    
H     -0.2942166    -7.1318538     2.3406068    
