43

C     -0.1565056    -1.8045146     0.9378736    
C     -0.5258989    -0.6458958     0.3212966    
C      1.7464238     0.0558883     0.2273075    
N      2.1394016    -1.1027500     0.7788607    
N      0.4368483     0.3127688     0.0502545    
C      1.2265776    -2.0070588     1.4601340    
C     -1.9004114    -0.6173831    -0.0570275    
S     -1.4835826    -2.8979869     1.0894098    
C     -2.5191727    -1.7828301     0.2994195    
N      2.6368914     0.9358874    -0.2087757    
O      1.3348295    -1.7006080     2.8365970    
C     -2.5632536     0.4991309    -0.7271032    
N     -2.8439021     2.8678802    -0.9636297    
C      3.5571968    -1.4280644     0.9287034    
C     -2.2924998     1.8222813    -0.3740953    
C      2.3571021     2.2162262    -0.8522784    
C     -3.7175498     2.6544670    -1.9333370    
C     -3.5021816     0.2888500    -1.7379852    
C      4.1574677    -1.9234693    -0.3832590    
C      1.9874007     3.2747376     0.1871849    
C      3.6021152     2.6204477    -1.6329803    
C     -4.0914511     1.3821848    -2.3465919    
H      0.1514013     1.1582297    -0.4248157    
H      1.5632148    -3.0383001     1.2738495    
H     -3.5505896    -2.0402236     0.1652965    
H      3.6092930     0.7884245     0.0212077    
H      0.8864346    -2.3648598     3.3766425    
H      3.6278377    -2.2063283     1.6874240    
H      4.1026530    -0.5662297     1.3190117    
H     -1.6303759     2.0599525     0.4477305    
H      1.5328625     2.0843982    -1.5615208    
H     -4.1361759     3.5397182    -2.3912418    
H     -3.7510433    -0.7152779    -2.0466692    
H      5.2062539    -2.1610305    -0.2332828    
H      4.0794042    -1.1783211    -1.1688910    
H      3.6488469    -2.8240651    -0.7163534    
H      1.7216063     4.2024280    -0.3102491    
H      2.8312764     3.4695331     0.8435046    
H      1.1449579     2.9608197     0.7973175    
H      3.4169162     3.5451439    -2.1704160    
H      3.8697430     1.8551961    -2.3563513    
H      4.4408368     2.7844115    -0.9610741    
H     -4.8200212     1.2550205    -3.1309312    
