34

C      0.3523947    -4.3006444     3.4761527    
C      0.0099591    -3.6658815     4.6582990    
C      0.1442309    -3.6723962     2.2599320    
C     -0.5410836    -2.3954255     4.6264695    
C      1.1462331     2.7717701    -4.2847361    
C      1.7870440     2.0767001    -3.2311076    
C     -0.4104706    -2.4006274     2.1956071    
C     -0.7356551    -1.7926549     3.4011232    
C     -0.1716787     3.0135661    -4.0597688    
C      0.9521913     1.7946754    -2.1983634    
C     -1.1676033     3.6889329    -4.9293874    
C     -0.6389289    -1.6953229     0.8858103    
C      1.2449553     1.1074250    -0.9069541    
C      0.4492121    -0.6433432     0.6580464    
N      0.2554967     0.0318519    -0.6428210    
F     -1.2748051    -0.5364316     3.3668179    
S     -0.6570135     2.3976317    -2.5198308    
H      0.7801823    -5.2903916     3.5036905    
H      0.1684619    -4.1553331     5.6066275    
H      0.4078472    -4.1812057     1.3459667    
H     -0.8189759    -1.8760520     5.5294410    
H      1.6479951     3.0816826    -5.1840256    
H      2.8280566     1.8098452    -3.2540536    
H     -1.6509703     4.5118998    -4.4012095    
H     -1.9463783     2.9906743    -5.2404907    
H     -0.6794358     4.0837407    -5.8173934    
H     -1.6178704    -1.2134016     0.9144426    
H     -0.6284122    -2.4352048     0.0864844    
H      1.1927702     1.8238623    -0.0822328    
H      2.2489019     0.6818899    -0.9398852    
H      1.4324524    -1.1155120     0.6733437    
H      0.4092628     0.1033785     1.4517915    
H      0.2976255    -0.6602746    -1.4018113    
H     -0.6846249     0.4502370    -0.6766350    
