89

N     -1.7573263    -6.1877242     4.8115454    
C     -2.5396760    -5.0900487     4.2084334    
C     -3.5847379    -5.7799684     3.3058606    
O     -3.3086051    -6.9104616     2.8972665    
C     -1.6258726    -4.2517561     3.2833598    
O     -2.4337560    -3.4280001     2.4694535    
N     -4.6863125    -5.1208522     2.9872638    
C     -5.5846919    -5.6391949     1.9734904    
C     -5.0235949    -5.5038038     0.5502977    
O     -5.6049436    -6.0314411    -0.3911773    
C     -6.8536162    -4.7988504     2.1360176    
C     -6.3021191    -3.4555257     2.6082669    
C     -5.1595193    -3.8548787     3.5382329    
N     -3.9077914    -4.7786361     0.4207208    
C     -3.2089739    -4.6605740    -0.8362061    
C     -2.5426148    -3.3090694    -1.0361081    
O     -1.5682661    -3.1803245    -1.7684035    
N     -3.0813468    -2.2839042    -0.3637103    
C     -2.4824061    -0.9662523    -0.4000773    
C     -1.0649646    -1.0360863     0.1691905    
O     -0.7853626    -1.7594057     1.1263886    
C     -3.3101951     0.0056364     0.4444855    
C     -2.8022894     1.4368142     0.3740942    
C     -3.7516141     2.4399459     1.1013518    
O     -4.8595335     2.0204662     1.4821913    
O     -3.3134174     3.5999510     1.2386011    
N     -0.1747041    -0.2481981    -0.4159105    
C      1.1428652     0.0129220     0.1096726    
C      1.5483006     1.4061500    -0.3572382    
O      0.8782674     1.9948466    -1.2095361    
N      2.6201179     1.9467787     0.2122426    
C      3.1263215     3.2177601    -0.2903717    
C      3.4968035     3.0305902    -1.7648076    
O      3.9365365     1.9683288    -2.1872206    
C      4.3513275     3.4983722     0.5851313    
C      4.8424282     2.0960710     0.9370612    
C      3.5477536     1.3075789     1.1300100    
N      3.2951239     4.1010238    -2.5430186    
C      3.5427626     4.0899485    -3.9628139    
C      4.9160341     4.6611901    -4.3560276    
O      5.3123849     4.5628315    -5.5146009    
C      2.4386063     4.8718520    -4.6833815    
O      2.3669661     6.1580890    -4.1111368    
N      5.5816257     5.2740415    -3.3845881    
C      6.9719783     5.6334246    -3.4279852    
C      7.5645203     5.4063547    -1.9939948    
O      6.7340490     5.1340520    -1.1042710    
O      8.7912276     5.5240061    -1.8668057    
H     -0.7572197    -5.9741980     4.8713672    
H     -1.9122029    -6.9920336     4.1537106    
H     -2.1032403    -6.4510472     5.7402088    
H     -3.0053317    -4.4524564     4.9580123    
H     -1.0367200    -4.9287987     2.6502920    
H     -0.9482498    -3.6346097     3.8810124    
H     -1.8581156    -2.8000472     1.9796487    
H     -5.7636825    -6.7070679     2.1257782    
H     -7.5001046    -5.2374881     2.8957036    
H     -7.4045647    -4.7305893     1.2022552    
H     -7.0510114    -2.8531261     3.1137609    
H     -5.9247042    -2.8841596     1.7583813    
H     -4.3713844    -3.1063752     3.5531065    
H     -5.5374581    -4.0255630     4.5500179    
H     -3.4442451    -4.3610168     1.2314052    
H     -3.9209458    -4.8333589    -1.6509882    
H     -2.4244803    -5.4212765    -0.9233626    
H     -3.8864259    -2.4219509     0.2279301    
H     -2.4284157    -0.6195813    -1.4383912    
H     -3.3052081    -0.3153282     1.4878771    
H     -4.3457335     0.0040957     0.0991046    
H     -2.7297002     1.7835520    -0.6599897    
H     -1.8168732     1.5544010     0.8283267    
H     -0.4381841     0.3965234    -1.1552501    
H      1.8632628    -0.7133880    -0.2843657    
H      1.1249823    -0.0568047     1.1996657    
H      2.3492291     3.9832295    -0.2100107    
H      4.0385951     4.0339940     1.4807726    
H      5.1104305     4.0851497     0.0694211    
H      5.4753535     2.0892292     1.8192347    
H      5.4019799     1.6932571     0.0926393    
H      3.6722116     0.2535431     0.8864565    
H      3.1710590     1.4109236     2.1521483    
H      2.9070634     4.9584712    -2.1761556    
H      3.5344057     3.0473767    -4.3012827    
H      1.4857043     4.3412436    -4.5562227    
H      2.6996054     4.9196730    -5.7465846    
H      1.7206054     6.6877810    -4.5978841    
H      5.2687631     5.1847532    -2.4167800    
H      7.1049817     6.6877356    -3.6889494    
H      7.5129597     5.0230525    -4.1540581    
