67

C      3.0231265    -3.0198783     2.7239109    
C      3.4651231    -4.1218275     3.5641669    
C      3.1343871    -1.8041076     0.6423922    
C     -1.5449661    -3.3781038    -1.0347457    
C     -2.2065331    -4.6738031    -1.4759899    
C     -5.1647747     0.7320146     2.4158395    
C      1.6224434    -1.0803676     2.3738096    
C      2.0574161    -2.1093773     3.1726866    
C      2.0664843     3.0636238    -6.6202326    
C      2.2273879     1.8920883    -5.8982405    
N      1.7768539     0.1155556     0.2775373    
C      0.7156126     1.0458916     0.5454996    
C     -0.6476769     0.3754092     0.6808048    
C      0.6518135     2.0046303    -0.6041692    
C     -1.6585538     1.0044325     1.3784256    
C     -2.9354410     0.4492860     1.5306578    
C     -3.1644144    -0.7847868     0.9452759    
C     -2.1574678    -1.4376675     0.2282582    
C     -0.9036337    -0.8557573     0.0920806    
C      2.1543713    -0.8978560     1.0861833    
C      3.5496613    -2.8415982     1.4352609    
O     -3.8128245     1.1755874     2.2565663    
N      3.4320598    -4.0073463     4.8781749    
N      3.8978336    -5.2387412     3.0119010    
F     -1.4114610     2.2314927     1.9439904    
O     -2.5083229    -2.6350133    -0.2913601    
C     -5.7163912     1.4950801     3.6142695    
C     -5.9766260     1.0125232     1.1543426    
N      0.0515198     3.2172872    -0.5524667    
C      0.1807548     3.7760850    -1.7903908    
C      0.8676692     2.8639378    -2.5580660    
N      1.1473601     1.7625378    -1.7896357    
C      1.2756961     2.9463380    -3.9503209    
C      1.8359050     1.8331687    -4.5749767    
C      1.5134884     4.1762297    -6.0076033    
C      1.1205252     4.1219796    -4.6836261    
H      3.5592709    -1.6683656    -0.3402366    
H     -1.2251477    -2.7954439    -1.9070323    
H     -0.6765120    -3.5880582    -0.3991348    
H     -1.5024005    -5.2674851    -2.0482606    
H     -3.0729968    -4.4578266    -2.0935654    
H     -2.5338669    -5.2389659    -0.6089142    
H     -5.1651146    -0.3426181     2.6384113    
H      0.8567567    -0.4141730     2.7362933    
H      1.5986674    -2.2330830     4.1412265    
H      2.3723136     3.1114561    -7.6547873    
H      2.6577707     1.0225611    -6.3726664    
H      2.1220219     0.1473108    -0.6716498    
H      0.9192756     1.6080229     1.4690752    
H     -4.1175245    -1.2795238     1.0182095    
H     -0.1202262    -1.3356650    -0.4658657    
H      4.3236754    -3.4951871     1.0656510    
H      3.7129214    -4.7702074     5.4746655    
H      3.1656711    -3.1392071     5.3105906    
H      3.8723471    -5.3586533     2.0130147    
H      4.2319787    -6.0034887     3.5778606    
H     -6.7460300     1.2045963     3.7931266    
H     -5.6742672     2.5632592     3.4210871    
H     -5.1248765     1.2815907     4.5000851    
H     -6.9952107     0.6635308     1.2896127    
H     -5.5439400     0.5119710     0.2918522    
H     -5.9917493     2.0825348     0.9597816    
H     -0.4120042     3.6303538     0.2418893    
H     -0.2172941     4.7417245    -2.0197432    
H      1.9540689     0.9261007    -4.0036836    
H      1.3881927     5.0921251    -6.5661081    
H      0.6949539     4.9965041    -4.2166165    
