23

O     -2.1824768    -0.6046319     2.0307481    
S     -1.3504836     0.5161891     1.6207600    
O     -2.0538372     1.7291096     1.2486605    
N     -0.3168622     0.9114432     2.8620741    
C     -0.2638769     0.0114160     0.3194048    
C      0.2236737     0.9593619    -0.5561279    
C      1.0930035     0.5694318    -1.5612581    
C      0.0976301    -1.3178727     0.2151608    
C      0.9655483    -1.6976848    -0.7908488    
C      1.4764729    -0.7621214    -1.6915602    
C      2.4317411    -1.2322295    -2.7530659    
C      2.5997922    -0.2934200    -3.9423954    
H     -0.2466311     0.1691498     3.5395677    
H     -0.5639183     1.7886573     3.2912281    
H     -0.0950861     1.9827126    -0.4437029    
H      1.4678555     1.3130117    -2.2442270    
H     -0.3193716    -2.0292342     0.9092204    
H      1.2514712    -2.7340986    -0.8830201    
H      2.0914563    -2.2061081    -3.1104003    
H      3.4059573    -1.3881678    -2.2812661    
H      3.2221659    -0.7700207    -4.6955591    
H      3.0815056     0.6350839    -3.6486264    
H      1.6354033    -0.0647271    -4.3895016    
