31

C     -2.5735398     3.2288950    -0.4492713    
C     -3.9135431     2.9729714    -0.6498669    
C     -4.4221404     1.7548735    -0.2385813    
F     -5.7504910     1.4901347    -0.4367539    
C     -3.6338044     0.7977435     0.3622836    
C     -2.2890742     1.0615669     0.5633200    
C     -1.7493024     2.2777516     0.1556480    
O     -0.4518196     2.6545249     0.3228873    
C      0.4796111     1.7224827     0.8277374    
C      0.7326232     0.5784275    -0.1486157    
O      0.1561246     0.5826375    -1.2386259    
C      1.6501100    -0.4696363     0.2523573    
C      2.3244314    -0.4622113     1.4868063    
C      3.1872201    -1.4680788     1.8344858    
C      3.4200911    -2.5371257     0.9632366    
O      4.2672584    -3.5167203     1.3192535    
C      2.7654763    -2.5695320    -0.2683846    
O      3.0092780    -3.6235201    -1.1040768    
C      1.8864699    -1.5473497    -0.6320427    
O      1.3037433    -1.6668484    -1.8421317    
H     -2.1375858     4.1644997    -0.7582248    
H     -4.5592223     3.6977376    -1.1166198    
H     -4.0634123    -0.1417809     0.6686773    
H     -1.6792262     0.3016987     1.0242379    
H      0.1601645     1.3344872     1.8011349    
H      1.4016197     2.2956618     0.9517122    
H      2.1685320     0.3484326     2.1760268    
H      3.7047041    -1.4633526     2.7787321    
H      4.3176597    -4.1799601     0.6082346    
H      2.4882415    -3.5060637    -1.9145532    
H      0.7144197    -0.8898475    -1.9874809    
