32

F     -1.9491159    -2.0150974     0.0130627    
C     -1.8159912    -1.8907750     1.3429721    
F     -1.2604488    -3.0464240     1.7647960    
F     -3.0708997    -1.8871642     1.8406474    
C     -1.0223260    -0.6867145     1.7446664    
C     -0.5285582     0.1965142     0.7974373    
C     -0.7715494    -0.4519036     3.0928417    
F     -1.2579958    -1.3155635     4.0180788    
C     -0.0373159     0.6432945     3.5036368    
C      0.4584283     1.5128714     2.5508431    
C      0.2259920     1.3017701     1.1901720    
C      0.7386906     2.2375323     0.2040491    
C      0.8949659     3.6306878     0.3716155    
N      1.3214990     4.1985976    -0.7360787    
N      1.4483355     3.2184157    -1.6243240    
C      1.1146734     2.0091110    -1.1229570    
C      1.2276837     0.7841446    -1.9042709    
C      1.7452677    -0.3746328    -1.3241157    
C      1.8582444    -1.5379941    -2.0603335    
C      1.4500022    -1.5257746    -3.3815355    
F      1.5552118    -2.6723919    -4.1120049    
C      0.9411443    -0.3940155    -3.9888676    
C      0.8351934     0.7648886    -3.2421496    
H     -0.7378447     0.0228042    -0.2454702    
H      0.1385018     0.7958979     4.5555740    
H      1.0447187     2.3615416     2.8634537    
H      0.6878012     4.2218207     1.2396704    
H      1.8060765     3.4190910    -2.5463661    
H      2.0673905    -0.3591052    -0.2951406    
H      2.2551460    -2.4421210    -1.6288943    
H      0.6345110    -0.4303399    -5.0211389    
H      0.4204871     1.6508404    -3.6964287    
