55

C      3.9128483    -0.3271435     1.3878863    
C      3.6998535    -0.6519932     2.8718735    
C      2.2771081    -1.1270881     3.1806917    
C      1.2224449    -0.3376576     2.3920592    
C      1.7762431     1.0125329     1.9440934    
C      2.9889915     0.8707790     0.9908480    
C      2.6710664     0.8573950    -0.4818605    
C      1.6926113     0.2083132    -1.0909284    
C      1.3949970     0.2004007    -2.5641407    
C     -0.0338911     0.7382949    -2.7927866    
C     -1.0599846    -0.0627225    -2.0569141    
C     -1.9139563     0.4274389    -1.1738812    
C     -2.9327655    -0.3752057    -0.4251395    
C     -4.3457878    -0.0051687    -0.8868230    
C     -5.4167127    -0.9777681    -0.3215893    
C      3.6692073    -1.5852307     0.5489692    
C      5.3738874     0.0919650     1.1800341    
C      0.6794863     1.9102414     1.3748797    
C      2.3913932     0.9836356    -3.4125189    
C     -2.7922771    -0.1490319     1.0807049    
O     -5.1610009    -2.2010460    -0.3494993    
O     -6.4752905    -0.4639425     0.1049289    
H      3.9203418     0.2407904     3.4600653    
H      4.4084400    -1.4240735     3.1778117    
H      2.0990261    -1.0111258     4.2517976    
H      2.1821030    -2.1893833     2.9529807    
H      0.3382607    -0.1743817     3.0133907    
H      0.8908054    -0.9039833     1.5212940    
H      2.1480703     1.5124409     2.8466588    
H      3.5828290     1.7782653     1.1534211    
H      3.3612636     1.4385537    -1.0778215    
H      0.9882845    -0.3855859    -0.5249538    
H      1.4054676    -0.8483845    -2.8905816    
H     -0.2520905     0.6958034    -3.8638387    
H     -0.0842642     1.7809845    -2.4734034    
H     -1.0686592    -1.1264317    -2.2657518    
H     -1.9247884     1.4889830    -0.9579693    
H     -2.8031720    -1.4436096    -0.6364798    
H     -4.4096448    -0.0760204    -1.9769733    
H     -4.6182224     1.0082697    -0.5844521    
H      4.2599340    -2.4072706     0.9484272    
H      3.9647838    -1.4204112    -0.4847018    
H      2.6257584    -1.8803311     0.5545305    
H      5.6356825     0.9210096     1.8336953    
H      5.5359743     0.3970233     0.1498371    
H      6.0401478    -0.7394112     1.3995424    
H     -0.0303295     2.1677799     2.1594813    
H      0.1316746     1.4166726     0.5772875    
H      1.1077343     2.8290090     0.9799278    
H      3.3971557     0.5944476    -3.2763296    
H      2.3781725     2.0357169    -3.1397696    
H      2.1284092     0.8981738    -4.4642073    
H     -1.8132026    -0.4738590     1.4248895    
H     -3.5590952    -0.7180184     1.6046265    
H     -2.9221065     0.9048282     1.3186058    
