52

C      4.6937306    -1.5446072    -4.1006257    
C      3.1730321    -1.3767976    -4.0806088    
C      2.5315869    -2.6119347    -3.4393994    
C      2.6574364    -1.1876438    -5.5138555    
C      2.8284382    -0.1126555    -3.2904908    
O      3.6669461     0.7072210    -2.9330820    
N      1.5224505     0.0425040    -3.0100218    
C      0.9833972     1.2412012    -2.4161043    
C     -0.0307721     1.8203946    -3.4057918    
O     -0.7770327     1.1074755    -4.0739312    
N     -0.0642811     3.1462452    -3.4850470    
O     -0.9715880     3.7825609    -4.3348719    
C      0.2686947     0.9792599    -1.1024627    
C     -0.3022238     2.0400136    -0.4082238    
C     -0.9763029     1.8235103     0.7773443    
C      0.1601138    -0.3003325    -0.5767174    
C     -0.5019781    -0.5154824     0.6179429    
C     -1.0865827     0.5408193     1.3094941    
C     -1.8044832     0.3079249     2.5719550    
C     -1.2874058    -0.5593300     3.5275244    
C     -3.0127764     0.9532464     2.8303012    
C     -3.6906083     0.7190426     4.0124780    
C     -3.1699050    -0.1425923     4.9615595    
C     -1.9560800    -0.7837599     4.7257727    
C     -1.3775090    -1.6894931     5.7333718    
N     -1.7062285    -1.5013976     7.0389569    
N     -0.6342549    -2.6412643     5.2956882    
O     -0.0891324    -3.4752616     6.3150501    
H      4.9717320    -2.3858721    -4.7291637    
H      5.0673204    -1.7148331    -3.0936809    
H      5.1668419    -0.6437897    -4.4837771    
H      1.4500039    -2.6078078    -3.5425029    
H      2.7841120    -2.6650664    -2.3828456    
H      2.9103823    -3.5065643    -3.9267965    
H      3.1359841    -0.3253291    -5.9740109    
H      1.5808318    -1.0334780    -5.5343816    
H      2.8911668    -2.0687540    -6.1059382    
H      0.8346560    -0.5663954    -3.4290067    
H      1.8208442     1.9300916    -2.2594964    
H      0.5552707     3.8034840    -3.0372117    
H     -1.4883986     3.0650407    -4.7562315    
H     -0.2195972     3.0443101    -0.7930691    
H     -1.4036406     2.6601063     1.3084957    
H      0.6060084    -1.1345269    -1.0945299    
H     -0.5846431    -1.5175843     1.0098527    
H     -0.3449014    -1.0559480     3.3628047    
H     -3.4312393     1.6188896     2.0905997    
H     -4.6346835     1.2089900     4.1964463    
H     -3.7194444    -0.3357490     5.8695039    
H      0.4240018    -4.1300287     5.8164432    
H     -2.0337445    -0.5981620     7.3332656    
H     -1.1888037    -2.0497605     7.7068190    
