62

C      1.4228479     0.6702729    -0.1112627    
C     -2.0390382    -0.7919693    -0.6130751    
C     -0.7072569    -0.4767654    -0.8006311    
C      1.5578733     1.4197551    -1.4424857    
C     -2.7551886    -0.2689470     0.4582229    
C     -2.1020195     0.5980534     1.3233874    
C     -0.7702174     0.9210664     1.1363026    
C     -4.1855922    -0.6660044     0.6982740    
C      0.8048719     3.3780847    -2.6664386    
C     -1.5897560     1.9807861    -5.2592281    
C     -5.3200856     1.2565697    -0.5415369    
C      2.5630347    -2.6146889     5.4780032    
N      3.4583796    -3.5924842     5.2687354    
C      3.9281109    -3.7695588     4.0428768    
C      3.5205466    -2.9634360     2.9333205    
C      2.5675077    -1.9415853     3.1795294    
C      2.0897476    -1.7849637     4.5051384    
C      3.9998869    -3.1218415     1.6180165    
C      3.5628001    -2.3170080     0.6073640    
C      2.6144491    -1.2924811     0.8429048    
C      2.1293814    -1.1249946     2.1283972    
N      2.2131527    -0.5253249    -0.2053664    
N      4.8697259    -4.7393027     3.9073665    
C     -0.0536027     0.3718211     0.0836518    
O      2.0635820     0.8929456    -2.4250811    
N      1.0761348     2.6682185    -1.4278355    
C     -0.4321396     2.8246163    -3.3328749    
C     -0.4578748     2.5425667    -4.6908515    
C     -2.6920373     1.6842591    -4.4815845    
C     -2.6762653     1.9695378    -3.1171669    
C     -1.5464789     2.5474347    -2.5542693    
N     -3.7961415     1.6307286    -2.3517475    
C     -4.0733723     1.9433721    -1.0619744    
O     -3.4129692     2.7137622    -0.3800768    
C     -5.1464685    -0.2622428    -0.4248085    
H      1.7834011     1.3090953     0.7073678    
H     -2.5218222    -1.4678114    -1.3034406    
H     -0.1615937    -0.8942957    -1.6336102    
H     -2.6389147     1.0296557     2.1545864    
H     -0.2843393     1.5956630     1.8278550    
H     -4.5271637    -0.2228968     1.6347764    
H     -4.2265395    -1.7526487     0.8076167    
H      1.6678999     3.2496437    -3.3232796    
H      0.6810193     4.4366690    -2.4328417    
H     -1.6060325     1.7601948    -6.3152961    
H     -6.1497738     1.4770609    -1.2143079    
H     -5.5468583     1.6783791     0.4376534    
H      2.2259216    -2.5312337     6.5048191    
H      1.3640284    -1.0175512     4.7290983    
H      4.7342762    -3.8813905     1.3970422    
H      3.9415571    -2.4475875    -0.3959002    
H      1.3895006    -0.3700411     2.3448336    
H      2.6279902    -0.6793002    -1.1155646    
H      5.0550464    -5.1219913     2.9983861    
H      4.9837132    -5.3446329     4.7022316    
H      0.5821405     2.9776231    -0.6039805    
H      0.4079636     2.7508589    -5.3000455    
H     -3.5634325     1.2300512    -4.9285116    
H     -1.5473325     2.7656079    -1.4991810    
H     -4.4787054     1.0641696    -2.8384152    
H     -6.1223570    -0.7007860    -0.2113292    
H     -4.7917039    -0.6741843    -1.3698823    
