49

C     -4.2127643     2.0403573    -0.8990554    
C      3.3073465     0.5527851     0.4828870    
C      3.7171852     0.4072716     1.7942279    
C     -0.8229751    -0.7636918     0.0112811    
C      2.4872023    -1.6722275     1.9104485    
C     -2.7996500    -0.0296313     1.1192537    
C     -2.8390508     2.2222179    -1.0480111    
C     -1.8178453     0.2150016     0.1717938    
C     -1.7649675     1.4294094    -0.6148613    
C      2.4889246    -0.3977184    -0.1241520    
C      2.1067354    -1.5416165     0.5795939    
C     -0.8303619    -1.8884603     0.7942974    
C      3.2767411    -0.7023160     2.4900845    
C     -0.6281804     2.1136146    -1.1024985    
C     -1.9006660    -2.0528557     1.7213154    
C      2.1098251    -0.1942453    -1.5617158    
C      0.8276271     1.8274432    -0.8883195    
C      1.2759568    -2.6534630    -0.0310770    
C      2.0652297    -3.9594275    -0.0690028    
C     -3.0174079     4.3464578    -2.3640200    
C      1.0849776     1.1943157    -3.2465111    
N     -5.3510133     1.9017845    -0.8030818    
N     -2.8481458    -1.1302140     1.8566092    
N     -0.9961208     3.2109027    -1.7579447    
N     -2.3064774     3.2720666    -1.7316370    
N      1.3795788     0.8935889    -1.8601253    
N     -1.9530172    -3.1460787     2.5122784    
O      2.4836635    -0.9915072    -2.4253902    
O      0.1030709    -2.8892777     0.7486329    
F      3.6422405    -0.8506435     3.7922082    
H      3.6282356     1.4129574    -0.0829350    
H      4.3509298     1.1343627     2.2734455    
H     -0.0863429    -0.6318525    -0.7588187    
H      2.1655728    -2.5207649     2.4920605    
H     -3.5880229     0.6865969     1.3082826    
H      0.9664417     1.4281880     0.1171190    
H      1.3587889     2.7803639    -0.9820757    
H      0.9906208    -2.3986512    -1.0591646    
H      1.4425507    -4.7452932    -0.4861618    
H      2.3787221    -4.2475318     0.9292519    
H      2.9395165    -3.8227354    -0.6984111    
H     -2.2794860     5.0178158    -2.7948011    
H     -3.6239619     4.8805072    -1.6325397    
H     -3.6701913     3.9601011    -3.1472186    
H      1.7480405     0.6023711    -3.8741629    
H      1.2433447     2.2562187    -3.4219593    
H      0.0505465     0.9411519    -3.4849587    
H     -2.7983261    -3.3048817     3.0313753    
H     -1.3509175    -3.9174699     2.2851255    
