19

C     -1.1600749    -0.8435874    -1.9020405    
C     -0.9619829    -1.4596180    -0.6856655    
C     -0.3782496    -0.7161210     0.3446233    
N     -0.0101224     0.5486915     0.2053870    
C     -0.1977511     1.1411964    -0.9610919    
C     -0.7672730     0.4858145    -2.0395345    
Cl    -0.9879705     1.3135593    -3.5485515    
S     -0.1256185    -1.4853467     1.8984497    
C      0.6319989    -0.1560888     2.8723561    
C      2.1077223     0.0110547     2.5395266    
O      2.6409352     0.9623023     3.4353930    
H     -1.6062016    -1.3705265    -2.7297510    
H     -1.2431406    -2.4849722    -0.5124216    
H      0.1214383     2.1710424    -1.0229727    
H      0.5121439    -0.4452923     3.9153716    
H      0.0847862     0.7622691     2.6712675    
H      2.2058798     0.3514438     1.5015767    
H      2.6195755    -0.9549151     2.6499597    
H      3.5646914     1.1329253     3.2086768    
