33

O     -1.3272256     0.6302099    -4.9531023    
C     -1.3894824     1.2161589    -3.6738708    
C     -0.0004094     1.7787228    -3.3751782    
O      0.0588878     2.3365995    -2.0636632    
C      1.1944467     1.8812081    -1.3790776    
N      0.7903134     0.9279844    -0.3559371    
C     -0.4884437     0.8091820     0.1224100    
C     -0.5178734    -0.1165325     1.1203620    
C      0.7997417    -0.6076888     1.3027052    
C      1.4860293    -1.5327866     2.1240034    
N      2.8089038    -1.6808569     1.9605897    
C      3.4261204    -0.9651924     1.0382670    
N      2.9091787    -0.0809660     0.2077352    
C      1.5897326     0.0864535     0.3556045    
N      0.9026211    -2.2842462     3.0635055    
C      2.1205391     1.2452501    -2.4252907    
O      2.9197803     2.2524146    -2.9787426    
C      1.0988113     0.7041188    -3.4407794    
O      1.6876144     0.5649339    -4.6974875    
I     -2.2632205    -0.6463903     2.1549228    
H     -2.2165318     0.3832911    -5.2424870    
H     -1.6476911     0.4674884    -2.9118395    
H     -2.1194114     2.0317269    -3.6359130    
H      0.2352648     2.5680645    -4.1019167    
H      1.6878763     2.7386895    -0.9026167    
H     -1.2775045     1.4048317    -0.2902297    
H      4.4920808    -1.1258734     0.9505719    
H      1.4848031    -2.9071870     3.5966880    
H     -0.0830194    -2.2281327     3.2487578    
H      2.7377878     0.4577787    -1.9796407    
H      3.2387754     1.9386504    -3.8411432    
H      0.7044418    -0.2571861    -3.0786318    
H      0.9981971     0.3378358    -5.3404836    
