62

C      5.5734544     4.0749145     0.8797072    
C     -8.0341808    -3.1745533    -3.4384114    
C     -7.4296198    -3.1407122    -4.6948688    
C      4.2117967     4.1436394     1.1327311    
C      6.3502239     3.1321763     1.5319977    
C     -7.3192749    -2.9629824    -2.2768796    
C     -6.0779216    -2.8897874    -4.8328084    
C      3.6221630     3.2636422     2.0223611    
C      5.7718452     2.2534434     2.4309585    
C      2.4401032     0.1836304     4.7585911    
C      3.5461240     0.5606989     5.5218193    
C     -5.9562802    -2.7105582    -2.3829487    
C     -5.3535157    -2.6770478    -3.6744914    
C      4.4048316     2.3127946     2.6661972    
C      2.6476995     0.7733826     3.5212904    
C     -3.9098072    -2.3029274    -2.0561960    
C      0.6357321     0.1372267    -0.0501852    
C      1.8928928     0.6033837     2.2945636    
C     -0.1573879     0.1738595     1.0643507    
C      0.4525407     0.4115464     2.3678369    
C      3.5328151     2.0429380    -2.9313856    
C      2.8385457     2.8014338    -1.8440179    
C     -2.7927600    -2.2162323    -3.9955608    
C     -1.9324841    -1.9891958    -2.9757837    
C      2.4435466     1.3850542    -2.1368105    
C      2.8140644     0.3095205    -1.1403313    
C     -2.0577795    -1.7901442    -0.4722358    
C     -2.1929739    -0.2979575    -0.1048504    
N      4.3693787     1.3222864     4.8226140    
N     -5.0287374    -2.4721058    -1.3907490    
N      2.5721976     0.5703215     1.1751799    
N     -4.0291259    -2.4104196    -3.4269698    
N      3.8257240     1.4490934     3.6133752    
N     -2.6096724    -2.0583773    -1.7693838    
N      1.9669200     0.3456231     0.0425634    
O     -0.2013545     0.4516480     3.4224090    
O     -1.5028188     0.0123642     1.0903741    
H      6.0264609     4.7620429     0.1829169    
H     -9.0936813    -3.3743680    -3.3753664    
H     -8.0308460    -3.3134484    -5.5742480    
H      3.6081031     4.8959088     0.6483046    
H      7.4112773     3.0835732     1.3444961    
H     -7.7920121    -2.9912519    -1.3091336    
H     -5.6058935    -2.8639317    -5.8013908    
H      2.5646973     3.3198056     2.2357046    
H      6.3626011     1.5265789     2.9627508    
H      1.6088077    -0.4274835     5.0455848    
H      3.7718884     0.3123188     6.5391631    
H      0.2592766    -0.0472330    -1.0418861    
H      4.5486891     1.7247621    -2.7604511    
H      3.3241876     2.3039148    -3.9566599    
H      2.1600212     3.5943425    -2.1164010    
H      3.3843294     2.9858051    -0.9316599    
H     -2.6260730    -2.2525396    -5.0511957    
H     -0.8783665    -1.8152989    -3.0056483    
H      1.4988895     1.2323047    -2.6426760    
H      3.8322130     0.4636858    -0.7833753    
H      2.7369629    -0.6799989    -1.5989951    
H     -2.5931905    -2.3855496     0.2686859    
H     -1.0055882    -2.0817180    -0.4700537    
H     -3.2391087    -0.0667168     0.1058266    
H     -1.8495778     0.3364469    -0.9297231    
