57

O     -4.8498459     0.0556941     0.7268312    
C      3.3002778     1.9662336    -4.6809446    
C      2.0118405     1.5258173    -4.3924781    
C      2.6083670     1.8105903     0.5192833    
N      1.8207319     1.2697849     1.4986728    
C      1.6450238     1.3124233    -3.0813844    
C      2.5468866     1.5395509    -2.0380249    
C      2.1157979     1.3071361    -0.6724205    
C      3.6888309     2.7717400     0.8481671    
F      0.6860915    -1.5126133     5.7978002    
C      0.3053308    -2.4656246     4.9015405    
F      1.2639861    -2.4635994     3.9287855    
C     -1.0622002    -2.1909075     4.3277716    
N     -2.0210788    -2.9757792     4.7903227    
C     -3.2486137    -2.8302005     4.3250642    
C     -3.5891094    -1.9036030     3.3435751    
C     -4.9918783    -1.7821461     2.8106128    
N     -5.0632092    -2.0834245     1.3928236    
C     -4.9997536    -1.1293991     0.4475733    
C     -5.1722310    -1.6200663    -0.9825504    
C     -6.5929239    -1.2596961    -1.4272644    
C     -4.1336521    -0.9556440    -1.8845887    
C     -2.5782726    -1.0838281     2.8558920    
C     -1.2854138    -1.2108032     3.3559510    
C     -0.1944276    -0.3020271     2.8972597    
O      0.4952594     0.3499680     3.6705643    
N     -0.0554182    -0.2529668     1.5508839    
C      0.9086246     0.4792375     0.8834165    
N      1.0449259     0.4806151    -0.4151740    
C      3.8396828     1.9676623    -2.3459906    
C      4.2142115     2.1852757    -3.6567758    
C      3.6868789     2.2320825    -6.0978561    
F      3.1026397     1.3975645    -6.9814712    
F      3.3408471     3.4800650    -6.5123834    
F      5.0105647     2.1412935    -6.3273424    
H      1.3126036     1.3525225    -5.1955479    
H      1.8838131     1.3983058     2.5001948    
H      0.6545978     0.9665149    -2.8382203    
H      3.7755654     3.5247538     0.0694192    
H      4.6456852     2.2590873     0.9489283    
H      3.4669590     3.2627825     1.7928418    
H      0.3413289    -3.4351144     5.4147308    
H     -3.9853732    -3.4903521     4.7590321    
H     -5.3252908    -0.7460644     2.9292530    
H     -5.6624500    -2.4489323     3.3520740    
H     -5.1382302    -3.0521091     1.1246340    
H     -5.0481235    -2.7053640    -1.0198391    
H     -6.7467489    -1.5562756    -2.4611863    
H     -6.7416726    -0.1852515    -1.3458606    
H     -7.3320888    -1.7594379    -0.8057968    
H     -3.1317013    -1.2962683    -1.6343156    
H     -4.1733545     0.1236465    -1.7544045    
H     -4.3316135    -1.1924653    -2.9263233    
H     -2.8080090    -0.3332311     2.1132579    
H     -0.6420526    -0.8164583     0.9503794    
H      4.5645028     2.1094776    -1.5634456    
H      5.2147528     2.5133572    -3.8921472    
