138

N     -6.6527755    -4.7390468     8.7161305    
C     -5.6154567    -4.9686009     7.6965749    
C     -5.0430398    -3.6033062     7.2938011    
O     -5.6790735    -2.5815032     7.5194309    
C     -6.2380329    -5.6047324     6.4449643    
C     -6.6223968    -7.0754095     6.6349174    
C     -8.0184296    -7.3277586     7.2548056    
O     -8.6396327    -8.3272684     6.8701398    
O     -8.4372831    -6.5200952     8.1318126    
N     -3.8221234    -3.6330981     6.7499955    
C     -3.3036863    -2.5020758     6.0142699    
C     -4.0341370    -2.4130413     4.6622468    
O     -4.7462405    -3.3209741     4.2602820    
C     -1.7986423    -2.7084995     5.7955518    
O     -1.6216593    -3.9763840     5.2037987    
N     -3.8541348    -1.2586470     4.0073749    
C     -4.3068863    -1.0944947     2.6345867    
C     -3.3251801    -1.8602435     1.7415845    
O     -2.1277640    -1.5508285     1.7607559    
C     -4.3030698     0.3742248     2.2419243    
C     -4.8793502     0.6007711     0.8132587    
O     -4.9258092    -0.3907379     0.0525942    
O     -5.2547187     1.7500492     0.5366549    
N     -3.7653723    -2.9068402     1.0495485    
C     -2.8344721    -3.6822042     0.2500469    
C     -2.2256674    -2.8817146    -0.8989808    
O     -1.1784891    -3.2648664    -1.4246859    
C     -3.6668650    -4.8645550    -0.2537501    
C     -5.0676552    -4.2701139    -0.3538804    
C     -5.1417385    -3.3387975     0.8546552    
N     -2.9056765    -1.8168912    -1.3215171    
C     -2.3375418    -0.9001562    -2.2963599    
C     -1.3811231     0.0017278    -1.5008726    
O     -1.6873070     1.1111907    -1.0742467    
C     -3.4219963    -0.0929924    -3.0118077    
C     -4.5942721    -0.9690927    -3.4753141    
C     -2.7833748     0.6806398    -4.1633724    
C     -4.1979949    -2.1776010    -4.3169976    
N     -0.2009915    -0.5722249    -1.2477405    
C      0.7466583     0.0532690    -0.3546134    
C      1.3962002     1.2415053    -1.0674586    
O      1.4094483     1.3550747    -2.2892351    
C      1.8048656    -0.9451568     0.1506931    
C      1.1291784    -2.1517139     0.8028928    
C      2.7545630    -1.3782533    -0.9636498    
N      1.9358871     2.1525112    -0.2508193    
C      2.7521598     3.2405085    -0.7642758    
C      3.8865831     2.6177134    -1.5936575    
O      4.4708146     1.6116412    -1.2071255    
C      3.3183711     4.0501169     0.3932438    
N      4.1570231     3.2368417    -2.7427871    
C      5.1655335     2.8078714    -3.6841571    
C      5.8901143     4.0624836    -4.1838310    
O      5.3274807     5.1535493    -4.1664516    
C      4.5130275     2.0887257    -4.8766122    
C      3.9317949     0.7338751    -4.4592093    
C      2.9475754     0.2519746    -5.5069914    
O      3.2994309    -0.2064628    -6.5905650    
N      1.6640232     0.3939488    -5.1669211    
N      7.1285061     3.8564770    -4.6188629    
C      8.0022316     4.8819555    -5.1274045    
C      8.9172297     4.2398232    -6.2274060    
O      8.9688686     2.9946807    -6.2278521    
C      8.9015807     5.4362403    -4.0000430    
C      8.0420800     5.8920793    -2.8606322    
C      7.4997950     7.1690166    -2.8361320    
C      7.6740319     4.9963516    -1.8635418    
C      6.6009610     7.5408660    -1.8546709    
C      6.7729154     5.3531160    -0.8812453    
C      6.2171526     6.6277602    -0.8802918    
O      5.3048421     6.9314547     0.0849753    
O      9.5233150     5.0218270    -6.9764392    
H     -7.4679027    -5.4595375     8.5503572    
H     -7.0080135    -3.7814792     8.5687710    
H     -6.3014039    -4.8213492     9.6706961    
H     -4.8274159    -5.6161781     8.0853919    
H     -5.5315155    -5.5253968     5.6170043    
H     -7.1211105    -5.0295725     6.1573932    
H     -5.8975727    -7.5876518     7.2729301    
H     -6.6271808    -7.5888720     5.6722694    
H     -3.4334431    -4.5181315     6.4464329    
H     -3.4956535    -1.5886250     6.5836370    
H     -1.2912443    -2.6623735     6.7662358    
H     -1.4121493    -1.9159036     5.1437678    
H     -0.6776433    -4.1604409     5.1071816    
H     -3.1677924    -0.5927919     4.3288642    
H     -5.3113396    -1.5142455     2.5625582    
H     -3.2749724     0.7480811     2.2107045    
H     -4.8819503     0.9786349     2.9403920    
H     -1.9887504    -3.9977241     0.8714458    
H     -3.6449470    -5.6644950     0.4848235    
H     -3.2889904    -5.2386281    -1.2021821    
H     -5.8461057    -5.0269879    -0.3285805    
H     -5.1629718    -3.6866748    -1.2696393    
H     -5.7795191    -2.4749482     0.6615760    
H     -5.4813085    -3.8593271     1.7561090    
H     -3.6779853    -1.4338005    -0.7758551    
H     -1.7550120    -1.4954134    -3.0077647    
H     -3.8151721     0.6267535    -2.2813866    
H     -5.2708540    -0.3338646    -4.0500137    
H     -5.1401512    -1.2984970    -2.5887966    
H     -1.9958264     1.3257200    -3.7796461    
H     -3.5276411     1.3006156    -4.6546773    
H     -2.3510087    -0.0011343    -4.8902765    
H     -5.0917272    -2.7158461    -4.6219879    
H     -3.5666593    -2.8565115    -3.7498738    
H     -3.6632725    -1.8676366    -5.2101819    
H     -0.0409850    -1.5274153    -1.5429766    
H      0.1744484     0.4484912     0.4973530    
H      2.3921689    -0.4186274     0.9098284    
H      1.8477654    -2.6958457     1.4079904    
H      0.7320764    -2.8293847     0.0503442    
H      0.2979863    -1.8339103     1.4291119    
H      3.3607641    -0.5388038    -1.2990850    
H      2.2051862    -1.7702811    -1.8158248    
H      3.4216926    -2.1534625    -0.5968842    
H      1.9771701     1.9695337     0.7399497    
H      2.1281514     3.8589060    -1.4175942    
H      3.8922851     4.8923067     0.0186684    
H      3.9748963     3.4206664     0.9899015    
H      2.5091134     4.4246477     1.0132503    
H      3.7108366     4.1111152    -2.9887204    
H      5.8564219     2.1370299    -3.1664848    
H      5.2487029     1.9498732    -5.6701379    
H      3.7181284     2.7300294    -5.2632635    
H      3.4134286     0.8323120    -3.5071046    
H      4.7379170     0.0075676    -4.3580864    
H      0.9471574     0.1189220    -5.8187920    
H      1.4017113     0.7502434    -4.2586753    
H      7.5107067     2.9237484    -4.7497426    
H      7.4072390     5.6904987    -5.5622376    
H      9.4940179     6.2486333    -4.4219404    
H      9.5757082     4.6370179    -3.6828499    
H      7.7723578     7.8733405    -3.6083146    
H      8.0863778     3.9977768    -1.8668811    
H      6.1782781     8.5348920    -1.8631846    
H      6.4765411     4.6472878    -0.1208778    
H      5.0117735     7.8512486    -0.0061408    
