48

C     -0.4136512     0.6504679     1.1096053    
N      0.9067551     0.2505403    -0.7989028    
C     -1.2317455    -0.9876884    -2.1826979    
C     -3.5197842    -1.7800511    -2.6114216    
C     -6.0905000    -3.2139612    -4.7352355    
C     -1.3785839    -0.4866882    -0.9150898    
C      3.4584067     0.2828502    -2.4291186    
C     -1.7013065     1.6055286     2.8941879    
C     -0.7068581     2.1770207     5.1255698    
C     -0.5939186     1.6461552     3.7286965    
C      0.6300707     1.1759043     3.2265198    
N      1.7691802     1.1559464     4.0389293    
S      3.3041498     1.2573006     3.3742766    
C      4.3051841     1.4763782     4.8383223    
O      3.6260019    -0.0023585     2.7419115    
O      3.3932938     2.4201339     2.5117020    
C      0.7098906     0.6905674     1.9320763    
C     -0.2769921     0.1284227    -0.2532486    
N      1.0433543    -0.2434912    -2.0231914    
C      0.0574221    -0.8609493    -2.7672100    
N     -2.2023791    -1.6093039    -2.9365154    
O     -4.1473171    -2.4036228    -3.6036935    
C     -5.5528114    -2.6664437    -3.4279025    
O     -4.0495791    -1.4204707    -1.5822338    
N      0.5523917    -1.2345304    -3.9290653    
N      1.8422312    -0.8710077    -3.9488866    
C      2.1505289    -0.2775697    -2.8215761    
C     -1.6286813     1.1163018     1.6031374    
H     -7.1466180    -3.4340878    -4.6239405    
H     -5.5607700    -4.1226114    -5.0031163    
H     -5.9569646    -2.4841703    -5.5274749    
H     -2.3221239    -0.5773114    -0.4075366    
H      4.2268088    -0.0958178    -3.0949696    
H      3.6772780     0.0119119    -1.3972855    
H      3.4301684     1.3700754    -2.4914977    
H     -2.6467090     1.9722764     3.2637738    
H     -1.7307594     2.4760805     5.3282408    
H     -0.0650847     3.0468378     5.2593666    
H     -0.4200325     1.4150201     5.8471641    
H      1.6824701     1.7407666     4.8580591    
H      5.3393814     1.4038695     4.5272957    
H      4.0538456     0.6742718     5.5179996    
H      4.0990603     2.4535656     5.2530489    
H      1.6547817     0.3333687     1.5580050    
H     -1.9068472    -1.9411280    -3.8486221    
H     -5.6694894    -3.3836649    -2.6090304    
H     -6.0470115    -1.7328006    -3.1409563    
H     -2.5071527     1.1202026     0.9784975    
