45

O     -1.2543434    -3.9017735     0.3129558    
C     -0.2087344     2.2664050     1.0068338    
C      0.5286499     1.3203642    -1.1442270    
C      0.9447420     0.0871087    -1.8104171    
N      2.0000639    -1.2883089    -3.2366520    
C      1.7989939     0.0124603    -2.9006758    
C      2.4656811     1.1284992    -3.6172938    
C      2.8436990    -1.7963273    -4.2852269    
C      1.2609631    -2.0856158    -2.4008063    
C      1.1214857    -3.4681740    -2.3832342    
C      0.2798897    -4.0176568    -1.4458980    
C     -0.4363422    -3.2094346    -0.5452732    
C     -2.0118698    -3.1748387     1.2575470    
C     -0.2999713    -1.8342990    -0.5567953    
O     -0.4091341     3.6782722     3.9352293    
C     -1.4513053     3.1067033     3.6924539    
O     -2.0939236     2.3411806     4.5638134    
C     -1.5489111     2.1596655     5.8747995    
C     -2.1691472     3.1335308     2.3670950    
C     -1.6479238     2.0069693     1.4629607    
N      0.2848352     1.1927456     0.1791034    
O      0.4237280     2.4091169    -1.7202888    
C      0.5757195    -1.2586006    -1.4826791    
H      0.4461547     2.3946319     1.8738076    
H     -0.1663988     3.1751245     0.4014967    
H      2.1162468     2.0693167    -3.2012276    
H      2.2173474     1.1088252    -4.6770212    
H      3.5479913     1.0708546    -3.5083117    
H      3.3462558    -0.9741645    -4.7845824    
H      2.2447365    -2.3453287    -5.0132883    
H      3.5912102    -2.4701973    -3.8646343    
H      1.6474729    -4.0968037    -3.0831638    
H      0.1314031    -5.0836409    -1.3849811    
H     -2.5791351    -3.9229909     1.8067547    
H     -2.6996637    -2.4807163     0.7665789    
H     -1.3622033    -2.6278748     1.9471023    
H     -0.8805247    -1.2131095     0.1053177    
H     -2.2822637     2.5256305     6.5907297    
H     -0.6142251     2.7139288     5.9678343    
H     -1.3794719     1.0948264     6.0196038    
H     -1.9945464     4.0965989     1.8898480    
H     -3.2322193     2.9889682     2.5494274    
H     -1.6991240     1.0588102     2.0026061    
H     -2.2888053     1.9368411     0.5832440    
H      0.4514756     0.3003247     0.6142997    
