53

Cl    -3.0207571     4.4795055     0.5470804    
C     -2.2442384     3.1363633     1.3341374    
C     -0.9633607     3.2985424     1.8313164    
C     -0.3104159     2.2064028     2.3708173    
C     -2.8945066     1.9180692     1.4248122    
C     -2.2275298     0.8365059     1.9718722    
C     -0.9164640     0.9554600     2.4180798    
C     -0.1252785    -0.2401594     2.8649382    
C      0.4736946    -1.0470310     1.6763738    
C     -0.6132694    -1.8660423     0.9545244    
C     -0.0347956    -3.1397833     0.3275998    
C      1.1839347    -0.0295608     0.7717709    
O      2.4127989     0.1252886     0.8854982    
C      0.4166296     0.7701958    -0.1357482    
C      0.9602327     1.8723290    -0.7296361    
O      2.2331405     2.2011251    -0.6526377    
C      0.0220418     2.8589703    -1.4578021    
O      0.3014234     4.0653032    -1.3438468    
O     -0.9479803     2.3486984    -2.0480691    
C      1.5092956    -2.0368950     2.2372641    
C      2.2230138    -2.7938034     1.1115552    
N      1.3611559    -2.9000545    -0.0884023    
C      1.8566503    -3.9202849    -1.0434372    
C      1.1401768    -3.8088681    -2.3649451    
C      0.3538149    -4.8500329    -2.8397006    
C     -0.3068721    -4.7312282    -4.0509588    
C     -0.1957519    -3.5659365    -4.7906183    
C      0.5849811    -2.5213995    -4.3214555    
C      1.2533367    -2.6435126    -3.1166930    
H     -0.4727812     4.2573532     1.7580137    
H      0.6989773     2.3331430     2.7338575    
H     -3.9002756     1.8213930     1.0504669    
H     -2.7387413    -0.1109040     2.0314482    
H     -0.7540833    -0.9086575     3.4524000    
H      0.6974290     0.1033470     3.4932997    
H     -1.0980989    -1.2614356     0.1916495    
H     -1.3775289    -2.1539445     1.6740294    
H     -0.6240196    -3.4259032    -0.5434695    
H     -0.0283463    -3.9661443     1.0386407    
H     -0.6393802     0.6332724    -0.2833327    
H      2.6943084     1.5205166    -0.0691874    
H      0.9933822    -2.7216061     2.9073265    
H      2.2557778    -1.4960319     2.8163814    
H      2.4752687    -3.8017315     1.4413132    
H      3.1374365    -2.2689545     0.8340308    
H      1.3738697    -1.9949646    -0.5736692    
H      1.6995872    -4.9070512    -0.6067672    
H      2.9268338    -3.7586808    -1.1900561    
H      0.2593918    -5.7605243    -2.2686613    
H     -0.9134542    -5.5447847    -4.4170979    
H     -0.7140118    -3.4676223    -5.7323763    
H      0.6726705    -1.6100119    -4.8944829    
H      1.8692481    -1.8224893    -2.7757737    
