65

N      0.9381809     0.5094996     2.5254133    
C     -0.9504806    -0.2063598     3.8728216    
N     -5.2805896     0.9109335     4.7276807    
C     -3.6130497    -0.5503700     4.4634181    
C     -3.0853690     0.7512511     4.2742697    
C      0.5222666    -0.0985586     3.6470681    
C      2.7969424    -0.2303850     1.1046844    
C      0.8829090    -0.2714492    -5.8712119    
C      0.5293812     0.8980281    -6.7991738    
C     -4.2026564     1.6059749     4.4599389    
C      3.7587055    -1.3414105    -1.4467951    
C      1.9104168     1.3000312    -2.2517291    
C      1.5756418    -0.6925214    -3.6579614    
C     -3.3971939    -3.0637655     4.5970639    
C     -2.8186053    -1.7018110     4.3778788    
C     -1.4896123    -1.4900192     4.0887330    
C     -1.7328348     0.9247727     3.9731665    
N     -4.9323156    -0.3835067     4.7297801    
O      1.3114683    -0.5261966     4.4962382    
C      0.1086773     0.8324208     1.3861777    
C      0.4972828    -0.0387929     0.1884385    
C      1.9905370     0.0655439    -0.1621162    
C      2.3549063     0.6661332     2.2607831    
C      2.3309958     1.4284452    -0.7882007    
N      1.9138495    -0.1311211    -2.4968522    
C      2.2998390    -0.9053505    -1.3251055    
O      1.5516974    -1.8984932    -3.8714716    
O      1.2522647     0.2314642    -4.5864337    
C      1.7468480     1.8113268    -6.9539088    
C      0.1321591     0.3244586    -8.1606793    
C     -0.6401895     1.6849678    -6.2045290    
H      3.8604172    -0.0752217     0.9335551    
H      2.6426719    -1.2719125     1.3932437    
H      1.7193548    -0.8544481    -6.2740059    
H      0.0315723    -0.9514494    -5.7515939    
H     -4.2412068     2.6752911     4.4047592    
H      3.8666531    -1.9244852    -2.3588130    
H      4.0436371    -1.9652514    -0.6061183    
H      4.4201204    -0.4824788    -1.5032719    
H      2.5987448     1.8021691    -2.9347917    
H      0.9074342     1.6978669    -2.4309162    
H     -2.6223491    -3.8210856     4.5213071    
H     -4.1654626    -3.2736411     3.8540965    
H     -3.8514695    -3.1276116     5.5843879    
H     -0.8154762    -2.3325036     4.0259690    
H     -1.3169732     1.9115573     3.8408412    
H     -5.6276125    -1.0852762     4.9244457    
H      0.2439792     1.8919597     1.1515448    
H     -0.9383810     0.6617705     1.6317858    
H     -0.1127965     0.2413062    -0.6695188    
H      0.2705962    -1.0781571     0.4361044    
H      2.8907040     0.3998244     3.1735280    
H      2.5474375     1.7155863     2.0239649    
H      1.8176484     2.2542273    -0.3055187    
H      3.4036882     1.6011527    -0.7168952    
H      1.6735900    -1.8027097    -1.2857085    
H      1.5070846     2.6484564    -7.6037085    
H      2.5811538     1.2638866    -7.3863135    
H      2.0505550     2.1959556    -5.9841226    
H     -0.7248378    -0.3375212    -8.0633293    
H      0.9539804    -0.2402671    -8.5940602    
H     -0.1293402     1.1310487    -8.8398944    
H     -0.3730842     2.0650650    -5.2223951    
H     -1.5156327     1.0478888    -6.1037093    
H     -0.8931339     2.5231214    -6.8477051    
