54

C     -0.3856466    -4.3404215     2.3068741    
C      0.0638196    -4.3568759     0.8396193    
O      3.4137412     4.2671311    -2.4906098    
C     -1.0749879    -4.0725741    -0.0871681    
C     -1.9439603    -5.0076980    -0.7265841    
C     -2.8462669    -4.2619141    -1.5101842    
C     -1.4921231    -2.8087054    -0.4922962    
C     -1.0925537    -1.4265705    -0.2566180    
C      0.3100721    -0.0154248     1.2248988    
C     -0.0350810     1.2239949     0.6833694    
C      0.5294328     2.3800429     1.1844988    
C      1.4485063     2.3163407     2.2136032    
C      1.7999761     1.0983117     2.7736079    
C      1.2309016    -0.0578867     2.2800270    
C      1.2697212     3.3317073    -1.8571691    
C      2.1136511     3.9745018    -2.9606774    
C      2.5758482     4.5452038    -0.2352866    
C      3.3793021     5.1505190    -1.3884555    
C     -3.9569971    -4.7123576    -2.3749619    
C     -2.0225803    -6.4628376    -0.6820796    
C     -1.0039099    -7.2569327     0.0924067    
N     -2.5476057    -2.9730526    -1.3606387    
N     -0.2148891    -1.2117252     0.7716615    
N      1.2440737     4.2424093    -0.7266394    
O     -2.9153380    -7.0575548    -1.2817956    
O     -1.5558972    -0.5234780    -0.9547148    
O     -1.1621803     3.7626255    -0.2781921    
O      0.1409330     5.0015838     1.3868821    
S      0.0923411     3.9351793     0.4150573    
F      2.0293410     3.4479145     2.6831114    
H      0.4639084    -4.5183343     2.9602938    
H     -1.1232632    -5.1191149     2.4838691    
H     -0.8471405    -3.3930235     2.5757596    
H      0.4905974    -5.3293794     0.6126952    
H      0.8567809    -3.6251675     0.6754147    
H     -0.7541164     1.3062452    -0.1142108    
H      2.5124453     1.0745445     3.5814691    
H      1.5033189    -1.0060570     2.7160002    
H      1.7138568     2.3688013    -1.5690000    
H      0.2409195     3.1823834    -2.1793945    
H      2.2429706     3.2871976    -3.7961007    
H      1.6254236     4.8960849    -3.3013900    
H      2.4703744     5.2460860     0.5913667    
H      3.0770441     3.6316828     0.1141443    
H      2.9250688     6.1033347    -1.6876801    
H      4.4164423     5.3057774    -1.0935254    
H     -4.3893156    -3.8711571    -2.9101560    
H     -4.7246884    -5.1967948    -1.7729824    
H     -3.6031389    -5.4605269    -3.0817392    
H     -1.2823666    -8.3073777     0.0437320    
H     -0.9716929    -6.9414269     1.1297205    
H     -0.0215338    -7.1340311    -0.3569207    
H     -3.0011332    -2.1839320    -1.8002380    
H      0.0721991    -2.0278563     1.2959627    
