49

C     -0.1899031    -1.5058050     1.1956569    
C     -0.2082969    -1.8812518     2.5243529    
N     -0.8889580    -1.0520445     3.3697174    
C      2.4745940    -3.1430012     1.8650518    
C     -1.3612021     1.2295938    -0.9080404    
C     -1.5040277     1.1822032    -2.4081001    
C     -2.8342458     0.9597842    -3.0473019    
C     -2.1954808     2.3241032    -3.1125786    
C     -1.6593820     2.8660147    -4.3755593    
C     -0.6139042     2.6559247    -6.5188969    
N     -1.0288182    -1.2307008     4.6931695    
C     -1.7523707    -0.1968271     5.1014286    
C     -2.0884854     0.6654873     4.0606978    
N      4.1671215    -2.4722207     0.5480636    
C     -1.5165370     0.0988774     2.9284671    
N     -1.4884093     0.4777351     1.6435070    
O     -0.7822730    -0.0079539    -0.4894062    
C     -0.8448253    -0.3167431     0.8139009    
N      0.3465909    -2.9752693     3.0649520    
C      1.2430013    -3.8506132     2.3403358    
C      3.2353481    -2.2044994     2.5373564    
C     -1.1029783     2.0612281    -5.3711301    
C     -0.6967328     4.0343200    -6.6489509    
C     -1.2787768     4.7471771    -5.6143488    
N     -1.7444249     4.1897044    -4.5088161    
N      4.2293457    -1.8339088     1.7113246    
C      3.1111897    -3.2644721     0.6212899    
C      5.2709959    -0.8816933     1.9799367    
H      0.3226090    -2.0804627     0.4474264    
H     -2.3248055     1.3688628    -0.4104203    
H     -0.6927355     2.0437352    -0.6029390    
H     -0.6333267     0.7557174    -2.8897803    
H     -3.6961977     0.8485618    -2.4087803    
H     -2.8809626     0.3760081    -3.9534871    
H     -2.6174570     3.0961122    -2.4840770    
H     -0.1731374     2.0547377    -7.3002580    
H     -2.0074548    -0.1083040     6.1394550    
H     -2.6609823     1.5663743     4.1115170    
H      0.3069508    -3.0228408     4.0727009    
H      1.5111167    -4.6701034     3.0097220    
H      0.7188826    -4.2713497     1.4763087    
H      3.1327749    -1.7860366     3.5179278    
H     -1.0519938     0.9918330    -5.2479113    
H     -0.3248687     4.5401691    -7.5253094    
H     -1.3816813     5.8228127    -5.6649326    
H      2.8462628    -3.8939663    -0.2054424    
H      4.8407747     0.0424477     2.3726708    
H      5.7884076    -0.6786736     1.0422605    
H      5.9808998    -1.2878684     2.7055592    
