59

C      4.4575713     0.1159115     0.1321176    
C      2.2861633     0.4366618     0.3334445    
C      2.2145320     1.0150032    -0.9399983    
C      3.4159401     1.0943941    -1.6718861    
N      1.0099737     0.4591092     0.8313960    
C      2.5057557    -2.9547358     0.4038806    
C      1.5676379    -2.6345771    -0.2737419    
C      0.4620652    -2.2421821    -1.0670102    
C      0.6707255    -1.5924229    -2.2821430    
C     -0.8374220    -2.4882923    -0.6288935    
C     -1.9044939    -2.0923501    -1.4118852    
C     -1.6913368    -1.4558319    -2.6226537    
C     -0.3994404    -1.1917922    -3.0670817    
C     -0.1500479    -0.4659198    -4.3615259    
C     -1.0035809     0.8017190    -4.4976028    
N     -0.9962670     1.5696110    -3.2702424    
C     -2.1038918     1.7954478    -2.5609747    
O     -3.2411272     1.5429694    -2.9464998    
C     -1.8524245     2.4611132    -1.2167831    
S     -1.4652228     1.2320798     0.0864531    
C      0.2364188     1.0320216    -0.1466756    
N      0.9163849     1.3845753    -1.2074396    
N      3.5066574     1.5960986    -2.9056803    
N      4.5275340     0.6181646    -1.0861275    
N      3.3992360    -0.0084841     0.9166750    
C      0.5938741     0.0453675     2.1368677    
O     -0.6247792    -0.6483953     2.0344841    
C      0.3813221     1.2381423     3.1067100    
O      1.2558012     1.0949603     4.1895727    
C     -1.1014255     1.0913696     3.5481749    
O     -1.3240325     1.4147827     4.8800163    
C     -1.3943613    -0.3823704     3.2015591    
C     -2.8715247    -0.6595067     2.9345108    
N     -3.2061164    -2.0470739     3.0157624    
N     -2.6259812    -2.9850801     2.5899002    
N     -2.2447132    -4.0049984     2.3008251    
H      5.3921222    -0.2348788     0.5476676    
H      3.3267598    -3.2288323     0.9957633    
H      1.6856803    -1.4035667    -2.6050909    
H     -0.9953689    -2.9877887     0.3144113    
H     -2.9139699    -2.2795620    -1.0765876    
H     -2.5411516    -1.1525865    -3.2154255    
H     -0.3766111    -1.1248789    -5.2019131    
H      0.9069033    -0.2016663    -4.4147236    
H     -2.0461432     0.5605926    -4.7152334    
H     -0.6143931     1.4194312    -5.3111378    
H     -0.1068154     1.6518512    -2.7741615    
H     -2.7676681     2.9414689    -0.8759292    
H     -1.0274007     3.1666043    -1.2580370    
H      4.4130550     1.6469653    -3.3384165    
H      2.7036581     2.0251740    -3.3300889    
H      1.3938194    -0.5975481     2.5352627    
H      0.5518072     2.1817015     2.5774523    
H      1.3479006     1.9404711     4.6545717    
H     -1.7420905     1.7442179     2.9509113    
H     -0.6865470     0.9369610     5.4370191    
H     -1.0333348    -1.0196853     4.0242398    
H     -3.1274657    -0.2656295     1.9446309    
H     -3.4691092    -0.1547343     3.6954758    
