78

C     -1.7005162    -4.4725078    -3.6975477    
C     -3.0781968    -4.9479989    -3.2536290    
C     -4.1553406    -4.2794561    -4.1058493    
C     -4.0210758    -2.7637726    -3.9922867    
C     -2.6291396    -2.2786708    -4.4071702    
C     -2.5428964    -0.7568625    -4.3213262    
C     -2.5548370    -0.2399577    -2.8806275    
C     -1.4308250    -0.8871393    -2.0546016    
C     -1.5188872    -2.4290215    -2.1426347    
C     -1.4925445    -2.9473985    -3.6025804    
C     -0.4499477    -3.0896189    -1.2601754    
O     -5.4659527    -4.6269209    -3.6927527    
O      4.7067239     0.3873038     3.4540370    
C      3.5981354     0.8873980     3.6241916    
N      3.4099694     2.2246108     3.6278705    
C      4.4455441     3.0977495     3.0995009    
C      3.8517405     4.1701150     2.2168427    
S      2.5612128     3.4318152     1.1870230    
O      1.3580330     3.3587742     2.0353857    
O      3.0021587     2.1078987     0.7380274    
O      2.3591503     4.3460925     0.0538389    
C      2.3775884     0.0472470     3.9311101    
C      1.2142502     0.4034214     2.9970951    
C      0.1943715    -0.7271694     2.8284804    
C     -0.5795725    -0.9169120     4.1351678    
C     -0.7952570    -0.5169675     1.6630447    
C     -0.4075152    -1.1065097     0.2874465    
C      0.9911034    -0.6585765    -0.1412866    
C     -1.5316623    -0.5075323    -0.5771475    
C     -1.5275467     0.9658980    -0.1714250    
C     -1.1947344     0.9394457     1.3341390    
C     -0.5152329    -2.6277533     0.1968534    
C     -0.1419142    -2.6572725    -4.2752287    
O     -2.5009148     1.1765703    -2.8822680    
H     -1.5660258    -4.7536161    -4.7451908    
H     -0.9325337    -4.9909955    -3.1252910    
H     -3.2544096    -4.7054925    -2.2053233    
H     -3.1364305    -6.0332601    -3.3624555    
H     -4.0174388    -4.5741225    -5.1599148    
H     -4.2501485    -2.4845528    -2.9649701    
H     -4.7731048    -2.2954859    -4.6297246    
H     -2.4960567    -2.5594746    -5.4590948    
H     -3.3809024    -0.3039769    -4.8553110    
H     -1.6236014    -0.4138270    -4.8003300    
H     -3.5187562    -0.4587742    -2.4098663    
H     -0.4753811    -0.5279200    -2.4469483    
H     -2.4906179    -2.6970103    -1.7170424    
H      0.5420668    -2.8793138    -1.6557125    
H     -0.5918927    -4.1700407    -1.2714896    
H     -5.5628027    -5.5884837    -3.7231695    
H      2.4657351     2.5642584     3.4926742    
H      5.1320201     2.4666450     2.5238862    
H      4.9958455     3.5427021     3.9355733    
H      4.5693282     4.6019276     1.5321627    
H      3.3250983     4.9391071     2.7690619    
H      2.1023488     0.2041354     4.9742007    
H      2.6700054    -0.9955284     3.7984231    
H      1.6382237     0.6754040     2.0299709    
H      0.7043404     1.2911382     3.3757836    
H      0.7465818    -1.6509563     2.6226546    
H     -1.2615358    -1.7595179     4.0552442    
H     -1.1543567    -0.0210335     4.3580512    
H      0.1027462    -1.1050963     4.9586717    
H     -1.7152546    -1.0393553     1.9545017    
H      1.2011499    -0.9228211    -1.1730657    
H      1.7460896    -1.1371736     0.4798072    
H      1.1311889     0.4163784    -0.0469423    
H     -2.4748998    -0.9315767    -0.2085123    
H     -2.4801522     1.4518703    -0.3742911    
H     -0.7566272     1.5176726    -0.7121069    
H     -0.3914167     1.6454525     1.5395938    
H     -2.0534728     1.2446817     1.9324866    
H      0.2893162    -3.1028545     0.7612906    
H     -1.4652478    -2.9441762     0.6341660    
H     -0.2130695    -2.8329983    -5.3460297    
H      0.6271163    -3.3140178    -3.8777663    
H      0.1813977    -1.6330048    -4.1228349    
H     -1.6601226     1.4557829    -3.2670266    
