56

C      0.7108902     0.5237824     2.4584534    
C      1.0185324    -0.3365959     3.6871228    
C      1.3523049    -1.7651824     3.2660054    
C      2.9094731    -0.6584161    -1.3462872    
C      1.0565277     0.0851608    -2.8327538    
C     -0.3966864     0.4275699    -2.6708395    
C     -1.1640503     0.7866630    -3.7739348    
C     -2.5010519     1.0889522    -3.5771822    
C     -2.9928857     1.0307652    -2.2860136    
C     -2.1583139     0.6818933    -1.2206099    
C     -2.6367277     0.6224888     0.1719822    
C     -3.3100121     1.6831335     0.7735803    
C     -3.7437087     1.6454006     2.0840629    
C     -3.5127458     0.5051493     2.8353601    
C     -2.8462057    -0.5748892     2.2815516    
C     -2.4139451    -0.4962879     0.9719120    
F     -1.7495196    -1.5517010     0.4482088    
F     -3.5103478     2.8127952     0.0524081    
F     -4.3021027     1.2804867    -2.0615275    
N     -0.8868427     0.3804546    -1.4361250    
O      1.6199342     0.1731410    -3.9173047    
N      1.6003622    -0.3018757    -1.6634423    
C      3.9167718    -0.6893464    -2.3121038    
N      5.1712047    -1.0053284    -2.0490907    
C      5.4813779    -1.3103637    -0.7988964    
C      4.5591315    -1.3196618     0.2348652    
C      3.2334428    -0.9930465    -0.0177513    
C      2.1808553    -0.9633336     1.0629681    
C      2.5421482    -1.7795811     2.3083945    
N      1.6779326    -2.5765364     4.4722041    
C      1.8958367     0.4862638     1.4923203    
C      0.3789589     1.9548301     2.8675658    
H     -0.1605450     0.1105214     1.9435805    
H      0.1528303    -0.3217572     4.3488533    
H      1.8647829     0.1077101     4.2126167    
H      0.4856235    -2.2140477     2.7731023    
H     -0.7084021     0.8140941    -4.7502329    
H     -3.1543443     1.3579279    -4.3910655    
H     -4.2504654     2.5029062     2.4934471    
H     -3.8530892     0.4627927     3.8563135    
H     -2.6660643    -1.4741892     2.8464473    
H      0.9225179    -0.2955949    -0.9033826    
H      3.6934049    -0.4436128    -3.3396803    
H      6.5191726    -1.5586368    -0.6279540    
H      4.8950920    -1.5822411     1.2226148    
H      1.2602716    -1.3915627     0.6493496    
H      2.7880354    -2.7979670     2.0079336    
H      3.4064796    -1.3296793     2.7962289    
H      0.8885664    -2.5864781     5.1288628    
H      2.4915470    -2.1747539     4.9547194    
H      1.9020254    -3.5433953     4.2088679    
H      2.7839348     0.9020559     1.9717052    
H      1.6779289     1.1099517     0.6250815    
H     -0.4679065     1.9741114     3.5489874    
H      0.1196261     2.5495780     1.9947845    
H      1.2275359     2.4270087     3.3558359    
