36

S     -0.6123892    -3.0362487     2.3064011    
N     -1.2629680    -4.2283417     1.3491452    
O     -1.5462597    -2.6927597     3.3676953    
O      0.6909642    -3.5057947     2.7358555    
C     -0.4350598    -1.6676945     1.1960350    
C      0.5799112    -1.7027147     0.2596751    
C      0.7161363    -0.6465788    -0.6224937    
C     -0.1584135     0.4391854    -0.5643866    
C     -1.1805482     0.4437144     0.3835075    
C     -1.3192420    -0.6104699     1.2693616    
C     -0.0464181     1.5588349    -1.5217166    
C     -1.1489285     1.8207762    -2.3332709    
C     -1.1155514     2.8306298    -3.2743935    
C      0.0274769     3.6013933    -3.4047601    
C      1.1154589     3.3608834    -2.5873536    
C      1.1032478     2.3458596    -1.6364801    
C      2.2960167     2.1567278    -0.7277864    
C      3.5475160     1.7983687    -1.5331143    
C      2.5337446     3.4167071     0.1096193    
H     -2.2685961    -4.2533574     1.4156455    
H     -0.8516810    -5.1278944     1.5429190    
H      1.2466962    -2.5485569     0.2452572    
H      1.4933983    -0.6635805    -1.3699743    
H     -1.8571231     1.2824180     0.4303298    
H     -2.0898301    -0.6278092     2.0226989    
H     -2.0308092     1.2063797    -2.2287777    
H     -1.9739633     3.0158487    -3.9017604    
H      0.0681486     4.3928518    -4.1377612    
H      1.9937382     3.9793282    -2.6905178    
H      2.0859648     1.3364877    -0.0355129    
H      4.3768532     1.5928765    -0.8607290    
H      3.8331520     2.6154003    -2.1908753    
H      3.3703193     0.9160347    -2.1439450    
H      1.6396324     3.6671828     0.6762586    
H      2.7908070     4.2641188    -0.5203873    
H      3.3493330     3.2492574     0.8091000    
