69

C     -0.9892505     3.9049168    -1.1323078    
C     -1.4853171     2.5321530    -1.6124747    
S     -0.0960361    -0.8539009    -0.1369378    
C     -2.5754764    -0.0664216    -0.9706898    
N     -6.7949017     0.4449185    -2.3534457    
C     -3.0048068     2.3646756    -1.3967012    
C      2.9693783    -1.1717625    -2.6017984    
C      4.0982936    -1.5406363    -1.6226275    
N      6.5303969    -1.9458394     1.6045293    
C      2.6081210    -0.7940189     0.2426509    
N      5.0352096    -0.8538574     0.5574120    
C      2.9719889    -2.1188891    -3.8097897    
O      0.3098374     4.1919185    -1.5770879    
O     -0.7513361     1.5527907    -0.8850484    
O     -3.3835852     2.5313908    -0.0551882    
C     -3.3906681     0.9320867    -1.8151201    
N     -4.8012955     0.7084849    -1.6673585    
N     -5.5869022     0.6255869    -2.7384717    
C     -6.8312101     0.4032845    -0.9979417    
C     -8.0536691     0.2087209    -0.2531449    
C     -9.3347495     0.0908707    -0.8637329    
C     -8.1248247     0.1152233     1.1085831    
S     -9.7328292    -0.1153008     1.6565887    
C     -10.3267581    -0.0855170     0.0387551    
C     -5.5323364     0.5744897    -0.5440499    
O     -2.9110931    -1.3950683    -1.2203973    
C     -1.0884796     0.2343014    -1.2106396    
C      1.5518611    -0.4994203    -0.8351251    
O      1.6933044    -1.2836409    -1.9835456    
O      2.0574447    -1.7281608    -4.7991209    
O      2.5058599     0.0951945     1.3175421    
C      3.9912852    -0.6060692    -0.4030803    
O      3.9517710    -2.8892768    -1.2824542    
N      5.6964035    -2.0053275     0.6329519    
C      6.4290277    -0.7349014     2.2062871    
C      5.4557360    -0.0180695     1.5276345    
C      7.2360190    -0.3429948     3.3381814    
C      7.1549187     0.9289745     3.9741378    
C      8.1713825    -1.1483343     3.9240835    
S      8.9543659    -0.3804813     5.2388491    
C      8.0197121     1.0480004     5.0083109    
H     -1.0410588     3.9313858    -0.0390326    
H     -1.6262310     4.6823568    -1.5586607    
H     -1.2698097     2.4248358    -2.6869283    
H     -2.7883250     0.1035627     0.0901168    
H     -3.5317892     3.0756584    -2.0474984    
H      3.1119524    -0.1350705    -2.9447657    
H      5.0641642    -1.3664100    -2.1194264    
H      2.5029866    -1.8410665     0.5612309    
H      2.7705606    -3.1315870    -3.4486609    
H      3.9580825    -2.0896759    -4.2754195    
H      0.9353077     3.6136221    -1.1210237    
H     -3.4149357     3.4691421     0.1764576    
H     -3.1787244     0.7950194    -2.8811758    
H     -9.4738653     0.1406446    -1.9275587    
H     -7.3272744     0.1644663     1.8220329    
H     -11.3772596    -0.2019510    -0.1335873    
H     -5.1099427     0.6217649     0.4342275    
H     -2.6913181    -1.6449187    -2.1306152    
H     -0.8158758     0.0058952    -2.2533785    
H      1.5763246     0.5742477    -1.0767415    
H      1.1615790    -1.8735623    -4.4668251    
H      1.6636592    -0.0387625     1.7785806    
H      4.0830502     0.4374520    -0.7250111    
H      4.6854911    -3.1426457    -0.6918947    
H      5.0426744     0.9570469     1.6612593    
H      6.4795179     1.7053288     3.6664709    
H      8.4330780    -2.1486242     3.6468420    
H      8.1740150     1.8854218     5.6577294    
