213

N      4.3259405     6.8892733     3.4858788    
C      3.4554823     6.8390262     2.2908184    
C      4.0147650     5.7118069     1.3915699    
O      4.7174936     4.8439598     1.9040145    
C      3.3772152     8.2202852     1.6358357    
C      4.7559702     8.7738397     1.3203651    
O      5.6534034     8.7542746     2.1719585    
N      4.9007996     9.3307508     0.1263377    
N      3.6210157     5.7254009     0.1246427    
C      4.0506631     4.7379537    -0.8496119    
C      3.8431369     3.3287995    -0.2771100    
O      2.7647335     3.0391950     0.2378486    
C      5.4486023     5.0505165    -1.4019060    
C      5.5786230     6.5303277    -1.7920765    
C      4.2964757     7.0621887    -2.4918933    
O      3.5024807     7.7191994    -1.7652030    
O      4.1321595     6.8083584    -3.6925809    
N      4.8389906     2.4601048    -0.4438955    
C      4.7486160     1.0330051    -0.1871638    
C      3.8257247     0.7370838     0.9862505    
O      2.8871904    -0.0562668     0.8638112    
C      6.1442013     0.4608750     0.0785772    
C      6.1317023    -1.0364925     0.4145192    
C      5.6281021    -1.8828193    -0.7529367    
C      7.5396765    -1.4633118     0.8240957    
N      4.0905703     1.3800140     2.1211174    
C      3.3737905     1.0378751     3.3335515    
C      1.8952827     0.7780553     3.0436525    
O      1.3223328    -0.2227632     3.4785655    
C      3.4932372     2.1537203     4.3828908    
C      4.9121177     2.7192473     4.5124741    
C      5.9917680     1.6066144     4.4650558    
O      6.4991829     1.3830825     3.3364630    
O      6.2872004     1.0209030     5.5205002    
N      1.2523445     1.7668592     2.4122428    
C     -0.1786197     1.7086338     2.1812210    
C     -0.6067151     0.4508336     1.4334021    
O     -1.6685811    -0.1203179     1.6956424    
C     -0.6669589     2.9203141     1.3791374    
C     -0.9230271     4.1578800     2.2457610    
C      0.3799721     4.7014149     2.8252793    
C     -1.6224158     5.2306322     1.4117710    
N      0.1821922     0.0701464     0.4297936    
C     -0.1035160    -1.0969975    -0.3725672    
C     -0.0907374    -2.3923010     0.4433233    
O     -0.5778257    -3.4283056     0.0083559    
C      0.9238758    -1.2500393    -1.5005618    
C      1.2463900     0.0378656    -2.2681522    
C      2.1411440    -0.3181925    -3.4539423    
C     -0.0152769     0.7449682    -2.7511661    
N      0.5420275    -2.3308534     1.6199538    
C      0.7196023    -3.4617003     2.4925504    
C     -0.1882812    -3.4096125     3.7309037    
O     -0.0380988    -4.2093922     4.6496076    
C      2.1746545    -3.5160254     2.9766088    
C      3.1836582    -3.4113232     1.8427815    
S      2.9515510    -4.6213789     0.5107468    
C      3.3374481    -6.1631775     1.4064522    
N     -1.0940396    -2.4348094     3.7298739    
C     -1.9329229    -2.0788300     4.8559151    
C     -3.3958768    -2.0321240     4.4038092    
O     -4.2489393    -2.7312124     4.9429485    
C     -1.4344551    -0.7498279     5.4458944    
C     -2.4595203    -0.0139866     6.3072896    
C     -2.9609719     1.2824353     5.6320884    
O     -4.1048135     1.6793103     5.9670869    
O     -2.2272445     1.8776141     4.8269234    
N     -3.6724704    -1.1445269     3.4447417    
C     -4.8984803    -1.2373356     2.6816829    
C     -4.7349667    -2.3967504     1.6876685    
O     -3.7414694    -3.1160991     1.7003575    
C     -5.2010722     0.0942159     1.9867670    
C     -5.0016342     1.2584836     2.9568129    
C     -5.5487333     2.5833786     2.4271982    
C     -5.0167690     3.7645081     3.2324723    
N     -5.3837493     3.6578125     4.6612082    
N     -5.7799484    -2.6251737     0.8751797    
C     -5.6284779    -3.5322711    -0.2422103    
C     -4.4364403    -3.0776729    -1.0995184    
O     -4.0773966    -1.9073451    -1.1480529    
C     -6.9659811    -3.5407890    -1.0206984    
O     -7.4709513    -2.2474647    -1.2138613    
N     -3.8392364    -4.0574867    -1.8025259    
C     -2.5638129    -3.8031886    -2.4578889    
C     -2.7181112    -2.6794268    -3.4818616    
O     -1.8583300    -1.8216526    -3.6388233    
C     -2.0269873    -5.0611241    -3.1509379    
C     -0.6639464    -4.7450253    -3.7052741    
C      0.4492963    -4.7769223    -2.8746468    
C     -0.5098441    -4.3402670    -5.0237192    
C      1.6947624    -4.4125228    -3.3547677    
C      0.7339109    -3.9731256    -5.5055347    
C      1.8388945    -4.0096061    -4.6719728    
N     -3.8043298    -2.8013662    -4.2609796    
C     -4.3166085    -1.6953526    -5.0379737    
C     -5.5279272    -1.0846648    -4.2661981    
O     -6.1687749    -1.8906117    -3.5537988    
C     -4.7852178    -2.1732081    -6.4205150    
C     -3.7051093    -2.8856450    -7.1622217    
C     -3.6531915    -4.2184190    -7.4548734    
C     -2.5039120    -2.3137684    -7.6840013    
N     -2.5087185    -4.5136702    -8.1446106    
C     -1.7787657    -3.3711823    -8.2893800    
C     -1.9716078    -1.0250896    -7.6967929    
C     -0.5473134    -3.1580974    -8.8972136    
C     -0.7489258    -0.8225374    -8.2965403    
C     -0.0449939    -1.8750694    -8.8894428    
O     -5.7787090     0.1175659    -4.4333375    
H      3.8269270     7.1009116     4.3521476    
H      5.0636607     7.6238443     3.2903750    
H      4.7910601     5.9671108     3.5535129    
H      2.4488262     6.5116383     2.5722296    
H      2.9093865     8.9111112     2.3406929    
H      2.7664772     8.1983365     0.7368586    
H      5.8027018     9.7069828    -0.1258631    
H      4.2528805     9.0999877    -0.6231057    
H      3.2563384     6.5764132    -0.3092778    
H      3.3343583     4.8090038    -1.6800534    
H      5.6071417     4.4398604    -2.2910546    
H      6.2071970     4.8237968    -0.6496293    
H      6.4116413     6.6469803    -2.4850533    
H      5.7629757     7.1326453    -0.9025060    
H      5.7055420     2.7689804    -0.8580402    
H      4.2987415     0.5441662    -1.0632278    
H      6.5874779     0.9926258     0.9233815    
H      6.7629231     0.6220202    -0.8060117    
H      5.4647776    -1.1891579     1.2730078    
H      5.7131488    -2.9399947    -0.5151553    
H      6.2074412    -1.6776767    -1.6490600    
H      4.5781155    -1.6816505    -0.9559319    
H      7.8596746    -0.8923933     1.6934328    
H      8.2379574    -1.2904150     0.0098770    
H      7.5548644    -2.5189770     1.0805814    
H      5.0534093     1.6959539     2.2965206    
H      3.7900157     0.1061589     3.7515706    
H      3.1722419     1.7294766     5.3358120    
H      2.8114845     2.9617992     4.1126443    
H      5.0031565     3.2367870     5.4669121    
H      5.1112527     3.3998766     3.6843002    
H      1.7917336     2.4140896     1.8443273    
H     -0.6880695     1.6790864     3.1553171    
H     -1.5979235     2.6305876     0.8840914    
H      0.0693144     3.1380239     0.6010200    
H     -1.5713381     3.8506196     3.0732406    
H      0.1959268     5.6660367     3.2902045    
H      1.1136492     4.8039090     2.0280257    
H      0.7691085     4.0184269     3.5756841    
H     -2.5464296     4.8444955     0.9893665    
H     -0.9799848     5.5388497     0.5904203    
H     -1.8518820     6.0975752     2.0234487    
H      1.1399118     0.4035859     0.3950304    
H     -1.1144759    -0.9992445    -0.7904045    
H      0.5288014    -1.9923044    -2.1964699    
H      1.8464005    -1.6451732    -1.0659438    
H      1.7943562     0.7179294    -1.6042661    
H      2.4541575     0.5820344    -3.9761941    
H      1.5892754    -0.9525010    -4.1439788    
H      3.0223153    -0.8600401    -3.1181822    
H     -0.5892134     1.1352446    -1.9136987    
H     -0.6470813     0.0491075    -3.2978513    
H      0.2437778     1.5739504    -3.4053374    
H      0.9186841    -1.4564857     1.9681899    
H      0.4614354    -4.3566317     1.9118634    
H      2.3084481    -4.4332843     3.5505662    
H      2.3338541    -2.6683009     3.6500326    
H      4.1974296    -3.5304198     2.2270854    
H      3.1040133    -2.4393170     1.3537959    
H      3.3775986    -6.9431410     0.6560295    
H      2.5516815    -6.3718423     2.1257684    
H      4.2984169    -6.0538168     1.8973398    
H     -1.1577710    -1.8372566     2.9156066    
H     -1.8447348    -2.8866637     5.5908844    
H     -1.1506685    -0.0928361     4.6171397    
H     -0.5188867    -0.9575561     6.0023855    
H     -2.0165969     0.2851054     7.2595266    
H     -3.3263903    -0.6392608     6.5243062    
H     -2.9063948    -0.6993263     2.9517958    
H     -5.6915353    -1.5090315     3.3890008    
H     -6.2291588     0.0808696     1.6228224    
H     -4.5362454     0.1974771     1.1239723    
H     -3.9326039     1.3641010     3.1463042    
H     -5.4755874     0.9938892     3.9031311    
H     -6.6387928     2.5652732     2.4446656    
H     -5.2360432     2.7022179     1.3889774    
H     -5.4206750     4.6917397     2.8246590    
H     -3.9286231     3.7815765     3.1593051    
H     -5.1535252     4.5210388     5.1580358    
H     -4.8437643     2.8662077     5.1412696    
H     -6.3810446     3.4544212     4.7610528    
H     -6.4733403    -1.9029790     0.7149813    
H     -5.4104054    -4.5321314     0.1463763    
H     -7.7069304    -4.0662038    -0.4125262    
H     -6.8284375    -4.0574150    -1.9740572    
H     -7.0604819    -1.8706433    -2.0196775    
H     -4.0467816    -5.0194720    -1.5752301    
H     -1.8357709    -3.4612068    -1.7098742    
H     -2.7109653    -5.3536572    -3.9484728    
H     -1.9513985    -5.8562663    -2.4075416    
H      0.3346424    -5.0531579    -1.8359350    
H     -1.3761227    -4.2833687    -5.6649041    
H      2.5422646    -4.4293736    -2.6849868    
H      0.8305613    -3.6381887    -6.5274453    
H      2.8074411    -3.7109698    -5.0416014    
H     -4.5502022    -3.3919732    -3.9064043    
H     -3.5301693    -0.9408797    -5.1208449    
H     -5.1221034    -1.2895414    -6.9691909    
H     -5.6423570    -2.8366460    -6.2773833    
H     -4.3697487    -4.9824363    -7.2230905    
H     -2.2279127    -5.4317735    -8.4443062    
H     -2.5081591    -0.2073825    -7.2352715    
H     -0.0013390    -3.9711342    -9.3505012    
H     -0.3191938     0.1689684    -8.3060799    
H      0.9128847    -1.6719707    -9.3439871    
