66

C      1.7870832     1.4754212     3.8455860    
C      2.0191888     2.7300067     3.0132271    
C      2.0186912     2.4626304     1.5083072    
C      0.6781747     1.9154059     1.0118021    
N      0.5638740     2.0442747    -0.4329920    
C      0.0839346     3.2047666    -0.9753753    
O     -0.3036071     4.1405607    -0.2930824    
N      0.0428884     3.2755028    -2.3534703    
C      0.4193528     2.3265437    -3.2961064    
O      0.3104062     2.5551290    -4.4941717    
C      0.9079808     1.1513788    -2.6544168    
N      1.3673190    -0.0513334    -3.1346143    
C      1.5194454    -0.4030751    -4.5277955    
C      2.9243075    -0.0758910    -5.0250779    
C      0.9683978     1.0435172    -1.2654318    
N      1.4494455    -0.1631331    -0.9094858    
C      1.6820854    -0.7971241    -2.0539920    
C      2.1439494    -2.1962797    -2.1336579    
S      0.7083407    -3.2715401    -2.5990771    
C     -0.1907610    -3.1299227    -1.1299117    
N     -1.5152137    -3.3324983    -1.0654366    
N      0.3982285    -2.8024895     0.0102497    
N     -0.6179271    -2.7676688     0.8751875    
C     -0.5855280    -2.4258984     2.1784215    
C      0.7434533    -2.0682478     2.7404185    
C     -1.7927886    -3.1010579     0.2153979    
N     -2.9490031    -3.1438985     0.8467406    
C     -2.9585943    -2.8340487     2.1317601    
C     -4.2903569    -2.9126143     2.7984653    
C     -1.7934664    -2.4575011     2.8483132    
C     -1.8605290    -2.0415967     4.2902865    
C     -2.0648385    -0.5243878     4.4065348    
C     -1.9989950    -0.0536654     5.8567325    
C     -2.1800530     1.4561268     5.9640765    
H      1.9028653     1.7019604     4.9026868    
H      2.5026094     0.7034078     3.5757424    
H      0.7814296     1.0964641     3.6867111    
H      2.9828746     3.1664910     3.2806373    
H      1.2481751     3.4693353     3.2408004    
H      2.8108958     1.7585912     1.2499406    
H      2.2142970     3.4042740     0.9893931    
H     -0.1423751     2.4894727     1.4484174    
H      0.5761878     0.8557030     1.2402692    
H     -0.3245171     4.1487090    -2.7207959    
H      0.7862965     0.1773306    -5.0908843    
H      1.3006425    -1.4672662    -4.6386380    
H      3.0216426    -0.3927841    -6.0582211    
H      3.6774576    -0.5819664    -4.4276450    
H      3.0971499     0.9967151    -4.9746080    
H      2.5025569    -2.5325889    -1.1656317    
H      2.8793365    -2.3559142    -2.9172584    
H      0.6585373    -1.3081109     3.5081810    
H      1.3816355    -1.7173826     1.9319874    
H      1.2066486    -2.9525046     3.1768884    
H     -4.5403604    -1.9669705     3.2720671    
H     -4.2803454    -3.6863943     3.5633959    
H     -5.0422998    -3.1565684     2.0552109    
H     -0.9354583    -2.3182287     4.7944267    
H     -2.6803575    -2.5523851     4.7912249    
H     -3.0312880    -0.2502829     3.9787396    
H     -1.2997047    -0.0068725     3.8241966    
H     -1.0334748    -0.3315298     6.2835955    
H     -2.7765278    -0.5548645     6.4360525    
H     -2.1408780     1.7726196     7.0031161    
H     -3.1397265     1.7568693     5.5501255    
H     -1.3953735     1.9754589     5.4177076    
