58

C      1.6688398     3.7041148    -2.0485020    
N      2.7765932     1.8765254    -3.8558721    
C     -0.8508495    -1.4037081     1.3098888    
C     -1.4327799    -1.5347034     2.5670984    
C     -1.6162377    -0.3855437     3.3420930    
C     -1.2296124     0.8557003     2.8782280    
C     -2.0085632     1.9892126     4.8389862    
C     -1.8501656    -2.8307013     3.0730233    
C     -2.6453003    -3.1154400     4.2021633    
C     -1.5652619    -4.0890004     2.5584451    
C      2.3249967     4.1479248    -3.2174023    
C      2.5659172    -0.9321906    -3.3909938    
C      1.3855686    -1.8006506    -3.8773175    
C      0.3760531    -0.9259239    -4.6199302    
C      0.7054469    -2.4842249    -2.6885402    
C      1.9447089    -2.8631917    -4.8253680    
N      2.1635145     0.1119742    -2.4890539    
C      2.1877201     1.4219752    -2.7616654    
C      2.8323159     3.2009045    -4.0632416    
C      1.5777771     2.3173260    -1.8075551    
N      0.9378753     1.8106436    -0.7427273    
C      0.3955730     2.6732330     0.1014184    
N      0.4615238     4.0274565    -0.0161126    
C      1.0732869     4.5158591    -1.0581522    
N     -0.2799479     2.2580376     1.1950892    
C     -0.6312100     0.9777058     1.6062078    
O     -1.3831847     2.0303487     3.5722017    
C     -0.4573472    -0.1655362     0.8397766    
N     -2.1597532    -4.9931402     3.3524545    
C     -2.1437873    -6.4217368     3.2067749    
N     -2.8209586    -4.4150645     4.3515818    
H     -0.7124751    -2.2716552     0.6866836    
H     -2.0626331    -0.4835315     4.3173265    
H     -2.0405565     3.0229062     5.1743926    
H     -1.4295279     1.3906446     5.5464718    
H     -3.0249256     1.5947246     4.7646379    
H     -3.1004413    -2.4378400     4.8963745    
H     -0.9841324    -4.3893709     1.7118850    
H      2.4096722     5.2023744    -3.4263556    
H      3.0437951    -0.4455964    -4.2415180    
H      3.2958635    -1.5721307    -2.8871295    
H     -0.4592570    -1.5252883    -4.9726973    
H      0.8441190    -0.4466028    -5.4757753    
H     -0.0133755    -0.1469010    -3.9674964    
H      1.4346549    -3.0242108    -2.0894962    
H     -0.0388723    -3.1930595    -3.0436620    
H      0.1995965    -1.7588017    -2.0560827    
H      2.4476385    -2.3961796    -5.6679565    
H      1.1426270    -3.4886002    -5.2086187    
H      2.6586550    -3.4991510    -4.3086346    
H      1.6951080    -0.1448000    -1.6325692    
H      3.3329672     3.4822081    -4.9805613    
H      1.1071314     5.5960159    -1.1337229    
H     -0.5841236     3.0001101     1.8131105    
H     -0.0159747    -0.0603326    -0.1356901    
H     -2.6566174    -6.8485854     4.0643988    
H     -1.1172473    -6.7851246     3.1737535    
H     -2.6593898    -6.7161790     2.2925737    
