28

C     -0.8755695    -0.0392665     1.8901524    
C     -1.5840235    -1.2125719     2.0288807    
C     -1.5708735    -2.1877069     1.0306065    
C     -0.8314427    -1.9443438    -0.1191478    
C     -0.1242691    -0.7651075    -0.2487795    
N      1.1449528     1.1013610    -1.7486881    
C      1.6364937     1.4177681    -0.4235343    
N      0.5890433     1.3919902     0.5709458    
C     -0.1124293     0.2210756     0.7412350    
O     -2.2519117    -3.3562078     1.1327330    
S      0.7392318    -0.5122631    -1.7754671    
O      1.9718688    -1.2727936    -1.7864272    
O     -0.1369990    -0.7296284    -2.9073204    
C      0.6113917     2.3920277     1.5958464    
C     -0.6419396     3.1743068     1.8693159    
C      0.5110400     3.8301787     1.1776002    
H     -0.9047850     0.6899439     2.6807545    
H     -2.1539779    -1.3772166     2.9304010    
H     -0.8046620    -2.6606573    -0.9237274    
H      0.3591292     1.6668700    -2.0388166    
H      2.0932010     2.4079928    -0.4323823    
H      2.4045054     0.6564793    -0.2248855    
H     -2.7332252    -3.3998568     1.9746010    
H      1.2570911     2.1586496     2.4385981    
H     -0.8591714     3.4458600     2.8901289    
H     -1.5127742     2.9378934     1.2793300    
H      0.4069104     4.0456287     0.1264284    
H      1.0986124     4.5542871     1.7187886    
