52

O      2.9744826     6.7477525    -1.3166269    
O      1.5836450     7.0395512    -3.4502346    
O      2.3979453     4.7283346    -2.7381889    
P      1.9916431     6.1440345    -2.3051503    
O      0.5396954     5.9445860    -1.4435284    
C      0.6474844     5.1428238    -0.2907862    
C     -0.3739289     3.9879718    -0.2891982    
C     -1.7761169     4.5968239    -0.3133825    
C     -0.1632514     3.1383868     0.9649871    
C     -0.1365262     3.1147705    -1.5572928    
O      1.1950303     2.6512453    -1.6365174    
C     -1.0691926     1.9021210    -1.5568767    
O     -2.2813764     1.9938914    -1.7413909    
N     -0.4476201     0.7459233    -1.3329199    
C     -1.1191644    -0.5200989    -1.1601465    
C     -0.9248403    -1.0396444     0.2707454    
C     -1.6572383    -2.3565751     0.4696113    
O     -2.7272458    -2.4331642     1.0629083    
N     -1.0487617    -3.4171622    -0.0778149    
C     -1.5505893    -4.7711661     0.0515412    
C     -0.7519167    -5.5705767     1.0516534    
C     -0.5414051    -5.0271169     2.3239788    
C      0.1900968    -5.7703070     3.2138940    
O      0.5371226    -5.4684612     4.5087533    
C      1.2855195    -6.5750685     4.9795526    
O      1.3845885    -7.5421087     3.9509418    
C      0.7021128    -7.0240124     2.8766263    
C      0.4974218    -7.5713467     1.6346791    
C     -0.2378706    -6.8149105     0.7237198    
H      0.4692274     5.7924044     0.5785560    
H      1.6766910     4.7664898    -0.2187935    
H     -2.5238433     3.8357161    -0.5172685    
H     -1.8158100     5.3510469    -1.0976623    
H     -1.9835064     5.0744626     0.6403634    
H      0.7906191     2.6218330     0.8956899    
H     -0.9681223     2.4135112     1.0532825    
H     -0.1545693     3.7761870     1.8443511    
H     -0.3767190     3.7387221    -2.4323032    
H      1.7415136     3.3772972    -2.0286936    
H      0.5567554     0.8044408    -1.2245931    
H     -0.7295220    -1.2351826    -1.8881470    
H     -2.1786532    -0.3425557    -1.3585100    
H     -1.3365872    -0.3109374     0.9695491    
H      0.1391413    -1.1628821     0.4741352    
H     -0.1380009    -3.3007792    -0.4944907    
H     -1.5319978    -5.2549661    -0.9260753    
H     -2.5865598    -4.6812221     0.3920417    
H     -0.9442397    -4.0646640     2.5939652    
H      0.7767028    -7.0158807     5.8488929    
H      2.2927527    -6.2386713     5.2652895    
H      0.8934393    -8.5389710     1.3812901    
H     -0.4127931    -7.2165213    -0.2612397    
