57

C      0.6308437    -1.0310606     5.8338632    
C      0.5469410    -0.9668292     4.4546734    
C      1.2002697     0.0436373     3.7583786    
C      1.1000674     0.1249824     2.2464005    
C      1.7407729    -1.1174357     1.6176357    
C     -0.7899501     1.4800074     1.4895426    
C     -4.3602742     2.0212354     1.0069294    
C     -5.6993162     2.5893368     0.7442757    
C      0.9123588    -1.3228639    -2.1014828    
C      0.8847885    -0.0957132    -2.7629903    
C      1.1244497    -0.0662749    -4.1328163    
C      1.4275574    -2.4622928    -4.1827678    
C      0.6218775     1.1972936    -2.0486297    
C      1.3672572    -0.0876060     6.5309220    
C      2.0155196     0.9239959     5.8429573    
C      1.9307644     0.9902882     4.4626741    
C      1.1844490    -2.4815544    -2.8253531    
C     -3.1037597     2.5670483     1.0098864    
C      1.3967577    -1.2245237    -4.8461857    
C     -2.2619268     1.4766927     1.3280021    
C      1.7195995    -3.7073760    -4.9577501    
C      1.6148935    -0.0736201    -6.9315343    
C      0.6662240    -1.4343788    -0.6209673    
N     -2.9716678     0.3795142     1.4942646    
N     -0.2841024     0.2818382     1.8357498    
N      1.8727540    -1.0103538     0.1451905    
O     -0.1059930     2.4737754     1.2717892    
O     -4.2637112     0.7118596     1.2960792    
O      1.6443938    -1.2718385    -6.1869651    
H      0.1207704    -1.8172889     6.3690058    
H     -0.0376344    -1.7072925     3.9319353    
H      1.6136261     1.0331042     1.9100584    
H      1.1508727    -2.0025543     1.8550439    
H      2.7301150    -1.2286087     2.0618178    
H     -5.7069632     3.6482875     0.9812732    
H     -6.4435846     2.0671711     1.3396121    
H     -5.9564169     2.4654250    -0.3068424    
H      1.0961035     0.8852188    -4.6400765    
H     -0.1536687     1.1015093    -1.2926736    
H      0.3013384     1.9569792    -2.7561876    
H      1.5233712     1.5765910    -1.5686933    
H      1.4326804    -0.1372209     7.6074154    
H      2.5846234     1.6651427     6.3838139    
H      2.4312733     1.7890250     3.9362769    
H      1.1973994    -3.4350511    -2.3190876    
H     -2.8093245     3.5778008     0.8278463    
H      1.6705972    -4.5858122    -4.3218101    
H      2.7091017    -3.6446236    -5.4084723    
H      1.0057217    -3.8151821    -5.7728166    
H      1.8320276    -0.3643991    -7.9572658    
H      2.3779490     0.6287506    -6.5850485    
H      0.6289828     0.3977788    -6.8888526    
H      0.4483334    -2.4717585    -0.3679786    
H     -0.1750609    -0.8124714    -0.3177227    
H     -0.9498400    -0.4312493     2.1046748    
H      2.6600709    -1.5890170    -0.1715134    
H      2.0907560    -0.0385722    -0.1097154    
