18

C      0.9607627     0.6130002     2.0337597    
C      1.9201799    -0.2971011     1.5667355    
C      1.7659983    -0.9288242     0.3648287    
C      0.6261235    -0.6644601    -0.4209133    
C      0.3902708    -1.2741700    -1.6726566    
N     -0.6563683    -1.0470627    -2.4194270    
C     -1.5763216    -0.1746233    -1.9730638    
C     -1.4756486     0.4879780    -0.7796167    
C     -0.3524157     0.2537756     0.0379547    
C     -0.1620491     0.8948702     1.2935225    
O     -1.1174963     1.7652502     1.6986409    
H      1.1133722     1.0946648     2.9884605    
H      2.7889962    -0.4920947     2.1763924    
H      2.5017699    -1.6294321     0.0020587    
H      1.1082389    -1.9825871    -2.0671018    
H     -2.4197667    -0.0274281    -2.6333238    
H     -2.2334983     1.1817856    -0.4528004    
H     -0.8949806     2.1460415     2.5622644    
