54

N     -2.0560479    -2.3055661     0.8815547    
C     -1.6424665    -1.2271748    -0.0531612    
C     -3.0241177    -0.6337560    -0.6017494    
O     -2.9738313     0.3759861    -1.3025569    
O     -4.0236492    -1.2917306    -0.2358999    
C     -0.8519904    -1.8188414    -1.2216721    
C     -1.6941876    -2.7207049    -2.1271682    
C     -0.8174836    -3.3969269    -3.1815684    
C     -1.6586741    -4.2651625    -4.1097344    
N     -0.7977969    -4.9713962    -5.0897865    
C     -0.8981036    -0.1007220     0.6623881    
C      0.5267115    -0.4626463     1.0974511    
C      1.2685057     0.6588171     1.8261780    
N      0.7479581     0.8645467     3.2027863    
C      1.2585910     1.9777124     1.0512905    
C      2.1910062     3.0369662     1.6469956    
C      2.2582754     4.2979100     0.7824980    
C      0.9456742     5.0780505     0.8016487    
N      1.0770879     6.3270825     0.0137682    
C      2.7798689     0.1825523     2.0431635    
O      3.4144140    -0.1753111     1.0512287    
O      3.1460446     0.2279617     3.2396455    
H     -1.6303093    -3.2100094     0.6719266    
H     -3.1114055    -2.3216945     0.6893499    
H     -1.9056523    -2.0691406     1.8632522    
H      0.0009104    -2.3801063    -0.8352220    
H     -0.4695569    -0.9895700    -1.8169187    
H     -2.4644412    -2.1161927    -2.6113898    
H     -2.2090510    -3.4857542    -1.5444055    
H     -0.0694422    -4.0075080    -2.6734781    
H     -0.2995104    -2.6262340    -3.7532837    
H     -2.3770640    -3.6431969    -4.6429471    
H     -2.2122587    -5.0027055    -3.5278184    
H     -1.3644990    -5.5392054    -5.7297595    
H     -0.1357120    -5.5876386    -4.6029423    
H     -0.2586386    -4.2947169    -5.6431184    
H     -1.5006776     0.2147852     1.5165149    
H     -0.8784799     0.7294142    -0.0433612    
H      1.1371419    -0.7044226     0.2272034    
H      0.5275398    -1.3435728     1.7422569    
H      0.3529202     1.7940056     3.3544515    
H      1.6525160     0.7354391     3.7629110    
H      0.0810120     0.1481284     3.4931833    
H      0.2362292     2.3525024     1.0096812    
H      1.5917183     1.7557091     0.0370639    
H      3.1942299     2.6117873     1.7250328    
H      1.8806916     3.3138208     2.6552914    
H      2.5155163     4.0086592    -0.2368712    
H      3.0625883     4.9261208     1.1678464    
H      0.6872406     5.3339129     1.8290954    
H      0.1428085     4.4821900     0.3704907    
H      0.2056305     6.8688492     0.0410678    
H      1.2946606     6.1055354    -0.9649901    
H      1.8377378     6.9071145     0.3874563    
