39

C     -1.0636269    -1.9853078    -2.4897458    
C     -2.5427862    -1.6750474    -2.3237220    
O     -2.8641559    -1.3201631    -0.9682221    
C     -3.0914141    -2.2940797    -0.0972764    
O     -3.0421282    -3.4737270    -0.3766216    
C     -3.4101837    -1.7512220     1.2723245    
C     -2.1830218    -1.9118809     2.1901285    
C     -1.0268118    -1.1100324     1.6659234    
C     -0.9646345     0.2537298     1.8998417    
C      0.0717457     1.0246482     1.3862578    
O      0.0733254     2.3521049     1.6975618    
C     -0.0240071    -1.7074899     0.9117578    
C      1.0010654    -0.9462937     0.3865026    
C      1.0614368     0.4283038     0.5958524    
C      2.1791586     1.2074094     0.0151046    
C      3.4907775     0.8601443     0.3281157    
C      4.5612513     1.5529374    -0.2025252    
C      4.3328635     2.6076289    -1.0725806    
C      3.0411651     2.9575862    -1.4107835    
C      1.9587607     2.2647680    -0.8762299    
O      0.7148020     2.6552359    -1.2742494    
H     -0.8528786    -2.1746898    -3.5372952    
H     -0.8010420    -2.8678775    -1.9113627    
H     -0.4607155    -1.1490601    -2.1454348    
H     -3.1481025    -2.5417075    -2.6069856    
H     -2.8334275    -0.8025408    -2.9095576    
H     -4.2430478    -2.3216130     1.6831069    
H     -3.6760207    -0.6994172     1.1812811    
H     -1.9164492    -2.9688078     2.2388444    
H     -2.4547062    -1.5692815     3.1885545    
H     -1.7131171     0.7491860     2.4986128    
H      0.8930270     2.7772236     1.4040850    
H     -0.0523377    -2.7725118     0.7321894    
H      1.7708129    -1.4126838    -0.2105167    
H      3.6569391     0.0389584     1.0097126    
H      5.5692563     1.2727444     0.0597932    
H      5.1614903     3.1554180    -1.4931446    
H      2.8383811     3.7652842    -2.0960444    
H      0.0289711     2.1027890    -0.8713074    
