75

C     -0.5236044    -2.5710153    -2.7806363    
C      0.8247011    -3.3034211    -2.7017716    
C      1.8665191    -2.4890770    -3.4824605    
C      1.3737792    -2.3509732    -4.9320718    
C     -0.0267261    -1.7137173    -4.9387635    
C     -0.6546635    -1.6819363    -6.3370250    
O      1.1755589    -3.4771022    -1.3560893    
O      3.1307752    -3.0943937    -3.4186288    
O      1.4113312    -3.6514712    -5.4773375    
O     -0.9430228    -2.4349408    -4.1066572    
O     -1.6968441    -0.7475072    -6.4403134    
C     -0.5423109     1.3324996     0.0399577    
C     -0.3845352     1.4711173    -1.4853299    
C     -1.5689267     0.7610934    -2.1545904    
C     -1.5744981    -0.7077784    -1.6979957    
C     -1.6565476    -0.7383369    -0.1582329    
C     -1.5878863    -2.1589115     0.4218075    
O     -0.3822715     2.8207651    -1.8745650    
O     -1.4915052     0.8212969    -3.5509171    
O     -0.3773810    -1.3340074    -2.1358604    
O     -0.5731272    -0.0231142     0.4076361    
O     -1.8537092    -2.1783256     1.7980778    
C     -0.0581926     4.1107981     3.6061625    
C     -0.4124732     3.5564407     2.2192448    
C      0.4834855     2.3281974     1.9911598    
C      0.0073267     1.2197133     2.9352414    
C      1.0391897     0.0887559     3.0130710    
C      0.2481798     2.9598284     4.5909591    
O     -1.0943451     4.8796618     4.1537877    
O     -0.2002114     4.5784185     1.2806544    
O      0.5627572     1.9426939     0.6249494    
O     -0.3408637     1.7434758     4.2147847    
O      0.3801934    -1.1067247     3.3688073    
O      1.6343761     2.8614598     4.7550704    
C      2.0810966     2.5982187     6.0870538    
C      1.7795184     1.1854692     6.5853125    
C      2.1646186     1.0321885     8.0517191    
H     -1.2996322    -3.1774696    -2.2949121    
H      0.7001168    -4.2810850    -3.1949878    
H      1.9643050    -1.5050891    -3.0148798    
H      2.0579591    -1.6879877    -5.4799639    
H      0.0569623    -0.6878000    -4.5572977    
H     -1.0217754    -2.6889841    -6.5734817    
H      0.0911008    -1.3701805    -7.0712580    
H      2.1376324    -3.6083364    -1.3131970    
H      3.1309136    -3.8474319    -4.0326755    
H      1.2392410    -3.6214573    -6.4274122    
H     -2.3201247    -0.8995238    -5.7175992    
H     -1.4887246     1.8206369     0.3489622    
H      0.5377278     0.9564811    -1.7751585    
H     -2.5018367     1.2360458    -1.8093039    
H     -2.4407886    -1.2143346    -2.1356459    
H     -2.6039086    -0.2664667     0.1525883    
H     -0.6037439    -2.5812163     0.1913743    
H     -2.3670675    -2.7687431    -0.0407754    
H      0.5130549     3.1774300    -1.7901379    
H     -1.4055572     1.7532830    -3.8077898    
H     -1.1266932    -1.7445419     2.2849248    
H      0.8585304     4.7084242     3.4996018    
H     -1.4714645     3.2508753     2.2263596    
H      1.5161889     2.6043864     2.2330054    
H     -0.9256295     0.7832439     2.5616994    
H      1.8040860     0.3569967     3.7481831    
H      1.4958010    -0.0120526     2.0203488    
H     -0.2431804     3.2067600     5.5428887    
H     -1.2677441     5.6340893     3.5694859    
H     -0.2885039     4.2209965     0.3840348    
H      1.0403984    -1.7967871     3.5270667    
H      1.6271702     3.3353119     6.7622155    
H      3.1582621     2.7706632     6.0438765    
H      2.3378996     0.4687513     5.9819671    
H      0.7156255     0.9798339     6.4501750    
H      1.9380537     0.0270858     8.3952130    
H      1.6132460     1.7393278     8.6664950    
H      3.2277675     1.2146924     8.1858796    
