66

C     -0.6354815    -3.5985190    -4.0024098    
C     -1.3042785    -3.5060575    -5.3857862    
O     -2.6262222    -3.0273464    -5.3147293    
C     -1.2763707    -4.6779746    -3.1068836    
C     -0.5923970    -4.6878139    -1.7692753    
C     -1.0598347    -3.8898140    -0.7327488    
C     -0.3921970    -3.8417877     0.4778695    
C      0.7534229    -4.5946780     0.6689015    
C      1.2260218    -5.3948924    -0.3581757    
C      0.5589272    -5.4380738    -1.5689196    
N     -0.7373718    -2.3075054    -3.3561188    
C     -0.0681129    -0.3763370    -2.0540384    
C      0.2742588    -1.7076452    -2.7298224    
O      1.4128089    -2.1615051    -2.6805131    
C      0.1184608     0.8168021    -3.0206462    
C     -0.7204479     0.6586598    -4.2866177    
C     -0.2490009     2.1182026    -2.3107765    
N      0.8264963    -0.2438688    -0.9251679    
C      0.4359542     0.0017357     0.3247746    
O     -0.7317698     0.1714085     0.6583220    
C      1.5837097     0.0802680     1.3455497    
C      1.8756199    -1.2925329     1.9337212    
N      1.2118487     1.0160345     2.3929433    
C      0.8322771     2.2573104     2.0304615    
O      1.0621159     2.7576365     0.9422571    
O      0.2330680     2.9062197     3.0414202    
C     -0.1636751     4.2591694     2.7924902    
C     -0.2493886     5.0208116     4.0851559    
C      0.6393040     4.7695417     5.1220157    
C      0.5613259     5.4922413     6.2997271    
C     -0.3981535     6.4790892     6.4484026    
C     -1.2832825     6.7378469     5.4152168    
C     -1.2127927     6.0092853     4.2409947    
H      0.4304477    -3.8139343    -4.1244171    
H     -1.2572980    -4.4807135    -5.8813811    
H     -0.7598246    -2.7801695    -5.9940444    
H     -3.2128974    -3.7364677    -5.0202716    
H     -1.1676780    -5.6468926    -3.5942849    
H     -2.3354138    -4.4533342    -2.9737094    
H     -1.9537818    -3.2973812    -0.8668927    
H     -0.7694642    -3.2087354     1.2682172    
H      1.2762693    -4.5594649     1.6130349    
H      2.1201994    -5.9828013    -0.2154786    
H      0.9369734    -6.0577410    -2.3690305    
H     -1.6493030    -1.8741443    -3.3902361    
H     -1.0893959    -0.3844970    -1.6624173    
H      1.1780766     0.8478402    -3.2971324    
H     -0.5929068     1.5360567    -4.9150424    
H     -1.7753861     0.5715575    -4.0387633    
H     -0.4159246    -0.2136289    -4.8569951    
H      0.3291130     2.2582114    -1.3991299    
H     -1.3027815     2.1136006    -2.0398968    
H     -0.0625539     2.9661549    -2.9644494    
H      1.7922188    -0.4657718    -1.1274976    
H      2.4674422     0.4874379     0.8424683    
H      2.6840497    -1.2244021     2.6549166    
H      2.1582448    -1.9794349     1.1407785    
H      0.9866402    -1.6799188     2.4254469    
H      0.7886301     0.6399132     3.2296538    
H     -1.1319069     4.2468720     2.2791246    
H      0.5700773     4.7165185     2.1144365    
H      1.3856510     3.9996983     5.0018420    
H      1.2544056     5.2850520     7.1007439    
H     -0.4567613     7.0439589     7.3659881    
H     -2.0336844     7.5054994     5.5252729    
H     -1.9057983     6.2089808     3.4374910    
