21

C      0.5712392     0.7080961     0.0018314    
C     -0.0068292     1.9019778    -0.3991992    
C     -0.5027061     2.0286869    -1.6829956    
C     -0.4327861     0.9739391    -2.5802912    
C      0.1452587    -0.2128748    -2.1816599    
C      0.6539942    -0.3538749    -0.8903362    
O      1.2013842    -1.5758913    -0.6069364    
C      1.7940298    -1.7871230     0.6596030    
C      0.7769355    -1.9256016     1.7364860    
N      0.8176938    -1.4347287     2.9564835    
N     -0.2996519    -1.8329348     3.5588049    
N     -1.0184896    -2.5305418     2.7820600    
N     -0.3776380    -2.6220798     1.6147758    
Cl    -1.2285790     3.5320721    -2.1784594    
H      0.9418440     0.6276539     1.0109344    
H     -0.0702336     2.7262574     0.2920699    
H     -0.8258495     1.0831625    -3.5772507    
H      0.2164368    -1.0484295    -2.8581185    
H      2.4988627    -0.9933787     0.9240459    
H      2.3410189    -2.7293680     0.5562480    
H     -0.7568443    -3.1277553     0.8260121    
