70

C      3.5776375    -1.4037732    -3.3991572    
O      3.6004295    -0.1772606    -3.4523509    
C      4.7238917    -2.2696931    -3.8563005    
N      2.5054223    -2.0933503    -2.9681136    
C      1.3793886    -1.4554062    -2.3285758    
C      1.7033206    -1.2189594    -0.8439932    
O      2.6731458    -1.7426686    -0.3110721    
C      0.1190622    -2.3202999    -2.4826236    
C     -0.2476269    -2.4583978    -3.9344889    
C      0.1342475    -3.5756478    -4.6647472    
C     -0.9484037    -1.4452032    -4.5761960    
C     -0.1803572    -3.6809736    -6.0082649    
C     -1.2655581    -1.5491173    -5.9183625    
C     -0.8816631    -2.6679827    -6.6384327    
N      0.8322057    -0.4340932    -0.2037896    
C      0.9899927    -0.0097115     1.1667768    
C     -0.3901521     0.0033891     1.8095123    
O     -1.4016706     0.1241684     1.1108851    
C      1.5764823     1.4239470     1.2184052    
C      2.8363917     1.4716361     0.4271753    
N      4.0608579     1.2410723     0.9875161    
C      2.9780557     1.6305055    -0.9254003    
C      4.9113803     1.2568889    -0.0048296    
N      4.3089476     1.5034162    -1.1860099    
N     -0.4678723    -0.1026089     3.1321553    
C     -1.7684802     0.0692685     3.7736185    
C     -2.4131097     1.3440841     3.2225166    
O     -1.7763129     2.3843727     3.1300903    
C     -1.4338172     0.1790403     5.2638795    
C     -0.1320807    -0.6113054     5.3825861    
C      0.6057694    -0.2293859     4.1020099    
N     -3.7218658     1.2507293     2.9337273    
C     -4.4218863     2.3141612     2.2396641    
C     -5.3750507     3.1061464     3.1431052    
O     -5.9130871     4.1281275     2.7345277    
C     -5.1976150     1.7527727     1.0508638    
N     -5.5962105     2.6004067     4.3568227    
H      4.3804796    -2.9659440    -4.6152236    
H      5.1108898    -2.8296442    -3.0091748    
H      5.5118303    -1.6453138    -4.2657262    
H      2.6176502    -3.0795534    -2.7880473    
H      1.2443551    -0.4834002    -2.8147759    
H     -0.6977417    -1.8518503    -1.9327130    
H      0.3123942    -3.3001020    -2.0429549    
H      0.6739423    -4.3736150    -4.1777065    
H     -1.2535264    -0.5726693    -4.0182372    
H      0.1178094    -4.5570620    -6.5639386    
H     -1.8145390    -0.7565390    -6.4043059    
H     -1.1311985    -2.7493829    -7.6853365    
H      0.0372119    -0.0300882    -0.6806152    
H      1.6798070    -0.7066089     1.6479309    
H      1.7817265     1.6959252     2.2509623    
H      0.8419167     2.1175887     0.8045298    
H      2.2672150     1.8283550    -1.6995262    
H      5.9656783     1.1056456     0.1023099    
H      4.7099889     1.4712338    -2.1104264    
H     -2.3932837    -0.8015342     3.5506363    
H     -2.2277882    -0.2164916     5.8903439    
H     -1.2611699     1.2268434     5.5131883    
H     -0.3407842    -1.6806735     5.3887595    
H      0.4335652    -0.3532862     6.2730718    
H      1.1186040     0.7293428     4.2221585    
H      1.3281316    -0.9810150     3.7859020    
H     -4.1456252     0.3351701     2.8805652    
H     -3.6656846     3.0271815     1.8890921    
H     -5.6921794     2.5674803     0.5296238    
H     -5.9521804     1.0499517     1.3933680    
H     -4.5151365     1.2514414     0.3707026    
H     -6.1909131     3.1022634     4.9963672    
H     -5.0891424     1.7914593     4.6746195    
