63

C      3.8139473    -2.6955077    -2.6989511    
O      4.1240093    -2.2676938    -3.8056519    
C      4.4970778    -3.8685624    -2.0413210    
N      2.8281403    -2.1494928    -1.9656114    
C      2.0424348    -1.0241894    -2.4045036    
C      1.8424410    -0.0586802    -1.2432552    
O      1.7478898    -0.4554127    -0.0860095    
C      0.6356875    -1.4790116    -2.8676196    
C      0.7544629    -2.3227090    -4.1027625    
C      0.9539030    -3.6939016    -4.0080430    
C      0.7282668    -1.7340488    -5.3604954    
C      1.1286743    -4.4605941    -5.1463481    
C      0.8983597    -2.4994670    -6.4995956    
C      1.1027882    -3.8644496    -6.3953605    
N      1.7574644     1.2333035    -1.5790712    
C      1.2722458     2.2002525    -0.6088463    
C     -0.1105324     1.7242289    -0.1381269    
O     -0.8933753     1.1830459    -0.9105746    
C      1.1705705     3.5822166    -1.2386959    
N     -0.3886555     1.9681996     1.1423405    
C     -1.6071040     1.5574141     1.7915932    
C     -1.6198173     2.1960206     3.1826617    
O     -0.5975549     2.6680208     3.6700715    
C     -1.6879536     0.0102614     1.9141573    
O     -2.8764196    -0.2937654     2.6232692    
C     -0.4520946    -0.5663491     2.6021061    
N     -2.8080969     2.1831437     3.7862601    
C     -2.9941709     2.5543074     5.1703381    
C     -2.8314089     1.3646242     6.1302042    
O     -2.7403910     1.5534991     7.3391039    
C     -4.3740926     3.1736668     5.3716285    
N     -2.8330597     0.1519766     5.5812452    
H      3.7690941    -4.6440524    -1.8207502    
H      4.9654591    -3.5501048    -1.1137396    
H      5.2541028    -4.2626080    -2.7122340    
H      2.6311117    -2.4812663    -1.0319570    
H      2.5770794    -0.5577460    -3.2378037    
H      0.0233602    -0.5959680    -3.0552000    
H      0.1788055    -2.0436575    -2.0532810    
H      0.9703847    -4.1645491    -3.0356075    
H      0.5737029    -0.6685029    -5.4474371    
H      1.2882349    -5.5247807    -5.0582582    
H      0.8765587    -2.0288050    -7.4711324    
H      1.2416022    -4.4604901    -7.2846683    
H      1.7250406     1.4946294    -2.5527493    
H      1.9596956     2.2047132     0.2435882    
H      0.8589134     4.3055297    -0.4911482    
H      0.4361414     3.5705650    -2.0403880    
H      2.1359457     3.8815917    -1.6364469    
H      0.2963049     2.3632381     1.7794256    
H     -2.4690272     1.8936232     1.2046285    
H     -1.7493536    -0.3814732     0.8904462    
H     -3.1595651    -1.1918146     2.4030690    
H     -0.6015082    -1.6226981     2.8073044    
H     -0.2555543    -0.0500121     3.5389177    
H      0.4121413    -0.4655164     1.9509420    
H     -3.5805696     1.7187319     3.3268941    
H     -2.2115956     3.2755755     5.4296003    
H     -4.4965199     3.4436573     6.4170604    
H     -5.1477837     2.4592590     5.1037228    
H     -4.4776979     4.0646121     4.7597717    
H     -2.7188998    -0.6433670     6.1886152    
H     -2.8555968     0.0092058     4.5775005    
