51

O      1.1403611     1.6438298     4.1012840    
C      2.0336758     1.8851422     3.2636653    
O      3.0020322     1.1411108     2.9934101    
C      1.9517963     3.2398063     2.5071332    
C      2.1389957     3.0817610     0.9924935    
N      0.9268675     2.7773390     0.2713874    
C      0.2694587     1.5865952     0.3222693    
N     -0.9818763     1.6226372    -0.1798805    
C     -1.6256515     0.4699197    -0.2366562    
C     -2.9685582     0.4601888    -0.8520281    
N     -3.6832480     1.5817847    -0.8434097    
C     -4.8767143     1.5639270    -1.4135039    
C     -5.4285355     0.4463381    -2.0216965    
C     -4.6829419    -0.7239889    -2.0329852    
C     -3.4344279    -0.7181992    -1.4399040    
N     -1.1817443    -0.7090724     0.1763271    
C      0.0645056    -0.7600411     0.6866012    
C      0.8451287     0.3978912     0.7515043    
N      0.4869313    -1.9668078     1.1498789    
C     -0.2207898    -3.1624635     0.7378986    
C      0.4607471    -3.8165035    -0.4816469    
C      0.9098242    -2.7269473    -1.4107726    
C      2.0110287    -1.9379967    -1.0618324    
C      2.7848662    -2.2206417     0.1980239    
C      1.8824657    -2.1740072     1.4624022    
C      0.1867410    -2.4236709    -2.5544524    
C      0.5434600    -1.3562624    -3.3583960    
C      1.6349219    -0.5775673    -3.0178970    
C      2.3622401    -0.8727330    -1.8783138    
H      2.7553873     3.8596876     2.9074404    
H      0.9919910     3.7023273     2.7410675    
H      2.8732306     2.2871047     0.8239593    
H      2.5308108     4.0096209     0.5686178    
H      0.2976880     3.5542588     0.1214773    
H     -5.4129403     2.5031970    -1.3738797    
H     -6.4082373     0.4923452    -2.4699850    
H     -5.0664908    -1.6206030    -2.4967727    
H     -2.8010351    -1.5896764    -1.4168908    
H      1.8420110     0.3898225     1.1483292    
H     -1.2341944    -2.8520243     0.4859460    
H     -0.2489854    -3.8559419     1.5819286    
H     -0.2469223    -4.4798926    -0.9768199    
H      1.3189498    -4.4040432    -0.1518208    
H      3.5813025    -1.4822142     0.3023039    
H      3.2515753    -3.2054280     0.1213194    
H      1.9456981    -3.1141395     2.0122818    
H      2.2158989    -1.3803079     2.1353705    
H     -0.6724559    -3.0231348    -2.8114743    
H     -0.0378129    -1.1222524    -4.2375953    
H      1.9133134     0.2686596    -3.6279020    
H      3.2019260    -0.2502369    -1.6021453    
