54

C     -0.0297613     5.1951850    -2.0935711    
C      0.6626268     3.8988804    -1.7998731    
C      1.9894757     3.9058147    -1.3574354    
C      2.6402562     2.7077982    -1.0870043    
C      1.9741102     1.5090747    -1.2325492    
C      0.6527978     1.4841046    -1.6579284    
C      0.0055732     2.6796019    -1.9602120    
C     -1.4133251     2.6604395    -2.4595033    
C     -1.7892697     1.2871794    -2.9906850    
N     -1.4992577     0.2667808    -1.9637765    
C     -0.0258385     0.1319721    -1.7713254    
C      0.2377009    -0.6902340    -0.5280506    
C      0.8153457    -1.9513197    -0.6099216    
C      1.0340451    -2.6945008     0.5338060    
C      0.6865647    -2.1988629     1.7927849    
C      0.1062925    -0.9297311     1.8646316    
C     -0.1137574    -0.1885207     0.7222815    
C      0.9400642    -3.0131909     2.9691663    
C      0.8621419    -2.6421751     4.2467234    
C      1.1745730    -3.5961634     5.3726583    
O      1.4257413    -4.7904686     5.0821298    
O      1.1580156    -3.1131705     6.5321743    
C     -2.1344979    -1.0395360    -2.2590200    
C     -3.6267835    -1.0767663    -1.9101237    
C     -3.8571101    -0.7713383    -0.4294409    
C     -4.1560007    -2.4684334    -2.2536732    
O      2.6142787     5.1049172    -1.2051819    
H      0.6150990     6.0250622    -1.8200703    
H     -0.9584450     5.2750040    -1.5326181    
H     -0.2600552     5.2785650    -3.1546863    
H      3.6672422     2.7153398    -0.7526073    
H      2.4839593     0.5860754    -1.0042630    
H     -1.5318456     3.3942411    -3.2558745    
H     -2.0873135     2.9558599    -1.6502592    
H     -1.2040532     1.0498221    -3.8797239    
H     -2.8488216     1.2550482    -3.2394042    
H     -1.8846658     0.5929508    -1.0679830    
H      0.3694486    -0.3983927    -2.6449907    
H      1.1017343    -2.3589945    -1.5678892    
H      1.4844779    -3.6737509     0.4672233    
H     -0.1739111    -0.5346744     2.8282197    
H     -0.5414817     0.7990710     0.8132382    
H      1.2444903    -4.0405113     2.7934794    
H      0.5961469    -1.6468313     4.5784960    
H     -1.6294992    -1.8054937    -1.6676523    
H     -1.9865912    -1.2593929    -3.3168688    
H     -4.1778649    -0.3491237    -2.5121526    
H     -4.8885700    -0.9890236    -0.1650575    
H     -3.6839655     0.2754549    -0.1882857    
H     -3.2172592    -1.3889889     0.1986704    
H     -3.9855020    -2.7031992    -3.3007979    
H     -5.2240391    -2.5255031    -2.0636924    
H     -3.6649858    -3.2244430    -1.6454192    
H      3.5223460     4.9794020    -0.8958349    
