37

C     -0.3109379    -1.5469619    -1.2040643    
F      2.5094698    -1.9591176     1.6886110    
N     -0.0405072    -1.4707643     0.1476639    
C     -0.5355099    -0.2457633    -1.7086028    
F      2.0959915    -4.0782684     1.4738473    
N     -1.6815219     4.4898803     1.3104811    
C     -0.3624451     0.6528663    -0.6020538    
C     -0.0404905    -0.1466451     0.5207168    
C     -0.3885141    -2.6589453    -2.0297166    
C     -0.6996617    -2.4522498    -3.3607908    
C     -0.9263092    -1.1735137    -3.8657628    
C     -0.8464148    -0.0626440    -3.0500661    
C      0.2121074     0.4291921     1.7578660    
C      0.1279308     1.8033408     1.8597721    
C     -0.1944409     2.6063494     0.7607740    
C     -0.4411863     2.0315403    -0.4761742    
C      0.3151907    -2.5775060     0.9822496    
C      1.8209519    -2.8593928     0.9326170    
C     -0.2960558     4.0984395     0.9325280    
C     -1.8314812     5.9420742     1.5068341    
H     -1.9387421     3.9960821     2.1736950    
H     -2.3256012     4.1715402     0.5761694    
H     -0.2107856    -3.6571818    -1.6601598    
H     -0.7654522    -3.3011880    -4.0246937    
H     -1.1648075    -1.0571453    -4.9120370    
H     -1.0181563     0.9249110    -3.4480705    
H      0.4857004    -0.1670286     2.6135683    
H      0.3376084     2.2637585     2.8127560    
H     -0.6734417     2.6356574    -1.3389703    
H     -0.2008768    -3.4804706     0.6468323    
H      0.0319442    -2.3738297     2.0181306    
H      2.2434016    -2.8340959    -0.0808657    
H      0.3827884     4.4351381     1.7166424    
H     -0.0372639     4.6033836     0.0014189    
H     -2.8558997     6.1837044     1.7755086    
H     -1.5734147     6.4688915     0.5918060    
H     -1.1702882     6.2791697     2.3009052    
