89

O      1.5918161    -6.1956388    -1.9911469    
C      1.6896453    -4.9829121    -1.8165591    
C      2.4621614    -4.3396479    -0.6640979    
O      2.1511984    -4.9525873     0.5718073    
C      3.9610499    -4.4464285    -0.9730486    
C      1.9637640    -2.8934044    -0.6857648    
C      1.4341816    -2.6703818    -2.1104701    
N      1.1639728    -4.0272837    -2.5816296    
C      0.5439220    -4.3377043    -3.8504563    
C      1.5804395    -4.5069306    -4.9740292    
C      2.3851388    -3.2567754    -5.1852901    
C      3.7172821    -3.1950146    -4.7968380    
C      4.4458637    -2.0273670    -4.9499359    
C      3.8481139    -0.9041397    -5.4952830    
C      2.5228255    -0.9579855    -5.8950006    
C      1.7978622    -2.1258480    -5.7420681    
C      0.1849243    -1.7886211    -2.1403059    
C      0.4577010    -0.3508852    -1.6569702    
C      1.1065609     0.4300509    -2.7994068    
C     -0.8607056     0.2775523    -1.1693016    
C     -0.8313338     1.7491397    -0.6816889    
C      0.4044950     2.0422215     0.1730458    
C     -2.1146172     1.7941813     0.1961034    
C     -1.9856318     0.5287639     1.0334655    
C     -1.4547094    -0.5061203     0.0295567    
C     -0.9837660     2.7855059    -1.7982026    
C     -1.2327416     4.1795488    -1.2267767    
C     -2.4383525     4.1891220    -0.2833927    
C     -2.3012631     3.1514656     0.8020093    
C     -2.3256399     3.5379173     2.0858629    
C     -2.2903879     2.7379517     3.2823284    
C     -2.0553223     3.1742188     4.5343021    
C     -2.0492301     2.2107641     5.6444569    
C     -1.5012936     1.0037788     5.5437859    
C     -2.7218238     2.6743041     6.9208939    
O     -2.5882342     1.7687566     7.9941903    
C     -2.2261708     4.0747851     7.3023437    
C     -2.4925138     5.0532091     6.1622873    
O     -3.8926467     5.1259061     5.9718135    
C     -1.7488565     4.6009525     4.8984292    
H      2.1510872    -5.9126129     0.4451129    
H      4.5279778    -4.0790247    -0.1212514    
H      4.2024137    -3.8562997    -1.8523795    
H      4.2296232    -5.4846605    -1.1565369    
H      2.7527332    -2.1946651    -0.4209205    
H      1.1555009    -2.8103066     0.0413670    
H      2.2142315    -2.2304488    -2.7430849    
H     -0.1652584    -3.5513668    -4.1008885    
H      0.0077927    -5.2818731    -3.7214495    
H      1.0442474    -4.7666119    -5.8879669    
H      2.2387483    -5.3375565    -4.7127310    
H      4.1862580    -4.0717580    -4.3720261    
H      5.4804206    -1.9955227    -4.6416300    
H      4.4130786     0.0081617    -5.6108665    
H      2.0538436    -0.0850612    -6.3238133    
H      0.7664346    -2.1634892    -6.0594963    
H     -0.5740963    -2.2661444    -1.5220399    
H     -0.1999766    -1.7258989    -3.1587164    
H      1.1554523    -0.3883079    -0.8183067    
H      1.5120221     1.3750402    -2.4546673    
H      0.3814103     0.6257656    -3.5859252    
H      1.9255998    -0.1409635    -3.2300028    
H     -1.5690458     0.2303241    -2.0037167    
H      0.2162376     2.8832211     0.8363105    
H      1.2601829     2.2830721    -0.4518187    
H      0.6650221     1.1871540     0.7885725    
H     -2.9620565     1.6411511    -0.4864232    
H     -2.9358009     0.2193908     1.4674719    
H     -1.2656875     0.6733036     1.8354362    
H     -0.6963530    -1.1313947     0.5001076    
H     -2.2626361    -1.1576575    -0.3022150    
H     -1.8293658     2.5048674    -2.4316139    
H     -0.0947769     2.8162091    -2.4262723    
H     -1.4096891     4.8813293    -2.0444793    
H     -0.3496374     4.5198752    -0.6848016    
H     -3.3393251     3.9694176    -0.8648148    
H     -2.5564160     5.1843194     0.1487276    
H     -2.4019237     4.6070195     2.2492763    
H     -2.5118359     1.6896897     3.1712341    
H     -1.0032278     0.6806377     4.6471507    
H     -1.5439382     0.2985814     6.3560734    
H     -3.8021976     2.7333434     6.7349484    
H     -1.6554109     1.7276168     8.2484191    
H     -1.1549575     4.0458688     7.5096941    
H     -2.7538263     4.4019883     8.1994177    
H     -2.1168443     6.0485996     6.4547720    
H     -4.0859414     5.7249557     5.2388149    
H     -1.9967435     5.2711917     4.0751640    
H     -0.6757989     4.6949722     5.0888773    
