12

C      0.1517630    -0.0073689    -0.0980951    
C     -2.0677828    -0.0214516    -0.5399378    
C     -2.3504882     0.0563154     0.8143282    
C      1.6160140    -0.0371774    -0.5545710    
C     -0.1431177     0.0705408     1.2661036    
O      1.8464599     0.0109288    -1.7754403    
O      2.4626635    -0.1039608     0.3636357    
N     -0.8231654    -0.0527840    -0.9999587    
N     -1.3823439     0.1032524     1.7250797    
H     -2.8438606    -0.0612489    -1.2906920    
H     -3.3611363     0.0820729     1.1939465    
H      0.6655285     0.1053751     1.9828003    
