60

S      0.5296365     2.6072694     0.4144349    
C     -0.1313172    -0.0363848     0.6275286    
C     -0.2787576    -1.4101895    -0.0640862    
C      0.0707496    -0.2436594    -2.2557937    
C     -0.4002087    -0.0392656    -3.7051440    
C     -4.2754820    -6.3376772     3.5150160    
C      0.5955149     0.9383949    -0.3117732    
C      1.5146301     3.4814338    -0.8456774    
O      0.0141772     1.0064486    -1.5856350    
O      2.8391618     3.0498350    -0.7060574    
C      3.7259509     3.6587797    -1.6360097    
C      5.1284764     3.1055172    -1.3503048    
O     -0.0165589    -1.1022875    -4.5338490    
O      5.1942604     1.7113643    -1.4995718    
C     -0.8185209    -1.2567787    -1.5120569    
C      3.7104129     5.1884091    -1.5182348    
O     -2.1631214    -0.8833658    -1.5378579    
O      4.2605147     5.5631924    -0.2826124    
C      2.2705132     5.7059074    -1.6525383    
O      2.2970226     7.0918729    -1.4352875    
C      1.3673993     4.9921447    -0.6353615    
O      0.5040612    -0.1433772     1.8654804    
O      0.0586209     5.4388880    -0.8634295    
N     -1.1742774    -2.2309848     0.7071684    
N     -2.2997456    -1.7517280     1.2257225    
N     -2.9240153    -2.7005591     1.8094014    
C     -2.2176859    -3.8541029     1.6832676    
C     -1.0750083    -3.5513236     0.9599806    
C     -2.6714200    -5.1129051     2.2471207    
C     -3.8559601    -5.1393285     2.9817515    
C     -3.5734859    -7.5170421     3.3524865    
C     -2.3986097    -7.4793219     2.6194144    
C     -1.9486507    -6.2923262     2.0715941    
F     -5.4331224    -6.3637528     4.2405921    
H     -1.1316695     0.3490909     0.8510367    
H      0.6931965    -1.9140786    -0.0978475    
H      1.1099542    -0.6087326    -2.2583358    
H     -0.0166982     0.9216847    -4.0638742    
H     -1.4917552    -0.0140655    -3.7259203    
H      1.6601238     0.6650913    -0.3940826    
H      1.1043740     3.2028336    -1.8286341    
H      3.4122214     3.3806747    -2.6545109    
H      5.4191453     3.4151768    -0.3424030    
H      5.8267754     3.5280893    -2.0734383    
H      0.9311201    -1.0534790    -4.7258333    
H      4.6868720     1.3057778    -0.7840305    
H     -0.7737035    -2.2231605    -2.0251509    
H      4.3097714     5.6084086    -2.3403483    
H     -2.2550260     0.0339319    -1.2396567    
H      4.1105490     6.5159622    -0.1717635    
H      1.8902192     5.4826179    -2.6613126    
H      1.3844086     7.4141766    -1.3883243    
H      1.7095322     5.2373728     0.3806063    
H      1.4365466    -0.3848401     1.7580926    
H     -0.5457886     5.0518174    -0.2125532    
H     -0.2463688    -4.1397570     0.6316461    
H     -4.4242174    -4.2359130     3.1259686    
H     -3.9441334    -8.4288345     3.7908249    
H     -1.8337874    -8.3866939     2.4772548    
H     -1.0313125    -6.2811633     1.5063855    
