88

F      0.5838384     2.8895532     5.4544520    
F      1.4695010     0.9333769     5.4451711    
F     -0.6133180     1.1667606     5.9256581    
F      2.6583764     3.2138480    -1.9379701    
F      0.6274358     3.6265308    -1.3550757    
F      1.9903828     5.2386258    -1.7221975    
C     -2.9437074     1.3122222    -1.0204673    
C     -2.6175018     2.5981487    -1.7730141    
C     -2.1500193     2.2866740    -3.1941929    
N     -1.0286294     1.3715480    -3.1385113    
C     -1.2825346     0.0993073    -2.4831371    
C     -1.7372739     0.3576731    -1.0200900    
C     -2.1315653    -0.9918814    -0.3801377    
N     -1.1885498    -1.8929369    -0.0869934    
O     -3.3276904    -1.2270909    -0.2002435    
O     -0.6091255     0.9804144    -0.3987300    
C     -0.5085046     1.1351177     0.9371993    
C      0.6981799     1.7034337     1.3671031    
C      0.9623446     1.8629589     2.7066439    
C      0.0184067     1.4558285     3.6479100    
C     -1.1874282     0.9086949     3.2352178    
C     -1.4540938     0.7500058     1.8874731    
C      0.2382109     1.7154307    -3.3973577    
O      1.2106238     1.0062394    -3.1428625    
C      0.4654813     2.9931391    -4.1510665    
C      0.1056446     3.0872453    -5.4983457    
N      0.3987718     4.1203110    -6.2606090    
C      1.0790895     5.1264461    -5.7386987    
C      1.5031661     5.1493279    -4.4169612    
C      1.1907460     4.0577013    -3.6173066    
C     -1.5857859    -3.1566883     0.5137415    
C     -0.9584104    -3.2978412     1.8953838    
N      0.4894867    -3.1985651     1.7933250    
C      0.8854815    -1.9361134     1.2059929    
C      0.2528154    -1.8030878    -0.1851128    
C      1.2071022    -3.6587002     2.9059759    
C      2.0510724    -2.8402059     3.6556631    
C      2.7445198    -3.3294430     4.7479063    
C      2.6069432    -4.6515363     5.1276221    
C      1.7939292    -5.4886692     4.3829859    
C      1.1101175    -5.0133897     3.2761868    
O      0.3232661    -5.9114720     2.5690922    
C      0.8187519    -6.2074713     1.2663641    
C     -0.1828600    -7.1092473     0.5510995    
O     -1.1237618    -6.3136455    -0.1389090    
C      0.3477048     1.6054422     5.0959753    
C      1.6139617     4.0272759    -2.1760090    
C     -2.2552535    -0.7730628    -3.2816054    
C     -1.7563905    -1.0132989    -4.7059419    
C     -2.6682292    -1.9770189    -5.4556984    
H     -3.7876926     0.7938378    -1.4738236    
H     -3.2219592     1.5511955     0.0057437    
H     -1.8266661     3.1332139    -1.2437532    
H     -3.5003496     3.2339842    -1.8103699    
H     -1.8483419     3.2028106    -3.7010109    
H     -2.9566717     1.8186535    -3.7620426    
H     -0.3121909    -0.4063615    -2.4572076    
H      1.4202024     1.9897731     0.6206602    
H      1.8978442     2.2891800     3.0327253    
H     -1.9171987     0.5963107     3.9653967    
H     -2.3906049     0.3034600     1.5980362    
H     -0.4422015     2.2860265    -5.9729939    
H      1.2930536     5.9471653    -6.4065281    
H      2.0542586     5.9855401    -4.0197925    
H     -1.2503243    -3.9791760    -0.1227516    
H     -2.6725557    -3.1749009     0.5892868    
H     -1.2232299    -4.2700542     2.3082058    
H     -1.3496120    -2.5090007     2.5601379    
H      1.9707778    -1.9213608     1.0958258    
H      0.5783132    -1.0810339     1.8275755    
H      0.5776129    -0.8693664    -0.6357363    
H      0.5929937    -2.6374450    -0.8066763    
H      2.1530292    -1.7971591     3.4001945    
H      3.3806117    -2.6636351     5.3108162    
H      3.1359455    -5.0344894     5.9853714    
H      1.6821378    -6.5302089     4.6426675    
H      1.7835751    -6.7221659     1.3619902    
H      0.9543269    -5.2844592     0.6943209    
H     -0.6752571    -7.7360066     1.3033960    
H      0.3606141    -7.7470756    -0.1569676    
H     -1.8158397    -6.8824619    -0.5023955    
H     -3.2478641    -0.3256496    -3.3118589    
H     -2.3498510    -1.7301697    -2.7667907    
H     -0.7429401    -1.4179225    -4.6695346    
H     -1.7124484    -0.0642307    -5.2430419    
H     -2.3066732    -2.1301129    -6.4689295    
H     -3.6800629    -1.5830274    -5.5060922    
H     -2.7004095    -2.9396937    -4.9516566    
