69

C      5.5586858     3.8592995    -7.2177968    
O     -1.0526858    -0.5135990    -1.7744302    
O     -3.2365930    -1.9699388     2.5233955    
O     -2.0772428    -0.5679417     4.1598323    
O      0.2988116    -2.2206992    -2.2363469    
C      2.0141497     2.7022258    -0.5532285    
C      2.5465465     1.4247315    -0.5013017    
C      1.2094669     3.0801087    -1.6073684    
C      0.6444632    -1.8170375     2.7538484    
C      1.7166091    -1.7263745     1.8979359    
C      1.4912157     0.9067566    -2.5978058    
C     -0.8204132    -1.4716880     0.8847790    
C      4.3156205     4.0382940    -6.3538022    
C      3.0361629     3.7006961    -7.1168927    
C      1.7881758     3.9303558    -6.2677072    
C      0.5034968     3.5744377    -7.0173179    
C     -0.7538574     3.7442817    -6.1532787    
C     -1.2870572     2.4417808    -5.5491308    
C     -0.2927114     1.7288506    -4.6374938    
C     -2.9886272    -5.0765575     4.2358864    
C     -3.6335259    -3.3471878     5.7037465    
C      2.8157749    -0.8825175    -1.4508468    
C     -1.7729988    -4.3243902     3.6628043    
C     -2.1390575    -2.9826533     5.6635248    
O     -4.0056994    -4.1648491     4.6029765    
O      0.1113671     2.6311660    -3.6204660    
O      2.7233197    -1.4255572    -0.1396830    
C     -0.1863554    -1.3569425    -1.4744954    
C      2.2788555     0.5243644    -1.5222286    
C      0.9289147     2.1765144    -2.6339123    
C     -0.6307125    -1.6743324     2.2331906    
C      1.5467907    -1.5119078     0.5190818    
C      0.2481329    -1.4083397    -0.0027149    
N     -1.6371926    -3.0240417     4.3033787    
S     -2.0371167    -1.7423495     3.3092700    
H      6.4545544     4.0917928    -6.6462660    
H      5.5173605     4.5210947    -8.0808580    
H      5.6303413     2.8324798    -7.5722558    
H      2.2184052     3.4032793     0.2406468    
H      3.1567088     1.1154461     0.3329149    
H      0.7596194     4.0585467    -1.6523544    
H      0.7709397    -1.9877812     3.8089350    
H      2.7279919    -1.8193286     2.2589998    
H      1.2824734     0.1825446    -3.3701946    
H     -1.8250676    -1.3733303     0.4978608    
H      4.2624097     5.0715262    -6.0008507    
H      4.3849636     3.3936627    -5.4727295    
H      3.0716126     2.6544471    -7.4319533    
H      2.9770415     4.3155874    -8.0180171    
H      1.7440752     4.9813378    -5.9708672    
H      1.8608798     3.3429473    -5.3496342    
H      0.5638773     2.5447079    -7.3767656    
H      0.4303449     4.2210698    -7.8942913    
H     -1.5573637     4.1703397    -6.7559377    
H     -0.5419747     4.4379609    -5.3391515    
H     -1.5620181     1.7439182    -6.3409185    
H     -2.1811172     2.6642889    -4.9643823    
H      0.5843033     1.3978780    -5.2085025    
H     -0.7612928     0.8448458    -4.1804347    
H     -2.6946375    -5.6719693     5.1100555    
H     -3.4348613    -5.7251012     3.4828953    
H     -4.2505101    -2.4510937     5.6110349    
H     -3.8768707    -3.8692738     6.6390569    
H      2.2975899    -1.5261440    -2.1695600    
H      3.8906038    -0.9011715    -1.6547562    
H     -1.9019557    -4.1355632     2.5952712    
H     -0.8511211    -4.8916602     3.8199648    
H     -1.5378842    -3.6838758     6.2466620    
H     -1.9835397    -1.9683064     6.0265286    
