81

C     -3.4436167     5.4753220     3.7153435    
C     -3.2512340     5.9698531     5.1429130    
N     -4.3383322     6.8958986     5.5301150    
C     -4.1492868     7.4033993     6.8995651    
C     -5.6375539     6.2019236     5.3890997    
C     -5.8361636     5.7032684     3.9642986    
N     -4.7442036     4.7761509     3.5803509    
C     -4.9542823     4.2445954     2.2091745    
C     -3.9374293     3.1870064     1.8476481    
C     -3.0686503     3.2888146     0.7549983    
C     -3.0687360     4.5044865    -0.1327664    
F     -2.1345459     4.4806178    -1.0846030    
F     -2.8664143     5.6444950     0.5697600    
F     -4.2543274     4.6912272    -0.7561010    
C     -2.1886884     2.2589835     0.4558428    
C     -3.8729122     2.0331302     2.6253037    
C     -2.9944774     1.0061574     2.3340047    
C     -2.1520152     1.1054668     1.2311333    
C     -1.1635823     0.0514414     0.8391711    
O     -0.1253701     0.3608070     0.2623589    
N     -1.5334005    -1.2049292     1.1686725    
C     -0.8619336    -2.4163678     0.9531797    
C      0.3970608    -2.4766660     0.3637128    
C     -1.4960385    -3.5853687     1.3568475    
C     -0.8652201    -4.8023710     1.1740125    
C      0.3853645    -4.8881504     0.5896654    
C      1.0756264    -6.1995828     0.3858967    
C      1.0177343    -3.7029663     0.1761941    
O      2.2460397    -3.8742000    -0.3860360    
C      2.9718566    -2.7646415    -0.8938867    
C      2.4211695    -2.2969652    -2.2480970    
C      2.5726013    -3.4054269    -3.2878399    
C      4.4211230    -3.2319104    -1.0633425    
C      4.5080404    -4.3066228    -2.1480481    
N      3.9621404    -3.8032396    -3.3888212    
C      4.6438944    -3.6346807    -4.5252360    
O      4.1322892    -3.1971053    -5.5593283    
C      6.0935326    -4.0097396    -4.5120954    
C      7.0664452    -3.1207705    -4.0657238    
C      8.3986946    -3.4865369    -4.1616923    
C      8.7046645    -4.7246574    -4.7071870    
N      7.7867766    -5.5740904    -5.1424556    
C      6.5167156    -5.2218364    -5.0517919    
H     -2.6332870     4.7920302     3.4583455    
H     -3.4178730     6.3016927     3.0017474    
H     -2.2891179     6.4790541     5.2146488    
H     -3.2425743     5.1369782     5.8497949    
H     -4.3244521     7.7041495     4.8937569    
H     -4.9473785     8.0930287     7.1608599    
H     -3.2005081     7.9267404     6.9820606    
H     -4.1547489     6.5795014     7.6088277    
H     -6.4492238     6.8855297     5.6418768    
H     -5.6622441     5.3753753     6.1027500    
H     -5.8474960     6.5324619     3.2543285    
H     -6.7960424     5.1897770     3.8979918    
H     -4.7460563     3.9765781     4.2303937    
H     -4.9406063     5.0774734     1.5081197    
H     -5.9455296     3.7854707     2.1611859    
H     -1.5141620     2.3341904    -0.3830637    
H     -4.5394408     1.9055525     3.4640504    
H     -2.9581303     0.1434291     2.9798298    
H     -2.4526175    -1.3270017     1.5752094    
H      0.8691416    -1.5596376     0.0585491    
H     -2.4743420    -3.5515987     1.8092135    
H     -1.3572569    -5.7092431     1.4906917    
H      0.5033115    -7.0111038     0.8250192    
H      2.0666687    -6.1753312     0.8351413    
H      1.2058617    -6.3963693    -0.6772057    
H      2.9432278    -1.9385750    -0.1706682    
H      2.9756299    -1.4137512    -2.5659598    
H      1.3676873    -2.0321350    -2.1634136    
H      2.2478907    -3.0664529    -4.2729006    
H      1.9801617    -4.2762087    -2.9902326    
H      4.7829273    -3.6446125    -0.1226835    
H      5.0379929    -2.3757785    -1.3353374    
H      3.9133150    -5.1713491    -1.8384378    
H      5.5399317    -4.6221633    -2.2966033    
H      6.7819483    -2.1620871    -3.6584671    
H      9.1821408    -2.8267360    -3.8275088    
H      9.7281976    -5.0575736    -4.8069996    
H      5.7992938    -5.9404041    -5.4246719    
