120

C     -2.7092910     1.4241979     0.7402960    
C     -2.5381252     0.6666902    -0.4143712    
C     -2.1657202    -0.6860279    -0.3105255    
C     -1.8827107    -1.2625274     0.9221695    
C     -1.7223103    -1.0176185     3.4169854    
C     -1.8548826    -0.1835002     4.5424283    
C     -2.3444613     1.1056981     4.4800105    
C     -2.6621841     1.6106859     3.2152993    
C     -2.4772014     0.8383853     2.0180784    
C     -2.0266384    -0.5117991     2.1094355    
C     -1.2216048    -2.2516277     3.9020612    
C     -1.0388756    -2.0900322     5.4212565    
C     -1.9163991    -3.0687197     6.1969295    
C     -2.5135742     1.9592604     5.6967387    
C     -3.3923670     2.1515041    -2.2509770    
C     -3.3146850     2.3176892    -3.7176491    
C     -2.1895321     2.2121280    -4.4488770    
C     -0.8409130     1.9681487    -4.0024763    
C      0.1382885     1.7250690    -4.8777109    
C      1.5670102     1.3675498    -4.6016764    
C      1.9356034     1.4848224    -3.1105310    
C      3.3412593     0.9434356    -2.7790367    
C      3.6561677     0.9972806    -1.2636368    
C      2.6143824     0.2798498    -0.3650119    
C      3.0343884     0.4167894     1.1121678    
C      1.8989048     0.1045089     2.1069217    
C      2.4793033    -0.2867041     3.4843078    
C      1.3748617    -0.6749713     4.4270465    
C      1.3044067    -1.8652336     5.0026742    
C     -4.6272228     2.6808838    -4.3485224    
C      1.7881040    -0.0452727    -5.1582501    
C      4.4345766     1.6939161    -3.5425449    
C      2.4391730    -1.1857058    -0.7566734    
C      1.0037679     1.3376000     2.2206174    
C      5.3679439     0.1326527     1.4293860    
C      6.4328920    -0.8633348     1.7763254    
C      3.9947708     0.5241522     5.1148537    
C     -0.6565577    -3.7216964    -7.3617229    
C     -0.0963776    -3.5286585    -4.9982024    
C     -0.6138156    -3.0949574    -3.6290525    
C     -2.0341054    -1.4720210    -4.6511693    
C     -1.5355275    -1.8764681    -6.0333201    
C     -2.0901960    -1.5431751    -1.5463318    
N     -2.6585282     1.1526403    -1.7299248    
N     -1.1249204    -0.9802195    -2.5088535    
N     -0.9463922    -1.6775623    -3.7108479    
N     -1.1276124    -3.2997298    -6.0341983    
O     -3.0466154     2.7352414     0.6886448    
O     -3.1275117     2.8509003     3.2125072    
O     -1.4452777    -0.7532655     5.7014706    
O     -0.9404927    -3.3145811     3.3343872    
O      0.2901551    -2.3349176     5.8071575    
O      3.2402144     0.8148267     3.9615372    
O      4.1698353    -0.4266612     1.3679974    
O      5.5764086     1.3118085     1.2120500    
O      3.7895185     2.3572306    -0.8736715    
O      1.7878045     2.8477568    -2.7476229    
O     -4.1527687     2.8699122    -1.5735078    
O     -1.4685204    -2.5494550     0.8851353    
H     -1.6921978    -2.9745670     7.2550730    
H     -1.6908219    -4.0766828     5.8601321    
H     -2.9629195    -2.8398509     6.0176712    
H     -2.1702890     1.4219524     6.5752627    
H     -3.5607053     2.2290003     5.8194600    
H     -1.9488323     2.8830166     5.5854152    
H     -2.2935841     2.3563821    -5.5175703    
H     -0.6337728     2.0289436    -2.9473998    
H     -0.1069071     1.7200707    -5.9329842    
H      2.1911214     2.0803710    -5.1508283    
H      1.2059736     0.8865812    -2.5419698    
H      3.3834344    -0.1091401    -3.0596465    
H      4.6225030     0.4884180    -1.1299013    
H      1.6652925     0.8122269    -0.4589313    
H      3.3485054     1.4478291     1.3110058    
H      1.3160266    -0.7521629     1.7595321    
H      3.1466316    -1.1543927     3.3589804    
H      0.6325817     0.0828652     4.6140936    
H      2.0763451    -2.6161063     4.8889677    
H     -5.3076817     1.8297950    -4.3286872    
H     -4.4946404     3.0071416    -5.3747206    
H     -5.0945271     3.4795242    -3.7745015    
H      1.4679435    -0.0681901    -6.1961707    
H      1.1986905    -0.7449293    -4.5728704    
H      2.8359123    -0.3249529    -5.1267953    
H      4.3735325     1.4911635    -4.6069340    
H      5.4175566     1.3876105    -3.1916114    
H      4.3374772     2.7650716    -3.3858290    
H      2.0834812    -1.2645180    -1.7783868    
H      1.7244558    -1.6702463    -0.0968300    
H      3.3870122    -1.7110331    -0.6737925    
H      0.7103693     1.6948494     1.2382922    
H      1.5433896     2.1290450     2.7339859    
H      0.1008389     1.1121363     2.7770427    
H      6.8690086    -0.5855882     2.7332883    
H      7.2224902    -0.8213149     1.0305988    
H      6.0101439    -1.8603028     1.8334874    
H      4.5564383     1.4268212     5.3430521    
H      4.6850147    -0.3068329     4.9288615    
H      3.3479707     0.2644201     5.9587905    
H     -0.3853673    -4.7738231    -7.3485892    
H      0.2160887    -3.1364823    -7.6409880    
H     -1.4363139    -3.5680982    -8.1026640    
H      0.1712902    -4.5849270    -4.9775400    
H      0.7824249    -2.9391485    -5.2600459    
H      0.1722400    -3.2327225    -2.8846099    
H     -1.4753869    -3.7157222    -3.3347927    
H     -2.9338492    -2.0498137    -4.3859474    
H     -2.2879624    -0.4122341    -4.6529649    
H     -0.6660604    -1.2708747    -6.2871649    
H     -2.3170477    -1.7211260    -6.7759406    
H     -3.0743957    -1.5503826    -2.0262636    
H     -1.8362379    -2.5613175    -1.2353175    
H     -2.1058192     0.5744472    -2.3801615    
H     -0.2202580    -0.8778370    -2.0555192    
H     -1.9516320    -3.8619278    -5.7880262    
H      2.3503485     3.0182791    -1.9781075    
H      4.4659610     2.4360772    -0.1862073    
H     -3.5515072     2.9344256    -0.1685660    
H     -3.2627156     3.1685045     2.2868516    
H     -1.2976135    -2.9347314     1.7769581    
