33

N     -0.3757972    -0.0600012    -0.1029415    
C     -1.3173341     0.0592552     0.8470211    
O     -1.3077227    -0.8172293     1.8787774    
C     -0.1973882    -1.6135399     2.1119619    
C      0.7529189    -1.8249170     1.1263184    
C      0.5139665    -1.2105664    -0.2184694    
O     -2.1702203     0.9314440     0.8608032    
C     -0.0741784    -2.1772243     3.3718176    
C      1.0289366    -2.9763345     3.6522684    
C      1.9977975    -3.1850089     2.6700383    
C      1.8576536    -2.6111718     1.4237942    
O      1.2065685    -3.5616490     4.8564182    
C     -0.3630743     0.8659210    -1.1894761    
C     -1.4810321     1.0330730    -1.9972851    
C     -1.4417458     1.9186685    -3.0522117    
C     -0.2823377     2.6477344    -3.3263031    
C      0.8334992     2.4802465    -2.5116768    
C      0.7858444     1.5958729    -1.4487704    
O     -0.3440004     3.4813732    -4.3972058    
C      0.8027661     4.2466832    -4.7286871    
H      1.4511955    -0.8762372    -0.6680282    
H      0.0580784    -1.9477315    -0.8963543    
H     -0.8398360    -1.9826699     4.1056715    
H      2.8485870    -3.8006685     2.9096135    
H      2.6061434    -2.7779412     0.6663427    
H      0.4765285    -3.3508961     5.4589344    
H     -2.3820289     0.4797716    -1.7857440    
H     -2.3011783     2.0638366    -3.6862602    
H      1.7401612     3.0351488    -2.6861698    
H      1.6509054     1.4848084    -0.8135832    
H      0.5182768     4.8177920    -5.6094860    
H      1.6519389     3.5995322    -4.9649981    
H      1.0681203     4.9305564    -3.9175813    
