15

C      1.1373111     0.5159963     2.0929966    
C      0.4415523     0.2044021     0.8028494    
C      0.7184931     0.9156402    -0.3568609    
C      0.0672333     0.6187301    -1.5423581    
C     -0.8718502    -0.3964864    -1.5842828    
C     -1.1561178    -1.1138381    -0.4334763    
C     -0.5040728    -0.8144826     0.7481546    
H      1.8474729     1.3284306     1.9662137    
H      1.6704758    -0.3612902     2.4558850    
H      0.4115796     0.8015607     2.8530553    
H      1.4509038     1.7100491    -0.3327351    
H      0.2943948     1.1820858    -2.4355973    
H     -1.3809626    -0.6290225    -2.5079178    
H     -1.8880053    -1.9078173    -0.4595012    
H     -0.7278963    -1.3758324     1.6442464    
