54

C      3.8717594    -3.3681340     1.3236641    
C     -2.8571029     0.6317353     1.1867127    
C      0.2565161    -2.8856007     0.2616508    
O      2.6422252    -4.6439942    -0.2678541    
O     -3.0711753     5.5289147     0.7078510    
O      3.5367006    -1.2557188    -0.4363724    
C     -2.6000313     3.5543384    -0.4749994    
C     -2.2461327     1.5022272    -1.7809534    
C     -2.4510432     3.6173040     2.0148008    
C     -0.9254097     0.7916731    -2.0675418    
C      0.0479436    -0.1344966     1.5613900    
C      0.9351400    -1.6844078    -2.3785524    
C     -1.3681808     2.5625546     1.8260871    
C      1.3604297    -0.8667993     1.2669633    
C      2.2007997    -2.5079505    -2.0741810    
C      2.9937117    -3.5462458     0.1226624    
C     -2.7212333     4.3516856     0.7294678    
C     -2.1855638     2.2769572    -0.5066900    
C     -0.5519373    -0.1085123    -0.8944235    
C     -0.4187251     0.7340791     0.3855168    
C      0.7850882    -0.7986377    -1.1432362    
C     -1.7055771     1.5425796     0.7225539    
C      1.2156222    -1.7201857     0.0104271    
C      2.5571856    -2.2661486    -0.5864302    
H      3.9204034    -2.3269744     1.6233825    
H      4.8710287    -3.7220208     1.0750673    
H      3.5034090    -3.9946327     2.1330354    
H     -3.7963797     1.1793096     1.1715786    
H     -2.6802980     0.2838531     2.1994399    
H     -2.9617409    -0.2288018     0.5345140    
H     -0.7659497    -2.5396911     0.3615524    
H      0.5311084    -3.3985706     1.1817675    
H      0.2947426    -3.6147719    -0.5416311    
H      4.3199312    -1.4851752    -0.9537017    
H     -2.9156536     4.0483499    -1.3845839    
H     -3.0340773     0.7507613    -1.6860205    
H     -2.5118409     2.1618534    -2.6072793    
H     -2.1718275     4.3357861     2.7872254    
H     -3.3906636     3.1527285     2.3237584    
H     -0.1398837     1.5333800    -2.2264072    
H     -1.0236431     0.2016184    -2.9786689    
H      0.2074547     0.4913315     2.4386719    
H     -0.7188110    -0.8667275     1.8072717    
H      0.0658417    -2.3305141    -2.4960459    
H      1.0540888    -1.1016856    -3.2897421    
H     -1.2174655     2.0475097     2.7740246    
H     -0.4365344     3.0703692     1.5652298    
H      1.6227485    -1.4866833     2.1259787    
H      2.1600768    -0.1408468     1.1133733    
H      3.0342649    -2.1903274    -2.7005129    
H      2.0444744    -3.5738048    -2.2408270    
H     -1.3338561    -0.8615481    -0.7748964    
H      0.3678386     1.4739562     0.1897407    
H      1.5505301    -0.0162989    -1.2070626    
