34

C     -0.0021769    -4.1512787     0.6921565    
O     -1.9867141     2.4150209    -1.5879072    
C     -1.1936808     1.6467769    -0.9992470    
C     -0.0739831     2.1346443    -0.2190628    
C      0.7786892     1.2212867     0.4231131    
O      0.5803120    -0.1157575     0.3308344    
C     -0.4499866    -0.5971291    -0.3875388    
C     -1.3245892     0.2169453    -1.0374093    
C     -0.5365198    -2.0562503    -0.3694525    
C      0.1034348    -2.7776916     0.6401136    
C     -0.7332989    -4.8433580    -0.2647982    
O     -0.8330893    -6.1949605    -0.1655294    
C     -1.3277452    -4.1305583    -1.3201345    
O     -2.0206337    -4.7660748    -2.3116603    
C     -1.2399922    -2.7515236    -1.3531673    
C      1.8564174     1.6521864     1.1749673    
C      2.1047488     3.0190019     1.3067600    
O      3.1738654     3.3461063     2.0585303    
C      3.4889319     4.7155240     2.2572535    
C      1.2700189     3.9438551     0.6812989    
C      0.1904292     3.5155805    -0.0766142    
O     -0.5892229     4.4316453    -0.6648960    
H      0.4656780    -4.7167538     1.4817299    
H     -2.1573410    -0.1884424    -1.5848584    
H      0.6610022    -2.2518084     1.3977203    
H     -1.6186290    -6.5246211    -0.6320162    
H     -1.6715376    -5.6580811    -2.4644922    
H     -1.7078283    -2.2385223    -2.1766737    
H      2.5040943     0.9417978     1.6579237    
H      4.3732153     4.7127767     2.8897696    
H      2.6730640     5.2351166     2.7631717    
H      3.7135433     5.2080770     1.3090539    
H      1.4286916     5.0055328     0.7599513    
H     -1.3066507     3.9535231    -1.1594091    
