34

C      2.7301606     1.0161981    -1.8214780    
C      2.5186214     0.7899489     0.5679540    
C      3.7659637     1.6112946     0.2330222    
C      0.9108945    -0.3722523    -0.9620649    
C     -0.9958147    -1.5293613     0.0446792    
C     -2.1431539    -0.5509879     0.3226886    
C     -3.5188099    -1.2414146     0.2070189    
N      0.3068654    -0.9060883     0.1414749    
C     -4.0922031    -1.2605432     1.6248524    
C     -3.5323397     0.0153664     2.2433098    
C     -2.0856064     0.0193614     1.7537223    
O      0.5240757    -0.6165128    -2.1109663    
N      1.9989878     0.3918962    -0.7307976    
C      3.4508677     2.1791185    -1.1499061    
H      2.0333944     1.3139962    -2.6070161    
H      3.4398411     0.2992199    -2.2509552    
H      1.7803425     1.4044802     1.0971090    
H      2.7609626    -0.0843736     1.1757129    
H      4.6367049     0.9583338     0.1745898    
H      3.9545857     2.3848044     0.9730679    
H     -1.0795442    -1.9193426    -0.9723963    
H     -1.0327443    -2.3610074     0.7531150    
H     -2.0677654     0.2574087    -0.4109313    
H     -3.4288400    -2.2422768    -0.2120148    
H     -4.1702820    -0.6632662    -0.4479959    
H      0.5178657    -0.4911779     1.0350316    
H     -3.7194680    -2.1285524     2.1700130    
H     -5.1800847    -1.2916685     1.6302855    
H     -3.6039241     0.0270940     3.3297076    
H     -4.0657406     0.8823388     1.8506775    
H     -1.6449085     1.0148774     1.7840507    
H     -1.4934393    -0.6419998     2.3885529    
H      2.7799644     3.0335865    -1.0645056    
H      4.3402591     2.4800332    -1.6959924    
