194

N      7.8181780    -3.1293058     0.8940588    
C      8.3365196    -2.5971723     2.1322804    
C      7.8432868    -1.1957572     2.4890825    
O      8.4674745    -0.5148407     3.3033179    
N      6.7067619    -0.8144699     1.9162171    
C      6.0959793     0.4868828     2.0525617    
C      4.5870429     0.2804826     2.1664402    
O      4.0711300    -0.8140899     1.9800176    
C      6.3911828     1.3419692     0.8060122    
C      7.8707135     1.7248515     0.6917902    
C      8.2430720     2.7709296     1.7273819    
O      8.1086843     3.9743521     1.5061996    
N      8.6954308     2.3058435     2.8932849    
N      3.8764766     1.3660754     2.4927223    
C      2.4344988     1.3861478     2.3658576    
C      2.0661542     2.2510074     1.1554927    
O      2.5989204     3.3415612     0.9636230    
C      1.7526743     1.9453146     3.6255813    
C      0.2885131     1.6051038     3.5990036    
C     -0.1365374     0.3546244     4.0313941    
C     -0.6512920     2.5032342     3.1127003    
C     -1.4752069     0.0125761     3.9906793    
C     -1.9930289     2.1641262     3.0788901    
C     -2.4087647     0.9198306     3.5196213    
N      1.1692572     1.6950305     0.3446175    
C      0.6494459     2.3368838    -0.8379592    
C     -0.8272659     2.6814039    -0.6238105    
O     -1.6282707     1.8527393    -0.2063892    
C      0.7355750     1.3869391    -2.0397920    
C     -0.2152378     1.8939513    -3.1424491    
O     -0.2035908     3.1076580    -3.4165890    
O     -0.9806786     1.0511801    -3.6655183    
N     -1.1680330     3.9386695    -0.9251119    
C     -2.5337515     4.4032530    -0.8365069    
C     -3.4323037     3.8693623    -1.9549317    
O     -4.5919349     3.5349958    -1.7083930    
C     -2.5831455     5.9322478    -0.8536321    
C     -1.8539362     6.5861931     0.3281770    
C     -1.7667544     8.0933458     0.0933211    
C     -2.5576225     6.3021322     1.6531037    
N     -2.9290725     3.8333995    -3.1881557    
C     -3.7652848     3.4239439    -4.3031760    
C     -4.5224279     2.1228944    -4.0088910    
O     -5.7153646     2.0061607    -4.2625123    
C     -2.9125403     3.2609992    -5.5693260    
O     -2.3891464     4.4752401    -6.0345555    
N     -3.7672171     1.1411816    -3.5112081    
C     -4.2917866    -0.1696358    -3.2169750    
C     -4.4206394    -0.4527696    -1.7104826    
O     -4.5811953    -1.5981801    -1.3147185    
C     -3.4437248    -1.2852938    -3.8722290    
O     -2.1801800    -1.4208760    -3.2538295    
C     -3.2995298    -1.0517009    -5.3731674    
C     -3.8406117    -0.7562735     1.0592807    
O     -4.4420491    -1.5558172     1.7635563    
C     -4.4720330     0.5396600     0.5339187    
N     -4.3061576     0.6078594    -0.9085053    
C     -5.9445128     0.6463644     0.9370688    
C     -6.5035220     2.0405128     0.6766531    
C     -8.0022210     2.1110569     0.9729896    
N     -8.5604842     3.4079530     0.6553694    
C     -8.6540211     4.3883619     1.5934443    
O     -8.5119018     4.1813923     2.7985390    
N     -8.9351703     5.6270493     1.1073757    
N     -2.5574783    -0.9015968     0.7119099    
C     -1.8376448    -2.1295034     0.9537999    
C     -0.3860715    -1.8649320     1.3241375    
O      0.2337182    -0.8710314     0.9563329    
C     -1.8321277    -3.0157539    -0.3210080    
C     -2.8018910    -4.1945037    -0.2318029    
C     -2.2544334    -5.3409705     0.6306289    
N     -0.9802800    -5.8163728     0.1280543    
C     -0.8107074    -6.5640588    -0.9572354    
N     -1.8267716    -7.1691954    -1.5673834    
N      0.4103898    -6.6231723    -1.4908997    
N      0.1973377    -2.8844392     1.9648850    
C      1.6364735    -3.0180668     2.1008677    
C      2.1601893    -3.6207355     0.7930763    
O      1.6389043    -4.6247734     0.3074271    
C      1.9837985    -3.9354014     3.2728199    
C      1.6507066    -3.3061020     4.6313136    
C      1.5438651    -4.3896280     5.7032912    
C      2.7141664    -2.2830212     5.0285989    
N      3.1690768    -2.9736717     0.2277446    
C      3.8236782    -3.3809976    -0.9999578    
C      5.2633875    -2.8817253    -0.9305353    
O      5.5276171    -1.7727442    -0.4747900    
C      3.1667880    -2.7486552    -2.2464219    
C      1.8768988    -3.4606024    -2.6523752    
C      1.2482826    -2.8044146    -3.8849535    
C      0.2068787    -3.6975956    -4.5492732    
N     -0.9593018    -3.9020735    -3.6616854    
N      6.2039248    -3.7238876    -1.3752537    
C      7.5873194    -3.3095703    -1.5174577    
C      8.1326865    -2.5779209    -0.2909555    
O      8.8541825    -1.5959912    -0.3950174    
H      6.2981551    -1.3690371     1.1671944    
H      6.4817849     0.9673640     2.9558306    
H      5.7895281     2.2530675     0.8181167    
H      6.1110978     0.7560773    -0.0719888    
H      8.0384144     2.1661759    -0.2909403    
H      8.5011038     0.8410158     0.7896577    
H      8.9544406     2.9652912     3.6097056    
H      8.7740619     1.3107083     3.0861712    
H      4.3246819     2.2693164     2.5536853    
H      2.1074905     0.3578507     2.1930910    
H      1.9006261     3.0261510     3.6598266    
H      2.2251408     1.4968000     4.5005498    
H      0.5913105    -0.3447654     4.4127205    
H     -0.3311060     3.4763592     2.7644939    
H     -1.8027747    -0.9555257     4.3366105    
H     -2.7194538     2.8771031     2.7150071    
H     -3.4561860     0.6584765     3.4980137    
H      0.7254479     0.8135065     0.5982529    
H      1.2268143     3.2481703    -1.0170904    
H      0.4190968     0.3897552    -1.7311900    
H      1.7558897     1.3564175    -2.4220671    
H     -0.5065410     4.5202171    -1.4197676    
H     -2.9579525     4.0136442     0.0958071    
H     -3.6308807     6.2389912    -0.8457804    
H     -2.1376352     6.2758153    -1.7900128    
H     -1.2289259     8.5722789     0.9070533    
H     -2.7636934     8.5241226     0.0392681    
H     -1.2455581     8.3106114    -0.8357031    
H     -2.5294820     5.2428592     1.8951089    
H     -3.5971123     6.6194082     1.6093701    
H     -2.0675211     6.8409884     2.4599017    
H     -1.9262206     3.9100198    -3.3652040    
H     -4.5332308     4.1928373    -4.4650467    
H     -3.5179858     2.7689469    -6.3407821    
H     -2.0456135     2.6360045    -5.3398539    
H     -3.1083762     5.0497973    -6.3341525    
H     -2.7567395     1.2696376    -3.4447432    
H     -5.3082015    -0.2029178    -3.6305611    
H     -3.9705908    -2.2224291    -3.6646821    
H     -1.6652321    -0.6017231    -3.3973558    
H     -2.8616673    -1.9189610    -5.8560828    
H     -2.6578407    -0.1898813    -5.5477232    
H     -4.2689414    -0.8517013    -5.8184886    
H     -3.9030721     1.3770804     0.9515740    
H     -4.3114315     1.5345452    -1.3113527    
H     -6.0348620     0.3962776     1.9949824    
H     -6.5082044    -0.0993471     0.3731870    
H     -8.1849082     1.9390720     2.0360127    
H     -8.5356319     1.3568427     0.3897330    
H     -8.4699694     3.6915962    -0.3085927    
H     -9.2073279     6.3219833     1.7816004    
H     -9.2588410     5.7389262     0.1625409    
H     -2.0842681    -0.1508462     0.2249334    
H     -2.3640633    -2.6265543     1.7739470    
H     -0.8162981    -3.3696528    -0.4996884    
H     -2.1286763    -2.3715196    -1.1474684    
H     -3.0037134    -4.5595694    -1.2372283    
H     -3.7479928    -3.8395657     0.1753858    
H     -2.9806400    -6.1547194     0.6642048    
H     -2.1096264    -5.0039378     1.6563459    
H     -0.1400936    -5.3483017     0.4621121    
H     -1.6491837    -7.8447730    -2.2915849    
H     -2.7389237    -7.1763822    -1.1447096    
H      1.1639545    -6.1724226    -0.9897805    
H      0.6427209    -7.3399995    -2.1574402    
H     -0.3635160    -3.6668925     2.2693006    
H      2.0718331    -2.0272646     2.2372319    
H      3.0504776    -4.1589197     3.2393152    
H      1.4377509    -4.8734172     3.1570948    
H      0.6838230    -2.7964379     4.5571063    
H      1.3351850    -3.9421273     6.6722059    
H      2.4778982    -4.9412403     5.7813577    
H      0.7447573    -5.0900419     5.4754547    
H      2.8836195    -1.5536601     4.2396464    
H      3.6605092    -2.7806282     5.2313264    
H      2.4165402    -1.7497469     5.9292489    
H      3.5389350    -2.1349464     0.6655492    
H      3.7818132    -4.4721343    -1.0660865    
H      3.8818396    -2.7852597    -3.0708957    
H      2.9736688    -1.6952804    -2.0318815    
H      1.1886475    -3.4232286    -1.8102129    
H      2.1184654    -4.4994488    -2.8780062    
H      2.0291367    -2.5950399    -4.6166114    
H      0.8023511    -1.8457928    -3.6151055    
H      0.6516901    -4.6633660    -4.7887743    
H     -0.1298868    -3.2273874    -5.4723863    
H     -1.6550824    -4.5051499    -4.1066356    
H     -1.4097017    -2.9812838    -3.4559645    
H     -0.6606734    -4.3202864    -2.7766379    
H      5.9374566    -4.5888623    -1.8232512    
H      7.2157692    -3.9365734     0.9315017    
H     -0.8369467     6.1821470     0.3816500    
H      7.7142986    -2.6285806    -2.3659697    
H      8.2059729    -4.1927208    -1.6804249    
H     -6.3305749     2.3250204    -0.3642540    
H     -5.9864969     2.7691011     1.3064791    
H      9.4285014    -2.5253720     2.0808654    
H      8.0734349    -3.2641106     2.9531949    
