228

N      8.3631780    -5.7603868     13.9056476    
C      7.0883186    -5.0484760     13.6849339    
C      6.8120885    -5.0677514     12.1711314    
O      7.7279656    -5.3543240     11.4091794    
C      7.2776831    -3.5943791     14.1555877    
O      7.8810131    -3.6707816     15.4301234    
N      5.5813927    -4.7388870     11.8083825    
C      5.1469513    -4.6015371     10.4375582    
C      4.1080979    -3.4821075     10.4014080    
O      3.4745021    -3.1870202     11.4086108    
C      4.4767441    -5.9122602     9.9536366    
C      3.8210732    -5.7584519     8.6236302    
N      2.4778508    -5.5105910     8.5244599    
C      4.3706515    -5.7900407     7.3696360    
C      2.2290755    -5.3980574     7.2465501    
N      3.3402876    -5.5715969     6.5025522    
N      3.9745830    -2.8692071     9.2265563    
C      2.8363054    -2.0445979     8.8924943    
C      2.6118252    -2.1599814     7.3866279    
O      3.4664469    -2.6347937     6.6417827    
C      3.0338737    -0.5627397     9.2788576    
C      2.2560945    -0.2076763     10.5429222    
C      0.7560854    -0.1732259     10.3205375    
O      0.2106410    -0.4474442     9.2516632    
N      0.0466359     0.1883417     11.3930828    
N      1.4217767    -1.7122825     7.0029686    
C      1.0738656    -1.5124622     5.6181691    
C      1.6004027    -0.1447185     5.1606763    
O      2.0166291     0.6866182     5.9618209    
C     -0.4375774    -1.6105400     5.4424445    
C     -0.9220725    -3.0506798     5.5493422    
O     -0.1808931    -4.0160099     5.3991395    
N     -2.2272155    -3.1704319     5.7943615    
N      1.5668525     0.0394466     3.8421210    
C      2.0213795     1.2549070     3.2125818    
C      0.9144529     1.7883096     2.3128134    
O     -0.0841550     1.1284907     2.0334730    
C      3.3288084     1.0277466     2.4135203    
C      4.4423866     0.5856044     3.3592652    
C      3.1231728     0.0056224     1.2987117    
N      1.1144136     3.0113725     1.8096136    
C      0.1138418     3.6523936     0.9745507    
C     -0.4125977     2.6589048    -0.0585358    
O     -1.6207981     2.5285864    -0.2527957    
C      0.6962295     4.8747450     0.2600043    
C      0.8748072     6.0945462     1.1752019    
C      1.7640182     7.1228121     0.4779666    
C     -0.4701637     6.7234733     1.5325071    
N      0.5210293     1.9767876    -0.7188873    
C      0.2642464     1.1270299    -1.8614376    
C     -0.6558696    -0.0609511    -1.5833355    
O     -1.1271921    -0.7005492    -2.5188169    
C      1.6145026     0.6013463    -2.3782073    
O      2.5254487     1.6737768    -2.3900425    
N     -0.8691017    -0.3776695    -0.3026531    
C     -1.8019804    -1.4127539     0.0779800    
C     -3.2748441    -0.9696199    -0.0250276    
O     -4.1663869    -1.8089048    -0.0688328    
C     -1.5416731    -1.8547280     1.5229844    
C     -0.2477308    -2.6439990     1.6506773    
O      0.7487103    -2.1873687     2.2025148    
N     -0.2684514    -3.8587067     1.1059335    
N     -3.4759986     0.3458524    -0.0204549    
C     -4.7817560     0.9608456    -0.0765498    
C     -5.0272261     1.6336031    -1.4304138    
O     -6.0872482     1.4945374    -2.0320550    
C     -4.9209901     1.9859570     1.0640847    
C     -4.7683798     1.2758328     2.3780747    
C     -5.8580471     0.6635247     2.9819066    
C     -3.5201829     1.1455920     2.9735764    
C     -5.7102536    -0.0687500     4.1450569    
C     -3.3609139     0.4208370     4.1381318    
C     -4.4555034    -0.2031780     4.7259910    
O     -4.2525266    -0.9418104     5.8557727    
N     -4.0124949     2.3771370    -1.8719020    
C     -3.9769385     3.0320761    -3.1665670    
C     -3.0331860     2.1624384    -4.0086957    
O     -1.8112717     2.3023186    -3.9190556    
C     -3.4208344     4.4538462    -3.0177492    
C     -4.1893119     5.2176391    -1.9783872    
C     -5.3613444     5.8825287    -2.3134606    
C     -3.7629319     5.2333137    -0.6562634    
C     -6.0920773     6.5514363    -1.3472539    
C     -4.4935518     5.8991045     0.3117731    
C     -5.6599903     6.5604944    -0.0317612    
N     -3.5736933     1.1724284    -4.7115141    
C     -2.7040116     0.1581089    -5.2820547    
C     -1.8919848     0.7423450    -6.4390000    
O     -2.2191275     1.7565679    -7.0452834    
C     -3.6663460    -0.9464387    -5.7278727    
C     -4.9473829    -0.1828194    -6.0539188    
C     -4.9763343     0.9378777    -5.0160656    
N     -0.7986496     0.0300439    -6.7312633    
C      0.1823958     0.4139772    -7.7333287    
C     -0.3082150    -0.0053881    -9.1316415    
O      0.1471686    -0.9770900    -9.7271041    
C      1.5280355    -0.2240496    -7.3873007    
C      2.6327819     0.1519306    -8.3877966    
C      3.2128940    -1.0982192    -9.0688824    
N      4.0249608    -0.7688579    -10.2205668    
C      3.5225745    -0.4092742    -11.4039773    
N      2.2318585    -0.5097587    -11.6765576    
N      4.3473166     0.0149364    -12.3592482    
N     -1.2749043     0.7669727    -9.6193281    
C     -1.8411952     0.5665709    -10.9375476    
C     -1.0061524     1.3673342    -11.9465496    
O     -0.4759352     2.4255361    -11.6243290    
C     -3.3105094     1.0339142    -10.9815936    
C     -4.0059219     0.5302443    -12.2443583    
C     -4.0696252     0.5385451    -9.7498722    
N     -0.8415080     0.7981324    -13.1502809    
C     -0.3596210     1.5495763    -14.2878968    
C     -1.4615028     1.5784228    -15.4136424    
O     -2.4675733     0.8764658    -15.2132287    
C      0.9169596     0.9578095    -14.8866356    
O      2.0521996     1.1168363    -14.0691504    
O     -1.2112228     2.2930730    -16.3970068    
H      8.8673657    -5.2840094     14.6708221    
H      8.8850281    -5.7049252     13.0075460    
H      8.2319821    -6.7476933     14.1446684    
H      6.2812442    -5.5145652     14.2505875    
H      6.3097142    -3.0880485     14.1904487    
H      7.9297207    -3.0587832     13.4531499    
H      7.9089983    -2.8022764     15.8460574    
H      4.8679187    -4.4754779     12.4806210    
H      6.0067995    -4.3687508     9.8039354    
H      3.7093237    -6.1942854     10.6746462    
H      5.2408246    -6.6887448     9.9082036    
H      5.3731844    -5.9601397     7.0379850    
H      1.2682934    -5.1853510     6.8212853    
H      3.4094639    -5.4728100     5.5035016    
H      4.4781986    -3.1968603     8.4073719    
H      1.9547800    -2.4435004     9.4058328    
H      2.7089769     0.0765904     8.4547543    
H      4.0972326    -0.3869350     9.4395108    
H      2.5672926     0.7734523     10.9035305    
H      2.4718331    -0.9496052     11.3157498    
H     -0.9575662     0.2322296     11.3274038    
H      0.4933663     0.4035788     12.2674793    
H      0.8547556    -1.2330428     7.7059888    
H      1.5641938    -2.2969265     5.0296137    
H     -0.7107413    -1.2487515     4.4501335    
H     -0.9343420    -1.0003280     6.1976693    
H     -2.6308788    -4.0906767     5.8604613    
H     -2.8236453    -2.3589218     5.8874388    
H      1.2232637    -0.6999135     3.2302907    
H      2.2122348     1.9705924     4.0215986    
H      3.6143893     1.9850017     1.9666826    
H      5.3731855     0.4684775     2.8120459    
H      4.1952059    -0.3653873     3.8272358    
H      4.5916530     1.3173455     4.1497390    
H      2.3195830     0.3149710     0.6352961    
H      2.8652170    -0.9672298     1.7092663    
H      4.0375127    -0.0967717     0.7211603    
H      1.9005315     3.5687294     2.1091464    
H     -0.7492264     3.9451623     1.5865586    
H      0.0286213     5.1491740    -0.5595135    
H      1.6574857     4.5990906    -0.1769553    
H      1.3674625     5.7834328     2.1022918    
H      1.8996522     7.9967645     1.1093546    
H      1.3074693     7.4444970    -0.4550911    
H      2.7431028     6.7058819     0.2562074    
H     -1.1028258     6.0302886     2.0805482    
H     -0.9995636     7.0297424     0.6325887    
H     -0.3207383     7.6017655     2.1549879    
H      1.4943834     2.2371574    -0.6139652    
H     -0.2270433     1.7091693    -2.6553399    
H      1.4556337     0.1830278    -3.3754881    
H      1.9730234    -0.1945174    -1.7100619    
H      3.3071587     1.4374957    -2.9060909    
H     -0.4955588     0.1884430     0.4557038    
H     -1.6909644    -2.2489325    -0.6227519    
H     -2.3800213    -2.4690962     1.8524068    
H     -1.4840551    -0.9625780     2.1484747    
H      0.5498603    -4.4431906     1.1716361    
H     -1.1073792    -4.2333195     0.6969374    
H     -2.6833249     0.9787556     0.0360394    
H     -5.5258149     0.1638748     0.0328882    
H     -5.8987385     2.4615397     0.9839946    
H     -4.1487762     2.7459374     0.9422257    
H     -6.8356466     0.7554274     2.5324239    
H     -2.6561218     1.6111684     2.5231676    
H     -6.5719090    -0.5401381     4.5939003    
H     -2.3929175     0.3365172     4.6040929    
H     -5.1018045    -1.2355852     6.2206105    
H     -3.1542569     2.4425955    -1.3342689    
H     -4.9943095     3.0401639    -3.5608308    
H     -3.4799841     4.9469823    -3.9888472    
H     -2.3689284     4.3689529    -2.7376799    
H     -5.7029595     5.8760998    -3.3385607    
H     -2.8543824     4.7151810    -0.3866853    
H     -7.0009934     7.0653429    -1.6222910    
H     -4.1550225     5.9025528     1.3369248    
H     -6.2309780     7.0819913     0.7213524    
H     -2.0083068    -0.1783968    -4.5042903    
H     -3.8321845    -1.6296468    -4.8958901    
H     -3.2871237    -1.5032021    -6.5813043    
H     -5.8325536    -0.8096525    -5.9945951    
H     -4.8830971     0.2427051    -7.0541183    
H     -5.4370803     1.8434448    -5.4144873    
H     -5.5144167     0.6390090    -4.1112918    
H     -0.6192030    -0.8190645    -6.2156613    
H      0.2511914     1.5083596    -7.7224814    
H      1.3938330    -1.3066299    -7.3842265    
H      1.7935899     0.0905229    -6.3792382    
H      3.4286169     0.6976406    -7.8829414    
H      2.2188620     0.8109541    -9.1530197    
H      2.3925210    -1.7456127    -9.3824931    
H      3.8361991    -1.6502163    -8.3668118    
H      5.0032841    -0.5888636    -10.0554331    
H      1.9035225    -0.1339469    -12.5554813    
H      1.5406529    -0.7771433    -10.9881805    
H      5.3411371     0.0575822    -12.2230428    
H      3.9603261     0.2533076    -13.2585427    
H     -1.5766086     1.5772403    -9.0922215    
H     -1.7737644    -0.5018523    -11.1677329    
H     -3.3129739     2.1303036    -10.9851048    
H     -5.0345714     0.8814209    -12.2610987    
H     -4.0194059    -0.5571434    -12.2624436    
H     -3.5292945     0.8835720    -13.1566884    
H     -3.6857001     0.9970108    -8.8428251    
H     -3.9870953    -0.5425577    -9.6678595    
H     -5.1204458     0.7991669    -9.8445894    
H     -1.4616293     0.0416771    -13.4195399    
H     -0.1842356     2.5845193    -13.9726368    
H      1.0656645     1.4294557    -15.8662349    
H      0.7867505    -0.1169151    -15.0326999    
H      2.1804684     2.0613430    -13.8989989    
