32

C     -0.6142313     0.0979356    -1.3983197    
C     -1.4806981     1.1753829    -1.5416963    
C     -1.0061461     2.4734113    -1.5258581    
C     -1.1406015    -1.3146071    -1.4071908    
C      0.3544509     2.7008986    -1.3585137    
C      1.2347890     1.6354280    -1.2154923    
C     -0.7222601    -2.0493536    -0.1547275    
C      0.7456652     0.3434676    -1.2343451    
C      0.3794029    -2.9064323    -0.1110231    
C      0.7531096    -3.5509193     1.0768533    
C      0.0060148    -3.3031415     2.1968883    
C     -1.0896870    -2.4431266     2.1638419    
C     -1.4652743    -1.8134381     1.0072828    
O     -1.6556739    -2.3759641     3.4198183    
O      0.1607922    -3.8019797     3.4666028    
C     -0.8816348    -3.2314420     4.2376263    
O      1.1646069    -3.1746604    -1.1874350    
C      0.8598263     4.1070893    -1.3636582    
F      0.0626654     4.9613063    -0.6874736    
F      0.9499657     4.6268518    -2.6146645    
F      2.0862645     4.2484195    -0.8299565    
H     -2.5378426     1.0035020    -1.6689230    
H     -1.6805545     3.3085975    -1.6346077    
H     -0.7864760    -1.8215438    -2.3068123    
H     -2.2290898    -1.2920245    -1.4538213    
H      2.2894375     1.8212055    -1.0863259    
H      1.4340673    -0.4772954    -1.1101411    
H      1.6031933    -4.2099745     1.0836006    
H     -2.3124368    -1.1493857     0.9918287    
H     -1.5199909    -4.0333934     4.6368231    
H     -0.4476754    -2.6533718     5.0662857    
H      0.8029340    -2.7784149    -1.9952710    
