23

S     -2.1956006    -0.2655016    -0.1872574    
N      4.4691916     0.0084688    -0.3699898    
C      3.7137531     0.3823404     0.8545115    
C      2.2316043     0.2317413     0.6220861    
N     -2.1844546    -1.0678955    -1.6434666    
O     -2.8186206     1.0332550    -0.3660742    
C      1.5131381     1.2654558     0.0283414    
O     -2.7838091    -1.1418178     0.8076691    
C      0.1561883     1.1236587    -0.2095979    
C     -0.4660694    -0.0545759     0.1524994    
C      0.2259106    -1.0919215     0.7459241    
C      1.5833235    -0.9462149     0.9791728    
H      5.4788704     0.1118873    -0.2116482    
H      4.2730059    -0.9665204    -0.6258142    
H      4.1941197     0.6090768    -1.1562204    
H      3.9408029     1.4170457     1.1104770    
H      4.0244583    -0.2624813     1.6759021    
H     -2.5379661    -0.4932195    -2.3916457    
H     -2.6705522    -1.9490367    -1.5905572    
H      1.9993356     2.1905458    -0.2377321    
H     -0.4355195     1.9074235    -0.6531091    
H     -0.3124379    -1.9820048     1.0252615    
H      2.1260952    -1.7498923     1.4509982    
