84

C     -4.1743587     3.7237133    -0.2197636    
C     -3.4019926     2.5400269    -0.2464815    
N     -2.0818062     2.6215586    -0.3033107    
C     -1.5150252     3.8344847    -0.3587846    
N     -2.1851763     5.0013477    -0.3672593    
C     -3.5016906     4.9273723    -0.2915241    
N     -0.1790591     3.9255508    -0.4192837    
C      0.7411143     2.8689806    -0.4575007    
C      0.5558666     1.6860729     0.2416459    
C      1.4779252     0.6654798     0.1633798    
C      2.6283869     0.7956641    -0.6204784    
C      2.8406266     2.0086900    -1.2874185    
C      1.9180602     3.0373080    -1.2060076    
O      2.0484990     4.2520505    -1.8327875    
C      3.2366950     4.5207790    -2.5468243    
N      3.5381022    -0.2435569    -0.6678986    
C      3.0758509    -1.5987748    -0.8740513    
C      3.9242060    -2.5712864    -0.0523591    
C      5.3851999    -2.4557486    -0.4921468    
C      5.8197299    -0.9918492    -0.3759850    
C      4.8810734    -0.0691866    -1.1649057    
N      6.2903172    -3.3176538     0.3493152    
C      7.6571805    -3.3990108    -0.2238951    
C      8.5884866    -4.1968568     0.6777199    
N      8.0856313    -5.5741844     0.8650569    
C      6.7247240    -5.5038576     1.4375126    
C      5.7881241    -4.7012475     0.5438501    
C      8.9880639    -6.3706490     1.7121667    
N     -4.0214405     1.3334166    -0.1833296    
C     -3.5013008     0.0572392    -0.2708673    
C     -4.3196636    -1.0330552     0.0470306    
C     -3.8543964    -2.3340409    -0.0518151    
C     -2.5573024    -2.5811967    -0.4612818    
C     -1.7345260    -1.5080474    -0.7745286    
C     -2.1945277    -0.2092755    -0.6910388    
S     -5.9813708    -0.8411256     0.7001841    
C     -5.8601229    -0.6870294     2.5256251    
C     -5.0567453     0.5518951     2.8576122    
C     -5.2580311    -1.9675614     3.0629593    
O     -6.7339485    -2.0498692     0.3950037    
O     -6.5950263     0.3813406     0.1705892    
Cl    -5.9254696     3.6516451    -0.1198494    
H     -4.0362282     5.8666461    -0.2904951    
H      0.1872350     4.8440639    -0.6321792    
H     -0.3194114     1.5827601     0.8579935    
H      1.3035229    -0.2274719     0.7389112    
H      3.7135341     2.1399934    -1.9032386    
H      3.1358917     5.5443704    -2.9020250    
H      3.3431965     3.8517741    -3.4052627    
H      4.1136648     4.4463685    -1.8981908    
H      3.1479812    -1.8561377    -1.9422782    
H      2.0312437    -1.6810393    -0.5858804    
H      3.5217172    -3.5658720    -0.2289528    
H      3.8181780    -2.3076142     0.9996810    
H      5.4748125    -2.7906375    -1.5293387    
H      6.8223508    -0.8273060    -0.7647344    
H      5.7817669    -0.6769130     0.6673800    
H      5.1986334     0.9595289    -1.0020920    
H      4.9465400    -0.2884479    -2.2412917    
H      6.3452443    -2.8632708     1.2718484    
H      8.0726966    -2.4000809    -0.3429048    
H      7.5825014    -3.8563565    -1.2124342    
H      8.6810581    -3.7286081     1.6600168    
H      9.5809969    -4.2244293     0.2257813    
H      8.0342979    -6.0345469    -0.0534337    
H      6.7959549    -5.0561436     2.4311377    
H      6.3215030    -6.5107706     1.5539029    
H      5.6795971    -5.1662695    -0.4376267    
H      4.8124097    -4.6780712     1.0257695    
H      9.9785248    -6.4211040     1.2675243    
H      8.6075485    -7.3825193     1.8236790    
H      9.0722002    -5.9202626     2.6981790    
H     -5.0331765     1.3693132    -0.0837298    
H     -4.5413800    -3.1303085     0.1850535    
H     -2.2029469    -3.5953215    -0.5351926    
H     -0.7232393    -1.6798604    -1.1048451    
H     -1.5614458     0.6230807    -0.9428311    
H     -6.9054080    -0.5792792     2.8168069    
H     -5.0602312     0.7188688     3.9317991    
H     -5.4913847     1.4239244     2.3733228    
H     -4.0282128     0.4385934     2.5245258    
H     -5.3059036    -1.9728867     4.1487100    
H     -4.2200103    -2.0536018     2.7532122    
H     -5.8154036    -2.8202124     2.6826761    
