31

C      0.3707377    -1.2483207    -1.0324068    
C      1.7897450    -0.7407896    -1.1616697    
O      2.6451706    -1.3416104    -1.7915376    
C      2.0100370     0.5523131    -0.5144812    
C      3.1929015     1.2573624    -0.7465171    
C      3.3765177     2.5276052    -0.2275264    
O      4.5421462     3.1704503    -0.4854272    
C      2.3546076     3.1026240     0.5324227    
C      1.1894635     2.4096068     0.7854183    
C      1.0040688     1.1258158     0.2784389    
O     -0.1535428     0.4934839     0.5878308    
C     -0.1862959    -0.9095525     0.3532448    
C     -1.6057507    -1.4043043     0.4838788    
C     -2.6724248    -0.5514831     0.2486709    
C     -3.9770288    -1.0246122     0.3309853    
O     -5.0505144    -0.2213735     0.1206768    
C     -4.2075203    -2.3641547     0.6330008    
C     -3.1400117    -3.2091938     0.8636659    
C     -1.8407505    -2.7365494     0.7957142    
H      0.3358405    -2.3219621    -1.2108727    
H     -0.2320880    -0.7513486    -1.7979197    
H      3.9583515     0.8007627    -1.3541891    
H      4.5515676     4.0469306    -0.0694069    
H      2.4770307     4.0959652     0.9369205    
H      0.4050089     2.8437324     1.3833199    
H      0.4451743    -1.3968062     1.1146542    
H     -2.4798953     0.4850735     0.0158312    
H     -4.7672064     0.6874228    -0.0608377    
H     -5.2253160    -2.7156623     0.6858549    
H     -3.3223668    -4.2454399     1.1016902    
H     -1.0103673    -3.3990701     0.9841467    
