27

N      0.8442017    -3.6678699    -2.4735442    
C      0.9186564    -3.4426714    -1.0110630    
C      0.4822334    -2.0431046    -0.7117402    
C     -0.2313577    -1.2648860    -1.5706505    
C     -0.6354131    -1.7567016    -2.9277517    
C     -0.4799397    -3.2718776    -3.0108087    
S      0.8567958    -1.2373891     0.7992692    
C      0.0214468     0.1562000     0.2305256    
C     -0.5016136     0.0277253    -1.0293305    
C     -1.2569735     1.1522391    -1.6906902    
O     -1.4024563     2.2199784    -1.0304797    
O     -1.6897240     0.9639371    -2.8445510    
N     -0.0692049     1.2684058     1.0339409    
C      0.4948086     1.3247211     2.2491841    
C      0.3000061     2.6673955     2.9878677    
O      1.3029565     3.1380924     3.5494116    
O     -0.8491727     3.1440638     2.9300420    
O      1.1191846     0.3556227     2.6999063    
H      1.0311397    -4.6563064    -2.6772604    
H      1.5612802    -3.0928018    -2.9313150    
H      1.9348347    -3.5894421    -0.6461936    
H      0.2613775    -4.1502614    -0.5007629    
H     -0.0288998    -1.2438847    -3.6775810    
H     -1.6626470    -1.4493391    -3.1224524    
H     -1.2527103    -3.7513681    -2.4119160    
H     -0.5678289    -3.5926073    -4.0473828    
H     -0.6175100     2.0317877     0.6145824    
