33

P      0.7974854    -3.3517270    -0.9900785    
O      1.4328924    -2.4213089    -1.9678156    
O      0.5317481    -4.7679172    -1.3148550    
O      1.6640763    -3.3117844     0.4148416    
C      1.8365108    -2.0351905     1.0067238    
C      0.4440642    -1.5344009     1.3504900    
O      0.3457237    -0.2628116     1.9462523    
C     -0.3666740    -1.4092015     0.0626024    
O     -0.6384423    -2.6718975    -0.4859295    
C     -1.5879841    -0.6308978     0.5554349    
O     -2.5464849    -1.4492279     1.1642458    
C     -0.9474291     0.2711665     1.6369325    
N     -0.7970398     1.6371114     1.2408639    
C     -0.8101946     2.7143596     2.0922683    
N     -0.4984104     3.8381491     1.5308360    
C     -0.2344341     3.5178559     0.2198387    
C      0.1582934     4.2798032    -0.9013448    
N      0.3521027     5.5955145    -0.8664594    
N      0.3370902     3.6282077    -2.0653345    
C      0.1290956     2.3262622    -2.1131451    
N     -0.2461585     1.5096516    -1.1428257    
C     -0.4074777     2.1394730     0.0255668    
H      2.3186880    -1.3533361     0.2974529    
H      2.4627570    -2.1797595     1.8892397    
H     -0.0401840    -2.2918630     1.9897860    
H      0.1859961    -0.7955819    -0.6620929    
H     -2.0356017    -0.0318362    -0.2460943    
H     -2.6622038    -2.2447218     0.6212779    
H     -1.5694619     0.2415888     2.5422984    
H     -1.0715305     2.6066737     3.1252250    
H      0.6362905     6.0663731    -1.7084792    
H      0.2293531     6.0863535     0.0015002    
H      0.2821072     1.8556681    -3.0752514    
