54

N      5.1919925     2.7761688     1.1050084    
C      4.6232282     1.5902834     0.4290825    
C      4.8567064     1.8571969    -1.1202945    
O      4.5595205     0.9719788    -1.9227650    
O      5.3500411     2.9837960    -1.3527144    
C      3.1392742     1.4362585     0.7550838    
C      2.5634757     0.1468176     0.1773453    
C      1.1024006    -0.0126313     0.5254066    
O      0.5488290     0.6141227     1.4211932    
N      0.4525005    -0.9257234    -0.2228832    
C     -0.9025675    -1.3274063     0.0494793    
C     -1.0193806    -2.7859967     0.5305801    
O     -2.1202747    -3.3057051     0.6925316    
C     -1.8178261    -1.1087896    -1.1529958    
S     -1.8072053     0.6114084    -1.7357969    
C     -2.4492370     1.4937641    -0.2621938    
C     -2.9333984     2.8996937    -0.6278381    
C     -4.4462783     3.1122524    -0.5010227    
C     -5.2661500     2.7057698    -1.7280784    
C     -5.3530617     1.2048700    -2.0066411    
C     -6.1107341     0.4326617    -0.9317562    
N      0.1433683    -3.4005008     0.7219411    
C      0.3440830    -4.6475814     1.4057218    
C      1.7529288    -4.5672030     2.0961364    
O      2.0813519    -5.5195183     2.8173396    
O      2.4180518    -3.5415198     1.8432576    
H      4.4915885     3.2756823     1.6576825    
H      5.4691526     3.3573459     0.2413108    
H      6.0121718     2.5691283     1.6764619    
H      5.1545055     0.6755170     0.6951345    
H      2.5773778     2.2778849     0.3426975    
H      2.9912954     1.4150113     1.8372324    
H      3.0806741    -0.7222822     0.5981235    
H      2.7068141     0.1268997    -0.9037638    
H      0.9409484    -1.3854016    -0.9764565    
H     -1.2437285    -0.7075094     0.8896539    
H     -2.8365560    -1.3962918    -0.8921356    
H     -1.4813362    -1.7026387    -2.0016959    
H     -1.6288115     1.5349975     0.4566224    
H     -3.2503593     0.8793260     0.1465232    
H     -2.6196265     3.1273647    -1.6488434    
H     -2.4294988     3.6077100     0.0316963    
H     -4.6156370     4.1799520    -0.3418012    
H     -4.8137499     2.5946545     0.3856255    
H     -4.8353702     3.1934104    -2.6056903    
H     -6.2808093     3.0915768    -1.5988690    
H     -4.3503147     0.7958484    -2.1272865    
H     -5.8725803     1.0685594    -2.9587683    
H     -6.2029430    -0.6139324    -1.2150122    
H     -7.1089013     0.8444614    -0.8013912    
H     -5.5976420     0.4733880     0.0266871    
H      1.0156143    -2.8613604     0.7486544    
H      0.3513906    -5.4919126     0.7094478    
H     -0.4267972    -4.8240562     2.1601918    
