81

C      3.2439191    -4.0893280    -2.0329785    
C      2.0160350    -4.6008006    -2.4220756    
C      0.8910778    -3.8058640    -2.3679883    
C      2.4190279    -0.5219604    -1.2695104    
C      3.5105277    -0.1072168    -0.4540809    
C      3.7905488     1.2198822    -0.2379101    
C      2.9660214     2.1642888    -0.8885005    
C      2.8383536     3.5449223    -1.0248311    
C      1.8597825     1.6407828    -1.6507885    
C      4.9174690     1.5796570     0.6689536    
O      5.8989487     0.8501307     0.8037086    
N      4.7564593     2.7224417     1.3555832    
C      5.7561028     3.2565171     2.2542577    
C      5.2608008     3.2886761     3.7021089    
C      5.0123043     1.8726098     4.2191029    
C      4.0054173     0.7398782     7.6198635    
C     -1.3170841     0.2779470    -1.0420439    
C     -0.6457932    -1.0480015    -0.6873536    
C     -3.1369736     1.3118754    -2.2987781    
C     -4.5019954     1.0647701    -2.9462539    
C     -5.3712979     0.2054981    -2.0672385    
C      3.3257594    -2.7762411    -1.6154617    
C     -5.9547378     0.7325938    -0.9191526    
C     -6.7392209    -0.0554611    -0.0982942    
C     -5.5744818    -1.1362719    -2.3694894    
C      2.2049085    -1.9462129    -1.5594838    
C      0.9463823    -2.4773589    -1.9273818    
C     -6.9514370    -1.3891607    -0.4150192    
C     -6.3652705    -1.9292843    -1.5529091    
C      3.1144496     1.9848751     7.4445339    
C      4.5780905     0.4909089     6.2284347    
C      3.4420542     2.5175184     6.0429763    
C     -1.3109314    -1.9911985    -2.7753586    
C     -1.9278471    -0.6502880    -3.1735018    
N      1.7449048     3.7469552    -1.7734738    
N      1.5981016     0.3437309    -1.8245547    
N      1.1286359     2.6397321    -2.1568296    
N     -0.2061038    -1.7194895    -1.8868772    
N      4.7120629     1.8527619     5.6624308    
N     -2.4404591     0.0452259    -1.9743901    
Cl    -7.9724995    -2.3778206     0.6042388    
Cl    -6.6403019    -3.6030160    -1.9717502    
H      4.1317332    -4.7022739    -2.0720946    
H      1.9376357    -5.6250785    -2.7562070    
H     -0.0565304    -4.2351130    -2.6513925    
H      4.1201988    -0.8416689     0.0485525    
H      3.4452382     4.3613490    -0.6912880    
H      3.9152218     3.2621140     1.2193907    
H      6.0222069     4.2668912     1.9343165    
H      6.6375233     2.6178492     2.1595900    
H      4.3484383     3.8825394     3.7486247    
H      6.0282402     3.7793724     4.3009758    
H      5.8989925     1.2614513     4.0384724    
H      4.1762820     1.4155962     3.6870620    
H      3.4467729    -0.1187253     7.9807513    
H      4.8040673     0.9350624     8.3342119    
H     -0.5960487     0.9253629    -1.5420456    
H     -1.6892088     0.7545536    -0.1363323    
H     -1.3604656    -1.6900643    -0.1477488    
H      0.2037331    -0.8663302    -0.0339659    
H     -3.2796243     1.8635742    -1.3699249    
H     -2.4998457     1.8942639    -2.9633653    
H     -4.3956187     0.6043922    -3.9255616    
H     -4.9802746     2.0327138    -3.0887138    
H      4.2987948    -2.3752511    -1.3738105    
H     -5.8156271     1.7721732    -0.6693837    
H     -7.2027213     0.3533462     0.7837487    
H     -5.1520433    -1.5799755    -3.2561904    
H      3.3297725     2.7234468     8.2133566    
H      2.0601358     1.7327088     7.5217718    
H      3.8738728    -0.0675450     5.6113243    
H      5.5336020    -0.0286385     6.2411401    
H      3.5467213     3.5990281     6.0238322    
H      2.6781975     2.2146469     5.3274850    
H     -0.9435103    -2.4831484    -3.6745001    
H     -2.0721341    -2.6338939    -2.3063638    
H     -2.7363653    -0.8130568    -3.8824211    
H     -1.1565529    -0.0243916    -3.6239856    
H      1.3718178     4.6384708    -2.0722505    
H      5.4765574     2.3234173     6.1593976    
H     -3.1251615    -0.5765597    -1.5205367    
