32

N      0.7276555     0.1752945    -2.1394181    
C      1.2868539     0.6121292    -3.3286070    
N      0.6756023     0.1584738    -4.4612267    
C     -0.4209894    -0.6858766    -4.5523928    
C     -0.9310567    -1.1004157    -3.2684340    
C     -0.3524959    -0.6540351    -2.1375296    
O      2.2574137     1.3431399    -3.3770018    
O     -0.8534176    -1.0054727    -5.6477622    
C      1.3219079     0.6506152    -0.9040042    
C      0.4081681     1.6087605    -0.0982870    
O      0.6195484     2.9416574    -0.4278353    
C      0.7974194     1.2652851     1.3551729    
C      1.1477104    -0.2175688     1.2605075    
O      1.8563307     2.0786901     1.7768814    
O      1.6678358    -0.4208991    -0.0539918    
C     -0.0611968    -1.1241064     1.5302512    
O     -0.5559832    -0.9319403     2.8210062    
P     -2.2271974    -0.4604849     2.7965726    
O     -2.2518185     0.8084941     1.9544458    
O     -2.9320916    -1.6279834     2.1265291    
O     -2.5277077    -0.2670478     4.2627169    
H      1.0759725     0.4869555    -5.3374347    
H     -1.7800377    -1.7592544    -3.2380675    
H     -0.7087525    -0.9441963    -1.1607953    
H      2.2322027     1.1842943    -1.2194272    
H     -0.6477220     1.3593819    -0.2544079    
H      1.1719579     3.3385781     0.2747921    
H     -0.0373438     1.4253667     2.0410120    
H      1.9314617    -0.4879688     1.9761813    
H      2.6928765     1.7486021     1.4074779    
H      0.2338880    -2.1760616     1.4110786    
H     -0.8737375    -0.9089581     0.8237997    
