44

C     -1.2572929     1.1547844     5.1729124    
C     -2.2498392     1.3143708     6.3171164    
N     -1.8583933     1.2596960     3.8528130    
P     -2.5199976    -0.1670123     3.1973426    
O     -3.1460956     0.1690798     1.8788666    
O     -3.2967714    -0.9652737     4.1958546    
O     -1.1359392    -1.0449448     2.9270171    
C     -0.5753950    -1.0612809     1.6410274    
C      0.5967851    -0.0805365     1.5068853    
O      1.3760213    -0.3588436     0.3452994    
C      0.1384293     1.3671637     1.3507970    
O      1.0745552     2.3068697     1.8014823    
C     -0.0430835     1.4958073    -0.1804652    
O      0.1660856     2.7890860    -0.6445834    
C      1.0041949     0.4872946    -0.7263981    
N      0.5385843    -0.2635761    -1.8599970    
C      1.1540024    -0.2816027    -3.0766696    
N      2.2674842     0.3837001    -3.4228560    
C      2.6359775     0.1963365    -4.6725745    
N      3.7256705     0.8140425    -5.1271009    
N      1.9472208    -0.6127595    -5.5371871    
C     -0.5557516    -1.0822238    -1.9872235    
N     -0.6789481    -1.6055092    -3.1667189    
C      0.3859466    -1.1201071    -3.8901094    
C      0.7831465    -1.3275069    -5.2445353    
O      0.2656396    -2.0084935    -6.1250634    
H     -0.7973008     0.1643648     5.2127495    
H     -0.4734874     1.9189627     5.2326586    
H     -1.7476196     1.1783751     7.2702818    
H     -3.0311615     0.5637821     6.2131857    
H     -2.7033832     2.3027611     6.2854616    
H     -2.5607392     1.9871923     3.8035580    
H     -1.3601938    -0.8187062     0.9157551    
H     -0.2107070    -2.0782991     1.4592570    
H      1.2492147    -0.2131421     2.3761148    
H     -0.7900413     1.5494170     1.8942036    
H      1.9720874     2.0028842     1.5888102    
H     -1.0499621     1.1751286    -0.4699618    
H      0.6108414     3.2908630     0.0684665    
H      1.8983235     1.0142728    -1.0891341    
H      4.0360911     0.7032070    -6.0758493    
H      4.2216036     1.4160883    -4.4926855    
H      2.2795623    -0.7153809    -6.4905972    
H     -1.2308991    -1.2687034    -1.1766596    
