42

C      1.5052083    -0.7482432    -0.5333959    
C     -0.0434183    -2.4918406    -1.3640587    
C      0.9114451    -3.3695568    -1.8704083    
C      0.5169636    -4.5579063    -2.4587151    
C     -0.8304028    -4.8512598    -2.5343614    
C     -1.7997698    -3.9967520    -2.0434737    
C     -1.3982031    -2.8131115    -1.4555513    
N      0.2907752    -1.2757398    -0.7585214    
N     -2.0715123     0.8906425     2.0162525    
N     -2.5289775     2.2905527     4.3691394    
N     -0.3350022     2.9281284     4.4656384    
C      1.4469475     0.6388460     0.1286170    
O      2.5809774    -1.2372064    -0.8360182    
F     -1.2204523    -6.0241853    -3.1146653    
O      0.2255220     0.7810999     0.8476577    
C      0.2448794     1.4815733     1.9806103    
C     -1.0763759     1.5406776     2.6155710    
C     -3.2680576     0.9308833     2.5694926    
C     -3.4894880     1.6379920     3.7527134    
C     -1.2929612     2.2649053     3.8273526    
O      1.2538720     2.0031375     2.4298395    
C      1.5811616     1.6671823    -0.9753501    
C      2.8313700     1.9077037    -1.5303113    
C      2.9661599     2.8243643    -2.5573165    
C      1.8582935     3.5096907    -3.0292293    
C      0.6117735     3.2673284    -2.4784794    
C      0.4692850     2.3412504    -1.4591009    
H      1.9572620    -3.1211861    -1.8028587    
H      1.2428974    -5.2496280    -2.8527236    
H     -2.8414736    -4.2605434    -2.1229626    
H     -2.1384218    -2.1340150    -1.0632203    
H     -0.4949081    -0.7354830    -0.4100557    
H      0.6010542     2.9303144     4.0883853    
H     -0.5674509     3.4136889     5.3162902    
H      2.2943888     0.7285641     0.8197007    
H     -4.0541522     0.3939882     2.0627232    
H     -4.4647211     1.6799327     4.2165326    
H      3.6884614     1.3652882    -1.1613329    
H      3.9390762     3.0062127    -2.9861776    
H      1.9669934     4.2293713    -3.8256157    
H     -0.2553939     3.7959277    -2.8432807    
H     -0.5027253     2.1512745    -1.0292573    
