100

C      0.6643183    -1.2696876     2.8307872    
O      0.9079723    -0.2868182     3.5349127    
N     -0.5967568    -3.2371634     2.3446555    
C     -0.2543932    -2.3608003     3.2608729    
C     -0.7218922    -2.3946440     4.5888184    
C     -1.5897788    -3.3865534     4.9528708    
C     -2.9222248    -5.3614679     4.2615602    
C     -3.2923434    -6.2350281     3.2768482    
C     -2.7612836    -6.1171219     1.9804653    
C     -1.8671034    -5.1283718     1.6805221    
C     -2.0051765    -4.3271413     3.9881197    
C     -1.4685589    -4.2079365     2.6739443    
N      1.1626672    -1.4395905     1.6041001    
C      2.1428307    -0.5570116     1.0047637    
C      1.4101910     0.6038148     0.3273306    
O      1.4687817     0.8048975    -0.8851971    
C      3.0227960    -1.3283879     0.0296133    
C      3.9246796    -2.3090088     0.7655467    
O      4.2260847    -2.1702623     1.9454948    
N      4.3732384    -3.3224075     0.0186037    
C      0.4004231     3.6901922     0.3221428    
O     -0.1272959     4.6890655     1.1558441    
C     -0.2647962     2.3198229     0.6488336    
N      0.7093254     1.3692041     1.1544680    
C     -1.4197229     2.4323093     1.6415338    
C     -2.0689807     1.1036753     1.9277984    
C     -2.4056651     0.2165044     0.9109646    
C     -2.3726784     0.7545921     3.2379580    
C     -3.0305692    -0.9837938     1.1991187    
C     -3.0113533    -0.4385344     3.5263581    
C     -3.3438568    -1.3124436     2.5061538    
N      0.9432435     3.2405231    -2.1051231    
C      0.1419019     4.0554231    -1.1583009    
C      0.2403247     3.0289093    -3.3931876    
C     -1.0936265     2.2908120    -3.1752785    
O     -1.2323882     1.5030021    -2.2491850    
C      1.1047957     2.1508411    -4.3015618    
C      2.4347847     2.8410753    -4.6044034    
C      3.3077727     2.0302478    -5.5665924    
C      3.9014864     0.7852664    -4.9155830    
C      4.6942471     1.1712114    -3.6715521    
C      3.7858499     1.8786615    -2.6704382    
C      3.1799067     3.1364287    -3.2966354    
C      2.2593214     3.8888824    -2.3330551    
N     -2.0164882     2.5749096    -4.0919899    
C     -3.3458907     1.9554488    -4.1881474    
C     -3.1866638     0.4501322    -4.4138632    
C     -4.1242832     2.2274434    -2.8986477    
C     -4.0530480     2.6005777    -5.3774327    
H     -0.3793324    -1.6370161     5.2756513    
H     -1.9704685    -3.4570803     5.9617169    
H     -3.3266187    -5.4456690     5.2595296    
H     -3.9971902    -7.0241278     3.4887881    
H     -3.0698975    -6.8185685     1.2207883    
H     -1.4528244    -5.0216430     0.6915183    
H      0.8443781    -2.2612503     1.1048674    
H      2.7573992    -0.1583138     1.8239851    
H      3.6603046    -0.6203544    -0.5041154    
H      2.4030193    -1.8470886    -0.7000854    
H      5.0007121    -3.9933837     0.4309905    
H      4.1294970    -3.4135015    -0.9525019    
H      1.4802128     3.5823364     0.4953752    
H      0.4433987     5.4689724     1.1531280    
H     -0.6451501     1.8963986    -0.2859052    
H      0.7144625     1.1579254     2.1470983    
H     -2.1617728     3.1170418     1.2250012    
H     -1.0585913     2.8715374     2.5723016    
H     -2.1861577     0.4569504    -0.1181927    
H     -2.1118775     1.4248710     4.0444376    
H     -3.2822733    -1.6654897     0.4006308    
H     -3.2504306    -0.6868273     4.5503786    
H     -3.8411808    -2.2454187     2.7303820    
H      1.0918449     2.2843823    -1.6792174    
H      0.3705615     5.1105453    -1.3187030    
H     -0.9212169     3.9087045    -1.3501179    
H      0.0710610     4.0080724    -3.8498054    
H      0.5702761     1.9597293    -5.2322667    
H      1.2671121     1.1935260    -3.8069145    
H      2.2110492     3.7957660    -5.0940265    
H      4.1271703     2.6645187    -5.9118601    
H      2.7210176     1.7469580    -6.4418295    
H      4.5535170     0.2809800    -5.6307723    
H      3.1102474     0.0862127    -4.6427199    
H      5.5162859     1.8322704    -3.9571859    
H      5.1313884     0.2819421    -3.2149757    
H      4.3664060     2.1618815    -1.7900972    
H      3.0079413     1.1894426    -2.3486112    
H      4.0099467     3.8128653    -3.5275608    
H      2.7576363     3.9951283    -1.3701849    
H      2.0629257     4.8824421    -2.7423103    
H     -1.7865057     3.2237509    -4.8301605    
H     -4.1625979    -0.0205514    -4.4823137    
H     -2.6445803     0.0020924    -3.5853486    
H     -2.6425333     0.2585388    -5.3355182    
H     -5.1168456     1.7927374    -2.9669524    
H     -4.2260508     3.2969129    -2.7334271    
H     -3.6149328     1.7846957    -2.0474510    
H     -5.0458491     2.1754414    -5.4889449    
H     -3.5037100     2.4198358    -6.2980824    
H     -4.1589768     3.6719619    -5.2277057    
