27

N      1.3738311     1.6475653    -1.8059841    
C      0.5173444     1.1723097    -0.9191782    
C      0.4117958    -0.1770816    -0.5897715    
C      1.2561323    -1.0645137    -1.2499098    
C      2.1496887    -0.5730358    -2.1864075    
C      2.1711523     0.7941376    -2.4267996    
N     -0.5162821     0.0773535     1.7156642    
C     -0.5992203    -0.6659459     0.4092153    
C     -2.0520229    -0.4853809    -0.0378553    
C     -2.8026790    -0.5392169     1.2883513    
C     -1.9151837     0.3019555     2.2008224    
C      0.3291561    -0.6214083     2.6942109    
H     -0.1141319     1.9270679    -0.4671662    
H      1.2146952    -2.1230323    -1.0410616    
H      2.8168183    -1.2304249    -2.7195642    
H      2.8519336     1.2269310    -3.1466154    
H     -0.0822905     0.9864128     1.5308324    
H     -0.4192115    -1.7227651     0.6225379    
H     -2.3566785    -1.2633481    -0.7317303    
H     -2.1881338     0.4802245    -0.5236631    
H     -2.8699676    -1.5663066     1.6442379    
H     -3.8083813    -0.1360127     1.2153541    
H     -2.1665991     1.3567934     2.1032722    
H     -1.9985962     0.0140591     3.2460305    
H      1.3149012    -0.7996471     2.2705967    
H     -0.1265827    -1.5732127     2.9561946    
H      0.4366698    -0.0176152     3.5915601    
