63

O      2.9831957    -2.0440157    -6.0215270    
C      1.8588692    -2.1902524    -5.5757793    
C      0.6982278    -2.5918874    -6.4277170    
C      1.5674150    -1.9859768    -4.1254040    
C      2.2682982    -2.6442070    -3.1535481    
C      3.3069844    -3.6741215    -3.4521695    
C      1.9637373    -2.3526346    -1.7917600    
C      2.5659884    -2.9708069    -0.6802561    
N      2.2895596    -2.6541182     0.5556171    
C      1.3911363    -1.6617920     0.7518878    
N      0.7338124    -1.0294530    -0.2180948    
C      0.9921926    -1.3740910    -1.4771375    
N      0.2874102    -0.7582788    -2.4696231    
C     -0.7579535     0.1954974    -2.0904271    
C     -0.4362825     1.6422935    -2.4972838    
C     -1.8121121     2.2650105    -2.7159434    
C     -2.5700546     1.1512488    -3.4328678    
C     -2.1453371    -0.1198002    -2.6909645    
C      0.5382828    -1.0046826    -3.8094833    
O     -0.0864500    -0.3899474    -4.6725317    
N      1.1781862    -1.3536025     2.0403431    
C      0.3808182    -0.3713439     2.6164628    
N      0.1895961    -0.5397105     3.9224572    
C     -0.5409089     0.3333865     4.5822550    
C     -1.1447794     1.4588898     3.9992264    
C     -0.9084491     1.6365082     2.6277491    
C     -0.1451064     0.7224299     1.9320447    
N     -1.8704420     2.3441727     4.7611746    
C     -2.2310857     3.6606326     4.2805867    
C     -2.1740013     4.6400431     5.4540268    
N     -3.0810707     4.1901512     6.5340608    
C     -2.7107316     2.8305408     6.9899592    
C     -2.7750932     1.8840058     5.7945811    
H      0.2714540    -3.5171823    -6.0485415    
H      1.0187038    -2.7152554    -7.4578827    
H     -0.0620970    -1.8165476    -6.3599414    
H      3.4831549    -3.7601797    -4.5189586    
H      2.9927615    -4.6418125    -3.0643795    
H      4.2446397    -3.4024463    -2.9720580    
H      3.2969982    -3.7552747    -0.8090972    
H     -0.8105283     0.1179993    -1.0051166    
H      0.1178604     1.6440485    -3.4362618    
H      0.1567309     2.1549137    -1.7417055    
H     -1.7623298     3.1805275    -3.3011570    
H     -2.2822581     2.4809249    -1.7559826    
H     -2.2356762     1.0937804    -4.4693379    
H     -3.6488352     1.2936190    -3.4199515    
H     -2.8433356    -0.3477189    -1.8859760    
H     -2.1080342    -0.9779450    -3.3590940    
H      1.6364648    -1.9638311     2.7082508    
H     -0.6284673     0.1231652     5.6381248    
H     -1.3239934     2.4728016     2.0901896    
H      0.0493248     0.8421519     0.8815906    
H     -3.2319127     3.6614117     3.8270952    
H     -1.5126365     3.9892977     3.5327467    
H     -2.4608061     5.6354661     5.1170156    
H     -1.1567349     4.6725594     5.8452205    
H     -4.0470344     4.1721890     6.1810490    
H     -3.0432402     4.8497661     7.3192403    
H     -3.3978803     2.4967400     7.7668470    
H     -1.6957167     2.8555332     7.3861801    
H     -2.5143811     0.8761352     6.1053634    
H     -3.8020805     1.8546014     5.4001670    
