59

C     -0.2085423     0.7436002    -0.5799082    
N      1.3373507     2.1839105    -1.7912105    
C      0.9636510     3.4086813    -1.1206674    
C      2.2475283     2.6863474     0.9172088    
C      1.2737426     2.9276048     3.0953789    
C     -2.6754808     0.0820488     0.9008381    
C     -3.0670331    -1.1822899     3.0070211    
C     -1.8515770    -2.2169143     1.0196876    
C     -2.9112403    -2.9290848    -1.1923762    
C      1.1524626    -4.3053435    -3.4244103    
C      1.9804065    -3.7434601    -2.2660829    
C      1.9804979    -2.2514570    -2.2549898    
C      2.8477845    -1.3915271    -2.9289451    
N      2.5703235    -0.1069898    -2.7318907    
N      1.4959862    -0.1166197    -1.9204906    
C      1.0951850    -1.3971820    -1.5958763    
N      0.0545529    -1.6357892    -0.7952175    
C     -0.6073309    -0.5884099    -0.2920144    
C      0.8641281     0.9783540    -1.4083111    
C      1.2702380     3.4099010     0.3551326    
C      2.3235363     2.5466979     2.3459810    
N      0.2593531     3.7078422     2.5944135    
C      0.4079979     4.2585792     1.2493891    
O     -1.0445777     3.2209329     2.8874189    
N     -1.6521382    -0.8663578     0.5199716    
C     -2.7725997     0.1931939     2.4199749    
C     -2.0013369    -2.1726895     2.5480782    
C     -3.0232347    -2.9411251     0.3361207    
O     -1.7502054    -3.5642873    -1.6752146    
H     -0.6953726     1.5771123    -0.1123981    
H      2.2186360     2.1447137    -2.2826285    
H     -0.1095268     3.5724071    -1.2657941    
H      1.4910281     4.2269633    -1.6153620    
H      2.9283401     2.0971286     0.3209846    
H      1.1576999     2.6586945     4.1343835    
H     -3.6362783    -0.2659746     0.5015775    
H     -2.4705419     1.0550414     0.4622343    
H     -4.0533991    -1.5151071     2.6808076    
H     -3.0743384    -1.1345586     4.0963997    
H     -0.9380303    -2.7707755     0.7851785    
H     -2.9523801    -1.8944782    -1.5630598    
H     -3.7507474    -3.4813312    -1.6246624    
H      1.2392786    -5.3883506    -3.4554319    
H      1.5019388    -3.8992566    -4.3712631    
H      0.1041598    -4.0473483    -3.2970952    
H      3.0110701    -4.0964541    -2.3539693    
H      1.5668424    -4.1068475    -1.3234632    
H      3.6798732    -1.6596525    -3.5520696    
H      3.1638479     2.0382043     2.7873848    
H     -0.5892771     4.3861406     0.8248998    
H      0.8599232     5.2542406     1.3685139    
H     -1.4848466     3.9029830     3.4245493    
H     -3.5626774     0.8975101     2.6783670    
H     -1.8305164     0.5788966     2.8127306    
H     -2.2322290    -3.1751115     2.9085076    
H     -1.0401149    -1.8742036     2.9723958    
H     -3.9761334    -2.4905257     0.6099874    
H     -3.0214360    -3.9765154     0.6776560    
H     -0.9801675    -3.0357253    -1.3656883    
