34

C      0.4241242     0.0727796     0.0774457    
C     -0.5003520     1.2690242    -0.0354124    
N     -1.2866801     1.3475123    -1.1624558    
C     -1.3876128     0.4199257    -2.1496189    
N     -0.6613421    -0.7174616    -1.9963767    
C      0.1474004    -1.0290528    -0.9277010    
O      0.6439422    -2.1331542    -0.8627684    
O     -0.5360248     2.1733222     0.7700764    
S     -2.3557194     0.6553546    -3.4585038    
C      1.8360797     0.6297960    -0.2931241    
C      2.9839136    -0.3391850    -0.0465771    
C      0.3454364    -0.5602917     1.4971115    
C     -1.0954437    -1.0107207     1.7485934    
C      0.8371998     0.3521305     2.6238509    
C      1.1422995    -0.4223084     3.9064109    
C      1.7411952     0.4889882     4.9715405    
H     -1.8613682     2.1816876    -1.2593673    
H     -0.7802239    -1.4370631    -2.7058881    
H      1.9904305     1.5467620     0.2775529    
H      1.8153625     0.9015074    -1.3525226    
H      3.8952469     0.0765965    -0.4681332    
H      2.7930237    -1.2992781    -0.5193962    
H      3.1402855    -0.5033210     1.0147592    
H      0.9804857    -1.4506297     1.4625588    
H     -1.1662907    -1.5266202     2.7013929    
H     -1.4289235    -1.6971285     0.9724574    
H     -1.7674938    -0.1546716     1.7741567    
H      0.0877503     1.1174677     2.8291755    
H      1.7482337     0.8653802     2.3187449    
H      1.8444042    -1.2291194     3.6838153    
H      0.2307196    -0.8742616     4.2990534    
H      1.9450104    -0.0703951     5.8813305    
H      1.0533974     1.2968514     5.2104625    
H      2.6731874     0.9264151     4.6213505    
