83

C      4.6333963     0.7196478    -2.5042661    
C      4.0746274     1.1185863    -1.2637995    
C      4.4093899     1.1297389     1.1378883    
C      3.7099695    -0.0782174     1.7700675    
C      2.3105810    -0.3370366     1.2182659    
C      1.6497673    -1.5264808     1.9070737    
C     -0.4260356    -2.7064727     1.7193647    
N     -4.8716484    -7.0474098     2.7301062    
N     -4.1329124    -7.4815117     3.6673737    
N     -3.0437155    -6.7057978     3.7089683    
N      0.2434405     2.5795624    -1.1664679    
C     -0.1110552    -3.6133941     2.7305883    
C     -2.2265435    -4.7275244     2.4100762    
C     -2.0840045     1.3325673     0.2644208    
C     -1.9625831     2.3822712    -4.9667069    
O     -2.7407711     4.3527532    -1.7072865    
C     -1.6225260     3.8866904    -1.9092642    
N     -0.9997498     3.0998824    -1.0029817    
C     -1.6178866     2.7887156     0.2862565    
C     -0.6424448     3.1163829     1.4172480    
C     -1.3445840     3.2150803     2.7711489    
C     -1.4344355     1.8942539     3.5403945    
C     -1.7331252     0.6559268     2.6908449    
C     -2.7430535     0.8742708     1.5638397    
C     -0.7814421     4.2114941    -3.1338345    
C      0.0173827     2.9740101    -3.5467141    
C     -0.9283864     1.8593199    -4.0194643    
C     -2.2712063     3.6625071    -5.0792411    
C     -1.6337875     4.7532024    -4.2791503    
C      0.7746247     2.5055769    -2.3311680    
C      2.1016335     1.9140018    -2.4288132    
C      2.6571539     1.5109406    -3.6360054    
C      3.9111971     0.9217973    -3.6685393    
O      5.8663421     0.1521342    -2.4326509    
C      6.4992066    -0.2474243    -3.6339248    
C      2.8331722     1.7145897    -1.2500047    
O      4.8662950     0.8758172    -0.1827442    
O      0.3726900    -1.6997493     1.3070046    
C     -1.6578270    -2.8185547     1.0619583    
C     -2.5426939    -3.8120055     1.3999615    
C     -1.0033391    -4.6114043     3.0681914    
C     -3.1698002    -5.7684037     2.7320278    
N     -4.3266884    -6.0000701     2.1275135    
H      5.3277847     1.3358618     1.6941352    
H      3.7728953     2.0173419     1.1729340    
H      3.6481671     0.1000850     2.8444199    
H      4.3367306    -0.9559051     1.6035890    
H      2.3528742    -0.5394638     0.1475165    
H      1.6797294     0.5402843     1.3679216    
H      1.5349166    -1.3322097     2.9806750    
H      2.2543309    -2.4311446     1.7682336    
H     -2.3154965    -6.8663969     4.3868195    
H      0.8275048    -3.5512780     3.2565163    
H     -1.2227336     0.6945880     0.0490747    
H     -2.7984792     1.2266852    -0.5573937    
H     -2.4743758     1.6398508    -5.5620607    
H     -2.4897898     3.4493098     0.3530271    
H     -0.1819957     4.0779334     1.1823399    
H      0.1471761     2.3681012     1.4447726    
H     -2.3459880     3.6202653     2.6142359    
H     -0.8102345     3.9301672     3.3987425    
H     -2.2111558     2.0041730     4.3003763    
H     -0.4924974     1.7224051     4.0652409    
H     -2.1079481    -0.1232226     3.3582000    
H     -0.8121805     0.2780505     2.2477654    
H     -3.2477218    -0.0723760     1.3626634    
H     -3.5065928     1.5911768     1.8672935    
H     -0.0817584     4.9932114    -2.8041327    
H      0.6898632     3.2504757    -4.3603779    
H     -0.3521067     1.0640553    -4.4967128    
H     -1.4339685     1.4120085    -3.1553118    
H     -3.0247266     3.9832747    -5.7836665    
H     -1.0208371     5.3743208    -4.9382020    
H     -2.4169820     5.3901740    -3.8579360    
H      2.1211085     1.6305150    -4.5628273    
H      4.3177266     0.6169235    -4.6184190    
H      7.4621067    -0.6486507    -3.3272839    
H      6.6507184     0.6035978    -4.3027595    
H      5.9229625    -1.0226240    -4.1453554    
H      2.3744259     2.0434250    -0.3353828    
H     -1.8870754    -2.1086268     0.2841080    
H     -3.4917760    -3.9053100     0.8971233    
H     -0.7321622    -5.3031946     3.8500738    
