51

O     -3.1183273     1.9679701     1.1988001    
C     -2.5218411     1.2200820     2.2239672    
O     -1.6181057     1.9712622     2.9751974    
C     -1.7676889     0.0011740     1.6639393    
N     -1.1679279    -0.7645972     2.7229604    
C     -0.7057847     0.5106776     0.6780529    
O     -0.0106212    -0.6158388     0.1557120    
C     -1.4081740     1.3062364    -0.4363626    
O     -2.2659265     0.4813646    -1.1811361    
C     -2.2184695     2.4438867     0.2018381    
C     -3.0732257     3.1687735    -0.8445108    
O     -3.7457127     4.2753211    -0.3046208    
C     -1.1324048    -2.1155611     2.7090748    
O     -1.8116476    -2.7836881     1.9413140    
C     -0.2077161    -2.7131827     3.7360299    
C      1.3283276    -0.4210752    -0.1297464    
C      1.9721044    -1.8073379    -0.2899727    
C      3.3893960    -1.6926508    -0.8758925    
C      3.3469304    -0.8126106    -2.1380191    
C      2.7601106     0.5484459    -1.7386095    
C      2.7554424     1.5933932    -2.8694044    
O      2.0058485    -2.3987219     0.9831417    
O      3.8160623    -3.0003645    -1.1781851    
O      2.5336623    -1.4118182    -3.1138032    
O      1.4261722     0.3773738    -1.2857965    
O      2.5693279     1.0815461    -4.1577195    
H     -3.3674208     0.8773195     2.8362280    
H     -2.0851878     2.6505028     3.4860192    
H     -2.4635972    -0.6539417     1.1316398    
H     -0.5225777    -0.2598393     3.3139708    
H     -0.0031463     1.1657683     1.2099025    
H     -0.6430544     1.7442392    -1.0963904    
H     -1.7788956    -0.3232971    -1.4144428    
H     -1.5157088     3.1522537     0.6634043    
H     -3.7741472     2.4440452    -1.2716134    
H     -2.4249364     3.5530390    -1.6328433    
H     -4.3332186     3.9575126     0.3965332    
H     -0.4289353    -3.7694101     3.8512322    
H     -0.3031701    -2.2033171     4.6890841    
H      0.8100438    -2.6017158     3.3660078    
H      1.8384684     0.0994091     0.7104569    
H      1.3437183    -2.3893450    -0.9760721    
H      4.0370017    -1.2296998    -0.1190361    
H      4.3631326    -0.6563851    -2.5315307    
H      3.3610740     0.9479928    -0.9051260    
H      3.7243602     2.0969634    -2.8915674    
H      1.9755423     2.3274437    -2.6231728    
H      2.3711515    -3.2922318     0.8812878    
H      4.7746621    -3.0168507    -1.3126321    
H      2.8144451    -2.3344916    -3.2209439    
H      1.8206271     0.4677313    -4.1529033    
