62

O     -2.2500251    -0.7335913    -1.0929717    
C     -2.4503093    -0.6961288     0.2872244    
C     -3.2313472     0.5511960     0.7737000    
C     -3.4452228     1.5339976    -0.3772710    
C     -2.0997414     1.7357981    -1.0941179    
C     -1.7095503     0.3812165    -1.7809084    
C     -2.3491523     0.2736171    -3.1724216    
N     -0.2603200     0.2574179    -1.8234257    
C      0.4690348    -0.2421857    -0.7639921    
C      0.0597126    -0.7199510     0.4778934    
C      1.0147486    -1.1421247     1.4345611    
C      2.3781671    -1.1030285     1.1076019    
C      2.7826017    -0.6378502    -0.1386273    
C      1.8477607    -0.1980927    -1.0709440    
C      1.9498080     0.3761197    -2.3784638    
C      0.6294969     0.6669565    -2.8058093    
C      0.4301259     1.3173850    -4.0187035    
C      1.5319856     1.6209141    -4.7956966    
C      2.8253852     1.3022227    -4.3923481    
C      3.0437080     0.6855771    -3.1786421    
C      4.2732210    -0.6991562    -0.2340301    
N      4.6304334    -1.2353801     1.0567202    
C      3.5769990    -1.4897980     1.8651479    
O      3.6778610    -1.9547691     3.0008387    
C      0.2733301    -1.5399051     2.5924938    
C     -1.0936820    -1.3528015     2.2795239    
C     -2.0922696    -1.6553801     3.1957909    
C     -1.7057925    -2.1464921     4.4269982    
C     -0.3604859    -2.3294144     4.7480802    
C      0.6367501    -2.0322881     3.8426199    
N     -1.2023649    -0.8439786     1.0064616    
O     -1.1897477     2.1863645    -0.1073141    
C     -0.1933082     3.0931823    -0.5359560    
N     -3.9129616     2.8443100     0.1432519    
C     -5.1828747     2.7971903     0.8930891    
H     -3.0392968    -1.6046634     0.4753480    
H     -2.6390911     1.0280833     1.5548961    
H     -4.1845422     0.2279312     1.1835238    
H     -4.1830521     1.1426851    -1.0823999    
H     -2.1761479     2.4928724    -1.8853486    
H     -2.4030623     1.2274348    -3.6829156    
H     -3.3536497    -0.1203804    -3.0490468    
H     -1.7913448    -0.4345078    -3.7762732    
H     -0.5430805     1.5988319    -4.3749954    
H      1.3843992     2.1220645    -5.7401582    
H      3.6601202     1.5504935    -5.0299342    
H      4.0426007     0.4504619    -2.8482508    
H      4.7180602     0.2902229    -0.3845137    
H      4.6065496    -1.3586944    -1.0422125    
H      5.5801192    -1.4266167     1.3281453    
H     -3.1358537    -1.5240953     2.9619960    
H     -2.4572303    -2.3957429     5.1607773    
H     -0.0971640    -2.7132398     5.7226904    
H      1.6792708    -2.1763364     4.0822337    
H      0.3155575     3.4168607     0.3689444    
H     -0.6399046     3.9564250    -1.0381095    
H      0.5372458     2.6354808    -1.2046269    
H     -4.0275193     3.4927495    -0.6448390    
H     -3.1639702     3.2150100     0.7456985    
H     -5.5122048     3.8078200     1.1174140    
H     -5.0571707     2.2608753     1.8276549    
H     -5.9454791     2.3040534     0.2968009    
