54

C     -3.1269536     0.2381513    -0.5962325    
O     -2.0268780    -0.4691105    -1.1493833    
C     -0.9330382     0.2743705    -1.5410055    
C      0.2770066     0.1281478    -0.8536578    
C      0.3492106    -0.7226798     0.3514228    
C     -0.1242320    -2.0075211     0.2054171    
C     -0.1433022    -3.0762032     1.1052908    
C      0.1842683    -3.1316721     2.4347486    
S     -0.0273424    -4.7241194     3.1599953    
C      1.2733995    -4.8816681     4.4214974    
C      0.5301780    -2.0209876     3.3050439    
O      0.4766635    -2.1498093     4.5430622    
C      0.9554374    -0.7523936     2.7709769    
C      0.8872446    -0.1582268     1.5444406    
C      1.4302739     1.2642346     1.4845948    
N      0.4825714     2.2078536     0.9114032    
C     -0.8108112     2.2896469     1.2534500    
O     -1.3331499     1.5481207     2.0814614    
C     -1.5648360     3.3740027     0.5180902    
C      2.7549657     1.3273088     0.7138045    
C      2.7164290     0.5610854    -0.6152906    
C      1.4159964     0.7763425    -1.3320326    
C      1.3250032     1.6127547    -2.4294524    
C      0.1155687     1.8245270    -3.0831317    
O     -0.0364402     2.6855666    -4.1306780    
C      1.0976851     3.3897454    -4.6054167    
C     -1.0244502     1.1240330    -2.6523856    
O     -2.2682231     1.2280249    -3.2275693    
C     -2.3695686     1.3733503    -4.6367464    
H     -3.9181329    -0.4997622    -0.4879407    
H     -3.4560912     1.0426154    -1.2553841    
H     -2.8653972     0.6378983     0.3885421    
H     -0.4886134    -2.2523401    -0.7828549    
H     -0.4716288    -4.0211967     0.6881408    
H      1.1597070    -5.8841817     4.8185437    
H      1.1304708    -4.1350851     5.1955592    
H      2.2387733    -4.7657920     3.9398417    
H      1.3165253    -0.1313822     3.5847627    
H      1.6191108     1.5864729     2.5176782    
H      0.8308519     2.8266557     0.1952469    
H     -2.5784265     3.4319354     0.9022943    
H     -1.5966225     3.1352922    -0.5425498    
H     -1.0708769     4.3317260     0.6527540    
H      3.5408678     0.9082017     1.3413890    
H      2.9904714     2.3771080     0.5363034    
H      2.8306623    -0.5051410    -0.4132026    
H      3.5508499     0.8827305    -1.2365969    
H      2.2159493     2.1104773    -2.7745370    
H      0.7286092     3.9934018    -5.4316481    
H      1.8663063     2.7043407    -4.9686897    
H      1.5098333     4.0408889    -3.8318997    
H     -3.3659692     1.0143182    -4.8886414    
H     -1.6198674     0.7706142    -5.1508584    
H     -2.2640435     2.4192001    -4.9293861    
