80

C      0.7285887     1.3147679     3.7898399    
C      0.5889320     2.8023223     3.6145558    
C      1.7200494     3.5351892     2.9565265    
C     -0.4832969     3.4425026     4.0577383    
C      1.7747202     0.9693333     4.8895292    
C      2.7075835    -0.0944782     4.2924871    
C      1.8528106    -0.7169702     3.1867538    
C      2.5846729    -1.5053578     2.1091447    
C      1.5827018    -1.8944196     1.0170784    
C      0.8639979    -0.6912257     0.3642228    
C      0.2067661     0.1540639     1.4903037    
C      1.2233047     0.5323566     2.5631066    
C     -0.5693005     1.3347665     0.9176913    
C     -1.6652319     0.8164949    -0.0083111    
C     -1.0332290     0.0475183    -1.1730828    
C     -1.9936361    -0.1568744    -2.3895657    
C     -1.4195662    -1.0932554    -3.4981134    
C     -0.6027125    -0.3927281    -4.6365099    
C     -1.5184933    -0.1215985    -5.8422377    
C      0.5426219    -1.2594350    -5.1833365    
C      0.0162868     0.9338529    -4.1540870    
O      0.7250703     1.5281099    -5.2340830    
C     -1.0354086     1.9112415    -3.6090022    
C     -2.2671941     1.2221450    -3.0214266    
C     -0.7360613    -2.2989129    -2.8433639    
C      0.3353449    -1.9133991    -1.8320236    
C     -0.2707438    -1.1884832    -0.6208790    
C     -1.1971203    -2.1788999     0.1119419    
C     -3.3739757    -0.7093086    -1.9912736    
C      1.9459543     0.1102663    -0.3817446    
C      0.8758252    -1.7129810     3.9042394    
O      1.4284499    -2.7030332     4.4373482    
O     -0.3541592    -1.4961900     3.9297093    
H     -0.2377821     0.8945367     4.0870185    
H      1.6591469     4.5991049     3.1681581    
H      1.6726617     3.3941599     1.8780444    
H      2.6780464     3.1550580     3.3038164    
H     -1.3012432     2.9163171     4.5217640    
H     -0.5895713     4.5104543     3.9676199    
H      1.2607488     0.5610021     5.7612045    
H      2.3257552     1.8538602     5.2109310    
H      3.0149685    -0.8399583     5.0280863    
H      3.6043495     0.3613639     3.8625804    
H      2.9982083    -2.4161205     2.5539744    
H      3.4125381    -0.9192337     1.7030299    
H      0.8539280    -2.5519649     1.4944427    
H      2.1047322    -2.4752439     0.2535927    
H     -0.5186391    -0.4747606     2.0130333    
H      2.0404817     1.1081022     2.1173491    
H      0.0972816     2.0084706     0.3759932    
H     -1.0155825     1.8985832     1.7389714    
H     -2.2504325     1.6629573    -0.3680756    
H     -2.3253084     0.1712030     0.5721352    
H     -0.2606606     0.7057148    -1.5656521    
H     -2.2947541    -1.5032932    -4.0148324    
H     -0.9724504     0.4606963    -6.5801264    
H     -2.4139192     0.4248577    -5.5704423    
H     -1.8165372    -1.0643848    -6.2951941    
H      1.2864248    -1.4845595    -4.4260767    
H      1.0342760    -0.7080875    -5.9813447    
H      0.1605721    -2.1891767    -5.5954838    
H      0.7429251     0.6859247    -3.3672248    
H      1.1629784     2.3269007    -4.9147116    
H     -1.3524894     2.5502721    -4.4357474    
H     -0.5716327     2.5548303    -2.8578933    
H     -2.7253985     1.8829536    -2.2858847    
H     -3.0091932     1.0793066    -3.8066123    
H     -0.3003798    -2.9445804    -3.6038718    
H     -1.4978898    -2.8909126    -2.3360332    
H      1.0644924    -1.2700351    -2.3184615    
H      0.8529463    -2.8158654    -1.5000270    
H     -1.2445462    -1.9974213     1.1824109    
H     -0.8396425    -3.1991223    -0.0182460    
H     -2.2114286    -2.1249767    -0.2589388    
H     -3.3469236    -1.7751473    -1.7882066    
H     -4.0769842    -0.5564403    -2.8088417    
H     -3.7641217    -0.1993575    -1.1158043    
H      2.6033791     0.6085010     0.3221962    
H      1.5319747     0.8734579    -1.0314330    
H      2.5613252    -0.5582437    -0.9780613    
