60

C      1.4401031     2.9836131    -0.6229783    
C      2.6691812     2.7232324    -1.2507437    
C      3.2546493     3.7855432    -1.9734690    
C      2.1027259     0.9424025    -0.2590791    
N      2.5952652     4.9567114    -2.0049140    
N      0.7903503     4.1547586    -0.6729775    
O     -1.7534140    -4.0533182     4.6762289    
C     -1.3022599    -2.9129451     4.5454772    
C     -0.3257983    -2.6486060     3.3233779    
N      0.0909167    -1.2360615     3.4420017    
C     -1.0626892    -2.8916545     2.0156678    
C     -0.1183021    -2.8488530     0.8075808    
C     -0.8951008    -2.7054231    -0.5109885    
N     -0.3500712    -3.6662840    -1.5155915    
C     -1.1385704    -3.8177080    -2.7632909    
C     -0.5839088    -4.9535072    -3.6196501    
C     -1.3901474    -5.0869383    -4.9075496    
C     -0.8251868    -1.2836881    -1.0832409    
C     -1.3155361    -0.2049224    -0.1169949    
O     -0.3143519     0.1619416     0.8511649    
C     -1.6949032     1.1016967    -0.8393647    
O     -3.0487549     1.0688044    -1.1837434    
C     -1.3467515     2.1630770     0.2269309    
O     -2.3149191     2.2118894     1.2412661    
C     -0.0814054     1.5425002     0.8248059    
N      1.0869235     1.8220618     0.0062641    
N      3.0484310     1.4283851    -1.0014999    
C      1.4403769     5.0665175    -1.3741334    
N      4.4102773     3.6788511    -2.6271895    
O     -1.5085040    -1.8982934     5.2463940    
H      2.1032087    -0.0553678     0.1274497    
H      0.5174065    -3.3314873     3.4310463    
H      1.0741434    -1.1175404     3.6847633    
H     -0.5069619    -0.9278343     4.2675080    
H     -0.1433441    -0.6875483     2.6004511    
H     -1.8439798    -2.1365069     1.9293475    
H     -1.5562591    -3.8616046     2.0921184    
H      0.4719273    -3.7646335     0.8137039    
H      0.5671929    -2.0111453     0.9096097    
H     -1.9417574    -2.9736146    -0.3444631    
H     -0.2915887    -4.5920884    -1.0721468    
H      0.6097610    -3.3901051    -1.7606850    
H     -1.1041593    -2.8903389    -3.3324144    
H     -2.1752125    -4.0285312    -2.4984839    
H     -0.6335212    -5.8978393    -3.0764608    
H      0.4575346    -4.7584661    -3.8775764    
H     -0.9988459    -5.8959957    -5.5181653    
H     -1.3440048    -4.1718545    -5.4924798    
H     -2.4335854    -5.3031618    -4.6921918    
H     -1.4706513    -1.2123103    -1.9580955    
H      0.1985641    -1.0404650    -1.3726983    
H     -2.2072492    -0.5430741     0.4221883    
H     -1.0526701     1.2578109    -1.7161267    
H     -3.2525843     1.7514797    -1.8362358    
H     -1.1531529     3.1578665    -0.1889676    
H     -3.1950589     2.1676817     0.8344901    
H      0.0856347     1.9031155     1.8465041    
H      0.9610079     6.0344407    -1.4429185    
H      4.7817488     4.4878548    -3.0940109    
H      4.9315887     2.8210288    -2.5750694    
