36

C      1.1512935     2.6017878     3.0006589    
C      1.4038938     2.8273890     1.5089653    
C      2.4512536     1.8690178     0.9770771    
O      3.6035455     2.2599423     0.7717536    
N      2.1090120     0.5850333     0.7800979    
C      3.0994415    -0.3525979     0.2748305    
C      2.8528161    -0.6566762    -1.2092647    
C      0.7768794     0.0147468     0.8833493    
C      0.4329294    -0.6263175    -0.4245444    
C      1.3990047    -0.9169045    -1.3661933    
N      0.7576935    -1.4312537    -2.4344833    
N     -0.5610672    -1.4863186    -2.2460641    
C     -0.7925500    -1.0024576    -1.0263644    
C     -2.1477124    -0.8959318    -0.5029252    
C     -2.4029829    -0.8675704     0.8659574    
C     -3.6993284    -0.7500212     1.3337638    
C     -4.7581777    -0.6631471     0.4464849    
C     -4.5149143    -0.7036292    -0.9171621    
C     -3.2221574    -0.8189831    -1.3890424    
H      0.4400709     3.3367936     3.3679517    
H      2.0814042     2.7136691     3.5532556    
H      0.7560665     1.6085044     3.1929198    
H      1.8066362     3.8310092     1.3628699    
H      0.4776543     2.7479964     0.9395619    
H      3.0227487    -1.2725834     0.8601007    
H      4.0840548     0.0930968     0.4198050    
H      3.4520119    -1.5123228    -1.5212998    
H      3.1460191     0.2064017    -1.8138377    
H      0.0413532     0.7756141     1.1337989    
H      0.7878094    -0.7366294     1.6855801    
H      1.1515674    -1.7575355    -3.3033305    
H     -1.5904829    -0.9610801     1.5680844    
H     -3.8842432    -0.7292489     2.3971436    
H     -5.7684972    -0.5693314     0.8157749    
H     -5.3380088    -0.6428584    -1.6132746    
H     -3.0199040    -0.8516825    -2.4474732    
