41

C     -2.4596206     2.1149673     1.2051386    
C     -1.3907500     1.3901646     0.6059937    
C     -0.8633501     0.3048450     1.3926779    
N     -1.3601925     0.0434355     2.5973862    
N     -2.9248220     1.8024516     2.4350829    
F      2.0338504    -1.7100889    -0.5400527    
C      1.7712650    -2.1868365     0.7155377    
C      2.4815115    -3.2720060     1.1627680    
C      2.2255781    -3.7734310     2.4426222    
O      2.9594032    -4.8515459     2.8100213    
C      2.7721690    -5.3906826     4.1094351    
C      1.2623631    -3.1470659     3.2280111    
C      0.5601667    -2.0536951     2.7541854    
C      0.7918808    -1.5448406     1.4800352    
N      0.1370563    -0.4565916     0.9121329    
C     -2.3507948     0.8032819     3.0464529    
C     -3.0743004     3.1987032     0.5303361    
C     -2.6614752     3.5831124    -0.7079386    
C     -1.6026902     2.8897341    -1.3225711    
N     -1.1102705     3.1915238    -2.5479253    
C     -0.9736502     1.8058469    -0.6716916    
S      0.2867573     1.1936503    -1.7038893    
C     -0.1457458     2.4226840    -2.8899001    
C      0.6228802     2.4451531    -4.1278729    
N      0.3400193     3.2540466    -5.0510249    
O      1.5979189     1.5044875    -4.0782472    
C      2.4662637     1.3641032    -5.1949436    
H      3.2294111    -3.7340375     0.5407328    
H      3.4557742    -6.2343879     4.1676308    
H      1.7463144    -5.7387896     4.2481653    
H      3.0262931    -4.6565871     4.8778676    
H      1.0385636    -3.5073480     4.2181088    
H     -0.1859989    -1.5783992     3.3666190    
H      0.4689449    -0.2266435    -0.0166614    
H     -2.7188028     0.5560864     4.0335560    
H     -3.8781982     3.7001817     1.0422302    
H     -3.1139007     4.4037828    -1.2387335    
H      0.9292202     3.1953707    -5.8756544    
H      3.1428274     0.5563127    -4.9288384    
H      3.0311978     2.2847131    -5.3620454    
H      1.9032489     1.0990001    -6.0931371    
