50

C      1.9946462    -3.5058152     2.2620122    
C      1.6666471    -3.2521567     0.7895821    
C      2.7208262    -3.9124134    -0.1232237    
C      0.0630227    -5.2708030     0.6359493    
C      1.6745217    -1.7394765     0.4439272    
C      0.6445583    -0.8757186     1.1940391    
C      0.4994554     1.6214023     1.5342010    
C     -0.2072556     2.1797753     0.2915328    
C     -2.5176016     4.4942292    -2.3950595    
C     -3.1668662     5.8778124    -0.5229898    
C     -3.8888282     6.9769428    -0.0088067    
C     -2.3941281     5.0865416     0.3195739    
C      2.5667143     0.4371073     0.9477968    
C      2.9923687    -0.9945989     0.6954067    
C      2.8288914    -5.4205359     0.0083996    
S      1.2324746    -6.1362663    -0.4310518    
O      0.9326407    -5.8305864    -1.8225417    
O      1.2275451    -7.5586969    -0.1079377    
C      0.2573059    -3.7773214     0.4434372    
N      1.2551215     0.4385986     1.2223087    
O     -0.9685202     3.2976351     0.7204053    
C     -1.6808556     3.9992154    -0.1872423    
C     -1.7491647     3.7091767    -1.5506315    
C     -3.2168479     5.5651593    -1.8837145    
F     -3.9681992     6.3302490    -2.7185268    
N     -4.4791833     7.8693563     0.4052101    
O      3.2849101     1.4298147     0.9290286    
H      1.9647737    -4.5654823     2.4900979    
H      1.2812231    -3.0098306     2.9120097    
H      2.9901433    -3.1471177     2.5039202    
H      3.6986893    -3.4778347     0.0867368    
H      2.4693394    -3.6962608    -1.1636909    
H      0.2638350    -5.6178799     1.6429855    
H     -0.9292246    -5.5883481     0.3291194    
H      1.4542789    -1.6583127    -0.6249201    
H      0.4819953    -1.2194151     2.2194997    
H     -0.3144446    -0.8334851     0.6779013    
H     -0.2429655     1.3941022     2.3014426    
H      1.1915771     2.3767621     1.9143498    
H     -0.8679417     1.4211935    -0.1446568    
H      0.5422777     2.4832853    -0.4487980    
H     -2.5771048     4.2795635    -3.4493649    
H     -2.3372332     5.3059008     1.3731511    
H      3.6878518    -1.0385030    -0.1391946    
H      3.5093023    -1.3419151     1.5897297    
H      3.0466995    -5.7637412     1.0131893    
H      3.5548625    -5.8323561    -0.6864134    
H      0.0508411    -3.5575263    -0.6059146    
H     -0.4808445    -3.2569531     1.0541095    
H     -1.2076279     2.8782659    -1.9694607    
