35

C      2.2663496     2.3391578     0.4621241    
C      1.3289264     1.3259612     0.1828452    
C      0.4622222     1.0029077     1.2512897    
N      0.6371901     1.5787593     2.4382144    
N      2.4193437     2.9201957     1.6499561    
O     -2.6925082    -1.7470322     0.8162198    
C     -2.7363490    -2.2500609     1.9609579    
O     -3.3407059    -3.2879361     2.2805261    
C     -1.9448941    -1.5080906     3.0741455    
C     -1.6299105    -0.0910754     2.6523568    
S     -0.8682571    -0.1174348     0.9970388    
C      1.6001176     2.4772349     2.5784108    
S      3.1927813     2.7616216    -0.9334188    
C      2.3453883     1.5743660    -1.8699277    
C      1.4069884     0.8825564    -1.1759604    
C      0.6094748    -0.2045715    -1.7575541    
C     -0.2072049     0.0243154    -2.8570200    
C     -0.9698246    -1.0013352    -3.3843364    
C     -0.9245991    -2.2769940    -2.8395418    
C     -1.7827907    -3.3823301    -3.3723903    
C     -0.0758580    -2.5083420    -1.7625146    
C      0.6811048    -1.4885519    -1.2246982    
H     -1.0274427    -2.0796901     3.2413614    
H     -2.5387646    -1.5291224     3.9887698    
H     -0.9189595     0.4015589     3.3117216    
H     -2.5432170     0.4965070     2.5578941    
H      1.7078304     2.9061100     3.5647283    
H      2.6132133     1.4448318    -2.8992599    
H     -0.2608271     1.0159662    -3.2806135    
H     -1.6160251    -0.8052537    -4.2269520    
H     -1.1970771    -4.2871366    -3.5192232    
H     -2.2487539    -3.0979190    -4.3117726    
H     -2.5665459    -3.6049372    -2.6470766    
H     -0.0237558    -3.4973465    -1.3287565    
H      1.3285655    -1.6809378    -0.3811660    
