51

C     -0.4561845    -3.7806713     1.0502629    
C      1.2018828    -1.0162385     4.5768502    
C      2.4850414    -0.9672389     4.0521656    
C     -0.9100968    -0.8758468     1.6258982    
C      0.3276750    -0.9227841     2.4813192    
C      1.6228765    -0.8732534     1.9632515    
C      0.4857472     3.3118396     0.1896659    
C     -0.5760693     4.4048530     0.0259248    
C      0.0198287     4.7340289    -2.2116322    
C      1.0981435     3.6474673    -2.1279051    
O     -0.1873991     5.3481699    -0.9533543    
N      0.7304632     2.7008417    -1.0977863    
N      0.7542487    -0.1376401    -5.1802312    
C      0.4384243    -0.8397104    -4.1875544    
N      2.6911136    -0.8965359     2.7425959    
N      0.1323194    -0.9947606     3.7954953    
C     -1.6298198    -4.3332613     1.8586145    
C     -2.7706189    -4.3551284     0.8454917    
C     -2.5954843    -3.0451004     0.0777771    
C     -1.0710140    -2.7990937     0.0306894    
N     -0.7342301    -1.4117406     0.2963797    
N     -0.0453595     0.6680478    -0.3707230    
C     -0.2985042    -0.6071028    -0.6821870    
N     -0.1444175    -1.1236672    -1.9191441    
C      0.2881038    -0.2676927    -2.8369857    
N      0.5801044     1.0024577    -2.6361709    
C      0.4023926     1.4361963    -1.3700410    
H      0.0329441    -4.5918104     0.5112839    
H      0.2935781    -3.2988872     1.6745509    
H      1.0145595    -1.0782533     5.6391268    
H      3.3668397    -0.9865605     4.6743016    
H     -1.2104653     0.1730729     1.5315343    
H     -1.7011271    -1.4223686     2.1401130    
H      1.8051524    -0.8166206     0.8997031    
H      0.1552345     2.5445219     0.8868498    
H      1.4193092     3.7618888     0.5407015    
H     -0.7007147     4.9669017     0.9511567    
H     -1.5340756     3.9465018    -0.2611472    
H     -0.9213608     4.2902289    -2.5676086    
H      0.3271333     5.5315607    -2.8872335    
H      2.0535552     4.1040503    -1.8520727    
H      1.1907191     3.1167300    -3.0736996    
H      0.8216136    -0.6483351    -6.0577367    
H      0.2349985    -1.9181607    -4.2011124    
H     -1.8738975    -3.6668025     2.6864321    
H     -1.4158503    -5.3185504     2.2677449    
H     -3.7487613    -4.4284835     1.3156218    
H     -2.6462408    -5.2017053     0.1702647    
H     -3.0841682    -2.2294097     0.6099498    
H     -3.0206734    -3.0909047    -0.9225574    
H     -0.6849622    -2.9966145    -0.9702599    
