46

C      0.2476969    -1.0104225    -4.2472997    
C     -6.1953657     1.1128048     0.0504006    
C      4.2229152     1.6774172     1.8645057    
C     -3.8341289     0.7748902    -2.9334820    
C     -2.4918746     0.6329760    -3.2199347    
C      0.1124794    -1.5245520    -0.5287105    
C      1.2052675    -2.3554461    -0.4591120    
C      3.4744694    -2.6657430     0.7825755    
C      4.0360863    -1.9147587     1.7578925    
C     -3.3509134     0.7095274    -0.5867515    
C      1.0039922    -0.0698722     1.1980626    
C      0.3463877     0.3999624    -3.6772650    
C     -5.7275136     1.0172659    -1.3762719    
C      0.0057559    -0.3719910     0.2726787    
C     -4.2867727     0.8347903    -1.6153073    
C     -2.0019347     0.5373610    -0.8536319    
C     -1.5517042     0.5396581    -2.1989095    
C      2.2261855    -2.0544847     0.4405355    
C      2.0930627    -0.9171033     1.2667158    
N     -1.1040916     0.4432478     0.2006181    
N      3.2055976    -0.8517392     2.0861390    
O     -6.5230864     1.0897986    -2.3059276    
O      2.4891052     0.9256026     3.7304786    
O      4.7557272    -0.0048920     3.8574852    
O     -0.2100403     0.5006024    -2.3735222    
S      3.6591633     0.4460243     3.0322956    
H      0.7266396    -1.0406925    -5.2211681    
H     -0.7898451    -1.3168200    -4.3551194    
H      0.7483739    -1.7090554    -3.5826193    
H     -7.2694743     1.2771657     0.0627260    
H     -5.6947711     1.9358067     0.5526517    
H     -5.9652051     0.1891575     0.5751203    
H      4.4802747     2.5633547     2.4299639    
H      3.4092580     1.8732209     1.1788019    
H      5.0883462     1.2710959     1.3591677    
H     -4.5586491     0.8569774    -3.7294895    
H     -2.1826784     0.6222933    -4.2521439    
H     -0.7038740    -1.7676959    -1.1900712    
H      1.2666307    -3.2392467    -1.0750173    
H      3.8854113    -3.5542722     0.3476596    
H      4.9559402    -2.0199771     2.2970092    
H     -3.6621817     0.7364961     0.4446340    
H      0.9209795     0.7776324     1.8599728    
H     -0.1160848     1.1320102    -4.3480419    
H      1.3943330     0.6716801    -3.5327739    
H     -1.3316816     0.9622104     1.0349653    
