59

C      2.2342062    -0.6808699     0.4247291    
C      2.0632435    -0.0141520    -1.8707342    
C      1.5373854     0.2844373    -4.1721671    
C      2.7830211     0.6959408    -4.9101393    
C      3.4675838     1.8474278    -4.5436552    
C      4.6280406     2.2095919    -5.2046673    
C      5.1165131     1.4210003    -6.2315634    
O      0.4405350    -2.7497296     0.2875411    
P      0.4765145    -1.2833451     0.6255166    
N      0.2493452    -1.0200450     2.3161322    
C     -1.1034323    -1.4142938     2.7081032    
C     -1.2339388    -1.3266246     4.2356640    
C     -2.6734776    -1.4199095     4.7549668    
C     -2.6913363    -1.1737984     6.2632924    
C     -3.2991416    -2.7728843     4.4266833    
C     -2.0765877    -0.4564431     2.0309453    
N     -1.7382971     0.8326345     2.1835253    
C     -2.4164038     1.8991973     1.4738970    
C     -2.5958031     3.1057908     2.3942666    
C     -3.4934591     2.7479444     3.5743035    
N     -3.5793773     3.8754256     4.5329258    
O     -3.1349597    -0.8337099     1.5375988    
O     -0.4407268    -0.4000493    -0.1591535    
N      2.5198523    -0.9212137    -0.9708592    
O      1.8662981    -0.5844641    -3.0680460    
C      4.4422826     0.2683724    -6.5964382    
C      3.2806360    -0.0934920    -5.9382489    
O      1.9430646     1.1751601    -1.6551407    
H      2.9412056    -1.2377667     1.0361354    
H      2.3092046     0.3877816     0.6137318    
H      0.8745482    -0.3125322    -4.8006977    
H      1.0053425     1.1536473    -3.7739699    
H      3.0861083     2.4478651    -3.7308657    
H      5.1499432     3.1083508    -4.9164310    
H      6.0217186     1.7025187    -6.7450518    
H      0.9273740    -1.6006120     2.8022105    
H     -1.3467263    -2.4257977     2.3432317    
H     -0.7936577    -0.3763479     4.5409642    
H     -0.6421175    -2.1311654     4.6757782    
H     -3.2721574    -0.6533071     4.2531269    
H     -3.7129065    -1.1623827     6.6278493    
H     -2.2168450    -0.2278877     6.5061810    
H     -2.1553731    -1.9672241     6.7753678    
H     -3.4033247    -2.8880758     3.3494589    
H     -4.2879542    -2.8526416     4.8715283    
H     -2.6816425    -3.5870211     4.8026895    
H     -0.7578267     0.9795105     2.3870541    
H     -3.3746383     1.4916530     1.1461684    
H     -1.8413583     2.1662400     0.5817142    
H     -3.0307856     3.9121455     1.8052904    
H     -1.6084695     3.4136750     2.7396280    
H     -3.0900857     1.8694724     4.0769827    
H     -4.4896046     2.5002116     3.2096951    
H     -4.2106345     3.6410278     5.3067333    
H     -3.9314184     4.7130832     4.0554294    
H     -2.6495900     4.0835291     4.9141992    
H      2.3501293    -1.8852113    -1.2428258    
H      4.8208353    -0.3506902    -7.3945464    
H      2.7507091    -0.9915425    -6.2179360    
