40

P      0.4265736     0.8803022     3.5485873    
O     -0.1499105     1.9232701     2.6080011    
O     -0.5135764     0.4359661     4.6420324    
O      1.8416429     1.1613079     3.9908292    
O      0.5899792    -0.5857130     2.6032866    
P      0.4212639    -0.3225146     1.0449007    
O      1.5043395     0.5768898     0.5335631    
O     -1.0064445    -0.0831809     0.6804830    
O      0.7878474    -1.8609406     0.5202920    
C     -0.0376133    -2.4155680    -0.4862535    
C      0.4810521    -2.1398573    -1.9105421    
O     -0.5694342    -2.2529670    -2.8636633    
C      1.0279904    -0.7088455    -2.0601078    
O      2.4197313    -0.6158567    -1.9430122    
C      0.5337566    -0.2687336    -3.4477958    
O      1.3688141    -0.7043175    -4.4811268    
C     -0.7988141    -1.0107928    -3.5087406    
N     -1.8815321    -0.2874892    -2.8656014    
C     -3.1446814    -0.8289490    -2.7728400    
N     -3.9127063    -0.2459973    -1.9085716    
C     -3.1328222     0.7430598    -1.3531534    
C     -3.3468194     1.5709023    -0.2097484    
O     -4.3505324     1.6640044     0.4923027    
N     -2.2315919     2.3622565     0.0656637    
C     -1.0316777     2.2757291    -0.5799066    
N     -0.0470653     3.1097957    -0.1383900    
N     -0.8497106     1.5680216    -1.6653092    
C     -1.8665817     0.7260988    -1.9447965    
H     -1.0410260    -1.9801837    -0.3952489    
H     -0.0887960    -3.4886471    -0.2859842    
H      1.2601123    -2.8661266    -2.1720552    
H      0.5363280    -0.0832531    -1.3169434    
H      2.6059090    -0.2692100    -1.0570708    
H      0.3938597     0.8165179    -3.4770374    
H      2.2828695    -0.6628128    -4.1521255    
H     -1.1030686    -1.2526171    -4.5328815    
H     -3.4350158    -1.6675583    -3.3716629    
H     -2.2099654     2.7737983     0.9928019    
H      0.8520623     2.8364018    -0.5191859    
H      0.0048671     3.1109594     0.8792167    
