74

C     -0.8949428    -0.0113633    -0.8699628    
C     -1.0225026    -0.5498741    -2.1477467    
C     -0.1055573     0.4726736    -4.2670267    
C     -0.3698411     1.4930614    -5.3725675    
C      1.2991098     0.6462122    -3.6881838    
C     -1.1306621    -5.3882894     1.9723690    
C      0.2003315    -5.4376547     2.6693594    
C      1.3218327    -5.2605186     4.6438718    
C      2.5438213    -5.3220803     3.9970848    
C      2.5833652    -5.5191641     2.6262549    
C      1.3835726    -5.5987839     1.9462801    
C      4.1284955    -3.2784662     5.2563457    
C      3.9861488    -2.5159904     3.9576320    
C     -2.2826407     2.7055360    -2.6548178    
C     -2.0766380     4.1205451    -2.1031752    
C     -0.9627563     4.8628880    -2.8494908    
N     -0.9847938    -1.8379907    -2.4206147    
C     -0.8307159    -2.6658709    -1.3991984    
C     -0.7105146    -2.2396026    -0.0760366    
C     -0.7260981    -0.8691645     0.1961536    
C     -0.5061380    -3.1846455     1.0618742    
C     -0.9920456     1.4782964    -0.9204705    
N     -1.1384292     1.8078937    -2.3758540    
C     -1.1900813     0.5305936    -3.1736264    
O      0.2107121    -2.8814924     2.0124580    
N     -1.1453325    -4.3588846     0.9459850    
N      0.1762630    -5.3142052     3.9913856    
S      4.0517733    -5.0590153     4.9182370    
O      3.9582264    -5.7759515     6.1831945    
O      5.1761857    -5.4400935     4.0758764    
C     -0.8022850     6.2811656    -2.3056954    
C     -2.1214095     7.0471755    -2.4424973    
C     -3.2449052     6.3161822    -1.7008588    
C     -3.3896805     4.8979970    -2.2450400    
C     -1.9663337     8.4505169    -1.8947237    
F     -0.9942423     9.1514787    -2.5161630    
F     -3.0876518     9.1899576    -2.0226962    
F     -1.6550422     8.4773657    -0.5842543    
H     -0.1785542    -0.5333210    -4.6885307    
H      0.3498017     1.3516883    -6.1745209    
H     -0.2622117     2.5148143    -5.0168290    
H     -1.3624007     1.3631839    -5.7954226    
H      1.4645383    -0.0292229    -2.8524754    
H      1.4945072     1.6672320    -3.3654969    
H      2.0353104     0.4121233    -4.4520845    
H     -1.9004897    -5.1984881     2.7265440    
H     -1.3268834    -6.3480660     1.4908308    
H      1.2732525    -5.1597572     5.7182975    
H      3.5404205    -5.5969890     2.1347169    
H      1.3604060    -5.7472444     0.8793185    
H      3.3281599    -3.0814333     5.9621747    
H      5.0941226    -3.1249708     5.7302205    
H      4.1583264    -1.4565621     4.1265083    
H      2.9904452    -2.6469820     3.5384403    
H      4.7203005    -2.8827813     3.2441306    
H     -2.4131538     2.7667199    -3.7356108    
H     -3.1782963     2.2597067    -2.2208533    
H     -1.8213968     4.0820174    -1.0414131    
H     -1.2047910     4.9190278    -3.9115052    
H     -0.0013509     4.3610968    -2.7378304    
H     -0.7760871    -3.7118644    -1.6633919    
H     -0.6065196    -0.5287716     1.2126991    
H     -0.1072719     1.9544366    -0.4976377    
H     -1.8696906     1.8207926    -0.3702188    
H     -0.2904967     2.2996972    -2.6805124    
H     -2.1713193     0.4393477    -3.6464921    
H     -1.7904234    -4.4970305     0.1826053    
H     -0.0146407     6.8066040    -2.8486316    
H     -0.5192396     6.2508096    -1.2511061    
H     -2.3826758     7.1630038    -3.4994589    
H     -4.1820898     6.8621251    -1.8198020    
H     -3.0083207     6.2885510    -0.6348361    
H     -4.1870170     4.3955035    -1.6983974    
H     -3.6784036     4.9467261    -3.2955334    
