27

O      2.1505391    -2.3976819     0.2958235    
C      1.2743202    -0.2755115    -0.4674573    
C      0.9304046     0.2312733     0.9395163    
O      2.5953403     0.0685348    -0.8223153    
N     -2.3959576    -1.4296821    -0.4318991    
O     -0.4268591     0.0876908     1.2343311    
O     -2.7662118     0.9710011     1.2506262    
O     -1.3335874     1.3955822    -0.8149345    
O     -0.7989060     2.6215822     1.3458591    
P     -1.4154832     1.3909046     0.7053712    
C      1.2108745    -1.8093320    -0.5639363    
C     -0.1725341    -2.3713133    -0.2260964    
O     -0.1472526    -3.7478682    -0.5292956    
C     -1.2432653    -1.6802737    -1.0761688    
O     -1.1231425    -1.5610383    -2.2950201    
N     -3.4611538    -0.7885484    -1.1151410    
H      3.0150114    -2.0056806     0.0881662    
H      0.5474262     0.1652964    -1.1610184    
H      1.1905575     1.2981550     1.0141045    
H      1.4863243    -0.3386289     1.6945882    
H      2.6790215     1.0310846    -0.8631804    
H     -2.3501500    -1.1591492     0.5453190    
H      1.4232258    -2.0852200    -1.6089526    
H     -0.3712478    -2.2067338     0.8391429    
H     -0.9652023    -4.1636395    -0.2165678    
H     -3.1136671    -0.6361670    -2.0676937    
H     -3.5558559     0.1393403    -0.6927498    
