54

C      0.5146543    -0.2229768    -3.2694994    
C      1.3724813     0.2745915     0.0881552    
C      1.0391538    -0.2691664    -1.9240911    
C     -3.2406496    -1.2764162     4.7180460    
N     -2.8112312    -0.4962326     3.5729807    
C     -3.7321785     0.0783590     2.7376056    
N     -3.2510168     0.8075021     1.6645457    
C     -4.2291481     1.4186937     0.7775291    
C     -1.9094923     1.0136533     1.3195713    
C     -1.0276016     0.3780174     2.2239214    
N      0.3610312     0.2916474     2.2785730    
C      1.2312550     1.0125024     1.3773698    
N      2.0377416    -0.8185496    -0.1269664    
N      1.8289752    -1.1681848    -1.4076342    
C      0.8986813    -1.1819456    -4.2067331    
C      0.3718406    -1.1413618    -5.4813497    
C     -0.5395227    -0.1523996    -5.8279092    
Cl    -1.2108032    -0.1188631    -7.4187442    
C     -0.9181076     0.8082161    -4.8921004    
Cl    -2.0535368     2.0450869    -5.3202168    
C     -0.3917225     0.7779380    -3.6139785    
O      0.7185775     0.6766972    -1.0134881    
C      0.6404855    -0.5104746     3.3471032    
N      1.8716829    -0.8331767     3.7902044    
C      2.9448983    -1.3046677     2.9246455    
C      4.2793379    -0.8563681     3.5109963    
N      4.4174006    -1.4258213     4.8708931    
C      3.2941064    -0.9935573     5.7347132    
C      1.9716682    -1.4335259     5.1133747    
N     -0.4625834    -0.8864417     3.9978042    
C     -1.4864964    -0.3529508     3.3100739    
O     -1.6167396     1.6842996     0.3292276    
O     -4.9346172    -0.0482369     2.9335656    
H     -4.2936662    -1.5159823     4.5884416    
H     -3.1078155    -0.6973655     5.6309528    
H     -2.6397130    -2.1809177     4.7682384    
H     -5.2103035     1.3282845     1.2353484    
H     -4.2184367     0.9132117    -0.1880394    
H     -3.9674549     2.4650701     0.6273140    
H      0.7630326     1.9743239     1.1533302    
H      2.2029003     1.1635792     1.8479917    
H      1.6010902    -1.9469020    -3.9225456    
H      0.6553392    -1.8748321    -6.2177401    
H     -0.6948832     1.5151344    -2.8864602    
H      2.8248419    -0.9506118     1.9036830    
H      2.9117755    -2.4005467     2.8815945    
H      4.3172475     0.2306652     3.5816413    
H      5.0897555    -1.2050780     2.8712038    
H      5.3116747    -1.1357278     5.2845728    
H      4.4171719    -2.4525731     4.8050170    
H      3.3145441     0.0930115     5.8190168    
H      3.3945414    -1.4317965     6.7265760    
H      1.9123383    -2.5252018     5.0458701    
H      1.1340613    -1.0913971     5.7172896    
