59

C      1.6100475    -1.1430070    -1.0308788    
O      1.6358451    -0.2245980    -1.8132570    
C      1.8486149    -2.5890340    -1.3602938    
O      3.9787355    -2.3454909    -2.3912717    
C      2.8206477    -2.7175587    -2.5460227    
N      2.3620354    -3.2674390    -3.6652759    
C      0.4430083    -3.2249002    -1.5182673    
O     -0.1760883    -2.8691728    -2.7277776    
C     -0.5102095    -2.9207866    -0.3264296    
N     -0.5939067    -4.0455533     0.6588217    
C      0.6905425    -4.6141155     1.1072103    
C     -1.4763391    -5.1199650     0.1623342    
C     -0.3468937    -1.5393066     0.3651642    
C     -1.2783055    -0.5302387    -0.3395124    
O     -2.5527588    -1.1265834    -0.2714483    
C     -1.2698801     0.8574215     0.3238660    
C     -1.6782994     1.9919663    -0.6495323    
C     -2.8851357     1.6737163    -1.5300054    
C     -1.8750257     3.2399527     0.1818258    
C     -2.9271889     4.1141942    -0.0072190    
C     -3.0445144     5.2625013     0.7684676    
C     -2.1047876     5.5655156     1.7257199    
C     -1.0198547     4.7114575     1.9299544    
O     -0.1173274     5.0594550     2.8595609    
C     -0.9197003     3.5221652     1.1766629    
C      0.1878289     2.6038251     1.4326653    
O      1.1557697     2.9375848     2.1351680    
C      0.0750651     1.2537328     0.8769101    
C      1.1530761     0.4402986     0.8723721    
O      2.3517905     0.8366481     1.3153672    
C      1.0995596    -1.0006364     0.4109316    
O      1.9131454    -1.7821682     1.2566331    
H      2.3632532    -3.0372074    -0.5062120    
H      2.9874665    -3.3335597    -4.4527586    
H      1.3750685    -3.4505806    -3.7959677    
H      0.5706587    -4.3082432    -1.6052030    
H     -0.1997787    -1.9117088    -2.8501437    
H     -1.5107759    -2.8765773    -0.7790177    
H     -1.0568364    -3.6507837     1.4863631    
H      0.5223130    -5.2375387     1.9809819    
H      1.3870714    -3.8244070     1.3686249    
H      1.1258789    -5.2316651     0.3276689    
H     -2.4776173    -4.7353754    -0.0135026    
H     -1.5291300    -5.9155949     0.9002509    
H     -1.0897193    -5.5312237    -0.7659438    
H     -0.7079288    -1.6083022     1.3969764    
H     -0.9552052    -0.4130854    -1.3846835    
H     -3.2294660    -0.5299005    -0.6126163    
H     -1.9949428     0.8339986     1.1479794    
H     -0.8176337     2.1699525    -1.3095516    
H     -3.0560360     2.4982042    -2.2173080    
H     -3.7814291     1.5381677    -0.9297918    
H     -2.7010737     0.7975206    -2.1435401    
H     -3.6752832     3.9303763    -0.7579078    
H     -3.8776835     5.9293190     0.6099882    
H     -2.1672911     6.4607003     2.3234199    
H      0.6169941     4.3932632     2.8467031    
H      3.0147543     0.1249949     1.2389109    
H      1.7442060    -1.5519263     2.1842449    
