30

O      1.2649461    -0.7315672    -3.4260457    
C      1.3456011     0.4972483    -3.2007038    
C      0.6198849     0.9555957    -1.8685665    
C     -0.2701794     2.1603751    -2.1050228    
N     -0.1159349    -0.2250308    -1.3945608    
C     -0.0736491    -0.6755602     0.0066811    
C     -1.3688327    -1.5772221     0.1754990    
O     -1.3911112    -2.3651083     1.1267488    
O     -2.2599821    -1.3544970    -0.6672910    
C     -0.1693965     0.4830299     1.0050331    
C      0.0548825    -0.0151326     2.4329864    
C     -0.2189737     1.0879445     3.4499106    
N     -0.0639799     0.5635674     4.8274341    
O      1.9289530     1.3608060    -3.8588909    
H      1.4270148     1.1965316    -1.1721790    
H     -0.6624008     2.5552045    -1.1721326    
H     -1.0968613     1.8911373    -2.7590873    
H      0.3166857     2.9266057    -2.6055674    
H      0.2671655    -0.9664680    -2.0498311    
H     -1.1415402    -0.1904428    -1.5957017    
H      0.8181993    -1.2763508     0.1920157    
H     -1.1622897     0.9293801     0.9140695    
H      0.5746123     1.2433421     0.7642776    
H      1.0840102    -0.3662266     2.5166527    
H     -0.6055077    -0.8684233     2.5977360    
H     -1.2357507     1.4570622     3.3186675    
H      0.4760421     1.9136692     3.2974182    
H     -0.2777130     1.2893263     5.5212604    
H      0.8964724     0.2307435     4.9725637    
H     -0.7002697    -0.2313397     4.9654502    
