28

C     -2.8271564     0.4232064    -1.0410909    
C     -2.5316579    -0.9012676    -0.7471125    
C     -1.2742539    -1.2463100    -0.2853223    
C     -0.2820972    -0.2903562    -0.0913901    
C     -0.5912566     1.0359734    -0.3919858    
C     -1.8415681     1.3883890    -0.8618315    
F      3.4162287     0.0786055     3.0253801    
C      2.8628640    -0.5169094     1.9242038    
C      3.5771054    -1.5033463     1.2731083    
C      2.9994886    -2.1013610     0.1651943    
C      1.7465340    -1.7083987    -0.2689280    
C      1.6131160    -0.1030476     1.5133610    
C      1.0470065    -0.7020717     0.3925517    
Cl     0.6309961     2.2861168    -0.2350746    
C     -4.1716549     0.8811906    -1.5475684    
N     -5.0618467    -0.2331483    -1.9362695    
H     -3.2507069    -1.6945253    -0.8633386    
H     -1.0474130    -2.2747521    -0.0519256    
H     -2.0400899     2.4222986    -1.0915308    
H      4.5529198    -1.7870650     1.6318860    
H      3.5364175    -2.8758750    -0.3590218    
H      1.3110942    -2.1714364    -1.1402579    
H      1.0934831     0.6615746     2.0687222    
H     -4.0127464     1.5323036    -2.4085519    
H     -4.6554582     1.4732485    -0.7675653    
H     -5.9313629     0.1362967    -2.3380785    
H     -5.2978723    -0.8055951    -1.1175507    
H     -4.6007235    -0.8268352    -2.6363842    
