20

N     -1.6243860    -0.0217562    -1.8532900    
C     -1.3189527    -0.7384291    -0.5958505    
C     -1.8884490     0.1862659     0.5601012    
O     -2.3419469     1.2765253     0.1408968    
C      0.1746653    -0.9760005    -0.4038817    
C      0.9795788     0.3197334    -0.3059084    
C      2.3859104     0.0623014     0.2129995    
O      2.7770600    -1.0388452     0.5802282    
N      3.1796464     1.1427086     0.2183146    
O     -1.8325462    -0.2313523     1.7168575    
H     -0.7899918     0.1694658    -2.4108241    
H     -2.0298999     0.8860451    -1.4492900    
H     -2.3293811    -0.4888619    -2.4260039    
H     -1.8451133    -1.6917336    -0.5414292    
H      0.5697591    -1.6028833    -1.2047626    
H      0.3054335    -1.5243013     0.5311601    
H      0.4896037     0.9941163     0.4014813    
H      1.0635158     0.8279382    -1.2666554    
H      4.1042622     1.0624967     0.6081754    
H      2.8234531     2.0554233    -0.0074890    
