28

N      0.1039207     1.3313095     0.5832676    
C     -0.4232179     0.2243764     1.0342515    
Cl    -1.0544341     0.2946753     2.6418649    
N     -0.5414214    -0.9308738     0.4387593    
C     -0.0357176    -0.9571414    -0.8196736    
N      0.5334563     0.0998391    -1.4062813    
C      0.5846991     1.2202002    -0.6827486    
N     -0.0958434    -2.0805758    -1.5267302    
C     -0.6921847    -3.3425618    -1.1062298    
C      0.0338001    -3.9099350     0.1119841    
C     -2.1849624    -3.1724137    -0.8321907    
N      1.1381982     2.2931575    -1.2306127    
C      1.2468042     3.5768636    -0.5671176    
C      1.9638839     4.5699893    -1.4651619    
H      0.3004297    -2.0156251    -2.4513423    
H     -0.5594003    -4.0252826    -1.9501325    
H     -0.3800376    -4.8805695     0.3665671    
H     -0.0900823    -3.2398529     0.9580313    
H      1.0949778    -4.0219421    -0.0956597    
H     -2.6269315    -4.1337001    -0.5898159    
H     -2.6874569    -2.7630485    -1.7053054    
H     -2.3291753    -2.4965471     0.0060908    
H      1.4863058     2.1987417    -2.1725686    
H      1.7876752     3.4413452     0.3742854    
H      0.2423186     3.9333883    -0.3180889    
H      2.0411908     5.5272357    -0.9591707    
H      1.4133561     4.7123965    -2.3911588    
H      2.9658550     4.2195723    -1.6970877    
