54

C     -0.7172384    -0.7902299    -0.2204465    
C     -0.5907410    -0.4454007    -1.6767571    
C     -0.6813431     0.9423429    -1.8239181    
C     -1.0229255    -2.0714067     4.6346530    
C     -1.9004035    -1.7319524     0.0572167    
C     -0.9329287     2.9502369    -0.3464290    
C     -1.9760841    -2.0731699     1.5399830    
C      2.8993227     4.7195355    -1.1446804    
C     -0.0684002    -1.3770014     5.3155828    
C      1.7431867     5.3037550    -1.6446614    
C     -0.3089197    -0.6396882    -4.0126141    
O      4.2822340     6.4003004    -2.0906021    
C      4.2603946     5.3444452    -1.4174537    
O      5.2642322     4.7599745    -0.9474693    
C      0.5069401     4.7383206    -1.3942899    
C      0.4074788     3.5829132    -0.6302868    
N     -0.8955613     1.5242471    -0.5832957    
C     -0.9175504     0.5943135     0.4062840    
O     -1.0770307     0.8542305     1.5887723    
N     -0.7242948    -2.6738601     1.9695832    
C      0.4200888    -1.7982809     1.7890702    
C      0.5687924    -1.4467744     0.3139405    
S     -0.7844227    -3.3642725     3.4696450    
O      0.4988473    -3.9794697     3.7236925    
O     -1.9343328    -4.2402036     3.5041240    
C     -0.6235289    -0.3366429     6.0895847    
C     -1.9759154    -0.2593412     5.9612186    
S     -2.6029054    -1.4585303     4.8991219    
C     -0.4028823    -1.2567013    -2.7718253    
Br    -0.0650100    -1.7450745    -5.5526538    
C     -0.3871074     0.7334923    -4.1686761    
C     -0.5757272     1.5492496    -3.0620359    
C      1.5651457     3.0008619    -0.1263311    
C      2.7999899     3.5619789    -0.3835659    
H     -1.7536966    -2.6448496    -0.5197500    
H     -2.8346816    -1.2624469    -0.2503613    
H     -1.7097007     3.4037123    -0.9655567    
H     -1.1933012     3.0759260     0.7092725    
H     -2.7580733    -2.8069955     1.7354114    
H     -2.1829644    -1.1584247     2.1112769    
H      0.9742462    -1.6300124     5.2644894    
H      1.8470635     6.2060529    -2.2306513    
H     -0.3840892     5.2043779    -1.7885521    
H      1.2926439    -2.3424569     2.1513465    
H      0.2992612    -0.8789611     2.3784237    
H      1.4177607    -0.7731188     0.1869170    
H      0.7552033    -2.3560050    -0.2579331    
H     -0.0391974     0.3195044     6.7059904    
H     -2.6459091     0.4338244     6.4274863    
H     -0.3296208    -2.3284765    -2.6834231    
H     -0.3004629     1.1707378    -5.1504724    
H     -0.6224064     2.6189020    -3.1736589    
H      1.4977008     2.1079041     0.4799940    
H      3.7130340     3.1273492    -0.0012760    
