72

N      0.1537672     2.8220394    -1.0925820    
C     -1.2480100     1.4842114     0.0945150    
C      2.2660908     1.6908470    -0.6526995    
C     -1.1516206     2.6239631    -0.7465844    
C     -0.4695972    -1.2347668     1.0101780    
C      2.8230559     0.5218187    -1.1943221    
C      0.4982290    -0.0413914     1.0984607    
C     -3.4862776     2.9002369    -0.6071019    
C      4.9549436     1.3244742    -0.9937467    
C      4.5055708     2.5468551    -0.4850274    
C     -1.5376069    -2.7202541    -0.6369228    
C     -3.0479768    -4.2259247    -2.6741709    
C     -0.8363274    -3.6414987    -1.6346541    
C      0.8248661     1.8600714    -0.5125126    
N      0.0322788     1.0141672     0.2244703    
C     -2.2850949     3.3482515    -1.1031270    
C     -3.5753270     1.7763371     0.2199848    
C     -2.4680455     1.0467098     0.5906680    
F     -4.7983734     1.3899747     0.6704530    
F     -4.6301222     3.5647577    -0.9231075    
O     -0.9916945    -1.7714593     1.9761261    
N     -0.6474664    -1.6410479    -0.2511516    
C     -2.8284971    -2.1660864    -1.2482841    
C     -3.7490732    -3.3081556    -1.6674217    
C     -1.7609591    -4.7798872    -2.0546153    
O     -3.8996467    -5.2546300    -3.1373084    
C      0.8047297     0.4928762     2.5131154    
C     -0.4290102     0.9504298     3.2903443    
C     -0.0200337     1.5046188     4.6530967    
C      0.7427956     0.4542413     5.4529415    
C      1.9742892    -0.0013491     4.6783445    
C      1.5685407    -0.5607024     3.3181990    
N      4.1250825     0.3495302    -1.3480957    
C      3.1483355     2.7193596    -0.3252912    
O      6.2677853     1.1335171    -1.1330122    
C      6.6914329    -0.1231042    -1.6552617    
O      2.0019166    -0.4691156    -1.5873799    
C      2.6224830    -1.6030668    -2.1926574    
H      1.4484902    -0.4010628     0.6894693    
H      5.2197285     3.3108077    -0.2323475    
H     -1.7743629    -3.2654403     0.2831745    
H     -2.8035217    -3.6542071    -3.5769234    
H      0.0691973    -4.0485496    -1.1844132    
H     -0.5600464    -3.0598743    -2.5163847    
H     -2.2326558     4.2159393    -1.7366685    
H     -2.5744316     0.1958726     1.2416423    
H     -0.1741089    -1.1481445    -0.9961851    
H     -2.5817976    -1.5519396    -2.1170527    
H     -3.3380696    -1.5309228    -0.5214642    
H     -4.0295484    -3.8905690    -0.7863023    
H     -4.6617879    -2.9097822    -2.1133698    
H     -1.2609978    -5.4227824    -2.7803264    
H     -2.0170296    -5.3854927    -1.1823680    
H     -4.1633330    -5.8075013    -2.3885845    
H      1.4619620     1.3622974     2.3731736    
H     -1.0987863     0.1010815     3.4307022    
H     -0.9620467     1.7232564     2.7313281    
H     -0.9111517     1.8183331     5.1995028    
H      0.6130195     2.3840665     4.5109005    
H      0.0916191    -0.4033620     5.6334219    
H      1.0390078     0.8646332     6.4197851    
H      2.5106887    -0.7649403     5.2430269    
H      2.6463850     0.8478581     4.5352190    
H      2.4587877    -0.8732470     2.7672320    
H      0.9282817    -1.4331288     3.4563796    
H      2.7489176     3.6434287     0.0608184    
H      7.7765533    -0.0802524    -1.6638981    
H      6.3027851    -0.2640869    -2.6642526    
H      6.3412810    -0.9360090    -1.0189733    
H      1.8096206    -2.2626681    -2.4824002    
H      3.2836266    -2.0973300    -1.4808495    
H      3.2000080    -1.2971563    -3.0643726    
