57

C     -0.0635291    -1.1833386     0.1763529    
C      0.4360813    -0.7600841    -1.1759979    
C     -0.6371631    -0.2578332    -1.9187364    
C      2.1152977    -2.2485228     4.8026268    
C      0.1254230    -2.6945896     0.4061799    
C     -3.0933777     0.1318766    -1.6056968    
C     -0.4685218     0.2166393    -3.2065694    
C     -3.2120534     4.4136283    -1.8934280    
C     -0.3453663    -3.0942565     1.8026915    
C      3.0732323    -1.4203505     5.3088417    
C      2.9092965    -1.2104944     6.6942213    
Br     3.6128748    -0.3634368    -3.7932824    
C      1.8634298    -0.3273472    -3.0069494    
C      0.8076130     0.1760040    -3.7486227    
N     -1.7959640    -0.3287409    -1.1602251    
C     -3.1319960     1.6335845    -1.7227388    
C     -2.7610591     2.4175549    -0.6354421    
C     -2.7956114     3.7949273    -0.7138717    
C     -3.5751452     3.6298052    -2.9886882    
C     -3.5299999     2.2524890    -2.9010645    
C     -3.2932953     5.8520275    -2.0109444    
N     -3.0536462     6.7660048    -1.0342813    
N     -3.2607501     7.9773583    -1.5582270    
N     -3.6022863     7.8143984    -2.7708810    
N     -3.6368564     6.5305863    -3.0951164    
C     -1.5513634    -0.8295649     0.0794455    
O     -2.4008787    -0.9622602     0.9436511    
N      0.3464973    -2.3360808     2.8274329    
C      0.1786800    -0.9020120     2.6809541    
C      0.6296621    -0.4043956     1.3081117    
S      1.8989039    -2.8238984     3.1606762    
O      2.9101346    -2.1998680     2.3236797    
O      1.9049725    -4.2709993     3.1595129    
C      1.8369853    -1.8818851     7.1965644    
S      1.0075420    -2.7916068     5.9937169    
C      1.7030641    -0.8037020    -1.7117396    
H      1.1896595    -2.9278850     0.3166882    
H     -0.4216344    -3.2612166    -0.3481834    
H     -3.8113394    -0.2027149    -0.8497077    
H     -3.3317301    -0.3381500    -2.5621270    
H     -1.2880851     0.6147537    -3.7792478    
H     -0.1352203    -4.1473846     1.9916823    
H     -1.4147425    -2.9029482     1.9217668    
H      3.8467770    -0.9945146     4.6972596    
H      3.5596030    -0.5900603     7.2814374    
H      0.9823454     0.5377632    -4.7487028    
H     -2.4533424     1.9386977     0.2824405    
H     -2.5035409     4.3795886     0.1440253    
H     -3.8873603     4.1222906    -3.8946949    
H     -3.8199424     1.6558514    -3.7520680    
H     -2.7757503     6.6545634    -0.0711031    
H      0.7661456    -0.4216042     3.4645255    
H     -0.8820275    -0.6885758     2.8353676    
H      0.4162813     0.6611631     1.2145488    
H      1.7066911    -0.5568842     1.2164908    
H      1.4825445    -1.8968784     8.2074645    
H      2.5399887    -1.1878010    -1.1495487    
