37

N     -0.8515875    -4.5504463    -0.9827556    
C     -0.8676070    -4.1961631     1.3914074    
O      2.3836161     4.5462060     3.0505617    
C     -1.5016845    -3.9674859     0.0399858    
C     -0.0653584     1.3024854     0.5160178    
C     -1.2632784     1.7737459     1.0510404    
C     -1.2708987     2.8348075     1.9385648    
C     -0.0839245     3.4445973     2.3029638    
C      1.1194463     2.9915115     1.7770328    
C      2.4300821     3.6566829     2.1690740    
C      1.1211183     1.9250332     0.8909043    
C     -1.1586376    -4.2688265    -2.3671044    
C     -0.1387865    -3.2915005    -2.9784900    
C     -0.0654748    -2.0520011    -2.1339622    
C      0.9104016    -1.9171344    -1.1543804    
C      0.9201912    -0.8256697    -0.3074137    
C     -1.0272232    -1.0569425    -2.2507668    
C     -1.0254755     0.0324673    -1.4028976    
C     -0.0562385     0.1613090    -0.4106772    
O      3.4701259     3.2710988     1.5855068    
O     -2.5393101    -3.3295255    -0.1076461    
H      0.0473264    -4.9687058    -0.7973676    
H     -1.5866525    -3.9632412     2.1710977    
H     -0.0194228    -3.5208331     1.4921247    
H     -0.5256887    -5.2206341     1.4943036    
H     -2.1897139     1.2859465     0.7860367    
H     -2.2043211     3.1871035     2.3517613    
H     -0.0556032     4.2743092     2.9954530    
H      2.0750885     1.6107976     0.4875571    
H     -2.1565464    -3.8258015    -2.3797599    
H     -1.1661195    -5.2047965    -2.9295795    
H     -0.4590222    -3.0453612    -3.9901827    
H      0.8402289    -3.7701351    -3.0237754    
H      1.6750005    -2.6731358    -1.0488151    
H      1.6761192    -0.7394005     0.4603782    
H     -1.7927422    -1.1414545    -3.0079330    
H     -1.7760505     0.8013397    -1.5113925    
