110

N      4.3974504     0.0096984    -0.4942686    
C      5.3142718    -0.9518301     0.1750184    
C      5.1579824    -0.8383525     1.7015484    
O      4.6750977    -1.7507145     2.3541761    
C      6.7448144    -0.7205998    -0.2916158    
N      5.5174357     0.3418626     2.2313261    
C      5.3750863     0.5922210     3.6558614    
C      3.9407631     0.2471331     4.0781520    
O      3.6815780    -0.3232056     5.1269432    
C      5.6923504     2.0547585     3.9699416    
C      5.6969538     2.3159096     5.4732592    
C      5.8705009     3.7948932     5.7779322    
O      5.8786294     4.6576165     4.9078666    
N      6.0371619     4.0790944     7.0751142    
N      3.0164580     0.6636614     3.2040899    
C      1.6330492     0.2645315     3.2348186    
C      1.3038456    -0.3945951     1.8985739    
O      1.9954398    -0.1871174     0.9026900    
C      0.7168529     1.4906917     3.4510937    
C      1.1727713     2.2163822     4.6848218    
C      0.8277828     1.7552572     5.9473335    
C      2.0264229     3.3079635     4.5876572    
C      1.3295767     2.3573653     7.0855746    
C      2.5325396     3.9201967     5.7160321    
C      2.1984918     3.4370804     6.9774432    
O      2.7531234     4.0397739     8.0646841    
N      0.2479407    -1.2029837     1.8942935    
C     -0.3072599    -1.7150373     0.6539126    
C     -1.0019048    -0.5533333    -0.0717942    
O     -1.5054014     0.3700310     0.5548944    
C     -1.3019590    -2.8342745     0.9752489    
C     -1.8159053    -3.6203859    -0.2374535    
C     -0.7005417    -4.4158287    -0.9134482    
C     -2.9154076    -4.5766300     0.2261215    
N     -0.9429194    -0.6015806    -1.4103934    
C     -1.7072902     0.2996261    -2.2482712    
C     -2.9601707    -0.4230415    -2.7546891    
O     -3.0186769    -1.6466358    -2.7908750    
C     -0.8721032     0.7470977    -3.4484104    
N     -3.9685734     0.3817104    -3.1133429    
C     -5.1136228    -0.1337702    -3.8457444    
C     -4.6930593    -0.1870590    -5.3232738    
O     -4.2416086     0.8388745    -5.8500971    
C     -6.3322854     0.7809864    -3.6738007    
C     -7.5219806     0.2061336    -4.4394080    
C     -6.6777466     0.9522644    -2.1963614    
N     -4.7129475    -1.3607850    -5.9417904    
C     -4.3896541    -1.4570154    -7.3499884    
C     -5.5686826    -0.9015271    -8.2335460    
O     -5.3629960    -0.9010644    -9.4610914    
C     -4.1771366    -2.9485450    -7.5768331    
C     -5.2078187    -3.5627772    -6.6324718    
C     -5.1849416    -2.6339144    -5.4163777    
O     -6.5954649    -0.5238753    -7.6427265    
H      4.3220103    -0.2104657    -1.4941547    
H      4.7396857     0.9728915    -0.4065936    
H      3.4440581    -0.0431033    -0.0783928    
H      4.9955885    -1.9676667    -0.0726344    
H      7.4232316    -1.3729882     0.2496567    
H      7.0614747     0.3056819    -0.1315711    
H      6.8371835    -0.9522853    -1.3487266    
H      6.0803847     0.9991572     1.7102719    
H      6.0346414    -0.0705001     4.2313492    
H      4.9529910     2.7124695     3.5106638    
H      6.6744287     2.3128077     3.5709073    
H      6.5002208     1.7585325     5.9565533    
H      4.7513508     1.9899347     5.9129545    
H      6.0756705     5.0426242     7.3664263    
H      5.9369267     3.3698759     7.7797101    
H      3.3042227     1.1419158     2.3613472    
H      1.5192152    -0.4434109     4.0607582    
H     -0.3161071     1.1580127     3.5483053    
H      0.7824474     2.1438273     2.5799663    
H      0.1618832     0.9114466     6.0489480    
H      2.2979153     3.6952437     3.6177182    
H      1.0529006     1.9801974     8.0595780    
H      3.1993304     4.7643085     5.6373284    
H      2.3988707     3.6590634     8.8823419    
H     -0.3461677    -1.2437743     2.7087158    
H      0.5232253    -2.0850878     0.0486261    
H     -2.1560594    -2.3888133     1.4915861    
H     -0.8137061    -3.5320923     1.6589830    
H     -2.2593329    -2.9321401    -0.9641350    
H     -1.1077763    -4.9794783    -1.7488631    
H     -0.2572814    -5.1173570    -0.2102314    
H      0.0820109    -3.7694400    -1.2988220    
H     -3.7338826    -4.0292985     0.6883924    
H     -2.5233553    -5.2896394     0.9482855    
H     -3.3164723    -5.1280889    -0.6204596    
H     -0.6702196    -1.4654705    -1.8592145    
H     -1.9995173     1.1507009    -1.6266318    
H     -1.4721340     1.3577351    -4.1181798    
H     -0.5327551    -0.1230105    -4.0051345    
H     -0.0148662     1.3214985    -3.1129163    
H     -3.7934514     1.3697067    -3.2306445    
H     -5.3180919    -1.1305519    -3.4542189    
H     -6.0749441     1.7510729    -4.1143280    
H     -8.3657164     0.8892250    -4.3883065    
H     -7.8254841    -0.7476975    -4.0127513    
H     -7.2762993     0.0537904    -5.4908015    
H     -5.8373755     1.3606402    -1.6427687    
H     -6.9437783    -0.0093389    -1.7647132    
H     -7.5246219     1.6245356    -2.0940831    
H     -3.5154007    -0.8410915    -7.5830757    
H     -3.1645040    -3.2328017    -7.2887853    
H     -4.3448121    -3.2042622    -8.6217164    
H     -4.9777790    -4.5914254    -6.3680974    
H     -6.1906165    -3.5218057    -7.1038861    
H     -6.1801057    -2.5308970    -4.9817946    
H     -4.4790111    -2.9813809    -4.6542739    
