43

P     -2.2498601    -0.4810470    -0.4935733    
O     -2.8435720    -1.0620042    -1.7546920    
O     -1.6107131    -1.5016604     0.4244239    
O     -3.1218685     0.5325173     0.2048111    
P     -0.2454958     0.0389832    -2.3970459    
O     -0.9726797     0.5688487    -3.5807256    
O      0.1806365    -1.3974179    -2.4195201    
O     -0.9010554     0.4852533    -1.0207988    
P      1.5385832     2.2482783    -1.5613368    
O      0.3830098     3.1657684    -1.4316092    
O      2.7714679     2.7057295    -2.2679798    
O      1.1802108     0.8369777    -2.2868053    
O      1.9591600     1.7913695    -0.0462621    
C      3.1732424     1.0665880     0.1288058    
C      2.9666707    -0.2892741     0.8040087    
O      2.6365804    -0.1458324     2.1870866    
C      1.8542787    -1.1511898     0.1931116    
O      2.3267813    -1.9732825    -0.8380259    
C      1.3697663    -1.9702797     1.4036158    
O      2.2017257    -3.0682979     1.6331516    
C      1.5341616    -0.9414691     2.5279329    
N      0.3323745    -0.1524469     2.6950792    
C      0.1065960     1.1558686     2.3660223    
N     -1.1147579     1.5524825     2.5547736    
C     -1.7841356     0.4254999     2.9723324    
C     -3.1341783     0.1426198     3.2224573    
N     -4.1195667     1.0765571     3.1301113    
N     -3.4485889    -1.0818738     3.6700123    
C     -2.4806588    -1.9742485     3.8049990    
N     -1.1915627    -1.8612551     3.5386054    
C     -0.8841516    -0.6471186     3.0745246    
H      3.8125699     1.6866696     0.7639121    
H      3.6336186     0.9214396    -0.8526563    
H      3.9126900    -0.8455915     0.7423292    
H      1.0264431    -0.5155389    -0.1362777    
H      1.6576501    -1.9497412    -1.5526958    
H      0.3200744    -2.2660695     1.2769828    
H      2.4901484    -3.3945722     0.7602549    
H      1.7446376    -1.4370845     3.4855233    
H      0.8875867     1.7875343     1.9911624    
H     -5.0376860     0.6653649     3.0259170    
H     -3.8999233     1.7791371     2.4372846    
H     -2.7881620    -2.9370723     4.1899493    
