43

P     -2.2426902    -0.5638202    -0.4608143    
O     -2.8643881    -1.1824602    -1.6896567    
O     -1.5715066    -1.5548580     0.4658388    
O     -3.1051440     0.4609981     0.2332833    
P     -0.2629071    -0.0994668    -2.4034450    
O     -1.0073402     0.3633081    -3.6042971    
O      0.1835793    -1.5294385    -2.3638971    
O     -0.9173631     0.4017696    -1.0456331    
P      1.5058335     2.1636049    -1.6767323    
O      0.3485355     3.0852166    -1.5983320    
O      2.7435847     2.5857108    -2.3970486    
O      1.1498767     0.7228684    -2.3432530    
O      1.9155538     1.7783674    -0.1382693    
C      3.1521831     1.1068351     0.0887277    
C      2.9838188    -0.2413141     0.7915884    
O      2.6587919    -0.0774487     2.1740422    
C      1.8878845    -1.1403630     0.2053359    
O      2.3747579    -1.9796653    -0.8051198    
C      1.4139030    -1.9356737     1.4358559    
O      2.2588447    -3.0175351     1.6931759    
C      1.5670490    -0.8789120     2.5353429    
N      0.3577179    -0.0985597     2.6875000    
C      0.1259316     1.2035698     2.3418089    
N     -1.0955670     1.5998073     2.5352576    
C     -1.7572720     0.4790824     2.9787207    
C     -3.1034136     0.1977745     3.2486815    
N     -4.0915402     1.1286714     3.1565349    
N     -3.4111141    -1.0209311     3.7170954    
C     -2.4391341    -1.9085164     3.8557016    
N     -1.1531187    -1.7970466     3.5750100    
C     -0.8534786    -0.5900657     3.0872585    
H      3.7459984     1.7668671     0.7281834    
H      3.6462153     0.9616655    -0.8759591    
H      3.9430839    -0.7748217     0.7363346    
H      1.0491007    -0.5281278    -0.1422706    
H      1.6972599    -1.9959322    -1.5125539    
H      0.3672308    -2.2454477     1.3149947    
H      2.5404379    -3.3715118     0.8284087    
H      1.7856338    -1.3498585     3.5034254    
H      0.9021769     1.8297492     1.9485555    
H     -5.0100263     0.7142674     3.0705637    
H     -3.8826416     1.8245630     2.4543460    
H     -2.7423728    -2.8666069     4.2551247    
