37

C      2.0867980     0.6394703     3.0448850    
C      4.7905355     0.3042959    -0.6090790    
C      3.6334912     0.7839684     0.1046619    
C      3.1580978     0.1167275     2.0793370    
C      1.2735194    -0.3029491     0.3014293    
C      0.5974402    -1.4957223     0.0652640    
C     -0.7467502    -1.4963497    -0.2529048    
C      2.7290232    -0.3523939     0.6592229    
C     -5.1252085     0.5282135    -0.2258805    
C     -5.6285384    -0.2453386    -1.2594912    
C     -4.7722424    -1.0368496    -2.0054656    
C     -3.4273061    -1.0435848    -1.6947594    
C     -2.8869941    -0.2820171    -0.6634165    
C     -3.7739561     0.5114751     0.0638801    
C     -1.4515096    -0.2986401    -0.3419226    
C     -0.7747768     0.8950792    -0.1042754    
C      0.5706311     0.8941208     0.2085040    
N      3.9305750     1.2482838     1.4890907    
N      5.7033694    -0.1018678    -1.1641034    
O      1.8362210     1.9919526     2.7175334    
F     -2.6003271    -1.8165688    -2.4624909    
H      2.4540747     0.5600371     4.0734123    
H      1.1827737     0.0298581     2.9440805    
H      3.1187312     1.5276008    -0.5088609    
H      3.7912138    -0.6141853     2.5798118    
H      1.1216294    -2.4373560     0.1301650    
H     -1.2558050    -2.4326436    -0.4249054    
H      3.1121144    -1.3456917     0.4258840    
H     -5.7914371     1.1460435     0.3554142    
H     -6.6819940    -0.2345177    -1.4892307    
H     -5.1288972    -1.6443727    -2.8219018    
H     -3.3916730     1.1063252     0.8785437    
H     -1.3085507     1.8294639    -0.1855270    
H      1.0524247     1.8397513     0.3962000    
H      3.4282935     2.1209833     1.7521593    
H      4.9194106     1.3336721     1.7441576    
H      1.2225543     2.3806497     3.3508343    
