38

C     -1.6060093     0.5626409    -0.7402222    
C      1.1981402    -0.4708633     2.0000356    
C      1.2249525     2.9263163     4.6610006    
C      3.3806313     0.2722140     1.3274367    
C      3.4364695    -0.7509056     0.4014515    
O     -1.7649451    -0.9443278     1.6915392    
S     -1.3307602    -1.7937870     0.6130686    
C     -1.2102434    -0.7558638    -0.8508529    
C     -0.8044522    -1.2663622    -2.0708599    
Br    -0.2831396    -3.0735057    -2.2174087    
C     -0.7787263    -0.4548378    -3.1988178    
C     -1.1767262     0.8658337    -3.0973717    
C     -1.5918033     1.3653372    -1.8700036    
Br    -2.1657519     3.1638337    -1.7400671    
N      0.1717556    -2.3776982     0.9484248    
C      1.2653966    -1.4866236     1.0586548    
C      2.2626852     0.4194025     2.1528513    
N      2.1969146     1.4151935     3.1297606    
C      0.9898424     1.6048461     3.9294359    
C      2.7434123     2.9996005     4.7537672    
C      3.2256666     2.1936239     3.5690456    
O      4.3559558     2.2330276     3.1111657    
C      2.3857054    -1.6401514     0.2538006    
O     -2.1673462    -2.9236048     0.3092180    
H     -1.9287723     0.9207263     0.2241807    
H      0.3093905    -0.4130393     2.6027679    
H      0.7417313     2.9416392     5.6340338    
H      0.8453028     3.7580172     4.0688595    
H      4.2100133     0.9504545     1.4303272    
H      4.3137869    -0.8546685    -0.2160568    
H     -0.4561160    -0.8548618    -4.1468880    
H     -1.1699402     1.5030888    -3.9678451    
H      0.3764248    -3.2470859     0.4764129    
H      0.1103472     1.6403453     3.2859311    
H      0.8812323     0.7721590     4.6319336    
H      3.1209031     2.5102336     5.6535497    
H      3.1480973     4.0084160     4.7235307    
H      2.4373769    -2.4436489    -0.4640945    
