72

C      6.1960674     5.7744065    -3.1370390    
C      3.6309928     3.3281792     0.0740565    
C      3.7584372     2.2009309     1.1037472    
C      2.3699654     0.2084664     0.6379617    
F     -0.6935935    -2.1637145     4.3296735    
C      4.3779579     4.1829755    -2.1940328    
C      5.7234598     4.2798402    -2.9156544    
C      6.0519548     3.3374866    -0.7309942    
O      5.4926609     6.5083571    -3.8320639    
C      4.5793895     3.1102393    -1.1081345    
N      6.7223848     3.6748850    -2.0056498    
O     -2.4821700    -3.4346886    -4.4457849    
S     -1.9498546    -2.3596720    -3.6177881    
O     -2.4274132    -1.0280323    -3.9610001    
C     -0.1538986    -2.3882369    -3.7253502    
C     -2.3794970    -2.6993533    -1.9106023    
C     -2.2071506    -3.9771274    -1.4127908    
C     -2.5578839    -4.2337104    -0.0965375    
C     -3.0610140    -3.2183321     0.7013892    
C     -2.8793218    -1.6786550    -1.1311135    
C     -3.2211074    -1.9303911     0.1950146    
C     -3.7518835    -0.8233073     1.0176015    
C     -4.9269424    -0.2015799     0.6071539    
C     -5.4349421     0.8646679     1.3266299    
Cl    -6.9119439     1.6124096     0.8088250    
C     -4.7743411     1.3520086     2.4424339    
C     -3.5982387     0.7446215     2.8428712    
C     -3.0907284    -0.3516416     2.1558349    
C     -1.7792546    -0.9697603     2.5819495    
C     -1.8240161    -1.5051924     4.0137432    
F     -1.9777027    -0.5698250     4.9592577    
F     -2.8264437    -2.3842564     4.1814030    
O     -0.7163708    -0.0351754     2.5055986    
C      0.2865915    -0.3387417     1.6241345    
C      1.3440633     0.5414645     1.5469940    
N      0.1879573    -1.4495066     0.9069610    
C      1.2050646    -1.6825892     0.0635419    
N      1.1049226    -2.7806653    -0.7143547    
N      2.2685862    -0.9128258    -0.0990971    
N      3.4956835     0.9251757     0.4819641    
C      4.4270944     0.6263721    -0.5851526    
C      4.3476886     1.7011826    -1.6737326    
O      7.2721492     6.0408512    -2.5544691    
H      3.8366173     4.2851091     0.5538316    
H      2.6049510     3.3520165    -0.2968398    
H      3.0745445     2.3733735     1.9304958    
H      4.7754067     2.1776972     1.5056972    
H      3.5755196     3.9369986    -2.8845680    
H      4.1352364     5.1446832    -1.7380691    
H      5.7052945     3.7893397    -3.8878638    
H      6.5241929     2.4713983    -0.2756161    
H      6.1274256     4.1898102    -0.0553785    
H      7.4076116     4.4879614    -1.9116572    
H      7.1956840     2.8706362    -2.4153255    
H      0.1579809    -3.4217212    -3.6756897    
H      0.2299985    -1.8124417    -2.8935462    
H      0.1194057    -1.9431404    -4.6731607    
H     -1.8322940    -4.7516906    -2.0610406    
H     -2.4437659    -5.2256713     0.3098245    
H     -3.3525816    -3.4268440     1.7200251    
H     -2.9958861    -0.6974047    -1.5634006    
H     -5.4396975    -0.5609788    -0.2706896    
H     -5.1688330     2.1947337     2.9847132    
H     -3.0634120     1.1366588     3.6928164    
H     -1.5216441    -1.8202555     1.9342578    
H      1.3368258     1.4154219     2.1692150    
H      0.3997485    -3.4535883    -0.4689076    
H      1.9394005    -3.0899500    -1.1820223    
H      4.1632192    -0.3458401    -0.9950924    
H      5.4299931     0.5731809    -0.1547055    
H      5.0671584     1.4732679    -2.4580193    
H      3.3510098     1.6649025    -2.1154789    
