43

N      1.7306299    -4.6668450     1.4841975    
C      1.7462178    -3.3153293     1.4542898    
N      2.7634313    -2.5328726     1.8491874    
C     -2.8072546    -0.3081846    -0.5636507    
C     -0.2528086    -4.0350310     0.6659177    
C     -2.2821728     0.8880041     0.2364222    
C     -2.6405354     2.2650237    -0.3165604    
C     -1.9107707    -1.4607137    -0.1057176    
N     -0.4321654     2.4726656    -1.3256934    
C     -0.0110049     5.1091302    -3.0530008    
N      1.4057488    -0.6805368     1.2420664    
C      2.5010188    -1.2490839     1.7119419    
C      0.3823702    -1.4563296     0.8351867    
C      0.5084686    -2.8626874     0.9386158    
C      0.5216189    -5.1009484     1.0090992    
N     -0.6963635    -0.8183452     0.3630827    
C     -0.7720132     0.6248247     0.2715138    
C     -0.0647557     1.1097911    -1.0086665    
C     -1.8510217     2.6090187    -1.5804554    
C      0.4756415     3.4575815    -1.2285861    
O      1.6521653     3.2229713    -0.9394683    
C      0.0378380     4.8768604    -1.5413727    
H      2.4874957    -5.2454457     1.8072388    
H     -2.6906376    -0.1365661    -1.6317415    
H     -3.8558425    -0.5080255    -0.3585692    
H     -1.2458641    -4.0911095     0.2721806    
H     -2.6644923     0.8115613     1.2589413    
H     -2.4169871     3.0138038     0.4454104    
H     -3.7077684     2.3045790    -0.5332911    
H     -1.6864076    -2.1571914    -0.9169571    
H     -2.3691385    -2.0161170     0.7187633    
H     -0.2716709     6.1436432    -3.2599299    
H     -0.7397344     4.4610786    -3.5319544    
H      0.9648600     4.9047153    -3.4876278    
H      3.2833608    -0.5653186     2.0202810    
H      0.3024842    -6.1480067     0.9498220    
H     -0.2773418     1.0757496     1.1351732    
H      1.0154776     1.0630306    -0.8631490    
H     -0.3394708     0.4640242    -1.8477211    
H     -2.0929396     3.6176037    -1.9012929    
H     -2.1119105     1.9216251    -2.3904064    
H     -0.9204608     5.1064837    -1.0786261    
H      0.7940619     5.5322983    -1.1061991    
