43

N     -3.5554325    -1.6316514     2.2521164    
C     -2.4506846    -0.9104545     2.1877216    
C     -1.9619323    -1.5991561    -0.0628457    
C     -0.8067247     0.3502097     2.4907077    
C     -5.1241796    -3.1569320     1.2672173    
C     -0.2032881    -2.2736994    -3.4239040    
C      1.1883135     0.6669252    -2.5265169    
C      2.0820880     0.9735833    -0.2319858    
C      2.1914607     1.6875323     0.9481906    
C      0.7151390     3.3809019     0.0745185    
C      0.6005257     2.6635961    -1.1023249    
C      1.2713463     1.4537673    -1.2505380    
C      1.4993647     2.8791209     1.0967565    
C     -3.1057027    -2.3445080     0.0088457    
C     -3.8868275    -2.3373774     1.1925382    
C     -1.2486895    -2.4945019    -2.3367195    
C     -1.0612924    -0.0609148    -1.8101757    
C     -0.1186350    -0.8224714    -3.9077236    
C     -1.0103926    -1.4833735    -1.2142552    
N     -1.8980498    -0.1201889     3.0990480    
N     -0.6119224    -0.0710517     1.2544421    
N     -1.6545646    -0.8813236     1.0413404    
N      0.0012600     0.0748446    -2.7800798    
O      2.1390996     0.6006125    -3.2934640    
F      1.5875594     3.5634857     2.2565965    
F      1.0276756    -2.6888528    -2.9751587    
F     -0.4620624    -3.0911500    -4.4948667    
Br     3.2802589     1.0361499     2.3688793    
H     -0.1336409     1.0274739     2.9757407    
H     -5.7555983    -2.9683413     0.4032424    
H     -5.6618173    -2.9270088     2.1801534    
H     -4.8621190    -4.2129121     1.2653748    
H      2.6234934     0.0491374    -0.3544117    
H      0.2040921     4.3189830     0.2174874    
H     -0.0078447     3.0463367    -1.9057538    
H     -3.4231321    -2.9488914    -0.8220613    
H     -1.1628028    -3.5207066    -1.9766236    
H     -2.2297050    -2.3543229    -2.7911692    
H     -0.9344677     0.6752319    -1.0193260    
H     -2.0173181     0.0987753    -2.3144981    
H     -1.0222378    -0.5976440    -4.4793055    
H      0.7626852    -0.7010059    -4.5422502    
H     -0.0013295    -1.6242259    -0.8058698    
