36

C      3.4207754     1.9937684     0.4345740    
O      3.6132068     1.8587722    -0.7769933    
N      1.3321659     0.6153216     0.9659370    
S     -0.7187664    -0.5543803     2.3243455    
C     -2.6495237    -2.8034631    -3.3596487    
C     -3.9884640    -2.4062881    -3.3334653    
C     -4.4143562    -1.5149505    -2.3368234    
C     -3.5424120    -1.0493453    -1.3852831    
C     -4.5793377    -3.7077378    -5.2439052    
N      1.2310608     1.0960730     3.1500751    
C      2.3993437     1.4359122     1.2419549    
O     -0.0011086    -1.2028348    -0.6106500    
N      3.1821212     2.5079942     3.2791737    
C      0.6823095     0.4525865     2.1390686    
O     -4.9309055    -2.8091380    -4.2026720    
C      2.3135715     1.7204842     2.6174766    
N      4.2728491     2.7843562     1.1972010    
C      4.1418733     3.0165434     2.5475721    
N      5.0430154     3.8185283     3.1223072    
C     -1.6858397    -0.2443181     0.7859855    
C     -1.1990023    -0.9998649    -0.4338845    
C     -2.1986748    -1.4530321    -1.3962363    
C     -1.7779473    -2.3242067    -2.4085501    
H      1.1253222     0.1039629     0.1109761    
H     -2.2852386    -3.4795454    -4.1153068    
H     -5.4481734    -1.2093156    -2.3428930    
H     -3.9026666    -0.3526913    -0.6471879    
H     -5.5028936    -3.8881127    -5.7881675    
H     -4.2013263    -4.6484037    -4.8379787    
H     -3.8387986    -3.2621207    -5.9113466    
H      5.0349546     3.2180188     0.6875252    
H      4.9688143     3.9628159     4.1144136    
H      5.8231219     4.1896060     2.6104800    
H     -1.6624405     0.8285957     0.5895510    
H     -2.6898185    -0.5474170     1.0692004    
H     -0.7406662    -2.6245374    -2.4224090    
