38

C     -2.6849009    -0.8133881    -0.1431165    
C     -3.8053517    -0.1171278    -2.5671799    
C      3.5304781     0.5871687     1.7409978    
C      4.5227609     1.2513332     0.9854515    
N      7.0146203     1.2718402     3.6265696    
C      5.8382398     1.0204456     3.0449335    
N      4.9098484     0.3995404     3.7296749    
C      3.7567319     0.1863790     3.0683719    
N      2.6487355    -0.4259710     3.5592624    
C      1.7738278    -0.4004915     2.5728750    
S      0.2004951    -1.0827949     2.7628606    
C     -0.5807211    -0.6853390     1.1402252    
C     -2.0298310    -1.1691947     1.1619182    
C     -2.6739034    -1.7122455    -1.2056734    
C     -3.2372154    -1.3673580    -2.4219976    
S     -4.5579242     0.3142571    -4.1139095    
N     -6.1093348    -0.2560910    -3.9648126    
O     -4.6040055     1.7597088    -4.2476371    
O     -3.9163177    -0.4128850    -5.1939760    
C     -3.8301830     0.7922101    -1.5288980    
C     -3.2643300     0.4405029    -0.3154680    
N      2.2407768     0.1943221     1.4474930    
O      4.4667913     1.6521522    -0.1820213    
N      5.6767787     1.4307838     1.7415619    
H      7.1284432     0.9903711     4.5845299    
H      7.7439055     1.7720216     3.1511760    
H     -0.0213291    -1.1956358     0.3577177    
H     -0.5439884     0.3941381     1.0044557    
H     -2.0447118    -2.2470894     1.3165310    
H     -2.5510046    -0.6917424     1.9910062    
H     -2.2292620    -2.6865252    -1.0792369    
H     -3.2331819    -2.0382308    -3.2651156    
H     -6.3410523    -0.9248370    -4.6816533    
H     -6.7851355     0.4873002    -3.8993127    
H     -4.2764103     1.7589832    -1.6933907    
H     -3.2781477     1.1411731     0.5044324    
H      1.7748239     0.3380446     0.5664140    
H      6.4390603     1.9027991     1.2679340    
