141

N      0.7889415     5.0184719    -1.5617428    
C      0.3088242     4.2495517    -0.4318034    
C     -1.2033728     4.0347567    -0.5418577    
O     -2.0025655     4.9597670    -0.4824761    
C      0.6661658     4.9414661     0.8847587    
C      2.1809367     5.0921543     1.0339185    
C      2.5978276     5.2391500     2.4935358    
C      4.1176955     5.1829302     2.6653376    
N      4.6882242     3.9334894     2.1920885    
N     -1.5483137     2.7524229    -0.7041068    
C     -2.9160236     2.3169346    -0.9132219    
C     -3.0891794     0.9848380    -0.1786959    
O     -3.0817621    -0.0856181    -0.7755783    
C     -3.2130162     2.1460267    -2.4136888    
C     -3.1099327     3.4634791    -3.1237000    
C     -4.2052134     4.3160642    -3.1800730    
C     -1.9119641     3.8695628    -3.6967664    
C     -4.1095636     5.5485549    -3.7991954    
C     -1.8170087     5.1020031    -4.3187883    
C     -2.9133830     5.9443299    -4.3724357    
N     -3.1654794     1.0815002     1.1508574    
C     -3.2369802    -0.1081564     1.9722298    
C     -4.5426816    -0.8661732     1.6775588    
O     -5.3829554    -0.4629912     0.8851095    
C     -2.9843357     0.1796475     3.4549349    
C     -1.5893147    -0.2607377     3.8938106    
C     -1.3702518    -1.7929696     3.9931355    
O     -0.2380566    -2.1620452     4.3620736    
O     -2.3158817    -2.5730757     3.7272276    
N     -4.6259481    -2.0205531     2.3491481    
C     -5.4195622    -3.1456579     1.9040344    
C     -4.4656833    -4.3100607     1.6312201    
O     -4.6301515    -5.4186634     2.1148377    
N     -3.4424458    -3.9975960     0.8139799    
C     -2.1907653    -4.7212041     0.8241025    
C     -1.0749642    -3.6949085     1.0200421    
O     -1.2880539    -2.4907745     0.8596900    
C     -1.9614515    -5.5157290    -0.4784546    
C     -3.1035107    -6.4624435    -0.7073889    
C     -3.0413489    -7.7709600    -0.2454491    
C     -4.2639228    -6.0350799    -1.3356789    
C     -4.1036009    -8.6350093    -0.4158970    
C     -5.3364811    -6.8892788    -1.5087835    
C     -5.2634627    -8.1981639    -1.0484700    
O     -6.2857019    -9.0806431    -1.1977786    
N      0.1338985    -4.1918989     1.2633108    
C      1.2259870    -3.3535095     1.7277925    
C      1.3153851    -2.0699528     0.9107569    
O      1.4220348    -0.9699649     1.4430036    
C      2.5217517    -4.1591909     1.6512842    
C      2.4208092    -5.4366967     2.5421575    
O      3.3106516    -5.6142041     3.3852054    
O      1.4563592    -6.2070330     2.3205141    
N      1.4121459    -2.2379724    -0.4202197    
C      1.2005862    -1.1284504    -1.3406249    
C      1.7274518     0.1702464    -0.7149535    
O      1.0036594     1.1299648    -0.4881743    
C     -0.2795057    -0.9847507    -1.6906972    
C     -0.8903620    -2.2609247    -2.2355966    
O     -0.2540229    -3.3026650    -2.3807658    
N     -2.1734852    -2.1398162    -2.5884331    
N      3.0673419     0.2041406    -0.6067919    
C      3.7728034     1.2244583     0.1485956    
C      4.8442286     1.8603596    -0.7499713    
O      6.0222232     1.5214982    -0.7247824    
C      4.3860560     0.6174989     1.4159316    
C      5.2596328     1.5887545     2.2174921    
C      4.4908719     2.7616566     2.8044333    
O      3.7781853     2.6396664     3.8012900    
O      1.8280346     3.2646140    -2.5281179    
N      4.4018811     2.8521218    -1.5254533    
C      5.3426125     3.6569703    -2.2818852    
C      6.5265826     3.9704716    -1.3447343    
O      6.3328487     4.3532134    -0.1961744    
N      7.7333194     3.9145172    -1.9003842    
C      4.7206897     4.9871453    -2.7018122    
S      3.6687675     4.8429365    -4.1972056    
C      2.0488187     5.4027694    -3.5830944    
C      1.5261463     4.4574962    -2.5247169    
H      0.4623706     5.9711564    -1.6364653    
H      0.8037351     3.2757316    -0.4782711    
H      0.2861234     4.3145979     1.6935142    
H      0.1612053     5.9065469     0.9405627    
H      2.5360149     5.9508516     0.4628315    
H      2.6608365     4.1962611     0.6320152    
H      2.1652180     4.4241656     3.0776078    
H      2.2302833     6.1814968     2.8995217    
H      4.3484535     5.2807519     3.7302883    
H      4.6008516     5.9837855     2.1077359    
H      5.2701099     3.9761610     1.3623552    
H     -0.8206583     2.0468292    -0.7324337    
H     -3.5696767     3.0878157    -0.4903256    
H     -4.2160893     1.7283593    -2.5061884    
H     -2.5000973     1.4268505    -2.8207351    
H     -5.1370796     4.0052398    -2.7309798    
H     -1.0510421     3.2155692    -3.6501958    
H     -4.9691677     6.1999979    -3.8334048    
H     -0.8834469     5.4037384    -4.7697073    
H     -2.8345894     6.9040778    -4.8592872    
H     -3.2362647     1.9833198     1.5964975    
H     -2.4536072    -0.7941993     1.6153515    
H     -3.7185825    -0.3479104     4.0650878    
H     -3.0922648     1.2494736     3.6404875    
H     -1.3502210     0.1335535     4.8837284    
H     -0.8184683     0.0969323     3.2056866    
H     -3.8187833    -2.2579160     2.9401006    
H     -5.9616362    -2.8485711     1.0020654    
H     -6.1225271    -3.4563262     2.6800915    
H     -3.3163442    -3.0206972     0.5635114    
H     -2.2007659    -5.4112531     1.6762591    
H     -1.0221325    -6.0594954    -0.3713104    
H     -1.8575551    -4.8129191    -1.3061140    
H     -2.1481359    -8.1108260     0.2585604    
H     -4.3314328    -5.0154784    -1.6834259    
H     -4.0573409    -9.6505999    -0.0567884    
H     -6.2321459    -6.5322365    -1.9946435    
H     -7.0354757    -8.6569326    -1.6431226    
H      0.2831378    -5.1708317     1.5555045    
H      1.0371473    -3.0468564     2.7698723    
H      3.3583496    -3.5599063     2.0089337    
H      2.6966772    -4.4749686     0.6215339    
H      1.1187567    -3.1293647    -0.8109047    
H      1.7766064    -1.3537028    -2.2447908    
H     -0.4097946    -0.1741773    -2.4080196    
H     -0.8294593    -0.7340604    -0.7807226    
H     -2.6738028    -2.9757028    -2.8510820    
H     -2.7053169    -1.3661182    -2.2109391    
H      3.5624579    -0.6699501    -0.7152640    
H      3.0275333     1.9794243     0.4195013    
H      5.0106866    -0.2291542     1.1201127    
H      3.5689322     0.2398633     2.0371739    
H      6.0720674     1.9477534     1.5870662    
H      5.6774562     1.0319675     3.0577957    
H      3.4075017     2.9433851    -1.7232340    
H      5.6935322     3.1078868    -3.1635779    
H      8.5361610     4.0718852    -1.3100490    
H      7.8725934     3.4922294    -2.8026460    
H      5.5109799     5.6915508    -2.9574859    
H      4.1179948     5.3904287    -1.8916539    
H      1.4043506     5.3713333    -4.4614947    
H      2.1320417     6.4258325    -3.2225118    
