45

C     -0.6722843     1.0328197     2.6043505    
C      0.6435016     0.6932757     2.9001280    
C      3.7301404    -2.3358462    -0.2066326    
C     -5.8076325     2.3394851    -1.0813928    
N     -0.8499512    -0.1264011    -0.8953887    
C     -0.3750721     0.1761669     0.3681852    
C     -0.0559005    -0.7774608    -1.8339923    
C     -2.0446254     0.0407194    -1.5550984    
C      0.9697310    -0.1480556     0.6631271    
C     -1.1740138     0.7655147     1.3504128    
C      1.2863577    -1.1001824    -1.5430838    
N     -0.7340031    -0.9758112    -2.9413307    
N     -1.9553209    -0.4670785    -2.7572939    
C     -3.2892918     0.6904106    -1.0554982    
C      1.8100178    -0.7690249    -0.3343261    
C      1.4510521     0.1070266     1.9545264    
C     -4.3091760     0.7508435    -2.1969305    
C      3.2304944    -1.0457488    -0.0578302    
N     -5.6852424     1.0237085    -1.7284359    
C      4.0973953    -0.0198292     0.3111346    
Cl     1.2757286     1.0031566     4.4948181    
C     -6.6322438     0.9133653    -2.8502963    
C      5.4356908    -0.2855852     0.5370775    
C      5.0673312    -2.5991208     0.0290707    
C      5.9226807    -1.5755102     0.4026902    
H     -1.2916322     1.4893199     3.3574273    
H      3.0626707    -3.1349139    -0.4934055    
H     -6.8424534     2.5205593    -0.8013261    
H     -5.4930166     3.1166248    -1.7737929    
H     -5.1950440     2.3895090    -0.1865293    
H     -2.1984943     1.0133032     1.1495716    
H      1.8700787    -1.5745676    -2.3134378    
H     -3.0432419     1.6923450    -0.6992162    
H     -3.6847421     0.0950182    -0.2274092    
H      2.4614925    -0.1708494     2.2047754    
H     -4.2889339    -0.2037827    -2.7224337    
H     -4.0187918     1.5235619    -2.9086581    
H     -5.9327842     0.3053302    -1.0376820    
H      3.7250268     0.9901326     0.4007202    
H     -7.6496874     1.0629427    -2.4983926    
H     -6.5595043    -0.0671705    -3.3131473    
H     -6.4040175     1.6693841    -3.5976246    
H      6.1014617     0.5165703     0.8184452    
H      5.4439107    -3.6045845    -0.0799806    
H      6.9663685    -1.7815275     0.5852503    
