21

C     -2.2318073     0.1621144     0.1424598    
C     -1.8545683     0.3954254    -1.2094388    
C     -1.2150563    -0.7792638    -1.6965347    
C     -1.1975237    -1.7382996    -0.6452699    
C     -1.8262894    -1.1569775     0.4913146    
C      2.1404963     0.3198809    -0.4729395    
C      1.5467649     1.5972023    -0.2696282    
C      1.0667541     1.6502535     1.0696731    
C      1.3645982     0.4067699     1.6933787    
C      2.0287328    -0.4157364     0.7403021    
Ru    -0.0174694     0.0407120    -0.0131944    
H     -2.8485735     0.8125880     0.7479929    
H     -2.1358532     1.2538266    -1.8045640    
H     -0.9290849    -0.9626096    -2.7236692    
H     -0.8983458    -2.7737103    -0.7394895    
H     -2.0834514    -1.6765818     1.4048159    
H      2.7082300     0.0199967    -1.3438775    
H      1.5868875     2.4291052    -0.9607511    
H      0.6824169     2.5315671     1.5657785    
H      1.2453220     0.1832401     2.7450972    
H      2.4985526    -1.3686091     0.9456186    
