53

N     -0.8252602    -3.5555220    -2.1447479    
C     -1.4420446    -1.8212976    -0.6135983    
C     -1.9846375    -0.5407559    -0.5724327    
C     -1.6910334     0.3269523     0.4609539    
C     -1.7943555    -2.7076931    -1.7584007    
C     -0.9648459    -4.4285125    -3.2906273    
C      0.8821325    -3.2895979    -4.6329504    
C      2.0391897    -2.9389592    -8.2235855    
C      1.1540449    -0.8330813    -7.5014122    
C      0.7394110     2.0664785     4.7484608    
C      1.8007462     4.0019350     7.7502607    
C      0.8507058     5.0464792     7.6089559    
C     -0.0454967     5.0640253     6.5846092    
C     -0.7515631     3.7269716     4.5162907    
O     -2.8992161    -2.6651011    -2.2986824    
C     -0.5832930    -3.7398963    -4.6044404    
C      1.2090924    -2.6972847    -5.9738903    
C      0.8978295    -1.3712658    -6.2529750    
C      1.7250450    -1.6165768    -8.4911315    
C      1.7796252    -3.4746731    -6.9742460    
C     -0.6164022    -2.2379310     0.4282514    
C     -0.3322277    -1.3827946     1.4727093    
C     -0.8558566    -0.0894041     1.4936338    
N     -0.5051173     0.7250634     2.5758664    
C     -0.8609104     2.0068679     2.8136781    
O     -1.6045294     2.6840612     2.1279897    
N     -0.2943787     2.5498881     3.9850903    
C     -0.0144263     4.0093328     5.6439081    
C      0.9498648     2.9458182     5.7884910    
C      1.8616223     2.9665260     6.8693265    
H      0.0952670    -3.4526001    -1.7480773    
H     -2.6426704    -0.2329087    -1.3713108    
H     -2.1098159     1.3192060     0.4728421    
H     -2.0139687    -4.7299742    -3.3403334    
H     -0.3398738    -5.3075575    -3.1275033    
H      1.5261108    -4.1491772    -4.4406594    
H      1.0475637    -2.5420686    -3.8552638    
H      2.4874316    -3.5549582    -8.9902729    
H      0.9076182     0.1996299    -7.7036475    
H      1.2973426     1.1879903     4.4990139    
H      2.4857473     4.0438328     8.5841723    
H      0.8506061     5.8399158     8.3415207    
H     -0.7701834     5.8570148     6.4786126    
H     -1.5628279     4.2500748     4.0521187    
H     -1.2360492    -2.8767214    -4.7513168    
H     -0.7630730    -4.4373355    -5.4240594    
H      0.4542214    -0.7543617    -5.4837097    
H      1.9262550    -1.1973690    -9.4658515    
H      2.0267739    -4.5077603    -6.7729494    
H     -0.2210943    -3.2412631     0.4447333    
H      0.2981222    -1.7204172     2.2805799    
H      0.0747952     0.2688290     3.2692582    
H      2.5838508     2.1724154     6.9803037    
