66

F      0.9686847    -0.6162376     2.7720708    
C      1.8380258    -0.8015870     1.7521324    
C      2.3686944    -2.0773809     1.5761388    
C      3.2795640    -2.2011033     0.5298135    
C      3.6102384    -1.1627278    -0.3142558    
C      3.0245961     0.0883925    -0.1260004    
C      2.1417512     0.2665630     0.9377347    
C      3.3126908     1.1883084    -1.0524176    
C      2.2522092     2.0256824    -1.4975622    
N      0.9964092     1.7930930    -1.0802032    
C      0.0323982     2.5864347    -1.5049789    
C      0.3239957     3.6559186    -2.3956505    
N      1.5257127     3.8886625    -2.8386980    
C      2.5273991     3.0822003    -2.4094191    
C      3.8420225     3.2916981    -2.8638817    
C      4.8456036     2.4697795    -2.4256271    
C      4.5817201     1.4235852    -1.5311392    
C     -1.2961177     2.3094072    -1.0182855    
C     -2.5035876     2.9416881    -1.2908622    
N     -3.4478933     2.3080896    -0.5819610    
N     -2.9346051     1.3042983     0.1359688    
C     -1.6456834     1.2858867    -0.1097490    
C     -4.8604705     2.6212448    -0.5448986    
C     -5.7060146     1.4465805    -1.0577637    
C     -5.7127283     0.2885762    -0.0690481    
N     -6.2143840     0.7542106     1.2428506    
C     -5.3304219     1.8009376     1.8024957    
C     -5.3080735     3.0065036     0.8725350    
F      3.8522450    -3.4125253     0.3304266    
C      2.0122898    -3.2250603     2.4806431    
N      0.8412865    -4.0114084     1.9985842    
C      1.0781479    -4.6730311     0.6938830    
C     -0.1314721    -5.5454245     0.3453735    
O     -1.3102928    -4.7746148     0.2855556    
C     -1.5635672    -4.1383067     1.5226031    
C     -0.4063196    -3.2152505     1.9120211    
H      4.3009876    -1.3389787    -1.1220516    
H      1.6963050     1.2267921     1.1290541    
H     -0.4507351     4.3217091    -2.7507110    
H      4.0259255     4.1031699    -3.5493682    
H      5.8570586     2.6250352    -2.7674900    
H      5.4020299     0.8095456    -1.1927753    
H     -2.7260361     3.7737592    -1.9270003    
H     -0.9925662     0.5744009     0.3499211    
H     -4.9967844     3.4787683    -1.2094763    
H     -5.3146622     1.1009123    -2.0137823    
H     -6.7196030     1.8096848    -1.2301672    
H     -4.6944558    -0.0777840     0.0656469    
H     -6.3467784    -0.5134061    -0.4440326    
H     -6.2639651    -0.0372193     1.8929432    
H     -7.1622454     1.1346587     1.1294750    
H     -4.3245533     1.3874788     1.8893526    
H     -5.6897309     2.1013675     2.7859009    
H     -6.2999521     3.4544614     0.8033916    
H     -4.6358104     3.7613592     1.2789449    
H      1.7736365    -2.8342069     3.4721035    
H      2.8687783    -3.8983396     2.5541172    
H      0.6851748    -4.7545738     2.6932103    
H      1.9807648    -5.2822017     0.7386941    
H      1.2012396    -3.9042464    -0.0707214    
H     -0.2451398    -6.3542066     1.0822297    
H     -0.0019389    -5.9873645    -0.6422265    
H     -1.7334016    -4.8921514     2.3043575    
H     -2.4753945    -3.5611963     1.3784414    
H     -0.2755938    -2.4535980     1.1417368    
H     -0.6081422    -2.7363375     2.8696150    
