161

N      0.3013274     3.1746202     6.0901952    
C      0.7405918     3.2286138     4.6702683    
C     -0.4829396     3.7038994     3.8690347    
O     -1.5140669     3.9820913     4.4827301    
C      1.1834465     1.7997267     4.3080052    
C      1.3677833     1.1194330     5.6648421    
C      0.2554367     1.7459416     6.4935662    
N     -0.3240586     3.8308301     2.5615958    
C     -1.4413705     4.1981564     1.7072718    
C     -2.2167582     2.9088002     1.3841947    
O     -1.6625955     1.9742321     0.8084187    
C     -0.9200857     4.8642230     0.4365598    
C     -0.2914132     6.2232652     0.7431700    
C      0.1747989     6.9380431    -0.5098946    
O     -0.1986908     6.6264148    -1.6379470    
N      1.0124077     7.9557940    -0.3020165    
N     -3.4947812     2.8382172     1.7668835    
C     -4.2308663     1.5881402     1.6121083    
C     -4.1094879     0.9540308     0.2344363    
O     -3.9833959    -0.2585829     0.0982282    
C     -5.6784893     1.9785226     1.9226103    
C     -5.5039268     3.0563790     2.9892949    
C     -4.2642086     3.8209852     2.5245582    
N     -4.2336824     1.7923457    -0.8021556    
C     -4.5017995     1.3262054    -2.1490256    
C     -3.2168320     1.1293501    -2.9621367    
O     -3.0874305     1.5951696    -4.0909180    
C     -5.4534443     2.3095235    -2.8421487    
C     -6.6792674     2.5407639    -2.0216985    
C     -7.0367082     3.6954868    -1.3840002    
C     -7.6875879     1.5783505    -1.7067557    
N     -8.2037566     3.5173939    -0.6942968    
C     -8.6287129     2.2343778    -0.8732293    
C     -7.8928595     0.2414115    -2.0479935    
C     -9.7480961     1.5776727    -0.3760537    
C     -9.0032995    -0.4022852    -1.5515009    
C     -9.9191419     0.2559053    -0.7244397    
N     -2.2639733     0.4429049    -2.3368120    
C     -0.9827029     0.1457539    -2.9314171    
C     -0.5952819    -1.2847617    -2.5719534    
O     -1.1483994    -1.8974901    -1.6680175    
C      0.1335235     1.0486988    -2.3551180    
C     -0.2393601     2.5257975    -2.2904215    
C     -0.4211940     3.1792119    -3.6621406    
N     -0.9178034     4.5269639    -3.4997250    
C     -2.0277164     5.0611894    -3.9927240    
N     -2.8687016     4.3922147    -4.7758055    
N     -2.2806944     6.3356508    -3.6913939    
N      0.4161288    -1.7882258    -3.2974745    
C      1.1576369    -2.9401572    -2.8355364    
C      2.3498560    -2.4354253    -2.0109385    
O      2.8423490    -1.3336672    -2.2119101    
C      1.6446931    -3.7915103    -4.0178796    
C      0.4639713    -4.3198294    -4.7843624    
C     -0.2216851    -5.4373310    -4.3251513    
C      0.0081285    -3.6737351    -5.9252238    
C     -1.3387207    -5.9020592    -4.9959333    
C     -1.1087991    -4.1373645    -6.5983062    
C     -1.7859645    -5.2516854    -6.1339550    
N      2.7771385    -3.2832242    -1.0733387    
C      3.9092693    -3.0346522    -0.2139904    
C      4.6517709    -4.3523792    -0.0144014    
O      4.0719945    -5.4263900    -0.1304449    
C      3.4505643    -2.5270382     1.1746353    
C      3.0680117    -1.0761462     1.1228701    
C      4.0591244    -0.1031437     1.1176298    
C      1.7405103    -0.6715435     1.0604816    
C      3.7394516     1.2393495     1.0645548    
C      1.4043926     0.6694071     1.0209730    
C      2.4078354     1.6320492     1.0220900    
O      2.0545162     2.9514328     1.0109110    
N      5.9609505    -4.2309942     0.2471707    
C      6.7092320    -5.3305051     0.8291978    
C      6.4051936    -5.3402281     2.3387405    
O      5.8046352    -4.3807237     2.8381933    
C      8.1994475    -5.1325640     0.5688962    
N      6.7642329    -6.4025810     3.0477811    
C      6.7128451    -6.3416220     4.4984938    
C      7.5537763    -5.1200703     5.0190278    
O      7.2412909    -4.6801984     6.1398163    
C      7.3127056    -7.6700980     4.9667373    
C      7.1751461    -8.5794364     3.7465502    
C      7.4262130    -7.6110515     2.5946555    
O      8.4757764    -4.7237163     4.2840684    
H     -0.6515259     3.6081145     6.0920193    
H      0.9211216     3.7038287     6.7069011    
H      1.5553449     3.9426291     4.5481107    
H      2.0971369     1.7832315     3.7213486    
H      0.4108099     1.2879758     3.7342170    
H      2.3449141     1.3542417     6.0848590    
H      1.2828270     0.0389117     5.5970222    
H     -0.7078921     1.3248253     6.2063127    
H      0.3952290     1.6328148     7.5653069    
H      0.5038533     3.4681198     2.0927471    
H     -2.0691785     4.8882161     2.2722756    
H     -1.7412748     4.9931477    -0.2675181    
H     -0.1832235     4.2050122    -0.0199846    
H      0.5504590     6.1056434     1.4230634    
H     -1.0278387     6.8703257     1.2255870    
H      1.3416406     8.4949840    -1.0872762    
H      1.3035158     8.2240016     0.6221821    
H     -3.8604097     0.8440325     2.3292911    
H     -6.2605959     1.1260760     2.2624790    
H     -6.1553195     2.3848208     1.0303242    
H     -5.3187035     2.5900656     3.9562052    
H     -6.3747294     3.6993433     3.0767049    
H     -4.5396714     4.6542706     1.8736316    
H     -3.6926175     4.1900317     3.3774131    
H     -4.3760618     2.7772900    -0.6318785    
H     -4.9649560     0.3345261    -2.0553611    
H     -5.7161349     1.8962575    -3.8167583    
H     -4.9289271     3.2522789    -2.9984628    
H     -6.5478922     4.6500024    -1.3859581    
H     -8.7002787     4.2293068    -0.1861791    
H     -7.2014562    -0.2817560    -2.6926271    
H     -10.4609664     2.0836644     0.2570538    
H     -9.1787607    -1.4387036    -1.8033970    
H     -10.7775929    -0.2878502    -0.3577639    
H     -2.4592962    -0.0287107    -1.4599835    
H     -1.0744153     0.2650498    -4.0147630    
H      1.0420362     0.9067376    -2.9403337    
H      0.3449480     0.7044903    -1.3408323    
H      0.5609103     3.0377564    -1.7561744    
H     -1.1573642     2.6239015    -1.7097608    
H     -1.1157295     2.5962798    -4.2623714    
H      0.5406673     3.2110888    -4.1825842    
H     -0.3858166     5.1251374    -2.8733014    
H     -3.6974095     4.8494222    -5.1149935    
H     -2.8496961     3.3828782    -4.8317966    
H     -1.6079914     6.8454015    -3.1380419    
H     -3.0510811     6.8248388    -4.1106058    
H      0.9218706    -1.1773581    -3.9235467    
H      0.4836534    -3.5202385    -2.1982581    
H      2.2449747    -4.6151399    -3.6284850    
H      2.2753419    -3.1750690    -4.6600299    
H      0.1242799    -5.9499066    -3.4388758    
H      0.5356911    -2.8078431    -6.2953534    
H     -1.8613989    -6.7728588    -4.6289781    
H     -1.4518800    -3.6295616    -7.4869110    
H     -2.6578114    -5.6154714    -6.6565179    
H      2.3735253    -4.2057047    -0.9703317    
H      4.5479952    -2.2867816    -0.6939078    
H      4.2630324    -2.6859394     1.8898428    
H      2.6064448    -3.1403066     1.4961783    
H      5.0953105    -0.4039759     1.1692603    
H      0.9551747    -1.4136627     1.0429156    
H      4.5311455     1.9741028     1.0596320    
H      0.3688423     0.9735226     0.9826372    
H      2.8520427     3.4954926     0.9157620    
H      6.3066390    -3.3162769     0.5029504    
H      6.3306507    -6.2482016     0.3690846    
H      8.7381095    -6.0642797     0.6956018    
H      8.6041153    -4.4090340     1.2748483    
H      8.3481462    -4.7766760    -0.4464828    
H      5.6804993    -6.1952682     4.8355360    
H      6.8050132    -8.0463317     5.8510189    
H      8.3662665    -7.5151468     5.2109726    
H      6.1604266    -8.9731202     3.6888836    
H      7.8842618    -9.4028517     3.7577566    
H      8.5003000    -7.4284571     2.4850690    
H      7.0051809    -7.9481912     1.6480843    
