18

C     -1.7283671     0.0854250     0.6845989    
C     -1.4828820     0.0823842     2.0290573    
C     -0.1644838     0.0235417     2.5090454    
C      0.8858797    -0.0312690     1.6363572    
C      0.6665502    -0.0297356     0.2426562    
C      1.7284620    -0.0854342    -0.6846004    
C      1.4829766    -0.0823509    -2.0290588    
C      0.1645799    -0.0234652    -2.5090454    
C     -0.8857837     0.0313114    -1.6363558    
C     -0.6664533     0.0297372    -0.2426550    
H     -2.7409380     0.1308808     0.3101427    
H     -2.3005672     0.1255135     2.7330563    
H      0.0109162     0.0219871     3.5745615    
H      1.9021758    -0.0768061     2.0005600    
H      2.7410327    -0.1309256    -0.3101470    
H      2.3006639    -0.1254693    -2.7330563    
H     -0.0108238    -0.0218467    -3.5745604    
H     -1.9020800     0.0768651    -2.0005563    
