63

C      0.8392225    -1.7492099     0.5200731    
C     -0.5324097    -1.4081527     0.4441906    
C     -0.7996481    -0.0523305     0.0647008    
C      5.6435330     2.6047166    -0.0221357    
C      4.5366161     1.1313878    -1.5512312    
N      0.1828945     0.8002146    -0.1680783    
C      5.9226188     1.6547643    -1.1849889    
N      1.8250957    -0.8641869     0.2756687    
C      1.9863587     2.6410555    -0.6328813    
C      1.4566076     0.3701340    -0.0456888    
C      1.8218848    -5.7427659     1.5485289    
C     -3.3939652    -4.4068881     1.3475432    
C     -4.6211745     5.2478596    -1.5868648    
C      1.1968740    -3.0703600     0.8664794    
C     -1.5058666    -2.3835960     0.7288749    
C      4.5821074     1.8687915     0.7991988    
C      3.8074607     0.9757141    -0.2003922    
C     -3.2071325     2.4813174     0.5765644    
C     -3.1168191     1.7814198    -1.8151531    
C     -3.5135153     3.9014723     0.1177307    
C     -3.4267477     3.2186112    -2.2151291    
C      0.2387049    -4.0095771     1.1360214    
C     -1.1430820    -3.6591548     1.0714689    
C     -2.3621132     1.7607384    -0.4802352    
N      2.4021737     1.3012318    -0.2789523    
N     -2.0578265     0.4115457    -0.0722793    
N     -4.2381027     3.8889872    -1.1734080    
O      0.4788386    -5.3067805     1.4784732    
O     -2.0066623    -4.6803342     1.3696231    
H      5.2521789     3.5499167    -0.4030573    
H      6.5382005     2.8198210     0.5615256    
H      4.5763656     0.1902328    -2.0960379    
H      4.0170265     1.8614292    -2.1711976    
H      6.5545027     0.8321301    -0.8461079    
H      6.4171501     2.1468075    -2.0206946    
H      1.3424030     3.0465327     0.1479443    
H      1.4311868     2.6277794    -1.5722452    
H      2.8652602     3.2682345    -0.7380766    
H      1.7669757    -6.7922349     1.8283761    
H      2.3785274    -5.1861182     2.3067299    
H      2.3185971    -5.6429419     0.5799400    
H     -3.8719186    -5.3448112     1.6208250    
H     -3.7203934    -4.1076212     0.3476202    
H     -3.6550383    -3.6363656     2.0778166    
H     -5.2287734     5.7177219    -0.8181339    
H     -5.1892455     5.2130989    -2.5128006    
H     -3.7280235     5.8468767    -1.7447628    
H      2.2484117    -3.2981302     0.9099970    
H     -2.5512636    -2.1273581     0.6815682    
H      3.9140729     2.5520316     1.3198944    
H      5.0615237     1.2398652     1.5490003    
H      3.8390637    -0.0663857     0.1243471    
H     -4.1312393     1.9266433     0.7473996    
H     -2.6626882     2.5171250     1.5186141    
H     -2.5074300     1.3162741    -2.5884378    
H     -4.0376920     1.2024075    -1.7244214    
H     -2.5849283     4.4569152    -0.0180710    
H     -4.1231825     4.4127781     0.8629859    
H     -3.9737082     3.2357680    -3.1581625    
H     -2.4988531     3.7790309    -2.3372099    
H     -1.3916920     2.2522298    -0.5888141    
H     -2.8237439    -0.2201023     0.0898753    
H     -5.0941544     3.3364970    -1.0428992    
