32

C     -1.8233877     0.0415860     0.2493896    
C     -0.4528177     0.2455207     0.1005075    
C      0.3169289     0.4859593     1.2445155    
C     -0.2836543     0.4712833     2.4995822    
C      2.2950187     0.6964385    -0.0619549    
C      1.3393902     1.1913832    -1.1516321    
C     -0.0103788    -0.5205239    -2.2243735    
C     -2.4028837     0.0190992     1.5011939    
C     -2.2808605     0.2090659     3.9984218    
C     -1.1468691    -2.5228838    -3.0597048    
C      3.5626141     1.5330116     0.0238517    
C     -1.6382143     0.2285134     2.6460549    
N      0.1695021     0.3363878    -1.1599192    
N     -0.8177232    -1.5786969    -2.0173311    
O      0.5513798    -0.3076848    -3.3001828    
O      1.6547716     0.7562408     1.2089536    
H     -2.4362614    -0.0703542    -0.6313359    
H      0.3452582     0.6574612     3.3561077    
H      2.5478552    -0.3551158    -0.2725114    
H      1.8058323     1.1395298    -2.1352369    
H      1.0374048     2.2210917    -0.9373370    
H     -3.4646368    -0.1475817     1.5928884    
H     -1.5412551     0.3490776     4.7809074    
H     -2.7905359    -0.7385882     4.1603159    
H     -3.0224841     1.0025922     4.0717255    
H     -2.2290449    -2.6051164    -3.1601483    
H     -0.7267446    -3.5048683    -2.8377145    
H     -0.7225536    -2.1523822    -3.9909091    
H      4.1806928     1.1737594     0.8412003    
H      3.3054185     2.5718182     0.2108768    
H      4.1148076     1.4593236    -0.9072333    
H     -1.1529497    -1.7725204    -1.0866482    
