29

C     -1.1962598     0.5989528     0.3844389    
C     -2.1940703     1.5716292     0.1605599    
C      0.1562696     0.6454301    -0.1528989    
C      2.7404194    -2.0012042     0.1549816    
C     -3.4432770     3.4684578    -0.5570463    
C     -4.5506630     2.9889622     0.1705823    
C      3.0376749     0.1050252    -0.9346429    
C      4.0272516    -2.3751446    -0.1779467    
C      4.3265623    -0.2634023    -1.2694390    
C      4.8258042    -1.5006936    -0.8978227    
N     -3.3004792     1.1348505     0.8512446    
N     -3.0776859    -0.0180162     1.4810904    
C     -1.8260077    -0.3464652     1.2091912    
N      0.9078728    -0.4560799     0.1448480    
C      2.2134826    -0.7600540    -0.2163138    
C     -2.2685625     2.7667002    -0.5638567    
C     -4.4623152     1.8214328     0.8673195    
O      0.5692420     1.5952817    -0.8146400    
Cl     1.7568790    -3.1166403     1.0707539    
H     -3.5281570     4.3928709    -1.1058502    
H     -5.4726951     3.5441670     0.1774012    
H      2.6463276     1.0653164    -1.2256021    
H      4.3969853    -3.3433754     0.1212466    
H      4.9423023     0.4247417    -1.8275360    
H      5.8291849    -1.7904343    -1.1626267    
H     -1.4346231    -1.2528762     1.6301352    
H      0.4550502    -1.1836674     0.6845465    
H     -1.3908584     3.0904513    -1.1010553    
H     -5.2654400     1.3912016     1.4423000    
