98

N     -4.6021229    -3.2466972     0.9671893    
C     -3.4230390    -3.8960393     1.6009798    
C     -2.0932587    -3.3948418     1.0157607    
O     -1.1665507    -3.1121428     1.7603542    
C     -3.6430902    -5.3901549     1.3461293    
C     -4.3263341    -5.4411424    -0.0194500    
C     -5.1555120    -4.1534716    -0.0824494    
N     -2.0110739    -3.4572720    -0.3292004    
C     -0.8819909    -2.9078248    -1.0567950    
C     -1.3646698    -2.2176366    -2.3277213    
O     -0.8186010    -2.4016864    -3.4129863    
C      0.1258136    -4.0184631    -1.4100262    
C      0.5347504    -4.7616467    -0.1745910    
C      1.4426184    -4.1897608     0.7090850    
C     -0.0249532    -5.9884116     0.1478429    
C      1.7847674    -4.8248050     1.8850181    
C      0.3137601    -6.6384678     1.3214491    
C      1.2183910    -6.0574823     2.2001971    
O      1.5814965    -6.6639795     3.3627956    
N     -2.5407019    -1.5750106    -2.1968871    
C     -3.2324841    -0.9729200    -3.3283132    
C     -2.5646080     0.3051593    -3.8733132    
O     -3.1157554     1.3973179    -3.8446296    
C     -4.6719489    -0.6962325    -2.9163871    
N     -1.4373675     0.0450041    -4.5748660    
C     -0.5825919     1.0964143    -5.0646517    
C      0.7746811     1.2129112    -4.3875184    
O      1.7269166     1.7029355    -4.9857629    
N      0.8502152     0.6757486    -3.1547109    
C      1.9341717     1.0398078    -2.2652557    
C      1.7840550     2.4944554    -1.8003806    
O      0.8246556     2.6580420    -0.8012129    
C      1.9280208     0.0645256    -1.0899426    
O      1.5842078    -1.1066157    -1.2426039    
P     -0.8063878     2.5134579    -1.2785170    
O     -1.1058311     1.0094208    -1.2962867    
O     -0.8548082     3.1519388    -2.6529653    
O     -1.5253621     3.2767334    -0.1932348    
N      2.3527314     0.5441279     0.0734362    
C      2.3160632    -0.1724229     1.3149876    
C      3.3517209     0.4662634     2.2824362    
C      3.7725728    -0.5245239     3.3616784    
O      4.4956097     0.8826431     1.5848838    
P      4.5405927     2.4047849     0.8076221    
O      3.1888430     3.0710531     1.0680851    
O      4.8150393     2.0710204    -0.6505276    
O      5.7002554     3.1085500     1.4845261    
C      0.9544833    -0.1068367     2.0198138    
O      0.7474180    -0.8032504     3.0115670    
N      0.0480253     0.7039995     1.4753051    
C     -1.1189673     1.1654301     2.1977653    
C     -0.6799272     1.7941722     3.5636895    
O     -1.5698483     1.9501810     4.4191996    
C     -2.1928295     0.0935834     2.3564587    
C     -3.1465444     0.1113739     1.1496386    
O     -3.2473022    -0.9605291     0.4869738    
O     -3.8444231     1.1107433     0.9349101    
O      0.5135623     2.1279425     3.6857444    
H     -4.2920872    -2.3130123     0.6206397    
H     -5.3058954    -3.0562867     1.6829170    
H     -3.3658461    -3.6442479     2.6612293    
H     -4.2908659    -5.7915250     2.1234357    
H     -2.6957775    -5.9212632     1.3605966    
H     -4.9583331    -6.3201052    -0.1085438    
H     -3.5783106    -5.4681350    -0.8066736    
H     -5.0998345    -3.6716672    -1.0564170    
H     -6.2009703    -4.3485684     0.1497174    
H     -2.8744672    -3.4326584    -0.8539263    
H     -0.3825288    -2.1393066    -0.4451694    
H      0.9807250    -3.5175134    -1.8664047    
H     -0.3384603    -4.6813583    -2.1418063    
H      1.8643398    -3.2187811     0.4738431    
H     -0.7325104    -6.4375965    -0.5317359    
H      2.4706531    -4.3562190     2.5754972    
H     -0.1322622    -7.5932222     1.5560201    
H      1.1040712    -7.5076658     3.4530593    
H     -2.7220259    -1.1399641    -1.2900859    
H     -3.1767755    -1.7124339    -4.1382231    
H     -5.1750968    -0.1574016    -3.7123704    
H     -4.6617840    -0.0551878    -2.0339947    
H     -5.1868059    -1.6250837    -2.6969520    
H     -0.9870489    -0.8533449    -4.3849758    
H     -1.0821811     2.0537982    -4.8647519    
H     -0.4185896     0.9784172    -6.1399471    
H     -0.0333665     0.6292573    -2.6325074    
H      2.8844072     0.9564025    -2.8071018    
H      1.4942936     3.1083025    -2.6667755    
H      2.7300484     2.8696532    -1.3934886    
H      2.6138343     1.5212150     0.1734213    
H      2.5725721    -1.2216107     1.1177896    
H      2.8532454     1.3498492     2.7217283    
H      4.4034592    -0.0108452     4.0797990    
H      4.3286822    -1.3278519     2.8861796    
H      2.8725245    -0.9021429     3.8380376    
H      0.3256392     1.2946196     0.7034184    
H     -1.5298946     2.0030527     1.6127038    
H     -2.7489207     0.3561617     3.2621985    
H     -1.7075065    -0.8788751     2.4644198    
