28

N      0.5785388    -0.0374982     0.7029154    
C      0.0493875    -1.8305405    -3.4688596    
C      1.5077257    -1.6164680    -3.1086470    
C      1.5613716    -1.0425528    -1.6996262    
C      0.1186341     0.2858224     1.9726426    
C     -1.1642053     0.7897012     2.1885258    
C     -0.7782811     0.7739326     4.5576291    
C      0.8290053     0.2968168    -1.6692284    
C      0.4089507     0.7155908    -0.2918555    
C     -0.4265499     0.3577560    -2.5408675    
O     -0.7315073    -0.6271775    -3.3579227    
O     -1.1553621     1.3315245    -2.5153898    
C     -1.6073637     1.0245809     3.4767157    
C      0.4964785     0.2704796     4.3469351    
C      0.9418086     0.0134957     3.0652868    
H     -0.4084516    -2.5732373    -2.8072696    
H     -0.0835252    -2.1424937    -4.5069871    
H      1.9693005    -0.9267894    -3.8176179    
H      2.0288293    -2.5703433    -3.1590187    
H      2.5886245    -0.8948517    -1.3708951    
H      1.0814689    -1.7233011    -0.9969086    
H     -1.8118462     0.9703195     1.3414704    
H     -1.1272775     0.9640636     5.5609164    
H      1.4687525     1.0943727    -2.0701444    
H     -0.0607235     1.7049943    -0.2357393    
H     -2.6039005     1.4084429     3.6355049    
H      1.1429610     0.0701790     5.1878382    
H      1.9305852    -0.3787390     2.8877934    
