11

C      0.7576909     1.2160404    -0.1749763    
C     -0.0579041    -0.0725775    -0.0871537    
C     -0.6672203    -0.8091048    -1.0606866    
C     -1.2829651    -1.9074348    -0.4077277    
C     -1.0035686    -1.7585651     0.9117878    
O      1.9833043     1.0838248    -0.3562855    
O      0.1206282     2.2820087    -0.0725096    
O     -0.2597742    -0.6462078     1.1169814    
H     -0.6690693    -0.5853371    -2.1078474    
H     -1.8500271    -2.6893654    -0.8675072    
H     -1.2511389    -2.3323872     1.7809476    
