39

S     -0.9673882    -2.8814196     4.2723475    
C      2.4264450     2.6914145    -1.8016671    
F      0.5151361    -0.7531820    -2.8921113    
N      2.9570316     3.4975096    -2.7044337    
O     -1.1784824    -2.3904725     5.6198478    
C      1.9674259     1.5164896    -0.0980597    
F     -2.2262689     3.0778335    -3.0275290    
N      2.8968351     2.3819123    -0.6199928    
O     -2.1657563    -3.2733581     3.5493833    
C      1.4105256     0.1118368     1.8411621    
N      2.1764525     1.0166850     1.1389758    
O      0.6300126     2.7617968    -4.0623010    
C      0.2803149    -0.4968793     1.2876848    
N      0.0675968    -4.1708652     4.3921884    
C     -0.4438968    -1.4082387     2.0312090    
N      0.9434508     1.2741534    -0.8830633    
C     -0.0505902    -1.7044187     3.3224482    
N      1.2115517     2.0192258    -2.0075665    
C      1.0598508    -1.1065252     3.8915586    
C      1.7931832    -0.2023699     3.1520520    
C      0.3911867     2.0631718    -3.0898588    
C     -0.8128465     1.1935939    -2.9553643    
C     -0.7130871    -0.1885556    -2.8396754    
C     -1.8210273    -1.0002312    -2.7023117    
C     -3.0786327    -0.4186653    -2.6777665    
C     -3.2241854     0.9535068    -2.7969696    
C     -2.0931633     1.7335689    -2.9370952    
H      3.8286434     3.9541457    -2.4964763    
H      2.4666901     3.6476088    -3.5740461    
H      3.0083553     1.3767759     1.5890057    
H     -0.0100226    -0.2431543     0.2824855    
H      0.0462653    -4.5959946     5.3038440    
H     -0.0789511    -4.8452572     3.6587526    
H     -1.3202332    -1.8925619     1.6328054    
H      1.3243302    -1.3531890     4.9059144    
H      2.6610525     0.2682932     3.5855395    
H     -1.6889371    -2.0658632    -2.6159842    
H     -3.9513969    -1.0398517    -2.5655916    
H     -4.1921422     1.4258121    -2.7802451    
