52

C      1.6610119     2.4217412    -3.7573039    
O      1.5094069     1.3139233    -2.8723216    
C      1.2716233     1.5923616    -1.5930784    
O      1.1737193     2.7416289    -1.1819663    
C      1.1112774     0.3891673    -0.7801399    
C      1.0612543     0.3891429     0.5743209    
N      0.8974318    -0.7941982     1.2427655    
C      1.0126060    -1.9934585     0.5566698    
N      1.0997865    -2.1006226    -0.7029077    
C      0.9896449    -0.9294774    -1.5397381    
C     -0.3475365    -0.9695082    -2.2572080    
C     -1.5151307    -0.8285387    -1.5154185    
C     -2.7634453    -0.8422825    -2.1091918    
C     -2.8286382    -0.9995866    -3.4798138    
C     -1.6990191    -1.1518725    -4.2590969    
C     -0.4612780    -1.1410551    -3.6341101    
Cl     0.9357368    -1.3497626    -4.6276348    
F     -4.0419887    -1.0091591    -4.0875428    
C      1.0721039    -3.1704909     1.3960847    
N      1.1091497    -3.1293037     2.6931468    
C      1.1621544    -4.3635299     3.2261848    
C      1.1654604    -5.3840195     2.3201713    
S      1.1012408    -4.7727986     0.7195562    
C      1.2098557     1.5996485     1.4595683    
N     -0.0869421     1.9765696     2.0500616    
C     -1.0685542     2.4431856     1.0532197    
C     -1.8335525     3.5787499     1.7346083    
C     -0.8540546     4.1715708     2.7340216    
C     -0.0258842     2.9653523     3.1514638    
C     -0.6792747     2.2018246     4.3952274    
O     -0.8791502     2.8332255     5.4228633    
O     -0.9062965     0.9969337     4.1351632    
F     -2.9699131     3.1113570     2.3416618    
F     -2.2931364     4.4891179     0.8304900    
H      1.7742082     1.9928562    -4.7482503    
H      2.5425948     3.0030709    -3.4828809    
H      0.7807112     3.0641709    -3.7080054    
H      0.9204518    -0.8376446     2.2542324    
H      1.7880259    -0.9982747    -2.2865838    
H     -1.4419899    -0.7192881    -0.4452493    
H     -3.6663924    -0.7355933    -1.5317979    
H     -1.7867797    -1.2794131    -5.3251230    
H      1.1962533    -4.4685483     4.2940577    
H      1.2025949    -6.4375305     2.5049703    
H      1.5955110     2.4406021     0.8799879    
H      1.8956389     1.3576196     2.2743788    
H     -0.4928670     1.1443204     2.6554746    
H     -1.7436070     1.6461010     0.7441230    
H     -0.5483732     2.8504555     0.1810666    
H     -1.3627017     4.6166365     3.5888750    
H     -0.2585096     4.9307721     2.2281890    
H      0.9952568     3.2355719     3.4132109    
