24

C      1.6607400     1.0225626    -1.3915399    
C      0.4994242    -0.2898877    -3.0385070    
C     -1.3506604    -0.7588262     2.6587994    
C      0.6598650     0.1097502    -1.7110947    
C     -1.2946396    -0.9475615     1.2985198    
C      0.4294944     0.6366628     2.5514545    
N      0.5599058     0.5165592     1.2230943    
C      2.3174703     1.1264204    -3.7048986    
C      2.4804259     1.5221300    -2.3872922    
C      1.3223817     0.2164257    -4.0255094    
C     -0.2862035    -0.2684035     0.5673521    
N     -0.5002755     0.0263558     3.3030199    
N      1.3040069     1.4291938     3.1776589    
N     -0.2093126    -0.4362661    -0.7704367    
Cl    -2.4410291    -1.9934817     0.4984271    
H      1.7818273     1.3255854    -0.3668762    
H     -0.2727949    -1.0010706    -3.2917506    
H     -2.1001673    -1.2494918     3.2653257    
H      2.9599553     1.5215982    -4.4764237    
H      3.2542714     2.2288161    -2.1296052    
H      1.1863249    -0.1016954    -5.0486503    
H      2.0016280     1.9107736     2.6402212    
H      1.2230015     1.5506402     4.1707448    
H     -0.9046786    -1.0701024    -1.1482886    
