45

C      5.1288939    -1.2236286    -9.0609535    
O      4.3746482    -1.1536320    -7.8556295    
C      3.0512059    -1.2521060    -7.9904252    
C      2.1236840    -1.2204430    -6.9008282    
C      2.1615598    -1.1028224    -5.5197186    
N      2.4225991    -1.3957180    -9.1343050    
N      1.0934727    -1.4618697    -8.8614505    
C      0.8589115    -1.3646353    -7.5408623    
N     -0.3160732    -1.3989363    -6.9137733    
C     -0.2562119    -1.2915533    -5.6064517    
C      0.9360654    -1.1424729    -4.8617581    
C      0.8484039    -1.0456055    -3.4577950    
C      0.7357697    -0.9670842    -2.2578730    
C      0.5831165    -0.9055158    -0.8572154    
C      0.8045858     0.2696777    -0.1446728    
F      1.1913393     1.3842145    -0.8218793    
C      0.1869810    -2.0218164    -0.1142809    
F     -0.0363923    -3.1878951    -0.7673039    
C      0.0219832    -1.9713254     1.2536504    
C      0.2429365    -0.7824778     1.9276113    
C      0.6395930     0.3605603     1.2370205    
N      0.8479301     1.5682253     1.8789905    
S      0.6638871     1.8556141     3.5003936    
O      1.0394933     3.2376662     3.6716336    
O      1.3996344     0.8860985     4.2751674    
C     -1.0819886     1.6710113     3.8318506    
C     -1.4409810     1.2843487     5.1083097    
C     -2.7905345     1.1948348     5.4091069    
Br    -3.3155106     0.6850027     7.1682198    
C     -3.7592654     1.4752270     4.4567462    
C     -3.3693662     1.8578845     3.1834683    
C     -2.0229816     1.9652745     2.8649066    
H      6.1681080    -1.1304005    -8.7588440    
H      4.8464453    -0.4125728    -9.7329595    
H      4.9547698    -2.1767834    -9.5614523    
H      3.0907998    -0.9927002    -4.9832889    
H      0.4381386    -1.5764727    -9.6172754    
H     -1.2048061    -1.3219672    -5.0900584    
H     -0.2783266    -2.8598301     1.7829040    
H      0.1394950    -0.7339600     2.9974973    
H      1.1459804     2.3555909     1.3238193    
H     -0.6736291     1.0601782     5.8319946    
H     -4.8035151     1.3954693     4.7149571    
H     -4.1178898     2.0772015     2.4398590    
H     -1.7081049     2.2716191     1.8823638    
