43

O     -1.8254385    -2.5935782     0.1901092    
C     -1.1084387    -1.9107643    -0.5065059    
N     -0.5448394    -1.7009084     2.3361601    
C     -1.0893665    -0.6734777     3.2348547    
C     -1.6235459    -1.4478018     4.5215180    
O     -2.4055701    -0.8427714     5.2546415    
O     -1.1565348    -2.5959116     4.6290507    
C      0.0444378     0.2781446     3.6272114    
C      0.9085643    -0.2497478     4.7667972    
C     -0.5004576     1.6599680     3.9516404    
S      1.1082930     0.3753517     2.1147277    
C      0.4448595    -1.1792144     1.3823272    
C     -0.1523987    -0.8683304    -0.0031245    
C      0.5223818     0.1701481    -2.2320896    
C      1.5644686     0.1602379    -3.3581150    
C      1.0068237    -0.6351724    -1.0249116    
O      2.1141137    -0.0343015    -0.4077816    
C      1.1170546     0.9822560    -4.5165639    
C      1.6472690     2.1319277    -5.0085020    
C      0.9430927     2.6399286    -6.1270816    
C     -0.1162488     1.8693293    -6.4708903    
S     -0.2804007     0.5058475    -5.4360438    
H     -1.1499001    -2.0138806    -1.5989651    
H     -1.2980072    -2.1843133     1.7909540    
H     -0.1914072    -2.4216613     3.0073636    
H     -1.9108462    -0.1261681     2.7703349    
H      1.7621321     0.4070366     4.9185410    
H      1.2750083    -1.2538895     4.5636692    
H      0.3283023    -0.2853387     5.6883570    
H     -0.9984489     2.0940465     3.0882579    
H      0.3035845     2.3216282     4.2620873    
H     -1.2208780     1.5719172     4.7640100    
H      1.2772210    -1.8761252     1.2668954    
H     -0.7357444     0.0598625     0.0705253    
H     -0.4112422    -0.2382492    -2.6169186    
H      0.3368715     1.2005629    -1.9224046    
H      1.7223178    -0.8702899    -3.6843401    
H      2.5143680     0.5480428    -2.9888852    
H      1.3716910    -1.6159119    -1.3511126    
H      1.9754831     0.9219632    -0.3413810    
H      2.5183586     2.6064872    -4.5946972    
H      1.2184245     3.5389708    -6.6484214    
H     -0.8230576     2.0109060    -7.2638977    
