54

O      1.4084970     2.3960125    -1.9660067    
C      0.3993549     2.8196895    -2.5217537    
C      0.4300718     3.7206612    -3.7296464    
N     -0.8355349     2.5132402    -2.0827643    
C     -1.0281534     1.6059647    -0.9731846    
C     -0.8427422     0.1426999    -1.3541324    
C     -1.0995906    -0.2141344    -2.6425663    
C     -2.4008863     1.8206957    -0.3279887    
C     -2.6676391     0.7726595     0.7633636    
C     -1.4428019     0.5785687     1.6103834    
C     -1.3670156     1.1047061     2.8886903    
C     -0.2111528     0.9741128     3.6491162    
C      0.9058079     0.3280252     3.0921310    
C      0.8273997    -0.2088986     1.8089008    
O      1.9330149    -0.8336600     1.2517716    
C      2.9044407     0.0744677     0.7486525    
O      2.0769774     0.2917196     3.8277217    
C      2.4941831    -1.0039391     4.2401913    
O     -0.0536314     1.4317449     4.9165138    
C     -1.1400957     2.0976339     5.5357463    
C     -0.3532406    -0.1036276     1.0662430    
C     -0.4320915    -0.7015498    -0.2845310    
C     -0.0842533    -2.0251056    -0.3871924    
C     -0.0479420    -2.8798923    -1.4975832    
C     -0.4392767    -2.6697576    -2.7934324    
C     -1.0127482    -1.4451219    -3.3747261    
O     -1.3974937    -1.4723292    -4.5579686    
O     -0.3576911    -3.6189671    -3.7444914    
C      0.1651720    -4.9025473    -3.4502442    
H     -0.2654913     4.5462506    -3.6127381    
H      0.1498483     3.1425139    -4.6076582    
H      1.4371833     4.1007994    -3.8696202    
H     -1.6432448     2.8250380    -2.5994180    
H     -0.2398889     1.8527034    -0.2506813    
H     -3.1736311     1.7427382    -1.0937549    
H     -2.4297074     2.8222366     0.1016437    
H     -2.9314799    -0.1754122     0.2916925    
H     -3.5057761     1.0981984     1.3773941    
H     -2.2257668     1.6165956     3.2907553    
H      3.7125796    -0.5425454     0.3648996    
H      3.2765433     0.7288721     1.5410443    
H      2.4877635     0.6832531    -0.0613069    
H      3.4362447    -0.8517653     4.7610636    
H      2.6411664    -1.6648310     3.3831203    
H      1.7590086    -1.4415706     4.9214317    
H     -0.7846177     2.3497321     6.5320309    
H     -2.0111205     1.4422949     5.6087931    
H     -1.4017248     3.0101167     4.9964263    
H      0.1131328    -5.4453113    -4.3909646    
H     -0.4406347    -5.4105822    -2.6971321    
H      1.2033072    -4.8386286    -3.1181512    
H      0.3285300    -3.8672927    -1.2712060    
H      0.2272621    -2.4896666     0.5390687    
H     -1.4399659     0.5759182    -3.3020231    
