20

C      0.9998650     0.1733120    -0.6203887    
N      2.3414025    -0.2284008    -0.7480967    
O      2.9537724     0.1022024    -1.7633885    
C      0.5675230     1.1854371    -1.4675439    
N     -2.1521007    -0.3417453     1.2402281    
O      2.8810387    -0.8814470     0.1420719    
C     -0.7174874     1.6900639    -1.4031358    
O     -2.8598287     1.6422003    -0.3576682    
C     -1.6265517     1.1876247    -0.4830271    
C     -1.2242105     0.1221367     0.3881458    
C     -1.8433076    -1.3248301     2.0404925    
C     -0.5855827    -1.9445408     2.0408062    
C      0.3824479    -1.4829640     1.1857385    
C      0.0982114    -0.4006358     0.3270002    
H      1.2751671     1.5913427    -2.1746178    
H     -1.0057384     2.4884533    -2.0684649    
H     -3.0589721     2.3631459    -0.9819870    
H     -2.6265324    -1.6528216     2.7091618    
H     -0.3876177    -2.7724613     2.7014408    
H      1.3583014    -1.9409820     1.1706193    
