238

N     -6.2862453     7.0904990    -11.4777707    
C     -6.6169103     8.2499901    -10.6176408    
C     -5.4905739     8.3140818    -9.5702200    
O     -4.7758213     7.3289349    -9.4202111    
C     -7.9301826     7.9978124    -9.8669737    
C     -9.1867452     8.2268462    -10.6970143    
C     -10.4698089     7.8032538    -9.9179294    
O     -10.3153146     7.0493022    -8.9304779    
O     -11.5546408     8.2326445    -10.3494543    
N     -5.3814562     9.4365071    -8.8738321    
C     -4.4531861     9.5281946    -7.7592235    
C     -4.7569253     8.3699264    -6.7984437    
O     -5.9102703     8.0656267    -6.5065913    
C     -4.5940777     10.8814094    -7.0465091    
C     -3.7996772     10.8899506    -5.7407436    
C     -4.1159866     12.0112751    -7.9569997    
N     -3.6902412     7.7122292    -6.3566726    
C     -3.7354619     6.6389715    -5.3902031    
C     -2.4964639     6.7604623    -4.4982042    
O     -1.5487329     7.4730719    -4.8048746    
C     -3.6636090     5.2675096    -6.0962454    
C     -4.9197573     4.9364339    -6.9014388    
C     -6.1216242     4.6347113    -5.9969382    
N     -7.2712935     4.2152264    -6.7707797    
C     -8.1991415     5.0249558    -7.2751927    
N     -8.1917170     6.3320388    -7.0664958    
N     -9.1571855     4.5116496    -8.0519607    
N     -2.5241561     5.9685708    -3.4217771    
C     -1.3508101     5.6241912    -2.6492582    
C     -0.9684963     4.1916187    -3.0318491    
O     -1.6202423     3.5638302    -3.8658376    
C     -1.6220131     5.7320717    -1.1466112    
C     -2.0364214     7.1431021    -0.7352859    
C     -1.9375876     7.3189296     0.7716917    
O     -1.3164596     6.5439786     1.4891306    
N     -2.5757161     8.3914350     1.2557395    
N      0.1013256     3.6672020    -2.4397796    
C      0.3144149     2.2319295    -2.5380134    
C     -0.9680244     1.5478092    -2.0290151    
O     -1.5265302     1.9090923    -1.0040059    
C      1.5131522     1.7699508    -1.7151823    
C      2.8340761     2.1094700    -2.4080431    
C      4.0418229     1.5323496    -1.6703648    
C      4.0802375     0.0080529    -1.7544006    
N      5.3812489    -0.4968238    -1.2515037    
N     -1.3961730     0.5417254    -2.8033101    
C     -2.5991616    -0.2152116    -2.5391282    
C     -2.3034255    -1.5874943    -1.9204883    
O     -3.1982797    -2.2984745    -1.4797959    
C     -3.4023412    -0.3719372    -3.8355236    
C     -3.8507934     0.9884031    -4.3902318    
C     -3.9024895     1.0005247    -5.9211211    
C     -2.5194057     1.0098168    -6.5649333    
N     -1.8778620     2.3385896    -6.4279442    
N     -1.0131033    -1.9512988    -1.9588655    
C     -0.4728499    -3.0778961    -1.2299440    
C      0.5826517    -2.5214005    -0.2722814    
O      1.2477828    -1.5389805    -0.5850860    
C      0.2059154    -4.0701113    -2.1889331    
C     -0.7661295    -4.5535095    -3.2624661    
C     -0.0961844    -5.5723917    -4.1926982    
N     -0.9288111    -5.8849904    -5.3369355    
C     -1.0525325    -5.1281761    -6.4246315    
N     -0.3481125    -4.0098392    -6.5740529    
N     -1.9364665    -5.4704733    -7.3586653    
N      0.7323068    -3.1735263     0.8768474    
C      1.7140369    -2.7949626     1.8702667    
C      2.3506770    -4.0753277     2.4159504    
O      1.7245046    -5.1282511     2.4571748    
C      1.0428282    -2.0029394     3.0096213    
C      2.0554949    -1.3454971     3.9482742    
C      1.3770997    -0.4561616     4.9850024    
N      0.8086276     0.7223479     4.3516111    
C      0.0818789     1.6421887     4.9733954    
N     -0.1613928     1.5486111     6.2767763    
N     -0.3973305     2.6749026     4.2845437    
N      3.6324964    -3.9473552     2.7845431    
C      4.3164874    -4.9791298     3.5350263    
C      3.8335024    -4.9687827     4.9902939    
O      3.2213000    -4.0173896     5.4566599    
C      5.8335225    -4.7386482     3.5182495    
C      6.2197674    -3.3822025     4.1334111    
C      7.4490579    -3.5053914     5.0348152    
C      7.8104933    -2.1555522     5.6458683    
N      8.7831706    -2.3297429     6.7481674    
N      4.1608173    -6.0597233     5.6951965    
C      4.1681766    -6.0518456     7.1413886    
C      5.6239159    -5.9100894     7.6007243    
O      6.5622174    -6.1500020     6.8528949    
C      3.5382018    -7.3161694     7.7425758    
C      4.1528889    -8.6049384     7.1929161    
C      3.6961517    -9.8292642     7.9904021    
N      2.2562910    -9.9782794     7.9554411    
C      1.3919669    -9.7511877     8.9400653    
N      1.7736558    -9.3471556     10.1465371    
N      0.0878063    -9.8428483     8.6707527    
N      5.7756260    -5.4434013     8.8489711    
C      7.0625230    -5.3875618     9.5039111    
C      7.1563578    -6.4586822     10.6028570    
O      7.6576156    -6.2257394     11.6959194    
C      7.3142425    -4.0044436     10.1097196    
O      7.3399798    -3.0322609     9.0891831    
N      6.5530543    -7.6115364     10.2748638    
C      6.6528751    -8.7969809     11.0893644    
C      6.9285914    -10.0066226     10.1218592    
O      6.9531503    -11.1369314     10.6401909    
C      5.3774318    -9.0768813     11.9278096    
O      4.4570286    -9.9046601     11.2303916    
C      4.6465193    -7.7957839     12.3117402    
O      7.0422943    -9.7193927     8.9174318    
H     -5.8830089     7.3637655    -12.3793724    
H     -5.5642244     6.5637337    -10.9248092    
H     -7.1049304     6.4970425    -11.6461182    
H     -6.6794601     9.1745645    -11.1919077    
H     -7.9875375     8.6474875    -8.9931766    
H     -7.9437706     6.9700839    -9.5041438    
H     -9.2017228     7.6446646    -11.6204253    
H     -9.3234292     9.2745036    -10.9692135    
H     -6.0518683     10.1803140    -8.9951952    
H     -3.4343347     9.4209841    -8.1479697    
H     -5.6535192     11.0303405    -6.8079597    
H     -4.2027414     10.1715960    -5.0312910    
H     -2.7518208     10.6628915    -5.9221683    
H     -3.8565440     11.8758359    -5.2865616    
H     -3.0507661     11.9152844    -8.1535334    
H     -4.6415494     12.0195019    -8.9080705    
H     -4.2841218     12.9727490    -7.4779765    
H     -2.7554897     8.0524560    -6.5512496    
H     -4.6499513     6.7401347    -4.8003299    
H     -3.4952749     4.5071617    -5.3338252    
H     -2.8077451     5.3224032    -6.7696999    
H     -4.7313675     4.0646940    -7.5273663    
H     -5.1555884     5.7675216    -7.5646852    
H     -6.3940439     5.5144877    -5.4150892    
H     -5.8802532     3.8270148    -5.3040814    
H     -7.3352419     3.2389224    -7.0157851    
H     -9.8690884     5.1465856    -8.3911694    
H     -9.3600123     3.5273496    -8.0639062    
H     -3.3513067     5.4203230    -3.2327552    
H     -0.5547519     6.3145236    -2.9501129    
H     -0.7270595     5.4807260    -0.5775592    
H     -2.4004471     5.0229915    -0.8581271    
H     -3.0504231     7.3745541    -1.0581494    
H     -1.3645205     7.8764954    -1.1892535    
H     -2.5169667     8.5992791     2.2394251    
H     -3.0519090     9.0430410     0.6565633    
H      0.5657310     4.1719640    -1.7009585    
H      0.4697877     1.9914464    -3.5936636    
H      1.4298741     0.6937144    -1.5647305    
H      1.4689081     2.2423209    -0.7342277    
H      2.9427922     3.1926490    -2.4730463    
H      2.8236206     1.7226148    -3.4272097    
H      4.0149966     1.8591605    -0.6310465    
H      4.9418400     1.9448341    -2.1295589    
H      3.9647575    -0.3003477    -2.7925705    
H      3.2761095    -0.4348096    -1.1662249    
H      5.4059897    -1.5221312    -1.2613926    
H      6.1477245    -0.1492236    -1.8393672    
H      5.5471061    -0.1636084    -0.2955318    
H     -0.9143604     0.3369637    -3.6678245    
H     -3.1889086     0.3347455    -1.7964283    
H     -4.2629218    -1.0077222    -3.6271209    
H     -2.7796071    -0.8989742    -4.5580744    
H     -3.1792067     1.7681917    -4.0304902    
H     -4.8404721     1.2176746    -3.9952933    
H     -4.4572876     1.8763895    -6.2535709    
H     -4.4501137     0.1226360    -6.2619335    
H     -2.6127200     0.7734647    -7.6242747    
H     -1.8818054     0.2638420    -6.0972609    
H     -0.9374065     2.3358515    -6.8320818    
H     -2.4319516     3.0472452    -6.9173121    
H     -1.8120000     2.6406192    -5.4378263    
H     -0.3146252    -1.2483404    -2.1788728    
H     -1.2917998    -3.5605857    -0.6899309    
H      0.5750325    -4.9170240    -1.6097147    
H      1.0586855    -3.5756048    -2.6552360    
H     -1.1181829    -3.7027037    -3.8447389    
H     -1.6383288    -5.0059024    -2.7880516    
H      0.0893692    -6.5013996    -3.6534079    
H      0.8709844    -5.1974056    -4.5347782    
H     -1.5576628    -6.6663900    -5.2376462    
H     -2.0022250    -4.9589235    -8.2222637    
H     -2.4820182    -6.3105819    -7.2789715    
H      0.2014036    -4.0068601     1.0899892    
H      2.4554161    -2.1676359     1.3694623    
H      0.4033419    -2.6819902     3.5769558    
H      0.4026607    -1.2509894     2.5456421    
H      2.7659942    -0.7468326     3.3790489    
H      2.5923174    -2.1213631     4.4936529    
H      2.1165248    -0.1517928     5.7317726    
H      0.5900822    -1.0270694     5.4865731    
H      0.9888445     0.8418507     3.3665131    
H     -0.7193135     2.2405717     6.7449034    
H      0.1903071     0.7808342     6.8203119    
H      4.0228889    -3.0198406     2.8734570    
H      4.0673610    -5.9468628     3.0889870    
H      6.1920339    -4.8194870     2.4933085    
H      6.3068648    -5.5381218     4.0891496    
H      5.3951038    -3.0089860     4.7420159    
H      6.4338993    -2.6579053     3.3495287    
H      8.2867129    -3.8960916     4.4554508    
H      7.2354124    -4.2236230     5.8278086    
H      6.9158814    -1.6846330     6.0517363    
H      8.2457000    -1.5067268     4.8860299    
H      9.1625959    -1.4288028     7.0529465    
H      8.3247125    -2.7786138     7.5660204    
H      9.5609573    -2.9259656     6.4491696    
H      4.7659454    -6.7509764     5.2747149    
H      3.6000881    -5.1695297     7.4541630    
H      2.4697736    -7.3042563     7.5294418    
H      3.6741191    -7.2916575     8.8240937    
H      5.2431008    -8.5791272     7.2549887    
H      3.8731874    -8.7383755     6.1476191    
H      4.0491557    -9.7500000     9.0169049    
H      4.1581607    -10.7245801     7.5666504    
H      1.8783467    -10.2505012     7.0592628    
H      1.0863072    -9.2927919     10.8796524    
H      2.7348705    -9.4283825     10.4531528    
H      4.9641157    -5.3033736     9.4326188    
H      7.8172840    -5.6121317     8.7398631    
H      8.2660276    -4.0390982     10.6527796    
H      6.5221128    -3.7976968     10.8354644    
H      7.1967262    -2.1655284     9.4965696    
H      6.4860792    -7.8719151     9.2886462    
H      7.5051170    -8.7058202     11.7733191    
H      5.7070758    -9.6055984     12.8329471    
H      4.8689510    -10.7728267     11.1132170    
H      5.3497536    -7.1046195     12.7664603    
H      4.2096412    -7.3474000     11.4251158    
H      3.8618893    -8.0285334     13.0246396    
H     -8.9502986     6.8626563    -7.4770052    
H     -7.4082673     6.8415457    -6.6809124    
H     -0.3385607    -3.5552324    -7.4724647    
H      0.4067651    -3.8062449    -5.9401254    
H     -0.2504930     2.7631046     3.2947667    
H     -0.9441039     3.3871488     4.7353508    
H     -0.2353079    -10.1763377     7.7791920    
H     -0.5875293    -9.7607137     9.4114137    
