55

C     -1.3202493    -1.0042587     0.1085508    
C     -3.4261326     0.1061836     0.5228844    
C     -2.9922967    -2.1488638     1.4975546    
C     -1.2151872     2.9300811     0.3796887    
C     -0.9557529     1.7498310     2.5781530    
C      4.6827527     1.0799461    -1.9395591    
C      5.0907960     0.1044503    -1.0505765    
C      4.1271064    -0.4962297    -0.2625139    
C      2.7801357    -0.1596985    -0.3158062    
C      2.3986051     0.8207873    -1.2253819    
C      3.3410913     1.4312422    -2.0291039    
C      1.7490650    -0.8178427     0.5592363    
C      0.9882046    -1.9284860    -0.1814398    
C     -0.3919019    -2.1669333     0.4334212    
N     -2.5092038    -0.9996566     0.7438645    
O     -0.9758216    -0.1123915    -0.6622673    
C     -4.7775406    -0.4195479     0.0497008    
N     -5.2075608    -1.4806527     0.7364579    
C     -4.4673781    -1.9871595     1.8712210    
O     -5.3975346     0.0801310    -0.8823796    
N      1.7780794    -3.1873808    -0.1204548    
F      2.9576584     2.3825008    -2.9099684    
F      5.5989656     1.6873090    -2.7247105    
F      4.5114540    -1.4793577     0.5872055    
C     -3.6043115     0.9954038     1.7950423    
O     -3.2029893     2.3303981     1.6492221    
C     -1.8154058     2.7271015     1.7770244    
C     -1.8775048     4.0745694     2.5075581    
H     -3.0211007     0.7340779    -0.2762146    
H     -2.4121357    -2.2763876     2.4155337    
H     -2.8900967    -3.0446397     0.8790070    
H     -1.0877227     1.9820406    -0.1357182    
H     -1.8778748     3.5557892    -0.2132891    
H     -0.2494702     3.4215399     0.4582269    
H     -1.3603427     1.6058533     3.5774441    
H     -0.8835176     0.7944864     2.0673332    
H      0.0396271     2.1735189     2.6710493    
H      6.1291610    -0.1724768    -0.9780092    
H      1.3619357     1.1088846    -1.3100124    
H      1.0369303    -0.0481240     0.8513670    
H      2.2197698    -1.2137332     1.4581683    
H      0.8576498    -1.6313051    -1.2257063    
H     -0.8368156    -3.0732029     0.0209525    
H     -0.3199602    -2.2710603     1.5155423    
H     -6.1112588    -1.8666451     0.5062250    
H     -4.5811573    -1.3099452     2.7222003    
H     -4.8739412    -2.9581848     2.1493303    
H      1.3473513    -3.9239684    -0.6919159    
H      2.7325310    -3.0326495    -0.4652370    
H      1.8454653    -3.5213659     0.8504491    
H     -3.0988078     0.5224285     2.6420887    
H     -4.6723101     1.0788416     2.0213339    
H     -2.5095487     4.7606222     1.9502738    
H     -2.3076489     3.9449610     3.4976039    
H     -0.8847110     4.5042801     2.6029890    
