63

O      5.2230191    -2.8293513     3.7481320    
C      5.5282078    -1.7024504     3.2999970    
O      6.6677478    -1.3487021     2.9322032    
C      4.3884296    -0.6508659     3.2088148    
C      4.3593108     0.0047724     1.8328586    
C      3.4361050     1.2233650     1.7358671    
C      3.5718126     1.8806098     0.3581632    
C      2.5979849     3.0552233     0.2082160    
C      1.9698978     0.8541142     1.9753504    
C      1.0816861     2.0809464     1.7511636    
N      1.2322280     2.6098802     0.4104197    
C      0.5151095     2.0735950    -0.6348454    
C      0.6215324     2.6105705    -1.9263702    
C     -0.1643609     2.0975269    -2.9294648    
F     -0.0302221     2.6359254    -4.1846583    
C     -1.0853463     1.0863488    -2.7529909    
C     -0.4146181     1.0400311    -0.4542668    
C     -1.2196215     0.5579944    -1.4742113    
C     -2.1463380    -0.6144218    -1.1741991    
C     -3.3649505    -0.7029639    -2.1398684    
C     -4.2458647    -1.9106832    -1.8164213    
C     -4.2221960     0.5595440    -2.1233835    
C     -1.3059507    -1.8848466    -1.3684973    
C     -0.5742908    -1.9787057    -2.5494805    
N      0.0363112    -2.0672860    -3.5256806    
C     -1.2749727    -2.9404878    -0.5043661    
N     -0.6605086    -4.1241043    -0.7396330    
C     -2.5838304    -0.6157444     0.2632140    
C     -3.1398144     0.3369302     1.1520195    
C     -3.4344311     1.7780132     0.9273307    
N     -3.3536413    -0.2121109     2.3388573    
N     -2.9454209    -1.4894998     2.2633368    
C     -2.4720449    -1.7525986     1.0328499    
O     -1.9203438    -2.9467234     0.6999748    
H      4.5898518     0.1006495     3.9778648    
H      3.4543143    -1.1622060     3.4439652    
H      4.0623400    -0.7447214     1.0926907    
H      5.3864259     0.3006016     1.5983574    
H      3.7441268     1.9455912     2.5013849    
H      3.3562690     1.1382645    -0.4153226    
H      4.5961089     2.2269438     0.2150563    
H      2.7153504     3.5084438    -0.7726895    
H      2.8173416     3.8127282     0.9653870    
H      1.8379926     0.4819793     2.9912201    
H      1.6880531     0.0591855     1.2806194    
H      1.3891134     2.8710548     2.4421508    
H      0.0338728     1.8581977     1.9482113    
H      1.2922787     3.4179841    -2.1638283    
H     -1.6455037     0.7331113    -3.6002648    
H     -0.5095157     0.5761958     0.5129196    
H     -2.9596573    -0.8517743    -3.1469437    
H     -5.0543716    -1.9730530    -2.5398291    
H     -4.6808788    -1.8130699    -0.8236038    
H     -3.6784999    -2.8376458    -1.8614786    
H     -3.6160109     1.4508290    -2.2584934    
H     -4.7544462     0.6360609    -1.1807523    
H     -4.9530358     0.5144787    -2.9272603    
H     -0.5131072    -4.7264073     0.0541179    
H     -0.0119929    -4.1785493    -1.5059000    
H     -3.1834582     2.3360774     1.8252779    
H     -4.4933418     1.9293870     0.7273618    
H     -2.8561465     2.1547817     0.0890667    
H     -3.0053112    -2.0980041     3.0643967    
