70

P     -0.7794937    -1.6431952     0.1405867    
O     -1.1081777    -3.0900662     0.1822525    
O     -1.8107583    -0.6052979     0.3868571    
O     -0.0515177    -1.2580273    -1.2589200    
C      1.1222477    -1.9749598    -1.5990749    
C      1.4501014    -1.7432331    -3.0763367    
O      0.6477632    -2.5320192    -3.9406208    
C      1.1846994    -0.2787374    -3.4895314    
O      2.1212589     0.1919741    -4.4084146    
C     -0.2502038    -0.3400551    -4.0942034    
O     -0.2941124     0.2096937    -5.3806859    
C     -0.5448101    -1.8477260    -4.2175974    
N     -1.6074592    -2.3232607    -3.3506476    
C     -1.7963715    -3.6574168    -3.1027326    
N     -2.7762303    -3.9224654    -2.2976838    
C     -3.2761787    -2.6921767    -1.9491123    
C     -4.3375040    -2.2941823    -1.1183845    
N     -5.1345019    -3.1612497    -0.4723388    
N     -4.6270598    -0.9850429    -1.0534347    
C     -3.8827350    -0.1372345    -1.7350053    
N     -2.8477089    -0.3761906    -2.5245374    
C     -2.5498659    -1.6790983    -2.5976877    
O      0.4676375    -1.4646858     1.2022617    
P      0.9098981     0.0803188     1.5012260    
O      1.1808176     0.7917065     0.2229117    
O      0.0011646     0.6595591     2.5245756    
O      2.3271154    -0.2647747     2.2475376    
C      3.5326848     0.3229872     1.7840636    
C      3.9588352     1.5308092     2.6315106    
O      3.2663814     2.7278406     2.2693424    
C      3.7062373     1.3347049     4.1320556    
O      4.7015344     1.9631868     4.8845680    
C      2.3332166     2.0132532     4.3292554    
O      2.1874183     2.5861378     5.5926177    
C      2.3620415     3.1223902     3.2520503    
N      1.0185784     3.3336345     2.6918618    
C      0.8072445     3.2240473     1.3848849    
C     -0.4814798     3.1826385     0.8796582    
C     -0.6516279     2.8847383    -0.5808496    
O      0.0396191     3.4180328    -1.4335700    
N     -1.6897551     2.0679226    -0.8426200    
C     -1.5535154     3.3536163     1.7450298    
C     -1.2938955     3.5908245     3.0900606    
C      0.0028738     3.5400526     3.5431612    
H      0.9576881    -3.0400312    -1.3945693    
H      1.9430819    -1.6144762    -0.9680617    
H      2.4857402    -2.0373099    -3.2641249    
H      1.2221286     0.3695149    -2.6098258    
H      1.8071100    -0.0211573    -5.3075749    
H     -0.9734410     0.1191921    -3.4178811    
H     -0.3160096     1.1776378    -5.3271977    
H     -0.8198173    -2.0919386    -5.2542953    
H     -1.1673957    -4.3952596    -3.5597837    
H     -5.7432367    -2.7745522     0.2309946    
H     -4.7857983    -4.0986620    -0.3621609    
H     -4.1712654     0.9015867    -1.6542543    
H      3.3995918     0.6467404     0.7472480    
H      4.2969421    -0.4553405     1.8420440    
H      5.0192989     1.7246172     2.4417384    
H      3.6594879     0.2652211     4.3709317    
H      4.2753801     2.4623528     5.6080900    
H      1.5375536     1.3040813     4.0769035    
H      1.8832710     1.9253312     6.2325269    
H      2.6878666     4.0756536     3.6975510    
H      1.6637777     3.1179853     0.7382071    
H     -1.7636216     1.7193092    -1.7902289    
H     -1.9332197     1.3603449    -0.1572216    
H     -2.5625902     3.3062853     1.3688791    
H     -2.0986841     3.7670978     3.7846959    
H      0.2603597     3.6499141     4.5867609    
