123

N      9.2540167     1.8311936    -2.9657806    
C      7.8179664     1.6050820    -3.2616866    
C      7.2426605     0.9751028    -1.9771526    
O      8.0318357     0.5841612    -1.1209768    
C      7.6632377     0.6718257    -4.4844494    
C      6.2610469     0.6963929    -5.1089823    
C      8.0401024    -0.7669501    -4.1280535    
C      5.7964061     2.0834444    -5.5478943    
N      5.9222298     0.9701915    -1.8624526    
C      5.2197313     0.2378127    -0.8324100    
C      4.3893149    -0.8551113    -1.5048804    
O      4.0395883    -0.7143589    -2.6804993    
C      4.2323869     1.1560104    -0.0987460    
C      4.9333137     2.1846533     0.7806479    
C      5.5850947     1.5612807     2.0006504    
O      5.5258422     0.3666328     2.2719196    
N      6.2684584     2.4303317     2.7605585    
N      4.0780539    -1.9309602    -0.7810291    
C      2.9532669    -2.7563883    -1.1842172    
C      1.7024111    -1.8925812    -1.3082722    
O      1.6587410    -0.7394508    -0.8837174    
C      2.7548358    -3.7537084    -0.0326175    
C      4.0873600    -3.7156601     0.7118792    
C      4.5107027    -2.2569248     0.5667587    
N      0.6698346    -2.5090156    -1.8777877    
C     -0.6546911    -1.9414155    -1.7718761    
C     -1.7166510    -3.0360319    -2.0075554    
C     -3.1144808    -2.4278831    -2.1067846    
O     -1.4384772    -3.7412546    -3.1905120    
P     -0.8571028    -5.3319158    -2.9746565    
O     -1.7926860    -5.9778790    -1.9680060    
O     -0.9087639    -5.8957599    -4.3738637    
O      0.5692287    -5.1610283    -2.4344698    
C     -0.8256792    -1.3916658    -0.3550725    
O     -0.5046313    -2.0500897     0.6283579    
N     -1.3276277    -0.1549449    -0.2697008    
C     -1.7046758     0.4358489     0.9955348    
C     -3.2257581     0.3534193     1.1514167    
O     -3.9678389     0.2246883     0.1832604    
C     -1.2654510     1.9055975     1.0512602    
C      0.2537020     2.0149430     1.1374851    
C      0.8303436     3.4180341     1.0985259    
O      2.0442794     3.6027036     1.1077503    
N     -0.0242788     4.4439533     1.0793822    
N     -3.6715914     0.4397079     2.4096840    
C     -5.0807084     0.6687584     2.6594754    
C     -5.4642104     1.9989152     1.9840357    
O     -4.6463112     2.9100509     1.8931126    
C     -5.3618264     0.7400480     4.1633106    
C     -4.9930683    -0.5528613     4.8376978    
C     -5.7929009    -1.6770787     4.6729370    
C     -3.8418473    -0.6557785     5.6066098    
C     -5.4449880    -2.8804633     5.2593652    
C     -3.4937438    -1.8580039     6.1983999    
C     -4.2928950    -2.9739953     6.0228245    
N     -6.7084393     2.0458946     1.5267050    
C     -7.3512484     3.2059100     0.9657607    
C     -8.8365241     3.2108505     1.4744706    
O     -9.4983272     4.2379304     1.2549010    
C     -7.3341547     3.2061972    -0.5739994    
C     -5.9196764     3.4085967    -1.1096146    
C     -7.9282601     1.9105810    -1.1225652    
O     -9.2256606     2.1747361     2.0505671    
H      9.4821440     2.8202064    -2.8293334    
H      9.8668399     1.4337125    -3.6844081    
H      9.4003873     1.3183628    -2.0588171    
H      7.3123649     2.5493260    -3.4625765    
H      8.3504058     1.0411031    -5.2535278    
H      5.5241873     0.2439808    -4.4405756    
H      6.2928097     0.0524060    -5.9908418    
H      9.0040937    -0.8353968    -3.6326133    
H      8.0739280    -1.3774447    -5.0266066    
H      7.2891335    -1.2036082    -3.4699928    
H      4.8857207     1.9878579    -6.1342663    
H      6.5490506     2.5635483    -6.1681538    
H      5.5635054     2.7261747    -4.7029831    
H      5.3360499     1.2075405    -2.6529424    
H      5.9484617    -0.1697026    -0.1300713    
H      3.5681181     0.5421680     0.5093584    
H      3.6025994     1.6569058    -0.8356086    
H      4.1807960     2.8999845     1.1189534    
H      5.6920372     2.7168470     0.2072638    
H      6.6741538     2.1059956     3.6233338    
H      6.2180163     3.4178996     2.5794082    
H      3.1384818    -3.2523629    -2.1418866    
H      2.4722734    -4.7333469    -0.4146425    
H      1.9381142    -3.4025974     0.6043175    
H      4.8037426    -4.3675723     0.2131231    
H      3.9841171    -4.0164453     1.7500194    
H      4.0048647    -1.6255779     1.3032865    
H      5.5864244    -2.1208488     0.6685859    
H      0.7177690    -3.5098774    -2.1202423    
H     -0.7759615    -1.1525613    -2.5257289    
H     -1.6667340    -3.7455898    -1.1645859    
H     -3.8328222    -3.2376488    -2.2023533    
H     -3.1683234    -1.8091241    -2.9987138    
H     -3.3477747    -1.8372041    -1.2244930    
H     -1.7176793     0.2746127    -1.0958355    
H     -1.2174742    -0.1616453     1.7719093    
H     -1.7457588     2.3720798     1.9129557    
H     -1.6400096     2.3863616     0.1456646    
H      0.7129496     1.4401072     0.3274239    
H      0.6064332     1.5534232     2.0630850    
H      0.3515530     5.3787116     1.0518229    
H     -1.0201530     4.3146594     1.0729570    
H     -3.0239073     0.6311937     3.1590547    
H     -5.6469308    -0.1432668     2.1916258    
H     -6.4259748     0.9480608     4.2934601    
H     -4.7943543     1.5727176     4.5827628    
H     -6.6934985    -1.6061321     4.0795745    
H     -3.2182576     0.2140011     5.7535926    
H     -6.0741822    -3.7463466     5.1182387    
H     -2.5952673    -1.9240340     6.7921847    
H     -4.0212015    -3.9144796     6.4763805    
H     -7.3828008     1.3203180     1.7564590    
H     -6.8536214     4.1103483     1.3338764    
H     -7.9688944     4.0480464    -0.8751196    
H     -5.9359402     3.4689089    -2.1944424    
H     -5.2893764     2.5689751    -0.8189705    
H     -5.4849628     4.3187823    -0.7056102    
H     -8.8980059     1.7165694    -0.6673674    
H     -7.2661619     1.0744521    -0.9048479    
H     -8.0549484     1.9798847    -2.1997187    
