61

C      2.9949839    -3.0039797     1.4700172    
C      1.5684380    -2.5559482     1.7905134    
C     -0.6718846    -2.5087945     0.7174649    
C     -1.3288178    -1.7095970     1.6480059    
O     -5.9385936     0.2977673     1.3365081    
C     -5.1030067    -0.1464300     0.5642698    
N     -4.3000292     0.6106423    -0.2194578    
C     -4.1979562     2.0030554    -0.3192988    
C     -3.2542348     2.5140576    -1.2094448    
C     -3.1042215     3.8784919    -1.3605283    
C     -3.8890782     4.7514035    -0.6248263    
C     -4.8237574     4.2461217     0.2621588    
C     -4.9848719     2.8805200     0.4190239    
C     -4.8877307    -1.6537995     0.3463555    
C     -5.6169890    -2.4319935     1.4482388    
C     -5.5195877    -1.9954745    -1.0104176    
C     -3.4060536    -1.9621361     0.4285152    
C     -2.6756132    -1.4462833     1.4964490    
C     -2.7411762    -2.7603101    -0.4942923    
C     -1.3927081    -3.0281423    -0.3545232    
N      0.6934117    -2.8140733     0.7947131    
O      1.2963901    -1.9879142     2.8358088    
C      3.6913817    -1.8294567     0.8413647    
C      4.0822662    -0.7574123     1.6422259    
C      4.6841613     0.3526847     1.0799846    
C      3.9093985    -1.7743592    -0.5315429    
C      4.5138799    -0.6653833    -1.0997217    
C      4.8935689     0.3847852    -0.2871058    
S      5.6529067     1.8406098    -0.9958222    
O      6.0108752     1.5590059    -2.3788396    
O      6.7681037     2.2416921    -0.1459295    
C      4.4064175     3.1605328    -0.9687994    
C      3.1782609     2.6973140    -1.7191464    
H      2.9998095    -3.8647723     0.8055644    
H      3.4780044    -3.2610776     2.4120882    
H     -0.7869674    -1.3023850     2.4849485    
H     -3.6366326     0.1055404    -0.7945608    
H     -2.6400931     1.8360685    -1.7825956    
H     -2.3742291     4.2618843    -2.0555758    
H     -3.7723254     5.8176541    -0.7414652    
H     -5.4387525     4.9180798     0.8408082    
H     -5.7151560     2.4918991     1.1093373    
H     -6.6782681    -2.1971442     1.4275925    
H     -5.2320328    -2.1601084     2.4279583    
H     -5.4810789    -3.5001725     1.3016248    
H     -4.9714981    -1.5463889    -1.8341543    
H     -6.5406466    -1.6199453    -1.0335293    
H     -5.5544945    -3.0726967    -1.1475642    
H     -3.1722699    -0.8197495     2.2239112    
H     -3.2696026    -3.1858945    -1.3308920    
H     -0.8969529    -3.6502770    -1.0839743    
H      1.0466975    -3.3215120    -0.0068526    
H      3.9006953    -0.7967887     2.7049685    
H      5.0121717     1.1845174     1.6826611    
H      3.6221994    -2.6020387    -1.1620007    
H      4.7077546    -0.5982762    -2.1581952    
H      4.8908010     4.0115632    -1.4390115    
H      4.2170596     3.3690007     0.0786718    
H      2.4639312     3.5116945    -1.8085684    
H      2.7043795     1.8682622    -1.2001697    
H      3.4689347     2.3686705    -2.7136300    
