58

C      1.2531395    -9.3616491     5.4437644    
O     -1.6552259     5.9567110    -1.7546765    
O     -3.7621134     6.0870784    -1.0971315    
O     -5.3436310     4.2131857    -1.6645757    
C     -3.3873605     1.2548806    -2.3242273    
C     -4.4665031     2.0899363    -2.1470792    
C     -2.0941695     1.7296269    -2.1917479    
C      1.2550351    -8.7719894     4.0383242    
C      1.4856137    -7.2624896     4.0568581    
C      1.4721689    -6.6574715     2.6550132    
C      1.7839199    -5.1625732     2.6728458    
C      1.7131356    -4.5486353     1.2761623    
C      2.1054593    -3.0689242     1.2475819    
C      3.6151785    -2.8604011     1.3451025    
C      4.0357259    -1.3939447     1.4598148    
C      3.6879707    -0.5408730     0.2315531    
C      2.4225776     0.2959213     0.4182233    
C      2.0861427     1.1014353    -0.8345130    
C      0.8351032     1.9549730    -0.6419714    
C      0.5329840     2.7903995    -1.8884586    
O     -0.6219987     3.6051487    -1.7449575    
C     -2.7544217     5.4289290    -1.5098550    
C     -4.2541774     3.4345308    -1.8440749    
C     -1.8618565     3.0711153    -1.8988982    
C     -2.9520780     3.9482263    -1.7389150    
H      2.2065651    -9.1784097     5.9343694    
H      0.4667870    -8.9090076     6.0438306    
H      1.0836667    -10.4347001     5.4082917    
H     -4.9837236     5.1123353    -1.3926545    
H     -3.5474935     0.2139930    -2.5588331    
H     -5.4826331     1.7406083    -2.2292390    
H     -1.2734076     1.0455622    -2.3236811    
H      0.2992466    -8.9835096     3.5536313    
H      2.0393594    -9.2477093     3.4452519    
H      2.4472025    -7.0503896     4.5312338    
H      0.7085032    -6.7869822     4.6607386    
H      0.4913099    -6.8180892     2.2009008    
H      2.2108556    -7.1688935     2.0333118    
H      2.7796443    -5.0132795     3.0938541    
H      1.0707574    -4.6504291     3.3241482    
H      0.6908912    -4.6524083     0.9038245    
H      2.3665963    -5.1054210     0.6005581    
H      1.6108551    -2.5495890     2.0717152    
H      1.7461545    -2.6321698     0.3143908    
H      4.0916462    -3.3005235     0.4659924    
H      3.9939951    -3.3890700     2.2221240    
H      5.1165756    -1.3723947     1.6139269    
H      3.5723955    -0.9551484     2.3457495    
H      3.5688387    -1.1867419    -0.6402940    
H      4.5125731     0.1415542     0.0163748    
H      2.5664268     0.9836227     1.2547019    
H      1.5785378    -0.3490632     0.6647753    
H      1.9282019     0.4200743    -1.6731310    
H      2.9260003     1.7509322    -1.0893719    
H      0.9668306     2.6388089     0.1994056    
H     -0.0217153     1.3180224    -0.4123409    
H      0.4476401     2.1582931    -2.7801246    
H      1.3361341     3.5142138    -2.0530259    
