35

C      3.3975261    -3.1425842     0.0150956    
C     -5.6003141     3.7393001    -0.3398036    
C      3.9664177    -0.5011206     0.2693258    
C      4.7173809     0.5575565    -0.1732255    
C     -3.3462137     2.1115162    -0.0768916    
C      3.7951941     1.5794508    -0.4548360    
C      2.5449532     1.0722959    -0.1607174    
C      1.2682473     1.6982932    -0.2849607    
C     -2.1883130     1.1824986     0.0684750    
C     -4.5474946     1.5667889    -0.5237376    
C     -5.6441155     2.3929966    -0.6529031    
N      3.3856243    -4.3917836     0.4560309    
N      2.7024975    -2.6525027    -0.9983879    
C      1.8893923    -3.4966660    -1.6155462    
N      0.1793856     1.0937285    -0.0045417    
C      2.5792218    -5.2298208    -0.1766209    
C     -4.4062859     4.2654738     0.1264153    
C     -3.2850228     3.4633818     0.2561513    
C      1.7818010    -4.8283560    -1.2405255    
F     -6.8134669     1.8626450    -1.1048586    
N     -0.9746580     1.7694950    -0.1347458    
O      2.6620087    -0.1973638     0.2948247    
O     -2.3277170    -0.0013639     0.3315976    
S      4.4831649    -2.0620141     0.8775938    
H     -6.4827808     4.3473073    -0.4532179    
H      5.7808657     0.5764650    -0.2789789    
H      4.0123680     2.5577175    -0.8289466    
H      1.2906773     2.7359334    -0.6352946    
H     -4.6095970     0.5172167    -0.7640229    
H      1.3202020    -3.0741093    -2.4312538    
H      2.5809361    -6.2444723     0.1954417    
H     -4.3531842     5.3093538     0.3912597    
H     -2.3775138     3.8902150     0.6532383    
H      1.1215597    -5.5111261    -1.7463240    
H     -0.9406827     2.7422360    -0.4519403    
