61

C     -5.6328455    -0.1087084    -2.0640032    
C      2.6428956     0.8959774     0.9392205    
C      5.9035282     1.5804555    -1.5749661    
C      5.9458235     1.4713475    -0.0658706    
C      3.0852816     2.0373239     0.2962392    
C     -0.7812344     0.5435915    -0.5640157    
C     -1.5969601     0.0626120     0.4518798    
C     -3.6923704    -0.9303848     1.3491442    
C     -2.8618153    -0.4642436     0.2114887    
N     -1.5446279    -3.3142243     1.2442948    
C     -6.3584935    -0.7805094    -3.2447720    
C     -3.3136842    -0.5447545    -1.1156500    
C     -2.5080452    -0.0197724    -2.1227766    
C      0.5568757     1.0690245    -0.2606629    
O      4.9272764     2.6069835     2.0909067    
S      4.7327800     2.6294025     0.6442388    
O      4.9232485     3.9345160     0.0282485    
O      4.6256631     1.1633776    -2.0027759    
C      2.2899614     2.7093225    -0.6093320    
C      1.0261003     2.2234261    -0.8872696    
C      1.3778910     0.4153312     0.6603339    
C     -1.2655346     0.5195171    -1.8679832    
C     -4.6318240    -1.1536584    -1.5143695    
C     -4.5359246    -2.2126037    -2.6246740    
C     -5.9593769    -2.2570061    -3.1718561    
C     -3.1541308    -1.9365451     2.3537881    
C     -3.4398431    -0.5328479     2.7791824    
C     -1.7604490    -2.4352461     2.2194972    
C     -0.7421694    -2.0146710     3.0743448    
C      0.5412449    -2.4942853     2.8739277    
C      0.7680435    -3.3822483     1.8322561    
C     -0.3169428    -3.7663961     1.0592946    
H     -6.3339904     0.1861901    -1.2835665    
H     -5.1083345     0.7890950    -2.3891170    
H      3.2885661     0.4083732     1.6510461    
H      6.6870394     0.9484238    -2.0090840    
H      6.0813695     2.6275604    -1.8525011    
H      6.9054569     1.7609922     0.3483038    
H      5.6492949     0.4856620     0.2766096    
H     -1.2287942     0.1293658     1.4629116    
H     -4.7386687    -1.0528405     1.1060701    
H     -6.0158946    -0.3524475    -4.1916019    
H     -7.4415233    -0.6459950    -3.1893874    
H     -2.8637182    -0.0365045    -3.1418724    
H      4.6159988     1.0949147    -2.9677964    
H      2.6772849     3.6003657    -1.0771069    
H      0.3910856     2.7475068    -1.5842413    
H      1.0290059    -0.4881052     1.1361458    
H     -0.6567815     0.8899793    -2.6778627    
H     -5.0883470    -1.6534290    -0.6601615    
H     -4.1984350    -3.1723059    -2.2347650    
H     -3.8471904    -1.9018763    -3.4103752    
H     -6.0200301    -2.7512416    -4.1408433    
H     -6.6088767    -2.7881149    -2.4731756    
H     -3.8495316    -2.7112079     2.6540343    
H     -4.3047701    -0.3546251     3.3999378    
H     -2.6142984     0.1236462     3.0012253    
H     -0.9542760    -1.3298999     3.8812566    
H      1.3507514    -2.1774045     3.5156061    
H      1.7523929    -3.7714794     1.6294350    
H     -0.2036188    -4.4734431     0.2477885    
