18

O     -0.1336701     1.7183713     3.0695893    
C      0.0027563     1.1188215     2.0224625    
N      1.0444783     1.2511870     1.1676752    
C      0.9162618     0.4399012     0.0469573    
C      1.7653831     0.3213158    -1.0364085    
C      1.4138204    -0.5691844    -2.0419791    
C      0.2459219    -1.2983190    -1.9288006    
F     -0.0764029    -2.1685765    -2.9279174    
C     -0.6179407    -1.1938582    -0.8475176    
C     -0.2629508    -0.3073402     0.1444975    
C     -0.9522010     0.0573169     1.4362917    
O     -2.2342419     0.6161841     1.3002832    
H      1.8015285     1.9039439     1.3129354    
H      2.6719638     0.8970861    -1.1091030    
H      2.0375669    -0.7013424    -2.9103428    
H     -1.5141746    -1.7899071    -0.8087830    
H     -0.9657522    -0.7951473     2.1318175    
H     -2.8756353    -0.0768265     1.0894737    
