48

O      0.2215648    -2.2870072    -1.4361660    
P     -0.3565252    -2.9544331    -0.1667365    
O     -1.3979124    -2.0525353     0.5164314    
O     -0.8544089    -4.3575526    -0.4041692    
C      1.0690727    -3.1214253     1.0559257    
O      1.8889351    -1.9941242     1.2487762    
C      2.7872352    -1.6990812     0.1847979    
C      2.6365463    -0.2544073    -0.2951997    
N      1.3074791    -0.0165378    -0.8892168    
C      1.3465478     0.7983415    -2.1199447    
C      1.7744602     0.0212283    -3.3362382    
P      1.5981152     1.2272348    -4.7809093    
O      0.1460073     1.6975789    -4.7281437    
O      2.5885606     2.3439652    -4.4562477    
O      1.9425485     0.4669138    -6.0568794    
C      0.2975953     0.4168423     0.0876955    
C      0.4070480     1.8572257     0.5682482    
N     -0.7077951     2.2026141     1.4317981    
C     -1.7349856     1.4837318     1.9472182    
N     -2.0801313     0.1666378     1.8359983    
C     -3.1809884    -0.2741431     2.4670262    
N     -3.5101054    -1.5408869     2.3428386    
N     -3.9063688     0.5722492     3.2273077    
C     -3.6606311     1.9458925     3.4287973    
O     -4.4155630     2.5800863     4.1365786    
C     -2.4886796     2.3768491     2.7226748    
N     -1.9216141     3.6183634     2.6661866    
C     -0.8845105     3.4815340     1.9030810    
H      1.6521112    -3.9980614     0.7464798    
H      0.6165659    -3.3413471     2.0246034    
H      2.6215601    -2.3832830    -0.6523532    
H      3.8059594    -1.8419247     0.5651321    
H      3.3934322    -0.0670985    -1.0561115    
H      2.7856808     0.4273344     0.5422518    
H      0.8972884    -1.0013482    -1.1924095    
H      2.0140950     1.6564511    -2.0130644    
H      0.3462448     1.1701064    -2.3521003    
H      1.1272500    -0.8417229    -3.5117439    
H      2.8133919    -0.3115144    -3.3009294    
H      0.3902395    -0.2739012     0.9294115    
H     -0.6662896     0.2711935    -0.4057369    
H      0.4034065     2.5371264    -0.2890564    
H      1.3313913     2.0133424     1.1317625    
H     -1.6110853    -0.5525714     1.2470803    
H     -4.3332337    -1.9329114     2.7720667    
H     -2.9406932    -2.1135845     1.7193439    
H     -4.7340298     0.2189324     3.7014577    
H     -0.2148327     4.2759821     1.6449242    
