51

C     -4.7368964     2.3988424     2.6080940    
C     -3.5180023     4.0332689     3.7479231    
C     -2.2342150     3.6647986     4.4972386    
C     -1.7116331     3.8562395     1.9956542    
C     -1.3694014     3.3082111     0.6202287    
C      0.1399791     3.1811707     0.4262898    
C      0.4888094     2.6578085    -0.9648639    
C      1.9878674     2.4076672    -1.1316020    
C      2.4305352     1.0760451    -0.5064443    
C      1.9527025    -0.0839585    -1.3063620    
C      2.6479171    -0.8676344    -2.2062553    
C      1.9297114    -2.8198590    -3.6137003    
C      2.1719717    -4.1301456    -2.9016287    
C      3.1694908    -4.2419857    -1.9397083    
C      3.3895618    -5.4407793    -1.2841605    
C      2.6243786    -6.5554446    -1.5851517    
C      1.6408257    -6.4252112    -2.5452611    
C      1.3935150    -5.2381289    -3.2055261    
C     -3.2111797     4.1292520     2.2286914    
F      0.8761297    -7.5124840    -2.8545190    
N     -4.5212466     2.9969727     3.8084280    
N      1.7341478    -1.7410787    -2.6797505    
N      0.5580562    -1.5161933    -2.1100238    
N      0.6763307    -0.5319013    -1.2908698    
N     -4.0858524     3.1286394     1.6686807    
O     -5.4485467     1.4230879     2.4037955    
S     -1.2124482     2.7081241     3.3367017    
H     -3.9242993     4.9675012     4.1504935    
H     -2.4262491     3.0528793     5.3743879    
H     -1.6786697     4.5572495     4.7842784    
H     -1.1579632     4.7831273     2.1733879    
H     -1.7816320     3.9796394    -0.1372748    
H     -1.8194837     2.3213738     0.4960170    
H      0.5273346     2.5003458     1.1872030    
H      0.6113189     4.1551710     0.5770401    
H      0.1569524     3.3842105    -1.7100782    
H     -0.0448750     1.7222307    -1.1452321    
H      2.5474163     3.2202061    -0.6655290    
H      2.2400493     2.3941759    -2.1944972    
H      2.0340619     0.9999967     0.5059807    
H      3.5202285     1.0390537    -0.4607721    
H      3.6663151    -0.8525782    -2.5304998    
H      1.0317774    -2.8948560    -4.2288230    
H      2.7868113    -2.5714344    -4.2450717    
H      3.7748626    -3.3833620    -1.6920807    
H      4.1633528    -5.5127202    -0.5372392    
H      2.7764430    -7.5018265    -1.0931766    
H      0.6044549    -5.1903962    -3.9379812    
H     -3.4604574     5.1127876     1.8158254    
H     -4.7897079     2.5590979     4.6718372    
H     -4.0417431     2.8422297     0.7073008    
