50

C      3.1551166    -4.1141337    -3.8945265    
C      3.0437447    -2.2897061    -1.6918526    
C      2.0370053    -2.6947787    -0.8363001    
C      1.2002476    -1.7463446    -0.2785578    
C      1.3679964    -0.3982743    -0.5922328    
C      2.4055185    -0.0083535    -1.4405003    
C      3.2434266    -0.9565533    -1.9957253    
C      0.4935018     0.6223958    -0.0303159    
C     -1.1987768     1.7868083     0.8065772    
C     -0.8964804     0.5435529     0.2847169    
C     -1.8207047    -0.5638097    -0.0166665    
C     -3.8979701    -1.5832831     0.8967609    
C     -4.8432639    -1.4672978     1.9176415    
C     -5.8975113    -2.3547880     2.0048309    
C     -6.0349920    -3.3807453     1.0826235    
C     -5.0892155    -3.4756778     0.0817714    
C     -4.0248014    -2.6056611    -0.0395883    
C      0.1445830     3.8301829     1.2221238    
C      1.3748992     4.4301650     0.9524237    
C      1.6245510     5.7181887     1.3726657    
C      0.6393555     6.4231492     2.0693868    
C     -0.5925413     5.8227377     2.3379894    
C     -0.8385061     4.5315974     1.9181661    
C      0.8885913     7.7389743     2.5130678    
F     -5.2040659    -4.4805941    -0.8360317    
N      0.9579046     1.8160889     0.2873308    
N     -0.0606065     2.5163549     0.7899970    
N     -2.8518428    -0.6605951     0.8686955    
N      1.0869778     8.8083033     2.8814057    
O      5.3108273    -2.9157476    -2.9131165    
O      4.2448251    -4.6438389    -1.5311635    
O     -1.6635396    -1.3007461    -0.9814132    
S      4.0729475    -3.5330112    -2.4578749    
H      3.7316404    -4.9066289    -4.3536196    
H      3.0424384    -3.2738712    -4.5661021    
H      2.1993468    -4.4796613    -3.5446000    
H      1.9364855    -3.7430434    -0.6059463    
H      0.4223267    -2.0544133     0.4006040    
H      2.5387017     1.0385658    -1.6580241    
H      4.0561811    -0.6880514    -2.6510021    
H     -2.1354826     2.1947258     1.1232485    
H     -4.7502954    -0.6764726     2.6458977    
H     -6.6201937    -2.2531670     2.7979440    
H     -6.8454696    -4.0882857     1.1299291    
H     -3.3156601    -2.7240548    -0.8407781    
H      2.1201005     3.8650700     0.4177415    
H      2.5750055     6.1854158     1.1693046    
H     -1.3461836     6.3724450     2.8798674    
H     -1.7900839     4.0819126     2.1452297    
H     -2.8587432    -0.0006598     1.6359979    
