180

N     -7.4402254     6.7362321     13.0291577    
C     -7.1364339     5.4769090     12.3075425    
C     -5.8248432     5.7534857     11.5418228    
O     -5.3625253     6.8928293     11.5567670    
C     -8.2600589     5.1314806     11.3372849    
N     -5.3039642     4.7241344     10.8990724    
C     -4.1256045     4.7884048     10.0644674    
C     -4.1776729     3.5574419     9.1568388    
O     -4.9731813     2.6502999     9.3760295    
C     -2.8306403     4.7932935     10.8990076    
C     -2.7067726     3.5625419     11.7905855    
N     -3.3328992     3.5747875     8.1275412    
C     -3.0991910     2.4326856     7.2720496    
C     -3.7647263     2.6138349     5.8971513    
C     -5.2848432     2.5032510     5.9843628    
C     -5.9154073     2.5797698     4.5928613    
C     -7.4324523     2.4454986     4.7107682    
N     -8.1804545     2.3939707     3.4254693    
C     -1.5922659     2.3039655     7.0580881    
O     -0.8393749     3.2569334     7.2283168    
C     -7.8152182     1.1971395     2.6511629    
C     -7.9212540     3.5960462     2.6166872    
C     -9.6187455     2.3336254     3.7420252    
N     -1.1829206     1.0844217     6.6923071    
C      0.1131249     0.8578196     6.0952669    
C      0.1001444     1.4477948     4.6763327    
O     -0.9222666     1.8941327     4.1790328    
C      0.3491982    -0.6676248     6.0391958    
O     -0.6798410    -1.3214690     5.3451840    
N      1.2823505     1.4284083     4.0364743    
C      1.2856511     1.5578327     2.5975420    
C      0.4073924     0.4431291     2.0043241    
O      0.0706857    -0.5311163     2.6707790    
C      2.7110207     1.4661649     2.0105421    
O      2.5646584     1.6535471     0.6161279    
C      3.3898026     0.1369289     2.3448581    
N      0.0552960     0.6313043     0.7322066    
C     -0.5816584    -0.3985495    -0.0464572    
C      0.3703054    -1.2486881    -0.8819144    
O     -0.0664101    -2.2072866    -1.5198190    
N      1.6553519    -0.9139691    -0.8780643    
C      2.6417336    -1.6635809    -1.6212988    
C      4.0435996    -1.1431627    -1.3426544    
O      4.2485446    -0.1032317    -0.7280006    
O      7.0127715     1.5243382    -0.9989629    
C      7.1285449     1.5309012     0.2256442    
C      6.3347123     2.4573075     1.1169615    
N      7.9703615     0.7222458     0.8844966    
C      8.8963347    -0.1952885     0.2549627    
C      8.6912941    -1.6306078     0.7423451    
C      7.3787250    -2.2566465     0.2701118    
C      7.3380285    -2.4767243    -1.2492157    
C      6.3971271    -1.5080680    -1.9701250    
N      5.0162380    -1.9193722    -1.8352094    
C      6.7913375    -1.3587712    -3.4509978    
O      7.9627004    -1.3534168    -3.8096170    
N      5.7482420    -1.2219209    -4.2667105    
C      5.7337474    -1.0865439    -5.7049167    
C      4.2557079    -0.8655245    -6.0495989    
O      3.3965468    -1.0350269    -5.1760363    
C      6.2577328    -2.3596140    -6.3774078    
N      3.9362665    -0.4702248    -7.2740535    
C      2.5368661    -0.4540174    -7.6680151    
C      1.9947116    -1.8879642    -7.6524776    
O      2.7238905    -2.8557627    -7.4974869    
C      2.5240565     0.1287175    -9.0909547    
C      3.9262618     0.7153933    -9.2651385    
C      4.7918012    -0.2076502    -8.4119668    
N      0.6533052    -1.9691508    -7.7444084    
C      0.0358922    -3.2202930    -8.1383262    
C      0.1870726    -3.3471490    -9.6680118    
O      0.9512904    -2.5951708    -10.2700680    
C     -1.4220816    -3.2666591    -7.6737248    
C     -1.5897553    -2.8841524    -6.2019197    
C     -0.8750874    -3.8684829    -5.2629029    
N     -1.1977022    -3.6304220    -3.8731047    
C     -2.3206088    -4.0007544    -3.2626947    
N     -3.2582675    -4.7075956    -3.8880706    
N     -2.4935761    -3.6400000    -1.9974647    
N     -0.4524580    -4.3741580    -10.2522509    
C     -0.7446338    -4.2808786    -11.6672518    
C     -1.6575641    -3.0133817    -11.9136842    
O     -1.9748901    -2.3567849    -10.9051624    
C     -1.4063058    -5.5449624    -12.1855184    
O     -1.9708036    -2.7847126    -13.0937502    
H     -8.3673240     7.1025583     12.7901043    
H     -6.7072116     7.4076184     12.6855242    
H     -7.3615768     6.6537562     14.0461404    
H     -6.9781571     4.6575263     13.0103621    
H     -8.0272594     4.2234585     10.7907112    
H     -8.4020536     5.9327687     10.6170886    
H     -9.1862975     4.9644465     11.8795900    
H     -5.7278251     3.7998108     10.9157718    
H     -4.1588590     5.7053267     9.4659928    
H     -2.8259927     5.6960212     11.5119530    
H     -1.9762030     4.8436706     10.2229982    
H     -1.7625240     3.5885614     12.3276257    
H     -2.7352953     2.6501767     11.1986830    
H     -3.5108621     3.5267536     12.5199985    
H     -2.6346354     4.3034323     8.0373049    
H     -3.4996915     1.5452951     7.7722544    
H     -3.3674140     1.8588705     5.2174119    
H     -3.4709010     3.5875335     5.5004463    
H     -5.6679982     3.3041513     6.6176627    
H     -5.5432835     1.5562844     6.4605729    
H     -5.4925897     1.7767059     3.9912732    
H     -5.6367343     3.5320457     4.1439453    
H     -7.8128626     3.2916878     5.2848685    
H     -7.6581063     1.5318893     5.2636337    
H     -8.4358692     1.1323046     1.7606235    
H     -7.9670311     0.3028067     3.2504067    
H     -6.7755403     1.2459506     2.3418314    
H     -8.1238185     4.4915255     3.1991035    
H     -8.5653170     3.5965541     1.7404330    
H     -6.8875540     3.6145798     2.2839028    
H     -9.8343002     1.4583854     4.3500572    
H     -10.2008334     2.2725815     2.8258596    
H     -9.9222351     3.2241064     4.2871987    
H     -1.8640824     0.3693889     6.4661751    
H      0.8826021     1.3532639     6.6939638    
H      0.3285484    -1.0630641     7.0573605    
H      1.3270858    -0.8819769     5.5969206    
H     -0.5628360    -1.1848677     4.3877367    
H      2.0615597     0.9509767     4.4622674    
H      0.8491676     2.5254152     2.3271834    
H      3.3044242     2.2960906     2.4227761    
H      3.3789162     1.3710625     0.1625056    
H      4.2260288    -0.0161756     1.6657045    
H      2.6999238    -0.6958308     2.2278444    
H      3.7747798     0.1391371     3.3599683    
H      0.4455112     1.4272094     0.2451489    
H     -1.3166980     0.0463197    -0.7205201    
H     -1.0992899    -1.0691081     0.6463364    
H      1.9979076    -0.0916442    -0.3868685    
H      2.4654101    -1.5624180    -2.7022097    
H      2.5657307    -2.7249214    -1.3665949    
H      5.9464014     1.9223161     1.9777019    
H      5.5228380     2.8942498     0.5443449    
H      6.9867262     3.2564557     1.4610495    
H      8.0300879     0.7961929     1.8890585    
H      9.9194635     0.1215795     0.4832091    
H      8.7507110    -0.1216985    -0.8246221    
H      8.7221571    -1.6375995     1.8336103    
H      9.5250682    -2.2337177     0.3819425    
H      6.5470827    -1.6149213     0.5645699    
H      7.2575870    -3.2123168     0.7798730    
H      7.0167159    -3.4934092    -1.4803239    
H      8.3322378    -2.3475117    -1.6793136    
H      6.4848731    -0.4997428    -1.5451398    
H      4.7676619    -2.7867258    -2.2905034    
H      4.7998107    -1.2141760    -3.8940721    
H      6.3439061    -0.2264915    -6.0029008    
H      6.4003080    -2.2072209    -7.4408881    
H      5.5537423    -3.1757919    -6.2340759    
H      7.2143456    -2.6201812    -5.9311127    
H      1.9695237     0.1484174    -6.9523378    
H      1.7466096     0.8782110    -9.2161157    
H      2.3423567    -0.6692463    -9.8140064    
H      3.9626385     1.7292711    -8.8677770    
H      4.2401416     0.7301003    -10.3050050    
H      4.9930580    -1.1398031    -8.9504395    
H      5.7298493     0.2492001    -8.1021180    
H      0.1683683    -1.1498971    -8.0867317    
H      0.6336198    -4.0220354    -7.6907525    
H     -1.8032125    -4.2759960    -7.8297694    
H     -1.9995319    -2.5929486    -8.3119270    
H     -2.6563657    -2.8656761    -5.9790930    
H     -1.1932762    -1.8832196    -6.0397816    
H      0.2030055    -3.7556908    -5.3756696    
H     -1.1315652    -4.8961581    -5.5344804    
H     -0.5668733    -3.0538047    -3.3304998    
H     -4.0723738    -5.0253475    -3.3923744    
H     -3.1430499    -4.9870045    -4.8454307    
H     -1.7428068    -3.1360233    -1.5395322    
H     -3.2883575    -3.9534380    -1.4694976    
H     -1.1774885    -4.8306130    -9.7161303    
H      0.1899087    -4.0806984    -12.2027879    
H     -1.6825671    -5.3819765    -13.2239591    
H     -2.3117953    -5.7528332    -11.6194913    
H     -0.7283312    -6.3915108    -12.1199617    
