48

C      1.8062963    -2.4724258     0.5555777    
C      1.6125481    -2.8671708     1.9967162    
C      1.8136687    -4.1918864     2.3729400    
C      1.6585050    -4.6115439     3.6813923    
C      1.2935465    -3.6913387     4.6492225    
C      1.0926759    -2.3678446     4.3001735    
C      1.2532912    -1.9631807     2.9857638    
C      0.5265386     1.5330026    -0.1102414    
C      0.0755517     2.8486233    -0.1451992    
C      0.9755061     3.8847203     0.0107561    
C      2.3262987     3.6293477     0.2167058    
C     -2.5557399     1.2752082    -1.0896852    
C     -2.2098862     2.0188532    -2.2173731    
C     -3.1136897     2.9674116    -2.7270691    
C     -3.5248523     4.5796009    -4.4466581    
C     -4.3399967     3.1493818    -2.1111877    
C     -4.6782550     2.3911452    -0.9987319    
C     -3.8014488     1.4562639    -0.4921991    
N     -0.3058012     0.4375323    -0.2773033    
C      0.1324934    -0.8384468    -0.0230481    
N      1.4333708    -1.1001448     0.2819263    
Cl     2.2812833    -5.3571481     1.1690626    
C      2.3820493    -0.1050444     0.3198441    
C      1.8796888     1.2636523     0.1460420    
C      2.7711496     2.3275555     0.2973778    
O      3.5603636    -0.3717990     0.5206090    
N     -0.8348258    -1.7058726    -0.1535279    
N     -1.9337297    -1.0128107    -0.5198711    
C     -1.6341914     0.2529352    -0.6070737    
O     -2.6631170     3.6387365    -3.8333784    
O     -1.0051350     1.8187089    -2.8159679    
H      1.1995557    -3.1178313    -0.0844783    
H      2.8640024    -2.5770754     0.2903944    
H      1.8240818    -5.6463935     3.9334758    
H      1.1702597    -4.0110695     5.6711621    
H      0.8121388    -1.6446942     5.0489436    
H      1.1020187    -0.9257073     2.7276766    
H     -0.9728217     3.0523272    -0.2840301    
H      0.6192709     4.9017403    -0.0244275    
H      3.0215640     4.4451671     0.3285524    
H     -2.9733348     4.9527121    -5.3064548    
H     -3.7514296     5.4047749    -3.7673780    
H     -4.4505284     4.1044173    -4.7792059    
H     -5.0409997     3.8734194    -2.4915651    
H     -5.6381793     2.5380171    -0.5304308    
H     -4.0571393     0.8540102     0.3632172    
H      3.8060719     2.0885938     0.4881751    
H     -0.9577133     2.3711947    -3.6145036    
