37

N     -6.0054748     3.0434659     0.9325472    
C     -3.2946110     1.3517645     2.4439935    
C     -2.3659039     1.0479658     1.4542195    
C     -1.1865514     0.3803166     1.7740793    
C     -0.9463900     0.0157383     3.0992991    
C      0.8944351    -0.5090311     0.7715297    
C      1.7958028    -0.1052742    -2.9437626    
C      3.0371706    -0.7140201    -3.0179590    
C     -0.1058873     0.9215419    -3.2409720    
C      4.8542332    -1.9427270    -1.8259975    
F      4.7275769    -3.2889966    -1.7460843    
F      5.5916546    -1.7173388    -2.9278784    
F      5.6328144    -1.5947296    -0.7830726    
C      3.5321925    -1.2419839    -1.8350553    
N      1.0116559     0.5094866    -3.8800074    
N     -0.1168950     0.6298504    -1.9694427    
C      1.0626592    -0.0204166    -1.7301622    
C      2.8260834    -1.1729592    -0.6310055    
C      1.5852364    -0.5620773    -0.5488717    
O      1.4043408    -1.0033453     1.7728825    
N     -0.2993379     0.1231746     0.7328670    
C     -1.8765947     0.3185072     4.0783484    
C     -3.0488760     0.9823737     3.7674576    
C     -4.4971940     2.0590341     2.0624702    
N     -4.8471479     2.4095752     0.8346511    
N     -5.4779744     2.5005839     2.8920692    
N     -6.3975657     3.1099375     2.1389556    
H     -2.5743601     1.3417562     0.4384024    
H     -0.0353623    -0.5009686     3.3526478    
H      3.5964534    -0.7764295    -3.9369090    
H     -0.9046272     1.4408395    -3.7320026    
H      1.2271720     0.6303870    -4.8579081    
H      3.2472174    -1.5971573     0.2682142    
H     -0.5911757     0.4697676    -0.1865371    
H     -1.6792241     0.0325806     5.0994024    
H     -3.7581257     1.2037950     4.5483001    
H     -5.5784282     2.4377508     3.8935627    
