163

N     -1.0599194     0.0933189     15.4500569    
C     -1.4049349     0.3781336     14.0378004    
C     -0.2819914    -0.2796591     13.2112357    
O      0.7877984    -0.5167253     13.7646264    
C     -1.4012821     1.8990229     13.8070247    
C     -1.9185605     2.3101729     12.4333706    
S     -1.9199868     4.1367873     12.2382688    
C     -3.3752505     4.5737822     13.2379572    
N     -0.5760172    -0.5822965     11.9538533    
C      0.4207841    -1.0221409     11.0015039    
C      0.6241700     0.0764517     9.9506526    
O     -0.1512495     1.0176826     9.8469444    
C     -0.0232459    -2.3159631     10.2970586    
C     -1.3240578    -2.1340541     9.4979100    
C     -1.2668593    -2.8348547     8.1373320    
N     -1.1080980    -4.2670206     8.2749104    
C     -0.0355063    -4.9986358     7.9863553    
N     -0.0702934    -6.3043081     8.2589095    
N      1.0370655    -4.4909394     7.3958595    
N      1.6684110    -0.1265006     9.1389917    
C      1.8428015     0.5734372     7.8902007    
C      1.7844701    -0.4623004     6.7600323    
O      1.6588654    -1.6576725     7.0209598    
C      3.1516809     1.3803833     7.8515676    
O      3.0985416     2.2286579     6.7259103    
N      1.8188942     0.0248307     5.5283975    
C      1.8470977    -0.8126981     4.3493004    
C      2.7173225    -0.1531153     3.2829107    
O      2.9476810     1.0490008     3.2878893    
C      0.4424213    -0.9561892     3.7287294    
C     -0.4835624    -1.8493689     4.5584801    
C     -1.6229535    -2.4236176     3.7173336    
C     -2.5434470    -1.3317660     3.1840873    
N     -3.6080619    -1.9255578     2.3386362    
N      3.1499895    -0.9994965     2.3316082    
C      3.4929740    -0.5386359     1.0059498    
C      2.2670640    -0.7228328     0.1076046    
O      1.2662001    -1.2961017     0.5206877    
N      2.3543570    -0.2156404    -1.1215765    
C      1.2582801    -0.3187453    -2.0637711    
C      1.8198887    -0.0993614    -3.4663151    
O      2.8279673     0.5775891    -3.6436088    
C      0.1876732     0.7487161    -1.7528332    
C     -1.0862200     0.5334474    -2.5611249    
C     -2.1559069     1.5816113    -2.2561234    
N     -3.2318612     1.4068069    -3.2120418    
C     -4.5183154     1.6646341    -3.0165951    
N     -4.9583285     2.1369088    -1.8504287    
N     -5.3906744     1.3678985    -3.9767641    
N      1.1206052    -0.6778657    -4.4482417    
C      1.3475723    -0.4347737    -5.8559734    
C      0.1862301     0.3998295    -6.4144634    
O     -0.8668972     0.5199752    -5.7960246    
C      1.4374027    -1.7548580    -6.6223556    
N      0.4317424     0.9982498    -7.5774364    
C     -0.6092852     1.6474126    -8.3543592    
C     -0.8935529     0.7099400    -9.5339687    
O     -1.1863560    -0.4645962    -9.3148056    
C     -0.2010934     3.0754150    -8.7090843    
C     -0.0313910     3.9249488    -7.4524001    
N     -0.8782040     1.2348550    -10.7658652    
C     -0.9540377     0.3864877    -11.9486555    
C      0.4399323    -0.2548042    -12.1115611    
O      1.2934804     0.2507191    -12.8302051    
C     -1.3512701     1.2074660    -13.1692563    
C     -1.7485690     0.2988055    -14.3312088    
C     -2.0928838     1.1092987    -15.5799609    
C     -2.5385006     0.1914212    -16.7128658    
N     -2.8147553     0.9733932    -17.9426635    
N      0.5793337    -1.3950995    -11.4091288    
C      1.8798780    -1.8857845    -10.9894474    
C      2.5667442    -0.8294174    -10.0523782    
O      3.6619398    -1.1470566    -9.5617015    
C      2.7916158    -2.2532233    -12.1537814    
O      1.9324747     0.2235670    -9.8235857    
H     -1.5376461    -0.7371240     15.8162764    
H     -0.0317769    -0.1022358     15.4355222    
H     -1.2471198     0.8862287     16.0722152    
H     -2.3810423    -0.0354950     13.7807455    
H     -0.3903770     2.2920922     13.9284598    
H     -2.0425109     2.3630279     14.5578678    
H     -2.9379357     1.9700865     12.2605726    
H     -1.2681486     1.9787987     11.6249014    
H     -4.2208214     3.9657138     12.9340297    
H     -3.1603723     4.4570169     14.2952760    
H     -3.5811627     5.6188065     13.0279820    
H     -1.4461359    -0.2587382     11.5533869    
H      1.3495550    -1.1868318     11.5559975    
H     -0.1371744    -3.0919348     11.0529464    
H      0.7799773    -2.6169353     9.6265525    
H     -1.4971194    -1.0753404     9.3032995    
H     -2.1724130    -2.5108180     10.0683063    
H     -0.4451013    -2.4232743     7.5554312    
H     -2.2012416    -2.6469969     7.6047538    
H     -1.8667650    -4.7339543     8.7503005    
H      0.7062508    -6.8997278     8.0307572    
H     -0.8769342    -6.7310483     8.6789855    
H      2.2486821    -0.9437794     9.2670167    
H      1.0129879     1.2815110     7.7838959    
H      4.0145603     0.7031557     7.7890351    
H      3.2265348     1.9622226     8.7784307    
H      3.8722378     2.8043300     6.7062026    
H      2.0421140     1.0050257     5.3801834    
H      2.2472642    -1.7926294     4.6272203    
H      0.5603735    -1.3732127     2.7269815    
H      0.0330178     0.0495180     3.6286617    
H     -0.8824602    -1.2808808     5.3978071    
H      0.0985660    -2.6788143     4.9578595    
H     -2.1915733    -3.1190344     4.3348095    
H     -1.1863394    -2.9774192     2.8855326    
H     -1.9687588    -0.6292856     2.5833244    
H     -3.0006016    -0.7923952     4.0130051    
H     -4.2604146    -1.2059238     2.0084699    
H     -3.1886268    -2.3909584     1.5250883    
H     -4.1355178    -2.6266432     2.8717482    
H      2.8288624    -1.9581353     2.3671942    
H      4.3401000    -1.1008405     0.6080188    
H      3.7592223     0.5186941     1.0649754    
H      3.1753126     0.2699012    -1.4579723    
H      0.8198595    -1.3174691    -1.9685516    
H      0.6119585     1.7325034    -1.9625926    
H     -0.0231140     0.6851034    -0.6848519    
H     -1.4852339    -0.4592717    -2.3525069    
H     -0.8537392     0.5975663    -3.6237791    
H     -1.7214907     2.5829566    -2.3467843    
H     -2.5332030     1.4440247    -1.2432168    
H     -2.9291830     1.1068452    -4.1294678    
H     -5.9306105     2.3756653    -1.7502981    
H     -4.3124596     2.5464150    -1.1975978    
H      0.2897015    -1.2114065    -4.2346565    
H      2.2832983     0.1243051    -5.9549432    
H      2.1752488    -2.4049270    -6.1601601    
H      0.4714144    -2.2534268    -6.6441965    
H      1.7537633    -1.5714350    -7.6468720    
H      1.2679470     0.7690311    -8.1094236    
H     -1.5025045     1.6515442    -7.7164273    
H     -0.9710539     3.5230770    -9.3375836    
H      0.7436067     3.0426991    -9.2577777    
H     -0.9677153     3.9803026    -6.9051534    
H      0.7293021     3.4969852    -6.8041991    
H      0.2765891     4.9308558    -7.7227306    
H     -0.4092760     2.1180182    -10.9033661    
H     -1.6891087    -0.3959804    -11.7367501    
H     -0.4923375     1.8180560    -13.4559529    
H     -2.1809935     1.8613848    -12.9009975    
H     -2.6052154    -0.3073216    -14.0326421    
H     -0.9160679    -0.3755611    -14.5415175    
H     -1.2089046     1.6753442    -15.8756151    
H     -2.8866929     1.8139491    -15.3306100    
H     -3.4411129    -0.3437456    -16.4193316    
H     -1.7566225    -0.5392635    -16.9191686    
H     -3.1295939     0.3594828    -18.7023912    
H     -3.5424666     1.6748648    -17.7605019    
H     -1.9640824     1.4609501    -18.2467393    
H     -0.1542250    -1.5552592    -10.7249891    
H      1.7124518    -2.7747864    -10.3710238    
H      2.3786413    -3.0912839    -12.7088474    
H      2.9088313    -1.4001967    -12.8169828    
H      3.7666416    -2.5234001    -11.7547432    
H     -5.0795773     0.9736155    -4.8475542    
H     -6.3677587     1.5819843    -3.8776141    
H      1.1626741    -3.4995934     7.2414688    
H      1.8275855    -5.0826647     7.2084670    
