31

C      0.4539588     0.1633244    -0.1205450    
C      3.1482611     2.5093230     1.0893288    
C      3.8932855     2.8194902     2.4081511    
C     -2.5699593    -2.7761872    -0.1494368    
C     -5.5572634    -3.7408238    -1.9820550    
C     -3.5661698    -2.7411500    -1.1046690    
C     -3.5619003    -1.7208612    -2.0792769    
C     -2.5791407    -0.7714627    -2.0755156    
C     -1.5520348    -0.7826448    -1.1095560    
C     -1.5532748    -1.8117253    -0.1282329    
C     -0.5183135    -1.8263326     0.8361397    
C      0.4519264    -0.8687124     0.8470129    
C      1.4822093     1.2210150    -0.1511487    
C      2.1918761     1.5411460     1.0564611    
C     -0.5320991     0.1817133    -1.0850904    
O     -4.5039588    -3.7212250    -1.0332958    
O      3.5062703     3.2228625     0.0345349    
O      3.4917476     2.2036481     3.4149040    
O      4.8228259     3.6440384     2.3486444    
O      1.7047273     1.8386293    -1.2169634    
H     -2.5837233    -3.5614179     0.5900020    
H     -6.1574158    -4.6094451    -1.7194711    
H     -5.1716461    -3.8545958    -2.9981565    
H     -6.1677557    -2.8374602    -1.9118865    
H     -4.3328857    -1.6830886    -2.8313077    
H     -2.5761984     0.0086871    -2.8215360    
H     -0.5080488    -2.6167468     1.5714819    
H      1.2417753    -0.9057479     1.5809436    
H      1.9731881     1.0472659     1.9868381    
H     -0.5156458     0.9679724    -1.8269296    
H      2.9451494     2.9091073    -0.7392159    
