89

S      6.3061789     3.9906469    -0.7791874    
N      4.8313590     5.9646095    -1.6452983    
C      6.0536222     5.6887340    -1.2995129    
N      7.0126813     6.6037629    -1.3352736    
C      8.4027172     6.5151767    -1.0103141    
C      8.9266637     5.6773727     0.1196150    
C      9.2344639     5.2991562    -1.3001623    
C      4.0048326     4.8992053    -1.5351193    
C      4.6202559     3.7052929    -1.0717920    
C      3.9082945     2.5370365    -0.9059194    
C      2.5600503     2.5644646    -1.2147223    
C      1.9314751     3.7140364    -1.6761773    
C      2.6438157     4.8840154    -1.8403574    
S      1.5940166     1.0928545    -0.9630009    
O      0.4960484     1.0875412    -1.9070969    
O      2.4690007    -0.0585449    -0.9974388    
N      0.9353252     1.1815351     0.5572231    
C      1.9300585     1.2040488     1.6141988    
C      1.5169981     0.4329511     2.8734357    
C      1.2710746    -1.0366532     2.5456824    
C      2.6141104     0.5724055     3.9275218    
C     -0.2375628     2.0165801     0.7048987    
C     -1.4603668     1.2250532     1.2152513    
O     -2.5279352     2.0816812     1.5118342    
C     -1.8310787     0.0928617     0.2274613    
N     -2.4702210    -0.9850798     0.9512199    
C     -2.0798628    -2.2615753     0.8392010    
O     -1.2131533    -2.6629515     0.0810867    
O     -2.7511954    -3.0462661     1.7016035    
C     -2.7227372     0.5696577    -0.9329603    
C     -4.1089464    -1.2942244    -1.8959083    
C     -4.2377069    -2.3593504    -2.7655179    
C     -3.2357536    -2.7424442    -3.6347667    
C     -2.0726085    -1.9943401    -3.6019854    
C     -1.9009572    -0.9160174    -2.7614652    
C     -2.9290423    -0.5623622    -1.8936681    
F     -5.3992166    -3.0647062    -2.7714497    
F     -1.0656700    -2.3414339    -4.4474673    
C     -2.4360513    -4.4453187     1.7119191    
C     -3.6379413    -5.2944679     1.2246406    
C     -4.4799796    -5.5763224     2.4842230    
C     -5.7587618    -4.7245035     2.6539620    
O     -5.7004368    -4.1482068     3.9204397    
C     -4.3267729    -3.9543823     4.2522659    
C     -3.6057047    -5.1907252     3.6985990    
C     -2.2082721    -4.9087551     3.1495349    
C     -4.4086967    -4.6019224     0.1503762    
C     -5.4527608    -3.8461749     0.4534627    
O     -5.9736926    -3.6903081     1.7003409    
H      6.6939215     7.5064581    -1.6632285    
H      8.8721494     7.4760584    -1.1646869    
H      8.2329886     5.0598517     0.6657631    
H      9.7120031     6.0971308     0.7273297    
H      10.2321878     5.4574783    -1.6764529    
H      8.7476552     4.4281913    -1.7070586    
H      4.3681382     1.6200411    -0.5755893    
H      0.8857177     3.6615349    -1.9282538    
H      2.1736045     5.7818607    -2.2027527    
H      2.1757562     2.2418890     1.8766014    
H      2.8152357     0.7281988     1.1895750    
H      0.5989997     0.8748038     3.2693945    
H      0.9003962    -1.5660076     3.4196014    
H      2.1957866    -1.5081169     2.2200697    
H      0.5500318    -1.1422196     1.7377931    
H      2.7710567     1.6162301     4.1851941    
H      3.5492100     0.1621011     3.5546290    
H      2.3354074     0.0316993     4.8271595    
H     -0.4726564     2.4235000    -0.2796950    
H     -0.0329812     2.8390143     1.3977885    
H     -1.2041458     0.7518734     2.1675115    
H     -2.7264658     2.6447569     0.7500078    
H     -0.9017090    -0.3144975    -0.1859776    
H     -3.2235061    -0.7590221     1.5839301    
H     -2.2050011     1.3784797    -1.4476817    
H     -3.6798066     0.9099712    -0.5399282    
H     -4.9222391    -1.0458357    -1.2340462    
H     -3.3510580    -3.5796724    -4.3016361    
H     -0.9728906    -0.3649183    -2.7684068    
H     -1.5615777    -4.5830405     1.0677898    
H     -3.2289946    -6.2346716     0.8471283    
H     -4.7684778    -6.6266836     2.5065996    
H     -6.6674429    -5.3463776     2.6339442    
H     -4.2777443    -3.8580572     5.3349713    
H     -3.9534341    -3.0450870     3.7704628    
H     -3.5945177    -5.9808308     4.4488339    
H     -1.6825882    -4.1548578     3.7311454    
H     -1.6176193    -5.8229301     3.1328736    
H     -4.0502714    -4.6661975    -0.8616010    
H     -6.0148124    -3.2773114    -0.2716020    
