60

C      3.2535432    -3.9268461    -2.4009671    
C      4.0879344    -4.7165065    -3.1808835    
C      3.6777293    -5.1298194    -4.4372013    
C      3.3493389     0.3603905     1.0564790    
C      4.6736997    -0.1369994     1.5372001    
C      1.6594992     1.8363418     1.3009479    
C     -0.1806875     2.8170665     0.9818049    
C     -2.4660013     3.4623425     0.5460326    
C     -3.3167432     4.7433510     0.6099170    
C     -4.5682865     4.5618989    -0.0701925    
C     -3.1632607     2.3077185     1.2360584    
C     -3.6077073     1.2139496     0.5068399    
C     -4.2267777     0.1521539     1.1434055    
C     -4.4102639     0.1646760     2.5159724    
C     -3.9661100     1.2592304     3.2365385    
C     -3.3448260     2.3263548     2.6137871    
Cl    -4.1958165     1.3060494     4.9696796    
N     -5.5636349     4.4071783    -0.6142217    
N     -1.1620759     3.7395710     1.1191762    
N      0.9209140     2.8339488     1.7672470    
N     -0.1973378     1.8734724     0.0435769    
N      0.9794473     1.2389196     0.2439540    
N      2.8427097     1.4066031     1.6995846    
C      2.7052730    -0.2788445    -0.0062151    
C      1.4731972     0.1908339    -0.4454762    
N      0.7185176    -0.3104986    -1.4487510    
C      1.2659869    -1.1972281    -2.4519377    
C      1.1209485    -2.6717977    -2.0280058    
N     -0.3115509    -3.0603041    -2.0962464    
C      1.9914298    -3.5544901    -2.8905704    
O      3.5705687    -3.4620729    -1.1563845    
C      4.7806789    -3.8744011    -0.5557261    
C      1.6078471    -3.9642737    -4.1578755    
C      2.4415637    -4.7552729    -4.9302325    
H      5.0604689    -5.0098440    -2.8222399    
H      4.3368567    -5.7437490    -5.0314320    
H      5.1834923    -0.7010575     0.7585831    
H      4.5240765    -0.7813702     2.4063996    
H      5.2884206     0.7039752     1.8550672    
H     -2.2891906     3.1913078    -0.4997372    
H     -2.7782740     5.5686595     0.1384246    
H     -3.5266192     5.0068035     1.6492993    
H     -3.4776947     1.2065401    -0.5631845    
H     -4.5798882    -0.6909019     0.5720452    
H     -4.8933712    -0.6549616     3.0217529    
H     -3.0048392     3.1594570     3.2101713    
H     -1.1347950     4.2263472     2.0023082    
H      3.1701586    -1.1267431    -0.4759888    
H     -0.0782740     0.2676578    -1.6818284    
H      2.3260618    -0.9842572    -2.6059702    
H      0.7514786    -1.0301789    -3.3977125    
H      1.4577054    -2.7712760    -0.9933513    
H     -0.4316453    -4.0405386    -1.8164494    
H     -0.6768104    -2.9469391    -3.0491512    
H     -0.8588578    -2.4622804    -1.4656841    
H      4.7662315    -3.4540458     0.4480580    
H      5.6475990    -3.4887908    -1.0993221    
H      4.8438776    -4.9626920    -0.4897549    
H      0.6593103    -3.6675407    -4.5735083    
H      2.1329937    -5.0734437    -5.9129279    
