42

C      0.5639301    -0.6405091    -5.2765962    
C     -0.1896454    -0.1467811    -3.1650488    
C     -1.1063295     0.4635031    -1.1093984    
C     -2.1516777     1.0847364    -0.4248748    
C     -2.1131466     1.1692090     0.9472061    
C     -1.0494122     0.6400986     1.6913346    
C     -1.1120679     0.7787809     3.1974042    
C     -2.2194515    -0.1192979     3.7850759    
C     -2.7895000     0.5167681     5.0444459    
C      0.0531513     0.4062616     5.4191575    
C      0.2196179     0.5033937     3.9051100    
C     -0.0218586     0.0289986     1.0046652    
C     -0.0322645    -0.0670615    -0.3916721    
C      1.0780669    -0.7144556    -1.1009008    
C      0.9368701    -0.7100349    -2.5415453    
C      1.9090612    -1.2611835    -3.3960650    
C      1.7535879    -1.2390652    -4.7552316    
C      2.8331645    -1.8371858    -5.6434977    
N      0.3400644    -0.5836793    -6.5849043    
N     -0.3738255    -0.1149914    -4.4718869    
O     -1.1915023     0.4170125    -2.4659278    
O     -1.6133474     1.0131045     7.3953206    
O     -1.3463992     2.6977762     5.6496799    
O      2.0417702    -1.2127975    -0.5070078    
O      3.8113396    -2.3591588    -5.0726624    
O      2.6794697    -1.7704783    -6.8891295    
S     -1.4275769     1.2811427     5.9736961    
H     -2.9670167     1.4943814    -0.9973725    
H     -2.9187581     1.6670061     1.4639689    
H     -1.3896034     1.8173268     3.4069309    
H     -1.8067579    -1.1040913     4.0017550    
H     -3.0196923    -0.2514069     3.0562786    
H     -3.2563313    -0.1948537     5.7166049    
H     -3.4735956     1.3304547     4.8217731    
H      0.8901011     0.8300728     5.9643169    
H     -0.1226940    -0.6078281     5.7632990    
H      0.9168399     1.3025674     3.6546906    
H      0.6437519    -0.4366468     3.5520888    
H      0.8416441    -0.3942549     1.4926277    
H      2.7962910    -1.7086058    -2.9687881    
H     -0.5035689    -0.1553668    -6.9248217    
H      1.0732525    -0.9788100    -7.1724748    
