22

C     -4.0521314    -0.0238908     0.2675412    
O     -2.7177762     0.3905199     0.5511419    
C     -1.7302428    -0.2514332    -0.0924631    
O     -1.9623116    -1.1439617    -0.8919442    
C     -0.3972787     0.2376325     0.2712439    
C     -0.2316181     1.2377480     1.2242730    
C      1.0288501     1.7035983     1.5833793    
C      2.1755163     1.1919418     1.0051397    
C      2.0301792     0.1960600     0.0509068    
C      0.7541002    -0.3010506    -0.3341603    
C      0.9898242    -1.2959908    -1.3151601    
C      2.3421193    -1.3687241    -1.4877808    
N      2.9695336    -0.4764774    -0.6712260    
H     -4.6947752     0.7424704     0.6902408    
H     -4.2453888    -0.9934253     0.7310367    
H     -4.1979779    -0.1114020    -0.8108890    
H     -1.1083724     1.6556359     1.6929576    
H      1.1066954     2.4792223     2.3288530    
H      3.1512501     1.5552688     1.2870161    
H      0.2384559    -1.8720053    -1.8154228    
H      2.9025505    -2.0036776    -2.1455204    
H      3.9645492    -0.3378468    -0.6119219    
