38

C      1.1405518    -2.4677822     0.4620739    
C     -1.9480799    -0.8054279     0.1134823    
C     -1.6221949     0.9250446     1.9540986    
C     -0.7149668     3.0824668     1.4448563    
C     -1.0484302     1.4878290    -0.3044755    
C     -0.2838302     4.4519489     1.8646697    
C     -2.8659552    -1.5838348     1.0486637    
C      2.2856054    -2.8893188     1.3192245    
C      1.8130828    -3.2192385    -1.9805079    
O      2.8691916    -3.8182207    -1.8724811    
C      1.0251897    -2.6178157    -0.9442601    
N      1.2211892    -3.0696758    -3.2368523    
C      0.0321548    -2.4681608    -3.5652903    
O     -0.3732159    -2.4106247    -4.7117646    
N     -0.6831389    -1.9338951    -2.5221532    
C     -0.1932946    -2.0046284    -1.2534928    
N     -0.7228408    -1.5597851    -0.1070265    
N      0.0903330    -1.8358223     0.9306840    
O      3.3236943    -1.9402143     1.1474741    
C     -1.5489438     0.5704466     0.6148630    
C     -0.6312430     2.7402912     0.1005171    
F     -0.1099427     4.5870179     3.1896952    
F     -1.1815699     5.4072781     1.5167890    
F      0.8771588     4.8386392     1.2959246    
C     -1.2127272     2.1790513     2.3727848    
H     -2.4300913    -0.6890607    -0.8616666    
H     -1.9952960     0.2293713     2.6846313    
H     -0.9795956     1.2273363    -1.3488314    
H     -3.7289456    -0.9782143     1.3050528    
H     -2.3295401    -1.8612255     1.9502676    
H     -3.2064620    -2.4917205     0.5587735    
H      2.6191652    -3.8832966     0.9963116    
H      1.9595314    -2.9187267     2.3648444    
H      1.7322403    -3.4683129    -4.0184130    
H     -1.5716673    -1.5022414    -2.7463838    
H      4.1049141    -2.2377979     1.6326704    
H     -0.2402422     3.4492140    -0.6123619    
H     -1.2721359     2.4533614     3.4138889    
