39

P     -3.4921838     1.2462165    -0.2009916    
O     -3.2803284     0.2607335    -1.3300839    
O     -3.4091536     2.7030200    -0.5959758    
O     -4.6582012     0.9078774     0.7038020    
P     -0.6337026     0.9572667     0.5262648    
O     -0.3135603     1.5138219    -0.8192136    
O      0.0965091     1.4677398     1.7213021    
O     -2.1863028     1.0042169     0.8903518    
O     -0.3511687    -0.6696024     0.5152752    
C     -0.8203967    -1.4330078    -0.5810199    
C      0.0579341    -2.6752956    -0.7674392    
O      1.2858598    -2.3898318    -1.4181553    
C      0.4616275    -3.2915119     0.5804013    
O      0.6508484    -4.6695772     0.4723478    
C      1.7797768    -2.5468891     0.9087014    
O      2.7146706    -3.4321378     1.4522548    
C      2.2424172    -2.0040544    -0.4668860    
N      2.4318297    -0.5658752    -0.4773443    
C      2.4238898     0.1994045    -1.6127541    
N      2.6304195     1.4633326    -1.4121704    
C      2.7401075     1.5794547    -0.0474366    
C      2.9411259     2.6710813     0.8109799    
N      3.1119927     3.9380111     0.3687119    
N      3.0847534     2.4287159     2.1224161    
C      3.0015480     1.1807627     2.5450104    
N      2.7991665     0.0727437     1.8540143    
C      2.6203977     0.3137808     0.5498862    
H     -0.8115696    -0.8053542    -1.4812055    
H     -1.8668600    -1.7095649    -0.3987650    
H     -0.4697655    -3.3870170    -1.4057704    
H     -0.3067981    -3.0673896     1.3316736    
H      1.5097362    -4.8804498     0.8926693    
H      1.5581137    -1.7045417     1.5631275    
H      3.1504399    -3.0306904     2.2169345    
H      3.1928521    -2.4727524    -0.7670873    
H      2.2618850    -0.2458193    -2.5739940    
H      2.9957578     4.6524940     1.0713725    
H      2.7288294     4.1201865    -0.5454413    
H      3.1393182     1.0406486     3.6086885    
