59

N      1.1908335    -1.0115739     0.6090688    
N      0.9489324    -2.3826237    -4.1611255    
C     -2.3163314    -1.3365846    -0.2265220    
C      0.2133444    -1.4247271    -0.1644148    
C      0.5981720    -0.6014184     1.7688853    
C      1.1621781    -0.0455218     2.9171882    
C      0.3097912     0.2280436     3.9788919    
C     -1.6464852    -0.5327660     2.7404027    
C      3.3772714    -0.2449339     4.0327929    
C      5.3392491     0.7933368     3.1278967    
C      3.2296701     1.0475458     2.0353672    
C      1.5491544    -1.2045797    -3.4930826    
C      1.7308245    -1.5123275    -2.0122434    
C     -1.5443279     0.6821711    -1.5155780    
C     -0.7000678     2.7344642    -2.6994084    
F     -2.3361376     1.8895761    -4.8358188    
C     -2.3299797     1.1078454    -3.7119434    
C     -3.1169320    -0.0370968    -3.7073397    
C     -3.9595935    -0.3959047    -4.8903005    
C     -1.5299612     1.4915679    -2.6440152    
C     -2.3107064    -0.4737918    -1.4668205    
C     -3.0853551    -0.8263480    -2.5637942    
N     -1.0294981    -1.3414542     0.4320217    
C     -0.7982817    -0.8172868     1.6862745    
C     -1.0544481    -0.0154579     3.8792537    
Cl    -2.0711181     0.3664886     5.2529780    
C      2.5995165     0.2546569     2.9917727    
Cl     2.3028408     1.7829769     0.7776732    
C      4.5851946     1.3178635     2.0926995    
C      4.7327930     0.0176098     4.1020846    
N      0.4223496    -1.7996759    -1.4506539    
C     -0.3593291    -2.7150683    -3.5542422    
C     -0.1782988    -2.9709548    -2.0602121    
H      1.5851554    -3.1845564    -4.0566815    
H      0.8323281    -2.1983830    -5.1643460    
H     -2.6433765    -2.3535342    -0.4617798    
H     -3.0359542    -0.9238900     0.4862725    
H      0.7091247     0.6579564     4.8839686    
H     -2.7106187    -0.6975193     2.7028041    
H      2.9005898    -0.8557047     4.7844549    
H      6.3964966     0.9999083     3.1756137    
H      0.8749564    -0.3548008    -3.6046531    
H      2.5108608    -0.9655765    -3.9436709    
H      2.1473571    -0.6538735    -1.4879074    
H      2.4148960    -2.3561354    -1.8659587    
H     -0.9414138     0.9751171    -0.6690000    
H      0.1583907     2.6529266    -2.0378643    
H     -1.2950823     3.5890143    -2.3761203    
H     -0.3636680     2.9356211    -3.7139223    
H     -4.2466110    -1.4422268    -4.8586987    
H     -3.4330529    -0.1866013    -5.8188814    
H     -4.8669252     0.2081515    -4.8916540    
H     -3.6876556    -1.7206697    -2.5335685    
H      5.0388521     1.9421097     1.3393235    
H      5.3160420    -0.3818266     4.9173288    
H     -0.7760373    -3.6012001    -4.0312242    
H     -1.0366350    -1.8724298    -3.6977737    
H     -1.1417812    -3.1854588    -1.6086821    
H      0.4696855    -3.8437356    -1.9015983    
