65

N      5.9246238     1.5755030     2.1575465    
C      4.6271809     2.2283308     1.8478699    
C      3.9659078     1.3430613     0.7791192    
O      4.6798605     0.8195148    -0.0697172    
C      4.9139269     3.6058227     1.2374937    
C      3.6656351     4.4149538     0.8629775    
C      2.8900771     4.8617397     2.1012887    
C      4.1003484     5.6362641     0.0516517    
N      2.6501544     1.2083271     0.8791744    
C      1.8421959     0.5157324    -0.1144997    
C      0.4157479     1.0065889     0.1390787    
O     -0.1586313     1.7665314    -0.6346608    
C      1.9854832    -1.0178435    -0.0091444    
C      0.7895888    -1.7019735    -0.6141206    
C     -0.0546842    -2.4869001     0.1587877    
C      0.4708246    -1.5202073    -1.9556773    
C     -1.1954431    -3.0591307    -0.3745400    
C     -0.6679098    -2.0781072    -2.4983429    
C     -1.5280796    -2.8448952    -1.7062970    
O     -2.6380465    -3.3478014    -2.2987180    
P     -3.9087057    -4.0919559    -1.4090762    
O     -4.9137041    -4.3329138    -2.5144189    
O     -3.3106306    -5.3602628    -0.8187140    
O     -4.3388674    -3.0627737    -0.3757579    
N     -0.0687162     0.6226707     1.3224178    
C     -1.0502621     1.3738972     2.0608744    
C     -0.2723503     2.3375799     3.0379706    
O     -0.9457117     3.0596661     3.7823293    
C     -2.0059786     0.4616908     2.8209495    
C     -2.7128686    -0.5526622     1.9146496    
C     -3.4925925    -1.5690157     2.7442282    
C     -3.6471062     0.1135200     0.9096981    
O      0.9756445     2.2969380     2.9732925    
H      6.6110290     2.2459193     2.5223472    
H      6.2518264     1.1802371     1.2542925    
H      5.8079031     0.8029357     2.8217912    
H      3.9921581     2.3121887     2.7292226    
H      5.5041402     3.4590317     0.3307126    
H      5.4881417     4.2010640     1.9485588    
H      3.0014284     3.8035396     0.2418626    
H      2.0977995     5.5504777     1.8148278    
H      3.5430385     5.3709511     2.8057798    
H      2.4027930     4.0283846     2.6024443    
H      4.6324809     5.3342422    -0.8467195    
H      4.7445415     6.2772011     0.6480919    
H      3.2301358     6.2131156    -0.2510241    
H      2.1346300     1.6545624     1.6442307    
H      2.1412115     0.8449049    -1.1152116    
H      2.0752395    -1.3087727     1.0370549    
H      2.8982537    -1.3100329    -0.5296844    
H      0.1646624    -2.6646910     1.2022876    
H      1.1114929    -0.9264203    -2.5887627    
H     -1.8681584    -3.6627736     0.2162742    
H     -0.9352035    -1.9274146    -3.5339084    
H      0.4931496     0.0036150     1.8888214    
H     -1.5957374     2.0053465     1.3532250    
H     -2.7360906     1.0903737     3.3328487    
H     -1.4380734    -0.0805210     3.5819760    
H     -1.9583576    -1.0979066     1.3369409    
H     -3.9312517    -2.3101314     2.0754479    
H     -4.2942931    -1.0800830     3.2925491    
H     -2.8396126    -2.0821376     3.4470933    
H     -3.0972977     0.7694133     0.2371826    
H     -4.4207003     0.6857742     1.4170736    
H     -4.1210762    -0.6586055     0.3018268    
