75

O      2.5014634     3.0457606    -0.9047793    
C      1.2047003     2.7262652    -0.8712178    
C      0.8036759     1.3611903    -0.5406729    
C      1.7357415     0.3853711    -0.5745665    
C      3.1622677     0.7071017    -0.9068729    
C      3.5112944     2.1227762    -0.4440654    
O      0.4041835     3.6086604    -1.1499042    
O      1.5283110    -0.9185066    -0.3666197    
C      3.5700042     2.1530616     1.0978356    
C      3.6311679     3.5554941     1.7032067    
C      3.4930740     3.5014916     3.2204214    
C      4.8329590     2.6193264    -1.0489717    
C      4.8257502     2.6998567    -2.5813456    
C      6.0208606     3.4727570    -3.0628074    
C      6.0101834     4.8623535    -3.0417646    
C      7.1140645     5.5830509    -3.4606021    
C      8.2461530     4.9218466    -3.9074594    
C      8.2675446     3.5380861    -3.9300535    
C      7.1619856     2.8194831    -3.5081130    
C     -0.6702205     1.1405015    -0.2543749    
C     -0.9163991     0.8727554     1.2375953    
C     -0.5742624     2.0968383     2.0800635    
C     -1.2184947     0.0848452    -1.1872855    
C     -1.2593961     0.3640724    -2.5510545    
C     -1.7345710    -0.5767457    -3.4445398    
C     -2.1659216    -1.8153843    -2.9997022    
C     -2.1270542    -2.1018476    -1.6412828    
N     -2.5734278    -3.3374503    -1.1573890    
C     -1.6610460    -1.1523021    -0.7389172    
S     -1.9567036    -4.0528304     0.1990608    
O     -2.1931020    -5.4692796     0.0423339    
O     -0.6000023    -3.6360146     0.4470739    
C     -3.0263894    -3.4737490     1.5404686    
N     -2.7502803    -2.2873592     2.0395883    
C     -3.4988876    -1.8290785     3.0256153    
C     -4.5591954    -2.5667245     3.5476701    
C     -4.8485263    -3.8198467     3.0147752    
C     -4.0543737    -4.2884604     1.9772564    
C     -5.4083308    -2.0167868     4.6591855    
F     -5.6840036    -2.9380974     5.5980075    
F     -6.6027582    -1.5788266     4.2117847    
F     -4.8438910    -0.9817592     5.2940219    
H      3.2861674     0.6116522    -1.9879646    
H      3.8138005    -0.0213665    -0.4254891    
H      0.5907854    -1.1413046    -0.2405545    
H      4.4424786     1.5812014     1.4145240    
H      2.6815741     1.6484399     1.4846182    
H      2.8294734     4.1669536     1.2827127    
H      4.5790235     4.0308044     1.4492251    
H      3.5614096     4.5006927     3.6418195    
H      4.2817333     2.8900165     3.6510639    
H      2.5335611     3.0757875     3.5046961    
H      5.6389173     1.9662397    -0.7157767    
H      5.0182337     3.6215074    -0.6630100    
H      3.9108397     3.2057376    -2.8961703    
H      4.8437921     1.7000310    -3.0156058    
H      5.1255398     5.3793408    -2.6980487    
H      7.0902935     6.6627429    -3.4414850    
H      9.1070238     5.4836023    -4.2379571    
H      9.1469032     3.0171264    -4.2784053    
H      7.1833901     1.7398290    -3.5314932    
H     -1.1604029     2.0887899    -0.5086683    
H     -0.3205378     0.0240558     1.5780156    
H     -1.9701847     0.6291368     1.3760070    
H     -0.7504927     1.8963684     3.1338728    
H     -1.1817122     2.9486565     1.7813222    
H      0.4694681     2.3765362     1.9528540    
H     -0.9200715     1.3278673    -2.9010177    
H     -1.7673862    -0.3485703    -4.4983739    
H     -2.5328527    -2.5493864    -3.6992469    
H     -2.8979479    -4.0000053    -1.8447398    
H     -1.6615837    -1.4019024     0.3083659    
H     -3.2410899    -0.8515843     3.4075704    
H     -5.6654919    -4.4087612     3.4026332    
H     -4.2037496    -5.2505075     1.5176714    
