66

C     -2.2517421    -2.3832573    -2.0991097    
C     -3.3846236    -2.9241585    -4.1243590    
C     -4.1475873    -3.3666594    -6.1190328    
C     -2.8534237    -3.1451301    -6.4536877    
C     -2.4331625    -2.1926782    -0.5955847    
C     -1.2592641    -0.1468874     0.0520491    
C      0.0937287     0.1989947     0.5090875    
C      0.6427207     1.4334006     0.8022974    
C      1.9750808     1.4931863     1.2098312    
C      2.6033446     2.7803067     1.5261543    
C      1.8986812     3.7856075     2.1870676    
C      2.4917395     4.9890663     2.4971876    
C      3.8210220     5.2547498     2.1426264    
C      5.8439780     6.6449964     2.4691002    
C      6.2428588     7.5042698     3.6703167    
C      4.0603633     8.5782916     3.6145404    
C      3.7041259     7.7081133     2.4118072    
C      4.5224395     4.2490457     1.4681755    
C      3.9266941     3.0403620     1.1769889    
C      2.7093903     0.3066718     1.3142998    
C      2.1577959    -0.9282354     1.0167498    
C      0.8400551    -0.9764852     0.6081178    
C     -0.0155720    -2.1330580     0.2077462    
C     -2.6685607    -3.5182310     0.0909249    
C     -2.0073062    -4.6646359    -0.3252706    
C     -2.2176354    -5.8494464     0.3515404    
C     -3.0627828    -5.9319112     1.4404660    
C     -3.7203015    -4.7887091     1.8552125    
C     -3.5350346    -3.5775845     1.1915658    
F     -1.5608490    -6.9687388    -0.0678401    
N     -3.3815761    -2.7228672    -2.7665418    
N     -4.4394682    -3.2392969    -4.7985230    
N     -1.2946616    -1.4999302    -0.0420938    
N      4.4120870     6.4497170     2.5005353    
N      5.5247779     8.7977119     3.6232485    
O     -1.1796802    -2.2525278    -2.6693743    
O     -2.2081957     0.5939735    -0.1931216    
O     -4.1665528    -2.4460772     1.5653575    
S     -1.9168166    -2.7516310    -5.0539226    
H     -4.9419294    -3.6261736    -6.7926700    
H     -2.3965234    -3.1896097    -7.4194666    
H     -3.2923072    -1.5292731    -0.4247486    
H      0.0441941     2.3248710     0.6921657    
H      0.8777023     3.6040578     2.4899184    
H      1.9144108     5.7183927     3.0428887    
H      6.3492884     5.6858009     2.5578206    
H      6.1647074     7.1229625     1.5321194    
H      7.3184271     7.6754979     3.6619631    
H      5.9667459     6.9852177     4.5883334    
H      3.7756605     8.0667431     4.5338770    
H      3.5397246     9.5329300     3.5543506    
H      3.9826577     8.2282984     1.4828305    
H      2.6308208     7.5386884     2.3811955    
H      5.5363167     4.4078390     1.1386479    
H      4.4886045     2.2942433     0.6344242    
H      3.7333024     0.3545138     1.6521632    
H      2.7450224    -1.8289625     1.1036732    
H     -0.1032870    -2.8895860     0.9934768    
H      0.3559982    -2.6114808    -0.7051055    
H     -1.3343565    -4.6409508    -1.1671788    
H     -3.1994654    -6.8721537     1.9480464    
H     -4.3812752    -4.8391088     2.7062157    
H     -4.2709899    -2.8178855    -2.2914986    
H      5.7929515     9.2982521     2.7661775    
H      5.7911872     9.3779844     4.4265375    
H     -4.7400567    -2.5998344     2.3330788    
