52

C     -1.4949300    -3.0405577     5.8252924    
C     -0.7627252    -1.9461268     5.0838233    
S     -0.1398502    -2.6175236     3.5203389    
O      0.5212210    -1.5688884     2.7532808    
O      0.7164333    -3.7593036     3.8178000    
C     -1.5287851    -3.2237625     2.5574756    
C     -2.2667735    -2.3312513     1.7938332    
C     -3.3494451    -2.8138704     1.0638567    
C     -3.6628657    -4.1631580     1.0955370    
C     -2.9010742    -5.0463305     1.8457797    
C     -1.8264002    -4.5730329     2.5816076    
C     -1.9593070    -0.8676020     1.8735859    
O     -2.1406695    -0.2701445     2.9370738    
N     -1.5678045    -0.2534787     0.7548892    
C     -1.3299680    -0.9324793    -0.5043674    
C     -0.1178239    -0.3404001    -1.2094472    
N     -0.3149699     1.0793297    -1.4241721    
C     -1.3299133     1.7328265    -0.6209849    
C     -1.2944050     1.1829849     0.8034405    
C      0.0393359     1.4864219     1.4904615    
C      0.5924332     1.7953830    -2.0816073    
N      0.5714792     3.0760836    -2.2414052    
C      1.6166631     3.5161173    -2.9961139    
C      2.4987112     2.5044484    -3.4470682    
S      1.9652063     0.9511896    -2.8738619    
C      3.6025886     2.7894831    -4.2259372    
C      3.8058710     4.1173110    -4.5459522    
F      4.8905619     4.4382212    -5.3164347    
C      2.9684310     5.1391047    -4.1248476    
C      1.8681375     4.8395414    -3.3457467    
H     -1.7804983    -2.6960573     6.8151705    
H     -0.8450102    -3.9071259     5.9252325    
H     -2.3913006    -3.3316967     5.2837809    
H      0.1235853    -1.5997796     5.6078743    
H     -1.3963162    -1.1078750     4.8076181    
H     -3.9478990    -2.1290579     0.4851039    
H     -4.5050851    -4.5261984     0.5288706    
H     -3.1419767    -6.0967420     1.8626550    
H     -1.2007398    -5.2239438     3.1707260    
H     -2.2110003    -0.8359421    -1.1470102    
H     -1.1433156    -1.9897924    -0.3161060    
H      0.0222011    -0.8345057    -2.1759554    
H      0.7800117    -0.5189710    -0.6035174    
H     -2.3133894     1.5672310    -1.0681629    
H     -1.1194565     2.8014045    -0.6180797    
H     -2.0981223     1.6317444     1.3978157    
H      0.0509817     2.5157740     1.8364233    
H      0.8781684     1.3396876     0.8160697    
H      0.1741402     0.8247816     2.3433060    
H      4.2777456     2.0239659    -4.5698385    
H      3.1892398     6.1535920    -4.4129507    
H      1.2006157     5.6128280    -3.0065524    
