65

O     -1.2666899     2.6698230     2.3335139    
C     -0.0139368     2.0224695     2.2276338    
C      0.8695318     2.3846562     3.4230407    
N      0.2101678     1.6277969     4.5119067    
C      0.9382354     1.6278811     5.8053975    
C      2.0502014     0.6308445     5.9044897    
C      3.1568670     0.4019407     5.0390942    
N      3.4731967     0.9379235     3.8391126    
C      4.5722155     0.4665222     3.3020174    
N      5.3969490    -0.4527521     3.7873775    
C      5.1140902    -1.0168248     4.9665792    
N      5.9448762    -1.9688399     5.4203384    
C      3.9482231    -0.6004055     5.6402179    
N      3.3483068    -0.9637462     6.8121654    
C      2.2188703    -0.2321574     6.9627487    
C     -0.0720130     0.2891570     3.9370952    
C     -0.2305874     0.5077192     2.4206811    
C      0.7981060    -0.3062490     1.6415125    
S      0.7189893    -0.0184513    -0.1648736    
C     -0.6806184    -1.1116967    -0.5958018    
C     -0.9045581    -1.0833435    -2.0970864    
C     -2.0292826    -2.0437142    -2.4998941    
C     -2.2142091    -2.0546440    -3.9758597    
N     -1.3006976    -2.5803989    -4.8237353    
N     -1.7118685    -2.4349127    -6.0338670    
N     -2.8878303    -1.8258029    -6.0150791    
C     -3.2497718    -1.5589770    -4.7421617    
C     -3.6066645    -1.5039930    -7.2220569    
C     -3.9616962    -0.0391132    -7.2526042    
C     -2.9533948     0.9150690    -7.1921168    
C     -3.2650785     2.2621072    -7.1936716    
C     -4.5876588     2.6678975    -7.2597657    
C     -5.5956578     1.7223793    -7.3232614    
C     -5.2843112     0.3731308    -7.3152918    
H     -1.2684922     3.4923790     1.8314773    
H      0.4685649     2.2234597     1.2696343    
H      0.8676857     3.4501962     3.6424033    
H      1.8929072     2.0199625     3.2981560    
H     -0.6948902     2.0930395     4.6499703    
H      0.2307378     1.4097295     6.6064802    
H      1.3336170     2.6360386     5.9512068    
H      4.8481588     0.8703071     2.3355733    
H      6.7716493    -2.1624710     4.8831146    
H      5.8556687    -2.3503512     6.3434975    
H      1.5947924    -0.3560158     7.8257883    
H     -0.9587530    -0.1401822     4.3960069    
H      0.7838119    -0.3560404     4.1327842    
H     -1.2361564     0.2535360     2.0837190    
H      0.6643395    -1.3741357     1.8040166    
H      1.8106277    -0.0194111     1.9238860    
H     -1.5660013    -0.7585484    -0.0677951    
H     -0.4245287    -2.1185964    -0.2635102    
H      0.0110963    -1.3766148    -2.6148739    
H     -1.1551108    -0.0680988    -2.4133263    
H     -2.9654554    -1.7470945    -2.0258895    
H     -1.7695435    -3.0511964    -2.1706675    
H     -4.1635833    -1.0637783    -4.4944776    
H     -4.5108652    -2.1167241    -7.2762361    
H     -2.9482737    -1.7665184    -8.0529508    
H     -1.9226423     0.5964130    -7.1401249    
H     -2.4753748     2.9959950    -7.1449921    
H     -4.8301493     3.7190628    -7.2617887    
H     -6.6277273     2.0328582    -7.3746862    
H     -6.0744903    -0.3614057    -7.3628332    
H      3.6793575    -1.6518154     7.4678694    
