50

N      2.0790318    -1.7767171     0.3763490    
C      1.2158131    -1.3354125     1.5129470    
N     -0.6396429     1.8094896     0.6570575    
C      1.0547487     0.1888783     1.5147614    
C      3.4976522    -0.2539158     1.6880749    
O     -3.9450817     1.4527361    -3.6930191    
C      2.1358486    -3.2688394     2.9493179    
C     -0.4301052    -0.0374176    -0.5953081    
C      0.0986605    -1.3240951    -1.1488824    
C     -1.4470513     0.7803508    -1.1707457    
C      0.8774289    -4.1208617     2.7972127    
C     -1.5502173     1.9331089    -0.3529434    
C     -2.2683420     0.6487890    -2.2857566    
C     -2.4602912     2.9378976    -0.6405221    
C     -3.1734728     1.6581167    -2.5691983    
C     -3.2687090     2.7914949    -1.7501275    
C     -4.8969415     2.4275630    -4.0541707    
C      1.8679838    -1.7603057     2.8381694    
C      2.4559067     0.8159678     1.3479840    
C      3.1507848    -0.9224842     3.0201505    
C      3.4870515    -1.3293449     0.6049949    
C      0.0385992     0.6279364     0.5085224    
C      1.6137347    -1.3844529    -0.9851224    
H      2.0537101    -2.7990850     0.4144401    
H      0.2381884    -1.8045943     1.4096446    
H      0.6646483     0.4643661     2.4989872    
H      4.4906520     0.1946249     1.7381497    
H      2.8898001    -3.5988013     2.2331758    
H      2.5511017    -3.4504980     3.9423828    
H     -0.1291937    -1.3501238    -2.2144996    
H     -0.3933807    -2.1907544    -0.7011657    
H      0.1098574    -3.7963867     3.4955184    
H      0.4638302    -4.0798975     1.7932225    
H      1.1058237    -5.1609717     3.0163208    
H     -2.2282853    -0.2099452    -2.9365140    
H     -2.5464194     3.8166116    -0.0199234    
H     -3.9811255     3.5673180    -1.9801706    
H     -5.6575232     2.5509548    -3.2774856    
H     -4.4234985     3.3913770    -4.2630842    
H     -5.3645689     2.0510509    -4.9615038    
H      1.1541806    -1.5144351     3.6289221    
H      2.5711380     1.6707103     2.0118851    
H      2.6037010     1.1753722     0.3298622    
H      3.0132591    -0.1624171     3.7879111    
H      3.9749656    -1.5588540     3.3416018    
H      3.8960716    -0.9412090    -0.3264108    
H      4.0999722    -2.1718032     0.9226769    
H      2.0428012    -2.0967785    -1.6905349    
H      2.0018954    -0.3920592    -1.2117611    
H     -0.4864955     2.4833259     1.3877644    
