34

C      3.3990442    -1.7071631    -4.2021593    
C      4.5005125    -0.9936024    -3.7493972    
N      2.1589663    -1.4578172    -3.8174311    
C      1.9588968    -0.4781521    -2.9424251    
C      2.9942960     0.3007552    -2.4277950    
C      4.2888029     0.0368099    -2.8467660    
C      0.5330765    -0.2000671    -2.5537738    
N      0.3561669    -0.1772904    -1.2093997    
C     -0.8154006     0.0426017    -0.4739246    
C     -0.7219296    -0.0419608     0.9135162    
C     -1.8424677     0.1701024     1.7076739    
C     -3.0696712     0.4476968     1.1076811    
C     -3.1551762     0.5344028    -0.2684552    
C     -2.0385434     0.3433791    -1.0647681    
O     -0.3360533     0.0087755    -3.3851277    
C     -1.7715773     0.0880392     3.1596157    
N     -0.7541906     0.5666380     3.9403742    
C     -1.1487777     0.2685428     5.2025534    
N     -2.2992771    -0.3413488     5.2010807    
N     -2.6951126    -0.4509259     3.9211324    
C      0.4292082     1.2906601     3.5606251    
H      3.5054098    -2.5192202    -4.9073233    
H      5.4906123    -1.2381246    -4.0971882    
H      2.7860956     1.1052482    -1.7400508    
H      5.1145364     0.6240344    -2.4745182    
H      1.1667729    -0.4042535    -0.6462163    
H      0.2210275    -0.3099174     1.3640582    
H     -3.9358685     0.5904201     1.7327222    
H     -4.1028043     0.7553581    -0.7334168    
H     -2.1107941     0.4130953    -2.1370493    
H     -0.5861072     0.5076549     6.0804276    
H      0.2460088     1.8121120     2.6229096    
H      1.2726847     0.6085757     3.4439602    
H      0.6663498     2.0138255     4.3394683    
