34

O      5.6782440    -1.4968029    -1.0714552    
C      4.6070866    -1.2873476    -0.4500352    
O      4.4187962    -1.4121714     0.7749911    
C      3.4123779    -0.8321143    -1.2630955    
N      2.2805764    -0.6144280    -0.5432320    
C      3.4420926    -0.6398183    -2.6182343    
O      4.5632335    -0.8472067    -3.3413700    
C      2.2373534    -0.1887357    -3.3155978    
O      2.2067543     0.0075736    -4.5481119    
C      1.1013910     0.0094550    -2.4664562    
C      1.1326969    -0.2055210    -1.1147768    
C     -0.0120758     0.0492511    -0.2216395    
C     -1.2924938    -0.4589491    -0.4734795    
C     -1.5919570    -1.3435530    -1.6421312    
C     -2.3182160    -0.1445524     0.4087149    
C      0.2090597     0.8324096     0.9139583    
C     -0.8160443     1.1419646     1.7797038    
C     -2.1008834     0.6566840     1.5266866    
C     -3.1763637     0.9943805     2.4374679    
N     -3.0330290     1.7167045     3.5013181    
O     -4.2797480     1.8128513     4.0959368    
C     -5.1795583     1.1277128     3.3594078    
O     -6.3526643     1.0245218     3.6169632    
N     -4.4870305     0.6001685     2.3010403    
H      5.2633917    -1.1371810    -2.6944832    
H     -1.9486207    -0.7467299    -2.4804031    
H     -0.7044409    -1.8779618    -1.9689023    
H     -2.3686257    -2.0592222    -1.3852960    
H     -3.2974165    -0.5467669     0.2041687    
H      1.1999756     1.2175088     1.0988613    
H     -0.6482452     1.7530876     2.6497828    
H     -4.8981524     0.0425472     1.5691232    
H      0.2041744     0.3718263    -2.9399802    
H      2.3793545    -0.8025549     0.4532516    
