41

C      0.8186564    -1.1170351    -1.5128977    
C     -2.1772823    -1.0858261     3.8099926    
C     -1.2772641    -0.0630010    -0.9986553    
C      1.6301246     2.3838469    -0.6515831    
C      3.1243124     1.1623732     0.8865551    
C      0.4536052    -1.1476138    -2.8493985    
C     -1.6317347    -0.0899551    -2.3425247    
C      2.1492497    -1.6946416    -1.1255913    
C     -0.7623610    -0.6280172    -3.2747326    
C      1.8945034     1.5032243     0.5311558    
O     -2.1966529     0.4846205    -0.1522057    
O     -1.0566896    -0.6756062    -4.6038671    
C      0.6652938     1.0246448     1.2685445    
C      0.3400920    -0.4414679     0.8978242    
C      0.8057357     1.1219840     2.7895948    
C     -0.5308069     0.8197447     3.4591015    
C     -0.7317406    -1.0026250     1.7966052    
C     -1.1233902    -0.4633477     2.9465411    
C     -0.0440258    -0.5588553    -0.5635616    
H     -2.6425252    -1.9335695     3.3137698    
H     -1.7372955    -1.4292049     4.7458047    
H     -2.9450233    -0.3540422     4.0569813    
H      2.5557556     2.6613116    -1.1487547    
H      0.9881139     1.8663364    -1.3651928    
H      1.1146493     3.2908942    -0.3359905    
H      3.3309090     0.5279001     1.7311137    
H      3.9848770     1.5105318     0.3398878    
H      1.1124261    -1.5730626    -3.5899863    
H     -2.5914208     0.3151454    -2.6255722    
H      2.0224959    -2.5212326    -0.4278484    
H      2.6629582    -2.0688547    -2.0067023    
H      2.7745659    -0.9372412    -0.6562831    
H     -1.9541724     0.2725001     0.7678374    
H     -1.9290447    -0.2883415    -4.7685844    
H     -0.1747887     1.6577476     0.9641221    
H      1.2450467    -1.0328995     1.0634657    
H      1.1496778     2.1202636     3.0651619    
H      1.5478810     0.4015915     3.1353186    
H     -1.2343490     1.6382861     3.2745615    
H     -0.3983764     0.7501037     4.5411753    
H     -1.1617213    -1.9381939     1.4606714    
