68

N     -6.3596811    -0.0829753    -6.7583963    
N      5.5235681    -1.7798816     4.0723622    
C     -3.9622284     1.6489605    -2.9632275    
C     -3.0989436     1.9987423    -1.9056547    
C     -3.1479145     3.2850700    -1.3408955    
C     -2.2726384     3.5844266    -0.3065486    
C     -1.3578924     2.6574195     0.1588561    
C     -2.1959919     1.0550996    -1.4234963    
C      1.9043579     0.0924396     1.0022014    
C      4.2294804     0.0833025     1.6297852    
C      2.9178758    -1.8882286     1.9284904    
C      5.3914351    -1.9157542     2.5929324    
C      6.6516101    -2.5977882     4.5779885    
C      6.7451961    -2.4981483     6.0945109    
C      5.7251100    -0.3728503     4.4909881    
C     -8.4471305     1.2646915    -6.8587884    
C     -9.0884243     2.2889042    -6.2109762    
C     -8.4737164     2.8794149    -5.0864955    
N     -7.3188859     2.5146238    -4.6093543    
N     -6.7077009     1.5260277    -5.2402932    
C     -7.2045378     0.8601114    -6.3610919    
C     -5.3301650    -0.0349683    -5.9035270    
C     -5.5064703     0.9525774    -4.9391651    
C     -4.6869199     1.3338272    -3.8780864    
C     -1.3120360     1.3810364    -0.4025888    
C     -4.1202227     4.2928209    -1.8574078    
C     -0.3840470     0.3266504     0.0778377    
O     -0.6851802    -0.8597902     0.0782600    
N      0.8262202     0.8014678     0.4974924    
C      3.1317829     0.7456241     1.1230477    
C      4.1543582    -1.2424665     2.0512743    
C      1.8097897    -1.2381201     1.4071511    
C      2.7579815    -3.3277806     2.3322683    
F      1.4978123    -3.7620866     2.3442330    
F      3.4576363    -4.1732408     1.5428487    
F      3.2423541    -3.5539960     3.5820409    
C      5.8279930    -0.2706478     6.0065460    
C      7.0675173    -0.9859958     7.9813731    
N      6.9446722    -1.0952558     6.5178419    
H      4.6557540    -2.1284886     4.5007782    
H     -2.3109721     4.5656507     0.1428055    
H     -0.7192212     2.9224020     0.9870476    
H     -2.1733221     0.0623337    -1.8485043    
H      5.1696901     0.6080277     1.6759110    
H      5.3889010    -2.9764059     2.3398329    
H      6.2674915    -1.4590807     2.1298939    
H      7.5683771    -2.2473285     4.1003120    
H      6.5011541    -3.6414095     4.3001404    
H      7.5793059    -3.1094312     6.4404492    
H      5.8358542    -2.8759151     6.5664396    
H      4.8857226     0.2326407     4.1485112    
H      6.6344768    -0.0057345     4.0121362    
H     -8.8564546     0.7659522    -7.7210398    
H     -10.0482771     2.6450450    -6.5425606    
H     -8.9480626     3.6858713    -4.5508462    
H     -4.5000106    -0.7054140    -6.0029096    
H     -3.8485247     4.5874234    -2.8701741    
H     -5.1192092     3.8655484    -1.9078461    
H     -4.1391000     5.1771485    -1.2285333    
H      0.9996570     1.7852379     0.3285498    
H      3.2230504     1.7726629     0.8057212    
H      0.8724428    -1.7587054     1.3061228    
H      4.9062141    -0.6044281     6.4867811    
H      5.9892712     0.7723177     6.2798589    
H      6.1628904    -1.3498140     8.4623462    
H      7.9092667    -1.5741571     8.3357466    
H      7.2236259     0.0492761     8.2708439    
H      7.8232970    -0.7524306     6.1068637    
