40

C     -0.9616367    -2.8446642     1.9419705    
C     -2.1710985    -2.5634563     1.3224405    
C     -2.2576899    -1.6110387     0.3178977    
C      1.5170444    -2.4948853     2.1837105    
C      2.1306957    -3.7474814     1.5570048    
C     -1.1705140     0.1460022    -1.0772188    
C     -0.9012684     1.9048886    -2.4175213    
C     -0.3539333     1.2593489    -1.2852718    
C      0.7522888     1.7378129    -0.4611083    
C      2.8468745     2.7180600     1.1262399    
C      1.6218673     2.4062801     1.6952347    
C      0.5900655     1.9281589     0.9120158    
C     -1.1110897    -0.9027967    -0.0741825    
C      0.0957767    -1.2198884     0.5481168    
C      0.1976876    -2.1661839     1.5475952    
O     -0.8662712    -3.7701526     2.9299192    
O     -3.4460496    -1.3441220    -0.2908155    
N     -2.1007960     0.1880467    -2.0564529    
N     -1.9577107     1.2414278    -2.8605004    
C      1.9954935     2.0536548    -0.9950720    
C      3.0382692     2.5404713    -0.2313980    
F      2.2266447     1.8513355    -2.3290800    
C     -0.4584631     3.1768551    -3.0462272    
H     -3.0629425    -3.0952428     1.6266658    
H      2.1980732    -1.6517461     2.0593316    
H      1.3656971    -2.6705173     3.2498641    
H      3.0855403    -3.9732983     2.0229732    
H      2.2880577    -3.5976933     0.4920000    
H      1.4681596    -4.5977852     1.6947154    
H      3.6521347     3.0949839     1.7360413    
H      1.4708287     2.5380764     2.7549045    
H     -0.3654750     1.6887347     1.3528837    
H      0.9885421    -0.7052260     0.2301977    
H     -1.7336057    -4.1540648     3.1282973    
H     -4.1647278    -1.8457009     0.1237745    
H     -2.8678532    -0.4539531    -2.1833488    
H      3.9792431     2.7654966    -0.7076631    
H     -1.2270170     3.5264184    -3.7282647    
H      0.4639681     3.0278670    -3.6049408    
H     -0.2744438     3.9307969    -2.2832584    
