16

C     -0.1302118     1.2325330    -1.3860159    
C     -0.7376864    -0.0802288     0.1839225    
C     -1.3751337    -0.8523309     1.1405942    
C     -0.5590018    -1.6410869     1.9418420    
C      0.8188220    -1.6360625     1.7713402    
C      0.6795795    -0.1609032     0.1066751    
N     -0.1382689     2.1156734    -2.3911489    
N     -1.2031782     0.7978949    -0.7625527    
N      1.4629738    -0.9054143     0.8616722    
N      1.0409437     0.6885839    -0.9058799    
H     -2.4475205    -0.8401781     1.2550485    
H     -0.9935102    -2.2663348     2.7059906    
H      1.4564320    -2.2488422     2.3927040    
H     -1.0226683     2.4737500    -2.6997503    
H      0.7157150     2.4041443    -2.8298551    
H      1.9773926     0.8718213    -1.2236888    
