49

C      0.9844769     0.5464352     1.7709299    
C      2.0219891     1.0655424     2.5442363    
C      2.7218354     0.1821020     3.3442077    
C      1.2852870    -3.4356182    -0.3205084    
C      2.0420582    -3.8825976     1.9103254    
C      0.4586317    -3.5637756     3.8662208    
C      1.4919722    -2.2706164    -1.2895141    
C     -2.5867182     2.3527927    -1.5934364    
C     -2.8236359     3.6485404    -2.0587353    
C     -2.0058176     4.6784733    -1.6249565    
C     -0.9739781     4.3793423    -0.7363806    
C     -0.8107557     3.0528583    -0.3160679    
C      0.2626622     2.6243551     0.6492092    
C     -3.9595917     3.8989506    -3.0104016    
C      2.3552443    -1.1517962     3.3394260    
C      1.3049524    -1.6012323     2.5411402    
N      0.6562202    -0.7428467     1.7752259    
F      3.0586473    -2.0099601     4.1283849    
C      0.8750539    -3.0601088     2.4809510    
N     -0.2656721    -3.1954738     1.6075393    
C     -0.0929460    -3.3492253     0.3579996    
O      2.3603879    -3.4173171     0.6071353    
N     -1.1616538    -3.3887250    -0.4591133    
N     -1.6136774     2.0864160    -0.7543162    
N      0.1891597     1.3035925     0.9264103    
O      1.0875481     3.3975316     1.1094951    
Cl     0.0442122     5.6539885    -0.1998388    
F     -5.1551784     3.6191719    -2.4560736    
F     -4.0296555     5.1652690    -3.4377638    
F     -3.8789269     3.1289119    -4.1115771    
C      1.4139052    -4.7702635    -1.0863902    
F      0.6470519    -4.8423646    -2.1902879    
F      2.6711005    -4.9931580    -1.4995323    
F      1.0718325    -5.8391165    -0.3403674    
H      2.2658764     2.1132876     2.5118980    
H      3.5403976     0.5086026     3.9651609    
H      1.7631882    -4.9439999     1.8922361    
H      2.9622087    -3.7632626     2.4803872    
H     -0.3714415    -2.9637927     4.2253139    
H      1.2837471    -3.5094507     4.5687078    
H      0.1318870    -4.5961590     3.7830988    
H      2.5004960    -2.3207388    -1.6932968    
H      1.3781135    -1.3464742    -0.7302494    
H      0.7679226    -2.3030377    -2.0967201    
H     -3.1955788     1.5162476    -1.9051212    
H     -2.1508689     5.6936589    -1.9597006    
H     -2.0582437    -3.3840070    -0.0021378    
H     -1.1033814    -3.7041244    -1.4095285    
H     -0.5563055     0.7876286     0.4595541    
