277

N     -11.9309027    -5.3454787     2.9598292    
C     -11.6896134    -4.9672618     4.3627856    
C     -10.2004907    -4.6401240     4.5120574    
O     -9.3788107    -5.0461405     3.6973904    
C     -12.0606684    -6.1477694     5.2897196    
O     -11.3033036    -7.2431726     4.8161168    
C     -13.5631074    -6.4235928     5.2734428    
N     -9.8666024    -3.9808296     5.6213170    
C     -8.6347946    -3.2243276     5.7542353    
C     -7.4437906    -3.8742376     5.0645275    
O     -6.7924110    -3.2556245     4.2272302    
C     -8.3785171    -2.9913693     7.2665753    
O     -9.5478856    -2.4797751     7.8602709    
C     -7.1677237    -2.0939750     7.4824556    
N     -7.0869920    -5.0955155     5.4738741    
C     -5.8667053    -5.7026865     4.9735301    
C     -5.9063404    -5.8861465     3.4531977    
O     -4.9600045    -5.5641952     2.7415648    
C     -5.6058959    -7.0535384     5.6511144    
C     -4.2881189    -7.6064232     5.1767854    
C     -4.2302103    -8.5327254     4.1435382    
C     -3.0989206    -7.1570962     5.7344126    
C     -3.0185120    -9.0101430     3.6869362    
C     -1.8790944    -7.6277343     5.2864383    
C     -1.8314997    -8.5631111     4.2599207    
O     -0.6596199    -9.0609816     3.7796671    
N     -7.0050743    -6.4785975     2.9818972    
C     -7.2003870    -6.6692531     1.5579486    
C     -7.1262527    -5.3338112     0.8126453    
O     -6.5302563    -5.2243856    -0.2562733    
C     -8.5569066    -7.3130086     1.3058954    
N     -7.7556065    -4.3277241     1.4148326    
C     -7.8647946    -3.0101748     0.8203124    
C     -6.4610375    -2.4385041     0.6033997    
O     -6.1334036    -1.8807886    -0.4431951    
C     -8.6709395    -2.0884703     1.7319482    
C     -10.0086072    -2.7107142     2.1966091    
O     -10.5178589    -3.6203808     1.4969619    
O     -10.4836449    -2.2998399     3.2677554    
N     -5.6458431    -2.5859462     1.6433032    
C     -4.2466143    -2.2042250     1.6237547    
C     -3.5349418    -2.8725060     0.4463632    
O     -2.8832431    -2.2168844    -0.3671708    
C     -3.5969728    -2.6230620     2.9501235    
C     -2.1022237    -2.7653220     2.8485567    
C     -1.2965472    -1.6878326     2.5019252    
C     -1.5099337    -3.9952476     3.1062519    
C      0.0770425    -1.8336497     2.4221678    
C     -0.1350090    -4.1400468     3.0408104    
C      0.6606595    -3.0590789     2.7009294    
N     -3.6428377    -4.1924089     0.3653347    
C     -3.0069653    -4.8956917    -0.7330253    
C     -3.4235031    -4.2377041    -2.0578559    
O     -2.5992884    -3.8289008    -2.8724722    
C     -3.3661544    -6.3876603    -0.7241232    
C     -2.8721581    -7.1011345     0.5456028    
C     -2.8264127    -7.0569951    -1.9884672    
C     -1.3657940    -7.0514392     0.7727468    
N     -4.7414856    -4.1610132    -2.2412819    
C     -5.3474641    -3.6795857    -3.4665537    
C     -4.7919941    -2.3163095    -3.8811894    
O     -4.5445249    -2.0529014    -5.0540377    
C     -6.8565125    -3.5743495    -3.2801426    
N     -4.6229922    -1.4461423    -2.8806046    
C     -4.2010974    -0.0866836    -3.1349702    
C     -2.9065368    -0.0300065    -3.9454769    
O     -2.6493258     0.9370142    -4.6527638    
C     -3.9768302     0.6784494    -1.8147035    
O     -2.7747299     0.3668599    -1.1677580    
N     -2.0392111    -1.0205842    -3.7070806    
C     -0.7678222    -1.0787037    -4.3798055    
C      0.3793070    -0.5548495    -3.5258859    
O      1.5482866    -0.6312738    -3.9137773    
N      0.0424194    -0.0330959    -2.3501933    
C      0.9754733     0.6394783    -1.4694353    
C      1.7658952    -0.3369071    -0.5792155    
O      2.0819018    -0.0520713     0.5656636    
C      0.2173113     1.6456757    -0.6095091    
C     -0.2921789     2.8339142    -1.4239519    
C     -1.2178127     3.7128291    -0.5751002    
N     -0.5801383     4.1525912     0.6508782    
C      0.3386720     5.1049878     0.7442716    
N      0.6907861     5.8417442    -0.2989747    
N      0.9856301     5.2638074     1.9100944    
N      2.1004046    -1.4814570    -1.1785920    
C      2.8704814    -2.5193702    -0.5495159    
C      4.3743882    -2.3932124    -0.8263166    
O      5.1997130    -2.8729311    -0.0580446    
C      2.4096626    -3.8958548    -1.0663192    
O      2.6860032    -3.9045028    -2.4550199    
C      0.9319801    -4.1430312    -0.7751943    
N      4.7004692    -1.7665590    -1.9587028    
C      6.0743911    -1.4830920    -2.2877585    
C      6.5628560    -0.2567373    -1.5192239    
O      5.8468512     0.3471988    -0.7299932    
N      7.8491383     0.0596007    -1.7207049    
C      8.3639093     1.3123522    -1.2018044    
C      7.5614967     2.4741105    -1.8130164    
O      6.9338020     2.3463233    -2.8569420    
C      9.8516815     1.4709072    -1.5055070    
C      10.6994003     0.5200601    -0.6615035    
C      12.1878448     0.6765383    -0.9955985    
N      13.0267202    -0.1320693    -0.1340857    
C      13.2446996    -1.4382367    -0.2684933    
N      12.7517707    -2.1198692    -1.2953827    
N      13.9683951    -2.0704442     0.6512145    
N      7.5631589     3.5753148    -1.0592564    
C      7.0168443     4.8520220    -1.4668424    
C      8.0578052     5.9161435    -1.1210993    
O      9.0373977     5.6528564    -0.4340284    
C      5.6834165     5.0994681    -0.7422400    
C      4.5293456     4.3341312    -1.4090120    
C      3.5618184     3.7506347    -0.3826437    
N      4.1762159     2.6077898     0.2637930    
C      3.7923941     2.0507858     1.4054822    
N      2.8444299     2.5958656     2.1589576    
N      4.4648359     0.9864413     1.8490231    
N      7.7748672     7.1410188    -1.5737076    
C      8.7040956     8.2375416    -1.4953333    
C      7.9069871     9.5405373    -1.4002281    
O      6.7398447     9.5937115    -1.7618894    
C      9.5735775     8.3092209    -2.7728835    
C      10.2991942     6.9884108    -2.9848906    
O      9.7144288     5.9796184    -3.3648615    
N      11.6043970     6.9978974    -2.7036105    
N      8.5715913     10.5780934    -0.8683631    
C      8.0516169     11.9201037    -1.0577537    
C      7.9153629     12.1706716    -2.5725368    
O      8.5925424     11.5356836    -3.3767940    
C      8.9739112     12.9525921    -0.4267546    
N      6.9863344     13.0662504    -2.8944987    
C      6.7508238     13.5673015    -4.2252363    
C      6.6067875     15.1249772    -4.1316504    
O      6.5328136     15.6014205    -2.9795410    
C      5.4829478     12.9553352    -4.8526229    
C      4.2747421     13.1881593    -3.9369145    
C      5.6967913     11.4715454    -5.1418237    
C      2.9403543     12.9256015    -4.6257791    
O      6.5721218     15.7499765    -5.2049402    
H     -11.4299552    -4.6493613     2.3018456    
H     -11.5289063    -6.2811736     2.8176803    
H     -12.9273767    -5.3563074     2.7359035    
H     -12.2654246    -4.0743915     4.6109717    
H     -11.7516956    -5.8868427     6.3116943    
H     -11.5353432    -8.0425707     5.3058705    
H     -13.8791997    -6.8222946     4.3139766    
H     -13.8155102    -7.1519529     6.0393305    
H     -14.1143239    -5.5128098     5.4849924    
H     -10.5916337    -3.6332031     6.2394291    
H     -8.7810081    -2.2513897     5.2590028    
H     -8.2234420    -3.9597163     7.7536728    
H     -9.6225515    -1.5334684     7.6726554    
H     -6.2739256    -2.5629392     7.0824610    
H     -7.3102472    -1.1408922     6.9776610    
H     -7.0287320    -1.9150621     8.5449505    
H     -7.6558342    -5.6121380     6.1268926    
H     -5.0302956    -5.0204779     5.1764162    
H     -6.4103682    -7.7464554     5.4053921    
H     -5.5752411    -6.9020302     6.7308507    
H     -5.1414952    -8.8932931     3.6905564    
H     -3.1211797    -6.4329992     6.5349598    
H     -2.9670796    -9.7338380     2.8890600    
H     -0.9642178    -7.2689375     5.7345557    
H      0.0857577    -8.7660050     4.3237891    
H     -7.8332218    -6.5299106     3.5614851    
H     -6.3862300    -7.2948754     1.1720891    
H     -8.6176487    -8.2686059     1.8178385    
H     -9.3359223    -6.6479067     1.6677363    
H     -8.6982520    -7.4727145     0.2408821    
H     -8.3073236    -4.5112868     2.2461053    
H     -8.3545652    -3.0920632    -0.1593773    
H     -8.8942553    -1.1554024     1.2119521    
H     -8.1009103    -1.8536509     2.6329662    
H     -6.0024461    -2.9960747     2.5011131    
H     -4.1682674    -1.1215397     1.4616481    
H     -4.0180583    -3.5872344     3.2360826    
H     -3.8622595    -1.8914609     3.7155268    
H     -1.7520045    -0.7335387     2.2895437    
H     -2.1293766    -4.8448759     3.3579653    
H      0.6950375    -1.0004887     2.1280256    
H      0.3122394    -5.1008013     3.2469628    
H      1.7330544    -3.1769652     2.6536446    
H     -4.1692937    -4.7193736     1.0523786    
H     -1.9207874    -4.7616123    -0.6591743    
H     -4.4594125    -6.4589656    -0.7375241    
H     -3.1814675    -8.1456922     0.4696900    
H     -3.3745482    -6.6814224     1.4186907    
H     -3.3199314    -6.6630548    -2.8743233    
H     -1.7608550    -6.8762188    -2.0988894    
H     -2.9980402    -8.1291477    -1.9495128    
H     -0.8281583    -7.4356564    -0.0892094    
H     -1.0352279    -6.0370441     0.9757229    
H     -1.1113959    -7.6715963     1.6277320    
H     -5.3756564    -4.5053836    -1.5268214    
H     -5.1120411    -4.3682667    -4.2903717    
H     -7.2643115    -4.5481769    -3.0228431    
H     -7.0756933    -2.8750763    -2.4763297    
H     -7.3200135    -3.2217997    -4.1969614    
H     -4.9820800    -1.6699098    -1.9573178    
H     -4.9653514     0.4402457    -3.7222398    
H     -4.8397080     0.4851185    -1.1645126    
H     -3.9312859     1.7444690    -2.0497766    
H     -2.8035737    -0.5687413    -0.8673781    
H     -2.3378433    -1.8574599    -3.2175307    
H     -0.8158693    -0.4545900    -5.2793772    
H     -0.5499251    -2.1036290    -4.6841473    
H     -0.9365136    -0.0137595    -2.0752791    
H      1.7234214     1.1370142    -2.1049133    
H      0.8895908     1.9691163     0.1838323    
H     -0.6309505     1.1236998    -0.1642125    
H     -0.8624255     2.4752663    -2.2819629    
H      0.5498048     3.4110139    -1.8070214    
H     -2.0944696     3.1272622    -0.3009223    
H     -1.5625523     4.5713608    -1.1547093    
H     -0.7445190     3.5741165     1.4607642    
H      1.3291575     6.6121991    -0.1961172    
H      0.2341071     5.7335508    -1.1878145    
H      1.8921071    -1.6252619    -2.1569266    
H      2.7238537    -2.4635780     0.5324313    
H      3.0204797    -4.6594190    -0.5601260    
H      2.3601834    -4.7257271    -2.8436515    
H      0.7331071    -4.0297287     0.2866863    
H      0.3100899    -3.4400453    -1.3259124    
H      0.6598176    -5.1518521    -1.0765194    
H      3.9766405    -1.4029481    -2.5599700    
H      6.1626308    -1.3139477    -3.3601621    
H      6.6853655    -2.3409551    -1.9900203    
H      8.3236588    -0.3417921    -2.5157433    
H      8.1916804     1.3153910    -0.1202913    
H      10.1387675     2.5040513    -1.3011904    
H      10.0156313     1.2972222    -2.5709135    
H      10.3771794    -0.5070333    -0.8292971    
H      10.5460545     0.7503773     0.3929842    
H      12.4795846     1.7175668    -0.8558640    
H      12.3734589     0.4258902    -2.0420884    
H      13.3513380     0.3090242     0.7127465    
H      14.1773089    -3.0494504     0.5592800    
H      14.3652075    -1.5775629     1.4318195    
H      8.2191443     3.6582435    -0.2896292    
H      6.8776882     4.8454538    -2.5532620    
H      5.4770600     6.1685939    -0.7279387    
H      5.8117436     4.7610900     0.2861209    
H      4.9318784     3.5221143    -2.0163764    
H      3.9922277     4.9972126    -2.0854980    
H      2.6422637     3.4429059    -0.8891100    
H      3.3358851     4.5141935     0.3630162    
H      4.8346628     2.0760577    -0.2925727    
H      2.6023884     2.1639942     3.0329636    
H      2.3940850     3.4567124     1.8939420    
H      6.9837639     7.3028729    -2.1825423    
H      9.3325675     8.0860619    -0.6129141    
H      10.2683563     9.1436367    -2.7087643    
H      8.9140471     8.4861087    -3.6256837    
H      12.1392765     6.1552390    -2.8425566    
H      12.0795775     7.8383799    -2.4254911    
H      9.5711043     10.5047830    -0.7454695    
H      7.0516338     11.9653167    -0.6153305    
H      9.0700964     12.7711354     0.6396121    
H      9.9555004     12.9137316    -0.8939932    
H      8.5681292     13.9492564    -0.5813484    
H      6.6210515     13.7044259    -2.1919546    
H      7.6173644     13.3459217    -4.8599085    
H      5.3273396     13.4985534    -5.7928493    
H      4.3026278     14.2282075    -3.5973956    
H      4.3717827     12.5451385    -3.0598970    
H      6.5745122     11.3358634    -5.7695604    
H      5.8569408     10.9297631    -4.2114839    
H      4.8347754     11.0566950    -5.6550594    
H      2.8536326     13.5423835    -5.5177486    
H      2.8514935     11.8824526    -4.9131854    
H      2.1222429     13.1753843    -3.9555061    
H      5.0352971     0.4896144     1.1802647    
H      4.0630661     0.4292557     2.5841606    
H      12.2427194    -1.6559905    -2.0268211    
H      12.9843953    -3.0894866    -1.4228786    
H      1.5351458     6.0980812     2.0472091    
H      0.5840070     4.8682811     2.7461142    
