57

C      3.1157457    -4.6733000    -2.3927073    
C      4.0209075    -5.3885143    -1.4153172    
O      2.1910875    -7.2803501    -0.9562843    
O      3.8629110    -6.8744956     0.7963782    
C      2.4348845    -4.2348983     1.4626201    
C      1.6091540    -3.2859286     2.0378847    
C      0.2647483    -3.2195137     1.6797287    
C     -0.2484718    -4.1083946     0.7420706    
C      0.5762373    -5.0607563     0.1670528    
C     -0.6152730    -2.1654258     2.2982234    
C     -0.9214834    -1.1153221     4.4618219    
C     -0.6835254    -1.2179899     5.9426877    
C     -0.6113164     1.0884614     0.4268397    
C     -1.3787102     1.8598827    -0.3902150    
C     -0.7547141     3.0973585    -0.7128335    
C     -2.8016525     4.5760473    -3.4872385    
C     -1.2150160     5.4790659    -1.3408419    
C     -0.3372429     7.1522332     0.1622165    
C     -3.5985254     4.1196962    -4.5558953    
S      2.9983542    -6.3090937    -0.2325110    
C      1.9060573    -5.1136540     0.5360695    
N     -0.5229125    -2.1838742     3.7466828    
O     -1.4489511    -0.1503897     3.9155030    
C     -0.1253395    -0.7894693     1.8120753    
O      0.9577533    -0.3371671     2.1545529    
N     -0.9237110    -0.1653477     0.9258152    
C      0.4753563     3.2069473    -0.1285174    
S      0.9008607     1.8362175     0.8193490    
C     -1.3825804     4.0924974    -1.5840885    
C     -2.1651547     3.6655302    -2.6439627    
C     -2.6461267     5.9410022    -3.2653618    
C     -1.8641551     6.3600424    -2.2102934    
F     -1.7468406     7.7132640    -2.0521220    
O     -0.4536631     5.8087933    -0.2825726    
N     -4.2523319     3.7448956    -5.4221876    
H      3.7010715    -4.2111618    -3.1825195    
H      2.5396093    -3.9030388    -1.8867799    
H      2.4295710    -5.3901738    -2.8370294    
H      4.6300988    -4.7151312    -0.8208578    
H      4.6451942    -6.1386616    -1.8925538    
H      3.4751693    -4.3138950     1.7323514    
H      2.0081036    -2.5725670     2.7415514    
H     -1.2885137    -4.0638589     0.4622387    
H      0.2100366    -5.7715957    -0.5554986    
H     -1.6606216    -2.3068530     1.9997733    
H     -1.1908806    -0.4005112     6.4457264    
H      0.3841211    -1.1441031     6.1367015    
H     -1.0469023    -2.1685506     6.3218766    
H     -2.3607064     1.5808662    -0.7225498    
H      0.2459331     7.0899714     1.0784061    
H     -1.3132464     7.5897464     0.3783342    
H      0.1888787     7.7708076    -0.5673283    
H     -0.0235934    -2.9420439     4.1853330    
H     -1.8491250    -0.5180618     0.7231335    
H      1.1721331     4.0137618    -0.2174885    
H     -2.2744747     2.6095772    -2.8304811    
H     -3.1186359     6.6759719    -3.8961512    
