23

N      0.2192512    -3.4824944     0.2083216    
N      1.0422264    -4.4673413    -0.0769998    
N      2.1520042    -4.0616299    -0.6458216    
N      2.0819663    -2.7835692    -0.7468707    
C      0.8881423    -2.4127530    -0.2209767    
C      0.4199581    -1.0454553    -0.1401431    
C     -0.8375480    -0.7664007     0.3937883    
C     -1.2833637     0.5371718     0.4763119    
C      1.2235146    -0.0056297    -0.6046298    
C      0.7703787     1.2947019    -0.5260857    
C     -0.4772199     1.5809687     0.0244645    
C     -0.9037861     3.0048016     0.0595581    
O     -0.4660400     3.8485124    -0.7302978    
N     -1.8023131     3.3326391     1.0026537    
N     -2.1779035     4.6730384     1.2326792    
H     -1.4539113    -1.5823133     0.7353170    
H     -2.2698257     0.7314267     0.8658063    
H      2.1903650    -0.2332410    -1.0234594    
H      1.3723698     2.1142806    -0.8886636    
H     -2.0445296     2.7012040     1.7525126    
H     -1.5470352     5.2493185     0.6735006    
H     -3.1224837     4.8201089     0.8776414    
H      0.8345117    -5.4375347     0.1233546    
