16

N      0.5967157    -0.5995489     1.2876799    
N      0.3416306    -1.8560641     1.6394600    
N      0.4424061    -2.6399978     0.6493740    
N      0.7719473    -1.9020156    -0.4167906    
C      0.8664552    -0.6152989    -0.0035087    
C      1.1878299     0.5438121    -0.8582970    
C      0.0382741     1.5586749    -0.8580260    
O     -0.4980244     1.9382905    -1.8977374    
N     -0.2954052     2.0046148     0.3499476    
N     -1.2459628     3.0226928     0.5548924    
H      1.3612776     0.2291731    -1.8865965    
H      2.0775311     1.0470433    -0.4759734    
H      0.1400047     1.6353017     1.1872924    
H     -1.4720975     3.4026999    -0.3643188    
H     -2.0963962     2.6214559     0.9490774    
H      0.9029056    -2.3152830    -1.3291054    
