46

C      2.6555506    -0.8568263     2.5221942    
C      3.9139895    -0.4158524     2.9806253    
C      1.9677037    -0.2144128     1.5285466    
C      2.6082149     0.9146698     1.0108240    
C      3.8986593     1.2933129     1.5255590    
N      4.5343260     0.6284509     2.5018190    
N      4.3480286     2.3845293     0.8885950    
N      3.4102574     2.6920492     0.0165744    
C      2.3396019     1.8750083     0.0220621    
C      1.2019168     2.0394046    -0.8519235    
N      0.1710071     1.2314575    -0.6321887    
C     -0.8976238     1.3329393    -1.4272036    
C     -0.8738932     2.3196630    -2.4460371    
C      0.2270655     3.1184351    -2.5871078    
N      1.2849584     2.9865420    -1.7863174    
N     -1.9574889     0.5499491    -1.2208404    
C     -1.9197063    -0.6091230    -0.3534583    
C     -2.6118174    -0.3494334     0.9922813    
C     -4.1297889    -0.3797863     0.8052293    
C     -4.5602948    -1.8134001     0.4584623    
C     -3.3257371    -2.6152186     0.0387137    
C     -2.5535833    -1.8244197    -1.0249296    
F      2.1251835    -1.9664113     3.1073210    
F     -1.9525828     2.4518948    -3.2760888    
C     -1.4998162    -2.7415408    -1.7221046    
O     -1.9554385    -3.5484726    -2.5601790    
O     -0.2998526    -2.6163014    -1.4024886    
C     -2.2080072    -1.4673629     1.9539778    
C     -2.4192991    -2.8190770     1.2542281    
H      4.4123523    -0.9618022     3.7684475    
H      1.0149042    -0.5530751     1.1556356    
H      3.5267891     3.4893547    -0.5983073    
H      0.2847006     3.8799601    -3.3506729    
H     -2.7194229     0.6116371    -1.8816342    
H     -0.8582108    -0.8324663    -0.1856944    
H     -2.2890669     0.6223287     1.3755076    
H     -4.4084779     0.3100565     0.0080918    
H     -4.6180927    -0.0449100     1.7204339    
H     -5.2931478    -1.8145058    -0.3490554    
H     -5.0123299    -2.3014510     1.3221650    
H     -3.6132023    -3.5826910    -0.3876856    
H     -3.2514873    -1.5296906    -1.8184187    
H     -2.8202948    -1.4019554     2.8541956    
H     -1.1635061    -1.3559357     2.2494966    
H     -1.4663986    -3.2275791     0.9078375    
H     -2.8635482    -3.5461389     1.9351589    
