64

C     -1.8916889     0.4865653     0.7103053    
C     -0.6403991     0.2671531     1.2430117    
C      0.0197375    -0.9982993     1.0414796    
C      0.4985869    -2.9925479     0.4847281    
C      2.9622990    -2.9911859     1.3833931    
C      5.1505253    -3.6400687     0.4828303    
C      6.0254312    -3.6919393    -0.7617507    
N      6.2802472    -2.3365229    -1.3051677    
O     -5.0549503     0.3102508    -3.5250656    
C      7.3460272    -0.9706861    -3.0980662    
C      1.6052999    -2.4600829     1.0788282    
O     -7.6074369     2.5315593    -1.3300139    
C     -3.8969985     1.8809690     0.2536023    
C     -8.5156542     3.3231859    -0.5679068    
C     -2.5720612     1.7139907     0.8656362    
C     -6.4040203     2.3097730    -0.8082251    
C     -4.9068610     2.6047067     0.8900158    
C     -0.7312685     2.5573940     2.1342069    
C     -4.2127331     1.3364950    -0.9866703    
C      8.5544616    -2.9190925    -2.1083381    
C      7.1900379    -2.3689279    -2.5095512    
C     -0.0318925     1.3128660     1.9767303    
N      1.1079036     2.7501997     3.1597200    
C      1.1592736     1.5040974     2.6695066    
C      4.9761090    -1.6908874    -1.5833542    
O      1.2957566    -1.1776050     1.4307689    
C      4.1059980    -1.6418213    -0.3348786    
C     -5.8104964     0.9728310    -2.8418557    
N      3.8493608    -3.0023451     0.1827474    
C     -1.9997099     2.7511160     1.5714245    
N      0.0019683     3.4111970     2.8620842    
N     -0.4870858    -2.0568466     0.4667316    
N     -6.1085422     2.8146755     0.3819244    
C     -5.4734602     1.5354800    -1.5440567    
H     -2.3667559    -0.3161374     0.1698514    
H      0.3244635    -3.9655871     0.0765897    
H      2.8698522    -4.0128240     1.7557070    
H      3.4164431    -2.3657683     2.1536898    
H      5.6343753    -3.0748083     1.2803666    
H      4.9891647    -4.6572125     0.8391872    
H      5.5574307    -4.2884396    -1.5464577    
H      6.9670570    -4.1656138    -0.4916284    
H      6.7731950    -1.7822855    -0.5915228    
H      8.1209604    -0.9942640    -3.8591703    
H      7.6601988    -0.2536284    -2.3440328    
H      6.4454595    -0.6166754    -3.5891005    
H     -9.4304805     3.3553287    -1.1527386    
H     -8.1148762     4.3260819    -0.4237056    
H     -8.6934440     2.8651170     0.4044920    
H     -4.7524296     3.0317128     1.8715331    
H     -3.4950692     0.7649642    -1.5569901    
H      9.2374924    -2.8184209    -2.9470325    
H      8.5307805    -3.9742689    -1.8572953    
H      8.9797234    -2.3569461    -1.2805411    
H      6.7291607    -3.0269295    -3.2501255    
H      1.8073095     3.2140513     3.7239121    
H      1.9880207     0.8548114     2.8505517    
H      4.4852120    -2.2444318    -2.3853632    
H      5.1329803    -0.6685837    -1.9217996    
H      3.1628203    -1.1551301    -0.5829644    
H      4.5856058    -1.0609992     0.4547964    
H     -6.8353545     1.1928178    -3.1837228    
H      3.3718124    -3.5495395    -0.5467758    
H     -2.4946298     3.7019402     1.6799289    
