38

Cl    -2.6205875    -1.9744301     3.6394596    
C     -1.6646959    -1.4791012     2.2680745    
C     -1.5199560    -2.3226458     1.1745935    
Cl    -2.2926958    -3.8852615     1.1666679    
C     -1.0493925    -0.2368308     2.2634529    
C     -0.2968558     0.1543593     1.1731408    
C     -0.1488144    -0.6813289     0.0707304    
C     -0.7647382    -1.9251246     0.0838161    
C      0.7089084    -0.2664652    -1.0984587    
C      0.3836968     1.1311042    -1.5712387    
C     -0.9478123     1.5334677    -1.6321126    
C     -1.2948928     2.7895100    -2.0901514    
C     -0.3094091     3.6686070    -2.5120087    
C      1.0131223     3.2748913    -2.4716892    
C      1.3709211     2.0114313    -2.0045388    
C      2.8407332     1.6535976    -1.9841461    
N      3.5031138     2.4035014    -0.8643891    
C      4.9536018     2.5964369    -1.0359898    
C      3.0670429     0.1548838    -1.8256194    
C      2.1881048    -0.4121197    -0.7170791    
H     -1.1701088     0.4103577     3.1160518    
H      0.1586065     1.1313915     1.1780237    
H     -0.6700873    -2.5978600    -0.7532629    
H      0.5012401    -0.9439349    -1.9341898    
H     -1.7182571     0.8480776    -1.3123799    
H     -2.3336346     3.0811190    -2.1262730    
H     -0.5764171     4.6477462    -2.8784135    
H      1.7746079     3.9526729    -2.8284942    
H      3.2997991     2.0031806    -2.9135974    
H      3.3260900     1.8928640     0.0099016    
H      3.0506665     3.3218199    -0.7788839    
H      5.3603533     3.1334401    -0.1838150    
H      5.1472571     3.1702629    -1.9382365    
H      5.4581546     1.6380169    -1.1157919    
H      4.1158289    -0.0556074    -1.6204607    
H      2.8153061    -0.3344554    -2.7665169    
H      2.4108150    -1.4671955    -0.5644154    
H      2.3607184     0.0920299     0.2344915    
