39

P     -3.4981159     2.0480119    -0.2651068    
O     -4.0519039     1.3795699    -1.5108021    
O     -4.4047931     3.1011552     0.3258673    
O     -2.9083857     1.0814672     0.7402773    
P     -0.6283758     2.8078683    -0.9142705    
O     -0.0434923     4.0120983    -1.5640961    
O     -0.0837074     2.3778605     0.4107766    
O     -2.2101161     3.0107111    -0.8752630    
O     -0.4315671     1.5754634    -1.9931032    
C     -1.0674538     0.3800236    -1.6012998    
C     -0.3637019    -0.8385264    -2.1859691    
O      0.9599298    -1.0077911    -1.6978116    
C     -1.1297032    -2.1069602    -1.7817000    
O     -0.9209146    -3.1897152    -2.6393692    
C     -0.4616798    -2.4556183    -0.4379031    
O     -0.5654140    -3.7897414    -0.0803862    
C      0.9968117    -1.9911505    -0.6826668    
N      1.6586748    -1.5310528     0.5028366    
C      1.4013419    -0.4560976     1.3155975    
N      2.1972815    -0.3779347     2.3389060    
C      3.0459695    -1.4567293     2.2201139    
C      4.1220336    -1.9339804     2.9984747    
N      4.5443637    -1.3477652     4.1188192    
N      4.7465149    -3.0478620     2.5761776    
C      4.3343167    -3.6357934     1.4677008    
N      3.3486431    -3.2895904     0.6550318    
C      2.7206847    -2.1840219     1.0695300    
H     -2.1150534     0.4148181    -1.9247648    
H     -1.0915552     0.3317464    -0.5063498    
H     -0.2713209    -0.6980591    -3.2673658    
H     -2.1934425    -1.8790449    -1.6498122    
H     -1.3759008    -3.0455503    -3.4824478    
H     -0.9069152    -1.8472699     0.3580132    
H     -0.5292777    -4.3249223    -0.8975388    
H      1.6076850    -2.8375267    -1.0358748    
H      0.6332829     0.2629782     1.0967420    
H      5.3283175    -1.7443582     4.6085467    
H      4.0871024    -0.5068244     4.4233257    
H      4.8768759    -4.5247732     1.1800757    
