31

C     -0.5910634    -0.4157583    -1.3705701    
C     -0.7150497    -1.1912855    -0.1454681    
N      0.3379100     0.9993863    -2.8341209    
C      0.4076966    -1.6615915     0.5311640    
C     -1.9838027    -1.5001865     0.3695252    
C     -0.6900034     0.4111597    -3.4148992    
C      2.6950149     0.9804382    -1.0694466    
C      1.0084054     1.5014854     0.5552378    
C      0.2952565    -2.3996967     1.6893217    
C     -2.0976529    -2.2405941     1.5375044    
C      3.6694022     1.4471239    -0.2073511    
C      1.9849329     1.9543856     1.4258005    
C     -0.9648377    -2.6905860     2.2040007    
N      0.3913599     0.5006889    -1.5922419    
C     -1.3154561    -0.4881486    -2.5473756    
C      1.3564370     0.9824598    -0.6910424    
C      3.3157591     1.9207182     1.0451859    
Cl    -0.6617370     1.6222487     1.0200737    
O     -3.0805325    -1.0406301    -0.2843485    
O     -1.0386046    -3.4145251     3.3474781    
H      1.3884819    -1.4529557     0.1335145    
H     -0.9452909     0.6498022    -4.4284142    
H      2.9462786     0.6082807    -2.0495758    
H      1.1670411    -2.7603929     2.2089660    
H     -3.0797131    -2.4635413     1.9310983    
H      4.7033078     1.4355950    -0.5120784    
H      1.6943836     2.3429531     2.3878667    
H     -2.1632742    -1.1097026    -2.7452418    
H      4.0719743     2.2751584     1.7264358    
H     -3.8902337    -1.3053630     0.1785582    
H     -1.9602583    -3.5522246     3.6145145    
