25

C      2.3291497     0.1536855     0.7606101    
C     -1.0817081     0.7989916    -0.4857836    
C      1.3542796     0.7658920    -0.0425195    
C     -4.2436972    -1.3868253    -0.9818290    
C      3.5674209     0.7598234     0.9212804    
C      3.8579318     1.9674394     0.3131008    
C      2.0780791    -1.1430249     1.5158368    
C     -4.6323717    -0.0878103    -1.0686540    
C      1.6698169     1.9780451    -0.6627969    
C      2.9009101     2.5761786    -0.4836697    
C      0.0633231     0.1375100    -0.2529168    
C     -2.3558651     0.1806431    -0.6868598    
C     -3.5584849     0.8063450    -0.9010608    
O      0.9441136    -1.3241102     2.0173008    
O      3.0454640    -1.9352302     1.6062931    
S     -2.5509998    -1.5507269    -0.6845859    
H     -1.0897968     1.8809747    -0.5091550    
H     -4.8400992    -2.2719153    -1.0704108    
H      4.2968027     0.2518749     1.5384772    
H      4.8250583     2.4244451     0.4565891    
H     -5.6458190     0.2223422    -1.2456738    
H      0.9392629     2.4359878    -1.3124585    
H      3.1198314     3.5130760    -0.9729468    
H      0.0440080    -0.9427832    -0.1617769    
H     -3.6554576     1.8766082    -0.9347270    
