52

O      3.9026468     0.8921501     2.8131944    
P      2.6614899     0.0390278     3.0931270    
O      1.9137710     0.5156846     4.3293461    
O      2.9607605    -1.4545144     3.0869085    
C      1.4261961     0.2811781     1.6537001    
C      0.1353045    -0.2583769     2.1800098    
C     -0.7542490     0.5708615     2.8494862    
C     -1.9237698     0.0570192     3.3776022    
C     -2.2196179    -1.2880652     3.2382933    
C     -1.3340637    -2.1180247     2.5742472    
C     -0.1604323    -1.6073792     2.0481535    
O      1.2180803     1.6280067     1.2759999    
O      1.7915088    -0.4483927     0.4972536    
C      3.0806273    -0.0812216     0.0605065    
C      3.2193232     1.4227090    -0.1975836    
O      2.8660676     1.7667460    -1.5349282    
C      2.3606484     2.2888867     0.7430227    
C      1.8696912     3.4212840    -0.1677968    
C      1.9426978     2.8242454    -1.5793118    
N      0.6424153     2.3646236    -2.0803426    
C      0.0469394     1.2606829    -1.5499392    
C      0.0815962     3.0075722    -3.1555657    
O      0.5793227     3.9859209    -3.6892199    
N     -1.1094497     2.4855944    -3.5813663    
C     -1.7967849     1.3818150    -3.0921940    
O     -2.8648591     1.0894192    -3.6097489    
C     -1.1274087     0.7276920    -1.9822153    
C     -1.6215303    -0.4613338    -1.3234983    
C     -2.5764550    -1.2918635    -1.7520532    
C     -2.8575957    -2.5547373    -1.0705973    
P     -1.7200057    -3.8986424    -1.8080634    
O     -2.1131402    -4.0275430    -3.2770366    
O     -2.0472478    -5.1538114    -1.0002995    
O     -0.2852307    -3.4211177    -1.6180741    
H     -0.4985641     1.6143296     2.9538990    
H     -2.6035287     0.7130840     3.8997228    
H     -3.1338120    -1.6949295     3.6427258    
H     -1.5459298    -3.1701491     2.4360608    
H      0.5277276    -2.2484409     1.5099012    
H      3.2406727    -0.6402289    -0.8653250    
H      3.8101557    -0.3909279     0.8171736    
H      4.2770608     1.6809140    -0.0589674    
H      2.9729541     2.6346719     1.5836561    
H      2.5377682     4.2740686    -0.0856384    
H      0.8558314     3.6982533     0.1075374    
H      2.2839791     3.5472109    -2.3316762    
H      0.5697465     0.7751558    -0.7448568    
H     -1.5437174     2.9622542    -4.3687031    
H     -1.0863058    -0.7273597    -0.4151129    
H     -3.0895440    -1.1112287    -2.6869689    
H     -3.8783788    -2.9164956    -1.2053544    
H     -2.5932881    -2.5284512    -0.0104296    
