41

C      0.6498289    -1.9568804     1.3663578    
C      1.9173730    -2.4845973     1.1528511    
N      2.8074973    -1.8945760     0.3862386    
C      2.4428935    -0.7239369    -0.1754591    
C      3.1106413     1.0845709    -1.6989993    
C      4.3418623     1.9913456    -1.7190427    
C      2.5453428     2.0203695    -3.9442410    
C      2.7362569     0.7308047    -3.1445122    
C      0.3352930    -0.7508596     0.7284568    
C     -0.9665587    -0.0754701     0.8481261    
C     -0.9910075     1.3073044     1.0451783    
C     -4.7876652     1.7457776     1.1726953    
C     -4.7384993    -0.5733057     0.7939755    
C     -3.3448869    -0.0856634     0.8577471    
C     -2.1584882    -0.7849057     0.7385021    
Cl    -0.4488986    -2.7718520     2.4439370    
N      3.3657937    -0.1014262    -0.9124512    
C      4.0576002     3.2061396    -2.6056800    
O      3.7059580     2.8278870    -3.9225977    
N      1.2438186    -0.1466178    -0.0226674    
C     -2.1827845     2.0008297     1.1703768    
C     -3.3656654     1.2920125     1.0814408    
N     -5.5159191     0.5104728     0.9819019    
O     -5.1414475    -1.7197128     0.6136586    
H      2.2187907    -3.4139047     1.6159521    
H      2.2675400     1.5974555    -1.2259911    
H      5.1891631     1.4423810    -2.1323534    
H      4.5914604     2.3248272    -0.7133345    
H      1.6948578     2.5858576    -3.5355285    
H      2.3589728     1.8046863    -4.9973693    
H      1.8168154     0.1467655    -3.1631706    
H      3.5387278     0.1449651    -3.5957151    
H     -0.0486911     1.8279597     1.1052739    
H     -5.0352516     2.4726875     0.3934004    
H     -5.0131405     2.1894461     2.1468876    
H     -2.1768566    -1.8457912     0.5430655    
H      4.2270969    -0.6045836    -1.0657823    
H      4.9458392     3.8305684    -2.7108484    
H      3.2450384     3.8037091    -2.1668790    
H     -2.1824769     3.0660823     1.3325828    
H     -6.5217610     0.4658388     0.9886994    
