38

C     -0.4822802     2.7574300    -1.0101620    
O      0.7148800     2.5939082    -1.2301446    
N     -1.2856906     3.4968203    -1.7665611    
C     -0.8357151     4.2524431    -2.9208686    
C     -1.1746035     5.7285942    -2.7659179    
C     -1.1651000     2.0675189     0.1786478    
O     -1.4752408     0.7231720    -0.1906843    
C     -0.2362007     1.9969121     1.4088157    
O     -0.4218437     3.0354050     2.3109967    
C     -0.5570946     0.6039531     1.9917047    
O     -1.6240184     0.7641604     2.8819749    
C     -0.9614384    -0.1961879     0.7357051    
N      0.1441239    -0.9443463     0.1850073    
C      1.1989184    -0.5180818    -0.5790196    
N      2.0201843    -1.4664737    -0.9117314    
C      1.5029500    -2.6061327    -0.3428659    
C      1.9054764    -3.9587088    -0.3218395    
N      3.0002870    -4.4119240    -0.9306286    
N      1.1340814    -4.8258409     0.3582491    
C      0.0486035    -4.3883087     0.9695326    
N     -0.4353800    -3.1582268     1.0231283    
C      0.3243094    -2.2897475     0.3449846    
H     -2.2631161     3.5780327    -1.5272322    
H     -1.3109675     3.8466607    -3.8176160    
H      0.2429480     4.1038790    -2.9945841    
H     -0.8029387     6.2797755    -3.6238677    
H     -0.7142410     6.1302391    -1.8673497    
H     -2.2507874     5.8670246    -2.7035918    
H     -2.1007346     2.5748352     0.4434743    
H      0.8043042     2.0416726     1.0676987    
H     -1.1791141     2.8108466     2.8813531    
H      0.3156288     0.1559569     2.4779185    
H     -1.7594060    -0.0344577     3.4096265    
H     -1.7397812    -0.9363500     0.9617190    
H      1.3080323     0.5050999    -0.8830391    
H      3.2185835    -5.3915892    -0.8769214    
H      3.5675320    -3.7719234    -1.4583589    
H     -0.5213860    -5.1383345     1.5009135    
