28

O      0.4390666     0.9652855    -1.7007879    
C      1.4762363     0.7477407    -0.8604804    
C      2.7871136     0.7386217    -1.3112111    
C      3.8451479     0.5590652    -0.4256050    
O      5.0948273     0.5393048    -0.9393500    
C      3.5898972     0.4188962     0.9366013    
C      2.2873373     0.4465397     1.3871569    
C      1.2159375     0.5722945     0.5092713    
C     -0.1577122     0.6111711     1.0566560    
O     -0.4081790     1.3566002     2.0189356    
C     -1.1729588    -0.2404028     0.4592858    
C     -0.8397959    -1.2972513    -0.4008940    
C     -1.8014733    -2.0857828    -0.9743700    
C     -3.1560979    -1.8400828    -0.7090655    
O     -4.0667687    -2.6287929    -1.3071250    
C     -3.5109303    -0.8219762     0.1610619    
C     -2.5373710    -0.0329617     0.7657865    
O     -2.9493094     0.9154524     1.6201281    
H      0.7577335     1.1044450    -2.6066972    
H      3.0138281     0.8745424    -2.3575006    
H      5.7561945     0.4120486    -0.2412287    
H      4.4016958     0.2962469     1.6360745    
H      2.0726191     0.3482656     2.4407005    
H      0.2009546    -1.5026150    -0.5933640    
H     -1.5458566    -2.9014972    -1.6298849    
H     -4.9701657    -2.3850414    -1.0499941    
H     -4.5427460    -0.6216282     0.4053361    
H     -2.1527161     1.3489218     2.0141362    
