49

C     -1.0908654     1.5369794     0.1751445    
C      1.1408928    -3.3724181    -2.4743462    
C     -0.8908945     0.5721368     1.3197515    
C     -1.3797051     0.8231592     2.6090816    
C      1.1659312    -2.9411927     0.4992083    
C     -1.1641950    -0.0821861     3.6448134    
C     -0.4650934    -1.2585941     3.4365785    
C      0.0246367    -1.5499405     2.1426341    
C      0.7508373    -2.7756810     1.8678283    
C      0.8865071    -1.9972931    -0.4337732    
C      1.2663870    -2.1305743    -1.8488441    
N     -2.1658525     3.9981094    -0.9863253    
C     -2.5789859     1.7219307    -0.1477911    
C     -2.4112308     4.9846502    -2.0493969    
C     -2.7591514     2.6825913    -1.3138459    
O     -2.0602130     1.9640143     2.8262182    
O     -0.2730312    -2.0944764     4.4636910    
O      0.9953207    -3.6225007     2.7531423    
C      1.4691221    -3.5365125    -3.8057024    
C      1.9341539    -2.4577705    -4.5417546    
C      2.0744023    -1.2191953    -3.9413422    
C      1.7395424    -1.0562047    -2.6067468    
Cl     1.9980838     0.4986905    -1.8900471    
O      0.2257592    -0.8715295    -0.1501968    
C     -0.2067720    -0.6256817     1.1106899    
C     -0.4562412     2.9139492     0.4658859    
O      0.9506519     2.8493895     0.5820844    
C     -0.7249481     3.8543113    -0.7160932    
H     -0.5785284     1.1231009    -0.6964336    
H      0.7611001    -4.2045518    -1.9033595    
H      1.7192194    -3.8288191     0.2451218    
H     -1.5372531     0.1128586     4.6381191    
H     -2.6118336     4.3316485    -0.1227981    
H     -3.0967740     2.0935320     0.7360095    
H     -3.0096884     0.7560795    -0.4063635    
H     -3.4791294     5.0894657    -2.2217180    
H     -1.9349091     4.6561756    -2.9697037    
H     -2.0011053     5.9504524    -1.7672081    
H     -2.2622446     2.2956657    -2.2046685    
H     -3.8195835     2.8141324    -1.5291249    
H     -2.3653721     2.0227254     3.7452013    
H      0.2376361    -2.8789271     4.1365088    
H      1.3598303    -4.5035328    -4.2694239    
H      2.1914006    -2.5791135    -5.5815367    
H      2.4461469    -0.3766518    -4.5016770    
H     -0.8910793     3.3320322     1.3826239    
H      1.1904020     2.3982633     1.3982327    
H     -0.2822072     4.8253592    -0.4921289    
H     -0.2253857     3.4469689    -1.5968210    
