34

C      0.3616339    -0.2823370    -1.1114197    
C      1.2981710     0.2747668    -0.2200536    
C      2.4755822    -0.4627171     0.0964195    
C      3.2151568     1.1612188     1.5139971    
C      1.1440787     1.5380768     0.3884172    
C     -2.5718871     1.8998585     0.5210293    
C     -3.3147982     0.8495625     2.5619802    
C     -2.1127064    -0.4324115     0.9077180    
C      2.6991151    -1.7391093    -0.5087000    
C     -2.0273190     0.6976672     0.1166085    
C     -3.2157558     1.9707170     1.7443729    
C     -2.7562036    -0.3512704     2.1282923    
C     -4.0241090     0.9172358     3.8751228    
C      1.7363210    -2.2031532    -1.3865072    
C      0.5710255    -1.5042362    -1.6872161    
C      2.1022668     1.9825580     1.2588546    
F      1.9418063    -3.4199780    -1.9730039    
N      3.3998467    -0.0026206     0.9548396    
O     -1.9633047    -0.2972133    -2.3324146    
O     -0.9210318     1.8923191    -1.9792699    
O      3.8027061    -2.4119984    -0.1997774    
S     -1.1840775     0.5610289    -1.4517947    
H      3.9886478     1.4775637     2.1985653    
H      0.2840355     2.1363376     0.1340667    
H     -2.4811103     2.7572352    -0.1278479    
H     -1.6803945    -1.3554451     0.5574203    
H     -3.6437922     2.9063176     2.0650090    
H     -2.8272087    -1.2272322     2.7532572    
H     -4.1217526     1.9440399     4.2129909    
H     -3.4944689     0.3387744     4.6267760    
H     -5.0222634     0.4944631     3.7714364    
H     -0.1606508    -1.9159992    -2.3634590    
H      2.0167629     2.9427983     1.7390992    
H      3.8509553    -3.2710657    -0.6566109    
