39

O      2.2165074    -0.9343974     2.8673849    
C      1.0966813    -0.5653696     3.6396266    
C     -0.0842367    -0.2624831     2.7573940    
C     -1.2789611     0.1460290     3.3593841    
O     -1.3045257     0.2496033     4.7164100    
C     -2.3817654     0.4268638     2.5653631    
C     -2.2983319     0.3001254     1.1914124    
C     -0.0132221    -0.3786791     1.3817108    
C     -1.1151046    -0.0991780     0.5828650    
C     -1.0892484    -0.2211844    -0.9250383    
O     -1.7595151     0.8528786    -1.5662616    
C      0.3339044    -0.3166138    -1.5132477    
N      0.1964385    -0.2397840    -2.9831743    
C      1.4050863     0.1390834    -3.7975400    
C      1.0014517    -0.0342199    -5.2599362    
C      1.7596861     1.5934749    -3.5162159    
C      2.5515987    -0.7982894    -3.4399193    
H      2.9596409    -1.1186413     3.4550469    
H      1.3142845     0.3265266     4.2471323    
H      0.8123083    -1.3713161     4.3336077    
H     -2.1776518     0.5441609     5.0177174    
H     -3.3092074     0.7395488     3.0226043    
H     -3.1668479     0.5124560     0.5861789    
H      0.9282538    -0.7000043     0.9730769    
H     -1.6598679    -1.1156112    -1.2099511    
H     -1.5693725     1.6772287    -1.0989985    
H      0.8129634    -1.2471098    -1.2198327    
H      0.9215643     0.5307255    -1.1624101    
H     -0.5627205     0.4511638    -3.1377978    
H     -0.1526985    -1.1391848    -3.3318814    
H      1.8184414     0.2682408    -5.9075059    
H      0.1401875     0.5815132    -5.5066216    
H      0.7716998    -1.0724660    -5.4862119    
H      2.5707592     1.9000948    -4.1696020    
H      2.0963092     1.7418325    -2.4947745    
H      0.9126279     2.2457145    -3.7124569    
H      3.3911345    -0.6116530    -4.1027505    
H      2.2611013    -1.8387639    -3.5599258    
H      2.8949101    -0.6403165    -2.4220534    
