50

C      1.7991550    -1.1003355    -5.2834375    
C      0.5799271    -0.2487873    -3.2538083    
C      1.0779863     1.9716164    -2.3137746    
C      2.8763519    -2.1743221    -5.0696379    
C      0.2598730    -2.5023871    -4.0820672    
C      1.3824282    -3.5266230    -3.8976978    
O     -0.1749229    -0.5141547    -2.2975378    
O     -3.5010341     1.5545428     0.2100964    
O      0.6083940    -0.5276654     7.7444829    
O     -0.9669294     0.4028750     2.5408775    
O      2.3034893    -3.4633245    -4.9713046    
N      0.8315117    -1.1718713    -4.2060792    
N      1.1027577     0.9918752    -3.3893108    
C     -0.2883427     2.6450875    -2.1520882    
N     -1.2091848     1.7610396    -1.4055786    
C     -1.1069799     1.8520899     0.0605504    
C     -2.2705556     1.0582891     0.6758940    
C     -2.1720980     1.0649954     2.2067632    
C     -0.6626703     0.2149310     3.8631639    
C      0.5109955    -0.4948538     4.1177611    
C      0.9197506    -0.7346133     5.4099200    
C      0.1632014    -0.2659891     6.4827463    
C     -1.0039715     0.4384648     6.2300198    
C     -1.4181100     0.6800311     4.9291904    
H      1.2777922    -1.3047776    -6.2247253    
H      2.2798525    -0.1277012    -5.3470567    
H      1.8284024     2.7246917    -2.5432947    
H      1.3546341     1.4817784    -1.3763742    
H      3.4447419    -1.9563493    -4.1530453    
H      3.5563396    -2.2129987    -5.9204927    
H     -0.4141974    -2.5193360    -3.2263747    
H     -0.2928782    -2.7344041    -4.9974599    
H      0.9864252    -4.5418741    -3.8979224    
H      1.9082002    -3.3394913    -2.9495486    
H     -3.7165294     2.3894932     0.6506726    
H      0.0152755    -0.1392464     8.4038008    
H      1.6626045     1.2127817    -4.1929706    
H     -0.7070521     2.8521782    -3.1367447    
H     -0.1712212     3.5859153    -1.6137487    
H     -0.9639742     0.7663346    -1.6996961    
H     -2.1917221     1.9341887    -1.6489341    
H     -1.1717732     2.8990872     0.3648077    
H     -0.1689124     1.4277706     0.4135396    
H     -2.2175947     0.0197349     0.3316250    
H     -2.1564641     2.0968162     2.5851019    
H     -3.0358474     0.5391529     2.6312747    
H      1.0868215    -0.8569420     3.2823008    
H      1.8228631    -1.2861308     5.6140413    
H     -1.6004887     0.8071989     7.0515024    
H     -2.3320885     1.2296494     4.7752913    
