99

C     -6.7547887    -1.3348074    -0.7787483    
C     -5.3826214    -2.4284859     0.9543169    
C     -4.0849370    -4.0257079     2.2475837    
C     -3.1643195    -2.8357865     2.5439491    
C     -1.2611263    -0.6993848     1.6264334    
C      1.0848653    -0.1749593     1.8207870    
C     -15.1544407     0.1396436    -6.3380284    
C     -14.3838913    -1.0196992    -6.3492401    
C     -13.5244178    -1.2872774    -5.3043976    
C     -13.4252161    -0.4280751    -4.2072496    
C     -12.5095911    -0.7751572    -3.1313670    
C     -12.6562083    -0.5321359    -1.8183231    
C     -13.8591950     0.0800239    -1.1719437    
C     -11.6312004    -1.0202755    -0.8555888    
C     -9.1592128    -1.2834290    -0.6851665    
C     -7.9609226    -0.9646702    -1.3297092    
C     -6.7089261    -2.0500196     0.4174514    
C     -3.2824705    -4.8935675     1.2707263    
C     -2.0327330    -4.1140725     0.9812546    
C     -0.9686843    -2.0423205     1.8313232    
C     -0.2372495     0.2257440     1.6353122    
C      2.1341370     0.8835041     1.8213715    
C      4.5483149     1.1601876     1.3005546    
C      4.6839893     2.5313744     1.4995046    
C      5.9169355     3.1190415     1.3290752    
C      7.0532091     2.4042318     0.9423914    
C      8.3048308     3.1940828     0.7823836    
C      10.7512948     2.9236467     0.4822294    
C      11.1113080     4.2651411     0.4007591    
C      12.4378196     4.6053368     0.2530098    
C      13.4316234     3.6377718     0.2026829    
C      14.8714631     4.0659994     0.0511572    
C      13.0869199     2.2809974     0.3025348    
C      11.7381242     1.9238415     0.4214029    
C      11.8460174    -0.3586828    -0.3276016    
C      6.9221670     1.0233431     0.7342852    
C      5.6799691     0.4196444     0.9443244    
C      5.7794093    -1.6961484     1.9843959    
C      1.3653160    -1.5223535     2.0379464    
C      0.3428895    -2.4521991     2.0493256    
C     -7.9037931    -2.3562240     1.0649689    
C     -9.1153689    -1.9743408     0.5252948    
C     -14.1881300     0.7420607    -4.2184138    
C     -15.0355667     1.0248423    -5.2679520    
N     -10.3456953    -0.8906583    -1.2951031    
N     -5.3370452    -3.5444359     1.7051434    
N     -1.1919817    -4.4527718     0.1156220    
N     -2.0093308    -2.9975005     1.8287917    
N      3.3576555     0.4524398     1.4152681    
N      9.4398908     2.4756311     0.6258056    
O     -16.0121762     0.4564898    -7.3394340    
O      15.7567780     3.1572375     0.0136743    
O      15.1223810     5.2828594    -0.0348598    
O      14.0414115     1.3191958     0.2938568    
O      11.2887332     0.6218987     0.5390145    
O      8.2694957     4.4241462     0.8166041    
O      7.9464980     0.2411369     0.3233705    
O      5.5844901    -0.9594305     0.7724012    
O      1.8884462     2.0335226     2.1601054    
O     -3.3667331    -1.9779743     3.3777577    
O     -4.3618477    -1.7783388     0.7199456    
O     -11.9357773    -1.4873304     0.2362850    
H     -5.8243167    -1.0833094    -1.2649522    
H     -4.3000387    -4.5345485     3.1902877    
H     -2.2849290    -0.4030709     1.4619696    
H     -14.4528418    -1.7078677    -7.1793096    
H     -12.9310374    -2.1894388    -5.3258000    
H     -11.6583636    -1.3618147    -3.4567796    
H     -14.7507727    -0.0670096    -1.7749440    
H     -13.7088424     1.1473441    -1.0112535    
H     -13.9964704    -0.3847567    -0.1961463    
H     -7.9803726    -0.4211135    -2.2616005    
H     -3.8240481    -5.0719247     0.3430628    
H     -3.0171576    -5.8589276     1.6986065    
H     -0.4421517     1.2752206     1.4888906    
H      3.8260626     3.1158307     1.7843205    
H      6.0401711     4.1802246     1.4803706    
H      10.3478262     5.0223875     0.4499102    
H      12.7470509     5.6375787     0.1799782    
H      11.2809341    -1.2643646    -0.1232517    
H      12.9047163    -0.5195239    -0.1231106    
H      11.7233001    -0.0603575    -1.3723527    
H      5.6285649    -2.7394261     1.7184666    
H      5.0611071    -1.3903073     2.7485873    
H      6.7892926    -1.5502769     2.3742972    
H      2.3707274    -1.8568845     2.2404761    
H      0.5569011    -3.4918133     2.2432004    
H     -7.8991723    -2.8624226     2.0172819    
H     -10.0347874    -2.2027396     1.0376666    
H     -14.0873632     1.4567716    -3.4190828    
H     -15.6193411     1.9317827    -5.2833388    
H     -10.2262104    -0.4165530    -2.1818147    
H     -6.1628707    -4.1082190     1.8318635    
H     -0.3917556    -3.8370129     0.0102544    
H      3.4321734    -0.5031728     1.0808268    
H      9.3728682     1.4602470     0.6142489    
H     -16.0098999    -0.2266601    -8.0276882    
H      14.9109279     1.8171127     0.1855325    
H      7.5861692    -0.6373864     0.0938562    
