118

C      9.7350449    -6.8056957     0.8088849    
C      8.4053015    -6.2181382     0.3513053    
C      7.5184313    -5.8304626     1.5328188    
C      6.1831843    -5.2427640     1.0826221    
C      5.2958497    -4.8614712     2.2654095    
C      3.9563411    -4.2878115     1.8103114    
C      3.0578888    -3.9381718     2.9559016    
C      1.8727920    -3.3618235     2.8188228    
C     -1.6890224    -0.5132509     4.1218560    
C     -2.7419585     0.4905348     4.5139816    
C     -2.7209480     1.0357080     5.7947869    
C     -3.6784887     1.9406862     6.2051958    
C     -4.6870431     2.3320796     5.3287985    
C     -3.7590531     0.8776920     3.6519353    
C     -1.1883672     0.8467987     1.9873932    
C     -1.5241493     4.2879172     4.1390180    
C      0.8850517     3.0235285     1.3810707    
C      1.9022300     3.4603143    -0.7959416    
C      2.1678937     2.0124706    -1.2454300    
C      0.6070044     0.2049821    -1.1826092    
C     -0.6917014    -0.3034991    -1.8059545    
C      1.2852450    -3.0024080     1.4843090    
C     -0.0762723    -2.3576328     1.5814977    
O     -1.0601140    -2.7791331     0.9836714    
N     -0.1339754    -1.2963730     2.4063866    
C     -1.3483836    -0.5355413     2.6259242    
C     -4.7184440     1.7924867     4.0483021    
O     -5.6030592     3.2336339     5.7675763    
O     -1.5239811     1.0539246     0.8233584    
N     -0.6684767     1.8032195     2.7598060    
C     -0.3935204     3.1215274     2.2227502    
C     -0.2244007     4.1484209     3.3512283    
C      0.1981208     5.4986869     2.7755534    
O      1.9171835     2.5522251     1.8442641    
N      0.7893354     3.5036484     0.1362975    
O      0.9516700     1.3855090    -1.6684293    
O      1.2334663    -0.3974648    -0.3391726    
C     -0.5312203    -1.7778340    -2.2253152    
C     -1.8118664    -2.3022624    -2.8064429    
C     -2.8481211    -2.7037096    -1.9705678    
C     -4.0400336    -3.1612477    -2.4937642    
C     -4.2191230    -3.2244255    -3.8739265    
C     -3.1854746    -2.8319422    -4.7156860    
C     -1.9938659    -2.3759903    -4.1793757    
O     -5.4106377    -3.6795032    -4.3460574    
N     -1.0945345     0.5642934    -2.8934520    
C     -0.3168604     0.7767797    -3.9685230    
O      0.6466375     0.0814145    -4.2606832    
C     -0.6640067     2.0130074    -4.8162538    
N      0.5967282     2.6818690    -5.0798815    
C      1.3529375     3.3629114    -4.1946115    
O      2.5420845     3.5608473    -4.4285395    
C      0.6534973     3.9723227    -2.9891827    
C      1.6645705     4.4477361    -1.9403978    
C     -1.3353756     1.6035388    -6.1388484    
C     -1.5578755     2.8286729    -7.0231088    
C     -2.6637196     0.9041353    -5.8573201    
H      10.2821120    -6.0843495     1.4120953    
H      9.5698975    -7.6983832     1.4084179    
H      10.3489678    -7.0746252    -0.0474252    
H      7.8793474    -6.9481721    -0.2686237    
H      8.5907725    -5.3349406    -0.2646668    
H      8.0437510    -5.0998072     2.1526005    
H      7.3337917    -6.7144865     2.1481530    
H      5.6596771    -5.9724681     0.4596005    
H      6.3661402    -4.3579160     0.4677548    
H      5.8143801    -4.1238513     2.8822707    
H      5.1179544    -5.7462939     2.8807594    
H      3.4492624    -5.0147799     1.1674163    
H      4.1255582    -3.3970744     1.1968874    
H      3.4210465    -4.1869286     3.9425434    
H      1.2662386    -3.1522538     3.6876455    
H     -2.0345491    -1.5157310     4.3915178    
H     -0.7795662    -0.3302378     4.6987239    
H     -1.9434522     0.7455400     6.4855004    
H     -3.6619601     2.3610136     7.1977980    
H     -3.8099492     0.4707639     2.6540010    
H     -2.3051019     4.6976824     3.5034682    
H     -1.8641526     3.3288566     4.5196869    
H     -1.3780409     4.9600459     4.9795435    
H      2.7955664     3.7655877    -0.2372400    
H      2.5872043     1.4354943    -0.4156216    
H      2.8572856     2.0021225    -2.0933667    
H     -1.4522930    -0.2445058    -1.0207380    
H      1.1939939    -3.8933493     0.8568103    
H      1.9392329    -2.3005250     0.9567040    
H      0.7296914    -0.9330152     2.7808327    
H     -2.1233769    -1.0625366     2.0563459    
H     -5.4959386     2.0819591     3.3567566    
H     -6.2505885     3.4304708     5.0739651    
H     -0.2858527     1.5837271     3.6664288    
H     -1.2406445     3.3910923     1.5845250    
H      0.5711518     3.7852759     4.0103829    
H     -0.5473095     5.8632009     2.0737363    
H      0.2994520     6.2237444     3.5776560    
H      1.1538898     5.4190757     2.2635794    
H     -0.1129013     3.7596370    -0.2347400    
H     -0.2644046    -2.3412701    -1.3306766    
H      0.2785647    -1.8521524    -2.9517714    
H     -2.7000247    -2.6746100    -0.9009646    
H     -4.8452028    -3.4823239    -1.8521184    
H     -3.3070834    -2.8857833    -5.7877296    
H     -1.1876178    -2.0818396    -4.8365964    
H     -5.4118851    -3.6876829    -5.3153774    
H     -1.8738170     1.1783903    -2.7185704    
H     -1.3259400     2.6900427    -4.2738401    
H      1.1427007     2.2449582    -5.8148105    
H     -0.0342610     3.2495038    -2.5597624    
H      0.0822561     4.8211891    -3.3696052    
H      2.6144868     4.6199243    -2.4503560    
H      1.3423037     5.3909133    -1.5006288    
H     -0.6638093     0.9033102    -6.6472475    
H     -2.2552462     3.5129476    -6.5471214    
H     -0.6250388     3.3550360    -7.2032771    
H     -1.9723450     2.5235353    -7.9793229    
H     -2.5216856     0.0282410    -5.2289505    
H     -3.3520984     1.5829379    -5.3604806    
H     -3.1152549     0.5856454    -6.7925286    
