19

C     -0.2535598     1.1937819     0.8872668    
C     -0.0086044     0.7048305    -0.4056748    
C      0.1490466    -0.6457816    -0.6304264    
C      0.0619350    -1.5415610     0.4647485    
C     -0.1799553    -1.0489476     1.7413359    
O     -0.3571315     3.4779446     0.2350742    
C     -0.3376833     0.3052433     1.9573867    
C     -0.4171684     2.6178501     1.0968045    
C      0.4834711    -0.3950540    -2.9757129    
O      0.3866103    -1.2268181    -1.8355679    
O      0.2193303    -2.8506090     0.2045981    
H      0.0492767     1.4250921    -1.2060668    
H     -0.2444287    -1.7381375     2.5693795    
H     -0.5259269     0.6786269     2.9513916    
H     -0.6127732     2.9063854     2.1461676    
H     -0.4484373     0.1497675    -3.1465243    
H      1.3114860     0.3117273    -2.8789700    
H      0.6718240    -1.0719100    -3.8053813    
H      0.1363136    -3.3822550     1.0136008    
