51

C      1.5146448     3.7667053     2.6358764    
C      1.3017269     2.5386193     1.9946850    
C      4.7257577    -2.0135727    -0.4736507    
C      5.0515929    -0.8117860     0.1805026    
C     -1.6728146    -1.6968350    -1.9491298    
C     -3.0357114    -2.0118112    -1.8769126    
C     -3.6408518    -2.7662972    -2.8616778    
N      3.5030053    -2.2929889    -0.8435064    
C     -2.8642659    -3.1942680    -3.9282366    
C     -1.0014614    -2.1747058    -3.0942885    
C     -3.5674177    -2.5593250     0.8865989    
S     -4.0195943    -1.4782092    -0.4783483    
O     -5.4252399    -1.6636747    -0.7890743    
C     -0.3180111     3.3175824     4.1811890    
C      0.5693043     0.4898222    -0.0404481    
O     -3.6456641    -0.1080577    -0.1308130    
N     -1.5780931    -2.8889594    -4.0324701    
N     -1.1011232    -0.9232241    -0.9797671    
C      0.2376266    -0.7175841    -0.6965337    
C      1.2222704    -1.6465823    -0.9539941    
C      2.5480470    -1.3673386    -0.5873127    
N      4.1502869     0.1007233     0.4443399    
C      2.8842746    -0.1398020     0.0580611    
C      1.8522666     0.8044333     0.3300548    
C      2.1445648     2.0848434     0.9884582    
N      0.6655497     4.2094516     3.6128215    
C      0.8766229     5.4904046     4.2429754    
C      2.6198859     4.5264050     2.2189242    
C      3.4514920     4.0735292     1.2149342    
C      3.2314919     2.8588697     0.5919878    
H      0.4777250     1.9099092     2.2879459    
H      5.4785631    -2.7597162    -0.6876980    
H      6.0619263    -0.5979849     0.4995388    
H     -4.6925546    -2.9859189    -2.7825895    
H     -3.2766312    -3.7874496    -4.7290030    
H      0.0367451    -1.9324634    -3.2612989    
H     -4.0876759    -2.2113739     1.7697711    
H     -2.4951497    -2.5005384     1.0176939    
H     -3.8835373    -3.5582054     0.6190464    
H     -0.7767136     3.7913743     5.0443848    
H      0.1408739     2.3803362     4.5088028    
H     -1.1061007     3.0882857     3.4578416    
H     -0.2244698     1.1979044     0.1484749    
H     -1.7617870    -0.3437448    -0.4676157    
H      1.0152072    -2.6017273    -1.4051459    
H      0.9635253     6.2736465     3.4885823    
H      1.7789457     5.4976920     4.8643540    
H      0.0211788     5.7254505     4.8719980    
H      2.8415204     5.4720136     2.6841586    
H      4.2922738     4.6819083     0.9137888    
H      3.8808585     2.5174160    -0.1970816    
