39

P      3.2607531     2.8172602     2.2664075    
O      4.7480112     2.5695956     2.1387954    
O      2.8417745     4.2449678     1.9949411    
O      2.6113217     2.1785090     3.4718860    
P      1.3025359     1.1225541     1.0050916    
O      1.5219781    -0.1985450     1.6701453    
O      0.1207710     1.9501227     1.3727885    
O      2.6636976     1.9528424     0.8925090    
O      1.1060672     0.8494139    -0.6147389    
C      1.8892315    -0.1408050    -1.2544833    
C      1.0728365    -0.7711890    -2.3908343    
O      0.1432603    -1.7353813    -1.9140422    
C      0.2521102     0.2756074    -3.1519553    
O      0.1345055    -0.0884113    -4.4937741    
C     -1.1051572     0.2291634    -2.4229257    
O     -2.1219359     0.5981934    -3.3050969    
C     -1.1823141    -1.2510871    -1.9835559    
N     -1.8846168    -1.4736978    -0.7513640    
C     -1.6407831    -1.0064624     0.5177651    
N     -2.4565846    -1.4808736     1.4090184    
C     -3.2949536    -2.3295450     0.7191512    
C     -4.3814264    -3.1441318     1.1047379    
N     -4.8407288    -3.2250448     2.3532425    
N     -4.9874145    -3.8641038     0.1436193    
C     -4.5522268    -3.7744127    -1.1001926    
N     -3.5557819    -3.0508121    -1.5855907    
C     -2.9401247    -2.3408715    -0.6339705    
H      2.1661789    -0.8990901    -0.5128189    
H      2.8008279     0.3281356    -1.6416623    
H      1.7547528    -1.3010149    -3.0634814    
H      0.7132503     1.2664527    -3.0464931    
H     -0.7098303     0.2662112    -4.8302660    
H     -1.0473380     0.8688384    -1.5351084    
H     -2.9028399     0.9126584    -2.8292691    
H     -1.7328181    -1.8391617    -2.7369767    
H     -0.8483309    -0.3150960     0.7368246    
H     -4.3617808    -2.7180085     3.0761974    
H     -5.6003958    -3.8544349     2.5510831    
H     -5.0850578    -4.3729179    -1.8252252    
