57

C     -2.6105349     2.9115404     1.0472649    
C     -2.1166628     3.7668077     2.0196364    
Cl    -2.7435392     3.6866836     3.6373757    
C     -1.1222878     4.6841003     1.7008971    
Cl    -0.5062370     5.7615425     2.9154774    
C     -0.6276688     4.7454908     0.4059586    
C     -1.1237781     3.8924525    -0.5611298    
C     -2.1182562     2.9719553    -0.2493622    
C     -2.6106807     2.0166538    -1.3053315    
N     -1.5795276     1.0319864    -1.6182952    
C     -1.2807433     0.1038390    -0.6809088    
C     -0.8945557     1.1528489    -2.8265955    
O     -1.1748394     2.0453098    -3.6239689    
C      0.1120795     0.1527912    -3.0008879    
C      0.9996128    -0.1047387    -4.0649555    
N      1.7428229    -1.1461562    -3.7865704    
N      1.3795447    -1.5996502    -2.5765379    
C      2.0960390    -2.7412437    -2.0498159    
C      3.4717156    -2.2858098    -1.5454052    
C      4.2862608    -3.4832667    -1.0818452    
N      4.4256967    -4.4526247    -2.1924408    
C      3.1055238    -4.9537456    -2.6358519    
C      2.2673739    -3.7925302    -3.1499527    
C      0.4067909    -0.8368985    -2.0396228    
C     -0.3218007    -0.8617745    -0.8112761    
C     -0.0034904    -1.7423904     0.3458151    
O      1.1450787    -2.0316689     0.6432560    
N     -1.1008564    -2.1745071     1.0242544    
C     -1.1547164    -2.9128250     2.2048549    
C     -0.0302936    -3.3396296     2.9079225    
C     -0.2230239    -4.0675600     4.0701546    
N     -1.4102534    -4.3841174     4.5622404    
C     -2.4762979    -3.9734289     3.8909285    
C     -2.4101884    -3.2447501     2.7183693    
H     -3.3896808     2.2172625     1.3163212    
H      0.1387668     5.4635178     0.1670669    
H     -0.7438131     3.9454183    -1.5703764    
H     -2.8145137     2.5527101    -2.2362522    
H     -3.5124678     1.5007376    -0.9740011    
H     -1.8437755     0.2069549     0.2345005    
H      1.0951461     0.4297948    -4.9878637    
H      1.5185296    -3.1495444    -1.2198573    
H      3.3342935    -1.6004922    -0.7092111    
H      3.9802914    -1.7517858    -2.3488271    
H      3.7795903    -3.9700490    -0.2477443    
H      5.2717438    -3.1562541    -0.7530453    
H      5.0178590    -5.2371866    -1.8983741    
H      4.8845896    -3.9841982    -2.9846649    
H      2.6113170    -5.4281397    -1.7872229    
H      3.2398471    -5.6919756    -3.4258159    
H      2.7386735    -3.3187785    -4.0106855    
H      1.2928667    -4.1589368    -3.4687231    
H     -2.0064980    -1.9364493     0.6396810    
H      0.9617502    -3.1070734     2.5623250    
H      0.6236991    -4.4180222     4.6435510    
H     -3.4304765    -4.2463311     4.3199911    
H     -3.3151475    -2.9422312     2.2160228    
