70

C     -1.9804448     2.4442064    -0.4426756    
C     -0.6117328     2.6707153    -0.3075356    
C     -0.6241651     0.3912172     1.1521265    
C     -1.9865260     0.3498467     0.8922926    
C     -2.7106673     1.6249651     0.5822535    
C     -3.9394399    -3.4559061     1.2810922    
C     -4.1103632    -4.9779771     1.1409961    
C     -3.4664388    -5.2715125    -1.2258111    
C     -2.3596709    -5.8208106    -2.1302828    
C     -1.8340323    -7.4786798    -0.5883635    
C      4.1905248     4.1502449    -0.7582259    
C      3.6158422     2.9046253    -0.7374225    
C     -2.6546183    -0.8646713     0.9546913    
C     -4.7029516    -2.9651913     2.5079333    
C     -2.9202194    -6.9904031     0.3741304    
S      0.2731778     1.9252432     1.0339371    
C     -1.9759010    -2.0192903     1.3218780    
C     -0.6118368    -1.9571324     1.6089849    
C      0.0617406    -0.7597861     1.5141113    
O     -2.5277132    -3.2640277     1.4070613    
N     -3.1251052    -5.5360566     0.1901481    
O     -2.1817661    -7.2074439    -1.9305994    
C      0.0570988     3.5273666    -1.1866516    
C     -0.6578510     4.1299131    -2.2185522    
C     -2.0031486     3.8655176    -2.3883842    
C     -2.6577177     3.0253382    -1.5035476    
C      1.4885824     3.8383061    -1.0415795    
C      1.9815242     5.0894761    -1.0953936    
C      3.4071923     5.3314346    -0.9344290    
O      2.2767749     2.7547677    -0.8554847    
N      4.2690851     1.7249677    -0.6739273    
C      5.6906688     1.6145705    -0.4153791    
C      5.9094540     1.2486096     1.0581347    
O      5.2469434     0.0414861     1.3739141    
C      3.8590136     0.1244804     1.1131367    
C      3.5838130     0.4843355    -0.3532629    
O      3.8909594     6.4799172    -0.9461724    
H     -3.7284815     1.4275098     0.2490665    
H     -2.7622378     2.2165628     1.5051466    
H     -4.3017762    -2.9406302     0.3832478    
H     -5.1218526    -5.2161177     0.8149319    
H     -3.9321758    -5.4312160     2.1173246    
H     -4.4064986    -5.7768434    -1.4526693    
H     -3.5723628    -4.2015004    -1.3928887    
H     -1.4152994    -5.2900285    -1.9418857    
H     -2.6318877    -5.6976392    -3.1784333    
H     -1.7233439    -8.5603358    -0.5166221    
H     -0.8713624    -7.0048185    -0.3492067    
H      5.2502008     4.2883652    -0.6400378    
H     -3.7095244    -0.8722830     0.7339715    
H     -4.3166140    -3.4430057     3.4040698    
H     -4.5973310    -1.8912875     2.6298852    
H     -5.7575089    -3.2003132     2.4062411    
H     -2.6185192    -7.1964286     1.3999422    
H     -3.8595478    -7.5017186     0.1574553    
H     -0.0946565    -2.8538405     1.9069006    
H      1.1157421    -0.7017866     1.7302879    
H     -2.2398667    -5.0472362     0.4058317    
H     -0.1380101     4.7896888    -2.8952362    
H     -2.5426534     4.3239770    -3.2015618    
H     -3.7141260     2.8396879    -1.6206820    
H      1.3329000     5.9385390    -1.2299827    
H      6.2091978     2.5356648    -0.6629839    
H      6.0782772     0.8079382    -1.0443586    
H      5.5366314     2.0617524     1.6990314    
H      6.9652315     1.0769988     1.2652619    
H      3.3999210     0.8800496     1.7688878    
H      3.4632243    -0.8631629     1.3491312    
H      3.9863527    -0.2975603    -1.0019648    
H      2.5145727     0.5880792    -0.5204510    
