54

N      0.5531263    -0.8548046    -0.6942412    
N      8.1005510     1.7073097     2.7778966    
C     -6.2590723     2.0152660    -2.2237819    
C     -7.2712612    -0.5447001    -2.4869075    
C     -6.1345687    -0.3359284    -1.7258805    
C     -5.6225497     0.9459045    -1.6079081    
C     -3.1474613    -0.1851828    -0.9751211    
C     -3.5380962    -3.4552452     0.6083655    
C      1.1505137    -0.2558641     0.3476505    
C      3.6485747     0.1733250     0.7900461    
C      5.9976903     0.7760746     0.9223088    
C      3.5635009     0.4816426     2.1519637    
C     -1.6710803     0.1752890    -0.7378564    
C     -9.1483667     0.2798860    -3.9416397    
C     -1.3658087    -2.2036633     0.0311465    
C     -0.8434147    -1.1071002    -0.9161656    
C      2.5046695    -0.3065335     0.0394229    
C      4.9049486     0.3394939     0.1958084    
C      5.9105744     1.0766285     2.2898150    
C      4.6525814     0.9185173     2.8835245    
C     -7.9226947     0.5100384    -3.1135582    
C     -7.4027391     1.7927436    -2.9649360    
C     -2.8607654    -2.4154174    -0.2856499    
F      5.0809495     0.0940644    -1.1080448    
F      7.1926034     0.9251749     0.3109784    
F      4.5059892     1.1947471     4.1909488    
F      2.3909425     0.3427093     2.7961476    
N      6.9575044     1.5007064     3.0452923    
N      9.1907278     1.9588209     2.7549007    
N      2.6219172    -0.9350522    -1.1592010    
N      1.4629504    -1.2556944    -1.5782389    
O     -3.5730811    -1.2025065    -0.1145007    
O     -4.6897369    -3.9107917    -0.0613388    
O     -1.1406953    -1.7650512     1.3456021    
O     -1.1951603     1.1180358    -1.6545523    
S     -4.1692155     1.2831770    -0.6336520    
H     -5.8542989     3.0087486    -2.1116203    
H     -7.6593527    -1.5482106    -2.5810786    
H     -5.6596430    -1.1655608    -1.2248424    
H     -3.2985729    -0.4647189    -2.0301596    
H     -3.8018344    -2.9720829     1.5554788    
H     -2.8435444    -4.2874088     0.7823084    
H      0.6147979     0.1303171     1.1857127    
H     -1.5722730     0.5294200     0.2989597    
H     -8.8943033     0.3247394    -5.0001638    
H     -9.5793276    -0.6955869    -3.7341100    
H     -9.8927643     1.0474598    -3.7443887    
H     -0.8203201    -3.1357493    -0.1729624    
H     -0.9207479    -1.4395712    -1.9559246    
H     -7.8970704     2.6264182    -3.4405573    
H     -2.9521456    -2.7493718    -1.3313578    
H     -5.2030494    -4.4812018     0.5280620    
H     -1.3192215    -2.4739283     1.9780392    
H     -1.7135135     1.9350668    -1.5892408    
