54

C     -2.1064265     1.3263485    -0.3894585    
C     -1.9186358     2.1349271    -1.4922201    
C     -0.6512749     2.3296884    -2.0103039    
C      0.4787548     1.7302686    -1.4596229    
C      0.2664972     0.9362234    -0.3397137    
C      1.8840263     1.8491698    -2.0367701    
C      2.0666948     0.8010867    -3.1851349    
N      4.4018326     0.6350336     0.3142129    
N     -1.0889335    -0.0879923     1.3298658    
O     -0.9067799    -3.5952497     6.3648339    
C      2.0576880    -0.6187513    -2.6328957    
N     -0.5458743    -1.5667617     3.4516814    
C      3.5463193     0.6617573    -0.7223589    
C     -2.1841075    -0.5124296     1.9919085    
C     -1.8401837    -1.3646031     3.1693573    
C     -0.2505682    -2.3018552     4.4970638    
C     -1.2682351    -2.8547473     5.2963358    
C     -2.8369444    -1.9317718     3.9542284    
C      2.1718781     3.2605436    -2.5723007    
F     -2.3551340    -3.0310550     8.0083443    
C     -1.9046645    -4.0627005     7.2061849    
N     -2.5492292    -2.6735991     5.0150119    
O     -3.3496250    -0.2650441     1.7028626    
C     -0.9994671     0.7263500     0.2022586    
F     -0.5713032     3.1516195    -3.0934169    
N      2.8436318     1.6706084    -0.9785520    
S      3.5248499    -0.9224682    -1.6062081    
C      1.0460769     0.9530344    -4.2805219    
C      1.3678140     1.6828556    -5.4201015    
C      0.4441706     1.8641095    -6.4332254    
C     -0.8197047     1.3099539    -6.3274814    
C     -1.1454385     0.5656219    -5.2074352    
C     -0.2208735     0.3848121    -4.1937718    
H     -3.0919040     1.1660819     0.0133684    
H     -2.7519172     2.6241796    -1.9696204    
H      1.1181010     0.4780336     0.1394376    
H      3.0604569     0.9915199    -3.6104905    
H     -0.2091087    -0.4111088     1.7260053    
H      2.1029475    -1.3481300    -3.4417351    
H      1.1811761    -0.8150884    -2.0153675    
H      0.7914774    -2.4648701     4.7240060    
H     -3.8822842    -1.7850950     3.7251220    
H      1.9109991     3.9930750    -1.8138039    
H      3.2361866     3.3452160    -2.7790351    
H      1.6191345     3.4693783    -3.4812839    
H     -1.4474224    -4.8033444     7.8673248    
H     -2.7805883    -4.4314814     6.6613078    
H      2.3534366     2.1156562    -5.5141682    
H      0.7126266     2.4398997    -7.3059878    
H     -1.5451922     1.4545102    -7.1133675    
H     -2.1266335     0.1240369    -5.1160524    
H     -0.5016657    -0.1987188    -3.3299650    
H      5.0681167    -0.1161540     0.3689506    
H      4.6071822     1.5095110     0.7679653    
