59

C     -1.9740735    -3.4820788    -3.0055690    
C      2.2269214    -2.0035624    -0.6975162    
C      0.7265613     2.5163493     1.9397237    
C      0.4662874     3.8578287     1.6154139    
C      0.4024579     4.8017432     2.6346542    
C      0.8441233     3.0980407     4.2731810    
O      1.0068593    -0.7811146     1.5443373    
C      0.2410856     0.1420769     1.2411458    
C      0.8422007     1.4900249     0.8377824    
N      2.2437091     1.2888364     0.4919761    
S      2.4545326     0.7415185    -1.0539957    
C      1.6772683    -0.8548479    -1.2661671    
C      0.5049538    -0.9225157    -1.9790070    
C     -0.1508692    -2.1450655    -2.1491503    
C     -1.3650141    -2.2850535    -2.8913124    
C      0.4057855    -3.3046015    -1.5623508    
C      1.6047842    -3.2243503    -0.8431352    
Cl     3.6772786    -1.8784878     0.1977795    
N     -0.2356440    -4.4932674    -1.7178521    
C     -1.4233137    -4.6759515    -2.3946152    
O     -1.9234706    -5.7941146    -2.4551668    
O      1.7615797     1.6686903    -1.9173063    
O      3.8782376     0.6359691    -1.2780131    
O      0.2676744     4.1390128     0.2974348    
C      0.0762998     5.4938557    -0.0856769    
C      0.5920581     4.4184265     3.9514893    
C      0.9129054     2.1532503     3.2634089    
N     -1.0783031    -0.0129597     1.1556505    
C     -1.6464654    -1.2535393     1.6239226    
C     -1.8384223    -1.2349349     3.1910144    
O     -1.4239652    -0.2301858     3.7887456    
O     -2.3880791    -2.2387838     3.6719629    
C     -2.0074945     1.0812452     0.8990857    
C     -2.3537714     1.1592574    -0.5512101    
C     -1.9177380     2.0525237    -1.4815774    
C     -2.4413601     1.8102024    -2.7727940    
C     -3.2670004     0.7350503    -2.8046880    
S     -3.4203029    -0.0093879    -1.2557525    
H     -2.8932820    -3.6085907    -3.5533131    
H      0.2022721     5.8361834     2.4116470    
H      0.9802847     2.7935696     5.2980795    
H      0.3781257     1.8622932    -0.0767227    
H      2.6987198     0.6821614     1.1656607    
H      0.1108252    -0.0139265    -2.4062514    
H     -1.7758445    -1.4025796    -3.3559670    
H      2.0376930    -4.1006975    -0.3902605    
H      0.1614842    -5.3216285    -1.2850859    
H      0.0142860     5.4719677    -1.1713103    
H      0.9235429     6.1098453     0.2206286    
H     -0.8524048     5.8892258     0.3330914    
H      0.5363597     5.1626292     4.7300399    
H      1.0867619     1.1136642     3.5015635    
H     -0.9579072    -2.0706817     1.3990561    
H     -2.6061788    -1.4415693     1.1437105    
H     -1.5706576     2.0217761     1.2375755    
H     -2.8947335     0.8888965     1.5087811    
H     -1.2467493     2.8607898    -1.2516317    
H     -2.2057251     2.4156421    -3.6278531    
H     -3.8088462     0.3301737    -3.6349648    
