67

N      2.2007027     1.1392010     0.9588284    
C      0.9987478     0.4340727     1.3843800    
C      0.0335527     1.2598490     3.5609979    
C     -1.5816251     3.0274868     3.3504837    
C     -1.8451983     4.8104456    -0.1053328    
C      0.8999706     0.4785333     5.6633881    
C      1.7815341    -0.4009521     3.6234177    
O      0.3013607    -4.3753514    -5.2823006    
C      0.3142274    -3.3620379    -4.5894190    
N      1.5145664    -2.8330554    -4.1733193    
C      1.6607875    -1.7351003    -3.3809290    
C      0.5050932    -1.0383722    -2.9639473    
C     -0.7665396    -1.5240171    -3.4001121    
C     -0.8626247    -2.6285947    -4.1665034    
C      0.6502692     0.0750293    -2.1285700    
C      1.9047584     0.4661351    -1.7388245    
S      2.0661012     1.7881812    -0.5619594    
O      0.8642893     2.5941098    -0.5725712    
C      0.9311236     0.4119760     2.8932185    
O     -0.8136988     1.9826177     2.7714992    
C     -2.2577314     3.7932700     2.2165614    
C     -1.2537941     4.4687304     1.2901775    
O     -2.6706331     4.0166828    -0.5988029    
O     -1.4312450     5.8575418    -0.6463459    
C      0.0332887     1.2906478     4.9511505    
C      1.7680213    -0.3741638     5.0074982    
C      1.0248833    -0.9785442     0.7961383    
N     -0.1249399    -1.6331385     0.6490036    
C     -0.0696205    -2.9996497     0.1866517    
C      0.2456521    -3.9857890     1.3798242    
O      0.3322731    -3.4810333     2.5094368    
O      0.3734678    -5.1792512     1.0648499    
C     -1.4035791    -1.1928150     1.1909969    
C     -2.2848285    -0.6420820     0.1179850    
C     -2.3849693     0.6436784    -0.3187264    
C     -3.3136802     0.8106343    -1.3722003    
C     -3.9084759    -0.3538958    -1.7306635    
S     -3.3364073    -1.6764935    -0.7852632    
O      2.1078344    -1.4368931     0.4143542    
O      3.3088966     2.4924446    -0.8056045    
C      3.0505557    -0.1973051    -2.1652602    
C      2.9319766    -1.2904747    -2.9896571    
H      3.0051223     0.5193295     0.9974408    
H      0.1671279     1.0121572     0.9787054    
H     -0.9241578     3.6983942     3.9160667    
H     -2.3414294     2.5994077     4.0167339    
H      0.8855506     0.5132671     6.7409172    
H      2.4440456    -1.0672917     3.0915872    
H      2.3475441    -3.3403230    -4.4566099    
H     -1.6449651    -0.9762771    -3.0949972    
H     -1.8132368    -3.0159943    -4.4942049    
H     -0.2091615     0.6308260    -1.7851166    
H     -2.9283594     4.5408960     2.6410397    
H     -2.8529153     3.1027200     1.6139154    
H     -0.8429281     5.3840428     1.7188164    
H     -0.4218921     3.7911465     1.0690596    
H     -0.6447918     1.9406316     5.4787255    
H      2.4311066    -1.0178484     5.5611858    
H      0.7359923    -3.1015010    -0.5421686    
H     -1.0168017    -3.2809787    -0.2733739    
H     -1.2375541    -0.4350682     1.9556242    
H     -1.8614658    -2.0633048     1.6695760    
H     -1.8326323     1.4726405     0.0910502    
H     -3.5064068     1.7775701    -1.8016352    
H     -4.6472845    -0.5272939    -2.4854253    
H      4.0068923     0.1709938    -1.8339894    
H      3.8104891    -1.8200047    -3.3214295    
