27

N      2.6128509     0.5476055    -1.8953288    
C      2.4156749     0.9913143    -0.4985344    
C      2.9407255    -0.2083076     0.4002082    
O      3.3021958    -1.2025670    -0.2680039    
C      0.9590719     1.3110486    -0.1805543    
C      0.0429631     0.0904372    -0.3001063    
C     -1.3824693     0.4525967     0.1064034    
N     -2.2488577    -0.7037165    -0.0417850    
C     -3.5676436    -0.6860631     0.1209830    
N     -4.2045619     0.4473441     0.3887713    
N     -4.2588768    -1.8141960    -0.0193518    
O      2.9365292    -0.0553158     1.6223390    
H      3.3367815     1.0735666    -2.3870337    
H      2.9559537    -0.4534092    -1.7224545    
H      1.7487976     0.5510424    -2.4413706    
H      3.0386176     1.8557651    -0.2663056    
H      0.6106436     2.1158268    -0.8297707    
H      0.9366756     1.6712434     0.8489258    
H      0.4291498    -0.6954002     0.3529897    
H      0.0330245    -0.2896829    -1.3222552    
H     -1.7417244     1.2586080    -0.5402204    
H     -1.3803869     0.8000275     1.1456892    
H     -1.7896136    -1.5934493    -0.1596610    
H     -5.2576839    -1.8223799     0.0883771    
H     -3.7988619    -2.6793112    -0.2431630    
H     -3.7026167     1.3002900     0.5602350    
H     -5.2026660     0.4558401     0.5075709    
