32

O      1.7556754     0.2464004    -0.6309204    
C      0.5262591     0.2744826    -0.7008391    
N     -0.1174172    -0.3158058    -1.7939112    
C      0.7257694    -0.9269243    -2.8135695    
C      1.2963389    -2.2106807    -2.3262515    
N      0.9445339    -3.4301436    -2.6726069    
N      2.2926763    -2.3151222    -1.4158940    
N      2.5215988    -3.6113785    -1.2273835    
N      1.7220122    -4.2534866    -1.9772951    
C     -0.3722724     0.8602266     0.2473842    
C     -0.0735533     1.5505867     1.4570728    
C      1.2967334     1.8030959     1.9986781    
C      1.2558612     2.8690160     3.0924011    
C      0.1288780     2.5749520     4.0797996    
C     -1.2284350     2.7064231     3.3857558    
C     -1.2004307     1.9569842     2.1011908    
S     -2.6659482     1.5185735     1.2552659    
C     -1.7447793     0.7660485     0.0100514    
N     -2.2949761     0.1571065    -1.0586459    
C     -1.4707235    -0.3544453    -1.9040092    
H      1.5463239    -0.2351057    -3.0306380    
H      0.1329504    -1.1150502    -3.7071882    
H      1.9605824     2.1001292     1.1839713    
H      1.6892751     0.8639950     2.4003841    
H      1.0905387     3.8475610     2.6384628    
H      2.2146557     2.8931230     3.6100094    
H      0.1750190     3.2639047     4.9222742    
H      0.2436546     1.5599133     4.4630133    
H     -1.4425375     3.7594578     3.1810571    
H     -2.0293025     2.3292531     4.0229974    
H     -1.8771565    -0.8525971    -2.7709495    
H      2.7549913    -1.5618889    -0.9159081    
