108

N     -5.6011504    -2.4341316     4.9155677    
C     -6.2521645    -1.4970842     3.9686603    
C     -6.6354443    -2.3605062     2.7476698    
O     -6.4251975    -3.5713534     2.7978147    
C     -5.3170457    -0.3519954     3.6088910    
N     -7.1949529    -1.7347155     1.7275965    
C     -7.6194208    -2.4031480     0.5164548    
C     -7.6028634    -1.3435960    -0.5852809    
O     -7.6461872    -0.1505183    -0.3124139    
C     -9.0254650    -3.0272693     0.7156901    
C     -10.0739268    -1.9502853     0.9841452    
C     -9.4397232    -3.8967055    -0.4667394    
N     -7.5219930    -1.8153921    -1.8341429    
C     -7.5974904    -0.9383764    -2.9821625    
C     -6.5562041     0.1818831    -2.9429675    
O     -6.8083723     1.3037442    -3.3636018    
N     -5.3659255    -0.1770435    -2.4586554    
C     -4.2421949     0.7241757    -2.3369226    
C     -2.9839583    -0.1385826    -2.3714198    
O     -3.0304188    -1.3329857    -2.0997080    
C     -4.3481653     1.5463094    -1.0249805    
C     -3.4124736     2.7591893    -1.0380822    
C     -4.0896094     0.6648690     0.1925679    
C     -3.7825381     3.7879525     0.0260830    
N     -1.8686404     0.4877697    -2.7631665    
C     -0.5657650    -0.1195129    -2.6366769    
C      0.1091488     0.3200397    -1.3345133    
O     -0.4970627     0.9499951    -0.4780262    
N      1.3803900    -0.0732162    -1.2099442    
C      2.2398847     0.3425219    -0.1223326    
C      3.5306462     0.9095172    -0.7189675    
O      3.8715514     0.6429834    -1.8653670    
C      2.5943319    -0.8425899     0.7804304    
N      4.2063586     1.7233172     0.1008978    
C      5.5667856     2.1342553    -0.1625249    
C      6.5025947     1.2911325     0.7142744    
O      6.0745849     0.6737368     1.6854450    
C      5.7741968     3.6396774     0.0999742    
C      4.9648246     4.4652217    -0.8960716    
C      5.4063135     4.0109866     1.5356053    
N      7.7716595     1.2770127     0.3127184    
C      8.8467279     0.6294437     1.0169411    
C      10.1131665     1.5492659     0.9179020    
O      11.0566869     1.2846283     1.6785694    
C      9.1784503    -0.7355666     0.3801823    
C      7.9572021    -1.6040623     0.3720375    
C      7.6561319    -2.4207482     1.4536229    
C      7.0655456    -1.5464579    -0.6915776    
C      6.4903837    -3.1636124     1.4711803    
C      5.8964944    -2.2844886    -0.6740783    
C      5.6061822    -3.0958942     0.4083593    
O      10.0581881     2.4535806     0.0619653    
H     -6.0138407    -2.4320855     5.8505933    
H     -5.7276486    -3.3774995     4.4685810    
H     -4.5961785    -2.2475577     4.9867111    
H     -7.1745493    -1.1042194     4.4026769    
H     -4.4283823    -0.7178770     3.1018472    
H     -5.8080038     0.3543383     2.9482764    
H     -5.0236960     0.1875921     4.5050131    
H     -7.3218112    -0.7281430     1.7011997    
H     -6.9090092    -3.2056762     0.2910685    
H     -8.9434372    -3.6702551     1.5982709    
H     -9.8314146    -1.3765133     1.8737056    
H     -10.1440463    -1.2621828     0.1438901    
H     -11.0478091    -2.4099000     1.1292679    
H     -9.6430017    -3.2902865    -1.3452343    
H     -8.6743705    -4.6331011    -0.6992254    
H     -10.3522020    -4.4320940    -0.2176122    
H     -7.4881880    -2.8101829    -1.9928291    
H     -8.5771090    -0.4521729    -3.0412937    
H     -7.4372592    -1.5213463    -3.8889201    
H     -5.1633753    -1.1321390    -2.1868714    
H     -4.2657145     1.4132405    -3.1880136    
H     -5.3839123     1.9054522    -0.9950296    
H     -3.4694055     3.2447987    -2.0152881    
H     -2.3861741     2.4290332    -0.8644784    
H     -4.7103940    -0.2261881     0.1549474    
H     -3.0427555     0.3688863     0.2251506    
H     -4.3211003     1.2174589     1.0963926    
H     -4.8158060     4.1053883    -0.0950997    
H     -3.6531818     3.3799293     1.0235620    
H     -3.1416287     4.6616248    -0.0641597    
H     -1.8928113     1.4902375    -2.8721879    
H      0.0555777     0.1489929    -3.4917018    
H     -0.7097052    -1.2032119    -2.6098966    
H      1.8710886    -0.4852821    -1.9928370    
H      1.7083894     1.1134762     0.4430065    
H      1.7006522    -1.2090600     1.2756390    
H      3.0275429    -1.6401483     0.1826526    
H      3.3290160    -0.5492309     1.5257737    
H      3.9486830     1.7462353     1.0781138    
H      5.7734164     1.9089416    -1.2133843    
H      6.8410375     3.8410031    -0.0489554    
H      5.2614978     4.2323013    -1.9150485    
H      3.9051688     4.2519269    -0.7856902    
H      5.1308324     5.5235313    -0.7205510    
H      4.3306035     3.9687360     1.6810737    
H      5.8875711     3.3364110     2.2408840    
H      5.7420398     5.0213283     1.7507751    
H      8.1163853     1.9215591    -0.3935093    
H      8.5697419     0.4932165     2.0674451    
H      9.9899169    -1.1779721     0.9598729    
H      9.5346685    -0.5554193    -0.6374002    
H      8.3426373    -2.4630747     2.2868958    
H      7.2885109    -0.9104757    -1.5365944    
H      6.2703343    -3.7918334     2.3204682    
H      5.2149980    -2.2125681    -1.5086850    
H      4.6963903    -3.6753733     0.4265444    
