67

C     -1.1654903     0.6967404    -1.7143537    
C      0.8052812     0.8622948    -2.8944040    
C      2.8075363     0.1137337    -1.8700889    
C      0.1092374     1.5022965    -3.9336127    
C     -1.2754381     1.7029061    -3.7076941    
C     -0.7934257     2.5690777    -5.6930541    
N      0.1518054     0.4598324    -1.8178286    
N     -1.7917326     2.3461946    -4.7768055    
N     -1.9274366     1.3196610    -2.6114025    
O      2.1183224     0.6878016    -2.9921653    
C      0.3796666     2.0681378    -5.2084094    
C      4.2195261     0.6878594    -1.8384065    
C      4.9821022     0.1225893    -0.6439395    
C      5.0372622    -1.4120931    -0.6793940    
C      3.6067288    -1.9747711    -0.7772801    
C      2.8722090    -1.4063622    -1.9872437    
C      5.7184353    -1.9393159     0.5889829    
C     -1.3911956    -0.4338705     0.4921231    
C     -0.2245120    -1.1884631     0.5022304    
O      5.7984756    -1.7677405    -1.8266148    
Cl     1.9123927     2.1030815    -5.9869328    
N     -1.8222832     0.3074096    -0.5901698    
C      0.1382774    -1.9292362     1.6113231    
C     -0.6573123    -1.9179627     2.7487926    
C     -0.3785450    -2.7548182     3.9507396    
O     -1.2906696    -3.4325607     4.4436266    
N      0.8624218    -2.7598166     4.4590337    
C      1.9384053    -1.8845523     4.0540763    
C      1.1865185    -3.6467382     5.5561123    
C     -1.8501040    -1.1939970     2.7407669    
C     -2.2235430    -0.4620459     1.6338946    
O     -3.3890089     0.2728216     1.5113162    
C     -4.3877237     0.2184966     2.4994290    
C     -5.7418609     0.4492587     1.8357514    
C     -4.1355520     1.3269386     3.5349445    
F     -4.1965431     2.5555132     2.9997291    
F     -2.9325148     1.2422300     4.1288992    
F     -5.0441108     1.2994675     4.5272906    
H      2.2613533     0.3936421    -0.9612422    
H     -0.9843765     3.0653858    -6.6215454    
H      4.1732505     1.7762989    -1.7760932    
H      4.7318633     0.4183335    -2.7630735    
H      4.5001015     0.4374624     0.2815734    
H      6.0022666     0.5062374    -0.6570161    
H      3.0656457    -1.7101358     0.1314490    
H      3.6444064    -3.0627440    -0.8523593    
H      3.4076360    -1.6608592    -2.9037878    
H      1.8638615    -1.8188812    -2.0527106    
H      6.7423802    -1.5766426     0.6332325    
H      5.1876538    -1.5973261     1.4722043    
H      5.7318928    -3.0271068     0.5885744    
H      0.3899378    -1.1863351    -0.3798892    
H      5.9380690    -2.7239039    -1.8245534    
H     -2.7741345     0.6468478    -0.5322693    
H      1.0269459    -2.5369441     1.5732378    
H      2.6814096    -2.4354697     3.4732598    
H      1.5571659    -1.0549336     3.4662526    
H      2.4234067    -1.4923535     4.9489198    
H      1.4693158    -3.0719045     6.4382655    
H      0.3097416    -4.2485482     5.7834368    
H      2.0135500    -4.2963617     5.2697011    
H     -2.4535907    -1.2321819     3.6341783    
H     -4.3774748    -0.7371108     3.0383886    
H     -5.7347163     1.3981534     1.3061863    
H     -5.9279973    -0.3518893     1.1278011    
H     -6.5257809     0.4580936     2.5871661    
H     -2.7563703     2.6170574    -4.8820731    
