45

C      0.3889931    -4.4946507     0.5359960    
C     -1.6711987     3.2207049    -1.4455360    
C      0.2382753    -3.1291708     0.3926152    
C     -0.9878136    -2.7021628    -0.1644329    
C      0.5169615     2.0912477    -0.1347232    
C      1.3217463    -2.2153050     0.8209801    
C      1.9036481     0.1486037     0.8741667    
C      3.1041127     0.1527345     1.5608437    
C      1.6548881     1.5102756     0.5727194    
C     -0.1052922     3.2198942     0.3801235    
C     -1.1908255     3.7734522    -0.2745006    
N     -0.5167867    -5.4235388     0.1959867    
N     -1.4599638    -1.4797834    -0.4333045    
C     -1.6601555    -5.0434688    -0.3189283    
N      1.0601514    -0.9140526     0.5894924    
Cl    -1.9627031     5.1855902     0.3927778    
C     -1.0398219     2.1092988    -1.9809733    
C      0.0573336     1.5386310    -1.3460747    
O      0.7559704     0.4773634    -1.8322801    
C      0.3776263    -0.0723633    -3.0789511    
N      2.6390588     2.2614302     1.0598376    
N      3.5003631     1.4378615     1.6387759    
C      4.6985836     1.9365794     2.2534241    
O      2.3581378    -2.6271234     1.3485783    
C     -1.9616053    -3.6920362    -0.5275617    
C     -3.0322212    -2.9435239    -1.0274539    
N     -2.6737557    -1.6633443    -0.9429760    
C     -3.4578121    -0.5284221    -1.3434822    
H      1.3095501    -4.8752104     0.9585565    
H     -2.5213030     3.6547155    -1.9451135    
H      3.6639957    -0.6603491     1.9723835    
H      0.2714473     3.6522501     1.2917351    
H     -2.3581940    -5.8291944    -0.5725168    
H      0.1850745    -0.6877414     0.1208579    
H     -1.4084653     1.7053583    -2.9086118    
H     -0.6249700    -0.5029398    -3.0294827    
H      0.4277738     0.6747852    -3.8740128    
H      1.1009481    -0.8613530    -3.2743028    
H      4.7047589     1.6970470     3.3166415    
H      5.5758017     1.4934437     1.7825921    
H      4.7142598     3.0147298     2.1194678    
H     -3.9800596    -3.2508456    -1.4167731    
H     -2.9134953     0.3740135    -1.0709639    
H     -3.6250430    -0.5500140    -2.4202988    
H     -4.4213385    -0.5432137    -0.8355078    
