53

C     -0.6677770     0.1145931    -0.0888489    
C     -1.5573499    -2.1273646     1.2308715    
N     -2.0180331    -3.2358600     1.8778732    
C     -4.3075059    -3.4483477     1.0199767    
C      3.9869148     4.2929352    -4.5933686    
C      3.3406009     2.4667934    -3.3571164    
C     -3.2452173    -3.8741249     1.8175153    
C      1.9206028     7.4831257    -1.6110728    
C      3.1828818     6.7852014    -1.1157479    
C      2.6885009     3.3020874    -0.9156717    
C      2.2921614     2.1641914    -0.1976146    
C      1.9393163     1.1601910     0.3770287    
C      1.5211241     0.0006791     1.0644894    
C      0.2163068    -0.5080270     0.8214774    
C     -1.9076040    -0.4255899    -0.2676087    
C     -5.5036188    -4.1403203     1.0234991    
C     -5.6484277    -5.2635139     1.8196891    
C     -4.6056922    -5.7068568     2.6159966    
C     -3.4132567    -5.0120845     2.6129819    
C     -0.2202159    -1.6661242     1.5117751    
C      0.6648771    -2.2757172     2.4191596    
C      1.9186919    -1.7637387     2.6342167    
C      2.3719696    -0.6190913     1.9677812    
C      3.7472126    -0.0874650     2.2157395    
C      3.1178772     3.3427402    -2.2732550    
C      3.3827123     4.7103975    -2.5051184    
N      3.1238539     5.3660381    -1.3556065    
N      2.7019192     4.5215677    -0.4021896    
N     -2.3470606    -1.5164334     0.3712571    
N      3.8257746     5.2160037    -3.6680506    
N      3.7774892     2.9867184    -4.5150270    
N      3.1441741     1.1481070    -3.2882941    
Cl    -7.1610901    -6.1328401     1.8211728    
H     -0.3583016     1.0012936    -0.6183588    
H     -1.3659612    -3.6699376     2.5160750    
H     -4.1830097    -2.5739749     0.4056561    
H      4.3404258     4.6465567    -5.5536795    
H      1.8081771     7.3347993    -2.6820433    
H      1.0443238     7.0841128    -1.1063262    
H      1.9897505     8.5472045    -1.4091942    
H      3.2983486     6.9202623    -0.0394298    
H      4.0578541     7.1731629    -1.6409465    
H     -2.6229884     0.0108992    -0.9516271    
H     -6.3232151    -3.8056968     0.4085992    
H     -4.7276170    -6.5837258     3.2308654    
H     -2.6034737    -5.3583689     3.2373179    
H      0.3766315    -3.1580825     2.9690578    
H      2.5782017    -2.2481716     3.3385508    
H      4.4037231    -0.3474390     1.3850866    
H      3.7304526     0.9983038     2.2922342    
H      4.1640321    -0.5063825     3.1275643    
H      2.8094035     0.7316867    -2.4365919    
H      3.3177517     0.5902495    -4.1064940    
