46

C     -3.9378803    -0.2363132     1.6645524    
C      1.8770117     1.3081336    -2.9295898    
C     -4.3298591    -2.0664202     0.3576919    
C     -5.6283726    -2.1998943     0.8091916    
C     -6.0884768    -1.2794234     1.7463432    
C      1.3564346    -2.6395061    -2.7546922    
C      1.5470067    -1.4697108    -2.0456717    
C      0.7249289     1.7928150     1.3576828    
N     -0.0522990     2.4161810     2.2279467    
N     -1.2577510     2.0310078     2.4858988    
C     -1.7856163     1.0011130     1.7978534    
C     -1.0456442     0.2753546     0.8627391    
C      0.2863435     0.6257510     0.6615716    
N     -3.0914667     0.7543669     2.1090346    
N      1.1384613    -0.0437924    -0.1612244    
C      2.0345187     2.4422857     1.0954346    
N      2.3829789     3.3623912     1.9928792    
O      2.7193490     2.1616174     0.0985776    
C      3.5741159     4.1692575     1.8904491    
C      0.9241582    -1.2446421    -0.8156056    
C      0.1418490    -2.2776829    -0.2894830    
C     -0.0525399    -3.4452436    -1.0029443    
C      0.5327571    -3.6287900    -2.2470623    
C     -5.2410256    -0.2848740     2.1842599    
N     -3.5028764    -1.1148892     0.7661515    
S      2.7135579    -0.2750967    -2.6894523    
O      3.7729854    -0.1219191    -1.6998257    
O      3.1728317    -0.7464493    -3.9890534    
H      2.1022915     1.9337508    -2.0738770    
H      2.2754106     1.7364433    -3.8396830    
H      0.8174536     1.1122961    -3.0252170    
H     -3.9103839    -2.7462383    -0.3713035    
H     -6.2612173    -2.9915326     0.4447280    
H     -7.0964328    -1.3431942     2.1272116    
H      1.8689826    -2.7435632    -3.6977331    
H     -1.5269268    -0.5168693     0.3193880    
H     -3.4630269     1.3878394     2.8064685    
H      2.0243954     0.4253042    -0.3468338    
H      1.7080982     3.5618283     2.7204505    
H      4.1877069     3.7631843     1.0871521    
H      3.3166498     5.2032870     1.6568974    
H      4.1261201     4.1368481     2.8282082    
H     -0.2836462    -2.1775381     0.6944166    
H     -0.6614410    -4.2254477    -0.5750264    
H      0.3703071    -4.5366036    -2.8037421    
H     -5.5630013     0.4435216     2.9109072    
