112

C      3.0744586    -0.0488309    -2.4433542    
C      2.7801449    -0.0589546    -3.7957677    
C     -0.1807817    -0.1103316    -5.3058668    
C     -0.9937755     2.1604851    -4.7608331    
C     -2.2274712     2.9972878    -4.4096483    
C     -3.2876136     1.1050881    -3.4819526    
C     -2.0987421     0.2048512    -3.8316054    
C     -2.5356055     2.0416129    -0.8473474    
C     -2.2168721     2.4878029     0.4209039    
C     -1.7826626     4.6609627    -0.4851686    
C     -2.1025250     4.2236528    -1.7409764    
C     -1.3826252     4.3708026     1.9182834    
C     -0.6350484     1.7811083     4.5254333    
C      0.4432971     1.2290499     3.9016239    
C     -0.2859468    -1.0147815     4.5945599    
C     -1.4132256    -0.3788329     5.1970620    
C     -1.0033438    -3.2802391     5.2782073    
N     -1.3684840     0.7480538    -5.0010356    
C      3.2058031    -0.1581307    -8.4797663    
O     -0.7180069     5.3948012     2.0152260    
C      2.7237724     1.2783289    -8.2613551    
C      2.8830308     1.1100880    -1.7069616    
C     -2.4902942     2.8859877    -1.9686139    
C      1.2305908     1.4154394    -8.5808280    
C     -1.8227368     3.8206071     0.6381999    
C      0.6470105    -0.1598415     3.9150284    
C      0.3789587     0.4830529    -7.7236151    
C     -1.5807289     0.9732875     5.1736043    
C     -0.2666061    -4.5975625     5.5415382    
C     -1.1594347    -5.5511305     6.3427334    
C     -0.4295105    -6.8766940     6.5673252    
C      0.8144896    -6.6444238     4.5974403    
C      0.1498617    -5.3099000     4.2509980    
C     -1.7574237     0.3485656     1.3612340    
C     -2.3519497    -0.6611298     2.1330374    
C     -0.8659009    -2.1740884     1.4103581    
C      0.7815965     0.5246395    -6.2768051    
C     -0.1781024    -1.2289122     0.5923230    
C     -0.6441976     0.0815677     0.5810163    
C      0.8846993    -1.9343333    -0.0277044    
C      0.8139059    -3.2198650     0.4214559    
C      3.5248631     2.2169972    -9.1667745    
C      1.9357383     1.0546201    -5.8658816    
C      2.9362725     1.6760309    -6.7953070    
C      2.3172358     1.0889505    -4.4317260    
C      2.2060805     2.2639867    -3.6946236    
C      2.4725378     2.2744244    -2.3358620    
N     -2.8367638     2.4538503    -3.2132183    
N     -1.7683948     3.6777412     3.0498554    
N     -0.1121232    -2.3211826     4.6734402    
N      1.7626167    -0.6407539     3.2336239    
N     -1.9199442    -1.9068020     2.1704550    
N     -0.2425599    -3.3693469     1.2754055    
O     -1.6268645     4.0018656     5.5599646    
O      0.4361137     4.1722259     4.2316822    
O     -0.0454875    -7.4814636     5.3472166    
O      1.9976684    -1.8532379     3.2063402    
O      2.4993254     0.1586105     2.6494472    
O     -2.3008388     1.6170801     1.4884061    
S     -0.8406930     3.5402083     4.4416432    
Cl     3.1455898     1.1029256     0.0447466    
H      3.4488054    -0.9364976    -1.9602418    
H      2.9112149    -0.9676780    -4.3628071    
H     -0.5469498    -1.0525770    -5.7157915    
H      0.3332099    -0.3061311    -4.3649974    
H     -0.2852437     2.1867586    -3.9311627    
H     -0.5090826     2.5570236    -5.6520049    
H     -2.9632485     2.9712714    -5.2168725    
H     -1.9204363     4.0288516    -4.2693570    
H     -3.8333560     0.6977981    -2.6347206    
H     -3.9844741     1.1546025    -4.3230462    
H     -2.4403276    -0.8057347    -4.0541210    
H     -1.4059249     0.1700704    -2.9883013    
H     -2.8113324     1.0034256    -0.9342900    
H     -1.4843893     5.6843508    -0.3148579    
H     -2.0781016     4.9383973    -2.5446087    
H      1.1557735     1.8698152     3.4054235    
H     -2.1492434    -0.9955236     5.6810471    
H     -1.3744379    -2.8951398     6.2296368    
H     -1.8537195    -3.4486949     4.6089991    
H     -1.9984465     0.7315552    -5.8130201    
H      2.7903900    -0.8292704    -7.7344833    
H      2.9253805    -0.5113314    -9.4696517    
H      4.2903760    -0.2031902    -8.4043343    
H      1.0595874     1.2047174    -9.6378115    
H      0.9377588     2.4516572    -8.4003725    
H      0.4799632    -0.5419048    -8.0899882    
H     -0.6701419     0.7596497    -7.8416824    
H     -2.4177035     1.4551842     5.6509345    
H      0.6310422    -4.3832583     6.1319343    
H     -2.0772191    -5.7465132     5.7865870    
H     -1.4187683    -5.1229716     7.3103741    
H     -1.0764326    -7.6037371     7.0608032    
H      0.4627420    -6.7124370     7.1912208    
H      1.7400542    -6.4643482     5.1659806    
H      1.0580134    -7.2131296     3.6986230    
H      0.8580281    -4.7150807     3.6741171    
H     -0.7405853    -5.5142546     3.6542415    
H     -3.2098263    -0.4272985     2.7442029    
H     -0.1516797     0.8563099     0.0112575    
H      1.6103619    -1.5142440    -0.6925437    
H      1.4509000    -4.0503836     0.1905854    
H      4.5793874     2.2020263    -8.8988271    
H      3.4372052     1.9099383    -10.2068384    
H      3.1677063     3.2412577    -9.0828363    
H      2.8761513     2.7636542    -6.6957145    
H      3.9412914     1.3905806    -6.4760147    
H      1.9040161     3.1804118    -4.1772103    
H      2.3575224     3.1789595    -1.7610362    
H     -2.3764806     2.8789957     2.8998000    
H      0.7109568    -2.6993114     4.2096177    
H     -0.5127664    -4.2240196     1.7339590    
