130

N     -1.7760668     6.1836046    -9.0295026    
C     -1.2062637     4.9081840    -8.5340725    
C     -1.8360300     4.6905013    -7.1419384    
O     -2.4885248     5.6003543    -6.6394923    
C      0.3211654     4.9805476    -8.4347012    
C      0.8064041     6.0279616    -7.4287333    
C      2.3311528     6.0357551    -7.3758714    
N      2.7840460     7.0909979    -6.4860134    
C      4.0573024     7.3635365    -6.2217996    
N      4.3545407     8.3664571    -5.3986373    
N      5.0322016     6.6414899    -6.7615321    
N     -1.5994881     3.5136596    -6.5823318    
C     -2.0435997     3.1448904    -5.2555207    
C     -0.7959110     2.7286237    -4.4666914    
O      0.0936019     2.0750930    -4.9925153    
C     -3.0597105     1.9803107    -5.3409673    
C     -4.3915798     2.5036891    -5.8724072    
C     -3.2503109     1.2947987    -3.9889650    
N     -0.7820539     3.1200114    -3.1843775    
C      0.3421187     2.9025628    -2.2899696    
C     -0.1732155     2.3092299    -0.9740382    
C      1.0854682     4.2137503    -2.0049051    
C      1.6780456     4.8878142    -3.2482415    
C      2.7159275     3.9995502    -3.9329836    
C      2.3093400     6.2158863    -2.8329388    
N     -0.7807012     0.9825274    -1.2070180    
C     -1.4536737     0.3714392    -0.0376877    
C     -0.4040464    -0.5585173     0.5996371    
O      0.5457545    -0.9151613    -0.0924000    
C     -2.6660310    -0.4476923    -0.5206627    
C     -3.3043916    -1.2264273     0.5991853    
C     -3.0810985    -2.5906741     0.7252802    
C     -4.1153758    -0.5861596     1.5285935    
C     -3.6660164    -3.3053780     1.7548113    
C     -4.6949437    -1.2987464     2.5623372    
C     -4.4737034    -2.6603079     2.6751886    
N     -0.6095741    -0.8936535     1.8627391    
C      0.2058447    -1.8389310     2.5934862    
C     -0.7146103    -2.5300745     3.5993442    
O     -1.6997572    -1.9505888     4.0392308    
C      1.3282994    -1.0983607     3.3454206    
C      2.1612292    -2.0007681     4.2454212    
C      1.4714197    -2.3070303     5.6066904    
O      1.8452227    -3.3419681     6.2009059    
O      0.6198145    -1.4983023     6.0271217    
N     -0.4001194    -3.7988430     3.8715605    
C     -0.8988964    -4.5134920     5.0273651    
C      0.2169619    -5.4754692     5.4416354    
O      1.0956225    -5.7929912     4.6452322    
C     -2.1710840    -5.2950720     4.6950682    
N      0.0872579    -6.0004451     6.6572220    
C      1.0806816    -6.8655257     7.2565804    
C      0.3463764    -7.9526539     8.0398954    
O     -0.7316247    -7.7294178     8.5799354    
C      1.9859134    -6.0549208     8.2062623    
C      3.3501293    -6.6929362     8.4622166    
C      4.2884430    -6.6669142     7.2539269    
C      4.7319857    -5.2562312     6.8823617    
N      0.9656069    -9.1314528     8.1118790    
H     -2.4890811     6.0467860    -9.7519284    
H     -2.2430313     6.6056613    -8.1898316    
H     -1.0607900     6.8210733    -9.3932218    
H     -1.4864314     4.0825120    -9.1905542    
H      0.7285445     5.1940814    -9.4234649    
H      0.6994902     4.0023623    -8.1380152    
H      0.4137785     5.7962039    -6.4378213    
H      0.4640130     7.0236138    -7.7094070    
H      2.7306113     6.2062317    -8.3812180    
H      2.6873014     5.0653583    -7.0146984    
H      2.0726330     7.6615115    -6.0541109    
H      5.3109515     8.5965850    -5.1921818    
H      3.6394492     8.9488813    -4.9988752    
H     -1.0239329     2.8206517    -7.0427056    
H     -2.5226295     4.0213797    -4.8108152    
H     -2.6604987     1.2419465    -6.0441090    
H     -4.8437022     3.1923195    -5.1623550    
H     -4.2635612     3.0217719    -6.8186945    
H     -5.0829817     1.6800369    -6.0312893    
H     -2.3536606     0.7378043    -3.7269393    
H     -3.4981777     2.0196858    -3.2183113    
H     -4.0694590     0.5831274    -4.0570446    
H     -1.4967821     3.7537597    -2.8548423    
H      1.0120673     2.1961834    -2.7878453    
H     -0.9285889     2.9695757    -0.5442470    
H      0.6457483     2.2050808    -0.2635140    
H      1.8941941     4.0014136    -1.3047581    
H      0.4012451     4.9101331    -1.5164725    
H      0.8683506     5.0917341    -3.9565924    
H      3.4364466     3.6272469    -3.2082394    
H      2.2482299     3.1492265    -4.4227050    
H      3.2610405     4.5673145    -4.6805798    
H      1.5674665     6.8802049    -2.3971598    
H      3.0858731     6.0456317    -2.0903293    
H      2.7625818     6.7058473    -3.6879096    
H     -0.0250081     0.2911998    -1.4311513    
H     -1.4259660     1.0427358    -2.0064482    
H     -1.7670011     1.1308981     0.6792968    
H     -2.3413717    -1.1500461    -1.2891560    
H     -3.4078816     0.2335781    -0.9395202    
H     -2.4471841    -3.1057717     0.0183568    
H     -4.3057362     0.4728381     1.4462955    
H     -3.4886994    -4.3669520     1.8433712    
H     -5.3196338    -0.7969709     3.2858212    
H     -4.9280988    -3.2169245     3.4820584    
H     -1.4331235    -0.6039754     2.3818402    
H      0.6409595    -2.5635988     1.8984193    
H      0.8718184    -0.3399540     3.9881942    
H      1.9697755    -0.6166805     2.6058361    
H      3.0958634    -1.4990358     4.5095780    
H      2.4191455    -2.9532662     3.7786872    
H      0.4693313    -4.2022708     3.5307165    
H     -1.0886240    -3.7914450     5.8313313    
H     -2.9462676    -4.5941321     4.3988257    
H     -1.9711227    -5.9857474     3.8801409    
H     -2.5038089    -5.8541523     5.5640938    
H     -0.6253371    -5.6599576     7.2866125    
H      1.6667983    -7.2819435     6.4343735    
H      1.4577313    -5.9220412     9.1541564    
H      2.1137372    -5.0660728     7.7605030    
H      3.2101967    -7.7221696     8.7976515    
H      3.8258785    -6.1446485     9.2779288    
H      3.8022994    -7.1165689     6.3868947    
H      5.1717152    -7.2638552     7.4917562    
H      3.8862372    -4.6526306     6.5561777    
H      5.1928488    -4.7626212     7.7354865    
H      5.4542715    -5.2892256     6.0700711    
H      0.5438369    -9.8743743     8.6483216    
H      1.8395777    -9.2947186     7.6423199    
H      4.8362640     5.8752249    -7.3810165    
H      5.9950147     6.8494183    -6.5610067    
