27

N      1.5945976    -2.3398415    -0.4847675    
C      1.0518631    -1.5962333    -1.6377161    
C      1.8588510    -0.2338464    -1.6768280    
O      1.5701544     0.5819042    -2.5546284    
C     -0.4613191    -1.3678914    -1.5211722    
C     -0.8610869    -0.9180396    -0.1538561    
C     -1.2740785    -1.7202730     0.8778577    
C     -0.8550890     0.4178146     0.3532453    
N     -1.5302207    -0.9684952     1.9897681    
C     -1.2888980     0.3420620     1.7004290    
C     -0.5387843     1.6593778    -0.1979880    
C     -1.4068211     1.4766780     2.4947745    
C     -0.6587287     2.7776422     0.5954929    
C     -1.0875637     2.6887422     1.9239378    
O      2.7481172    -0.1601158    -0.7994069    
H      2.3788041    -1.6721428    -0.1888810    
H      0.8924988    -2.3819746     0.2666360    
H      1.9538573    -3.2688079    -0.7062985    
H      1.2710166    -2.1030125    -2.5784531    
H     -0.9873213    -2.2914664    -1.7694688    
H     -0.7279397    -0.6071128    -2.2568156    
H     -1.4485884    -2.7793515     0.8870373    
H     -0.1898643     1.7383966    -1.2179714    
H     -1.7372206     1.4108002     3.5200905    
H     -0.4143137     3.7480562     0.1870737    
H     -1.1663921     3.5933683     2.5087666    
H     -1.8780845    -1.3190323     2.8660430    
