19

O      2.8380522    -2.5546114    -1.7900646    
C      2.3453798    -2.5144123    -0.6466851    
O      2.9269151    -2.7874089     0.4204568    
C      0.8578717    -2.0877797    -0.5402093    
S      0.9021945    -0.2666881    -0.2437406    
C     -0.8056302     0.0871339    -0.0096338    
C     -1.8269671    -0.8482132    -0.1610773    
C     -3.1374689    -0.4582358     0.0455442    
C     -3.3895641     0.8572853     0.3986724    
N     -2.4333512     1.7605259     0.5464645    
C     -1.1757803     1.3986601     0.3498890    
C     -0.0944445     2.4418428     0.5193652    
O      1.0673296     2.0713770     0.1956704    
O     -0.3901554     3.5671258     0.9542605    
H      0.3990490    -2.5827371     0.3134033    
H      0.3488654    -2.2960471    -1.4793578    
H     -1.5975897    -1.8631143    -0.4401313    
H     -3.9414000    -1.1669456    -0.0695777    
H     -4.3912879     1.2218260     0.5726732    
