47

C      0.3556898     0.8626277     1.2712156    
C      0.4909781     0.2165769     0.0208996    
C      0.0535912    -1.1019111    -0.0985791    
C     -0.4484798    -1.7004618     1.0747290    
C     -0.7642706    -3.1354926     1.1110687    
C     -1.6164784    -3.6379782     2.2475342    
C     -2.2518579    -2.5532593     3.1181923    
C      1.0562062     1.1864948    -0.9026361    
C      2.9768221     4.9676938    -2.0285939    
C      2.5088547     6.1062887    -1.3933181    
C      1.6092348     5.9885578    -0.3472478    
C      1.1765409     4.7422648     0.0674667    
C     -2.8133363    -3.1824842     4.3945452    
C     -3.3833564    -1.8566449     2.3591452    
C      1.0791030    -1.9195567    -2.2723018    
C      0.6907777    -2.5728203    -3.4604559    
C     -0.6306387    -2.8848875    -3.4789611    
C     -0.5526935    -0.9397601     2.2622210    
C      1.6561470     3.5990030    -0.5674978    
C      2.5613051     3.7141265    -1.6181677    
C      0.0520735    -1.7668851    -1.3887975    
C     -1.1504928    -1.5514027     3.4834401    
N     -0.1609522     0.3192564     2.3663825    
N      1.2313735     2.3297905    -0.1440316    
N      0.7501621     2.1411817     1.1422426    
O     -0.3028772    -3.9201395     0.2907910    
O      1.3404907     1.0859671    -2.0932090    
S     -1.4246162    -2.4167828    -2.0323067    
H     -0.9684310    -4.2769417     2.8553820    
H     -2.3756037    -4.2935021     1.8149497    
H      3.6752160     5.0505010    -2.8466019    
H      2.8398241     7.0804010    -1.7161253    
H      1.2343884     6.8714466     0.1462121    
H      0.4515405     4.6660570     0.8615935    
H     -3.2825554    -2.4228087     5.0133751    
H     -3.5591362    -3.9335634     4.1482109    
H     -2.0242383    -3.6579001     4.9715982    
H     -4.1913371    -2.5569287     2.1642177    
H     -3.7777161    -1.0303438     2.9444256    
H     -3.0369495    -1.4666817     1.4042395    
H      2.0808029    -1.5873355    -2.0687234    
H      1.3679668    -2.7897299    -4.2663673    
H     -1.1966341    -3.3615280    -4.2530069    
H      2.9178145     2.8259996    -2.1135234    
H     -0.3623547    -2.0679127     4.0380930    
H     -1.5317808    -0.7523062     4.1182408    
H      1.0094310     2.7737028     1.8852359    
