35

C      0.7936134    -0.7002524    -0.4086603    
C      1.0777989     2.7935927    -1.8449020    
C      1.8714773     4.1068791     0.0847508    
C     -0.4163296     1.1048998    -2.0864286    
C     -1.0226087    -0.1289428    -1.9238586    
C     -1.0042815    -2.3276475     1.4511428    
C     -1.1582337    -3.0661534     5.0081815    
C     -1.0595316    -3.0855527     2.6210098    
C     -1.0845055    -4.4737614     2.5449445    
C     -1.0623271    -5.0883129     1.3029635    
C     -1.0026989    -4.3482929     0.1403960    
C     -0.9641480    -2.9573361     0.2185298    
C     -0.3986804    -1.0266386    -1.0703596    
C      1.3834021     0.5326167    -0.5742767    
C      0.7767866     1.4521455    -1.4242339    
C      2.2055404     3.6285525    -1.3750228    
C      0.0721421     3.1368165    -2.6873129    
O     -1.0930066    -2.3661167     3.7778094    
O     -0.9635181    -2.2760553    -0.9749195    
O      1.0622402     5.0474054     0.1870310    
O      2.4341186     3.5024729     1.0160383    
O     -0.8435613     2.1335838    -2.8548899    
H      1.2503090    -1.4347980     0.2370870    
H     -1.9349166    -0.3915888    -2.4315959    
H     -0.9939759    -1.2508429     1.5299028    
H     -2.0660071    -3.6716452     5.0670743    
H     -0.2764741    -3.6962547     5.1486255    
H     -1.1813100    -2.2933632     5.7733304    
H     -1.1231639    -5.0786932     3.4350094    
H     -1.0868107    -6.1652405     1.2474675    
H     -0.9851227    -4.8147895    -0.8304753    
H      2.2860563     0.7992643    -0.0468677    
H      2.3184644     4.5136481    -2.0010562    
H      3.1328474     3.0567273    -1.3354582    
H     -0.1203738     4.0472123    -3.2183191    
