54

C      1.0484154    -0.5427591     1.6689275    
C      0.6895621    -1.8028513     1.1371929    
C      1.4721168    -2.8952543     1.5799314    
N      2.4238617    -2.6702097     2.5000499    
N      2.0141816    -0.3267186     2.5751861    
C      3.7461394     5.3936449    -0.3411499    
C      2.6871539     4.2975441    -0.3121693    
C      1.3580042     4.8322081     0.1950825    
O      1.2221115     6.0093306     0.5267962    
N      0.3208875     3.9729257     0.2323996    
C      0.3779862     2.5513597    -0.0037609    
C     -0.9509102     4.3943094     0.7953838    
C     -1.1772748     3.7082832     2.1412074    
C     -1.1169865     2.1928521     1.9757018    
C      0.2115206     1.7932113     1.3269465    
N      0.2541594     0.3745969     1.0841266    
N     -0.5925201    -0.2079451     0.2174331    
C      2.6251645    -1.4367587     2.9347409    
N      1.3320953    -4.1460327     1.1354295    
C     -0.3625059    -1.5064777     0.2224020    
C     -1.1475132    -2.4477453    -0.5726184    
C     -1.4278696    -2.2107492    -1.9473063    
C     -0.9458843    -1.0821796    -2.6413281    
C     -1.2415524    -0.8907135    -3.9624002    
C     -2.0287196    -1.8208370    -4.6579080    
C     -2.4991788    -2.9326862    -4.0185713    
C     -2.2122436    -3.1605973    -2.6554288    
C     -2.6945516    -4.3051859    -1.9870614    
C     -2.4142074    -4.5079639    -0.6648002    
C     -1.6395250    -3.5790169     0.0408298    
H      3.4205877     6.2130464    -0.9777390    
H      3.9019086     5.7931701     0.6578456    
H      4.6859991     5.0000355    -0.7181925    
H      3.0168601     3.4882306     0.3420868    
H      2.5437016     3.9010470    -1.3192322    
H      1.3116378     2.2665966    -0.4827586    
H     -0.4536116     2.2695126    -0.6585487    
H     -1.7459290     4.1254100     0.0946955    
H     -0.9189454     5.4784000     0.9104507    
H     -2.1473595     4.0022407     2.5396752    
H     -0.4055904     4.0349719     2.8410304    
H     -1.9286345     1.8524417     1.3303094    
H     -1.2163316     1.7003429     2.9440815    
H      1.0479401     2.0154532     1.9974226    
H      3.4062480    -1.3262452     3.6763403    
H      0.6667562    -4.3601032     0.4123874    
H      1.9601202    -4.8493764     1.4857163    
H     -0.3465108    -0.3632043    -2.1060957    
H     -0.8688986    -0.0196433    -4.4801057    
H     -2.2551410    -1.6523104    -5.7000761    
H     -3.1010442    -3.6583451    -4.5458925    
H     -3.2949156    -5.0128347    -2.5392009    
H     -2.7912806    -5.3783304    -0.1498812    
H     -1.4571906    -3.7344960     1.0947633    
