120

C      1.6911901    -2.4375448    -11.4054698    
C      2.6528575    -2.0494206    -12.5320464    
O      2.8183935    -0.6480723    -12.6010999    
C      3.3326935    -0.1474804    -11.3833580    
C      2.3950552    -0.4639632    -10.2154461    
N      2.2029194    -1.9303272    -10.1096745    
C      1.3120733    -2.3082483    -8.9872739    
C      1.9966262    -2.1073436    -7.6363757    
C      1.1409906    -2.6148849    -6.4703289    
C     -0.1367031    -1.7857398    -6.2876688    
S      0.2455535    -0.0241473    -5.9187371    
C      0.4803873    -0.0609226    -4.1677083    
C      1.5733783     0.6104200    -3.6363655    
C      1.7824652     0.6027798    -2.2687020    
C      0.9040697    -0.0690498    -1.4330907    
C     -0.2027239    -0.7091961    -1.9667283    
C     -0.4222994    -0.7012696    -3.3308704    
N      1.9782551    -2.5373754    -5.2856053    
C      1.7186445    -3.0613308    -4.0864163    
C      2.5255610    -2.7552771    -2.9655078    
C      2.3031579    -3.3100914    -1.7179206    
S      3.9770139    -1.7569753    -3.0600816    
O      4.0387643    -0.9258084    -4.2357988    
O      4.3205923    -1.1635289    -1.8007447    
C      5.3453997    -3.0432328    -3.3766591    
F      5.1025780    -3.6855852    -4.5208820    
F      5.4017860    -3.9481905    -2.4000554    
F      6.5304421    -2.4477031    -3.4774495    
C      0.6523978    -3.9709658    -3.8530889    
C      0.4299015    -4.5177422    -2.6162244    
C      1.2567894    -4.1836683    -1.5454615    
S      1.0588037    -4.9122113     0.0520942    
O      2.3498119    -5.3063844     0.5666405    
O      0.0348511    -5.9243452     0.0589811    
N      0.6029057    -3.6447230     1.0753484    
C     -0.5579827    -2.9934662     0.7800563    
O     -1.1471458    -3.2939574    -0.2489800    
C     -1.0211453    -1.9429695     1.7007714    
C     -0.1706176    -1.2749269     2.5831658    
C     -0.6669880    -0.2877866     3.4088337    
C     -2.3694603    -1.5822983     1.6542578    
C     -2.8617075    -0.5999209     2.4861399    
C     -2.0189400     0.0598694     3.3815901    
C     -2.5401801     1.1013911     4.2747317    
C     -3.4843790     2.0201080     3.8221163    
C     -3.9714874     3.0000505     4.6667260    
C     -2.1007157     1.1927480     5.5950529    
C     -2.5966933     2.1669047     6.4384924    
C     -3.5375291     3.0851502     5.9851876    
C     -4.0850776     4.1676578     6.8969215    
C     -4.8482421     3.5609826     8.0813661    
N     -6.0843209     2.8920794     7.6085136    
C     -7.2102716     3.8355955     7.4078171    
C     -7.8274415     4.0168695     8.8007411    
C     -7.3372408     2.8071389     9.6181476    
C     -6.6233770     1.9270993     8.5954675    
C     -2.9695607     5.1191198     7.2950071    
C     -2.7814472     6.2253559     6.4613226    
C     -1.7665218     7.1024914     6.7443895    
O     -1.3890580     8.2524127     6.0851640    
C     -0.2872227     8.7656358     6.8065586    
O     -0.0116849     7.9178698     7.9073274    
C     -0.9359693     6.9051744     7.8406151    
C     -1.0903358     5.8297656     8.6785985    
C     -2.1188373     4.9226330     8.3942358    
O     -2.3354332     3.8218872     9.1692987    
C     -1.5560031     3.6269870     10.3346695    
H      1.5929076    -3.5215775    -11.3696214    
H      0.7154934    -1.9866390    -11.5907522    
H      2.2477246    -2.3549445    -13.4965295    
H      3.6296431    -2.5335277    -12.3885697    
H      3.4224523     0.9307185    -11.5131955    
H      4.3328451    -0.5664866    -11.2009316    
H      1.4232967    -0.0030083    -10.3968468    
H      2.8182072    -0.0708996    -9.2940998    
H      3.1251085    -2.3566873    -9.9458561    
H      1.0403677    -3.3580004    -9.1063460    
H      0.4124632    -1.6982534    -9.0566386    
H      2.1889985    -1.0504127    -7.4536442    
H      2.9413357    -2.6512874    -7.6119354    
H      0.8559846    -3.6585908    -6.6357089    
H     -0.7378655    -2.1724668    -5.4720079    
H     -0.7336963    -1.7744064    -7.1938538    
H      2.2569004     1.1319320    -4.2883199    
H      2.6373646     1.1166774    -1.8564725    
H      1.0746909    -0.0811841    -0.3670721    
H     -0.9029351    -1.2183530    -1.3245894    
H     -1.3056836    -1.1794066    -3.7238566    
H      2.7065346    -1.8333839    -5.3142063    
H      2.9556033    -3.0592989    -0.8985072    
H      0.0121210    -4.2549810    -4.6703744    
H     -0.3785238    -5.2060925    -2.4327797    
H      1.1067085    -3.5186933     1.9390119    
H      0.8843539    -1.5014586     2.6020141    
H      0.0056888     0.2380853     4.0687580    
H     -3.0138354    -2.1012703     0.9612024    
H     -3.9112933    -0.3533523     2.4541926    
H     -3.8164113     1.9826365     2.7963411    
H     -4.6896895     3.7104897     4.2853109    
H     -1.3814112     0.4788675     5.9662721    
H     -2.2399249     2.2211856     7.4535657    
H     -4.7839154     4.7669035     6.3067844    
H     -5.1091249     4.3408213     8.7936995    
H     -4.2222384     2.8258469     8.5809094    
H     -5.8460483     2.4125002     6.7338272    
H     -7.9288394     3.3814916     6.7267819    
H     -6.8632654     4.7729400     6.9814459    
H     -8.9122397     4.0420734     8.7354647    
H     -7.5102041     4.9505660     9.2593663    
H     -8.1583485     2.2740264     10.0891276    
H     -6.6544583     3.1211757     10.4044345    
H     -5.8307799     1.3204952     9.0264720    
H     -7.3367560     1.2761621     8.0898519    
H     -3.4145660     6.3944654     5.6072987    
H     -0.5242363     9.7748288     7.1737356    
H      0.5949188     8.8088457     6.1504082    
H     -0.4264806     5.7076551     9.5152366    
H     -0.5000323     3.4837954     10.0934640    
H     -1.6629928     4.4620910     11.0300139    
H     -1.9465587     2.7212242     10.7933474    
