40

C     -0.6794603    -3.2969603     3.3153072    
C     -0.3353833     0.4358955     1.2324569    
C      0.0779388     1.5119092    -0.9628301    
C      0.3621572     1.2202472    -2.3020714    
C      0.5263758     2.2299420    -3.2220073    
C      0.3895369     3.5665008    -2.8355565    
C      0.9178222    -6.1156694     2.3946082    
C     -0.4218354    -5.7428626     1.7689673    
O     -0.4023082    -4.4562900     1.1666330    
C     -0.4765768    -3.3317890     1.9488420    
C     -0.7602178    -2.0729799     3.9678115    
C     -0.6412943    -0.9027200     3.2579889    
C     -0.4326552    -0.9044888     1.8727948    
O     -0.4926396     1.4611455     1.8902775    
N     -0.0636543     0.4383469    -0.0992882    
C      0.0960308     3.8559530    -1.5014359    
C     -0.0470364     2.8466163    -0.5730454    
C      0.5516526     4.6448098    -3.8167404    
N     -0.2058254     5.7155751    -3.7309840    
N      1.4491932     4.5216449    -4.7693656    
C     -0.3459804    -2.1342887     1.2145827    
O     -0.1419014    -2.2303466    -0.1254137    
H     -0.7794285    -4.2058232     3.8853349    
H      0.4508618     0.1899174    -2.6099602    
H      0.7171675     1.9748458    -4.2524040    
H      1.7015520    -6.0887754     1.6412042    
H      1.1824974    -5.4260323     3.1927196    
H      0.8564154    -7.1197194     2.8034581    
H     -1.2329498    -5.8057985     2.5023461    
H     -0.6504420    -6.4167323     0.9398010    
H     -0.9175524    -2.0487068     5.0339881    
H     -0.7056175     0.0565903     3.7478591    
H      0.0362233    -0.4750301    -0.5321630    
H      0.0183203     4.8779826    -1.1660919    
H     -0.2571904     3.0792880     0.4576200    
H     -0.1053202     6.4820908    -4.3805566    
H     -0.9201743     5.7806190    -3.0232288    
H     -0.1291758    -3.1726663    -0.3749902    
H      1.5734908     5.2398845    -5.4682956    
H      2.0612941     3.7211289    -4.7953832    
