26

N     -0.6236552    -4.0061596     1.6238462    
C      0.9750439    -0.2913693    -0.1842848    
C     -0.0649811     0.6339301    -0.4257946    
C      0.1612825     1.8425822    -1.0627053    
C      1.4609122     2.1331957    -1.4654028    
C      0.8631294     4.2680957    -2.3763950    
O     -2.7384160    -3.0016155     0.7549961    
O     -1.8103140    -2.2070508     2.8889115    
S     -1.5717034    -2.6864195     1.5470330    
C     -0.6811532    -1.4108169     0.6943653    
N      0.5746657    -1.4313411     0.4526112    
S     -1.5728672    -0.0070537     0.1929198    
C      2.5021249     1.2116726    -1.2247883    
C      2.2743765     0.0159111    -0.5967223    
O      1.8331794     3.2634435    -2.0920154    
C      1.5854802     5.4141026    -3.0661226    
H     -0.4828357    -4.4352275     0.7227532    
H      0.2342813    -3.8447594     2.1284017    
H     -0.6591603     2.5182075    -1.2293107    
H      0.4038236     4.6098921    -1.4413697    
H      0.0853264     3.8538577    -3.0288647    
H      3.4903424     1.4855267    -1.5557070    
H      3.0697409    -0.6858894    -0.4139803    
H      2.3664530     5.8021109    -2.4184763    
H      2.0401245     5.0649459    -3.9884930    
H      0.8798484     6.2071355    -3.2916206    
