52

C     -2.5820000    -2.9798913     0.9793509    
C      3.7356349    -0.3318165     0.9293166    
C      5.5932919     1.4872265     3.6242028    
C      6.8861440     1.1247753     3.2988684    
C      6.1333316    -0.1712847     1.4581808    
C     -7.3158633     0.7000531    -4.5544559    
C     -6.1545184     0.9019566    -3.6314447    
C     -5.5342308     2.1456876    -3.5477011    
C     -4.4578173     2.3479964    -2.7079156    
C     -3.9909526     1.2990944    -1.9261958    
C     -1.7127583     0.0490839    -0.8724737    
C     -1.7061259    -2.0939343     0.0922041    
C     -0.2576094    -1.9405429     0.5986172    
C      0.4816542    -1.0187615    -0.3894008    
C      2.3655499    -0.1412978     1.0262027    
C      4.8158727     0.1752634     1.7577125    
C      4.5566184     1.0068808     2.8464775    
C      7.1780623     0.3018309     2.2279048    
C     -0.2493153     0.3289990    -0.4880772    
C     -4.6037490     0.0584477    -1.9816274    
C     -5.6719317    -0.1324620    -2.8409341    
F      7.9135270     1.5993202     4.0647053    
N      1.8538876    -0.8398683    -0.0049799    
N      3.9516720    -1.1292631    -0.1485194    
N      2.8321640    -1.4231197    -0.6921576    
O     -2.3326321    -0.8241446     0.0275410    
O     -3.6504319    -3.4482132     0.1918181    
O     -0.1859846    -1.3450168     1.8680491    
O      0.4095636     1.1033129    -1.4485183    
S     -2.6263089     1.6234115    -0.8282519    
H     -2.9478052    -2.3751006     1.8159796    
H     -1.9819982    -3.8215258     1.3486832    
H      5.4124286     2.1313519     4.4690456    
H      6.3191098    -0.8137606     0.6131844    
H     -8.1079443     1.4098956    -4.3242081    
H     -7.0094189     0.8674644    -5.5855511    
H     -7.7113293    -0.3078201    -4.4673347    
H     -5.8970681     2.9628762    -4.1527544    
H     -3.9741832     3.3099406    -2.6455643    
H     -1.7573659    -0.3413007    -1.9019949    
H     -1.6791811    -2.5402924    -0.9145851    
H      0.2315676    -2.9245454     0.5954991    
H      0.5112307    -1.4803723    -1.3813387    
H      1.7513279     0.3860958     1.7213183    
H      3.5427361     1.2819753     3.0874691    
H      8.2016765     0.0454796     2.0090962    
H     -0.2455964     0.8152705     0.4987085    
H     -4.2604287    -0.7528139    -1.3575947    
H     -6.1402581    -1.1046873    -2.8826246    
H     -4.2769283    -3.9324081     0.7481899    
H     -0.4890233    -1.9583587     2.5508968    
H     -0.0285239     1.9643001    -1.5376630    
