47

C     -0.1781751    -0.0293179    -2.0804916    
C     -0.1201136    -0.7522167    -0.8951827    
C     -0.7357202    -1.9961762    -0.7937507    
C      1.0385700     5.3575781     0.3780369    
C      2.1574437     5.7796957    -0.3191358    
C      2.6868449     4.9805534    -1.3163896    
C      2.1148508     3.7519567    -1.5929392    
C     -0.8003128     3.7281381     0.8490231    
C     -0.4709334     2.6273366     1.9058472    
C     -0.6815494    -2.7408990     0.4732025    
C     -0.5505417    -4.1247480     0.4758980    
C     -0.4993200    -4.8451793     1.6623602    
C     -0.5859315    -4.1644770     2.8686931    
C     -0.7156782    -2.7835040     2.8753292    
C     -0.7609788    -2.0693151     1.6938430    
C     -0.3461530    -6.3441628     1.5606609    
C     -1.4061810    -2.5102168    -1.9028905    
C     -1.4461815    -1.8036153    -3.0914275    
C     -0.8289152    -0.5701320    -3.1866212    
C      0.4600353     1.3088068    -2.2188588    
N      0.4480846     2.0457968    -1.0897336    
C      1.0034600     3.3170849    -0.8808996    
C      0.4339355     4.1384224     0.1054580    
O     -0.3471436     1.4568591     1.4733078    
O     -0.3597139     2.9780449     3.0895990    
O      0.9161372     1.6937442    -3.2973718    
N     -0.3053578    -7.0243802     2.8726053    
H      0.4169837    -0.3565771    -0.0463523    
H      0.6150025     5.9834291     1.1506318    
H      2.6059697     6.7331409    -0.0868708    
H      3.5526456     5.3034789    -1.8731320    
H      2.5238841     3.1159096    -2.3615924    
H     -1.2192037     4.5805370     1.3844645    
H     -1.5470547     3.3166195     0.1656193    
H     -0.4639269    -4.6420491    -0.4670826    
H     -0.5529706    -4.6627390     3.8233338    
H     -0.7804268    -2.2498729     3.8122798    
H     -0.8636985    -0.9933228     1.7169182    
H      0.5739911    -6.5604137     1.0146929    
H     -1.1809362    -6.7379994     0.9781975    
H     -1.9159339    -3.4582286    -1.8307513    
H     -1.9640967    -2.2104509    -3.9463425    
H     -0.8450592     0.0003948    -4.1035929    
H     -0.0003346     1.6570444    -0.2506427    
H     -0.2069252    -8.0381623     2.7420871    
H      0.4915039    -6.6828327     3.4225995    
H     -1.1703887    -6.8381580     3.3935882    
