56

C     -2.8983635     3.1965982     1.3692578    
C     -4.0520671    -0.2157210     1.0457222    
C     -2.0120753    -1.6075494     1.4533249    
C     -1.6971476    -1.8108856    -1.0265790    
C      1.3401758    -2.3676233    -3.2259083    
C      0.7199824    -4.7431678    -3.3331047    
C      2.7784492    -3.9869068    -4.4317048    
C      0.2377632    -1.9831608     0.3727594    
N      3.5401399     5.0428280     3.2259538    
C      2.5886185     4.1410420     2.8962632    
N      2.8497269     2.8467976     2.6334004    
N      1.7507749     2.1628565     2.2499471    
C      0.7455853     3.0195390     2.2606349    
C     -0.6043270     2.6122570     1.9129033    
C     -0.8865943     1.2559714     1.8086783    
C     -2.1821457     0.8801282     1.4961456    
C     -3.2057254     1.8386506     1.2715614    
C     -1.6140331     3.5663270     1.6873754    
C     -4.3864957     1.1052534     0.9842840    
N     -2.7332546    -0.3630098     1.3609949    
C     -1.1335841    -1.8139553     0.2433523    
C     -0.9067279    -1.9887389    -2.1465758    
C      0.4649832    -2.1633944    -2.0166503    
N      1.8444289    -3.7676623    -3.2878664    
C      1.1880342    -6.0593786    -3.9425329    
O      1.5602779    -5.9093841    -5.3067544    
C      2.0406185    -4.6078484    -5.6124358    
C      1.0308330    -2.1546957    -0.7467256    
C      1.2122703     4.3121411     2.6669532    
C      0.5229633     5.4973719     2.8706342    
N      0.0065913     6.5096351     3.0773143    
H     -3.6586484     3.9456433     1.2015159    
H     -4.6776048    -1.0759126     0.8993574    
H     -2.7448967    -2.4157442     1.5265017    
H     -1.4061984    -1.6017419     2.3636398    
H     -2.7610487    -1.6632994    -1.1362534    
H      2.2002671    -1.6976425    -3.1703128    
H      0.7840925    -2.1560721    -4.1394659    
H     -0.0819293    -4.3319997    -3.9472668    
H      0.3366347    -4.9083761    -2.3275026    
H      3.5738742    -4.6670626    -4.1264316    
H      3.2217191    -3.0393321    -4.7313927    
H      0.6876393    -1.9758002     1.3535287    
H      4.4100791     4.7002504     3.5978522    
H      3.2240471     5.9338116     3.5691805    
H     -0.0985576     0.5415094     1.9767026    
H     -1.3690003     4.6153965     1.7640316    
H     -5.3537062     1.5135156     0.7675583    
H     -1.3654359    -1.9786502    -3.1230645    
H      2.3664515    -3.9329590    -2.4205056    
H      0.3775096    -6.7902354    -3.9277703    
H      2.0323465    -6.4738048    -3.3755451    
H      2.7203075    -4.7286710    -6.4575267    
H      1.2077403    -3.9697824    -5.9353470    
H      2.0975709    -2.2587506    -0.6206366    
H      3.7375824     2.3714593     2.6770462    
