35

C      2.9272656    -0.8334142    -2.4434189    
C      4.3234209    -0.8101907    -2.6712646    
O      2.3305228     1.4278462    -2.8162939    
C      2.0073979     0.2871662    -2.5375338    
O      0.7447299    -0.0846050    -2.2991878    
C     -0.2721709     0.9320489    -2.3340863    
C     -0.4139448     1.5765591    -0.9797938    
C      0.1535319     2.8142470    -0.7242087    
C      0.0517840     3.3687458     0.5427227    
C     -0.6038869     2.6929023     1.5497948    
C     -1.1701965     1.4419765     1.3001711    
O     -1.7924209     0.8548761     2.3675973    
C     -2.4038058    -0.3996604     2.1878097    
C     -2.9569433    -0.8538631     3.5284627    
O     -3.6400566    -1.9796813     3.3868957    
C     -4.2223936    -2.5474211     4.5688753    
O     -2.7945175    -0.2838338     4.5792773    
C     -1.0755578     0.8866490     0.0317221    
C      2.6561433    -2.1582215    -2.1204688    
N      3.8235941    -2.8045524    -2.1698642    
N      4.8403902    -2.0051788    -2.5017004    
H      4.9248420     0.0315458    -2.9459189    
H     -1.1807576     0.4024476    -2.6243815    
H     -0.0013145     1.6756671    -3.0891246    
H      0.6822545     3.3347131    -1.5085206    
H      0.4898911     4.3336382     0.7437282    
H     -0.6937188     3.1032570     2.5424975    
H     -1.6837886    -1.1558212     1.8479983    
H     -3.2309986    -0.3453409     1.4692809    
H     -3.4620045    -2.6620495     5.3413021    
H     -5.0133906    -1.8957604     4.9399782    
H     -4.6205048    -3.5089128     4.2612286    
H     -1.5008170    -0.0773382    -0.1954583    
H      1.7295830    -2.6318734    -1.8734537    
H      4.0048084    -3.7818541    -1.9882082    
