137

N     -9.1149066     1.4355523    -0.2912605    
C     -9.6979750     1.1842808     1.0554823    
C     -8.5495711     0.9157497     2.0412714    
O     -8.4105587     1.5761056     3.0552879    
C     -10.7269652     0.0294148     1.0101150    
O     -11.5149145    -0.0177888     2.1673709    
N     -7.7445584    -0.1115211     1.6921970    
C     -6.3498706    -0.0692974     2.0753861    
C     -5.6859755     0.9604381     1.1398910    
O     -6.3784455     1.6588245     0.4029435    
C     -5.7019084    -1.4547631     1.9662059    
C     -4.6851941    -1.7611187     3.0750530    
C     -5.3900102    -2.0841708     4.3912725    
C     -3.7992311    -2.9301133     2.6443371    
N     -4.3584397     1.0879206     1.2683707    
C     -3.5697940     1.5974956     0.1638847    
C     -3.9407583     0.7682934    -1.0850344    
O     -4.6740704    -0.2071211    -0.9783323    
C     -2.0904435     1.4658580     0.5145542    
C     -1.1369424     2.4225095    -0.2314458    
O     -1.5219319     2.9728952    -1.2834549    
O     -0.0215452     2.6104926     0.3073400    
N     -3.5082735     1.2674123    -2.2454912    
C     -3.6099416     0.4857363    -3.4646703    
C     -2.6231058    -0.6859048    -3.4029944    
O     -2.9945230    -1.8551524    -3.4340262    
C     -3.3622258     1.3562783    -4.6922671    
O     -4.5143299     2.1144763    -4.9467275    
N     -1.3601759    -0.3095123    -3.2147433    
C     -0.3080857    -1.2640599    -2.9817418    
C      1.0365851    -0.5272295    -3.0452018    
O      1.4286944    -0.2129674    -4.3333462    
C     -0.4861219    -1.8076252    -1.5707762    
O     -1.2467326    -1.2435891    -0.7759632    
P      0.5299345     0.9694135    -5.1914068    
O      1.5477680     1.5860273    -6.1135645    
O     -0.5685795     0.1929147    -5.8955047    
O     -0.0115451     1.9270863    -4.1165767    
N      0.1727017    -2.9044756    -1.1941092    
C      0.4196548    -3.0456841     0.2409814    
C      0.8684225    -1.6699635     0.7494156    
O      1.4322674    -0.8654081    -0.0095616    
C      1.5145035    -4.1144016     0.3317687    
C      1.3565749    -4.8811540    -0.9802609    
C      1.0677378    -3.7500631    -1.9649955    
N      0.6049224    -1.3503890     2.0109261    
C      0.9988425    -0.0263086     2.4866271    
C      2.3692330     0.3075178     1.8995755    
O      3.2998103    -0.4797914     2.0930200    
C      1.0136151    -0.1855306     4.0083210    
C     -0.0705515    -1.2333017     4.2522794    
C      0.1139166    -2.2029814     3.0849685    
N      2.4903330     1.5441173     1.3824991    
C      3.5337391     1.9602402     0.4438837    
C      4.9491699     2.1767259     1.0111153    
O      5.6931264     3.0292120     0.5400513    
C      3.0680731     3.1938045    -0.3307334    
C      2.6037450     2.8258427    -1.7310361    
O      3.2869868     2.1193297    -2.4672160    
N      1.4620284     3.4277414    -2.1310205    
N      5.3017013     1.3721776     2.0206611    
C      6.6895190     1.0069730     2.2467643    
C      6.9851670    -0.2837377     1.4564010    
O      7.9245209    -0.3435407     0.6661575    
C      6.9657398     0.8538800     3.7537260    
O      6.0277855    -0.0537721     4.2881858    
C      6.8884276     2.2136799     4.4472565    
N      6.2097779    -1.3262764     1.7905940    
C      5.9221994    -2.3842696     0.8568877    
C      5.0479812    -1.8171121    -0.3360304    
O      5.1220821    -0.5915846    -0.5322699    
C      5.2073492    -3.5326489     1.5448078    
O      6.0745081    -4.1976239     2.4259844    
O      4.3866142    -2.6508563    -0.9837681    
H     -8.0987120     1.6698680    -0.1982856    
H     -9.1797819     0.6104379    -0.8994695    
H     -9.5777418     2.2197696    -0.7643075    
H     -10.2075812     2.0820301     1.4168954    
H     -10.2168591    -0.9259360     0.8417859    
H     -11.4329159     0.2114712     0.1968379    
H     -10.9823867    -0.2828035     2.9281914    
H     -7.8863385    -0.5569416     0.7947625    
H     -6.2970438     0.3226026     3.0965003    
H     -5.2208854    -1.5404973     0.9881447    
H     -6.4910326    -2.2067471     2.0219057    
H     -4.0348896    -0.8916899     3.2316985    
H     -6.0475420    -1.2753453     4.6955095    
H     -5.9824873    -2.9890577     4.2852185    
H     -4.6555930    -2.2450576     5.1760378    
H     -4.4050453    -3.8045874     2.4200765    
H     -3.2323877    -2.6704548     1.7483448    
H     -3.0987872    -3.1876105     3.4351599    
H     -3.8883534     0.3661568     1.7995255    
H     -3.8210911     2.6452847    -0.0335252    
H     -1.7283047     0.4617395     0.2748254    
H     -1.9421484     1.6513335     1.5811034    
H     -2.7668263     1.9702403    -2.1931022    
H     -4.6230145     0.0676229    -3.5070736    
H     -3.1072209     0.7057307    -5.5413610    
H     -2.4821529     1.9888244    -4.5111888    
H     -4.3242984     2.7542465    -5.6485492    
H     -1.0463558     0.6363985    -3.4270262    
H     -0.3256436    -2.0502101    -3.7479158    
H      1.8473431    -1.1250155    -2.6130859    
H      0.9536720     0.3830186    -2.4277344    
H     -0.5142253    -3.3391008     0.7297932    
H      1.4044807    -4.7408222     1.2127907    
H      2.4875981    -3.6178134     0.3351951    
H      0.5036933    -5.5559145    -0.9303335    
H      2.2599267    -5.4184404    -1.2527633    
H      1.9949869    -3.2179001    -2.2152532    
H      0.5756229    -4.0592587    -2.8878544    
H      0.2751526     0.7150349     2.1291270    
H      0.8245395     0.7612886     4.5045970    
H      1.9943303    -0.5629797     4.2983521    
H     -1.0510966    -0.7646029     4.1926272    
H      0.0435953    -1.7290906     5.2115052    
H      0.8676244    -2.9617676     3.3096989    
H     -0.8157706    -2.6853786     2.7848097    
H      1.5993416     1.9759529     1.1357411    
H      3.7175284     1.1426608    -0.2806340    
H      3.9333353     3.8540455    -0.4476020    
H      2.2709239     3.7070044     0.2025385    
H      1.0481503     3.0508232    -2.9870331    
H      0.7767304     3.6183257    -1.4082927    
H      4.6453194     0.6144025     2.2076429    
H      7.3180265     1.7953158     1.8228865    
H      7.9821832     0.4385705     3.8448611    
H      6.2156298    -0.1660035     5.2330215    
H      7.6073788     2.8908192     3.9990748    
H      5.8903978     2.6241562     4.3141507    
H      7.1037954     2.1096475     5.5073737    
H      5.4424002    -1.1246407     2.4226815    
H      6.8648213    -2.7184200     0.4076955    
H      4.8449341    -4.2025673     0.7540058    
H      4.3390925    -3.1084345     2.0693600    
H      5.5812451    -4.8933530     2.8901753    
