116

N      6.1249176     1.9456195    -0.9640767    
C      4.9151865     2.7629327    -0.7141077    
C      4.6327754     2.6042569     0.7969669    
O      5.2727745     1.7657042     1.4241794    
C      3.7236592     2.2451032    -1.5264635    
C      3.9092379     2.4691996    -3.0314611    
C      2.7160537     1.9450190    -3.8282666    
N      2.6019680     0.5079058    -3.6547440    
C      1.5270319    -0.2300647    -3.9461353    
N      0.4200170     0.3256586    -4.4228486    
N      1.5719939    -1.5387434    -3.7267348    
N      3.6979004     3.3933924     1.3014825    
C      3.2307045     3.3146791     2.6651124    
C      1.7265910     3.5916615     2.6408275    
O      1.2282061     4.2093709     1.7096129    
C      3.9146121     4.3896263     3.5429554    
C      5.3987657     4.1583885     3.5928992    
C      5.9346793     3.2056241     4.4522916    
C      6.2582201     4.8582405     2.7590956    
C      7.2915916     2.9625171     4.4844265    
C      7.6221895     4.6272484     2.7856582    
C      8.1491385     3.6762457     3.6506851    
O      9.4804601     3.4058144     3.7174951    
N      1.0400784     3.1204986     3.6876746    
C     -0.3575193     3.4548784     3.9118461    
C     -1.2067815     3.1840300     2.6580006    
O     -2.1231534     3.9189536     2.3242333    
C     -0.5146268     4.9071152     4.3594983    
N     -0.8794593     2.0630647     1.9964116    
C     -1.6700344     1.5322214     0.9039563    
C     -2.1677922     0.1537766     1.3420533    
O     -1.4266697    -0.6199983     1.9383119    
C     -0.8268067     1.4112383    -0.3837952    
C     -1.6556951     0.8174581    -1.5202306    
C     -0.2956212     2.7813737    -0.7942790    
N     -3.4633116    -0.1007163     1.1114327    
C     -4.0102262    -1.4312886     1.3260786    
C     -3.4445598    -2.3415735     0.2302155    
O     -3.4071039    -1.9259189    -0.9340453    
C     -5.5432784    -1.3768957     1.2389557    
C     -6.1544093    -2.7741204     1.3157825    
C     -6.1019088    -0.4883249     2.3487006    
N     -2.9567090    -3.5324185     0.5667435    
C     -2.5438469    -4.4638889    -0.4799212    
C     -3.5384694    -4.3780150    -1.6418340    
O     -4.7491291    -4.4869116    -1.4419655    
C     -2.5463027    -5.8166873     0.2272082    
C     -2.1382145    -5.4480945     1.6518870    
C     -2.8827036    -4.1352958     1.8906950    
N     -2.9803779    -4.1917992    -2.8326641    
C     -3.7380983    -3.8843075    -4.0209584    
C     -4.6500190    -5.0884336    -4.4440900    
O     -4.2163739    -6.2300384    -4.2115074    
C     -2.7808176    -3.5764172    -5.1760203    
C     -1.6999088    -2.5741512    -4.7444255    
O     -0.8210019    -2.9958894    -3.9516474    
O     -1.7223860    -1.4147443    -5.1933531    
O     -5.7120386    -4.7921569    -5.0223264    
H      6.9565088     2.5034635    -1.1748786    
H      6.2746679     1.4386756    -0.0536474    
H      5.9841807     1.2562189    -1.7077896    
H      5.1003446     3.8128633    -0.9459391    
H      2.8217043     2.7641270    -1.2035609    
H      3.5726476     1.1871889    -1.3121863    
H      4.8078957     1.9788854    -3.4049615    
H      4.0005087     3.5357222    -3.2334279    
H      2.8440543     2.1967274    -4.8867036    
H      1.7968333     2.4130027    -3.4688628    
H      3.4573321     0.0036688    -3.4756952    
H      0.7246764    -2.0982606    -3.8362377    
H      2.3414379    -1.9585767    -3.2347952    
H      3.1697152     4.0417611     0.7265247    
H      3.4584663     2.3188892     3.0553227    
H      3.4942375     4.3430184     4.5473800    
H      3.6966067     5.3722281     3.1219792    
H      5.2859644     2.6482760     5.1110986    
H      5.8621711     5.6062869     2.0888464    
H      7.7132309     2.2277881     5.1521532    
H      8.2785672     5.1934246     2.1410786    
H      9.9755139     3.9746281     3.1088593    
H      1.5375153     2.6769591     4.4447360    
H     -0.7401626     2.7854263     4.6888423    
H      0.0096541     5.0764230     5.2951392    
H     -0.1204191     5.5686570     3.5922690    
H     -1.5687893     5.1324674     4.4876955    
H     -0.2175612     1.4081745     2.3905156    
H     -2.5074026     2.2172837     0.7435992    
H      0.0049382     0.7346382    -0.1619429    
H     -2.0346683    -0.1765424    -1.2881741    
H     -2.5097655     1.4533451    -1.7467697    
H     -1.0567511     0.7276857    -2.4221291    
H     -1.1262178     3.4371389    -1.0445928    
H      0.2615352     3.2467790     0.0134777    
H      0.3361969     2.6775402    -1.6698670    
H     -3.9587112     0.4731571     0.4446458    
H     -3.6865364    -1.7638520     2.3138533    
H     -5.7940612    -0.9552237     0.2577496    
H     -5.7925510    -3.4052721     0.5039315    
H     -5.9240397    -3.2436472     2.2687589    
H     -7.2351419    -2.7067116     1.2200884    
H     -5.8978594    -0.9350425     3.3181403    
H     -5.6557314     0.5014438     2.3194946    
H     -7.1771603    -0.3889748     2.2322606    
H     -1.5476225    -4.1880223    -0.8444163    
H     -1.8757940    -6.5224839    -0.2548126    
H     -3.5609398    -6.2187182     0.1970221    
H     -1.0626341    -5.2842495     1.6931612    
H     -2.4159948    -6.2120803     2.3720309    
H     -3.8887662    -4.3254671     2.2714721    
H     -2.3444628    -3.4704622     2.5683460    
H     -1.9798969    -4.0088979    -2.9183139    
H     -4.3972377    -3.0243305    -3.8234383    
H     -3.3552213    -3.1826495    -6.0151999    
H     -2.2970912    -4.5132211    -5.4693864    
H     -0.3758185    -0.2655489    -4.6701702    
H      0.4174603     1.2680254    -4.7718249    
