53

C     -0.0908391     1.0959044     1.5363451    
C     -0.2714914     1.6907258     2.7858400    
C     -1.2319832     1.1152782     0.6886807    
C     -2.3752527     2.2335879     2.3162066    
C      2.0003148     0.7320165     2.4734916    
N     -1.3987632     2.2775490     3.1999759    
C     -2.6572549    -4.0756026    -1.5212706    
C     -1.3618227    -3.5900410    -1.5602272    
C     -1.1181683    -2.2961192    -1.9858241    
C     -2.1650058    -1.4678605    -2.3702160    
C     -1.9035983    -0.0445115    -2.7666959    
C      1.2285884     0.5639556     1.3664031    
N     -2.3702441     1.6834427     1.1165716    
C      2.6231216    -1.1921383    -2.3224788    
C      2.2482710     0.1323270    -2.2439798    
C      1.8000814     0.6949114    -1.0455348    
C      2.5369721    -1.9544724    -1.1627506    
C      1.7115178    -0.0534258     0.1195476    
C      2.0857274    -1.4029643     0.0643060    
C     -2.0860781     0.8878823    -1.5656210    
C      2.5489015    -3.5692631     0.3601492    
C      2.1032057    -2.4607873     1.0141394    
C     -3.7070666    -3.2598564    -1.9088235    
C     -3.4619722    -1.9637694    -2.3269670    
C     -1.7464536     2.3737384    -1.9717906    
O     -0.8367501     2.9332265    -1.3318172    
O     -2.4146601     2.8533022    -2.9037795    
N     -1.2280817     0.4651530    -0.4889874    
S      1.1508579     1.5758666     3.7596524    
C      3.4256697     0.3461683     2.6775756    
C      4.3135885     1.5726474     2.8862335    
N      2.8164975    -3.2692763    -0.9447909    
H     -3.3074915     2.6960104     2.6154123    
H     -2.8495227    -5.0843922    -1.1899106    
H     -0.5374630    -4.2156049    -1.2539426    
H     -0.1057502    -1.9200990    -2.0205491    
H     -2.5880782     0.2937841    -3.5465455    
H     -0.8798449     0.0719516    -3.1351817    
H      2.9603335    -1.6197198    -3.2535172    
H      2.2878081     0.7605195    -3.1222366    
H      1.4975441     1.7354486    -1.0315359    
H     -3.1223984     0.8838135    -1.2145016    
H      2.6984411    -4.5619257     0.7359510    
H      1.8115503    -2.3867261     2.0419675    
H     -4.7206324    -3.6306929    -1.8826911    
H     -4.2795958    -1.3215677    -2.6221107    
H     -0.2958291     0.2082686    -0.8011301    
H      3.7595958    -0.2121133     1.8020003    
H      3.4970453    -0.3005664     3.5548884    
H      4.2513637     2.2318982     2.0233480    
H      3.9880238     2.1228101     3.7653743    
H      5.3467453     1.2653642     3.0203559    
H      3.1467267    -3.9174098    -1.6396479    
