70

C     -1.7381223     0.0368638    -1.5615525    
C     -0.9819063     1.0242331    -2.2335754    
N     -2.4819187     0.7790327    -4.1115195    
C     -3.0922344    -0.1276582    -3.3811601    
N     -2.7940513    -0.5207090    -2.1502816    
C      0.5961440     2.6114524    -2.8171739    
C     -1.7348715    -1.5212014     0.2081842    
C     -1.5799720    -1.4675105     1.7263890    
C     -0.7386486    -2.5251086    -0.4911274    
C      0.1856446     1.7532328    -1.8471889    
C     -1.4279994     1.3442213    -3.5197822    
C      1.7927637     3.4986473    -2.8093125    
C      2.8784076    -2.2043883    -0.2892407    
C      3.8251517    -3.3600482     0.0169546    
N      3.2405520    -4.2230525     1.0618484    
C      4.0478733    -5.4252891     1.3055321    
C      3.0644810    -3.4116509     2.2834766    
C      2.1093272    -2.2671340     1.9833852    
N      2.6582867    -1.4288720     0.9201780    
C      2.0480218    -0.1779570     0.7639109    
C      1.4555568     0.2344138    -0.4214990    
C      2.0690792     0.7356409     1.8391582    
O      2.6635091     0.3779921     3.0002618    
C      1.4700514     1.9770707     1.6706633    
Cl     1.4891222     3.0753205     3.0349847    
C      0.8553709     2.3881994     0.4913420    
C      0.1973164     3.7306211     0.4016556    
C      0.8655229     1.4847391    -0.5662307    
C      2.7982599     3.0825539    -3.8833634    
S     -0.4332636     2.5542269    -4.2439635    
O     -1.4281051    -0.2309866    -0.3035790    
O     -0.4078578    -2.2283685    -1.6513495    
O     -0.3399508    -3.4938204     0.1734447    
C     -2.6280016    -0.5735863     2.3195295    
C     -2.3955767     0.7921449     2.4250157    
C     -3.3741412     1.6354115     2.9196049    
C     -4.5970545     1.1222727     3.3184914    
C     -4.8368172    -0.2374194     3.2169846    
C     -3.8582314    -1.0794122     2.7178700    
H     -3.9511182    -0.6072814    -3.8300013    
H     -2.7516763    -1.8118502    -0.0868658    
H     -0.5859209    -1.0713628     1.9408671    
H     -1.6574520    -2.4885886     2.1005767    
H      2.2541058     3.4407721    -1.8225770    
H      1.4788420     4.5273811    -2.9939279    
H      1.9368605    -2.5959296    -0.7061113    
H      3.3369590    -1.5571692    -1.0378362    
H      4.7750395    -2.9703380     0.3856913    
H      3.9900133    -3.9387157    -0.8915534    
H      2.2999470    -4.4952408     0.7434667    
H      4.1449756    -6.0019719     0.3896633    
H      5.0360848    -5.1305063     1.6505693    
H      3.5733530    -6.0427576     2.0635537    
H      4.0356353    -3.0182431     2.5851962    
H      2.6495422    -4.0292418     3.0790879    
H      1.9784605    -1.6621594     2.8777099    
H      1.1325392    -2.6758564     1.6817485    
H      1.3846656    -0.4435275    -1.2574919    
H      2.6466893     1.1244312     3.6248341    
H     -0.5351241     3.8474737     1.2006418    
H      0.9351246     4.5262245     0.5035786    
H     -0.3106867     3.8436782    -0.5511741    
H      3.1153168     2.0547933    -3.7247235    
H      2.3421122     3.1561046    -4.8672985    
H      3.6695026     3.7294336    -3.8481936    
H     -1.4432908     1.1877022     2.1018567    
H     -3.1838749     2.6961458     2.9937686    
H     -5.3603744     1.7802947     3.7049112    
H     -5.7892999    -0.6425779     3.5240694    
H     -4.0481099    -2.1397447     2.6318203    
