42

C      0.1561759     2.5064860     1.8878528    
C     -1.3243612     2.4878854     2.2735844    
C     -1.8650111     3.9094540     2.4156756    
C      0.5224378    -4.5987712    -3.3112308    
C     -1.0584785     4.6599525     3.4710020    
C      0.4141702     4.7107884     3.0743660    
C      0.9615764     3.2923302     2.9249293    
C     -0.5086095    -2.3972941    -2.8584750    
C      1.3755665    -4.4694413    -2.0836846    
C      0.7830907    -3.5196024    -1.0507816    
N     -0.0502172    -1.1877396    -0.8314355    
N     -1.5855435     6.0453510     3.6211859    
C      0.7047130     1.0862071     1.7784895    
N     -0.3406591    -3.5495937    -3.5722187    
C      0.4834895    -2.1814957    -1.7339001    
C      0.7168515    -0.5638683     0.0797657    
O      0.0301757     0.3947446     0.7171793    
O      1.8795479    -0.8437346     0.3109623    
O     -1.3983944    -1.6136649    -3.1179139    
O      0.5541522    -5.5464841    -4.0669638    
H      0.2627535     2.9788492     0.9062415    
H     -1.4411639     1.9489301     3.2157398    
H     -1.8848092     1.9465658     1.5117275    
H     -2.9168469     3.8592357     2.6953852    
H     -1.7837855     4.4138199     1.4523285    
H     -1.1572391     4.1473553     4.4313691    
H      0.9999864     5.2341694     3.8298264    
H      0.5275628     5.2313745     2.1224905    
H      2.0085734     3.3298144     2.6243198    
H      0.9120070     2.7709853     3.8825760    
H      2.3518701    -4.1015997    -2.4124340    
H      1.5305922    -5.4665705    -1.6720611    
H      1.4936258    -3.3500234    -0.2424268    
H     -0.1344436    -3.9307595    -0.6281729    
H     -0.9708907    -0.8243325    -1.0412998    
H     -2.5812323     6.0291728     3.8705189    
H     -1.0700440     6.5517696     4.3507562    
H     -1.4821233     6.5571264     2.7361363    
H      0.5366705     0.5274621     2.7055695    
H      1.7787753     1.0864916     1.5668039    
H     -0.9643336    -3.6826243    -4.3661982    
H      1.4194716    -1.8015825    -2.1722625    
