105

C      3.0910640    -5.0811591    -2.6703408    
C      2.7841439    -5.4669664    -4.1196562    
C      4.0170676    -6.0487790    -4.8040186    
C      4.5267256    -7.2696605    -4.0447543    
C      4.8353304    -6.9003729    -2.5984510    
C      3.5965613    -6.3249149    -1.9146878    
C      3.8610309    -5.9638787    -0.4740873    
O      4.9468520    -6.0759803     0.0582808    
C      2.6559265    -5.4103318     0.2402767    
C      2.1618805    -4.1701894    -0.5095304    
C      1.8551717    -4.4941064    -1.9774283    
C      1.4489552    -3.1817356    -2.6369828    
O      2.2877587    -2.4684875    -3.1898552    
N      0.1578973    -2.8039378    -2.5725072    
C     -0.9224833    -3.4508732    -1.8491103    
C     -2.1577198    -3.5750303    -2.7389448    
C     -2.6003914    -2.1911163    -3.1983607    
C     -1.4553042    -1.5271696    -3.9560855    
C     -0.1866525    -1.4961774    -3.1023184    
C     -0.2747067    -0.4577942    -1.9894065    
O     -0.8625172     0.5964565    -2.0934163    
O      0.4034682    -0.8276617    -0.9176781    
C      0.4472369     0.0961849     0.1943775    
C      1.6892802    -0.2520629     1.0146267    
C      1.8320451     0.6538970     2.2419015    
C      1.8010056     2.1182047     1.9020108    
C      2.6958863     2.6571703     0.9898316    
C      0.8899145     2.9750631     2.4971831    
C      0.8680949     4.3207411     2.1717170    
C      1.7466453     4.8598051     1.2399474    
O      1.7331464     6.1822423     0.8708133    
C      0.8267558     7.0578679     1.5162258    
C      2.6908262     4.0034237     0.6438091    
O      3.6319838     4.3381946    -0.2952726    
C      3.9930908     5.6874584    -0.5245864    
C     -0.8303032    -0.0071100     0.9876441    
C     -1.5844615     1.1351592     1.2173147    
C     -1.2572894    -1.2339560     1.4736820    
C     -2.4384397    -1.3171572     2.1936812    
C     -3.1842495    -0.1836248     2.4426536    
C     -2.7555703     1.0519877     1.9581122    
O     -3.5539268     2.1157125     2.2526205    
C     -3.1119256     3.4278521     1.9252652    
C     -4.0065453     4.4324455     2.6471388    
N     -5.3678764     4.5086488     2.0596443    
C     -6.2562492     3.3822220     2.4597413    
C     -6.7290534     3.5361447     3.9068423    
O     -7.3734548     4.7781372     4.1131577    
C     -6.4992463     5.8487248     3.8158730    
C     -6.0559464     5.7938953     2.3527705    
H      3.8803810    -4.3213522    -2.6741154    
H      2.4507442    -4.5793848    -4.6606476    
H      1.9773490    -6.2036275    -4.1365614    
H      4.8008447    -5.2887407    -4.8384576    
H      3.7724561    -6.3227690    -5.8319373    
H      5.4252880    -7.6597167    -4.5249580    
H      3.7676044    -8.0547366    -4.0658533    
H      5.6368570    -6.1589421    -2.5655316    
H      5.1797815    -7.7757757    -2.0438038    
H      2.7991051    -7.0767460    -1.9273631    
H      2.9262651    -5.1569958     1.2659099    
H      1.8730208    -6.1697488     0.2530038    
H      2.9328165    -3.3961632    -0.4794255    
H      1.2727061    -3.7748204    -0.0177722    
H      1.0515547    -5.2296547    -2.0454776    
H     -1.1709252    -2.8367445    -0.9761429    
H     -0.6120338    -4.4315796    -1.5031785    
H     -2.9523226    -4.0643748    -2.1763558    
H     -1.9188516    -4.1904079    -3.6075123    
H     -2.8643094    -1.5810512    -2.3316372    
H     -3.4745653    -2.2645059    -3.8446715    
H     -1.7081988    -0.5002653    -4.2197857    
H     -1.2463458    -2.0818552    -4.8711863    
H      0.6663021    -1.1770150    -3.7196354    
H      0.5445917     1.1080514    -0.2184073    
H      2.5595385    -0.1604224     0.3635132    
H      1.6217028    -1.2912862     1.3368581    
H      2.7815917     0.4170349     2.7262112    
H      1.0287712     0.4318999     2.9455057    
H      3.4418876     2.0405549     0.5122260    
H      0.1979960     2.5926463     3.2314341    
H      0.1547366     4.9625551     2.6610431    
H     -0.2070338     6.7808720     1.2974741    
H      0.9964569     7.0782839     2.5953258    
H      1.0383390     8.0386937     1.0964035    
H      3.1910740     6.2388581    -1.0174306    
H      4.2662873     6.1893978     0.4054510    
H      4.8606894     5.6361009    -1.1806979    
H     -1.2355014     2.0675479     0.8047098    
H     -0.6684079    -2.1193304     1.2898121    
H     -2.7733998    -2.2715738     2.5680321    
H     -4.0981419    -0.2353953     3.0116013    
H     -3.1392761     3.5725738     0.8376307    
H     -2.0807000     3.5697893     2.2666068    
H     -3.5430450     5.4162266     2.5734567    
H     -4.0758889     4.1470629     3.6956566    
H     -5.2489553     4.4484476     1.0412617    
H     -5.7161838     2.4437965     2.3451983    
H     -7.1288631     3.3915108     1.8050770    
H     -5.8977587     3.4256490     4.6146889    
H     -7.4739621     2.7711124     4.1272710    
H     -5.6376546     5.8331915     4.4947551    
H     -7.0693282     6.7604142     3.9942052    
H     -6.9451422     5.8573094     1.7226435    
H     -5.3953368     6.6302937     2.1296095    
