273

C      6.5499625    -6.6280690     9.7326865    
O      7.1580228    -7.0101465     8.7356356    
C      7.2186795    -6.3328591     11.0506517    
N      5.2175296    -6.4630552     9.7243434    
C      4.4362583    -6.7117954     8.5243405    
C      4.8408441    -5.6440976     7.5087540    
O      4.7016661    -4.4461553     7.7882307    
C      2.9309346    -6.6228603     8.8132732    
C      2.1462367    -6.8269040     7.5184947    
C      2.5092786    -7.6641433     9.8464343    
N      5.3647935    -6.0132601     6.3484942    
C      5.7921517    -4.9841127     5.4123300    
C      4.5493898    -4.3053336     4.8355543    
O      3.4543912    -4.8595133     4.8212815    
C      6.5802238    -5.7541679     4.3474190    
C      5.9094552    -7.1254108     4.3587866    
C      5.6137160    -7.3515079     5.8405900    
N      4.7498559    -3.0928489     4.3131003    
C      3.6524307    -2.2867092     3.8042188    
C      2.8078670    -3.0741767     2.7980249    
O      1.5858803    -2.9844202     2.7767849    
C      4.1849985    -0.9996849     3.1676028    
C      4.6616889    -0.0062059     4.2215323    
S      3.2702019     0.7489911     5.1376457    
C      2.8745553     2.1295542     4.0483597    
N      3.4946735    -3.8269206     1.9307767    
C      2.8517914    -4.5834329     0.8784040    
C      1.9092590    -5.6921893     1.3714711    
O      1.1599156    -6.2393173     0.5681270    
C      3.9027223    -5.1869119    -0.0579602    
C      4.5464496    -4.1537729    -0.9860486    
C      3.6086825    -3.7687735    -2.1275442    
N      4.2426665    -2.7734420    -2.9720992    
C      3.6247411    -2.0690716    -3.9105344    
N      4.3180225    -1.1918512    -4.6320751    
N      2.3392625    -2.2763166    -4.1825809    
N      1.9783525    -6.0255722     2.6620094    
C      1.0986615    -6.9985127     3.2648940    
C      0.0929202    -6.3704792     4.2379431    
O     -0.6504701    -7.0803248     4.9107664    
C      1.9177928    -8.0654691     3.9891453    
N      0.1206339    -5.0386671     4.3477333    
C     -0.8597608    -4.3283891     5.1372982    
C     -2.1085748    -4.0917267     4.2849075    
O     -2.1170510    -4.2972404     3.0735347    
C     -0.2629912    -3.0088197     5.6347433    
C      0.9457511    -3.2604074     6.5355961    
C      1.5191918    -1.9492572     7.0678968    
N      2.8388455    -2.1814686     7.6220144    
C      3.5986871    -1.2615209     8.2000478    
N      3.1643354    -0.0162108     8.3767667    
N      4.8052415    -1.6198960     8.6319924    
N     -3.1785448    -3.6434189     4.9513726    
C     -4.4857120    -3.4639440     4.3421107    
C     -4.5726911    -2.0975738     3.6337166    
O     -5.3760685    -1.2303629     3.9538997    
C     -5.5716876    -3.6125763     5.4007727    
C     -5.7005059    -5.0520194     5.9011123    
C     -6.3144776    -5.0892003     7.2918188    
O     -6.0222617    -4.2688353     8.1553360    
N     -7.1667001    -6.0937479     7.5195351    
N     -3.6926847    -1.9721120     2.6386444    
C     -3.5036513    -0.7657693     1.8518163    
C     -4.0761043    -1.0366304     0.4543377    
O     -3.4171138    -1.6378105    -0.3983411    
C     -2.0136684    -0.4278435     1.7871975    
C     -1.4263434    -0.0541116     3.1526283    
C      0.0949564     0.0018085     3.0510730    
C     -1.9654270     1.2838858     3.6534280    
N     -5.3374316    -0.6694372     0.2317558    
C     -5.9525532    -0.9225520    -1.0638801    
C     -5.1580222    -0.2759764    -2.1944954    
O     -4.3815811     0.6511161    -2.0042866    
C     -7.3394406    -0.2681034    -0.9724910    
C     -7.6194909    -0.2628996     0.5275281    
C     -6.2475226     0.0378059     1.1215100    
N     -5.4645081    -0.7519707    -3.4067226    
C     -4.9042125    -0.2554832    -4.6544040    
C     -4.5803411     1.2351792    -4.5516566    
O     -3.4407337     1.6529339    -4.7446481    
C     -5.8842737    -0.5091868    -5.7964927    
N     -5.6074530     2.0238553    -4.2289971    
C     -5.5297695     3.4700342    -4.2499113    
C     -4.2462651     3.9764448    -3.5942782    
O     -3.5742059     4.8726311    -4.1094507    
C     -6.7467778     4.0521073    -3.5219873    
O     -6.8624851     3.4742134    -2.2440379    
N     -3.9657847     3.4581765    -2.4009576    
C     -2.8243685     3.8812678    -1.6168111    
C     -1.5291191     3.9705255    -2.4292970    
O     -0.6911880     4.8338443    -2.1940700    
C     -2.6188664     2.8911723    -0.4579909    
C     -1.3586019     3.2124925     0.2952278    
C     -1.3471738     4.2128643     1.2588432    
C     -0.1766796     2.5455253     0.0050748    
C     -0.1734035     4.5467404     1.9114145    
C      0.9978499     2.8776639     0.6558548    
C      1.0028302     3.8838018     1.6068069    
N     -1.3329494     2.9670199    -3.2919626    
C     -0.1217331     2.8270930    -4.0571407    
C     -0.0774680     3.6300301    -5.3530735    
O      0.9488148     3.6349369    -6.0386999    
C      0.0524341     1.3433590    -4.4478113    
C     -0.0295517     0.4477856    -3.2588605    
C     -1.1632520    -0.1501710    -2.7790776    
C      1.0228331     0.0795029    -2.3688115    
N     -0.8849949    -0.8884573    -1.6688177    
C      0.4412856    -0.7637143    -1.3826373    
C      2.3802139     0.3968573    -2.2975829    
C      1.2055983    -1.3059088    -0.3562367    
C      3.1271739    -0.1459141    -1.2766132    
C      2.5474013    -0.9907652    -0.3247518    
N     -1.2016563     4.2309022    -5.7366958    
C     -1.3784443     4.7930445    -7.0607888    
C     -0.9088977     6.2526348    -7.1076559    
O     -1.6321312     7.1936982    -7.4115845    
C     -2.8315905     4.6263654    -7.4906301    
C     -3.1820317     3.1577984    -7.6750114    
C     -4.7011907     2.8562367    -7.7024310    
O     -5.5019335     3.7524625    -7.3676203    
O     -5.0205708     1.6894850    -8.0167129    
N      0.3783321     6.3966741    -6.7756838    
C      1.0435770     7.6798622    -6.9121340    
C      0.7501473     8.2108731    -8.3163377    
O      0.9585875     7.4992504    -9.3048255    
C      2.5509924     7.5042753    -6.7443762    
C      3.3018361     8.8245198    -6.8203077    
C      4.8409802     8.6436154    -6.6569827    
O      5.4820183     9.6654867    -6.3358047    
O      5.3230381     7.5125353    -6.8567847    
N      0.2851195     9.4478058    -8.4503090    
C      0.1108858     9.9893218    -9.7935769    
C      1.3853678     9.7359801    -10.6026000    
O      2.4836497     10.0560181    -10.1631719    
C     -0.1334640     11.4788853    -9.5497157    
C     -0.8383520     11.4874051    -8.1965272    
C     -0.1042898     10.3948010    -7.4201939    
N      1.2043735     9.2657210    -11.8428269    
H      7.0039580    -7.1415607     11.7460574    
H      8.2932843    -6.2775056     10.9042745    
H      6.8544787    -5.4015815     11.4730568    
H      4.7470053    -6.0808388     10.5295508    
H      4.6977081    -7.7074818     8.1572810    
H      2.7250491    -5.6196537     9.2007492    
H      2.2951570    -7.8371822     7.1439592    
H      1.0811190    -6.6986672     7.6922533    
H      2.4508694    -6.1214636     6.7492967    
H      1.4421346    -7.5833364     10.0353505    
H      2.7119146    -8.6666271     9.4758418    
H      3.0325980    -7.5389490     10.7898931    
H      6.4009442    -4.2441904     5.9391873    
H      7.6185860    -5.8444362     4.6634551    
H      6.5455070    -5.2759494     3.3723670    
H      6.5420867    -7.9072211     3.9481266    
H      4.9745341    -7.0959377     3.7980936    
H      4.7478377    -7.9968904     5.9857915    
H      6.4754555    -7.7757851     6.3675270    
H      5.6567726    -2.6551026     4.3848745    
H      2.9776700    -2.0142834     4.6248192    
H      3.3820952    -0.5440340     2.5849019    
H      5.0084594    -1.2311408     2.4900984    
H      5.2175105     0.8107936     3.7655154    
H      5.2805970    -0.4831701     4.9774207    
H      3.7193179     2.8134638     4.0141450    
H      2.6323281     1.7616596     3.0559547    
H      2.0090760     2.6347482     4.4650379    
H      4.4984083    -3.9020368     2.0092094    
H      2.1932225    -3.9085657     0.3179928    
H      3.4137448    -5.9587051    -0.6539279    
H      4.6665217    -5.6753652     0.5487402    
H      5.4551736    -4.5868995    -1.4037353    
H      4.8091792    -3.2581312    -0.4237747    
H      2.6849997    -3.3500139    -1.7192695    
H      3.3612261    -4.6601066    -2.7132801    
H      5.2369633    -2.6470233    -2.8567287    
H      1.8475831    -1.6577337    -4.8039966    
H      1.7821887    -2.8791895    -3.6032167    
H      2.5946722    -5.5454003     3.3133539    
H      0.5099563    -7.4536806     2.4583990    
H      2.4891772    -8.6530830     3.2766010    
H      2.5895536    -7.5782723     4.6901935    
H      1.2456276    -8.7195361     4.5371053    
H      0.6029415    -4.4768429     3.6525871    
H     -1.1335808    -4.9842850     5.9722080    
H     -1.0245967    -2.4472485     6.1749830    
H      0.0426715    -2.4278661     4.7635793    
H      1.7033906    -3.7893581     5.9564906    
H      0.6540227    -3.9028537     7.3669622    
H      0.8556096    -1.5484657     7.8398768    
H      1.5842287    -1.2183800     6.2537393    
H      3.2272981    -3.1151258     7.5513753    
H      5.3872822    -0.9787671     9.1405679    
H      5.0776048    -2.5879103     8.5503080    
H     -3.1256581    -3.4777297     5.9461927    
H     -4.5948232    -4.2319683     3.5644633    
H     -6.5180204    -3.2697692     4.9824089    
H     -5.3420617    -2.9600249     6.2468150    
H     -4.7068321    -5.4999929     5.9859935    
H     -6.2856716    -5.6522316     5.2070155    
H     -7.5884433    -6.1788503     8.4306256    
H     -7.4034216    -6.7611688     6.8066239    
H     -3.0872241    -2.7606462     2.4190585    
H     -4.0575855     0.0384068     2.3360226    
H     -1.8676107     0.3960294     1.0864278    
H     -1.4904173    -1.3032549     1.3965085    
H     -1.7073640    -0.8337696     3.8691291    
H      0.4950243    -0.9716202     2.7799486    
H      0.3829086     0.7247227     2.2899856    
H      0.5183865     0.3048351     4.0044790    
H     -1.7657544     2.0684445     2.9260378    
H     -3.0371550     1.2395645     3.8314002    
H     -1.4850351     1.5541676     4.5899199    
H     -6.0054689    -2.0043121    -1.2281795    
H     -8.0855614    -0.8133226    -1.5429118    
H     -7.2802224     0.7559331    -1.3467966    
H     -7.9570471    -1.2468193     0.8518859    
H     -8.3595511     0.4788182     0.8128377    
H     -6.0360203     1.1113620     1.0815850    
H     -6.1599632    -0.3143682     2.1490778    
H     -6.0816950    -1.5463815    -3.4948605    
H     -3.9503637    -0.7572062    -4.8678971    
H     -5.8932432    -1.5627169    -6.0584721    
H     -6.8879520    -0.1974690    -5.5215307    
H     -5.5858095     0.0643287    -6.6743086    
H     -6.5378084     1.6330929    -4.1969760    
H     -5.5292551     3.8379012    -5.2877605    
H     -7.6399139     3.8400387    -4.1254024    
H     -6.6113915     5.1376660    -3.4707522    
H     -7.4635761     4.0145708    -1.7111580    
H     -4.4555638     2.6225349    -2.0974972    
H     -3.0041787     4.8937207    -1.2314518    
H     -2.5713705     1.8868501    -0.8833781    
H     -3.4873290     2.9554526     0.1999479    
H     -2.2616263     4.7402013     1.4887671    
H     -0.1770391     1.7754539    -0.7498890    
H     -0.1770911     5.3344255     2.6493336    
H      1.9092606     2.3583865     0.3988892    
H      1.9209517     4.1636948     2.0995713    
H     -2.1167597     2.3986070    -3.5970713    
H      0.7089698     3.1687607    -3.4275147    
H      1.0089071     1.2569524    -4.9647590    
H     -0.7500589     1.0988446    -5.1494009    
H     -2.1635678    -0.0836122    -3.1616423    
H      2.8155336     1.0711410    -3.0198127    
H      0.7546955    -1.9388004     0.3931701    
H      4.1747382     0.0986526    -1.1975726    
H      3.1637166    -1.3971950     0.4598314    
H     -1.9934487     4.3278707    -5.1086787    
H     -0.7174338     4.2338979    -7.7386349    
H     -3.0010547     5.1813252    -8.4141503    
H     -3.4820640     5.0616780    -6.7273880    
H     -2.8013730     2.5769261    -6.8290762    
H     -2.7421261     2.7497590    -8.5869217    
H      0.9487923     5.5671692    -6.6428363    
H      0.6548093     8.3613479    -6.1500953    
H      2.9274483     6.8477109    -7.5321650    
H      2.7541666     7.0275240    -5.7832775    
H      2.9722755     9.5208165    -6.0465292    
H      3.1534417     9.2978134    -7.7961121    
H     -0.7456752     9.4954818    -10.2664378    
H     -0.7226977     11.9287343    -10.3432081    
H      0.8327790     11.9813041    -9.4796550    
H     -1.8839429     11.2075712    -8.3193972    
H     -0.7763808     12.4505497    -7.6983272    
H      0.7885771     10.7873582    -6.9229134    
H     -0.7499537     9.9042541    -6.6896859    
H      2.0288144     9.0061115    -12.3632099    
H      0.3326534     8.8301036    -12.0928877    
H     -1.5920256    -1.3640961    -1.1228621    
H      2.3385644     0.2976076     7.8979743    
H      3.7972785     0.6902858     8.7094221    
H      3.8592983    -0.6178210    -5.3173469    
H      5.2861508    -1.0025742    -4.4396042    
