146

N     -5.2933485    -5.3106132    -7.0730839    
N     -2.3308222    -7.1492018    -4.1759362    
O     -1.3065798    -7.2690790    -6.1793984    
N     -1.1266013    -7.1905376    -2.1681097    
S      0.3882297    -7.0706430    -4.2558046    
O     -0.3869970    -3.3503767    -4.0484269    
O     -2.2292875    -1.9145969    -2.5694866    
F      3.3547826    -2.7624153    -1.3147695    
O     -1.7092007     0.4857384    -0.7198637    
O      4.0366144    -2.7253916     5.5206182    
O      3.8039176    -4.9420334     5.5558624    
O      3.0732349     0.8073110     0.5849748    
N      1.7549769     5.1200388     3.7930094    
N     -0.0161509     6.4954760     3.5028146    
N      1.6263198     7.1626517     5.0049488    
N      0.6492422     2.0926573     2.8502387    
C     -6.2371280    -5.1380089    -5.9466980    
C     -3.8571694    -5.4984359    -6.6757314    
C     -3.4903945    -4.4967121    -5.5943597    
C     -4.4411780    -3.7613389    -4.8929556    
C     -5.9044726    -3.8424054    -5.2275142    
C     -2.1463881    -4.3214503    -5.2760849    
C     -1.7480404    -3.4837927    -4.2551611    
C     -2.7034037    -2.7372212    -3.5415865    
C     -4.0366592    -2.8873448    -3.8884706    
C     -3.6986913    -6.9560429    -6.1672464    
C     -3.0216698    -5.2905663    -7.9383239    
C     -2.3381303    -7.1560943    -5.5376896    
C     -1.1647720    -7.1604856    -3.4596296    
C      0.1550874    -7.1405931    -1.7243904    
C      1.1049594    -7.0650453    -2.6881465    
C      0.1327400    -3.4611517    -2.7995654    
C     -0.5441334    -3.9981604    -1.7090759    
C      0.0798306    -4.0736260    -0.4800377    
C      1.3895653    -3.6383479    -0.2863490    
C      2.0517292    -3.1489920    -1.4098222    
C      1.4543068    -3.0479140    -2.6466017    
C      2.0139516    -3.6889694     1.0448245    
C     -3.1465100    -1.2623639    -1.7029058    
C     -2.3784848    -0.7383884    -0.4857534    
C     -0.5266667     0.4036775    -1.5006023    
C      2.7189078    -2.5969634     1.5475158    
C      3.2533323    -2.6420851     2.8201504    
C      3.1143324    -3.7775790     3.6076643    
C      2.4303767    -4.8750455     3.0996838    
C      1.8764545    -4.8283724     1.8366897    
C      3.7020929    -3.8190219     5.0093665    
C      0.6727888    -0.0466098    -0.6626255    
N      0.8247766     0.8634024     0.4497187    
C      1.9945201     1.2260289     0.9811541    
C      1.8827375     2.2822346     2.1092114    
C      3.1279423     2.2592138     3.0014990    
C      3.6750028     3.6275609     3.4154551    
C      2.8276520     4.3898307     4.4376756    
C      1.1793681     6.2499814     4.1092014    
O      3.8040463     7.1523160     4.4355278    
C      5.2108353     7.5807416     4.4626800    
C      5.2900541     9.0779288     4.1809967    
C      5.8295362     7.2291680     5.8112560    
C      5.8537705     6.7801537     3.3341902    
C      2.9164605     7.6521749     5.2582337    
O      3.0772214     8.4720058     6.1270099    
O     -1.9612505     7.3596686     2.9959734    
C     -3.1235426     8.2576515     3.0343602    
C     -3.7568379     8.2050670     4.4210993    
C     -4.0569057     7.6723120     1.9791236    
C     -2.6936679     9.6729855     2.6628682    
C     -0.9126147     7.5313242     3.7567439    
O     -0.7102361     8.4044532     4.5732612    
O     -1.5576438     2.2103053     2.9410885    
C     -2.8868565     2.7889870     2.7340251    
C     -3.0753378     3.1286367     1.2569343    
C     -3.0815336     4.0161917     3.6210837    
C     -3.8252904     1.6610896     3.1587089    
C     -0.4489821     2.8539892     2.6294124    
O     -0.3642673     4.0103908     2.2259522    
H     -5.3427958    -4.4711154    -7.6653449    
H     -5.5770122    -6.1099203    -7.6518725    
H     -3.1821862    -7.1282763    -3.6271056    
H      1.2525557     4.5802466     3.0814630    
H      0.4903497     1.1680597     3.2265679    
H     -6.1518650    -5.9826775    -5.2658169    
H     -7.2546146    -5.1062125    -6.3347712    
H     -6.4968066    -3.7639842    -4.3176640    
H     -6.1641434    -2.9840111    -5.8515703    
H     -1.3635366    -4.8347720    -5.8078033    
H     -4.7897374    -2.3081775    -3.3804170    
H     -3.7647180    -7.6353595    -7.0184035    
H     -4.4645916    -7.1997439    -5.4351634    
H     -2.9506010    -4.2363481    -8.1903548    
H     -2.0138452    -5.6669831    -7.7904497    
H     -3.4455806    -5.8368436    -8.7764670    
H      0.3391437    -7.1665413    -0.6663102    
H      2.1674419    -7.0104400    -2.5716719    
H     -1.5485847    -4.3736534    -1.8171115    
H     -0.4580813    -4.4701416     0.3669116    
H      2.0051615    -2.6628306    -3.4886626    
H     -3.9003574    -1.9743458    -1.3531411    
H     -3.6285460    -0.4265993    -2.2228933    
H     -3.0936629    -0.5182120     0.3090739    
H     -1.6818161    -1.5120049    -0.1435085    
H     -0.3592963     1.4177243    -1.8686758    
H     -0.6562328    -0.2757512    -2.3456169    
H      2.8486086    -1.7049579     0.9510733    
H      3.7915507    -1.7997380     3.2314496    
H      2.3506643    -5.7556359     3.7225723    
H      1.3524957    -5.6900477     1.4497471    
H      1.5889486    -0.0355245    -1.2558622    
H      0.5206647    -1.0667451    -0.2916531    
H     -0.0486348     1.2282543     0.8035104    
H      1.8148947     3.2426370     1.5828413    
H      3.9072304     1.7430073     2.4352146    
H      2.9242756     1.6518541     3.8847439    
H      3.8277307     4.2473332     2.5325692    
H      4.6515138     3.4481900     3.8646775    
H      2.3820410     3.6785379     5.1396949    
H      3.4558775     5.0758352     4.9982783    
H      4.7998836     9.3104428     3.2385681    
H      4.8149242     9.6458262     4.9769463    
H      6.3311430     9.3773915     4.1177135    
H      5.3470689     7.7840778     6.6123133    
H      5.7342913     6.1643824     6.0111403    
H      6.8843278     7.4848910     5.7998473    
H      5.8400359     5.7194475     3.5623820    
H      5.3179382     6.9499260     2.4052275    
H      6.8835663     7.0967443     3.2079944    
H     -3.9883925     7.1777784     4.6914189    
H     -3.0871299     8.6245049     5.1680001    
H     -4.6750500     8.7831532     4.4186038    
H     -3.5682739     7.6698264     1.0095490    
H     -4.3243317     6.6533212     2.2401500    
H     -4.9587740     8.2715539     1.9185514    
H     -2.0170407     10.0809766     3.4098633    
H     -2.1951142     9.6737913     1.6965102    
H     -3.5696424     10.3109965     2.6059768    
H     -2.4306177     3.9539258     0.9664938    
H     -2.8413899     2.2673829     0.6341649    
H     -4.1073823     3.4174121     1.0864118    
H     -2.7444716     3.8043021     4.6333482    
H     -2.5356064     4.8703927     3.2308383    
H     -4.1388924     4.2610525     3.6545170    
H     -3.6167361     0.7676962     2.5769992    
H     -3.6774589     1.4284825     4.2098087    
H     -4.8568706     1.9566528     3.0014244    
H      0.8967361     7.8190338     5.3175189    
H     -0.3531977     5.7750857     2.8523292    
