24

C    27.357  6.772  3.388
C    27.303699799999997  7.2912964  4.6713644
C    26.5527472  6.6652553  5.6542958
C    25.8247713  5.5287518  5.3477846
C    25.880688699999997  4.998207300000001  4.0676511
C    26.647770199999997  5.6139473  3.0926557
C    28.123421999999998  7.4885679000000005  2.3258929999999998
C    27.155248099999998  8.3460211  1.5072071999999999
C    27.8629227  8.8209372  0.2517653999999996
C    26.646214999999998  9.5245723  2.3238483999999997
H    27.8659525  8.1817638  4.9115375
H    26.522833  7.0739979  6.6536878999999995
H    25.2260584  5.047024500000001  6.1063542
H    25.3241205  4.1034585  3.8303798
H    26.694194  5.198047000000001  2.0966382999999995
H    28.6092096  6.7664201  1.6662106999999997
H    28.891660899999998  8.1252773  2.7665732
H    26.299717599999997  7.7243148  1.2189436999999999
H    27.202796499999998  9.4382486  -0.3548059000000001
H    28.1876784  7.9765854  -0.3520793000000002
H    28.738003399999997  9.413387700000001  0.5116253
H    26.1301353  9.1793887  3.2170121
H    25.950712199999998  10.1201326  1.7367232999999997
H    27.473945999999998  10.1634218  2.6250715
