45

C    -45.526  -17.2  -6.301
C    -45.481355900000004  -18.174965  -7.486411800000001
C    -46.845491200000005  -18.8357693  -7.630006
C    -47.2331147  -19.4874355  -6.3068854000000005
C    -47.2217964  -18.4327658  -5.2028735
C    -47.577242600000005  -19.0527349  -3.8565688000000002
O    -46.3843545  -16.1442018  -6.6706372
O    -45.0802684  -17.5161607  -8.6544162
O    -46.774086000000004  -19.7812617  -8.666570700000001
O    -48.487622900000005  -20.1043994  -6.4248271
O    -45.9299708  -17.8302501  -5.1160289
O    -48.1752564  -18.1087165  -3.0041634000000004
C    -44.6842029  -14.4046626  -6.584466600000001
C    -46.0769548  -14.8819353  -6.1083603
C    -47.2269747  -13.9166375  -6.4929046
C    -48.178148500000006  -14.0469516  -5.2938788
C    -47.1660479  -14.1897117  -4.1528671
C    -47.6976091  -14.853098899999999  -2.8856515000000003
O    -44.3473283  -13.1623653  -6.0271771
O    -46.094177300000005  -14.9680731  -4.7025714
O    -47.850221700000006  -14.1914693  -7.7105744000000005
O    -48.9848499  -12.9172075  -5.1239723
O    -46.659324500000004  -15.2237698  -2.0034975000000004
H    -44.5183587  -16.8459496  -6.0798468
H    -44.723885800000005  -18.9401622  -7.291388400000001
H    -47.5859715  -18.0554502  -7.880356300000001
H    -46.5242687  -20.286274  -6.0662928
H    -47.961270400000004  -17.6522829  -5.4396186
H    -46.6795459  -19.4941898  -3.4182089
H    -48.321878500000004  -19.835705  -4.0246957000000005
H    -45.836952600000004  -17.0387298  -9.0231771
H    -47.4835682  -20.4320478  -8.5386691
H    -49.172613600000005  -19.4352644  -6.5768459
H    -47.4923304  -17.6504459  -2.4956079000000004
H    -44.6646778  -14.4057068  -7.6772445000000005
H    -43.9208257  -15.0913335  -6.2184226
H    -46.8375107  -12.8894363  -6.4665717
H    -48.771917  -14.9644748  -5.3946918
H    -46.771492800000004  -13.1924227  -3.9070304
H    -48.2860561  -15.738453400000001  -3.1615960000000003
H    -48.340952400000006  -14.149984700000001  -2.3542301
H    -44.649734  -12.4330128  -6.5877505
H    -47.319107300000006  -13.8596534  -8.447071900000001
H    -49.644358100000005  -12.883200500000001  -5.832730300000001
H    -45.907281100000006  -15.509609900000001  -2.5424581
