73

H    43.5185725  -10.265919400000001  37.0767559
H    44.67121159999999  -9.1811404  36.260057599999996
H    42.9378336  -9.0484839  35.9191492
H    41.8039181  -9.195447000000001  38.3198976
H    42.55125509999999  -6.597064800000001  39.4756129
H    40.202389399999994  -6.7854232  40.481033
H    39.9947105  -8.278171400000002  39.5599146
H    39.44681549999999  -8.174341400000001  37.2013973
H    40.7264103  -4.650313000000001  39.2425352
H    38.749125199999995  -6.771318700000001  35.2666569
H    40.012671899999994  -3.278210600000001  37.2948091
H    42.20233699999999  -6.4966717  41.919802499999996
H    43.669404199999995  -8.711730000000001  43.1020164
H    43.578544099999995  -7.231845000000001  45.127663
H    42.43623579999999  -6.1661663  44.2706594
H    44.71556459999999  -5.2525437  44.1084962
H    44.32171749999999  -5.876209500000001  42.4952094
H    42.90755479999999  -10.8730276  46.0620099
H    43.808501099999994  -9.4521184  45.496431199999996
H    43.46773389999999  -10.771203700000001  44.3823591
H    40.670922399999995  -11.048001600000001  45.8572187
H    39.7542943  -9.6912879  45.158845299999996
H    41.71711189999999  -9.4081518  47.4692012
H    39.9907888  -9.6886919  47.707194799999996
H    39.46937689999999  -7.5369124  46.5976117
H    41.18159309999999  -7.260873900000001  46.303315999999995
H    39.8518158  -7.6078422  49.0128899
H    39.45815579999999  -5.308145100000001  48.3250714
H    41.13748449999999  -5.1445775000000005  47.7860594
H    42.7647243  -7.454233800000001  48.241900799999996
H    42.0033585  -8.4042329  49.5207371
H    42.418210599999995  -6.636849800000001  51.0002527
H    43.082397799999995  -5.693218400000001  49.6730322
C    43.519  -8.243  37.791
O    44.32161489999999  -7.3339173  37.99612
C    43.676333199999995  -9.2640723  36.688275
N    42.35568359999999  -8.3605701  38.448748099999996
C    42.0016317  -7.538875700000001  39.5784071
C    42.399189199999995  -8.2319046  40.877496
O    42.60574559999999  -9.4387494  40.9135229
C    40.49473449999999  -7.309214100000001  39.570650799999996
C    40.1117516  -6.5027344000000005  38.363703199999996
C    39.569974499999994  -7.1026047000000005  37.2381494
C    40.282437599999994  -5.125863900000001  38.3797407
C    39.16492039999999  -6.337297700000001  36.164826399999995
C    39.883707099999995  -4.3504097  37.3143125
C    39.298155699999995  -4.956815300000001  36.2119678
O    38.794235799999996  -4.191172100000001  35.229725
P    39.8015882  -3.858204700000001  33.9066367
O    39.880126499999996  -5.1426769000000006  33.10648
O    38.9771485  -2.742823200000001  33.3077849
O    41.113761999999994  -3.4893031000000008  34.5719182
H    40.20677189999999  -5.809083600000001  50.6182302
N    42.488699  -7.461553600000001  41.9574932
C    42.843056399999995  -8.009916400000002  43.254922
C    41.6268226  -8.7007252  43.8897554
O    40.502211599999995  -8.3569273  43.5209879
C    43.2783014  -6.853489700000001  44.1487268
C    44.4746038  -6.153999000000001  43.538324599999996
C    45.711407799999996  -7.073407200000001  43.6005476
O    45.94077849999999  -7.652539600000001  44.6809344
O    46.40464049999999  -7.1552249  42.5697569
H    41.152479099999994  -4.388626400000001  50.1557858
N    41.79289369999999  -9.6160879  44.8535553
C    43.0642582  -10.203235600000001  45.223387
C    40.6592997  -9.969041800000001  45.7021008
C    40.72974599999999  -9.2333909  47.044598199999996
C    40.4700838  -7.730865800000001  46.9890191
C    40.625201999999994  -7.1536613000000004  48.3807848
C    40.47882739999999  -5.6476667  48.4966383
C    41.98962759999999  -7.443400100000001  49.0104944
C    42.221489899999995  -6.284809200000001  49.9879543
C    40.957744  -5.4352252000000005  49.9214829
