29

C    49.722  27.473  14.929
C    50.271831  26.159545799999997  14.8185932
C    51.6759371  26.287981099999996  14.9806336
C    49.7178039  24.8945366  14.6084593
C    50.777223  28.314944399999998  15.126230900000001
N    51.9485822  27.609068399999998  15.1735678
C    52.5221446  25.1850626  14.9420768
C    50.5787051  23.8253183  14.5775564
C    51.9593415  23.943301599999998  14.7397957
F    50.0588949  22.568295  14.388080200000001
C    48.28051  27.829508099999998  14.8129609
C    47.815737999999996  27.668681  13.3671316
C    48.4084026  28.757049099999996  12.484767300000001
P    48.3537174  29.638346799999997  9.9817794
O    49.547474199999996  30.445662  10.4670904
O    47.07501  30.4581341  9.927138900000001
O    48.602946  28.746207799999997  8.7859096
O    48.0511532  28.4797913  11.1590273
H    48.6569745  24.7543652  14.4753848
H    50.7682018  29.381673  15.2354293
H    52.8649329  28.012390999999997  15.2718419
H    53.5876421  25.2928705  15.0609629
H    52.5656619  23.053463599999997  14.6969271
H    48.1219308  28.8626959  15.123916600000001
H    47.6852519  27.171306499999996  15.4498069
H    46.7290045  27.735676599999998  13.285845
H    48.1282314  26.709087599999997  12.953201100000001
H    49.5059277  28.795748999999997  12.5585866
H    48.0325981  29.757418299999998  12.7568303
