42

P    37.096  -2.6269999999999993  23.146
O    35.6118195  -2.8838288999999993  23.016434800000003
O    37.453978  -1.7223393999999992  24.3025698
O    37.7822545  -2.289715099999999  21.848337400000002
P    38.856795  -5.183835499999999  23.110309100000002
O    39.082411  -6.107050899999999  24.2551859
O    40.0452745  -4.533109  22.4776211
O    37.7314876  -4.147616899999999  23.621144800000003
O    38.0739047  -6.073583499999999  21.9763516
C    37.6499134  -5.4627992999999995  20.7890744
C    37.4210227  -6.571817599999999  19.774140600000003
O    36.7609728  -6.033772899999999  18.6462584
C    38.7378294  -7.195993699999999  19.275939700000002
O    38.5964514  -8.553994099999999  18.975074300000003
P    39.23156  -9.774869599999999  20.0451008
O    37.9874013  -10.3658477  20.6659767
O    39.9320219  -10.7011863  19.0766057
O    40.1719762  -9.0462516  20.978768600000002
C    38.9594123  -6.442652699999999  17.9494788
O    39.8285448  -7.0952535999999995  17.076815600000003
C    37.4860189  -6.410116099999999  17.4823026
N    37.1281935  -5.523978499999999  16.417680400000002
C    36.2501539  -5.871951599999999  15.419235100000002
N    36.0248033  -4.9332313999999995  14.556504700000001
C    36.7782827  -3.857478099999999  14.993072600000001
C    36.964045  -2.5443688999999994  14.480978100000002
N    36.4254431  -2.117474899999999  13.336620000000002
N    37.763106  -1.7087643999999993  15.178111500000002
C    38.3508713  -2.164790899999999  16.2733682
N    38.2848057  -3.367594299999999  16.830691100000003
C    37.4684139  -4.205202599999999  16.1698236
H    38.4100343  -4.748213399999999  20.4452271
H    36.7263545  -4.893072799999999  20.968714100000003
H    36.8058363  -7.352696999999999  20.2439283
H    39.529227399999996  -7.060155699999999  20.026302700000002
H    39.3150456  -5.425356799999999  18.1346324
H    39.846046199999996  -8.035122099999999  17.336008200000002
H    37.2083253  -7.435709099999999  17.184279600000004
H    35.8207191  -6.852907399999999  15.383712300000003
H    36.5739648  -1.1583403999999993  13.071732700000002
H    35.787982  -2.725329799999999  12.8511126
H    38.9889134  -1.466617199999999  16.79981
