67

N    6.956  16.579  15.148
C    6.5994992  17.928337400000004  14.6297305
C    5.3304887  18.429747900000002  15.3513274
O    4.5213922  17.6447997  15.831274500000001
C    6.400742  17.8842128  13.1059298
C    5.4587162000000005  16.788517000000002  12.609336500000001
C    5.2925421  16.8140268  11.086401500000001
C    6.486475800000001  16.2604556  10.313414900000001
N    6.7518668  14.855191600000001  10.725312200000001
N    5.2119997  19.756357700000002  15.449606900000001
C    4.089785600000001  20.3759923  16.1303238
C    2.7923154000000006  20.284259100000003  15.3011719
O    2.8175218  20.5611168  14.1044942
C    4.3961436  21.866213300000002  16.3577556
C    5.5003377  22.085423300000002  17.3604024
C    6.837056500000001  21.9719395  16.9981145
C    5.1936422  22.403726600000002  18.6745786
C    7.839991400000001  22.174046  17.9284453
C    6.1988906  22.6059841  19.6063549
C    7.5293668  22.4889754  19.240548099999998
N    1.6887574000000003  19.887282700000004  15.9442776
C    0.40349780000000024  19.8448008  15.282932800000001
C    -0.6823878999999997  20.627681100000004  16.0909045
O    -1.7646946999999993  20.8215834  15.5065474
C    -0.09776789999999957  18.3983169  15.1086003
C    -1.1075700999999998  18.335756800000002  13.9579027
C    -2.2283363  17.331828100000003  14.209672900000001
C    -3.2887181  17.3617364  13.112227
N    -2.7010256999999993  16.926202500000002  11.8197728
O    -0.41358919999999966  20.9827611  17.2568356
H    7.620084800000001  16.1029386  14.5290312
H    6.0779356  16.043942700000002  15.2523528
H    7.3703939  16.648392800000003  16.0851319
H    7.4086289999999995  18.626309300000003  14.8566853
H    7.3839091  17.773437400000002  12.6458744
H    6.007568000000001  18.850811800000002  12.7891273
H    4.4762506  16.960877000000004  13.0557276
H    5.7862897  15.804583200000001  12.9366248
H    5.1081516  17.836715100000003  10.7594253
H    4.4047077  16.2373906  10.824395899999999
H    7.3794211  16.857573000000002  10.4910523
H    6.2664271000000005  16.288318000000004  9.2479686
H    7.4793033  14.438754200000002  10.1331696
H    5.8965532000000005  14.2948169  10.627628699999999
H    7.0642885  14.811983200000002  11.6990155
H    5.792962  20.3721175  14.9001011
H    3.9419195000000005  19.8592966  17.084538600000002
H    3.4822807000000005  22.347359100000002  16.7135424
H    4.648818400000001  22.314299700000003  15.394392400000001
H    7.1063004  21.770399500000003  15.9736247
H    4.1595848  22.503947500000002  18.974775700000002
H    8.8744668  22.0951169  17.6298624
H    5.9377126  22.862451800000002  20.6229794
H    8.309605300000001  22.6534377  19.967335900000002
H    1.6465399000000003  19.865831300000004  16.9543603
H    0.5218530000000001  20.328377000000003  14.307939600000001
H    -0.5621068999999999  18.087644500000003  16.0481949
H    0.7603966000000004  17.7497466  14.9233561
H    -0.5566340999999997  18.118718800000003  13.043478200000001
H    -1.5592905  19.326211100000002  13.871737
H    -2.7075431  17.593576900000002  15.1535828
H    -1.8195558999999997  16.325785500000002  14.316734
H    -3.6763163999999997  18.3751874  13.0145099
H    -4.1088089  16.695533400000002  13.376333800000001
H    -3.4218172  16.879935900000003  11.0907287
H    -2.2697767  16.000183200000002  11.9274632
H    -1.9818818999999999  17.597549700000002  11.5299123
