16

N    18.462  14.393  19.933
C    18.569087  13.0674397  19.944965699999997
N    16.8079455  14.3825912  21.6524102
C    15.8923417  15.1163294  22.515553099999998
C    17.6218227  15.0692067  20.733138099999998
O    17.5307516  16.306584700000002  20.689664399999998
N    19.412375  12.4731095  19.094218899999998
C    17.766539299999998  12.3360853  20.8653293
C    16.923025799999998  13.042121400000001  21.676203899999997
H    15.360230699999999  14.4138565  23.149039
H    15.1973679  15.6823957  21.8961489
H    16.4618085  15.8248817  23.116184399999998
H    19.510893  11.473652000000001  19.093680199999998
H    19.9504586  13.0479331  18.470086499999997
H    17.8110622  11.2637611  20.9295044
H    16.293620699999998  12.526217800000001  22.3894134
