46

C    30.39  59.323  55.78
C    30.392833600000003  59.0677181  54.41907200000001
C    29.4636789  59.6858797  53.58681130000001
C    29.5169773  59.381147600000006  52.12209680000001
C    27.164410300000004  60.297405000000005  52.049654700000005
C    27.4614797  61.1953523  53.252458600000004
C    27.6065134  58.2764182  49.360908800000004
C    26.496781000000002  55.8953932  48.3982535
C    27.7547567  55.921571  49.02826710000001
C    28.313698400000003  57.094155900000004  49.5113849
C    26.014191000000004  54.6527991  47.742836700000005
C    24.737505400000003  53.5313196  46.012146300000005
C    26.453279700000003  53.3930887  48.177692900000004
O    29.811412800000003  59.6658083  49.3709441
C    28.506768800000003  60.548995600000005  54.124301200000005
C    28.524838600000002  60.8114459  55.493876400000005
C    29.460866300000003  60.2053731  56.316298
N    28.431533800000004  60.0077364  51.3932391
S    28.423177300000003  59.795566  49.784914300000004
C    26.3279506  58.2774516  48.823036
C    25.770273800000002  57.095533200000006  48.3511522
C    25.148827100000002  54.7005014  46.6411906
C    25.183678000000004  52.292186  46.456690900000005
C    26.047892800000003  52.227954000000004  47.54281410000001
O    27.682296700000002  60.9032305  49.2095593
C    26.390966000000002  59.022553900000005  52.52113790000001
O    25.146190800000003  59.079567100000006  52.5249072
O    27.061198100000002  58.0377115  52.87910290000001
H    31.1092049  58.8379311  56.420651500000005
H    31.109414800000003  58.386293900000005  53.987678700000004
H    29.4745975  58.2899654  51.998426800000004
H    30.442549300000003  59.750339600000004  51.67039630000001
H    26.5489524  60.8166603  51.30888960000001
H    26.539633300000002  61.3560735  53.814311700000005
H    27.827303200000003  62.1600685  52.88726080000001
H    28.3373479  55.016584  49.09083580000001
H    29.304497700000002  57.1194533  49.931217800000006
H    24.070040000000002  53.592978900000006  45.166693
H    27.0900041  53.322365000000005  49.045107300000005
H    27.7856945  61.479905  55.9082761
H    29.458412100000004  60.4117766  57.374976800000006
H    25.8023771  59.216951  48.75545160000001
H    24.775746400000003  57.1169977  47.93664510000001
H    24.816686600000004  55.6539631  46.2629
H    24.8625177  51.389930400000004  45.9610551
H    26.3999172  51.274283600000004  47.903114300000006
