48

C    27.984  2.251  52.803
C    27.4555923  3.521776  53.1902204
C    27.5977409  4.0534804  54.4854617
C    28.2881602  3.3321699000000002  55.4625236
C    28.837458400000003  2.0998118  55.1354579
C    28.688823  1.5866125  53.8387215
C    27.828111500000002  1.6423611  51.3424034
C    26.9799182  0.2827356000000001  51.2561757
C    29.818509600000002  0.3148192000000001  50.6008803
C    27.6723654  -0.9088240999999999  51.0674456
C    29.2508881  1.5485429  50.7085425
C    29.9003719  2.9246914999999998  50.283707899999996
C    31.2682012  0.1897202  50.0615641
C    27.01239  -2.2812357  50.9107123
C    30.137415100000002  -2.1632569  52.9968712
C    29.894845500000002  -2.0502341  51.4795994
C    25.4407547  0.4129554  51.417733399999996
C    23.4804773  1.9918258999999998  51.2666788
C    23.2390391  2.4863961  52.699506
C    23.2035307  3.0700957  50.2188426
N    29.1010876  -0.8901188000000002  50.983035799999996
O    29.1175176  3.8740992  50.0141827
O    31.139025500000002  3.0943842  50.2288486
O    32.1699734  0.49176909999999996  50.8671601
O    31.4184787  -0.2118316  48.8909739
O    24.7076269  -0.47120110000000004  51.8587173
O    24.9292541  1.6192015  51.0960494
Cl    26.588176400000002  4.5289219  52.0687796
H    27.1635846  5.0158541  54.6916799
H    28.3926892  3.7393103  56.4541445
H    29.3872936  1.5235471  55.8605318
H    29.130403  0.6333175999999999  53.587139799999996
H    27.2769675  2.3941670999999998  50.7619068
H    25.9400561  -2.1365556  50.8386772
H    27.2237683  -2.8973207000000003  51.778996
H    27.394990500000002  -2.7574978  50.013306199999995
H    30.6813259  -3.0824019999999996  53.1803362
H    29.1936994  -2.1728298  53.5367393
H    30.7345326  -1.318842  53.3355445
H    29.4081395  -2.9568592  51.120456499999996
H    30.8641207  -1.9651207  50.9793433
H    22.911099  1.0759994  51.0736772
H    22.1975852  2.7700461  52.801848899999996
H    23.881384100000002  3.3409918000000003  52.8972682
H    23.4749476  1.6944812  53.405737099999996
H    23.4086658  2.687866  49.2228461
H    23.8522264  3.921835  50.4055807
H    22.165258  3.3746245  50.2908665
