48

C    6.985  25.876  104.039
C    7.5738255  24.7486422  104.58680100000001
C    7.0038941  24.1998109  105.71800110000001
C    5.882019400000001  24.769325300000002  106.29859110000001
C    5.2464713000000005  25.8926914  105.74225460000001
C    5.832434500000001  26.429015500000002  104.58461980000001
S    5.3097159000000005  24.0333239  107.79949420000001
C    4.5702245  25.4329541  108.58571
C    4.481014500000001  25.3825776  109.9720539
C    3.8625709000000006  26.3950051  110.681082
C    3.3337654000000003  27.4482188  109.96336660000001
C    3.4432206000000005  27.4937984  108.57910720000001
C    4.078005900000001  26.4985506  107.82118890000001
N    4.1638351  26.5127497  106.38808030000001
C    3.5317142000000006  27.607709  105.64845940000001
C    2.4155649000000006  27.137716  104.70167350000001
C    2.0040037  28.2499821  103.71649670000001
N    0.6922341000000003  28.0783071  103.14334930000001
C    0.40762580000000037  28.5302569  101.82725380000001
C    -0.8203842999999997  28.4780807  101.3024972
N    -1.9287976999999996  27.9967551  102.02797340000001
C    -1.6724793999999994  27.6341402  103.37119100000001
C    -0.4452330999999994  27.693619  103.899037
C    -3.2466368999999995  27.9388033  101.46927090000001
C    7.6634285  26.569533500000002  102.90923710000001
F    8.7472682  25.9239843  102.4636102
F    8.072752900000001  27.8071062  103.25468160000001
F    6.925055  26.7785885  101.80807630000001
H    8.4623064  24.318519900000002  104.15645260000001
H    7.4386739  23.329875700000002  106.1828315
H    5.4178499  27.274293  104.06658610000001
H    4.898359200000001  24.522454  110.47232650000001
H    3.7862347000000005  26.3471048  111.75433930000001
H    2.8273972000000005  28.256827100000002  110.46577870000002
H    3.0120039000000003  28.3603951  108.106757
H    4.2756007  28.1956777  105.11274850000001
H    3.0704968000000004  28.2941997  106.3526501
H    1.5670315000000006  26.823766  105.30482160000001
H    2.7507434  26.2649883  104.13638590000001
H    2.7206003000000005  28.2926291  102.89306710000001
H    2.0607767000000003  29.215809800000002  104.2563353
H    1.2466587000000002  28.9090254  101.2702392
H    -1.0218282999999992  28.8180378  100.30174140000001
H    -2.5309491  27.337986  103.94698280000001
H    -0.28476899999999983  27.4632011  104.9355757
H    -3.2147720999999994  28.2886874  100.44040100000001
H    -3.9458987  28.5708056  102.0304655
H    -3.633100399999999  26.9127891  101.475908
