50

N    1.48  44.153  53.505
C    0.5417828999999998  44.9269957  54.085349400000005
O    -0.5798892000000002  44.5351474  54.3727249
N    0.8720661000000001  46.2653094  54.3803209
C    2.0676968000000002  46.8741498  54.1260746
O    2.2599378999999997  48.0447348  54.413752800000005
C    3.0805621  45.9933085  53.49009410000001
N    4.2727783  46.4596491  53.2248996
C    5.1865953000000005  45.641208899999995  52.660871
C    6.4842957000000006  46.1299124  52.3900152
C    7.4603406  45.3471614  51.818220700000005
C    8.8121379  45.9204901  51.511346200000006
C    7.1548612  43.9871166  51.51720160000001
C    8.204773  43.0711207  50.973893100000005
C    5.8779495  43.4985747  51.7415299
C    4.868926  44.290261  52.3133806
N    3.5902635  43.8350535  52.5792159
C    2.6706838  44.6375129  53.2005874
C    3.1752785  42.4988443  52.177483900000006
C    2.8523757  42.3999477  50.6622349
O    1.7250114  43.1621904  50.286903800000005
C    2.6153896  40.9145719  50.3147243
O    3.8555509  40.2498539  50.3811091
C    1.9518102  40.6792239  48.945754
O    1.8210427  39.2768217  48.788741
C    2.7589281999999997  41.246175  47.7717712
O    1.9614998  41.0702673  46.624996700000004
P    2.5503023000000002  41.242953799999995  45.055033900000005
O    3.4035738  40.0140934  44.816548700000006
O    3.2625932  42.5799893  44.9801798
O    1.2694421  41.209723  44.25551540000001
H    0.14202059999999994  46.8266311  54.807277000000006
H    6.6754548  47.1588928  52.6482638
H    8.8577362  46.9615951  51.8108298
H    9.0086076  45.847972999999996  50.443710200000005
H    9.5870993  45.3624948  52.0311303
H    7.7979424999999996  42.0815654  50.7926221
H    9.0324577  42.9987972  51.676003400000006
H    8.598439  43.464183399999996  50.038415900000004
H    5.6656697000000005  42.4769133  51.469603500000005
H    2.2594548  42.284466  52.7301645
H    3.9482249  41.7699729  52.4095735
H    3.7300088  42.7156964  50.0826007
H    1.9917376  44.056083199999996  50.043121600000006
H    1.9255113  40.4836403  51.058088700000006
H    3.7297185  39.3711377  49.993810200000006
H    0.9643525  41.1597021  48.928175200000005
H    1.6204402  39.1124789  47.856039100000004
H    3.7120387  40.7141787  47.639854400000004
H    2.9733408  42.314565  47.8941936
