14

S    60.671  -5.462  -0.24099999999999996
O    60.0908241  -6.4498549  0.7144993
C    59.7901931  -5.657762  -1.8207607
C    59.8827535  -3.886932  0.1996861000000001
S    60.4568956  -2.5465742  -0.8758058
C    60.00464  -1.1628176  0.2227821000000001
H    60.1181584  -6.5885254  -2.2714995
H    60.068234600000004  -4.8186896  -2.4479959
H    58.7199424  -5.6879304  -1.648194
H    60.1831778  -3.6636184  1.2237357
H    58.798512800000005  -3.9887694  0.14478790000000008
H    60.2675581  -0.25283529999999965  -0.3046481
H    60.5722593  -1.2419884999999997  1.1441607
H    58.9369143  -1.194543  0.4110676000000001
