40

C    -7.382  19.822  29.599
C    -7.6450188  18.5448113  29.1415567
C    -6.7456259  17.521906599999998  29.4017334
C    -5.5830467  17.8133074  30.124013
C    -5.3177667  19.123097299999998  30.5331845
C    -6.2112827  20.129122699999996  30.2700767
S    -8.5377483  21.155504699999998  29.4421041
O    -8.1690796  22.152369699999998  30.4242444
O    -9.88607  20.640690099999997  29.5182361
O    -4.6371502  16.9298023  30.4988901
C    -4.835983000000001  15.567952399999998  30.1726923
N    -8.4087082  21.938721199999996  27.9712353
C    -7.414531  22.9714468  27.7085417
C    -7.8791084  23.544094599999998  26.3545268
C    -8.4617722  22.329595899999997  25.6621285
C    -5.9991582  22.374490599999998  27.5500014
O    -5.7109206  21.4369925  26.8024494
N    -5.0288521  22.9583411  28.2574778
O    -3.7383773  22.422456999999998  28.165748400000002
C    -8.658923099999999  21.2417618  26.7207098
N    -8.8197681  22.0965179  24.4684813
O    -8.6649217  22.960133799999998  23.3789981
C    -8.7150879  22.2118339  22.1614928
H    -8.5683077  18.354474299999996  28.6189028
H    -6.9620565  16.525701199999997  29.0574599
H    -4.40141  19.310033999999998  31.0686575
H    -6.051417  21.1384062  30.6086003
H    -3.9769829  15.044138399999998  30.5856487
H    -4.866793899999999  15.422421499999999  29.090744100000002
H    -5.752365  15.185035199999998  30.6265118
H    -7.4388994  23.687889799999997  28.5284418
H    -7.070388  23.988608999999997  25.7761857
H    -8.6644498  24.285660899999996  26.4988822
H    -5.100295  23.670757  28.966152
H    -3.7938721  21.751758  27.450724
H    -9.669706999999999  20.836154099999998  26.7232975
H    -7.9383229  20.436353699999998  26.5418183
H    -8.673490900000001  22.967893299999997  21.3825955
H    -9.6429124  21.643628699999997  22.1008085
H    -7.8591825  21.5396236  22.0936109
