29

Br    23.12  26.871  28.136
O    25.210901  31.3399152  30.2917263
O    30.557263900000002  29.950516899999997  25.517167699999998
N    24.575380000000003  29.1765163  28.8039046
N    26.768466  32.0439684  28.8200964
N    29.896591700000002  28.104515399999997  24.314566799999998
N    27.9303634  27.697099199999997  25.4326513
N    28.5719095  26.296105899999997  23.649697
C    24.5877181  28.037126999999998  28.0887757
C    25.762009900000002  27.9452051  27.383658699999998
C    26.5013519  29.118445599999998  27.665368
C    25.736305700000003  29.8602408  28.565281499999998
C    25.8981238  31.129892899999998  29.281484499999998
C    27.587978500000002  31.9656867  27.6215543
C    28.5328754  30.7676731  27.6155191
C    27.9182129  29.4066245  27.2191729
C    28.413580500000002  28.761477099999997  25.9861088
C    29.7704057  29.0529698  25.265553099999998
C    28.8282856  27.3304549  24.4109187
H    23.872738000000002  29.511029399999998  29.447721899999998
H    26.834252600000003  32.879726399999996  29.3827557
H    29.2248661  26.0485634  22.9214756
H    27.726105  25.7666802  23.8016413
H    26.0613411  27.160304099999998  26.723189299999998
H    28.1755107  32.879963499999995  27.5790547
H    26.938490400000003  31.9254258  26.739994499999998
H    28.9550491  30.682886999999997  28.6174548
H    29.3551845  30.9801522  26.9328219
H    28.477230600000002  28.711728299999997  27.8965614
