25

C    -0.32100000000000006  26.536  12.32
C    -0.8808705  25.334355700000003  12.703450799999999
C    -2.1164147  25.2641215  13.3495075
C    -2.8357808  26.4104987  13.627765799999999
C    -2.2881786  27.6271534  13.2441773
C    -1.0646176  27.705341100000002  12.6038467
C    1.0284783  26.590688800000002  11.6193504
C    -4.1641128  26.3602631  14.309637
O    -0.652421  28.967592700000004  12.2896249
C    2.0932359  25.710560400000002  12.2830143
C    0.9070729  26.226126900000004  10.140899
H    -0.3522759000000001  24.415688300000003  12.500492099999999
H    -2.5099461  24.2980404  13.6296129
H    -2.8118971999999998  28.5516776  13.4372547
H    1.4078890999999998  27.619180000000004  11.675972699999999
H    -4.4414242999999995  25.335652500000002  14.542281899999999
H    -4.9324528999999995  26.794982  13.672351599999999
H    -4.1365233  26.934284500000004  15.234433
H    0.20939719999999995  28.9628544  11.8486802
H    3.0614263  25.901063800000003  11.8263053
H    1.8619382999999998  24.655701800000003  12.160193
H    2.1601822  25.926981100000003  13.347105599999999
H    0.17885149999999994  26.8632218  9.6424525
H    0.5810013999999999  25.1938658  10.0329386
H    1.8681141  26.340106000000002  9.6450724
