34

O    50.365  35.773  1.229
O    50.72746970000001  34.5792019  -2.0604907999999997
O    45.48079010000001  31.7497539  -1.2575857999999998
O    43.200161300000005  34.557913400000004  1.4576434000000003
N    46.67114050000001  33.302810400000006  -0.05172149999999981
N    44.39100560000001  33.1670869  0.1484327000000002
C    50.120511300000004  33.629041900000004  0.1864317000000002
C    49.723646200000005  34.3841717  -1.0857498999999997
C    48.507141700000005  33.6442179  -1.6550827
C    47.93780580000001  32.753154200000004  -0.5367358999999998
C    48.9939316  32.698126900000005  0.5580940000000002
C    50.318351400000005  32.1450284  0.1173197000000002
C    50.8331067  34.4332373  1.2518213000000002
C    45.5219682  32.672459100000005  -0.45664989999999983
C    44.308837200000006  34.2269631  1.0440783000000002
C    45.56239600000001  34.8597917  1.3972023000000002
C    46.67674590000001  34.3631005  0.8163278000000002
C    45.592231600000005  36.004545400000005  2.3676136000000003
H    50.827110100000006  36.2802133  1.9092729000000002
H    51.447524300000005  35.0910421  -1.6703080999999997
H    43.5103817  32.7358254  -0.1131864999999998
H    49.3946636  35.3817772  -0.7479736999999999
H    47.7580358  34.337236700000005  -2.0277068999999996
H    48.84256680000001  33.0374415  -2.4964342
H    47.689559900000006  31.758293200000004  -0.9188664999999998
H    48.660406200000004  32.5555176  1.5736313000000002
H    50.94876060000001  31.694044400000003  0.8677776000000001
H    50.38725480000001  31.684788700000002  -0.8550278999999998
H    50.650028000000006  33.9770911  2.2326177
H    51.916866500000005  34.4165751  1.0635813
H    47.652267900000005  34.7833145  1.0074119000000001
H    46.6074617  36.3623625  2.4937504
H    45.18908030000001  35.681276000000004  3.3248277
H    44.957570800000006  36.810548600000004  2.0052275
