40

N    5.96  69.581  65.309
N    1.9538463999999998  69.4095767  66.4547435
C    6.3519137  70.6165862  68.7726365
C    6.658346099999999  70.2913389  67.4688361
C    5.6121397  69.9278278  66.5794972
C    5.0290932999999995  69.17960000000001  64.4493918
C    5.5224562  68.7646213  63.0568071
C    4.5392185  67.8351435  62.305316700000006
C    4.374063  66.45553120000001  62.9665844
C    3.4081513  66.09331  63.806986800000004
C    2.331721  67.1090374  64.14749
C    4.428631  63.673548800000006  64.1090305
C    2.6748912999999996  68.560236  63.73554240000001
C    3.1953892  68.5483632  62.282139
C    3.6620844999999997  69.1123109  64.7652794
C    3.263662  69.48796180000001  66.0773511
C    4.2626507  69.9048449  67.0309112
C    3.9910232  70.274833  68.381157
C    5.0101705  70.6197977  69.22940750000001
C    3.3232483  64.6926021  64.4356463
Cl    7.59755  71.00825110000001  69.92304250000001
H    1.2587812  69.3197195  65.7351695
H    1.6714134999999999  69.88433140000001  67.29332120000001
H    7.6706473  70.28529660000001  67.10274580000001
H    6.4956084  68.289289  63.182479400000005
H    5.671227399999999  69.67169580000001  62.467648700000005
H    4.9239999  67.6812036  61.2935214
H    5.1629549  65.7608891  62.7135498
H    2.1363098  67.0676825  65.2214817
H    1.4089522999999997  66.8029001  63.64111510000001
H    4.22091  62.7489609  64.6395601
H    5.3995912  64.0470701  64.42401530000001
H    4.45943  63.4652809  63.042843000000005
H    1.7539781999999997  69.15323140000001  63.7685128
H    2.4767563999999997  68.0170524  61.658199200000006
H    3.305041  69.566417  61.906228500000005
H    2.9820235  70.2698773  68.7593547
H    4.8101125  70.88904360000001  70.2536463
H    2.3581219  64.2661796  64.145185
H    3.293946  64.83482430000001  65.520341
