22

N    15.813  17.034  24.333
C    15.3843664  16.825069699999997  23.0546765
O    14.2056427  16.470489099999998  22.886801900000002
C    16.3434438  17.036416099999997  21.9785305
C    16.0067951  16.8539881  20.599115
C    16.9781798  17.078030899999998  19.6178258
C    18.2776028  17.476025099999998  19.9321714
C    18.6020352  17.657012899999998  21.2910964
C    17.6614654  17.444385899999997  22.2861925
C    18.0557533  17.646708999999998  23.6972605
O    19.1899726  17.9998099  24.0288622
N    17.1102554  17.4309767  24.6413156
N    19.200115  17.689958999999998  18.9632545
N    14.767887  16.467517599999997  20.2310288
H    15.1662731  16.8962865  25.0968972
H    16.7029476  16.9344792  18.5842397
H    19.593170399999998  17.9660314  21.5862605
H    17.3411302  17.5602378  25.6177146
H    18.9577882  17.5587107  17.9996464
H    20.128459499999998  17.9737029  19.2122698
H    14.0813387  16.313409999999998  20.9534644
H    14.5449621  16.346813599999997  19.2612948
