54

C    -3.8610000000000007  1.6839999999999997  -0.804
N    -4.0783746  3.1158902  -0.45514560000000004
C    -2.7866764000000006  3.8226576999999997  -0.4977977
C    -2.4234062000000005  1.4106548999999997  -0.3542961
C    -1.6912610000000008  2.7444425999999997  -0.47709479999999993
C    -4.807106000000001  0.7518450999999997  -0.03255859999999999
O    -4.4438390000000005  0.21331579999999972  0.9925051
O    -6.039996800000001  0.6031191999999996  -0.5040807
C    -7.016433200000001  0.4755589999999996  0.5522775
C    -8.4090957  0.7574089999999998  0.0004950000000000232
C    -9.390694700000001  -0.3482171000000003  0.4117893
N    -11.3063434  1.1896267999999997  3.2807643
C    -11.038355200000002  0.34364499999999953  4.2806446000000005
C    -10.226252800000001  -0.7702632000000005  4.1108496
C    -9.6797044  -0.9996531000000002  2.8520979
C    -9.948548500000001  -0.12783980000000028  1.797316
C    -10.780161  0.9615150999999997  2.0768618
C    -5.258007800000001  3.6725434999999997  -0.15578950000000003
O    -6.314855100000001  3.0461925999999995  -0.15627199999999997
C    -5.317637800000001  5.186240099999999  0.16972260000000006
O    -5.041657800000001  5.9891350999999995  -0.6983773
C    -5.801144400000001  5.6347077  1.5496534
C    -4.988002900000001  6.8676601999999995  1.9754518
C    -5.6269578000000005  4.519251199999999  2.5813091000000004
C    -7.2965974000000005  6.0227778  1.4527238
C    -7.544747900000001  7.1530914999999995  0.46023610000000004
H    -4.0241331  1.5578144999999997  -1.8790200000000001
H    -2.7248716000000006  4.4931795  0.3613141000000001
H    -2.7455090000000006  4.4294099  -1.4052839000000001
H    -1.9693421000000004  0.6290342999999996  -0.9570559999999999
H    -2.4498702000000003  1.0748784999999996  0.6820653000000001
H    -1.0066852000000006  2.8963151999999996  0.35247280000000003
H    -1.1205529000000007  2.7837072  -1.4027636
H    -6.742779800000001  1.1693547999999996  1.3495274
H    -6.9443235  -0.5421195000000005  0.9518227
H    -8.3212436  0.7815439999999998  -1.0858477
H    -8.7522973  1.7350993999999997  0.3282077000000001
H    -8.9072902  -1.3216844000000005  0.3504024
H    -10.229953700000001  -0.3405007000000002  -0.2875497
H    -11.4986688  0.5831122999999996  5.227403799999999
H    -10.0272468  -1.4393571000000005  4.9321635
H    -9.046665  -1.8600163000000007  2.6884321
H    -11.045800400000001  1.6784911999999998  1.3133141
H    -5.466574700000001  7.3466103  2.823535
H    -4.911615000000001  7.5755941  1.1560135
H    -3.9819287000000005  6.57187  2.264417
H    -6.244702300000001  3.659299  2.3302759
H    -5.925280400000001  4.8777568  3.5626665
H    -4.5897702  4.1941811  2.6332942
H    -7.630142600000001  6.315599199999999  2.4476925
H    -7.8623586  5.1388188999999995  1.1470449
H    -8.615865500000002  7.299206799999999  0.33686610000000006
H    -7.1237501000000005  6.9273061  -0.5155025
H    -7.116899500000001  8.0859469  0.8141322000000001
