56

C    34.52900000000001  18.207  88.474
C    35.52798380000001  17.2396441  87.8792313
C    35.62392330000001  15.9422542  88.421543
C    36.51630070000001  15.046778300000001  87.9025077
C    37.35586910000001  15.395008200000001  86.81999060000001
C    37.254885300000005  16.7014627  86.27279270000001
C    36.33046950000001  17.6079984  86.82571270000001
C    42.86822850000001  14.110198100000002  82.0738984
C    43.26087630000001  13.366761200000001  80.80393880000001
C    44.695629800000006  13.716300200000001  80.3812968
C    45.01573020000001  15.1882262  80.5073806
C    44.88330320000001  15.709005000000001  81.94410760000001
C    43.624326100000005  15.168091400000002  82.59307940000001
C    42.27265250000001  13.7135037  79.68502520000001
C    43.225777900000004  11.851635100000001  81.05320090000001
C    44.78828140000001  17.2358626  81.8048895
C    46.098035900000006  15.366214000000001  82.82366400000001
O    33.94207130000001  17.862377000000002  89.5234142
O    34.351226000000004  19.2879775  87.86599120000001
C    38.289177900000006  14.475391000000002  86.2870958
C    39.10687680000001  14.8014571  85.21818950000001
C    38.97309880000001  16.107841500000003  84.6860838
C    38.09965390000001  17.027219300000002  85.1909229
C    41.30125900000001  14.365777000000001  83.93261720000001
C    41.71717790000001  13.736521500000002  82.75940870000001
C    43.211069300000005  15.784171400000002  83.77275990000001
C    42.07303710000001  15.402902500000001  84.44281480000001
C    40.07646100000001  13.866899100000001  84.58368080000001
N    39.93366180000001  12.593797900000002  84.49095870000001
O    38.81865450000001  11.969712200000002  84.98901280000001
H    34.97475390000001  15.699363400000001  89.25008410000001
H    36.59097400000001  14.0519376  88.31934530000001
H    36.231416800000005  18.6080116  86.42618110000001
H    44.84939930000001  13.3910195  79.3507938
H    45.388205000000006  13.151190500000002  81.010045
H    44.33399810000001  15.756284800000001  79.8714029
H    46.03081830000001  15.374074700000001  80.1503138
H    41.25837990000001  13.4567092  79.9801858
H    42.52100600000001  13.161600600000002  78.78167830000001
H    42.29868590000001  14.777662600000001  79.46252290000001
H    42.21376540000001  11.494737800000001  81.22106910000001
H    43.823365700000004  11.5969531  81.9257479
H    43.630133400000005  11.329522  80.1886291
H    44.863802500000006  17.743243200000002  82.762994
H    43.84355010000001  17.5185952  81.3452273
H    45.60074900000001  17.5945372  81.1762975
H    46.203747500000006  14.2888224  82.9273479
H    45.97918380000001  15.791648200000001  83.8154935
H    47.005509100000005  15.765788100000002  82.37727290000001
H    38.4043484  13.542444800000002  86.82231370000001
H    39.59458500000001  16.376407800000003  83.8431072
H    38.03929230000001  18.0179255  84.7665468
H    41.099473200000006  12.936392900000001  82.3866924
H    43.799509500000006  16.5859868  84.18920030000001
H    41.78283510000001  15.894213800000001  85.3608839
H    38.08478050000001  12.595889200000002  85.14613120000001
