146

N    98.714  21.466  23.743
C    97.6400192  22.4895545  23.803062999999998
C    98.2601245  23.8756947  23.620511799999996
O    99.3492726  24.131471  24.115996
C    96.9585984  22.445081000000002  25.184343099999996
O    96.2441258  21.2465701  25.345715399999996
N    97.5626354  24.7085635  22.859702
C    98.0088087  26.0605817  22.595334599999997
C    97.4471194  26.9310862  23.722809799999997
O    96.64036440000001  26.440045  24.4974094
C    97.5369951  26.4946361  21.190537099999997
C    97.7131832  27.9996227  20.978978299999998
C    96.0777209  26.0999041  20.975834799999998
C    97.3378075  28.4274107  19.563193899999998
N    97.9239235  28.1771032  23.835592499999997
C    97.4567526  29.1329944  24.8321841
C    95.9495501  29.3858531  24.6586288
O    95.24362380000001  28.6098824  24.036580599999997
C    98.2745057  30.4204008  24.6769355
C    98.0119651  31.5292744  25.6742726
C    98.0091061  31.3035016  27.053530499999997
C    97.88090700000001  32.8453559  25.234107299999998
C    97.9123393  32.349405  27.955334199999996
C    97.7946052  33.899927500000004  26.1294366
C    97.8305742  33.6644622  27.4985498
O    97.8282703  34.6803534  28.401074199999996
N    95.4601455  30.5075137  25.212588699999998
C    94.0704891  30.8880299  25.034174999999998
C    93.9413692  32.415892  24.985429699999997
O    93.248607  33.0239691  25.7802667
C    93.1731772  30.3510366  26.148275399999996
C    91.7125717  30.7080445  25.8729867
C    90.7822804  30.1941541  26.9549231
N    91.0141479  30.860334  28.2250864
C    90.582876  30.389837  29.390622299999997
N    89.9233572  29.2370248  29.4627068
N    90.8156133  31.0697482  30.510003899999997
N    94.6415566  33.0054364  24.0238308
C    94.7347386  34.4266536  23.757242599999998
C    93.5771524  35.292001  24.2920542
O    92.427826  34.9067357  24.410468199999997
C    94.868632  34.602195  22.229155799999997
C    95.90638580000001  33.6595802  21.667063399999996
C    95.6282997  32.2967191  21.529071499999997
C    97.1684549  34.1067079  21.298910699999997
C    96.58166030000001  31.4086285  21.070850099999998
C    98.1213501  33.2324903  20.809295499999998
C    97.8396669  31.8752854  20.693375399999997
O    98.76288790000001  31.0116775  20.191420799999996
N    93.9660389  36.5360506  24.631228399999998
C    93.0743982  37.5604434  25.150717999999998
C    93.08624400000001  38.7084248  24.139383099999996
O    94.0832929  38.9037004  23.4570631
C    93.6113752  38.043905  26.519839499999996
C    92.9350155  39.2700326  27.089123299999997
C    91.6004815  39.2407716  27.4904515
C    93.6320382  40.467247900000004  27.226021699999997
C    90.9726162  40.3687122  27.985477699999997
C    93.0177943  41.6027953  27.7254415
C    91.67846920000001  41.5633888  28.0973713
O    91.0220824  42.6603403  28.568503599999996
N    91.9541347  39.4138547  24.026760799999998
C    91.7783158  40.4812668  23.056316199999998
C    92.87550470000001  41.5580218  22.9656128
O    93.6727132  41.7806826  23.868029299999996
N    92.885481  42.2119493  21.792799099999996
C    93.8183058  43.2902139  21.514808
C    93.30568670000001  44.6255035  22.146931199999997
O    94.1289671  45.246527900000004  22.843150799999997
C    94.0067456  43.4970652  20.008789299999997
C    94.7481172  42.3868801  19.2468716
C    94.4510352  42.488066  17.752293899999998
C    96.2525183  42.4876016  19.4746012
O    92.1288989  44.9617293  21.9077295
H    98.4109562  20.627589  24.260087699999996
H    99.5492577  21.870278300000003  24.199523499999998
H    98.9562365  21.210008600000002  22.779345099999997
H    96.90022040000001  22.287684900000002  23.025830499999998
H    96.3258725  23.3287452  25.307764799999998
H    97.7204507  22.4697327  25.967184299999996
H    95.3693109  21.3121406  24.944281999999998
H    96.5870683  24.5330807  22.671188799999996
H    99.1012874  26.0693728  22.659571399999997
H    98.1556329  25.9689937  20.4558568
H    98.7558235  28.273892  21.1449595
H    97.0745835  28.5329951  21.679653
H    95.9581239  25.0269163  20.856425699999996
H    95.69870660000001  26.5527963  20.065885199999997
H    95.4660078  26.453307600000002  21.805698399999997
H    97.7489047  29.4017552  19.337739299999996
H    96.2611483  28.4761634  19.423267499999998
H    97.7420938  27.7271779  18.833407599999997
H    98.62346840000001  28.507543300000002  23.1908297
H    97.5848342  28.6879548  25.827789099999997
H    98.1079977  30.8125005  23.670591099999996
H    99.33135250000001  30.1523749  24.7634932
H    98.1127239  30.2998607  27.4351696
H    97.87841710000001  33.0575682  24.174624299999998
H    97.9338915  32.1713151  29.018096999999997
H    97.7309297  34.9130581  25.7599353
H    97.79898200000001  35.5383942  27.956497799999998
H    96.039951  31.0810949  25.8083401
H    93.7460796  30.4648754  24.0750483
H    93.4971384  30.790004  27.092270999999997
H    93.2947845  29.2678588  26.197144599999998
H    91.4120149  30.2599141  24.924332899999996
H    91.5982613  31.7854958  25.779564899999997
H    90.9607245  29.1221152  27.0790664
H    89.746125  30.3519529  26.6355433
H    91.4474993  31.7703287  28.174729699999997
H    89.61462900000001  28.8857504  30.3524981
H    89.6645673  28.7301515  28.635675399999997
H    91.32294830000001  31.9370918  30.490343799999998
H    90.4933292  30.7279211  31.398399899999998
H    95.2749288  32.4410729  23.469754299999998
H    95.6562747  34.7966994  24.231196499999996
H    95.1256244  35.6377093  22.006679
H    93.8966079  34.3876456  21.778355199999996
H    94.6243821  31.9307377  21.6879042
H    97.4075935  35.1567959  21.382566499999996
H    96.33752030000001  30.3692196  20.958911799999996
H    99.0853829  33.6125324  20.503849499999998
H    99.5793842  31.4815234  19.966042099999996
H    94.8643764  36.8958695  24.338135299999998
H    92.0772098  37.1249975  25.238979799999996
H    94.6690995  38.276145  26.388088699999997
H    93.5164437  37.212458  27.220621499999996
H    91.0408835  38.3212187  27.4086151
H    94.663543  40.5312945  26.912391799999998
H    89.9369904  40.350855  28.283823199999997
H    93.5754964  42.5256496  27.796116299999998
H    91.6043083  43.4339366  28.560893299999996
H    91.2600558  39.330310600000004  24.754285999999997
H    90.8453702  40.9964058  23.288991599999996
H    91.6964576  40.0290402  22.0619475
H    92.0952054  42.142466  21.1683271
H    94.759673  43.0493168  22.0186298
H    94.5414337  44.4428374  19.883493499999997
H    93.00733100000001  43.6414722  19.586724599999997
H    94.3964278  41.4198814  19.62193
H    94.9906613  41.7176771  17.208277499999998
H    94.7606069  43.4608741  17.377550799999998
H    93.38741590000001  42.3706746  17.5605628
H    96.4816945  42.4407492  20.5371404
H    96.6278228  43.4329489  19.089016199999996
H    96.770067  41.6742273  18.972695599999998
