42

P    7.502  101.747  79.845
O    6.3878777  101.6583565  80.88686729999999
O    7.4884433999999995  100.5778361  78.8711429
O    7.152098  103.2212115  78.80589669999999
O    8.8756829  101.9964934  80.4599557
C    7.1298552  104.5889714  79.2702904
C    6.558995599999999  105.7443662  78.3070736
O    6.7671442  106.9514447  79.0157766
C    7.2031279  105.8361114  76.8750002
O    6.9215063  104.5837016  76.25554679999999
C    6.7201647  106.9615879  75.7906703
O    7.0438073999999995  106.4441529  74.51705559999999
C    7.4008692  108.403648  75.7971435
O    7.143218  109.1233384  76.9770028
C    7.0912444  109.3686435  74.5923663
N    5.6721376999999995  109.7019955  74.2469535
C    5.4847301999999996  110.1754145  72.8357271
C    5.1716508999999995  109.0327307  71.77233509999999
O    4.1537462  108.3383504  71.9465469
O    5.9609562  108.9458151  70.8213044
C    5.063517  110.6417088  75.22688
P    5.5895122  112.4511816  75.0020609
O    4.5509197  113.0099556  74.0215211
O    5.5413578  113.1576645  76.3628043
O    7.0091157  112.3652122  74.4360241
H    8.157642899999999  104.8714228  79.5356975
H    6.5234888  104.6369957  80.1812853
H    5.4890783  105.5396054  78.1713556
H    6.1089313  107.6053115  78.7317253
H    8.2920597  105.9501877  76.9942806
H    7.0559835  103.8793513  76.91019659999999
H    5.628958  107.0667361  75.8993205
H    6.8887564999999995  105.4837697  74.5407008
H    8.477788499999999  108.2169565  75.6891438
H    7.6544612999999995  108.7485568  77.7120635
H    7.5204143  108.91441329999999  73.69793709999999
H    7.572627799999999  110.3243627  74.8088127
H    5.1364866  108.8232273  74.2893984
H    6.3732336  110.7265158  72.5293337
H    4.6515705  110.8804234  72.8410952
H    5.3477384  110.3323771  76.2322475
H    3.9786449  110.6211856  75.12718199999999
