176

N    -20.051  23.187  11.593000000000002
C    -21.2148756  23.682877100000002  12.399885300000001
C    -20.800472  23.8777555  13.862901
O    -20.7813091  22.9064678  14.614052800000001
C    -22.2673906  22.5786691  12.260106100000002
C    -21.9471314  21.957757800000003  10.910636100000001
C    -20.4305821  21.8992386  10.9444136
N    -20.4367299  25.1079842  14.217485600000002
C    -19.9523586  25.455980800000003  15.551104
C    -20.9657421  25.177475  16.685813800000002
O    -21.443780699999998  26.0802714  17.362914800000002
C    -19.5439169  26.9210114  15.573443500000002
N    -21.226150999999998  23.8871204  16.911804600000004
C    -22.1487713  23.4426412  17.9353301
C    -21.6863593  23.8921232  19.3159464
O    -22.4823743  24.3119666  20.1461447
C    -22.293941099999998  21.9003622  17.8975467
O    -23.0817203  21.510120200000003  16.7950844
C    -22.9521372  21.380987400000002  19.1712704
N    -20.3715072  23.764332  19.5515209
C    -19.7940032  24.1268403  20.8256452
C    -20.0229838  25.578890400000002  21.238583900000002
O    -19.8580027  25.9289883  22.4035751
N    -20.421242799999998  26.4114007  20.274844
C    -20.674795699999997  27.8080767  20.530643100000002
C    -21.9703491  28.033229000000002  21.314926200000002
O    -22.2499111  29.152086500000003  21.743348
C    -20.718345199999998  28.5830442  19.216860500000003
C    -19.3412005  28.6226922  18.4959675
O    -18.4387646  27.868413200000003  18.9113635
O    -19.2387278  29.3934897  17.521792400000002
N    -22.7738632  26.981433000000003  21.4955019
C    -24.0322177  27.127616200000002  22.191526200000002
C    -24.1182753  26.207159700000002  23.4076908
O    -23.6260601  25.0884056  23.4327294
C    -25.2212721  26.807922100000003  21.264665200000003
C    -25.1993749  27.627058  20.0040863
C    -24.2492026  27.3645968  19.0230353
C    -26.1290145  28.6354496  19.7784358
C    -24.2198711  28.0965154  17.8511344
C    -26.1134888  29.3600737  18.5971398
C    -25.1559121  29.091606300000002  17.6341855
N    -24.8123425  26.7176337  24.432370900000002
C    -25.0356214  25.983162200000002  25.6573774
C    -26.5267441  26.0313205  25.9485682
O    -27.176474499999998  27.059865000000002  25.7918998
C    -24.2795083  26.6268312  26.8265362
C    -24.4357081  25.8304271  28.1103482
S    -23.534768399999997  26.6101171  29.481279100000002
C    -24.8950204  27.4583212  30.327339100000003
N    -27.0738368  24.8820401  26.3534738
C    -28.4829989  24.8628085  26.687377
C    -28.6095035  25.5836006  28.0265463
O    -27.846642499999998  25.2880056  28.941166000000003
C    -28.994283799999998  23.432009700000002  26.7952005
C    -30.4949983  23.300798200000003  26.6216374
O    -31.0841089  22.2731777  26.9355866
N    -31.144156  24.350429300000002  26.1064279
N    -29.5392542  26.5342692  28.1451543
C    -29.6243868  27.242118  29.4054639
C    -30.8884267  28.0773529  29.5735581
O    -31.6711783  28.311542  28.664615400000002
C    -28.3964558  28.144104300000002  29.594615500000003
C    -28.3673742  29.3253062  28.644896600000003
S    -26.9096276  30.357289700000003  28.9654545
C    -27.3335975  31.0315483  30.5963529
N    -31.032019299999998  28.534024900000002  30.823458600000002
C    -32.1138647  29.3823663  31.271023500000002
C    -31.452136499999998  30.5176685  32.07109
O    -30.4159274  30.2853819  32.7020418
C    -33.0688846  28.5581077  32.1642262
O    -34.3808747  29.056208700000003  32.071288
N    -31.9949968  31.7298362  32.0348592
C    -31.3668493  32.8420715  32.7566116
C    -31.0731093  32.520081000000005  34.239033
O    -31.9525345  32.201207100000005  35.0268349
C    -32.370542799999996  33.9974153  32.600391800000004
C    -33.6841692  33.3034157  32.2557266
C    -33.2297161  32.1482194  31.3786029
N    -29.7920734  32.6962174  34.60444
C    -29.2925893  32.4051693  35.9421607
C    -29.939638  33.303872  37.006008
O    -30.4371972  32.841089000000004  38.0266329
C    -27.7567305  32.5554547  35.997562900000005
C    -27.236691699999998  32.1528809  37.3773717
C    -27.0943944  31.698142500000003  34.9195913
N    -29.873289399999997  34.6180411  36.7807362
C    -30.4568361  35.5993523  37.6862573
C    -30.466949  35.157718700000004  39.1418073
O    -29.561543699999998  35.4109871  39.900393
H    -19.2210192  23.054180900000002  12.1805704
H    -19.8042644  23.8768381  10.8761255
H    -21.573309899999998  24.623187700000003  11.980465800000001
H    -23.2777498  22.9720416  12.321977100000002
H    -22.130703  21.8480884  13.057103800000002
H    -22.3950986  20.9755379  10.794588300000001
H    -22.299306599999998  22.5936118  10.099217600000001
H    -20.1055788  21.070876400000003  11.5726796
H    -19.9751425  21.8108049  9.961732200000002
H    -20.583713099999997  25.895568100000002  13.6005569
H    -19.0782088  24.8266367  15.7666125
H    -19.0318921  27.157947500000002  16.501455200000002
H    -20.4128063  27.5729167  15.527192800000002
H    -18.8686854  27.1525488  14.755249800000001
H    -20.8780388  23.2039073  16.229748
H    -23.1396353  23.890399300000002  17.779420000000002
H    -21.2884449  21.4628875  17.812790800000002
H    -22.605054799999998  21.7004065  15.9740119
H    -23.1872904  20.3285112  19.041298400000002
H    -23.873582  21.922784800000002  19.3662742
H    -22.292047399999998  21.5018613  20.023848
H    -19.753204  23.488287200000002  18.8049226
H    -18.7190884  23.952055400000003  20.8022142
H    -20.2332462  23.5190932  21.624570300000002
H    -20.5159988  26.1216155  19.3117872
H    -19.8592831  28.2010595  21.155082500000002
H    -21.0396115  29.609093  19.4011622
H    -21.4316722  28.1184744  18.5351267
H    -22.5303993  26.0484166  21.1799791
H    -24.0741135  28.176539000000002  22.5063691
H    -26.145799099999998  26.9801893  21.8161565
H    -25.151601  25.747292700000003  21.0073949
H    -23.5427374  26.559818800000002  19.1575189
H    -26.872107  28.852085600000002  20.531773400000002
H    -23.4647369  27.878530100000003  17.1100463
H    -26.8459093  30.135124400000002  18.4317615
H    -25.136986999999998  29.6612334  16.717097600000002
H    -25.2113802  27.6441532  24.3879835
H    -24.6831828  24.962584  25.485965800000002
H    -24.6608144  27.6417586  26.972162100000002
H    -23.2215743  26.6973062  26.5661773
H    -23.999846899999998  24.8372962  27.9950984
H    -25.4757715  25.7340534  28.4200193
H    -24.4773113  27.8662578  31.2411217
H    -25.668921  26.7327136  30.5588269
H    -25.2669121  28.263635100000002  29.6994543
H    -26.4987918  24.089758  26.5940432
H    -28.9619395  25.4474348  25.899112900000002
H    -28.7193638  23.0015317  27.7593968
H    -28.5355983  22.818487100000002  26.0158945
H    -32.1350771  24.2339242  25.9524775
H    -30.6979175  25.132278  25.6659262
H    -30.1525807  26.8295763  27.400513200000002
H    -29.595803  26.4820117  30.1979906
H    -27.506596299999998  27.5373536  29.4350188
H    -28.374288999999997  28.5034715  30.6238636
H    -29.255250099999998  29.9525179  28.7362703
H    -28.2615032  28.998181900000002  27.6096082
H    -26.6685209  31.8741477  30.7520984
H    -27.1743417  30.287197600000002  31.370645800000002
H    -28.368719499999997  31.3601177  30.586516600000003
H    -30.3263692  28.3618072  31.5279291
H    -32.6555095  29.7401737  30.393052700000002
H    -32.7065192  28.593797900000002  33.201084800000004
H    -33.032455399999996  27.5181615  31.8122718
H    -34.9625224  28.5536736  32.6570988
H    -30.4118043  33.066756500000004  32.267936
H    -32.0560019  34.6484436  31.786365800000002
H    -32.4468447  34.5808723  33.5152489
H    -34.1431834  32.9132646  33.164098100000004
H    -34.3856736  33.9613666  31.750910100000002
H    -33.9492213  31.3321238  31.353194900000002
H    -33.0041894  32.4826432  30.361598100000002
H    -29.0932802  32.8448838  33.8925758
H    -29.5746473  31.3786409  36.212098600000004
H    -27.504145899999997  33.6060523  35.824792900000006
H    -26.164477899999998  32.3163101  37.434405
H    -27.4386914  31.1012379  37.5654381
H    -27.7158058  32.732385900000004  38.1639561
H    -27.2657946  32.0787714  33.9163823
H    -27.4691374  30.6783066  34.9648375
H    -26.0202129  31.6757776  35.0830178
H    -29.5019605  34.9669523  35.9094631
H    -31.488569899999998  35.8095407  37.3840096
H    -29.848905  36.5051199  37.6221169
H    -31.3807141  34.6571388  39.4860056
