36

C    8.743  1.8369999999999997  24.699
C    9.5428748  1.6085835999999993  23.5622674
C    10.163602000000001  2.6362784999999995  22.8943997
C    9.9723386  3.9142990999999996  23.3963186
C    9.1784377  4.1409251  24.536786
C    8.553616  3.1256227999999995  25.1917669
C    8.0915024  0.7492582999999993  25.3955848
N    7.5239287  0.9787323999999993  26.560389
N    8.0531397  -0.4564452000000001  24.8767305
N    10.4308829  5.103804899999999  22.9782388
N    9.1793995  5.474165299999999  24.7807161
C    9.9494328  6.011264799999999  23.8069957
C    10.2259669  7.3958261  23.6385681
C    9.8914652  8.344463699999999  24.611133900000002
C    10.1806238  9.6823105  24.4152713
O    9.9058818  10.6753737  25.3216757
C    9.6303167  10.3098037  26.665049800000002
C    10.80428  10.0693258  23.2214706
C    11.1333648  9.1411912  22.2611196
C    10.8578793  7.7866984  22.4458772
O    11.1996694  6.9265694  21.475729400000002
H    9.7087201  0.6060108999999994  23.205425
H    10.774681000000001  2.4683614999999994  22.0247242
H    7.9112134  3.3547462999999995  26.0243647
H    7.0664785000000006  0.22700799999999965  27.0561219
H    7.6426593  1.8451891999999996  27.0540975
H    8.4019847  -0.6382672000000005  23.9504567
H    7.5942891  -1.2144661  25.3601949
H    8.6878459  5.9629088999999995  25.5088003
H    9.4269554  8.0219953  25.527803300000002
H    9.6346084  11.2445738  27.221494
H    10.403233  9.643056399999999  27.0550591
H    8.6454894  9.841993599999999  26.7531347
H    11.0267117  11.1144092  23.0772565
H    11.6177136  9.444411299999999  21.3469744
H    11.0191166  5.9936456  21.7885129
