45

C    8.702  1.9059999999999997  24.721
C    9.4823203  1.7151616999999995  23.5585091
C    10.069201  2.7215883999999995  22.8339162
C    9.869940199999998  3.9866885999999995  23.3391095
C    9.095329699999999  4.192344499999999  24.5019834
C    8.5104866  3.1967086999999994  25.2029057
C    8.068875899999998  0.8433334999999991  25.4702688
N    7.598216799999999  1.1066722999999996  26.6712205
N    7.930776699999999  -0.3566276000000004  24.961919899999998
N    10.284383799999999  5.177892099999999  22.899284599999998
N    9.0689835  5.511750899999999  24.7521652
C    9.7978475  6.0486547999999996  23.7580892
C    10.0143516  7.4275264  23.660087
C    9.605750599999999  8.2561471  24.7043684
C    9.8266897  9.5991428  24.6019839
C    10.434189  10.1045528  23.4609439
C    10.846594399999999  9.287883699999998  22.4197401
C    10.6263489  7.906455899999999  22.4997349
O    11.0283185  7.1259909  21.488471999999998
O    11.476110799999999  9.7353455  21.2962854
C    12.2404265  10.9172289  21.4820291
C    12.8570757  11.377084199999999  20.1617614
C    14.135550599999998  10.612230199999999  19.836280799999997
C    11.820691499999999  11.2445992  19.0499595
F    9.6965858  0.4617446999999997  23.0922371
H    10.648281599999999  2.518229099999999  21.9517436
H    7.8772497999999995  3.4290197999999994  26.0388903
H    7.142511599999999  0.37515879999999946  27.198347499999997
H    7.8077879999999995  1.9594913999999992  27.1600058
H    8.2361914  -0.5856614000000002  24.029864699999997
H    7.486572399999999  -1.0918340000000004  25.493351699999998
H    8.575278299999999  5.9895084999999995  25.4855053
H    9.167705499999999  7.857505  25.6014321
H    9.5354482  10.2768513  25.3879418
H    10.5995979  11.167542699999998  23.410505399999998
H    10.8747562  6.172354899999999  21.7271756
H    13.011843299999999  10.7425022  22.241592999999998
H    11.585561499999999  11.727376  21.824917799999998
H    13.114609699999999  12.4351293  20.2841858
H    14.5439255  10.9467954  18.886399599999997
H    13.924435599999999  9.5472802  19.7677238
H    14.883451899999999  10.7708918  20.6093704
H    10.9205919  11.8012926  19.2998299
H    11.5543996  10.2000877  18.9143672
H    12.2179574  11.6302896  18.114433899999998
