127

N    3.212  24.903  22.033
C    3.3223561000000004  25.233283800000002  20.5849477
C    3.4874949  26.7580708  20.3752606
O    3.0002880000000003  27.5024626  21.2215711
C    1.9534052000000002  24.819267500000002  20.028762200000003
C    1.5344262000000002  23.6204469  20.867377400000002
C    2.1530053000000002  23.8663251  22.2409154
N    4.1721955  27.1655301  19.2974069
C    4.3627913000000005  28.557303  18.8983089
C    3.5130456000000003  28.8818717  17.6399116
O    3.1854627000000004  27.994611300000003  16.8625553
C    5.8696608999999995  28.8060317  18.5713554
O    6.1722684  28.1200873  17.3719595
C    6.7782719  28.2962017  19.6838785
N    3.2359098  30.1911826  17.4381199
C    2.5284793000000003  30.6921868  16.2556023
C    3.209397  31.980999100000002  15.7257235
O    2.585728  33.0358134  15.6127725
C    1.0259177000000002  30.9621388  16.4970924
C    0.23971880000000034  29.696651600000003  16.8434812
C    -1.1963497999999997  30.053758000000002  17.3065884
O    -2.0263672999999995  30.3680627  16.4325866
O    -1.4140135999999996  29.9979288  18.5351842
N    4.494751  31.8777069  15.3227454
C    5.300728400000001  33.0448604  14.9401969
C    5.198540100000001  33.3538918  13.4195121
C    6.8004244  32.8548586  15.3007617
C    7.1913258  32.5857373  16.7483641
C    8.2754571  31.7469312  17.0265492
C    6.5466119  33.1683058  17.8316535
C    8.6910623  31.4861738  18.3262028
C    6.9600263  32.916206100000004  19.1339934
C    8.042963700000001  32.092808  19.391095200000002
N    3.7819333000000004  33.4708396  12.9362391
C    3.4848522  34.6075461  12.0182498
C    3.3740328  35.8986813  12.8677164
O    2.9963154000000003  35.8421803  14.028978200000001
C    2.1645380000000003  34.3744333  11.2273987
C    0.9164633000000002  34.0540423  12.0468729
C    0.6218043000000002  32.7347783  12.3855304
C    0.028117700000000134  35.0354792  12.4809389
C    -0.49849279999999974  32.408859  13.1352671
C    -1.1197223999999997  34.7157225  13.195385400000001
C    -1.3669655  33.4004885  13.5516091
N    3.7730904  37.0395365  12.2515526
C    3.5125433  38.3623508  12.838542200000001
C    1.9943826000000002  38.6618108  12.8307777
O    1.3367456000000002  38.4365326  11.8155663
C    4.2471193000000005  39.4687822  12.042370100000001
C    3.9759869  40.8568638  12.643100100000002
C    4.5865785  42.0370384  11.880181
N    3.997687  43.2745831  12.3912478
C    3.8959470000000005  44.4033161  11.6954404
N    4.4613518  44.4894576  10.4962215
N    3.2847454000000003  45.471123399999996  12.2152961
N    1.4732053000000003  39.172779  13.9537223
C    0.12262379999999995  39.7140355  14.0068755
C    0.14207100000000006  41.2892923  14.012025600000001
O    -0.9511845999999999  41.8321003  13.772407000000001
C    -0.7007289999999999  39.1164063  15.1612647
C    -2.2165918  39.2593439  14.9882664
C    -3.0353519999999996  37.9493126  15.1660812
O    -4.2508967  38.064368200000004  15.436389
O    -2.4516026  36.8606637  15.0039552
O    1.2206511000000002  41.8863781  14.2072947
H    2.9309437000000003  25.7974234  22.4760997
H    4.1099509  24.6227034  22.4362745
H    4.1301776  24.665716500000002  20.1226922
H    1.9945619  24.5944772  18.966411700000002
H    1.2476126  25.6430416  20.1622493
H    1.9296508  22.7051497  20.4282046
H    0.4532790000000002  23.5300292  20.9151546
H    2.5969393000000003  22.960394200000003  22.6463299
H    1.4132426000000002  24.2424252  22.9440971
H    4.401457300000001  26.5104325  18.5595062
H    4.0564041  29.1896671  19.7346764
H    5.9986052  29.8899261  18.4305494
H    7.1332623  28.0506646  17.2823008
H    7.7985396  28.6208545  19.496160200000002
H    6.7464409000000005  27.2117907  19.7223119
H    6.4644671  28.6967292  20.6441526
H    3.3333938  30.8410331  18.2040339
H    2.6189445  29.9006871  15.5013787
H    0.5941514000000003  31.426041  15.6093778
H    0.9132715000000002  31.683790300000002  17.3125673
H    0.7169845000000001  29.1596057  17.6656115
H    0.1693958000000002  29.0441365  15.9717566
H    4.977421400000001  30.9986783  15.4498875
H    4.8735579  33.8998286  15.477965600000001
H    5.694611  32.5725767  12.8441081
H    5.6989196  34.3055965  13.248740300000001
H    7.3136802  33.7689341  14.996709000000001
H    7.1924929  32.0370495  14.694970300000001
H    8.8029634  31.282041800000002  16.206528300000002
H    5.7004947999999995  33.8222474  17.673632
H    9.5350365  30.8369602  18.499941800000002
H    6.4345664  33.3881295  19.952125600000002
H    8.3590053  31.911140800000002  20.4065213
H    3.1788700000000003  33.6389275  13.7750979
H    3.459684  32.595074600000004  12.515374300000001
H    4.3007451  34.7008906  11.2969173
H    2.3275913  33.5529368  10.529629100000001
H    1.9596793000000001  35.2789092  10.654713300000001
H    1.2575396  31.9290121  12.046462400000001
H    0.21203649999999996  36.0771694  12.245306900000001
H    -0.7025055  31.382557900000002  13.4056678
H    -1.7842456000000002  35.4986319  13.525684100000001
H    -2.2350192  33.1540172  14.1476723
H    3.823166  37.0364457  11.240845700000001
H    3.8558987  38.3304857  13.876103
H    3.8748731000000003  39.442149900000004  11.0168009
H    5.314951300000001  39.2540281  12.0493767
H    4.3379143000000004  40.8731114  13.6732501
H    2.8941802  41.0100538  12.690187100000001
H    4.34427  41.919441500000005  10.820581400000002
H    5.670805100000001  42.0612086  12.0160727
H    3.4354941  43.1692425  13.2256255
H    4.4450188  45.357829699999996  9.98859
H    5.0275711  43.740843  10.1380187
H    2.7302282  45.369846800000005  13.048637600000001
H    3.1417219000000003  46.2937271  11.6544547
H    2.0697604000000003  39.4167915  14.7300036
H    -0.3602181  39.4280929  13.063322000000001
H    -0.39119649999999995  39.5630265  16.1090626
H    -0.48743709999999973  38.0397115  15.200541900000001
H    -2.4510413  39.6089217  13.9781946
H    -2.6357923999999997  40.00088  15.6714768
