13

C    22.091  25.173  27.594
C    20.959288100000002  25.9134046  28.283876700000004
C    18.6873477  25.7538537  29.072103100000003
C    17.3163151  25.274930899999998  28.5356318
O    21.819947600000003  24.0545951  27.114158200000002
O    23.2024809  25.7252377  27.583324700000002
O    21.126674  27.0217107  28.800781100000002
O    16.3247089  25.7160991  29.141432200000004
N    19.8060228  25.253485299999998  28.324646
O    17.294356500000003  24.4985829  27.567185700000003
H    18.757160000000002  25.4413739  30.1217131
H    18.7139504  26.8475614  29.050067100000003
H    19.712176900000003  24.3855487  27.811549300000003
