51

O    25.394000000000002  7.234  83.678
C    26.5950318  7.757419  83.3291974
C    27.288998400000004  8.6259701  84.16841799999999
C    28.5144008  9.1413189  83.77195239999999
C    29.060152600000002  8.8034661  82.53454489999999
C    28.3578918  7.9270285  81.7033096
C    27.1383395  7.406162799999999  82.09290619999999
C    30.3960514  9.3524476  82.08796539999999
C    30.39038  10.869038699999999  81.84813249999999
N    29.309009900000003  11.242981799999999  80.8926011
C    31.7742706  11.2858466  81.2650547
O    31.883287600000003  11.4498509  80.05809699999999
N    32.7481291  11.492875  82.16131719999998
C    34.1261995  11.9008206  81.87352139999999
C    35.0134808  10.698877099999999  81.27962489999999
O    34.456251200000004  9.578671499999999  81.29991059999999
O    36.1453149  10.9735116  80.83416779999999
C    34.7329414  12.543080199999999  83.14251979999999
C    34.044073100000006  13.8847122  83.46596369999999
C    34.6345533  14.472195  84.76283509999999
C    34.518942  13.456688199999999  85.9187465
C    35.2164793  12.1339662  85.50098969999999
O    34.5913194  11.674697799999999  84.27954609999999
O    34.204009400000004  14.7867225  82.40122489999999
O    33.903806200000005  15.6432353  85.0363582
O    33.154307100000004  13.2594152  86.21363219999999
C    35.1030013  11.0161939  86.54880469999999
H    25.1213415  7.546383499999999  84.55374929999999
H    26.878945200000004  8.8911722  85.1310961
H    29.0508507  9.7995098  84.43663049999999
H    28.775319200000002  7.6387424  80.75080089999999
H    26.591536500000004  6.7238656  81.46246939999999
H    30.708674300000002  8.852304799999999  81.169237
H    31.158331800000003  9.126229899999998  82.83479039999999
H    30.229277800000002  11.3882082  82.7945858
H    28.901846900000002  12.1598078  81.10155449999999
H    28.578506500000003  10.5203454  80.88057529999999
H    29.7693656  11.2901755  79.96174099999999
H    32.654835500000004  11.0991454  83.0881484
H    34.1142344  12.668135399999999  81.09348829999999
H    35.798379000000004  12.7197474  82.9328085
H    32.9720573  13.700196199999999  83.63144019999999
H    35.6962008  14.710251399999999  84.584071
H    34.9809154  13.858184  86.82523199999999
H    36.273555  12.3479998  85.28784719999999
H    33.887663  15.653902599999999  82.7030147
H    34.0936618  15.9543717  85.9315561
H    32.8162612  12.581645199999999  85.61124819999999
H    35.3896262  10.0773896  86.0865685
H    34.0835418  10.9437555  86.91384649999999
H    35.768344400000004  11.2370117  87.3758728
