83

N    9.905999999999999  15.769999999999998  37.393
C    8.9912445  16.9346537  37.482476000000005
C    9.8506521  18.158359299999997  37.876188000000006
O    10.9971952  17.996250399999997  38.2855682
C    7.9372943  16.7007627  38.577872000000006
C    6.5012565  17.231804399999998  38.3607432
C    6.3630059999999995  18.296235199999998  37.275683
C    5.563882899999999  16.0646347  38.054155
N    9.2753941  19.343238799999998  37.7263737
C    9.9357797  20.5793708  38.1066312
C    10.4716576  20.4043431  39.5347008
O    9.8556831  19.7092699  40.330440800000005
C    8.9295157  21.7221242  38.0643334
N    11.615587699999999  21.03099  39.842651100000005
C    12.2318614  20.9326142  41.158586400000004
C    12.6808041  22.3139947  41.6344556
O    12.6770806  23.2751208  40.8713368
C    13.5020121  20.050908699999997  41.1144675
C    13.9229754  19.5983308  42.525490600000005
C    14.6107304  20.8048783  40.382841400000004
C    15.4213997  19.434519499999997  42.728690400000005
N    13.1009399  22.416539699999998  42.900965500000005
C    13.7002372  23.637875899999997  43.4044351
C    15.1948621  23.5128392  43.0984957
O    15.9618495  22.859427699999998  43.7860145
C    13.3759645  23.880343999999997  44.8917708
C    14.4924164  23.6871655  45.898844700000005
C    15.6288882  24.492737299999998  45.9115364
C    14.3823987  22.7062769  46.8773343
C    16.634000399999998  24.295990399999997  46.839767
C    15.3722662  22.509616899999997  47.8226059
C    16.5144915  23.298693099999998  47.799945300000005
O    17.4879768  23.082459299999996  48.7337696
N    15.521929799999999  24.086489699999998  41.9464283
C    16.8333363  24.0156912  41.379301100000006
C    18.0015829  24.357642499999997  42.401895200000006
O    17.6954397  24.659344599999997  43.555757500000006
C    16.7022493  24.7358898  40.0517588
O    17.9880904  25.171937999999997  39.709155200000005
O    19.1563989  24.0717595  41.9741257
H    9.5208547  14.929522599999999  37.8359667
H    10.7631652  16.071373899999998  37.909120900000005
H    10.1806629  15.556654199999997  36.428659700000004
H    8.527143899999999  17.1013624  36.5118808
H    8.326381699999999  17.1342626  39.503467
H    7.8471679  15.629099299999998  38.7525496
H    6.1696172  17.6778861  39.30221950000001
H    5.3034324999999995  18.399239899999998  37.036669100000005
H    6.8582019999999995  18.0444529  36.3461045
H    6.667023599999999  19.2735049  37.638972700000004
H    5.6027186  15.316293199999997  38.8419851
H    5.8258591  15.594658399999998  37.109100100000006
H    4.5354706  16.4106569  37.9830623
H    8.322781299999999  19.4081576  37.401290100000004
H    10.7763767  20.7708895  37.4292311
H    9.4133086  22.653019099999998  38.347122000000006
H    8.1229185  21.530875499999997  38.768481200000004
H    8.524900200000001  21.832416199999997  37.0622118
H    12.0308171  21.705816499999997  39.2165866
H    11.4872403  20.493391399999997  41.829151100000004
H    13.253491  19.164887099999998  40.52168
H    13.4552173  18.623865  42.702701700000006
H    13.5700792  20.2423376  43.3154423
H    14.241915  21.2180407  39.4471724
H    15.439046  20.142730899999997  40.1483885
H    14.9980702  21.6259552  40.9815618
H    15.6047621  18.9657365  43.6933243
H    15.931966599999999  20.395905799999998  42.743573600000005
H    15.868656699999999  18.809631  41.961078400000005
H    12.9754392  21.678980499999998  43.5737157
H    13.2862291  24.4542394  42.8025911
H    12.5409006  23.237116099999998  45.174011300000004
H    13.0383841  24.915412099999998  44.9826836
H    15.7573432  25.2665054  45.1687494
H    13.5099944  22.069770899999998  46.902748700000004
H    17.520208099999998  24.912595699999997  46.7923745
H    15.2832317  21.742177299999998  48.5749415
H    18.2249805  23.6928439  48.588022200000005
H    14.826245  24.6199105  41.4458527
H    17.0729451  22.953280799999998  41.185973000000004
H    16.0712613  25.626891999999998  40.143483800000006
H    16.3019765  24.072651699999998  39.274906800000004
H    18.6471871  24.731686699999997  40.279882400000005
