67

N    17.735  -13.996  22.235
C    18.8129865  -14.661648500000002  21.5167527
C    19.7872208  -15.349049500000001  22.4801289
N    19.0825471  -16.1757974  23.4506289
C    17.652938499999998  -15.9539734  23.605658000000002
C    17.1879854  -14.521348600000001  23.328640500000002
O    16.357228  -13.944525200000001  24.0229182
C    17.2096419  -12.824329  21.5368225
C    15.6880405  -12.970827900000002  21.2378374
O    15.1102448  -14.036284000000002  21.4075928
N    15.0561094  -11.8811744  20.776123000000002
C    18.0992767  -12.7655773  20.278574600000002
C    19.3772735  -13.511857700000002  20.6815363
S    19.6481219  -17.722864  23.7841704
O    19.915911  -18.4091981  22.5297249
C    21.2555504  -17.5810381  24.6438454
O    18.6625703  -18.3264201  24.6514118
C    13.633921399999998  -11.935667000000002  20.464745200000003
C    12.8595311  -11.9437104  21.781072
C    11.9328839  -10.748084900000002  21.8944905
C    11.3990248  -10.676027500000002  23.3092803
C    12.0410365  -13.209676000000002  21.982518600000002
C    11.465176199999998  -13.211181400000001  23.393261000000003
N    10.842036  -11.932706900000001  23.806226000000002
C    10.4560292  -11.8587158  25.09082
N    9.898203299999999  -12.8981554  25.6900148
N    10.662099999999999  -10.7789137  25.899344000000003
O    10.356587  -9.438159200000001  25.6499333
C    21.223235  -16.461357800000002  25.6221874
C    22.1731819  -15.447145400000002  25.594849500000002
C    21.9258404  -14.266322700000002  26.270825000000002
C    20.7497127  -14.117693100000002  26.9854974
C    19.8818467  -15.1869489  27.1416922
C    20.135555  -16.3720642  26.4838731
H    18.3829001  -15.432903600000001  20.8596448
H    20.3628194  -14.593739500000002  23.0291602
H    20.4665492  -15.990745800000001  21.916223900000002
H    17.3749341  -16.2334834  24.623052400000002
H    17.0814292  -16.5913277  22.913307200000002
H    17.3438993  -11.943322700000001  22.1746351
H    15.554434599999999  -11.0140396  20.6590323
H    17.6081344  -13.293630900000002  19.460863200000002
H    18.2999098  -11.7436424  19.969501100000002
H    19.9434839  -13.858466600000002  19.8225808
H    20.0098903  -12.8807869  21.304117
H    22.000269199999998  -17.454673800000002  23.8649731
H    21.352510799999997  -18.565083400000002  25.099518500000002
H    13.4465842  -12.851211200000002  19.899368300000003
H    13.388179099999999  -11.073683200000001  19.849669000000002
H    13.596449699999999  -11.8964858  22.591226000000002
H    11.1160801  -10.8512517  21.178423900000002
H    12.458591199999999  -9.818483500000001  21.6831989
H    10.6156709  -9.918427700000002  23.3575045
H    12.2132033  -10.358907900000002  23.973819000000002
H    12.676556  -14.088080200000002  21.8745122
H    11.245455199999999  -13.255353200000002  21.2375136
H    10.711665799999999  -13.998594200000001  23.443821800000002
H    12.2790954  -13.442619100000002  24.088812100000002
H    9.602989299999999  -12.853925  26.6531893
H    9.900239899999999  -13.810628900000001  25.261744500000002
H    10.498457599999998  -10.982603800000001  26.881627100000003
H    9.42923  -9.2573143  25.891426000000003
H    23.0535027  -15.552407400000002  24.9800507
H    22.6338128  -13.454331100000001  26.2170706
H    20.529867  -13.176190100000001  27.4654423
H    19.0030425  -15.086599500000002  27.7591142
H    19.4433328  -17.1969821  26.546131600000002
