52

N    10.579999999999998  -10.568  24.565
C    10.821786999999999  -11.5576417  23.726711700000003
N    9.976703899999999  -12.5673011  23.649231200000003
C    12.033050199999998  -11.5420477  22.896745900000003
C    12.866542199999998  -10.419749399999999  22.869691200000002
C    14.023112399999999  -10.414764499999999  22.1130086
C    14.3845438  -11.522651799999998  21.352960900000003
C    13.546693699999999  -12.635475499999998  21.361041300000004
C    12.394594899999998  -12.6517843  22.123608200000003
C    15.666093499999999  -11.5250002  20.5592155
C    16.6348262  -12.5489137  21.0891546
N    16.283958  -13.549741  21.860398900000003
C    17.4250501  -14.255626099999999  22.1289152
C    18.5089717  -13.630460999999999  21.475744700000003
N    17.975902599999998  -12.5478822  20.817201400000002
C    18.718932799999997  -11.609722699999999  20.011053000000004
C    19.789895599999998  -14.154981099999999  21.5922459
C    19.9882877  -15.281606199999999  22.3762718
C    18.9216791  -15.8864562  23.0562885
C    17.6351271  -15.387700599999999  22.9101643
N    19.1675661  -16.9720826  23.954648100000004
S    19.4826078  -16.7105194  25.612989400000004
C    20.6975831  -15.430070899999999  25.722302000000003
C    21.954879  -15.6623713  25.196842300000004
C    22.911870999999998  -14.6611361  25.277860300000004
C    22.601210899999998  -13.4537027  25.888666200000003
C    21.339476299999998  -13.2435905  26.4268232
C    20.3762406  -14.2390984  26.3438529
O    18.2688612  -16.316019  26.3066616
O    20.0425838  -17.9237497  26.1736469
H    9.755996199999998  -10.577416699999999  25.1476572
H    11.233148099999998  -9.813079499999999  24.6888083
H    10.111067299999998  -13.3136332  22.987983900000003
H    9.146186799999999  -12.589025999999999  24.2221304
H    12.628853699999999  -9.5234493  23.4180607
H    14.653251599999999  -9.538640899999999  22.1169638
H    13.8177621  -13.5012946  20.780140300000003
H    11.807080799999998  -13.5543716  22.115870400000002
H    16.1295476  -10.5383567  20.596479700000003
H    15.449911299999998  -11.769635099999999  19.514696800000003
H    18.0366207  -11.0370153  19.388826
H    19.4101972  -12.1558677  19.369402500000003
H    19.2909036  -10.931925799999998  20.647621900000004
H    20.629531099999998  -13.699585099999998  21.090702600000004
H    20.978681899999998  -15.6882398  22.492422700000002
H    16.8118105  -15.8464365  23.436886800000003
H    18.4247628  -17.658542  23.9340836
H    22.1621169  -16.618333399999997  24.7442372
H    23.895245199999998  -14.826677799999999  24.868444600000004
H    23.3469384  -12.6773384  25.949597500000003
H    21.102808699999997  -12.3098031  26.9102746
H    19.382455  -14.1170706  26.743070200000002
