56

N    14.419  8.856  3.402
C    14.136955200000001  8.978866799999999  4.817168000000001
C    12.623554600000002  8.9999466  5.0568389
O    11.873346500000002  9.682236399999999  4.370328499999999
C    14.7524306  10.3326116  5.2386821
C    15.133453200000002  11.0136834  3.93649
C    14.820437300000002  10.011097699999999  2.8513607
O    14.936943900000003  10.2259839  1.6553437999999998
N    12.192991700000002  8.185129799999999  6.0297106
C    10.787278500000001  8.0679722  6.3663623
C    10.513351100000001  8.725121099999999  7.7231698
O    11.256108600000001  8.5264518  8.6815174
C    10.3740514  6.592061099999999  6.4256983
C    10.1921133  5.978884099999999  5.0384905
C    9.828196400000001  4.504357699999999  5.1204931
O    9.188394400000002  4.034037999999999  6.0540607
N    10.251043000000001  3.752270499999999  4.0985258
N    9.446384100000001  9.5178458  7.7751537
C    9.0682836  10.226309299999999  8.9768836
C    7.532450100000002  10.4687723  8.9732141
O    6.990976800000002  10.6674983  10.0733989
C    9.820126600000002  11.5631311  9.1023554
C    9.463364600000002  12.608013699999999  8.0846034
C    8.806477600000001  12.4538437  6.8980792
C    9.791026100000002  14.0029836  8.1724933
N    8.702113500000001  13.6508155  6.2431544
C    9.294733400000002  14.619772  6.9951245
C    10.450342400000002  14.7946616  9.1155257
C    9.448639100000001  15.980593299999999  6.7498745
C    10.5996333  16.1436555  8.8682687
C    10.106436500000001  16.731727199999998  7.6988055
O    6.9669728000000015  10.4425634  7.8630802
H    14.014470300000001  8.117858799999999  2.84797
H    14.582589600000002  8.1394326  5.3587383
H    15.622123600000002  10.1649554  5.8703243
H    14.026401900000002  10.9159768  5.8030511
H    16.186728700000003  11.2851187  3.8817828
H    14.548450500000001  11.912157899999999  3.7411443
H    12.834867600000003  7.7708075999999995  6.6904455
H    10.230678200000002  8.598611499999999  5.5885748
H    9.434868800000002  6.506402199999999  6.976299
H    11.124669400000002  6.036614899999999  6.9898533
H    11.102155800000002  6.1068297  4.4529077
H    9.376231800000001  6.491064699999999  4.5238963000000005
H    9.994141  2.7781665999999996  4.0774099
H    10.735629600000001  4.151599599999999  3.3134986
H    8.757737300000002  9.575952899999999  7.0351745
H    9.3204132  9.608543899999999  9.8474196
H    10.8944465  11.3485991  9.0563676
H    9.6009816  11.9598465  10.0986002
H    8.363620700000002  11.578488499999999  6.4704895
H    8.2305433  13.7861651  5.3657293
H    10.834179700000002  14.3510368  10.0229116
H    9.061830700000002  16.426744799999998  5.8466829
H    11.107529200000002  16.7627401  9.5927308
H    10.244695600000002  17.790779999999998  7.5436239
