47

N    74.57  22.331  38.89
C    73.8480098  21.4597583  38.1440365
O    74.375603  20.6779888  37.3659949
N    72.4544492  21.5000079  38.3011718
C    71.743796  22.334002400000003  39.1399574
O    70.5261598  22.269207100000003  39.1868361
C    72.58695279999999  23.2819635  39.9455655
N    72.0451466  24.1406202  40.7788001
C    72.8262991  24.9934947  41.4947806
C    72.20665989999999  25.9267664  42.3834655
C    72.9656529  26.817612500000003  43.118830599999995
C    72.3460962  27.829337900000002  44.0521897
C    74.3973969  26.791616700000002  42.977000499999995
C    75.2442197  27.7604548  43.7583906
C    75.02321069999999  25.895102  42.1179901
C    74.2635846  24.9767583  41.3590151
N    74.8157217  24.047898800000002  40.4679516
C    74.0157962  23.1935465  39.7427282
C    76.275714  23.9392014  40.3551466
C    76.9259187  24.719796300000002  39.2059563
O    76.7762109  23.9826531  37.9976359
C    78.4409821  24.959706100000002  39.4889309
O    79.1274865  23.809728200000002  39.9240813
C    78.7305698  26.0106413  40.5875446
O    77.8750953  27.1242202  40.5041034
C    80.1589255  26.604100300000002  40.5931667
O    80.5304927  26.9883954  39.285634699999996
H    71.9076033  20.851255600000002  37.7442195
H    71.1320836  25.907188  42.443950799999996
H    71.2665754  27.7196279  44.063449899999995
H    72.59701919999999  28.835651300000002  43.7272937
H    72.72934649999999  27.69146  45.059522199999996
H    76.290453  27.6508841  43.4936297
H    75.120237  27.5856843  44.8246434
H    74.9310181  28.7806783  43.551400099999995
H    76.08836649999999  25.970160500000002  41.9938164
H    76.492756  22.8793258  40.1946996
H    76.7113188  24.2357883  41.306090399999995
H    76.4500975  25.7040479  39.0924581
H    76.0827267  23.3101132  38.1055312
H    78.8490127  25.316609  38.530462799999995
H    79.0513792  23.1222152  39.2464936
H    78.5495284  25.540790100000002  41.5594438
H    78.1879743  27.6908996  39.7840778
H    80.8725182  25.8924662  41.0167657
H    80.1368079  27.5054151  41.2068437
H    80.9779236  26.257041400000002  38.844803299999995
