86

C    18.802  24.105  36.349
C    18.8569106  28.0408782  34.5552528
C    19.7981449  26.2129215  33.2292376
C    20.0515733  26.0767966  35.777152599999994
C    20.524604800000002  26.8663524  37.021787599999996
C    21.9420228  27.3907971  36.7723757
C    21.8956802  28.2524612  35.475048799999996
C    19.990407700000002  27.01309  34.5229826
C    21.0557117  30.5258489  34.978949099999994
C    20.127693400000002  31.5330065  35.36402399999999
C    19.9222142  32.6841497  34.557133199999996
C    18.9406833  34.9016414  34.2842474
C    19.6085956  35.0465328  33.0003768
C    20.4444342  34.0478697  32.546695899999996
C    20.6313321  32.822353  33.3342713
C    21.5193334  31.7907313  32.948475099999996
C    21.732533800000002  30.6800057  33.747209
C    18.059743  36.629815  31.854374199999995
C    16.975353000000002  35.6787307  31.482396599999998
C    17.222713900000002  34.4912553  30.771827499999997
C    16.1856276  33.6910548  30.285320799999997
C    14.854141000000002  34.1207038  30.510010899999997
C    14.598688500000002  35.300004  31.228306099999998
C    15.6448724  36.069705  31.714509199999995
C    16.4777656  32.3955929  29.538368099999996
C    16.2594992  31.1456454  30.372801499999998
C    17.1549062  30.3078107  30.887630599999998
C    16.7131741  29.1316195  31.709420499999997
C    18.6310438  30.4922764  30.749890499999996
N    19.3101931  36.203956  32.2161567
O    18.7956636  25.4948755  36.058211
O    20.4884112  26.001829  38.172283699999994
O    21.2762156  27.6583885  34.3855369
O    21.2448255  29.4804805  35.8531743
O    21.0733451  34.2059811  31.385199499999995
O    19.0960216  33.7073653  34.981190899999994
O    18.1968547  35.7463606  34.7506608
O    17.8712987  37.8360493  31.733440199999997
O    13.824393200000001  33.3632958  30.041797799999998
C    19.490758200000002  23.7704814  41.6256719
C    19.592499200000002  24.2895247  40.343846199999994
C    20.0633913  25.6007468  40.454857
N    20.2379207  25.8638098  41.805665299999994
C    19.861008  24.7707768  42.524257799999994
C    19.70297  24.8382932  44.0014002
C    20.3669343  26.5571086  39.4132262
O    20.5159378  27.7570296  39.605804899999995
O    22.8399351  26.307935399999998  36.6685187
Cl    19.2566317  31.3898392  36.873328599999994
H    17.7732751  23.8584846  36.5976497
H    19.456489  23.8852091  37.19480849999999
H    19.1252591  23.5285468  35.477061299999995
H    18.9315427  28.6707028  33.6746439
H    18.9005729  28.6738891  35.439215499999996
H    17.9066735  27.5158455  34.5608254
H    19.7767471  26.8969996  32.388929499999996
H    18.863141000000002  25.6659643  33.285157399999996
H    20.6204328  25.5157938  33.0899065
H    20.7994826  25.3003455  35.570384499999996
H    19.8548951  27.7119555  37.216437899999995
H    22.2366089  28.0639622  37.5910163
H    22.9245549  28.4503845  35.147583999999995
H    22.060854300000003  31.8423533  32.0192219
H    22.4068145  29.9057942  33.423161199999996
H    18.244055200000002  34.2028377  30.577662299999997
H    13.5798538  35.6091297  31.404492699999995
H    15.458699800000002  36.982787099999996  32.2574877
H    17.495221  32.4388657  29.155403799999995
H    15.787975900000001  32.3412033  28.692581399999995
H    15.209273300000001  30.9503244  30.554447499999995
H    17.2847926  28.243531  31.447691999999996
H    15.65616  28.9275972  31.562246299999998
H    16.8754144  29.3403563  32.766459299999994
H    18.8768084  31.4428647  30.291719799999996
H    19.054694100000003  29.6900552  30.1459633
H    19.1002364  30.4510926  31.733931
H    19.947490300000002  36.9843928  32.3446309
H    21.710736100000002  33.4968843  31.193573299999997
H    12.974401100000001  33.7800119  30.246760999999996
H    19.1462065  22.7923966  41.89394969999999
H    19.363915900000002  23.7902441  39.424747399999994
H    20.5181809  26.7582043  42.17335679999999
H    19.6015462  23.839103299999998  44.413076
H    18.8063596  25.4071343  44.24309099999999
H    20.5551247  25.3308334  44.4642999
H    22.7146044  25.7329401  37.4374987
