30

C    22.917  86.526  54.073
C    24.4270715  86.2744067  54.241908699999996
C    25.2874321  87.09783949999999  53.268911599999996
C    26.828708900000002  86.9785563  53.508167099999994
O    27.467655  86.0967549  52.886719299999996
O    27.338345800000003  87.8064366  54.300693599999995
O    21.8642292  91.6016206  49.010599799999994
C    22.3029419  90.4602111  49.2676167
O    23.432358400000002  90.0292427  48.944610999999995
C    21.3761455  89.478021  50.0169564
C    21.398696700000002  89.6790062  51.534105399999994
C    20.8308444  88.45015839999999  52.2445758
C    21.082668100000003  88.357946  53.7573156
C    22.5410861  88.0210618  54.133059499999995
H    22.380218600000003  85.9843754  54.8522056
H    22.6108863  86.1274095  53.1028617
H    24.6451351  85.2163875  54.087675999999995
H    24.7331992  86.5401196  55.258103399999996
H    25.081189400000003  88.1626553  53.3765344
H    25.085393800000002  86.7964851  52.237342399999996
H    21.737427  88.47490429999999  49.7760013
H    20.360207000000003  89.6001758  49.634225099999995
H    20.844168000000003  90.5819042  51.7941637
H    22.4408624  89.8355183  51.8334165
H    21.2622308  87.5622654  51.7750468
H    19.753627100000003  88.4220623  52.0652275
H    20.423012500000002  87.5950783  54.1733507
H    20.824450000000002  89.3166195  54.210271299999995
H    23.1868656  88.5807745  53.458847
H    22.743180000000002  88.3795422  55.144973
