36

N    6.697000000000001  38.332  -1.754
C    7.932211100000001  38.3446736  -2.5740433
C    7.6706650000000005  39.325888299999995  -3.7861395
O    8.6553208  39.897635099999995  -4.265347
O    6.478636400000001  39.4332614  -4.1312035
C    8.2256575  36.9320722  -3.0933553
C    9.6226646  36.794482699999996  -3.707621
C    9.916144000000001  35.3734993  -4.1737052
O    9.1088128  34.4574925  -4.066234
N    11.134547000000001  35.1995345  -4.7268487
C    11.6100314  33.912079399999996  -5.1989426
C    13.0697749  33.7176896  -4.759487
O    13.8183094  34.6870988  -4.6466183
C    11.526647700000002  33.8412408  -6.7349452
S    11.4021735  32.1085195  -7.3197749000000005
N    13.4566263  32.4527223  -4.5923387
C    14.799772  32.0972747  -4.2039628
C    14.947798  31.662422099999997  -2.7129352
O    15.989522700000002  31.043135999999997  -2.4328658
O    14.0306745  31.968238  -1.9323871000000001
H    6.483706500000001  37.4018431  -1.3801687
H    5.968934100000001  38.622070099999995  -2.4527086000000002
H    6.724021400000001  39.0231401  -0.9990820999999999
H    8.787669600000001  38.716864  -2.0092794
H    7.485502200000001  36.6535848  -3.8466272999999997
H    8.159418800000001  36.2137855  -2.2720785
H    10.3830615  37.068820699999996  -2.9734852
H    9.726175600000001  37.4774271  -4.5533954
H    11.824438200000001  35.9387348  -4.7211243
H    10.9593328  33.1471993  -4.7587839
H    12.407505  34.2991039  -7.1839616
H    10.6224659  34.3559142  -7.0600546
H    11.3163803  32.4162945  -8.609070299999999
H    12.768928500000001  31.714464399999997  -4.5663851
H    15.4327973  32.9775219  -4.3415643
H    15.169373100000001  31.2843886  -4.8325408
