33

P    39.342  34.747  35.196
O    40.645969  34.9148632  34.4329026
O    38.1486515  34.5961184  34.287195999999994
O    39.3711603  33.7115582  36.319849899999994
O    39.0007785  36.2311368  35.954819699999994
C    39.9478383  36.8371166  36.790496299999994
C    39.3001727  38.0822718  37.4085926
O    40.2404845  38.7628701  38.227808499999995
C    38.7663305  39.1097096  36.399501799999996
O    37.6371259  39.8003349  36.887288899999994
C    39.9422127  40.1058335  36.2784151
O    39.559384800000004  41.398722400000004  35.9256203
C    40.5753567  40.025114  37.6918862
N    42.0171826  40.2689777  37.8085586
C    42.917776  39.5352076  37.048499099999994
O    42.5561732  38.6947519  36.2424507
N    44.2363786  39.829454500000004  37.2395916
C    44.7764035  40.760349600000005  38.1276668
O    45.9876953  40.9093224  38.1833919
C    43.7963777  41.451222900000005  38.896187899999994
C    42.4733848  41.1909688  38.736137
O    41.5472096  41.8078416  39.4399351
H    40.844824100000004  37.1016157  36.2125181
H    40.256270900000004  36.1359249  37.5791086
H    38.4888232  37.7400382  38.063494799999994
H    38.5578821  38.6107694  35.4480277
H    36.8462977  39.2577526  36.7708763
H    40.6486546  39.738272  35.530548399999994
H    38.6678793  41.5545448  36.29059109999999
H    40.1033189  40.798958400000004  38.3150724
H    44.887915  39.290751300000004  36.677414899999995
H    44.1464165  42.175458500000005  39.6098058
H    41.927807  42.4520028  40.068556599999994
