38

H    -30.2683549  149.460509  56.289174900000006
C    -28.272  148.851  55.767
O    -27.078575999999998  149.19643010000001  55.6186014
O    -28.684708599999997  147.66682  55.6840418
C    -29.2947541  149.8892499  56.0972055
C    -29.032489199999997  151.19274800000002  56.253215700000005
C    -30.026001299999997  152.1224986  56.743742000000005
C    -31.372556799999998  151.7637081  56.614703600000006
C    -32.371975799999994  152.4800707  57.2398431
C    -32.0408091  153.606673  57.981450300000006
C    -30.718129999999995  154.0036583  58.0941544
C    -29.677835299999998  153.2731267  57.5014789
C    -28.299995899999995  153.6077262  57.811932000000006
C    -27.128218399999998  153.80981490000002  58.100583900000004
C    -25.688967599999998  153.96508820000003  58.4461608
C    -25.082418999999998  152.66239610000002  58.997142800000006
C    -24.9805942  151.5677147  57.938556500000004
C    -23.886231599999995  151.84565690000002  56.917219900000006
C    -23.915993899999997  150.82599820000002  55.7879185
C    -22.779250199999996  151.07209210000002  54.809822100000005
H    -28.018251299999996  151.53883810000002  56.098609700000004
H    -31.629869999999997  150.91207630000002  56.0066314
H    -33.4013402  152.170283  57.14694420000001
H    -32.811883699999996  154.17721490000002  58.4753958
H    -30.465481499999996  154.8761829  58.679052500000004
H    -25.603799599999995  154.75572590000002  59.194505400000004
H    -25.162564599999996  154.2805001  57.545048900000005
H    -25.7069551  152.3076576  59.8198464
H    -24.087629699999997  152.8806319  59.3897672
H    -25.940220299999996  151.4545524  57.4263321
H    -24.775482899999997  150.60893240000001  58.42206
H    -22.9115324  151.8153327  57.410662300000006
H    -24.016007999999996  152.8399108  56.48592300000001
H    -24.881320999999996  150.8648315  55.27715800000001
H    -23.838324299999996  149.8175429  56.203514000000006
H    -22.806636299999997  150.34421260000002  54.00227520000001
H    -21.820410999999996  150.9903509  55.3168136
H    -22.860327799999997  152.067021  54.3777296
