35

H    27.455636999999996  -15.5077719  -15.513482699999999
H    27.355537299999998  -13.9193168  -16.3050447
H    29.031675699999997  -14.495795600000001  -13.810183199999999
H    28.628379799999998  -11.054067100000001  -13.198529099999998
H    30.335299999999997  -9.6892993  -13.749037699999999
H    30.8792688  -6.3695961  -16.026457999999998
H    26.1322865  -10.7241713  -16.0939975
H    25.982739  -11.9330707  -14.276112399999999
H    26.6908048  -12.1384086  -11.6066988
H    26.1883016  -14.2098834  -13.847050099999999
H    27.240820799999998  -14.9298752  -11.9709319
P    29.266  -15.911999999999999  -17.691
O    30.2779258  -15.2832838  -18.6376137
O    29.739098999999996  -17.2463813  -17.1172356
O    29.200456199999998  -14.8179867  -16.347158699999998
O    27.8390864  -15.9556121  -18.2373564
C    27.987571799999998  -14.5597146  -15.6722276
C    28.2866191  -13.8768374  -14.321847499999999
O    28.909378999999998  -12.5984771  -14.497883
C    28.108123  -11.5172434  -14.052721299999998
N    27.990340899999996  -10.4208481  -15.0448197
C    28.9011544  -9.4161705  -15.2413829
N    30.063174299999996  -9.1595253  -14.5687591
N    30.370993799999997  -7.240101500000001  -15.896791899999998
C    30.624873599999997  -7.9091697  -14.7204842
O    31.308146299999997  -7.4272061  -13.8394059
C    29.203269099999996  -7.3830481  -16.6505811
O    28.942124099999997  -6.5638183  -17.5138246
C    28.4265816  -8.5564402  -16.2355974
N    27.210838799999998  -9.0381668  -16.668704299999998
C    27.003725199999998  -10.1148899  -15.965324399999998
C    26.768548699999997  -12.1189303  -13.539020999999998
O    26.343509499999996  -11.5812429  -12.329893299999998
C    27.035789899999997  -13.6461471  -13.4478507
O    27.2730987  -13.9713771  -12.0997516
