33

C    33.728  18.04  3.967
C    34.195304400000005  18.5255442  5.3498831000000004
C    33.1341401  18.2527676  6.4278522
C    32.7963074  16.7638452  6.4920951
C    32.3453388  16.2462651  5.1146383
C    33.3762056  16.5548632  4.0281977
O    34.6971446  18.1454801  2.9656919
O    35.3979082  17.8932553  5.7085345
O    33.6376792  18.7043195  7.6623402
O    31.800055200000003  16.553628500000002  7.4662962
O    32.234005100000005  14.856367800000001  5.202033
O    32.9633033  16.136963  2.7542637
P    34.9610308  19.6374275  2.2376287
O    36.2518401  19.438003900000002  1.4745686999999998
O    35.0648008  20.6219351  3.3887542
O    33.7373483  19.8563054  1.3707661999999998
P    32.216478  15.833926  8.9534387
O    33.1943926  14.7468374  8.5745638
O    32.8584765  16.9849906  9.726161900000001
O    30.9254624  15.3812022  9.5904135
P    30.958367300000003  14.0495189  4.5067453
O    31.203322800000002  12.6351196  4.9629655
O    29.694206800000003  14.7128232  5.0107301
O    31.1745844  14.2408839  3.0016892
H    32.8374181  18.6230546  3.6730594
H    34.367161100000004  19.610071  5.2703539
H    32.2023359  18.7901701  6.1791084000000005
H    33.6863043  16.1795809  6.7781178
H    31.3623964  16.6792292  4.8575598
H    34.299881500000005  16.0108363  4.3045015
H    35.5562631  18.1415021  6.6403229
H    33.3196584  18.111674700000002  8.3922343
H    32.313358300000004  15.3745023  2.8449438000000002
