142

N    17.824  -6.373  13.285
C    18.6653002  -5.515666500000001  14.1492667
C    18.117329400000003  -4.0756506  14.103547299999999
O    17.5701501  -3.6749081000000006  13.0822413
C    20.1088884  -5.547740500000001  13.632993299999999
C    20.2750829  -5.187205900000001  12.161971999999999
C    21.7816944  -5.0166987  11.811964999999999
O    22.604142000000003  -5.052344800000001  12.7482093
O    22.0632502  -4.853793500000001  10.605340299999998
N    18.2394649  -3.3427899000000005  15.2187871
C    17.792618  -1.9579042000000006  15.2945446
C    18.7359788  -1.0640045000000002  14.4837664
O    19.943805  -1.1367442000000008  14.664315
C    17.8193409  -1.4639711000000002  16.7534173
C    17.2957282  -0.051975600000000455  16.8764511
C    15.966506500000001  0.23752769999999934  16.5789296
C    18.122531300000002  0.9873396999999993  17.2914131
C    15.4690235  1.5230439999999996  16.689418
C    17.638398300000002  2.2793395999999992  17.4090061
C    16.3086661  2.5510622999999994  17.1064758
O    15.8008143  3.8172368999999993  17.1950473
N    18.1573053  -0.2017764000000004  13.634589199999999
C    18.905393800000002  0.6089327999999994  12.700240699999998
C    18.595227100000002  2.1030332999999994  12.8490106
O    18.8890837  2.9150790999999994  11.984058699999999
C    18.6414164  0.1811688999999994  11.250996
C    19.0822443  -1.2380718000000002  10.8782561
C    18.7284319  -1.4865231000000003  9.4090575
C    20.5762022  -1.4222816000000007  11.134829499999999
N    17.9952234  2.470399799999999  13.9941991
C    17.8170054  3.8647353999999994  14.3003232
C    16.469170300000002  4.484577999999999  13.957429
O    16.285546  5.6844537  14.1294094
N    15.526885700000001  3.6877010999999995  13.4415002
C    14.219454200000001  4.2328778  13.120437599999999
C    13.3147663  4.248305599999999  14.3619126
O    12.810407900000001  3.2186325999999994  14.8039236
C    13.531117300000002  3.4462187999999996  12.0049908
C    12.2348063  4.1283033  11.5406379
C    12.516071600000002  5.427040699999999  10.7958501
C    11.435557800000002  3.1931998999999993  10.637324
N    13.111598200000001  5.447091599999999  14.8985265
C    12.2622192  5.6555737  16.0477889
C    11.0105882  6.391005399999999  15.5697066
O    10.886413100000002  6.7763827999999995  14.4160545
C    13.0250157  6.3827915  17.1560353
C    13.669261500000001  7.7335742  16.7517898
O    13.529152900000001  8.1217423  15.577005999999999
O    14.2919651  8.3252093  17.6556991
N    10.0457046  6.518623  16.4911177
C    8.738443800000002  7.065506399999999  16.192658599999998
C    8.4485208  8.247649899999999  17.1204985
O    8.322238700000002  8.0545645  18.334010199999998
C    7.622755800000001  6.015923899999999  16.386220599999998
C    6.258715800000001  6.6395836  16.083799499999998
C    7.873977900000001  4.8089799  15.4883898
N    8.312630100000002  9.4546344  16.573750099999998
C    7.944881900000001  10.5969295  17.4056377
C    6.484726100000001  10.5064184  17.860310899999998
O    5.5878259  10.1821121  17.0866187
C    8.1010892  11.833735999999998  16.5135604
C    8.6776491  11.3352618  15.196072899999999
C    8.538564700000002  9.8206746  15.1848979
N    6.270836700000001  10.8122167  19.1375654
C    4.950508300000001  10.8651848  19.7131604
C    4.779693900000002  12.180610599999998  20.537141
O    3.641175800000001  12.394303699999998  20.9907588
C    4.6706789  9.6375628  20.6017676
C    4.667206500000001  8.3547735  19.7754038
C    5.696965500000001  9.5253738  21.7290824
O    5.769042100000001  12.9281979  20.6785273
H    18.343939000000002  -7.2020679  12.9785255
H    17.575547800000002  -5.7971502  12.4613038
H    16.9542273  -6.657251600000001  13.7514675
H    18.6503131  -5.8883406  15.175368599999999
H    20.539896900000002  -6.5360678000000005  13.7998985
H    20.7261376  -4.8490993  14.202113299999999
H    19.803029000000002  -4.2319167  11.9255642
H    19.8939087  -5.942696000000001  11.475225
H    18.867877  -3.6492760000000004  15.9486031
H    16.782177700000002  -1.9134613000000007  14.8788863
H    18.850141  -1.5004537000000004  17.1074304
H    17.204754100000002  -2.1304299  17.3600283
H    15.297024400000002  -0.5504480000000003  16.2722472
H    19.1579688  0.7899363999999993  17.5240426
H    14.444859200000002  1.7611955999999993  16.4457493
H    18.2876063  3.0746000999999996  17.7465892
H    16.463875100000003  4.4192149999999994  17.5563629
H    17.1674592  -0.2898443000000004  13.450593699999999
H    19.9666801  0.4830466999999996  12.943171099999999
H    19.1597091  0.8988149999999995  10.611821899999999
H    17.5712426  0.2859359999999995  11.055644999999998
H    18.5318009  -1.9578588000000003  11.4951891
H    19.0452136  -2.483683900000001  9.1131047
H    19.2384355  -0.7653241000000008  8.775265399999999
H    17.6574904  -1.394445600000001  9.253652899999999
H    20.801392500000002  -1.4233140000000004  12.199762499999999
H    21.1465649  -0.6255592000000005  10.661497
H    20.9332765  -2.3699976000000005  10.730717899999998
H    17.8195276  1.7899565999999996  14.7203573
H    18.5538843  4.436555299999999  13.723530799999999
H    18.0036359  4.0473335  15.358803
H    15.647433300000001  2.6861970999999993  13.4286693
H    14.394167500000002  5.2702598  12.820788499999999
H    13.286209800000002  2.4573289999999997  12.398719
H    14.215952900000001  3.3420891999999993  11.162721399999999
H    11.634912400000001  4.3634279  12.428422099999999
H    11.588222600000002  5.8446739999999995  10.4135592
H    13.190468500000001  5.250653099999999  9.9609279
H    12.958811400000002  6.173531799999999  11.451672499999999
H    11.191493600000001  2.2724881999999997  11.1610593
H    12.011479200000002  2.9499882999999993  9.7478933
H    10.508766300000001  3.6708595999999996  10.3329803
H    13.5468883  6.295724999999999  14.5561124
H    11.9603923  4.6599544999999996  16.3998208
H    13.841993500000001  5.740754399999999  17.496011499999998
H    12.379899000000002  6.581952599999999  18.013793
H    10.202736000000002  6.2247067  17.4433178
H    8.769447200000002  7.368110999999999  15.1453271
H    7.643527800000001  5.7117948  17.4383302
H    5.4716387000000015  5.9158627  16.273398399999998
H    6.2084214000000015  6.946768799999999  15.041908399999999
H    6.075247800000001  7.5142082  16.7049008
H    8.837628300000002  4.355344799999999  15.707129799999999
H    7.874749900000001  5.115915899999999  14.445299799999999
H    7.094805400000001  4.067568  15.637660499999999
H    8.595984700000002  10.6108768  18.2855346
H    8.742631900000001  12.572655399999999  16.987221299999998
H    7.119157900000001  12.284633199999998  16.361634
H    9.7343509  11.5993198  15.1335179
H    8.168431000000002  11.779577799999998  14.344589
H    7.673089000000001  9.509389599999999  14.5906448
H    9.4382482  9.3357593  14.802593
H    6.990133300000001  11.2431695  19.7029766
H    4.221419600000001  10.891593  18.895298699999998
H    3.678732700000001  9.8084075  21.0347747
H    4.390172600000001  7.509083899999999  20.3985006
H    5.6604230000000015  8.1742539  19.3652036
H    3.967535100000001  8.433519  18.946862199999998
H    5.7706015000000015  10.4709849  22.2647471
H    6.674429700000001  9.276500299999999  21.3205053
H    5.4013825  8.7477621  22.4277273
