66

H    10.6168387  43.856268199999995  68.0705372
H    9.8955962  43.38822809999999  66.50930629999999
H    9.809421  46.24363149999999  67.537487
H    8.9179206  46.50956049999999  69.5039238
H    7.4865192  44.25643899999999  70.7088625
H    5.3392029  44.263781599999994  71.0708681
H    3.3716584000000003  45.7367077  70.018504
H    3.8397806  46.7444322  71.39480209999999
H    2.9721624  43.802864899999996  71.46571229999999
H    1.9790884000000002  45.172191399999996  71.9669064
H    4.5866248  44.3321949  73.3218792
H    2.9817666000000003  43.819460199999995  73.8359782
H    2.3593734  46.16164919999999  74.3009679
H    3.9483644  46.70842939999999  73.7781084
H    3.9771474  44.5945141  75.8851888
H    3.2737286  46.126977999999994  76.394529
H    5.6472564  46.0176143  76.9759088
H    5.3303539  47.336327399999995  75.8269562
H    7.9708203  44.63122009999999  65.71893419999999
H    9.2138163  45.756075599999996  65.15916179999999
H    6.7668812  46.50111079999999  66.83536409999999
H    7.3385947  48.8488632  66.16876189999999
H    8.844647  48.25488119999999  65.4495084
H    8.5782795  48.121778199999994  67.1874806
H    6.1671725  45.706151299999995  64.5715011
H    7.3243739  46.8275052  63.8503931
H    5.8975468  47.448852099999996  64.6902309
H    8.4212963  46.950700399999995  71.823606
H    9.3435351  45.4352051  71.9215351
H    6.530916  47.363334699999996  73.6971776
H    8.964034  42.9576412  72.8104068
H    6.1083791000000005  43.55157379999999  76.8645965
C    11.558  44.791  66.389
O    11.8552295  44.4145803  65.2315229
O    12.216581600000001  45.65062029999999  67.0061794
C    10.300336699999999  44.21782339999999  67.0886787
C    9.2622628  45.338857499999996  67.254013
C    8.3286691  44.918465499999996  68.3743913
O    7.5960229  43.93496259999999  68.28974529999999
N    8.3941808  45.64837369999999  69.4979736
C    7.5996416  45.345106799999996  70.6739568
C    6.2284262  46.017530799999996  70.593533
O    6.1316966  47.200264399999995  70.2793962
N    5.1921132  45.253124299999996  70.9400282
C    3.815051  45.71953439999999  71.019376
C    2.9998665000000004  44.79006  71.9293131
C    3.537199  44.632149999999996  73.3640263
C    3.4124662  45.88231939999999  74.247911
C    3.9526934000000002  45.6650163  75.67751679999999
C    5.3513311  46.252364299999996  75.9513652
N    6.3489596  45.7269144  75.0443997
C    8.4862118  45.566812399999996  65.953862
C    7.4498613  46.699518999999995  65.99931889999999
C    8.0945416  48.069230999999995  66.2159721
C    6.6551905  46.669407199999995  64.6929918
C    8.3393135  45.864956799999995  71.9186841
C    7.6345059  45.53086809999999  73.1917212
C    6.8112676  46.350255999999995  73.9190322
C    7.6876684  44.3018922  73.9091796
C    6.872212  44.4643131  75.0626251
C    8.343895100000001  43.09165289999999  73.6857452
C    6.7205515  43.4330417  75.98443759999999
C    8.18338  42.07840469999999  74.604749
C    7.3827625  42.248407699999994  75.7407675
H    8.6825139  41.1326201  74.4506571
H    7.2851672  41.429703599999996  76.4375158
