23

N    16.266  1.712  15.43
C    16.4254899  0.450485  14.865309
O    16.496405199999998  -0.5754973000000001  15.5239982
N    16.477969799999997  0.43823639999999997  13.488734299999999
C    16.4057325  1.5346853  12.6301661
O    16.468962899999998  1.3827104  11.4187443
C    16.250656  2.8002048999999998  13.309241499999999
C    16.184157799999998  2.8349026  14.653836199999999
C    16.158966399999997  1.8306608  16.8850198
C    14.831579399999999  1.3152385  17.421796999999998
N    13.715103199999998  2.2739849999999997  17.2647469
C    14.950714599999998  0.9450022  18.9701251
O    14.065834799999998  1.4442864  19.6826536
O    15.891116199999999  0.21028760000000002  19.2770483
H    16.600902599999998  -0.47394730000000007  13.061168299999999
H    16.1917311  3.6881283  12.706887199999999
H    16.083148299999998  3.7675785999999998  15.1863864
H    16.330841999999997  2.8668362  17.169873799999998
H    16.9337396  1.2034042999999999  17.339997099999998
H    14.604940399999998  0.3645661  16.933792099999998
H    13.340286599999999  2.2953589  18.2584876
H    12.984671799999997  1.964753  16.6214101
H    14.031480899999998  3.2169692999999997  17.0196005
