219

N    1.325  0.0  0.0
C    2.0750957999999997  0.02276890000000087  -1.2795199000000004
C    2.1382570999999997  -1.409522299999999  -1.8458389000000004
O    3.0653463999999992  -2.163349199999999  -1.5959033999999992
C    3.4720850999999993  0.6082584999999998  -1.0578459999999996
C    3.5314721999999996  2.139327400000001  -1.1770850999999993
C    4.8045428999999995  2.6701423999999996  -0.5159386000000001
C    3.4585082  2.574423600000001  -2.6410462999999993
H    1.2967813  0.9470340999999998  0.4013761999999996
H    1.7978014999999996  -0.6151684999999993  0.6762837000000008
H    0.3603608999999999  -0.3340979999999991  -0.1264188999999991
H    1.5280333  0.6503734000000012  -1.9874677999999992
H    4.1527574  0.17664839999999948  -1.793422399999999
H    3.8458704  0.2976144999999999  -0.08211469999999998
H    2.6799773999999994  2.5842422999999997  -0.6508152000000003
H    4.859256299999999  3.751769600000001  -0.6104185999999991
H    5.686920199999999  2.2461544  -0.9902783
H    4.830354499999999  2.4199006  0.5413776000000006
H    2.5542399  2.220250400000001  -3.127808999999999
N    1.0678634  -1.752128599999999  -2.5722375999999993
C    0.9527993999999997  -3.0824186000000005  -3.1391557
C    1.7912082  -3.1377053000000004  -4.428610299999999
O    1.5762448999999996  -2.3497336000000004  -5.3521605999999995
C    -0.5142393000000003  -3.4406102999999995  -3.3881324
C    -1.3289882000000002  -3.6698486999999993  -2.1030721000000003
C    -1.1158059000000002  -2.559289999999999  -1.0735379999999992
C    -2.8149851000000004  -3.8016337999999994  -2.4447074000000004
H    4.313175599999999  2.1899008999999996  -3.1937935
H    3.4747205999999995  3.6592193999999996  -2.7145574999999997
H    0.4639057  -1.048847199999999  -2.9728613999999993
H    1.3646074  -3.7688239999999995  -2.3999284999999997
H    -0.5437796000000001  -4.3447416  -3.9989247
H    -0.9699638000000002  -2.6434748  -3.9814697
H    -0.9983023000000002  -4.6153387  -1.6590097000000004
H    -1.8129641000000003  -2.7130209  -0.25094059999999985
H    -1.3296580000000002  -1.5929225000000002  -1.5191955999999998
H    -0.11064010000000013  -2.6054490999999995  -0.6738714999999988
H    -2.9709129  -4.5799256999999995  -3.1879664000000005
N    2.7684521999999996  -4.0515159  -4.44969
C    3.6510361  -4.1848116  -5.5972995999999995
C    2.9315507  -4.901103  -6.742172399999999
O    2.3453552  -5.964792399999999  -6.585664099999999
C    4.8560319  -4.9795161  -5.0875378
C    4.3785285  -5.690125999999999  -3.8187450999999992
C    3.0975325  -4.981387499999999  -3.377491599999999
H    -3.2011509  -2.8671544000000004  -2.8455274999999993
H    -3.3877106  -4.059258  -1.557695299999999
H    3.9258995  -3.1804582999999997  -5.935498599999999
H    5.669498399999999  -4.2916243  -4.860545499999999
H    5.202155299999999  -5.6823055  -5.8433805
H    4.1633394  -6.7340678  -4.0446422
H    5.1379879  -5.6590187  -3.0424018999999998
N    2.9824234999999994  -4.2541937  -7.910404499999999
C    2.3277783999999997  -4.780421199999999  -9.0829023
C    3.0127913  -6.075978699999999  -9.551162999999999
O    4.242435599999999  -6.1370901  -9.6302527
C    2.3155038  -3.7347943  -10.212323099999999
O    1.5786472999999999  -4.2846483  -11.283812099999999
C    3.7063055  -3.3591933999999988  -10.7037176
H    2.2852663  -5.6952207999999995  -3.2297302000000006
H    3.2814702999999996  -4.4166471  -2.4595670999999992
H    3.5568695999999997  -3.4334615999999993  -8.015930399999998
H    1.2921887999999997  -4.9901931  -8.8071266
H    1.7533139999999998  -2.855447  -9.8859452
H    2.1114686000000003  -4.9561288999999995  -11.7363573
H    3.6076644  -2.756985499999999  -11.604261399999999
N    2.2046690999999994  -7.0980457999999995  -9.8509377
C    2.7342345999999997  -8.3784429  -10.2910127
C    3.1992927999999994  -8.3083381  -11.7504159
O    2.9794991999999993  -7.3095935999999995  -12.436609
C    1.5919777  -9.3769344  -10.0823174
C    0.31536619999999993  -8.537182099999999  -10.0117661
C    0.7521365999999998  -7.0978302  -9.7423895
H    4.279401999999999  -4.254631099999999  -10.9362173
H    4.2547025  -2.7802913999999994  -9.9647976
H    3.6149356  -8.6027495  -9.6777457
H    1.7486382999999999  -9.921067299999999  -9.1523967
H    1.5271362999999998  -10.0832324  -10.9053819
H    -0.20995010000000014  -8.5869793  -10.9652055
H    -0.3527808000000001  -8.8966288  -9.2340555
N    3.8648922  -9.3838264  -12.1958561
C    4.3740811  -9.4425537  -13.5559894
C    3.2321355999999994  -9.7071352  -14.5429273
O    2.1490335  -10.147005  -14.180729099999999
C    5.4175308  -10.5642427  -13.5498789
C    5.095265599999999  -11.4214425  -12.3227424
C    4.1772712  -10.5824986  -11.4302937
H    0.31807359999999973  -6.3950382999999995  -10.4563254
H    0.4760751999999997  -6.8049781  -8.7251473
H    4.804368599999999  -8.466052099999999  -13.8048217
H    6.412952499999999  -10.1305569  -13.463187099999999
H    5.3712973999999996  -11.1445112  -14.4696126
H    4.577462199999999  -12.3277432  -12.632783
H    6.0017952999999995  -11.7105515  -11.797868999999999
N    3.5178379  -9.4013913  -15.8128789
C    2.5309584999999997  -9.5642219  -16.8682415
C    2.14048  -11.046270699999999  -16.9454597
O    2.9865848999999995  -11.932604399999999  -16.9948533
C    3.0723918999999995  -9.029516899999999  -18.2022544
C    2.2269758  -7.904625899999999  -18.819499
C    3.1062211999999993  -6.980836  -19.6646694
C    1.0813212999999997  -8.4799101  -19.6511157
H    3.2697543  -11.1333181  -11.1865767
H    4.674968499999999  -10.2976521  -10.5001582
H    4.4530452  -9.1237716  -16.0678951
H    1.6430375  -8.9970174  -16.5622755
H    3.1546193999999996  -9.8523458  -18.9156059
H    4.0822604  -8.6522469  -18.0351432
H    1.8033629  -7.3045943  -18.0059736
H    2.5004429999999997  -6.206260599999999  -20.1277296
H    3.6024588  -7.5433397  -20.4522173
H    3.8626671999999997  -6.5007556  -19.0494101
H    0.5139026  -9.2163608  -19.0877836
N    0.826157  -11.2861083  -16.9247803
C    0.29845129999999975  -12.6313892  -16.9790501
C    0.01437799999999978  -13.0279765  -18.4342865
O    -0.14366080000000014  -12.1702532  -19.3007694
C    -0.9676807000000002  -12.7463739  -16.1181113
O    -2.0650905  -12.121642099999999  -16.7535374
H    1.4734254999999996  -8.972052099999999  -20.5384861
H    0.4053870999999998  -7.6902425999999995  -19.9690787
H    0.15977419999999976  -10.5323428  -16.990687
H    1.0842619999999996  -13.2701934  -16.5645152
H    -0.7473433000000002  -12.2635695  -15.1569425
N    -0.02568550000000025  -14.3444568  -18.676631399999998
C    -0.2798180000000001  -14.8528412  -20.013865
C    -1.7611269000000003  -14.705088499999999  -20.362610699999998
O    -2.5940461  -14.3571473  -19.5384325
C    0.19132229999999972  -16.3105947  -19.9871684
C    0.2351416999999998  -16.706988199999998  -18.5089432
C    0.1822096999999998  -15.4069521  -17.703571
H    -1.1934426000000002  -13.8014616  -15.9368184
H    -2.789804  -12.0292978  -16.1205044
H    0.2797396999999999  -14.2382898  -20.728373599999998
H    1.1854843  -16.370086999999998  -20.4277481
H    -0.47435460000000007  -16.9486789  -20.5623
H    -0.6202877000000002  -17.3274458  -18.2664322
H    1.1434366  -17.2610883  -18.2877853
N    -2.0708522  -15.0168992  -21.6299392
C    -3.4331476  -14.9019341  -22.1206119
C    -4.2741065  -16.0527602  -21.5567773
O    -4.3491992  -17.142346099999997  -22.1250292
C    -3.4632407  -14.9432099  -23.6556359
O    -2.8696116000000003  -16.1043514  -24.1744612
H    -0.6375079000000001  -15.420601699999999  -16.9854599
H    1.1173182999999998  -15.231934299999999  -17.1672263
H    -1.3639204000000003  -15.2779662  -22.3025543
H    -3.8508335000000002  -13.9489606  -21.7747514
H    -2.9019653  -14.0975638  -24.059964899999997
N    -4.8959499  -15.786746099999998  -20.4140333
C    -5.735468  -16.764905499999998  -19.7435665
C    -7.1143181  -16.8131795  -20.4119674
O    -8.0711787  -16.193705  -19.9665584
C    -5.884893000000001  -16.4386167  -18.2589665
C    -4.8934581  -17.2265882  -17.4124769
C    -3.4481523000000003  -17.0072062  -17.8768325
N    -2.5665144  -18.0370406  -17.3497353
C    -2.4575306  -19.2694312  -17.8565342
N    -3.1541921000000004  -19.631389499999997  -18.9281912
N    -1.6233971000000003  -20.1379151  -17.2918438
H    -4.5072037  -14.8534794  -23.984899900000002
H    -3.3096121000000003  -16.8668157  -23.7492186
H    -4.7411991  -14.8956211  -19.9598112
H    -5.2904344000000005  -17.7542042  -19.8939801
H    -6.9031704000000005  -16.6673233  -17.9448228
H    -5.7426979000000005  -15.367341399999999  -18.1115922
H    -5.1400895  -18.2874794  -17.4777421
H    -4.9974988  -16.928645799999998  -16.3698998
H    -3.0869904000000004  -16.0354049  -17.540695499999998
H    -3.3684868000000003  -17.003033  -18.9622852
H    -2.1664659000000004  -17.8703245  -16.4390835
H    -2.9808206000000004  -20.5222195  -19.363508799999998
H    -3.7131166  -18.9648265  -19.4303439
N    -7.1770505  -17.6046407  -21.4846742
C    -8.4148858  -17.758177099999997  -22.2264418
C    -9.3192393  -18.76618  -21.5069683
O    -9.0907448  -19.9700452  -21.5206762
C    -8.1546033  -18.254731800000002  -23.6494678
C    -7.148246800000001  -19.409332  -23.6641878
C    -7.4117037  -20.3650691  -24.8340234
N    -6.1959095  -21.0677206  -25.2159826
C    -5.656123  -22.0851732  -24.5474316
N    -6.22351  -22.5402603  -23.4351658
N    -4.5213790000000005  -22.632306  -24.9816743
H    -1.1138114000000001  -19.904032  -16.4575599
H    -1.5361974000000003  -21.0748375  -17.6467191
H    -6.3232952000000004  -17.981438400000002  -21.879849
H    -8.9216482  -16.786237  -22.2442122
H    -7.7970641  -17.4282038  -24.263451699999997
H    -9.1091893  -18.5844082  -24.0643983
H    -7.223724000000001  -19.9534183  -22.725835099999998
H    -6.1378383  -19.0125666  -23.7674917
H    -7.735059000000001  -19.796197499999998  -25.705900800000002
H    -8.2082774  -21.0722444  -24.5947928
H    -5.6982821  -20.708622599999998  -26.0150444
H    -5.8756171  -23.3728831  -22.9910859
H    -7.1065071  -22.174901  -23.1231798
N    -10.3687576  -18.2329675  -20.8793978
C    -11.3077072  -19.0577641  -20.1387628
C    -12.1999252  -19.814721499999997  -21.128774
O    -13.282162399999999  -19.3639651  -21.5014612
C    -12.1707603  -18.187051099999998  -19.2178405
O    -11.402416299999999  -17.346595999999998  -18.3923994
H    -4.0938678  -22.3277604  -25.8386948
H    -4.1312313000000005  -23.4363344  -24.5210673
H    -10.537400199999999  -17.239539  -20.9252067
H    -10.727152199999999  -19.7730505  -19.5452758
H    -12.745508  -18.8305123  -18.5502256
N    -11.6982208  -20.9711198  -21.5635647
C    -12.4176826  -21.7842398  -22.5177777
C    -12.2497697  -21.3023692  -23.9574411
O    -12.245472699999999  -22.0706363  -24.8890174
H    -12.8773844  -17.611117  -19.829056299999998
H    -10.962646  -16.657802  -18.9086291
H    -10.7266262  -21.1873613  -21.3584827
O    -12.091242099999999  -19.9953847  -24.147826199999997
H    -13.488985699999999  -21.7257322  -22.290128199999998
H    -12.0976789  -22.8226749  -22.456658
H    -12.4617953  -19.470414599999998  -23.411224400000002
