27

N    15.435000000000002  16.853  20.409
C    16.5966226  17.0911887  19.738234799999997
C    16.773936900000002  17.0432321  18.241820999999998
C    15.726415800000002  17.790373600000002  17.3740404
C    16.3697322  18.362666  16.0953298
C    15.380896000000002  19.1013445  15.188378999999998
N    17.56766  17.3526069  20.581125
C    17.0447421  17.298659800000003  21.850631399999997
C    17.7127161  17.52729  23.145899
N    16.864809700000002  17.3959841  24.2226482
N    15.496995100000001  17.0776989  24.1320028
C    14.817244200000001  16.8547732  22.958917
O    13.613790400000001  16.5786616  22.942210699999997
C    15.6860417  16.983530700000003  21.765642
O    18.8986673  17.8082987  23.2880623
H    14.531662400000002  16.6329014  20.014948
H    16.807320700000002  15.993458700000001  17.942726
H    17.7625423  17.4656087  18.0610091
H    15.3050817  18.6194075  17.946688799999997
H    14.912935000000001  17.117731900000003  17.1034892
H    16.8242011  17.5445666  15.532926499999999
H    17.1664244  19.0502726  16.384960999999997
H    15.896876800000001  19.488970300000002  14.3149451
H    14.924719200000002  19.9337255  15.719284199999999
H    14.591369100000001  18.4314422  14.855879799999999
H    17.2309908  17.5349782  25.155907499999998
H    14.9911518  17.0153901  25.0066785
