32

N    23.493  4.323  11.348000000000003
C    24.3485598  3.2752895000000004  11.062022700000002
N    25.483236599999998  3.6256792000000004  10.3881212
C    25.8623375  4.8962288  9.977791800000002
C    24.9357547  5.9299755  10.359789400000002
C    23.8009383  5.608174  11.006926700000001
O    24.1198958  2.1207479000000005  11.376550900000002
O    26.887483699999997  5.045107600000001  9.333224500000002
P    18.791635  3.5269890000000004  15.262783600000002
O    18.983632999999998  2.2523196000000003  16.0485694
O    17.5400998  3.6192361  14.410258600000002
O    19.0602794  4.7931632  16.066748800000003
O    20.4060781  7.1941758  12.2121784
C    19.476562899999998  6.174171800000001  11.929465800000001
C    20.0791017  4.7959566  12.176905300000001
O    21.1867601  4.6216182  11.298106900000002
C    20.5901599  4.6067494  13.615208
O    20.0843797  3.4258084  14.159886300000002
C    22.117898099999998  4.418726500000001  13.469136700000002
O    22.6521158  3.4543721000000005  14.3224063
C    22.2356679  3.9966478000000003  11.986398400000002
H    26.1085456  2.8590099  10.153635900000001
H    25.1638876  6.9454273  10.090426700000002
H    23.044049899999997  6.332315900000001  11.271951300000001
H    20.4428332  7.3481215  13.164506900000001
H    19.2404444  6.268847000000001  10.868129800000002
H    18.5646816  6.260822600000001  12.528675000000002
H    19.325831  4.0173424  11.992252200000001
H    20.3117923  5.4277395  14.287905900000002
H    22.650268999999998  5.3608826  13.641962900000001
H    21.9087154  2.9198185000000008  14.654791600000001
H    22.1384775  2.8983867000000005  11.948680200000002
