25

C    28.741  42.988  18.605
N    30.1835867  42.9694515  18.975814
C    30.599836  44.0979999  19.8444124
C    30.5747477  45.4313279  19.1134399
C    29.1701139  45.8532102  18.6760545
C    28.7237102  45.1905069  17.4094095
C    28.5303867  45.9665313  16.2762615
C    28.1186033  45.3896932  15.098138
C    27.893971099999998  44.027207600000004  15.0570829
C    28.079835499999998  43.231051300000004  16.1794695
C    28.5047255  43.8139007  17.3696296
Cl    27.4069383  43.3863423  13.5698452
Cl    27.7698944  41.5645304  16.1167841
H    28.169829  43.3960485  19.439618199999998
H    28.4051509  41.9707724  18.412723
H    30.7438194  42.9760306  18.1150063
H    30.3794348  42.091898  19.4688687
H    31.6133368  43.9050351  20.1978989
H    29.9340586  44.1324838  20.707056
H    31.231095  45.4040668  18.2435315
H    30.9679176  46.184647500000004  19.7948628
H    29.1645391  46.9307491  18.5175126
H    28.4589721  45.6452325  19.4769053
H    28.7015294  47.0301557  16.3166363
H    27.9676821  45.979209600000004  14.2091491
