50

N    7.799  0.40500000000000025  16.65
C    6.6877722  0.9917432999999996  17.044319299999998
N    5.682532800000001  1.1294937999999997  16.2044154
C    6.5549302  1.4998300000000002  18.4348503
C    5.710405700000001  2.5835081  18.730809999999998
C    5.5747936000000005  3.0694485  20.032206799999997
C    6.2872974  2.4471551  21.0579371
C    7.128012200000001  1.3782421999999999  20.780475799999998
C    7.2683314  0.9049864999999997  19.4831482
C    4.6582013  4.2402454  20.348472299999997
N    5.2763913  5.2761096  21.1908015
C    4.9241745  5.4131906  22.4800728
O    4.1205424  4.6794514  23.0530223
C    5.6183823  6.5256216  23.2733188
N    6.0016914  7.6565425  22.4543213
C    6.8926563000000005  7.2197869  21.3859602
C    6.200092  6.1761113  20.494437299999998
S    6.514273  8.9852397  23.3171938
O    6.7541107  10.0352602  22.3607494
O    5.5466049  9.2585267  24.3530005
C    8.0274144  8.5492934  24.1035423
C    8.0867742  7.9581345  25.3260184
C    9.4315238  7.6867435  25.717519799999998
C    10.3558907  8.099916  24.731820499999998
S    9.5624684  8.8108977  23.3523115
C    11.7251671  7.9176707  24.9211356
C    12.1566154  7.3184521  26.0937925
Cl    13.8631882  7.0818122  26.3187429
C    11.2550384  6.9031814  27.084538199999997
C    9.900165900000001  7.088407999999999  26.8945262
H    8.5965198  0.3434786000000001  17.262998699999997
H    7.8889454  0.042196699999999865  15.7121271
H    4.8036205  1.5167801  16.5097082
H    5.7491778  0.7936262000000003  15.254681699999999
H    5.180091900000001  3.0905104999999997  17.9399867
H    6.174435300000001  2.8034030999999997  22.0707023
H    7.6713258  0.9053021000000001  21.5827418
H    7.9010898  0.050374899999999556  19.3084195
H    3.7974591  3.8701002  20.9133955
H    4.3095524  4.7128515  19.4286985
H    6.4907436  6.0748242  23.7732107
H    4.9274807  6.8767066  24.0406145
H    7.8063636  6.7909874  21.820463999999998
H    7.155979100000001  8.1013532  20.8033633
H    5.6222215  6.6951824  19.722883799999998
H    6.9671786  5.566398599999999  20.010086899999997
H    7.2144708  7.7540426  25.917211299999998
H    12.4290153  8.2324676  24.1695667
H    11.626892400000001  6.4424646  27.983820899999998
H    9.1961944  6.7751864  27.6476479
