50

N    7.318  33.26  77.86
C    7.126295999999999  32.8194204  76.4470315
C    5.616186599999999  32.975949799999995  75.87952449999999
O    5.399556799999999  32.50813599999999  74.7472358
O    4.8014684999999995  33.5942502  76.57915969999999
C    7.1917857  34.57840519999999  78.2211444
O    6.844126899999999  34.93929179999999  79.3486892
C    7.587311699999999  35.70045149999999  77.2617011
C    6.5934444999999995  36.452223599999996  76.6296909
C    6.90544  37.507908199999996  75.78297459999999
C    8.239560899999999  37.84046599999999  75.57435179999999
C    9.2533189  37.14835179999999  76.2258224
C    8.9212341  36.095464099999994  77.0752649
Cl    8.645846899999999  39.128859899999995  74.495729
Cl    10.2230891  35.27725709999999  77.8856065
C    7.640438499999999  31.403650499999994  76.1059382
C    9.1425258  31.175193599999997  76.04924079999999
C    9.654107199999999  29.881738099999996  75.87109269999999
C    11.0222269  29.652118799999997  75.78400599999999
C    11.914367799999999  30.714171699999994  75.8751101
C    11.4235247  32.000584499999995  76.04760859999999
C    10.054569899999999  32.224620099999996  76.1296283
C    7.5035970999999995  32.2494027  78.9510658
C    8.869127299999999  32.241434899999994  79.6852141
C    9.250114  33.338198999999996  80.4695026
C    10.455918299999999  33.3724047  81.16354799999999
C    11.330970599999999  32.296079899999995  81.1278849
C    10.9611936  31.173180299999995  80.38681969999999
C    9.7504244  31.148034899999995  79.67379469999999
C    11.8957135  29.981493399999994  80.33240119999999
F    12.896765299999998  30.145564999999994  79.43555099999999
F    11.2790544  28.835465199999994  79.98912859999999
F    12.5130719  29.725145099999995  81.5073384
H    7.66025  33.5467563  75.81848649999999
H    5.5661610999999995  36.154907099999996  76.7774065
H    6.119223  38.055817499999996  75.29097329999999
H    10.2873333  37.415971299999995  76.08628879999999
H    7.2412493  31.229004399999994  75.09745679999999
H    7.165852999999999  30.653939699999995  76.74063589999999
H    8.964250799999999  29.052741299999994  75.8008077
H    11.3855307  28.645274199999996  75.649834
H    12.977027799999998  30.539180499999993  75.81813199999999
H    12.100800199999998  32.837301999999994  76.12358069999999
H    9.700340599999999  33.233294099999995  76.2610948
H    7.310844899999999  31.266306199999995  78.54016349999999
H    6.743403799999999  32.473696999999994  79.7087354
H    8.5841899  34.18523379999999  80.53514059999999
H    10.7061798  34.2474667  81.7404495
H    12.2643881  32.3124883  81.6659732
H    9.504866199999999  30.271484899999997  79.092351
