32

N    14.972  48.621  -53.641
C    13.917973  47.6915665  -53.258359899999995
N    13.4604552  47.757760600000005  -51.9998484
C    13.918070499999999  48.6110187  -51.0856406
C    14.970144399999999  49.5179862  -51.4232545
C    15.442484499999999  49.4741394  -52.693188199999994
O    13.460157599999999  46.8695141  -54.0455125
N    13.369521599999999  48.6058892  -49.870580399999994
C    15.7643035  48.64878  -54.890305
C    15.239645099999999  47.9172564  -56.1148137
C    16.203838  48.4545061  -57.1774433
C    16.2265649  49.956627000000005  -56.852250999999995
O    16.0564098  49.9893848  -55.4110024
O    17.4527638  47.8271711  -56.9441789
C    15.0691622  50.756416800000004  -57.505716799999995
O    14.9718673  50.733808700000004  -58.9097888
P    15.771035399999999  51.931967900000004  -59.828216399999995
O    17.2427778  51.600498200000004  -59.7350354
O    15.2377512  51.737923800000004  -61.222368499999995
O    15.393916599999999  53.248311  -59.1852162
H    15.369342  50.2167772  -50.7110895
H    16.223741  50.1352142  -53.038887599999995
H    13.705094299999999  49.2335786  -49.161302
H    12.6330242  47.947133  -49.681554999999996
H    16.7435911  48.211875500000005  -54.6293868
H    14.2149735  48.2041368  -56.3377999
H    15.3073709  46.837863500000005  -56.0126346
H    15.8559687  48.2958268  -58.204207399999994
H    17.175630899999998  50.4359212  -57.1053256
H    18.090452499999998  48.1227899  -57.609768599999995
H    15.1699752  51.803932100000004  -57.183138799999995
H    14.1127945  50.364102100000004  -57.135082999999995
