69

S    29.630000000000003  -32.915  -2.018
O    28.7980698  -33.6062961  -2.9774706999999996
O    29.0075503  -32.6334654  -0.7402651999999996
O    34.9714229  -38.101267  -2.0615262
O    37.4153121  -36.1320913  -0.9931414999999997
O    38.9929114  -38.0480717  0.18580240000000048
N    34.1432319  -36.0436537  -2.4266237999999998
N    37.4219585  -37.2837099  -2.9758965999999996
N    30.7576065  -31.442739800000002  -3.9723656
C    35.0527866  -37.0111799  -2.6197234
C    36.2278882  -36.7008139  -3.5880982999999995
C    35.911318  -37.363708200000005  -4.9502912
C    36.597307  -36.8803152  -6.263897499999999
C    37.2902105  -38.0417092  -6.971325499999999
C    37.634698900000004  -35.7894014  -6.0538009
C    37.8111598  -37.062550200000004  -1.6916471999999998
C    38.7843769  -38.0479349  -1.1663076999999995
C    39.4936117  -39.0408746  -1.7747034999999998
C    40.9319121  -40.9302439  -0.6642361999999997
C    41.4079235  -41.3340197  0.5699666000000003
C    41.100114  -40.6237678  1.7422564000000005
C    40.2624372  -39.5202642  1.7167757000000003
C    39.7971251  -39.1040879  0.4642675000000005
C    40.1367673  -39.7769697  -0.7312665999999997
C    30.24372  -31.3297455  -2.7571061999999995
C    30.262245200000002  -30.1421227  -2.0300735999999997
C    31.0054696  -29.075952100000002  -2.5446311999999995
C    31.5706868  -29.1900511  -3.8119413999999994
C    31.387475600000002  -30.3868203  -4.500534
C    32.9940775  -36.2469978  -1.5262555999999998
C    33.0570897  -35.3912598  -0.2406383999999997
C    33.2118306  -33.882553200000004  -0.4367496999999996
C    32.0020133  -33.110250300000004  -1.0158921999999997
N    30.9588707  -33.8626641  -1.7119228999999996
C    31.3519054  -34.7052867  -2.8230011999999998
O    30.5713276  -36.5971223  -1.5868507999999997
C    31.6720152  -36.1289348  -2.3353128999999995
H    34.2645456  -35.1355413  -2.8445210999999997
H    37.7068289  -38.1645581  -3.3777975999999996
H    36.3620518  -35.6203625  -3.6650440999999994
H    34.8319433  -37.2636737  -5.084688999999999
H    36.0999036  -38.4314561  -4.8224035999999995
H    35.8179936  -36.4904379  -6.92366
H    37.6821391  -37.7159001  -7.9311316000000005
H    36.5975449  -38.8616097  -7.1503473
H    38.118294  -38.411917  -6.371793499999999
H    37.1853154  -34.8772469  -5.6675313
H    38.1105179  -35.5474891  -7.000598699999999
H    38.4028996  -36.1156166  -5.3571072
H    39.5442106  -39.264637300000004  -2.8202377
H    41.1777025  -41.4749427  -1.5614695999999997
H    42.0333657  -42.2095119  0.6386226000000002
H    41.495097200000004  -40.9648798  2.6852709000000003
H    39.992446900000004  -38.9806345  2.6088057
H    29.7863122  -30.108764400000002  -1.0644296999999996
H    31.1002642  -28.166099600000003  -1.9741455999999997
H    32.1437105  -28.388337900000003  -4.244951499999999
H    31.7669114  -30.540677900000002  -5.498837699999999
H    33.0827886  -37.2936099  -1.2110388999999997
H    33.910242600000004  -35.742492  0.34073240000000027
H    32.140382  -35.5938511  0.31387620000000016
H    34.080565  -33.7114232  -1.0739011999999997
H    33.4368504  -33.4452985  0.5340609000000005
H    32.3893908  -32.3263496  -1.6813285999999996
H    31.4571631  -32.6240325  -0.20327389999999967
H    32.2036145  -34.2843205  -3.3643368999999996
H    30.4893113  -34.7627885  -3.4845865999999996
H    30.693979900000002  -37.536998000000004  -1.3902032999999996
H    31.7992763  -36.7475388  -3.2393338999999997
