32

C    46.708  12.603  23.067
C    46.9466391  13.885073199999999  22.259856
C    48.3065876  14.5139184  22.493640799999998
C    48.9702846  14.9518478  23.5945441
C    50.205441099999994  15.581064  23.131685299999997
O    51.0807788  16.1252642  23.804015999999997
N    50.2061548  15.4335613  21.780505899999998
O    49.0370542  14.7946536  21.372783499999997
C    48.733473499999995  14.9029603  25.065931499999998
C    49.614399199999994  13.8285898  25.7076398
C    49.711000899999995  14.1128368  27.256591099999998
O    50.171429499999995  15.2135534  27.5746835
O    49.3189001  13.183599  27.9913115
N    49.085242699999995  12.4580629  25.521361499999998
C    46.7627185  13.5610088  20.7746188
C    45.895823799999995  14.9294818  22.655640599999998
H    45.788236899999994  12.1416656  22.7202131
H    46.5759331  12.834474799999999  24.120655799999998
H    47.5169778  11.8952254  22.9130605
H    50.7848562  15.809388499999999  21.046470499999998
H    47.687432699999995  14.7372152  25.320075099999997
H    49.052164899999994  15.8568262  25.4935473
H    50.6282936  13.931599499999999  25.3179797
H    49.768931499999994  11.814692099999998  25.1197867
H    48.215926599999996  12.4427386  24.9765509
H    48.898776999999995  12.1817029  26.5273994
H    46.915871499999994  14.445554099999999  20.1623308
H    45.7554143  13.1937705  20.603709
H    47.471191899999994  12.8012909  20.454135299999997
H    45.996032199999995  15.216871099999999  23.6989393
H    44.900144399999995  14.5235016  22.501245599999997
H    45.9986663  15.825776999999999  22.0489134
