35

C    32.77  6.1979999999999995  22.248
C    31.389723100000005  6.454164799999999  22.0656435
C    31.013249100000007  7.658225799999999  22.565561900000002
S    32.3359504  8.501019  23.279960300000003
C    33.42420680000001  7.206519999999999  22.885010800000003
C    34.878792700000005  7.267638  23.2160663
C    35.56902780000001  8.558732899999999  22.7607286
O    36.63443720000001  8.9248701  23.250704600000002
N    34.9186849  9.2576544  21.824406900000003
C    35.3863459  10.5421078  21.298620500000002
B    34.46817480000001  11.719818199999999  21.9671185
O    35.0734362  12.7875143  22.540922600000002
O    33.10339760000001  11.6066427  21.9705465
C    35.338846700000005  10.525587999999999  19.7784295
C    35.785766200000005  9.4190496  19.051732700000002
C    34.826401600000004  11.621122399999999  19.0805168
C    34.7580705  11.6055435  17.692091
C    35.20220450000001  10.4960102  16.982105800000003
C    35.72471650000001  9.389827  17.6568755
C    36.22033700000001  8.1573802  16.884070800000003
O    36.5424957  7.1430608  17.5471125
O    36.27149120000001  8.225816  15.633784000000002
H    33.25909910000001  5.3029399  21.9074916
H    30.719467900000005  5.7704485  21.578272100000003
H    30.041489600000006  8.1070963  22.570907100000003
H    35.39635990000001  6.4303554  22.742334000000003
H    35.0455941  7.1934056  24.294417100000004
H    34.1412266  8.8314062  21.343007000000004
H    36.4280029  10.6436223  21.6226367
H    34.48910300000001  13.4365189  22.947124600000002
H    32.713367700000006  10.8673437  21.5054528
H    36.19668370000001  8.5521663  19.5536357
H    34.4886539  12.4873327  19.6274717
H    34.35937920000001  12.4552106  17.160291400000002
H    35.160928000000006  10.4567891  15.902852900000003
