34

C    18.255  26.221  20.886
C    18.3230677  24.8912713  20.490572599999997
C    17.4674268  24.4263178  19.498358699999997
C    16.560153999999997  25.265730599999998  18.843705899999996
C    16.4951397  26.6063306  19.2570451
C    17.3198516  27.063747499999998  20.295429
C    15.601870799999999  24.6996546  17.805256399999998
O    15.549469199999999  27.4526938  18.6686518
P    15.802446  28.2989309  17.283429199999997
O    16.6331462  29.6250922  17.677521
O    14.4782461  28.8064168  16.842709499999998
C    17.6523643  29.8649326  18.649150499999998
C    18.992916899999997  29.1438066  18.478282899999996
C    20.046689999999998  29.464722  19.351693499999996
C    21.3083562  28.9182453  19.146910799999997
C    21.533478  28.0353466  18.088993999999996
C    20.478238599999997  27.647295  17.272940999999996
C    19.2193848  28.2120983  17.462179099999997
O    16.5508979  27.482817  16.2655845
O    15.858865899999998  24.8673172  16.430367099999998
H    18.8937685  26.6038188  21.663950399999997
H    19.0286384  24.219067199999998  20.949268899999996
H    17.508347099999998  23.3912622  19.195957699999997
H    17.2036943  28.0738468  20.6483845
H    14.607593799999998  25.1307713  18.029911699999996
H    15.5438327  23.6152454  17.942758899999998
H    17.2405927  29.6878959  19.6467361
H    17.8334375  30.9431811  18.548330699999998
H    19.873542299999997  30.1610184  20.157042399999998
H    22.119824899999998  29.190777699999998  19.8023468
H    22.5190272  27.627301199999998  17.9296543
H    20.624489099999998  26.9406678  16.471850899999996
H    18.4206133  27.9513613  16.792873399999998
H    16.065449599999997  25.8097738  16.255202399999998
