59

C    63.440999999999995  69.18  58.47699999999999
C    62.389877299999995  69.9439284  58.72260819999999
C    61.786058  70.10987130000001  60.089334699999995
N    62.368550799999994  71.27822900000001  60.80913859999999
C    63.5160013  70.8755786  61.65086949999999
C    63.138229599999995  69.9314087  62.78969519999999
C    64.1513186  70.0991777  63.92543489999999
C    63.4496914  70.4548132  65.23986719999999
C    63.675168899999996  69.37853870000001  66.30070679999999
C    64.94027299999999  69.6599124  67.1041837
O    64.725403  70.79521270000001  67.95737559999999
C    68.8326762  69.68257320000001  72.32550549999999
C    65.6915315  71.0446988  68.90479169999999
C    67.8596771  69.33614610000001  71.42166579999999
C    66.1105937  72.3884039  69.0931567
C    67.08306739999999  72.70769030000001  70.010628
N    69.24559099999999  70.955123  72.49325859999999
C    68.7141584  71.94347690000001  71.78848389999999
C    67.6938809  71.709457  70.81187879999999
C    67.26627739999999  70.3554687  70.63312579999999
C    66.2691289  70.05674350000001  69.67924029999999
C    69.2740914  73.3003922  72.08845589999999
C    70.6143999  73.5587567  71.78983509999999
C    71.1922378  74.7812569  72.0988565
C    70.428816  75.7577935  72.72312349999999
C    69.093603  75.53218700000001  73.03129549999998
C    68.5218125  74.3044785  72.7097204
Br    71.2501147  77.4233652  73.17168699999999
C    61.3474545  71.9887951  61.59866039999999
H    63.8678964  69.1018738  57.492629699999995
H    63.8938528  68.5633662  59.23570649999999
H    61.9559965  70.5420746  57.934771999999995
H    61.94246699999999  69.2154594  60.687593199999995
H    60.7130193  70.27000290000001  59.97863209999999
H    62.723677099999996  71.9312639  60.102171799999994
H    63.9375328  71.7900362  62.07139399999999
H    64.2706419  70.41644120000001  61.010820499999994
H    63.1430364  68.8961065  62.45273259999999
H    62.145606599999994  70.1532827  63.163232699999995
H    64.87739239999999  70.8719025  63.67756389999999
H    64.7203172  69.17975270000001  64.05788019999999
H    62.3773376  70.5640893  65.0867438
H    63.8100707  71.4013822  65.64173589999999
H    63.7544468  68.3908667  65.85050939999999
H    62.841994099999994  69.36206750000001  67.00657139999998
H    65.7868294  69.8810933  66.44259
H    65.1915667  68.7795012  67.70298999999999
H    69.3278954  68.9602119  72.95636689999999
H    67.544445  68.31225280000001  71.304616
H    65.6491881  73.15495870000001  68.49170399999998
H    67.4005446  73.7323902  70.12996059999999
H    65.9732021  69.0238123  69.58183009999999
H    71.2098377  72.7930461  71.31906579999999
H    72.2283395  74.96800160000001  71.8647111
H    68.5080625  76.29435360000001  73.5198432
H    67.487211  74.1231597  72.95665989999999
H    60.648997599999994  72.4880205  60.92991779999999
H    61.8175623  72.7354967  62.23378929999999
H    60.787380799999994  71.295404  62.21720719999999
