17

N    17.479  44.825  102.063
C    18.3692379  44.6878242  103.2525177
C    19.0915339  46.0311752  103.36961190000001
C    18.1769082  47.054959600000004  102.6850378
C    17.161423300000003  46.265012500000005  101.8470321
C    19.35491  43.5442859  103.07344280000001
O    20.4498888  43.5461559  103.56910210000001
H    16.623332700000002  44.268318300000004  102.1596518
H    17.9753124  44.4687466  101.2375437
H    17.7702323  44.488615100000004  104.1460284
H    20.056888700000002  45.9712322  102.8663367
H    19.2862248  46.2879948  104.4062799
H    18.759510900000002  47.7346877  102.06917920000001
H    17.660605800000003  47.6559199  103.4305513
H    16.1483294  46.4705588  102.1867467
H    17.230925600000003  46.5088488  100.7902914
H    19.0060159  42.7014963  102.4557992
