49

C    63.134  67.695  58.805
C    63.1285771  68.9479657  58.3865864
C    63.7375174  70.08904559999999  59.1525916
N    62.9169463  71.32381869999999  59.0770308
C    61.685767999999996  71.22817079999999  59.925821400000004
C    61.9250098  71.49618949999999  61.389851
C    62.1561956  70.5594855  62.299827
C    62.3607711  70.86677309999999  63.757783700000005
O    63.7358653  71.23237499999999  64.01399740000001
C    64.2358608  71.0381221  65.2865813
C    63.744836  70.06219349999999  66.1539401
C    64.3263468  69.94412589999999  67.4111171
O    63.9778613  69.05890679999999  68.376497
C    64.8080165  69.27951379999999  69.4283272
C    65.6925635  70.2897936  69.2015687
C    65.3878732  70.75339879999999  67.8609043
C    65.8803564  71.7197164  66.9785121
C    65.3092688  71.85268179999998  65.7211598
C    66.7251023  70.7388221  70.1513472
C    67.4494961  69.78664069999999  70.8808286
C    68.43134189999999  70.16899469999998  71.77978350000001
C    68.6904957  71.51949249999998  71.9581369
C    67.98634009999999  72.4888422  71.2557308
C    67.0068863  72.09419499999998  70.3542063
Br    70.0413797  72.0355896  73.2039209
C    63.7249264  72.5182038  59.3969771
H    62.7310181  66.89555419999999  58.2087772
H    63.551126  67.41096139999999  59.756720800000004
H    62.7179121  69.19392269999999  57.4166881
H    64.7146335  70.30694929999999  58.7121492
H    63.8858078  69.82739559999999  60.2004505
H    62.5961099  71.4112718  58.1055806
H    61.277498699999995  70.2245284  59.7938958
H    60.9650278  71.95948239999998  59.5590688
H    61.8756602  72.52969259999999  61.7002463
H    62.2217769  69.51504899999999  62.0301345
H    62.0685158  69.99663899999999  64.34242280000001
H    61.7384227  71.71980529999999  64.0569083
H    62.9465886  69.3825574  65.9112737
H    64.6541252  68.6626096  70.2914633
H    66.7011018  72.35748579999999  67.2650853
H    65.6859077  72.59648329999999  65.0381018
H    67.249094  68.7377849  70.7293665
H    68.9881949  69.4300392  72.3334339
H    68.1984419  73.5343564  71.4125542
H    66.4515493  72.84327409999999  69.8125306
H    64.5414555  72.61829619999999  58.6870622
H    64.13305509999999  72.42226369999999  60.400590300000005
H    63.1028332  73.40848139999999  59.3476302
