20

C    14.814  1.269  18.55
C    14.6659406  1.6044728  17.0035399
C    16.0318334  2.1152365  16.547576
C    16.5930626  0.4291636  14.789389000000002
C    15.8770831  1.6774901  13.035491200000001
N    13.5391934  2.5566413  16.8607894
N    16.3710276  1.7054505  15.209131500000002
N    16.3020924  0.4406139  13.431220900000001
O    13.961369300000001  1.7839471  19.2834568
O    15.764440200000001  0.542122  18.8458227
O    16.9775666  -0.49578520000000004  15.459514200000001
O    15.5301322  2.0482571  11.949268800000002
O    15.889065100000002  2.4760196  14.135102100000001
H    14.439421000000001  0.6622996999999999  16.5022007
H    16.7804425  1.6505258999999999  17.1994027
H    16.1142796  3.1999218000000003  16.601331700000003
H    12.686898000000001  2.0997632  17.209942700000003
H    13.4087379  2.8909726  15.898806400000002
H    13.7037519  3.34857  17.4991875
H    16.4109024  -0.3527834000000001  12.8144798
