11

P    31.884  69.406  13.709
O    31.1470428  70.28001790000002  12.4768443
O    31.163496  69.88994320000002  14.9574748
O    31.6391369  67.9465686  13.353451399999999
O    33.334020100000004  69.82531880000002  13.633561199999999
C    29.7559985  70.18871160000002  12.5135308
C    29.1906206  70.45368890000002  11.1018935
O    29.8746847  70.08017660000002  10.1343988
O    28.0761364  71.00969070000001  11.0329452
H    29.3432728  70.89967070000002  13.2460583
H    29.4627736  69.17456280000002  12.8354608
