82

O    32.968  9.661  -1.9130000000000003
C    31.884619600000004  9.9845845  -1.4451882000000014
C    30.592342700000003  9.7583845  -2.225925300000002
C    30.552356500000002  10.639646299999999  -3.4820676000000006
C    29.8835292  11.9915098  -3.2223094000000003
C    28.365182600000004  11.851349899999999  -3.1177894000000013
C    30.241242600000003  12.9644973  -4.341991600000002
N    30.507308800000004  8.3630766  -2.6243664000000013
C    29.368378800000002  7.662602099999999  -2.5189511000000007
N    28.639179900000002  7.7371371  -1.4146102000000012
N    28.981320300000004  6.892054699999999  -3.5260284000000013
N    31.717234000000005  10.499973599999999  -0.21996390000000154
C    32.770661700000005  10.498682299999999  0.769088899999999
C    32.6931263  11.740027099999999  1.6528608999999985
O    31.637543000000004  12.3698745  1.721551299999999
N    33.8031063  12.0991675  2.301839499999999
C    33.84076760000001  13.327747899999999  3.0838100999999987
C    34.1734967  13.008205199999999  4.538775999999999
C    35.5088973  12.262851399999999  4.598687799999999
C    35.3814556  10.9782017  3.771218699999999
C    35.0376416  11.336260699999999  2.3280116999999985
C    35.914450200000005  11.94092  5.991762099999999
C    35.156516200000006  11.826635699999999  7.124771499999999
C    36.0385955  11.4603021  8.136110799999999
N    37.261175400000006  11.302939  7.634663299999999
N    37.1794086  11.6459131  6.357942599999999
C    38.3837096  11.810479599999999  5.594194399999999
C    35.784504600000005  11.3613141  9.5661002
C    36.7400024  11.874463299999999  10.442887399999998
C    34.6275624  10.7866986  10.096003199999998
Cl    33.396404600000004  10.1290321  9.0643994
C    34.456809400000004  10.7020065  11.4717436
Cl    33.0226538  9.9588057  12.139180099999999
C    35.433271000000005  11.205937299999999  12.3422606
C    36.5709978  11.8055097  11.8088181
O    35.200795400000004  11.079761999999999  13.6783668
C    36.293601200000005  10.8728018  14.5575017
C    36.3621247  11.9436749  15.607867699999998
C    36.761203800000004  11.7085894  16.8804734
O    35.901630000000004  13.228801599999999  15.4918026
C    35.8960273  13.7514301  16.7641883
C    36.4212615  12.834586999999999  17.624309599999997
C    35.3201459  15.073592399999999  17.207717
O    34.5993876  15.7051856  16.410047
O    35.591850300000004  15.4308558  18.3763625
H    29.737543300000002  9.9937677  -1.590685500000001
H    29.995584000000004  10.130467099999999  -4.270458900000001
H    31.574714500000002  10.7915149  -3.8348768000000018
H    30.269673500000003  12.4038709  -2.282372500000001
H    27.914966700000004  12.8243075  -2.9371502000000014
H    28.072829500000005  11.195826  -2.303122300000002
H    27.958683400000005  11.4592175  -4.0469074
H    31.318092700000005  13.1069193  -4.401463800000002
H    29.782481800000003  13.9349141  -4.167107800000002
H    29.890049900000005  12.590643799999999  -5.301318800000001
H    31.125160200000003  8.1363515  -3.393378000000002
H    27.762721400000004  7.247575599999999  -1.3421824000000013
H    28.964165700000002  8.25132  -0.6145643000000014
H    29.5411889  6.819343399999999  -4.3593492000000005
H    28.230800700000003  6.229432899999999  -3.4120154000000014
H    30.839727900000003  10.8960455  0.09075679999999853
H    33.7101004  10.4568476  0.21378509999999906
H    32.6829557  9.6087741  1.4041660999999985
H    32.863760400000004  13.804879699999999  3.0002167999999987
H    34.602788800000006  13.9870849  2.657759999999999
H    33.384159800000006  12.3874964  4.963600299999999
H    34.226075800000004  13.9324903  5.113964199999999
H    36.2817391  12.8948363  4.145026099999999
H    34.595451800000006  10.3555254  4.200883399999999
H    36.3115431  10.411679999999999  3.790536099999999
H    35.834928100000006  11.958322899999999  1.907313499999999
H    34.953420300000005  10.4279034  1.7426663999999992
H    34.1099802  12.0192993  7.234661799999999
H    39.213345200000006  11.5094885  6.227726899999999
H    38.505374700000004  12.8567293  5.312745299999999
H    38.3705475  11.1930076  4.696567399999999
H    37.624953600000005  12.3234333  10.0249771
H    37.302225500000006  12.2435031  12.468655599999998
H    37.2321576  10.790313999999999  13.9981146
H    36.108602100000006  9.9289119  15.079132099999999
H    37.1757228  10.7955937  17.2564548
H    36.5498253  13.0042707  18.6749801
