33

C    4.609  8.328  5.571
C    5.355851299999999  9.5025546  6.0065116
N    5.4348681999999995  9.5125221  7.3392117
N    4.8086929  8.4189633  7.774936499999999
C    4.3046847999999995  7.6801645  6.7633922
C    4.2649759  7.8417424  4.188794
C    6.0108539  10.5916565  5.2194310999999995
N    7.205050099999999  11.0056628  5.6815792
C    7.8966690999999996  11.9467829  5.056610999999999
C    7.4347278999999995  12.5576195  3.8972249999999997
C    6.1930521999999995  12.1523311  3.4029316999999994
C    5.4609611  11.1631788  4.056879599999999
C    2.9289754999999995  7.4524528  3.7343475999999995
C    2.7982233999999995  7.0334451  2.3581955999999993
N    3.8679211999999996  6.9897797  1.5100200999999993
C    5.059989399999999  7.3267258  1.9437818999999994
C    5.3044519999999995  7.7590276  3.2618342999999994
C    1.7253779999999996  7.4491657  4.5068727
C    0.5017266999999994  7.0699948  3.9843445999999996
C    0.3912331999999994  6.667070600000001  2.6402063999999994
C    1.5175521999999995  6.6556876  1.8493549999999996
H    4.7666131  8.2324898  8.765358299999999
H    3.7840030999999996  6.7597045  6.929386899999999
H    8.8439479  12.2018775  5.508087499999999
H    8.0102917  13.3172155  3.3947035999999997
H    5.7934565  12.6042608  2.5072333999999996
H    4.502325399999999  10.8380693  3.6838304999999996
H    5.863378399999999  7.2611548  1.2243936999999994
H    6.303968299999999  8.0386954  3.5587050999999996
H    1.7885579999999996  7.7691633  5.5372808
H    -0.37184420000000085  7.0885714  4.615899499999999
H    -0.5645984000000004  6.375627  2.2368660999999994
H    1.4768088999999995  6.3559017  0.8145601999999994
