52

S    36.163  42.445  -6.113
C    36.850321199999996  42.5138098  -4.3991835
C    35.7588431  42.530818499999995  -3.3217698000000007
C    36.3558522  42.6078139  -1.9364717000000007
C    37.0806391  43.728274  -1.5415453000000006
C    36.1964275  41.565177399999996  -1.0313227000000005
C    37.640256199999996  43.7992121  -0.27755860000000077
C    36.7512579  41.6346035  0.23641869999999932
C    37.4775158  42.7507336  0.6152165999999997
C    37.860833199999995  41.4316202  -4.057645700000001
O    39.041629099999994  41.704259799999996  -3.8820064000000007
N    37.3451062  40.220768099999994  -3.8084651000000007
C    38.198446499999996  39.087557499999996  -3.5426640000000007
C    38.216397  38.2637237  -4.825400500000001
O    37.290429499999995  38.418147999999995  -5.634640200000001
N    39.238770599999995  37.453480199999994  -5.0675609
C    40.3547465  37.084826699999994  -4.1914654
C    39.2604486  36.743149599999995  -6.3399052000000005
C    40.6941073  36.233752499999994  -6.435738400000001
C    41.0492789  35.9640807  -4.983889500000001
C    39.9763314  36.571854099999996  -2.8171198000000004
C    38.7472928  35.9611442  -2.5966363000000006
C    40.8919055  36.628127799999994  -1.7706023000000006
C    38.431124  35.430312099999995  -1.3571712000000007
C    40.5792906  36.0907079  -0.5317871000000007
C    39.3471027  35.4932835  -0.32025730000000063
C    38.194900999999994  35.591252  -6.438349500000001
O    37.867404099999995  35.001790299999996  -5.394521800000001
O    37.754192599999996  35.353722299999994  -7.579096300000001
H    36.01583  41.1277048  -6.212983300000001
H    37.3941515  43.462445599999995  -4.397972300000001
H    35.136440699999994  41.639925999999996  -3.409217000000001
H    35.1237984  43.402504199999996  -3.499869500000001
H    37.2054653  44.5511552  -2.2299386000000005
H    35.637130899999995  40.687802999999995  -1.3224339000000005
H    38.2034157  44.6736891  0.01057049999999915
H    36.6187718  40.813097899999995  0.923807099999999
H    37.9151926  42.804772199999995  1.600074699999999
H    36.443737  39.970934299999996  -4.194696400000001
H    37.7990323  38.4983362  -2.7142520000000006
H    39.1943014  39.455481999999996  -3.2924576000000005
H    41.013807799999995  37.95806949999999  -4.0945283
H    38.9996933  37.4407869  -7.144835200000001
H    40.755656599999995  35.3439426  -7.0600027
H    41.3327295  37.0120806  -6.857267700000001
H    40.612577099999996  35.0093865  -4.6829146
H    42.1211868  35.9413844  -4.8037223000000004
H    38.047805499999996  35.866956599999995  -3.4148893000000005
H    41.852683799999994  37.0943201  -1.9302510000000006
H    37.4706828  34.958765199999995  -1.2135094000000008
H    41.3020248  36.1394363  0.26765869999999925
H    39.103920099999996  35.075556799999994  0.644331999999999
