20

N    16.161  15.756  51.903
C    15.098767400000002  16.7331152  51.585730399999996
C    13.796499800000003  15.8965805  51.342735499999996
O    12.736745400000002  16.5205727  51.38021809999999
C    15.384504400000003  17.5256402  50.3085623
C    16.149161000000003  18.833214  50.50373449999999
S    17.853406800000002  18.6268755  51.0862565
C    18.614095700000004  17.8485627  49.608093999999994
O    13.937782200000003  14.679884300000001  51.130458299999994
H    17.0636942  16.0107709  51.488353499999995
H    15.767391800000002  14.8620304  51.51442049999999
H    16.2824658  15.6396964  52.912669599999994
H    14.911477200000002  17.4159198  52.414210499999996
H    14.415177200000002  17.790421000000002  49.87457859999999
H    15.887752400000002  16.8817976  49.586411
H    15.662719100000002  19.4504589  51.2578195
H    16.186524400000003  19.3883572  49.566227299999994
H    19.637308800000003  17.619282300000002  49.881631199999994
H    18.597399300000003  18.5618467  48.789932099999994
H    18.0817903  16.9450943  49.33655159999999
