35

H    24.825754700000005  12.570317800000002  -1.2020703
H    25.220702300000003  14.027601  -2.9988803
H    24.565176300000005  15.2781321  -1.8997725
H    22.940347700000004  14.009318100000002  -3.6177069
H    22.327202500000002  15.3699063  -1.2123800999999998
H    20.128232600000004  14.7646019  -2.0992203
H    22.207217000000004  13.346081000000002  0.12720659999999995
H    20.919205800000004  12.100348700000001  -2.3855031
H    23.069640500000002  11.418019000000001  0.6286970999999999
H    21.198563700000005  5.564620200000001  0.348344
H    22.113292100000002  6.7674482000000005  1.2500463
H    19.544221000000004  7.6984909  -3.2074969
P    19.792  13.752  1.225
O    20.877453800000005  14.6051341  1.8506467
O    19.734055200000004  12.3374313  1.7664483
O    18.456141800000005  14.4383887  1.0690557
O    24.989238600000004  13.5096024  -1.0270614
C    24.543742300000005  14.2200399  -2.1571385000000003
C    23.122337900000005  13.801540600000001  -2.5566755
O    22.979636600000003  12.384995400000001  -2.3373803
C    22.006160600000005  14.469305700000001  -1.750422
O    20.944975300000003  14.765400300000001  -2.6243647
C    21.569655600000004  13.3695476  -0.7642612
O    20.244720600000004  13.558426800000001  -0.4062998
C    21.757720900000002  12.134049800000001  -1.6719252
N    21.824890500000002  10.864706700000001  -1.0177106
C    22.535398700000002  10.634466900000001  0.12883440000000002
N    22.499906300000003  9.406626300000001  0.5437027999999999
C    21.705403200000003  8.752620400000001  -0.3723011
C    21.270735300000002  7.412538100000001  -0.4632883
N    21.607497400000003  6.480120300000001  0.4307772000000001
N    20.494753800000005  7.079729  -1.5125760000000001
C    20.168366100000004  8.0194504  -2.3855632
N    20.496611200000004  9.3049893  -2.4016134
C    21.274949100000004  9.6470546  -1.3643611
