195

N    -1.396  5.952  -8.268
C    -1.5804592999999993  4.9135932  -7.224005099999999
C    -0.4756701999999997  4.9576395  -6.1594796999999994
O    -0.1258075999999999  3.9491455  -5.5749373
C    -1.6165585999999994  3.5260441  -7.877618999999999
C    -2.9424978999999993  3.2620848999999996  -8.5085082
N    -4.1248381  3.5599726  -7.8727432
C    -3.3074614999999996  2.7321013999999995  -9.7167422
C    -5.123931  3.2008551999999995  -8.707222699999999
N    -4.6688792999999995  2.7014739999999993  -9.8268936
H    -2.0320573999999993  5.7499666  -9.0544856
H    -0.43460259999999984  5.9374424  -8.6332985
H    -1.6028576  6.9003911  -7.9338044
H    -2.5179606999999997  5.1071435  -6.6958163
H    -1.4177837999999996  2.7880435000000006  -7.095515499999999
H    -0.8270308999999996  3.4257407000000004  -8.6199196
H    -4.2379847999999996  3.873989  -6.9226186
H    -2.6886225999999995  2.3757277000000006  -10.5141186
H    -6.1629712  3.3180122999999995  -8.4767615
N    0.08093870000000036  6.1520813  -5.924797
C    1.1550219000000004  6.2674152  -4.9492275
C    0.6093926000000005  6.8616025  -3.6485287
O    0.5296826000000001  8.0690424  -3.4659645999999995
C    2.2643477  7.1714392  -5.4952045
C    2.7694522000000004  6.6434146  -6.8430095
C    3.4165032  7.2351293  -4.4995476
C    3.0871468  7.7878485  -7.793704399999999
H    -0.27427849999999987  7.037572  -6.2501106
H    1.5370323000000004  5.258689  -4.7653688999999995
H    1.8771599000000003  8.191107  -5.5803125
H    2.0242301000000005  5.9907526  -7.297782
H    3.6696209000000004  6.0515874  -6.6781798
H    3.0797577000000005  7.5202213  -3.5096609999999995
H    4.136501300000001  7.9895831  -4.8043502
H    3.9206015  6.2703522  -4.4233348
H    3.5038357  7.4186169  -8.7275884
H    3.8134059000000002  8.45963  -7.338031
H    2.2020024000000005  8.3814191  -8.005961
N    0.13707860000000016  5.9907612  -2.7477974
C    -0.41528439999999955  6.4872738  -1.4892326999999996
C    0.6296332000000002  7.3331956  -0.7648811999999998
O    1.7012277000000002  6.8451681  -0.4234442999999999
C    -0.8247970999999996  5.298402  -0.6082540999999999
C    -1.6660871999999998  4.3076631  -1.4223542
C    -1.6109906999999994  5.7851417  0.6066142000000001
C    -2.6293409999999993  5.0245564  -2.3641908
H    0.4268163000000005  5.0248067  -2.7779371999999998
H    -1.2663579  7.131307  -1.7234563999999999
H    0.09722030000000048  4.821244  -0.2602956999999998
H    -2.2299393  3.6880257000000007  -0.7252361999999999
H    -1.0261891999999997  3.6439594  -2.0043824999999997
H    -1.0440309999999995  6.5381281  1.1517285000000002
H    -1.8118241  4.9548404  1.2770448
H    -2.5548231999999995  6.2306983  0.30560940000000014
H    -3.3257027999999993  4.2985744  -2.7785569999999997
H    -2.1022175  5.4991805000000005  -3.1831245999999997
H    -3.2086945999999994  5.7731847  -1.8320737999999999
N    0.3050168000000002  8.5973068  -0.47783229999999977
C    1.2511755000000002  9.4715176  0.19378830000000014
C    0.49538470000000023  10.3289413  1.1980251000000002
O    -0.6695249999999997  10.6493792  1.0085999
C    1.9605955000000002  10.3723371  -0.8267940999999999
C    2.8284855  9.5295908  -1.7467576999999999
C    3.2783794000000004  10.3678785  -2.9642228999999998
O    3.9647049  11.3811604  -2.7337236999999996
O    2.9197218000000005  9.9860989  -4.0902546
H    -0.5218334999999996  9.045507  -0.8433359999999999
H    1.9892139000000002  8.8307527  0.6858803000000001
H    2.574796  11.127205  -0.3352810999999999
H    1.2121661000000004  10.9020994  -1.4241211999999996
H    2.2505560000000004  8.692820900000001  -2.1280432
H    3.7151786  9.1686968  -1.2213148999999999
N    1.1467441000000003  10.6688628  2.3175205
C    0.47968800000000034  11.4741555  3.3283883000000003
C    0.9020833000000004  12.9402705  3.2100769000000002
O    1.9899153000000003  13.225996  2.7148719000000003
C    0.8417267000000004  10.9321717  4.7180481
C    0.0912090000000001  9.621497999999999  4.9499071
O    -1.1292402999999998  9.5751742  4.9027812
N    0.8274107000000004  8.546209300000001  5.2176092
H    2.1527982000000003  10.6036366  2.3514844000000004
H    -0.5919986999999995  11.3591207  3.1411242
H    0.5256492000000001  11.6304961  5.4914647
H    1.9200036000000003  10.7870901  4.7827791
H    0.35673860000000035  7.6648311  5.3535221
H    1.8325398000000002  8.5652875  5.2241966
N    0.06857300000000022  13.8333617  3.7400075000000004
C    0.34450380000000047  15.2621944  3.7068169
C    1.3947147000000002  15.6838177  4.7380572
O    1.8323907000000004  16.8257303  4.7666617
C    -1.0055870999999996  15.9195921  4.0130508
C    -1.7233868999999995  14.868059  4.8657928
C    -1.2288720999999994  13.5221209  4.3322728999999995
H    0.7599092000000005  15.539078400000001  2.7313553
H    -1.5406563999999996  16.098481  3.0812839000000003
H    -0.8650709999999995  16.8683354  4.5245381
H    -2.8026095999999994  14.9598096  4.7918836
H    -1.4288360999999998  14.9874647  5.907805
H    -1.1534961  12.7741347  5.1182914
H    -1.8970823  13.142081300000001  3.5538383000000002
N    1.7700117000000004  14.769900100000001  5.6388964
C    2.7751142000000004  15.0862178  6.6380432
C    4.1825885000000005  14.7987354  6.1198068
O    5.106296200000001  15.583003399999999  6.2441747
C    2.4972122000000003  14.3092891  7.9316771
C    2.0269631000000006  15.2356696  9.0563582
C    3.2276412000000003  15.9514429  9.658631100000001
O    4.0866194  16.4847484  8.9669203
N    3.3067481  15.9677158  10.9932168
H    1.4434475000000002  13.818765299999999  5.5616639
H    2.7448654  16.1662505  6.80686
H    3.4071673000000002  13.7965711  8.2466591
H    1.7295414000000002  13.560293  7.736655900000001
H    1.5202527000000003  14.6575062  9.8273927
H    1.3416374000000002  15.9841651  8.6592721
H    4.1074516  16.408423499999998  11.4162986
H    2.6287135000000004  15.5078241  11.576274
N    4.3484109  13.5881454  5.558251
C    5.6441918  13.2124352  5.0232557
C    5.85613  13.8147908  3.6330807000000003
O    6.8338909  14.4971235  3.3620762
C    5.7728284  11.6820946  5.0065871
C    7.131754  11.241262  5.4806644
C    7.253913000000001  10.4743078  6.6336113
C    8.2824967  11.6076358  4.7896068000000005
C    8.4963504  10.0646387  7.0830396
C    9.5291855  11.201989900000001  5.2334076000000005
C    9.6464636  10.4207211  6.3820395
O    10.8602065  9.960378  6.8126379
P    11.8635062  11.1181902  7.5131874000000005
O    12.3743451  11.9400228  6.3350748
O    12.9573489  10.269561  8.1395062
O    10.9350877  11.8470729  8.4918408
H    3.5485424000000005  13.0507537  5.2598688000000005
H    6.404277800000001  13.6593334  5.6725486
H    5.5897718  11.3059749  4.0001470999999995
H    5.0266742  11.2677813  5.6847655
H    6.3766439  10.1964417  7.1964591
H    8.212563800000002  12.2280546  3.9070638
H    8.6155975  9.4896218  7.988957
H    10.437097000000001  11.501357800000001  4.7298156
N    4.930288900000001  13.5138515  2.7080924
C    5.05522  14.0430369  1.358178
C    4.1111665  15.2305985  1.1821494000000001
O    2.8973535000000004  15.105577499999999  1.2529722000000003
C    4.6946795  12.9515323  0.33966600000000013
C    5.8807451  12.0766852  0.05024570000000017
C    6.433650800000001  11.278502  1.0458440000000002
C    6.4590377  12.0773592  -1.2140088999999998
C    7.5418272  10.490201  0.7870943000000001
C    7.5594028  11.2777874  -1.4798161999999997
C    8.1036124  10.4852834  -0.4803477999999999
H    3.9887236  13.212267  2.9396902000000003
H    6.0923438  14.3657666  1.2315502
H    4.3509660000000006  13.4105767  -0.5904802999999998
H    3.8597978000000004  12.379928  0.7479816000000001
H    5.9934201  11.2761931  2.0291836
H    6.027031600000001  12.6885176  -1.9932838
H    7.967518200000001  9.8886915  1.5765632000000003
H    7.987705200000001  11.2811134  -2.4706856999999998
H    8.9650516  9.8691706  -0.6868523999999998
N    4.669218300000001  16.430534  0.9826320000000002
C    3.8284478  17.603628399999998  0.8095902000000001
C    3.7889229  18.0044975  -0.6719342999999998
O    4.8272146000000005  18.215404  -1.2772115
C    4.405267800000001  18.7729924  1.6198578000000001
O    3.7054282  19.9505803  1.2932371000000003
H    5.6500681  16.5306956  0.7709795000000002
H    2.8300671000000004  17.342546  1.1676184000000003
H    5.4661645  18.8717907  1.3531049000000002
H    4.3158643  18.5360537  2.6876622
H    4.051420200000001  20.681263899999998  1.8272763
N    2.5839336000000004  18.1473659  -1.2299816
C    2.4621900000000005  18.4912581  -2.6401708999999998
C    1.3909104000000003  19.5665459  -2.8255751
O    0.2656744000000004  19.273077  -3.217416
C    2.1122428  17.2636157  -3.4797697999999997
C    3.3553745000000004  16.7542107  -4.2473323
O    4.463421500000001  16.8936223  -3.7044429
O    3.1583357000000003  16.2387544  -5.363608999999999
H    1.7459324000000003  17.8771116  -0.7387239999999999
H    3.4484098000000003  18.8637819  -2.9397694
H    1.3215787000000003  17.4901106  -4.1955859
H    1.7761762000000003  16.4423215  -2.8427900999999998
N    1.7152850000000004  20.8196914  -2.5303568
C    0.7181047000000005  21.874247699999998  -2.6478865
C    1.4065438000000003  23.258800700000002  -2.4664096
O    2.6096973  23.3324341  -2.772719
C    -0.3893831999999997  21.701403300000003  -1.6151689
O    0.7063188000000005  24.1852272  -2.0326049999999998
H    2.6587422000000003  21.111839  -2.3146974
H    0.29214810000000035  21.836365100000002  -3.6591651
H    -1.0196400999999997  22.585619899999998  -1.6390333
H    0.05374860000000048  21.610857  -0.6258963999999998
H    -0.9708622999999998  20.811222700000002  -1.8372709999999999
