62

C    18.81  -7.376  4.901
C    17.6485859  -7.2792719  5.6482294
C    17.577771300000002  -7.931302700000001  6.882359
C    18.6462868  -8.6780715  7.3804202
C    19.8356512  -8.785754  6.6417581
N    21.0694774  -9.411157600000001  6.8749076
C    21.8876391  -9.1190947  5.7821494
C    23.2143898  -9.4854144  5.5085277
N    24.0933093  -10.2661719  6.250904
C    25.2685101  -10.3594842  5.5103618999999995
C    26.4671341  -11.0376762  5.7447903
C    27.475892299999998  -10.9587555  4.789826
C    27.32475  -10.2126693  3.6143355
C    26.1478905  -9.5307516  3.3659618
C    25.1201694  -9.6062829  4.3078607
C    23.8106196  -9.0461005  4.2915354
C    23.1148572  -8.2422629  3.3638836
C    23.5081136  -7.649623500000001  2.0694282
N    22.4692963  -6.8935455  1.6489585
C    21.3068668  -6.9936522000000005  2.5114421
C    21.8034156  -7.8761907  3.6369293
C    21.187692  -8.3155663  4.8305974
C    19.8898033  -8.1126722  5.3921437
C    21.5218803  -10.116014  8.0945576
C    22.1329849  -9.0750183  9.1128286
C    23.3365298  -9.7549019  9.7884093
C    24.3916586  -10.0279392  8.7177016
C    23.8171052  -10.8803572  7.5591742
O    22.4448004  -11.144700400000001  7.7530662
O    24.5647452  -7.776596700000001  1.4531165999999995
N    23.9007438  -8.8499526  10.8196359
C    24.7543197  -9.5186806  11.820768099999999
O    22.6454349  -7.894697300000001  8.5124905
C    21.8508048  -6.7232491  8.5335803
C    20.4039544  -10.873421  8.833118299999999
H    18.8918082  -6.8823165  3.9462748
H    16.807889199999998  -6.709829300000001  5.2860819
H    16.6772104  -7.8631622000000005  7.4715099
H    18.520023600000002  -9.1536262  8.3360319
H    26.6169755  -11.622164900000001  6.6385651
H    28.4012433  -11.486277600000001  4.9625604
H    28.1324727  -10.176535600000001  2.8993478
H    26.010214  -8.9582923  2.4639067
H    22.4440668  -6.452324600000001  0.7463895999999997
H    20.4621978  -7.447200400000001  1.9831326999999996
H    21.0075846  -6.0055493  2.8740411
H    21.3541162  -8.809068400000001  9.8345382
H    23.0135557  -10.6845443  10.263811
H    25.2498463  -10.5464579  9.1389507
H    24.7206313  -9.0753967  8.298225200000001
H    24.2644419  -11.879634000000001  7.5360778
H    23.1284195  -8.3922109  11.319827400000001
H    24.4268867  -8.107745300000001  10.3392201
H    25.1073255  -8.793283  12.547941699999999
H    25.6150689  -9.9765583  11.343311700000001
H    24.185736  -10.2870816  12.3371961
H    22.4744126  -5.9449950000000005  8.1021821
H    21.5721289  -6.454109900000001  9.556746
H    20.9438176  -6.827232  7.9328886
H    20.8748981  -11.6213041  9.4645395
H    19.776434899999998  -11.3934992  8.1144477
H    19.7928968  -10.218859400000001  9.441377
