31

C    9.051  4.576  -14.459
O    8.2440618  5.4910425  -14.1948718
O    8.780543900000001  3.5932588999999995  -15.1902033
C    10.389117  4.4928346999999995  -13.701632199999999
C    10.2649304  3.3240144999999997  -12.710822199999999
C    11.560025  3.058515  -11.964541399999998
C    11.745943  1.6348271999999997  -11.4457679
C    10.9769679  1.1353413999999997  -10.2367949
S    10.9625711  2.1625826999999997  -8.717540199999998
C    10.3806569  0.6932387999999996  -7.796950999999999
C    11.2170255  -0.48091750000000033  -8.301586899999998
N    12.5096948  -0.5818183000000006  -7.656464699999999
C    13.546792400000001  -0.38213350000000057  -8.505013299999998
O    14.7431728  -0.3948959000000003  -8.237206699999998
N    13.028847500000001  -0.1957688000000004  -9.744843999999999
C    11.5843766  -0.21575060000000024  -9.779065
H    10.579346000000001  5.4342222  -13.183715999999999
H    11.185287800000001  4.2900616  -14.419543699999998
H    9.9750031  2.4475635  -13.299179299999999
H    9.444947500000001  3.5383638  -12.019905099999999
H    11.654478000000001  3.7641652999999997  -11.134513199999999
H    12.3868607  3.2506570999999997  -12.652322799999999
H    12.808037800000001  1.5655470999999996  -11.198799999999999
H    11.538803900000001  0.9400089999999997  -12.264321399999998
H    9.9223652  0.9938430999999996  -10.493294599999999
H    9.3244078  0.5500654999999997  -8.019933199999999
H    10.516364900000001  0.8832363999999996  -6.7365528999999995
H    10.6608243  -1.4146924000000003  -8.1656102
H    12.616628  -0.5694508000000003  -6.657700399999999
H    13.5971018  -0.2573513000000003  -10.5689114
H    11.2263834  -1.0039551000000002  -10.450300499999999
