31

C    13.823  15.472000000000001  18.248
O    14.0349251  15.9111438  17.098104300000003
O    14.7022403  15.004251100000001  19.0067936
C    12.3581182  15.4916342  18.7336323
C    11.5443449  16.6022127  18.0629834
C    11.861601  17.9525539  18.7070402
C    11.097634600000001  19.1573374  18.137014100000002
C    11.4949833  20.4666652  18.8217956
S    11.0180117  20.5495813  20.5913872
C    11.443188300000001  22.3247478  20.6016796
C    10.924182700000001  22.8997276  19.286465500000002
N    9.536357500000001  23.3059278  19.3262964
C    8.7469853  22.5769185  18.501461900000002
O    7.5405898  22.7049965  18.322465100000002
N    9.5458566  21.6998209  17.8445954
C    10.9318486  21.7687032  18.2181652
H    12.352507600000001  15.5823036  19.8213941
H    11.9475082  14.5118379  18.4730527
H    10.4774518  16.3867853  18.1561476
H    11.8143115  16.621206100000002  17.0052349
H    12.937813  18.1210608  18.5975957
H    11.651404  17.884871  19.7793598
H    10.0261229  18.9864641  18.2620894
H    11.3169935  19.2446253  17.070514
H    12.5891973  20.53652  18.8152756
H    12.5264933  22.411353300000002  20.66982
H    10.9768346  22.7777746  21.4714643
H    11.5495315  23.748097  18.987753700000003
H    9.176171100000001  23.9591828  19.9975184
H    9.188831  21.030165  17.1881412
H    11.542701300000001  22.0308148  17.3448306
