57

N    -13.197  32.49  -34.358
C    -12.243551899999998  31.604519800000002  -34.649198399999996
N    -11.894485999999999  31.1459228  -35.85389369999999
C    -12.626060799999998  31.685117400000003  -36.852896699999995
C    -13.660905299999998  32.6255126  -36.69721499999999
C    -13.943024899999998  33.037208  -35.357941499999995
N    -14.906044099999999  33.9235325  -35.04639639999999
N    -14.179232099999998  32.9456511  -37.940723899999995
C    -13.493865999999999  32.2413959  -38.7927701
N    -12.552952599999998  31.429361800000002  -38.20419629999999
C    -11.532678799999998  30.5892273  -38.77540509999999
C    -11.928103399999998  29.7464935  -39.992574999999995
O    -12.266480699999999  28.4441889  -39.614570799999996
C    -10.666245199999999  29.7853587  -40.881114
O    -9.840304899999998  28.6668409  -40.69263889999999
O    -10.494965499999998  31.4560147  -39.194892599999996
C    -9.950714599999998  31.0734882  -40.4459945
C    -10.079357599999998  32.24807  -41.430405699999994
O    -9.511628499999999  31.8598922  -42.66776289999999
P    -9.502544299999999  32.8647249  -43.93669619999999
O    -10.833479999999998  33.5136947  -44.078891899999995
O    -8.922635699999999  32.13647  -45.0825469
O    -8.522625099999999  34.0557606  -43.508702199999995
P    -6.930854499999999  34.0581918  -43.33252159999999
O    -6.329331299999998  32.7286603  -43.15766839999999
O    -6.574450899999999  35.04551  -42.287997299999994
O    -6.570125999999998  34.4549688  -44.8348373
C    -6.888857199999999  35.6486918  -45.456288199999996
O    -7.932708399999998  36.6720891  -47.1806584
O    -6.505847099999999  38.4803663  -47.54214459999999
C    -7.206247699999999  37.4320963  -48.105863199999995
O    -6.946950099999999  36.126592  -49.913275399999996
C    -6.230396199999998  36.5045074  -48.778660499999994
O    -6.266423499999998  34.068211500000004  -48.69103139999999
C    -6.128841199999998  35.2365681  -47.922720899999995
C    -7.255566099999998  35.4439358  -46.9028905
H    -11.688882499999998  31.209507600000002  -33.8131157
H    -15.419977099999997  34.3585343  -35.79188609999999
H    -15.019993999999997  34.193544100000004  -34.08452749999999
H    -13.636629399999999  32.2812434  -39.8535651
H    -11.177908899999998  29.942506100000003  -37.958707399999994
H    -12.749508099999998  30.2431206  -40.520844399999994
H    -12.778433699999997  28.0114606  -40.31490049999999
H    -10.909944499999998  29.859670100000002  -41.949407599999994
H    -10.316801699999997  28.0396572  -40.10888609999999
H    -8.879976899999999  30.8631378  -40.326498199999996
H    -9.545027799999998  33.1185831  -41.03103829999999
H    -11.126715799999998  32.531753800000004  -41.59408679999999
H    -6.041153299999998  36.3447938  -45.369011099999994
H    -7.757753099999999  36.101328800000005  -44.95859769999999
H    -7.111752599999998  39.0850054  -47.08408299999999
H    -7.929605999999998  37.807813700000004  -48.847987499999995
H    -6.427337399999998  35.478663000000005  -50.423679299999996
H    -5.278161999999998  36.989925400000004  -49.00338299999999
H    -7.194345999999998  33.9555442  -48.9475358
H    -5.171819599999998  35.145318700000004  -47.40333089999999
H    -7.990623699999999  34.6276735  -46.947095399999995
