136

N    14.079  5.5969999999999995  54.741
C    13.915442400000002  5.6267826  53.2715784
C    13.599663300000001  7.0409994000000005  52.7793554
O    13.349449700000001  7.9445166  53.5656871
N    13.554385400000001  7.1829388000000005  51.4468447
C    13.271884200000002  8.4695505  50.8384575
C    11.858070800000002  8.9344876  51.1983332
O    11.575679500000001  10.128219099999999  51.2585456
C    13.388155500000002  8.3999209  49.3120502
C    14.7807946  8.0800808  48.751979
C    14.691399  8.0058013  47.2278417
C    15.802212700000002  9.1328853  49.1697147
N    10.968191200000001  7.963691  51.4306473
C    9.595507800000002  8.2604832  51.8053706
C    9.58209  8.891487699999999  53.1973618
O    8.9031324  9.8789042  53.4448901
C    8.7576128  6.9767536  51.7885516
C    7.263670200000002  7.1751331  52.0816384
C    6.6101743000000015  8.0177544  50.9913285
C    6.575604100000001  5.81289  52.1728508
N    10.310147200000001  8.2443438  54.1219095
C    10.409259100000002  8.7357674  55.4847683
C    10.974497800000002  10.1538373  55.5208115
O    10.475929500000001  11.0137803  56.2486139
C    11.304157700000001  7.7955535000000005  56.3101939
C    11.591667500000002  8.3139678  57.6862493
C    12.659762500000001  9.0871836  58.0479619
C    10.810876200000001  8.1252314  58.8699096
N    12.6036219  9.3772054  59.382153
C    11.476502700000001  8.8161504  59.9128229
C    9.6218882  7.4504394000000005  59.1554337
C    10.982711300000002  8.8372822  61.2139213
C    9.1360737  7.4770044  60.4452436
C    9.807730000000001  8.162023999999999  61.4639531
N    12.003271900000001  10.3880218  54.7016446
C    12.607450500000002  11.702332  54.6218905
C    11.596072800000002  12.7169971  54.0794953
O    11.529115800000001  13.858427899999999  54.5253958
C    13.822189400000001  11.6767578  53.6988477
C    15.011154800000002  10.9004395  54.3343321
O    14.7858531  9.7585973  54.7711757
O    16.115945200000002  11.473633  54.3504507
N    10.820984500000002  12.2618568  53.0894206
C    9.803150900000002  13.0842998  52.4559054
C    8.749874300000002  13.4732784  53.5030802
O    8.3107561  14.615777699999999  53.5819456
C    9.173141100000002  12.289864099999999  51.3043415
C    8.648370000000002  13.0680987  50.0938267
C    8.1139816  12.0566472  49.077311
C    7.5570555000000015  14.0593826  50.4778779
N    8.320431500000002  12.4666138  54.270988
C    7.307969300000002  12.6424254  55.2961207
C    7.767647700000001  13.5816266  56.4148843
O    6.975644900000001  14.3610003  56.9434095
C    6.930973400000001  11.2659703  55.8626691
C    5.865826500000002  11.244928  56.9675098
C    4.571093000000001  11.9016798  56.4982966
C    5.608941900000001  9.7964767  57.3857717
N    9.023826900000001  13.4250432  56.8320907
C    9.590391700000001  14.240042599999999  57.8790986
C    10.245748100000002  15.5491379  57.3284846
O    10.965991100000002  16.1759148  58.1320525
C    10.638892600000002  13.4467877  58.6734867
O    11.714823  13.056461800000001  57.8331367
C    10.015345500000002  12.2202818  59.330053899999996
O    9.998406400000002  15.8923627  56.1617295
H    14.381918200000001  4.6701391999999995  55.06325
H    13.201745700000002  5.8530899  55.2133525
H    14.767757800000002  6.3074274  55.0258828
H    13.102240600000002  4.9585539  52.98046
H    14.83774  5.2863678  52.7977942
H    13.866276800000001  6.4422982  50.8346291
H    13.949456500000002  9.2328348  51.2427514
H    13.073574500000001  9.3716583  48.9248246
H    12.678506400000002  7.6547728  48.9459189
H    15.117937400000002  7.1080961  49.1238587
H    15.661869000000001  7.7620312  46.8044977
H    14.374721200000002  8.963641599999999  46.8219371
H    13.977921000000002  7.247378299999999  46.9171795
H    15.951983100000001  9.1522408  50.2472959
H    15.477423700000001  10.1254203  48.862086
H    16.7646239  8.934482299999999  48.7043666
H    11.209774300000001  7.0005808  51.2413064
H    9.189511600000001  9.010865299999999  51.1193196
H    9.165502800000002  6.2910352  52.5321028
H    8.850152600000001  6.525764000000001  50.7987478
H    7.154604900000001  7.6981101  53.0377411
H    5.535396200000001  8.071518900000001  51.1490603
H    6.789855200000002  7.5860017  50.0097916
H    6.9908594000000015  9.0365313  51.0026371
H    7.014607200000001  5.2090267  52.9620195
H    6.666260300000001  5.2813931  51.229144
H    5.519467300000001  5.9424414  52.3920494
H    11.0763159  7.666342  53.8022078
H    9.402586800000002  8.7989303  55.9133124
H    12.256811100000002  7.7372636  55.7788472
H    10.813648400000002  6.824705  56.3767746
H    13.458150100000001  9.464457  57.4336641
H    13.229178300000001  10.004991799999999  59.8571378
H    9.085263700000002  6.9269384  58.3794414
H    11.498647100000001  9.3786303  61.9930985
H    8.214322200000002  6.9672467000000005  60.6810685
H    9.393081900000002  8.1662356  62.4605928
H    12.593558900000001  9.6270586  54.3625934
H    12.9066576  12.0662229  55.6166462
H    14.152148100000002  12.6991949  53.505197
H    13.540509700000001  11.2101054  52.751213899999996
H    11.047454400000001  11.3799649  52.6377363
H    10.255704900000001  14.0235634  52.1106131
H    8.3628335  11.6874044  51.7210365
H    9.945049500000001  11.608916  50.9396399
H    9.483185900000002  13.624195799999999  49.6537461
H    7.757107000000001  12.5709869  48.1896648
H    7.287260400000001  11.5000912  49.5105201
H    8.897443700000002  11.3618759  48.7876168
H    7.909252600000001  14.757939799999999  51.2341245
H    6.697698600000001  13.5358679  50.8926613
H    7.233042500000002  14.6274962  49.6092706
H    8.698299600000002  11.5332684  54.1353141
H    6.441656400000001  13.1374133  54.8387153
H    7.854571300000002  10.8310524  56.2549918
H    6.5923766000000015  10.6550942  55.0224577
H    6.249846000000002  11.8116448  57.8230879
H    3.791321400000001  11.7694394  57.2439073
H    4.239693600000002  11.4651908  55.5594561
H    4.725450200000001  12.9691844  56.3580584
H    6.529904200000002  9.3370283  57.7357362
H    5.226222400000001  9.2297128  56.541624
H    4.880123500000002  9.7651123  58.1902234
H    9.676171400000001  12.934271899999999  56.2366073
H    8.7681064  14.5567428  58.5306747
H    11.079117600000002  14.1345516  59.402583899999996
H    11.353850200000002  12.3759251  57.2311106
H    10.756881700000001  11.7065427  59.9355804
H    9.6617782  11.5466032  58.5531231
H    9.1800501  12.5185375  59.955559199999996
