124

C    83.77  52.844  21.981
C    83.5695419  52.1253085  23.348289
C    84.87985690000001  52.0340937  24.1475601
C    85.5359577  53.3799865  24.5072775
C    86.8466227  53.176444000000004  25.2553671
C    87.432322  54.5325483  25.6239193
C    86.4038105  55.3196028  26.4537057
C    85.0844551  55.469166  25.6580908
C    83.9928434  56.1397546  26.4457537
C    83.32516580000001  57.2071289  26.0161133
C    83.6401993  57.828856  24.6780202
C    84.385993  56.8311306  23.7819696
C    85.044051  57.4971081  22.5604071
C    85.7819418  56.4597431  21.7769224
C    87.0827406  56.5019721  21.571412300000002
C    87.9063797  55.4789142  20.8535091
C    88.9002913  55.9858318  19.7870286
C    90.1020347  55.0286589  19.9106514
C    89.7109764  54.1037046  21.0981593
C    90.8887021  53.7553598  22.0027021
C    90.4374704  52.8056393  23.1233839
C    89.7925047  51.573666  22.4846977
C    88.6521789  52.0212469  21.5701493
C    88.0215827  50.7620456  20.9315479
C    87.5915801  49.7977319  22.037610100000002
C    88.6686702  49.4944182  23.0415418
C    89.781652  48.4943203  22.5960614
C    89.2441092  47.1042327  22.2249743
C    90.3449986  46.1069447  21.8007514
C    89.7482043  44.7069436  21.5115534
C    88.9800902  44.0604119  22.679864300000002
C    88.5231241  42.676727  22.1967691
C    89.6997625  41.8165542  21.7170567
C    90.5335538  42.5616053  20.6694473
C    91.8880061  41.8934866  20.3789015
C    92.5585968  42.5194731  19.1461255
C    91.6377213  42.5362219  17.9293591
C    90.3039363  43.1649709  18.3233903
C    89.7896162  43.9496793  23.9763941
C    91.0790713  46.6022552  20.556612
C    86.3566727  49.3366667  22.1026014
C    84.029994  58.1908624  21.6609249
C    82.2267724  57.863213  26.8017735
C    83.0046925  50.7286631  23.0344173
O    82.9969592  53.8157388  21.7686628
O    84.6293337  52.4380284  21.1754783
O    82.5668695  52.8106257  24.0682909
O    84.6108166  54.1569668  25.291414200000002
O    86.9103475  56.5793313  26.840077100000002
O    85.4432253  56.212919  24.512388100000003
O    88.73808030000001  54.8306726  21.8204356
O    89.12755920000001  52.9022361  20.5589766
O    89.3206539  50.7015438  23.4986124
O    86.9919856  51.0832766  20.0328595
O    90.7138198  48.3499129  23.635793200000002
O    90.8418033  43.8719647  21.102376500000002
O    89.7332026  42.5528156  19.4858249
H    85.595025  51.4638324  23.5515908
H    84.6649032  51.5007661  25.0758184
H    85.7330776  53.9328925  23.5699545
H    87.5344735  52.609200200000004  24.6266252
H    86.6445231  52.5988406  26.1603646
H    87.6516646  55.094884900000004  24.7123323
H    88.3468676  54.4217023  26.2076417
H    86.1836015  54.7856852  27.3835741
H    83.7659624  55.6604196  27.3844475
H    84.2634797  58.7139228  24.8299203
H    82.7141992  58.1310184  24.1911011
H    83.6898815  56.0446969  23.4429004
H    85.7662694  58.228921400000004  22.936089
H    85.1803036  55.6446009  21.3870335
H    87.6658148  57.3116848  21.9929212
H    87.2392695  54.7196847  20.4091841
H    89.1929519  57.0084609  20.021916700000002
H    88.444808  55.9597786  18.8015456
H    91.0208608  55.5553868  20.1486202
H    90.2360723  54.4185916  19.0215289
H    91.2784484  54.6742609  22.4365274
H    91.6526678  53.2787257  21.388855200000002
H    89.6977786  53.3054018  23.7495179
H    91.28357630000001  52.5076792  23.7402927
H    90.5409186  51.0637355  21.8572451
H    87.8738902  52.5336258  22.162587000000002
H    88.7845546  50.284499000000004  20.3021752
H    88.2122122  49.0968039  23.9552141
H    90.2797469  48.930111000000004  21.7153984
H    88.5191477  47.2216647  21.4174794
H    88.7245077  46.719194  23.101750600000003
H    91.0640827  46.0109681  22.615983200000002
H    89.0467358  44.797759  20.6652306
H    88.0848544  44.6597123  22.8667857
H    87.8306765  42.8042482  21.3611343
H    87.9989546  42.154560700000005  22.9982605
H    89.3259784  40.8990214  21.2644629
H    90.3472603  41.5631107  22.5560756
H    91.7049644  40.8318437  20.2060517
H    92.5282796  42.014836200000005  21.2506023
H    93.4723751  41.969120700000005  18.9185838
H    92.8324328  43.5468039  19.3983342
H    91.4618487  41.5135454  17.5888742
H    92.0818823  43.1092288  17.1174828
H    89.5442427  43.0324993  17.5520187
H    90.4418244  44.23763  18.5154603
H    89.9355291  44.9315884  24.418687600000002
H    90.7663271  43.5182717  23.775340800000002
H    89.2604266  43.3221026  24.687919400000002
H    91.668135  47.4852987  20.784940300000002
H    90.3687164  46.8456895  19.7679532
H    91.7512094  45.8270746  20.200789800000003
H    85.6336144  49.5979593  21.3492726
H    86.0365521  48.6735335  22.8871708
H    84.5337613  58.5679521  20.7750323
H    83.5521135  59.0197838  22.1735525
H    83.2678979  57.4793589  21.3470257
H    82.11764600000001  57.3922625  27.7731493
H    81.2897646  57.7751384  26.2558893
H    82.4471122  58.9201707  26.932548500000003
H    82.0640744  50.8476026  22.5010768
H    82.8236945  50.1954124  23.9638231
H    83.6992717  50.1735181  22.411721500000002
H    82.2870195  53.5410031  23.4777326
H    87.022363  57.1079946  26.0363456
H    86.2742393  51.5681773  20.4776868
H    90.7547612  49.1854552  24.126046300000002
