96

C    35.396  18.782  -2.024
O    34.21399520000001  18.5308933  -2.2441804999999997
C    36.40833610000001  17.6964304  -1.7402525
N    35.820100200000006  20.0476019  -1.9678077999999997
C    37.1968072  20.454772  -1.9426619
C    37.4628682  21.4690608  -0.8456246999999999
O    36.9089037  22.5546832  -0.7474543999999999
C    37.50464050000001  21.0543509  -3.3068117
C    38.976375600000004  21.3763081  -3.4310992999999996
C    39.360914900000004  21.453454999999998  -4.899321199999999
N    40.578830100000005  22.2231385  -4.9535322
C    40.727954000000004  23.2561132  -5.763473599999999
N    41.80999440000001  24.0200356  -5.6589703
N    39.7926896  23.4994489  -6.678369099999999
N    38.3758957  21.0552446  0.021363800000000155
C    38.805286900000006  21.921931  1.0756714
C    40.1292716  22.5199986  0.6193739000000001
O    41.0222047  21.773503599999998  0.23876890000000014
C    39.1124475  21.0880229  2.3003131000000003
C    40.032799100000005  21.9318514  3.1696566
C    39.950817300000004  21.5369113  4.6386684
C    41.28834380000001  20.9753944  5.104447500000001
N    42.326452800000006  21.9808392  4.983341599999999
N    40.2236612  23.8447722  0.6416041000000001
C    41.418796500000006  24.5754414  0.27413000000000015
C    42.1905469  24.9651514  1.5517977
O    41.5920002  25.1771926  2.6003758
C    40.9493233  25.8658718  -0.4056641999999998
C    39.9823523  25.6755456  -1.5882085
C    40.6407352  25.0975707  -2.8360064
C    39.45485310000001  27.0578726  -1.9529467
N    43.5197561  25.0716891  1.4615677000000002
C    44.394592100000004  25.5659639  2.5306974
C    44.615995000000005  24.6607999  3.757299
O    45.74898340000001  24.229708  3.9599003
C    44.0736514  27.0185637  2.9495219
C    43.770284100000005  27.8362944  1.7160003000000001
C    42.487276300000005  28.3239569  1.4921641
C    44.4267892  28.7166698  -0.4283322999999999
C    42.175270100000006  29.0104267  0.32708460000000017
C    44.741526500000006  28.040567199999998  0.7400022000000002
C    43.150169600000005  29.2197296  -0.6344045999999999
N    43.62174900000001  24.3965683  4.6060353
C    43.9339353  23.5971536  5.7759178
C    42.9089122  22.5185658  6.0544697
O    42.658756100000005  22.1772278  7.2059921
H    36.8866566  17.8636371  -0.7794679999999998
H    37.154346100000005  17.6410525  -2.5291894
H    35.874847700000004  16.7502476  -1.7070987
H    35.12844270000001  20.7721708  -2.1083325
H    37.8196572  19.5796278  -1.7755204999999998
H    36.90030970000001  21.95221  -3.4426862
H    37.2103065  20.3228211  -4.0624006999999995
H    39.575067100000005  20.6165486  -2.9257801
H    39.176105400000004  22.3324393  -2.944922
H    38.557478200000006  21.9638761  -5.4221991
H    39.49982800000001  20.4563867  -5.3232412
H    41.293101500000006  21.9932996  -4.2807475
H    41.9459043  24.8106977  -6.2650693
H    42.4665626  23.878696  -4.9115628000000005
H    39.12117010000001  22.8037307  -6.9473457
H    39.914808400000005  24.2754253  -7.308332
H    38.924195700000006  20.2211918  -0.12168949999999984
H    38.0366842  22.6747874  1.249768
H    39.615169800000004  20.1664454  2.0104946000000004
H    38.1910796  20.8372381  2.824406
H    39.75462400000001  22.9825772  3.0816864
H    41.052246000000004  21.830159  2.8037195
H    39.184896300000005  20.7800182  4.7998859
H    39.7014482  22.3957398  5.2623541
H    41.564068500000005  20.1045546  4.5048425000000005
H    41.2539858  20.6898939  6.1572914
H    42.57492620000001  22.3160977  4.065962300000001
H    39.489935800000005  24.393517  1.0657136
H    42.021731  23.9334641  -0.3690461999999999
H    41.8209348  26.4316269  -0.7406403999999998
H    40.44812030000001  26.4664191  0.3559275000000002
H    39.14873420000001  25.036423  -1.2833511999999998
H    39.900753  25.0176355  -3.6249805999999998
H    41.045739700000006  24.1107067  -2.6244425
H    41.444074500000006  25.7520808  -3.1616184
H    38.92436610000001  27.5126975  -1.1184682
H    38.7639768  27.0004737  -2.7903743
H    40.2769515  27.7149911  -2.2265317
H    43.971512000000004  24.8739078  0.5830688000000002
H    45.39028400000001  25.5827392  2.0716986000000004
H    44.93681110000001  27.4145542  3.4844248
H    43.210496600000006  27.0353448  3.6153195
H    41.723373900000006  28.162331000000002  2.2393811
H    45.1916531  28.871967599999998  -1.1745306999999998
H    41.1751671  29.3886727  0.17964390000000016
H    45.74578090000001  27.6763546  0.8958226000000001
H    42.916829500000006  29.755698199999998  -1.5410986999999998
H    42.686173200000006  24.7477888  4.437536700000001
H    44.0085867  24.2246399  6.6697934
H    44.912328900000006  23.137985099999998  5.6043007
