47

C    5.199  7.982000000000001  29.013
C    4.9909697  7.679517200000001  27.8684921
C    4.7040436  7.321981300000001  26.4801085
C    3.3976013999999997  7.9522184000000005  25.9824583
C    3.4556883999999997  9.4772868  26.0946806
N    2.3076803  10.061466800000002  25.4416535
C    1.0507394999999997  10.1592473  25.945986100000002
N    0.5960744999999998  9.7681284  27.1468318
C    0.2619297999999999  10.7710386  24.9671875
C    -1.1024149000000003  10.9650382  25.2796744
N    -1.9797002  11.5153972  24.4436508
N    -1.5405882000000002  10.567068200000001  26.492423700000003
C    -0.6784888000000002  10.0133864  27.315651600000002
F    -1.1732319000000002  9.631203600000001  28.5155923
N    1.0515753999999997  11.0363881  23.875218
C    2.2521932999999996  10.594717900000001  24.1813019
C    3.4749939999999997  10.675832600000001  23.3255887
C    4.3952884999999995  11.8198448  23.7169202
C    5.7695317  11.7450533  23.4105679
O    6.2153773999999995  10.595418800000001  22.7947218
C    7.5127331  10.095205400000001  23.0957614
C    6.6022912  12.815078900000001  23.710864
C    6.0863907  13.9513876  24.316503100000002
C    4.7387304  14.030397800000001  24.6474665
C    3.8972676999999996  12.955092100000002  24.335741600000002
O    4.167762  15.1159277  25.261141000000002
C    4.9627208  16.2365632  25.632759800000002
H    5.4026072  8.2329829  30.010490700000002
H    4.6365918  6.234652100000001  26.410613700000003
H    5.5365645  7.658479600000001  25.8575225
H    2.5536211  7.5874079000000005  26.5697259
H    3.2416188999999997  7.667870300000001  24.9398528
H    4.3575245  9.8765827  25.6299971
H    3.4360033  9.7695925  27.146440400000003
H    -2.9335992000000006  11.6273899  24.741872800000003
H    -1.6653061000000005  11.829157200000001  23.541710700000003
H    3.1492004  10.840031600000001  22.296332600000003
H    4.0303967  9.7386847  23.355469600000003
H    7.519103299999999  9.074767300000001  22.7207411
H    7.694817  10.1046698  24.172923700000002
H    8.2906436  10.6721126  22.589155100000003
H    7.6525261  12.770156700000001  23.4742491
H    6.7535937  14.769724700000001  24.5327398
H    2.8493817999999997  13.031967000000002  24.576353100000002
H    4.270087  16.919042  26.118038900000002
H    5.4011311  16.7147486  24.753699700000002
H    5.7495239  15.9451002  26.3324509
