66

C    35.721  6.858  10.251999999999999
O    34.8560361  7.1848279999999995  11.060058
N    35.659109599999994  7.1773054  8.9571018
C    34.5808032  8.041561  8.5322421
C    34.797814499999994  8.5975383  7.1293299
C    36.0886351  9.4211741  7.0447109999999995
C    33.249842099999995  7.3119209000000005  8.7448514
O    33.130657199999995  6.1022963  8.590885199999999
N    32.263170699999996  8.1294539  9.1302279
C    30.946259799999996  7.6177993  9.43864
C    31.549907599999997  6.4414709  11.5926066
C    31.359563299999998  6.1924943  12.940749
C    30.358751399999996  6.8607889  13.665728999999999
C    29.522942599999997  7.7436826  12.9633942
C    29.702090299999995  7.9676998999999995  11.6060856
C    30.731042899999995  7.3393091  10.9080409
C    30.212808699999997  6.6476045  15.1278873
N    30.796573799999997  5.6223922  15.7124746
S    36.353133899999996  10.5803742  8.4371764
C    38.0152126  7.0459821  11.291595
O    39.13189319999999  6.2807659000000005  11.7133082
N    36.6101824  5.0694123  11.678636899999999
C    36.9653084  6.0665651  10.6796001
C    38.4039164  8.238744  10.3996328
S    36.3587541  3.4903395  11.2143547
O    36.2293962  2.7216032  12.4300022
O    37.4442063  3.1351943  10.3287329
C    34.814080999999995  3.3617723  10.3157138
C    33.67607039999999  3.3358086  11.3078701
N    29.504343299999995  7.4698504  15.876182799999999
C    34.9224039  11.6817663  8.2222752
C    32.353879  3.1994835  10.5655844
H    36.330790099999994  6.830666  8.292365199999999
H    34.589916499999994  8.8854993  9.2384168
H    33.9425289  9.2196007  6.8668263
H    34.856112499999995  7.7829162  6.4057217
H    36.1067713  10.0042478  6.124959
H    36.9708657  8.7846283  7.072566699999999
H    32.464461899999996  9.0836005  9.383041
H    30.837844199999996  6.6802043  8.8832402
H    30.201237099999997  8.3309219  9.0804852
H    32.354509199999995  5.9602057  11.0642891
H    32.041177399999995  5.5121938  13.424668
H    28.708573999999995  8.2475365  13.4579087
H    29.043272399999996  8.6499077  11.0924582
H    30.710423299999995  5.4770361  16.7075629
H    31.296937299999996  4.9284184  15.1812332
H    37.523213  7.4573415  12.1917792
H    39.76907069999999  6.8714503  12.1397642
H    35.921467199999995  5.405234  12.337255599999999
H    37.4227467  5.5173079000000005  9.853857699999999
H    37.52983329999999  8.8371508  10.1697003
H    38.8617456  7.8909727  9.477564899999999
H    39.118485099999994  8.8610028  10.9279186
H    34.896106399999994  2.4383422  9.750191599999999
H    34.746696899999996  4.2059418  9.6337348
H    33.698277499999996  4.2648616  11.879834299999999
H    33.828859699999995  2.509155  12.0012666
H    29.088207699999998  8.3008936  15.4878883
H    29.416573999999997  7.317005  16.8695925
H    35.019363  12.4543617  8.9771619
H    34.000499899999994  11.1307031  8.3660476
H    34.959671799999995  12.1251479  7.2319186
H    31.514462799999997  3.2672086  11.2508473
H    32.3057507  2.2400051999999997  10.057361499999999
H    32.2642125  3.9815513  9.81552
