51

C    47.362  52.319  15.283
C    47.264863600000005  53.555340900000004  15.8940914
C    48.136780900000005  53.93756450000001  16.922162
C    49.0861445  53.010618900000004  17.3607839
C    49.2020524  51.770758300000004  16.7395276
C    48.3620097  51.4423127  15.6814206
Cl    48.5787065  49.989383800000006  14.7670396
C    48.00045  55.2988847  17.4534119
N    47.4725783  56.2778295  16.7741403
C    47.4841178  57.3834579  17.6017175
C    48.0669223  56.984993100000004  18.8213842
O    48.3935333  55.65535070000001  18.7150683
C    47.053709100000006  58.7014617  17.4305902
C    47.2171874  59.599256700000005  18.474532
C    47.8026964  59.195386400000004  19.6776937
C    48.2396529  57.88273350000001  19.8706903
C    48.8876475  57.41227610000001  21.1411754
C    50.2652057  58.05308350000001  21.3972233
C    51.4603624  57.08040210000001  21.4619509
C    52.797344800000005  57.83541890000001  21.7331475
O    53.4250777  57.50052530000001  22.9516854
N    51.3341015  55.730720600000005  22.0151285
C    53.7067788  57.560529200000005  20.5245542
C    51.3999389  55.17361700000001  23.2536381
N    51.295063400000004  53.866359800000005  23.2335675
C    51.158538  53.52107530000001  21.9152906
C    51.181805700000005  54.67108410000001  21.1626473
C    51.0966942  52.16141830000001  21.3838815
O    51.0034207  51.97012430000001  20.1686571
N    51.175802000000004  51.15952910000001  22.2611938
H    46.692621800000005  52.051788200000004  14.482426799999999
H    46.5148047  54.258636800000005  15.5705206
H    49.7496662  53.23741690000001  18.181926699999998
H    49.960734800000004  51.0832126  17.0766143
H    46.606402900000006  59.001895600000005  16.4974432
H    46.887854100000006  60.618016700000005  18.3559839
H    47.9255549  59.90200800000001  20.4819153
H    48.985606600000004  56.32552810000001  21.089745
H    48.2238757  57.6380697  21.97722
H    50.208996000000006  58.62675730000001  22.326598
H    50.4994298  58.752482300000004  20.59661
H    51.5529585  56.81557420000001  20.3957127
H    52.569591900000006  58.909673100000006  21.7349478
H    53.0508071  58.026876300000005  23.668713699999998
H    54.6758784  58.02984850000001  20.680031
H    53.2559981  57.971074300000005  19.6284077
H    53.865731000000004  56.49162140000001  20.406672
H    51.5214014  55.741273400000004  24.1526799
H    51.101380000000006  54.7778915  20.0999236
H    51.146511700000005  50.209059700000005  21.932364
H    51.2501389  51.369035000000004  23.2430661
