32

C    7.16  -12.399000000000001  42.086
O    6.1939311  -12.8615805  42.708298299999996
O    8.2556726  -12.0783752  42.5802395
C    6.9902165  -12.24429  40.515471399999996
C    5.9778957  -13.2959162  40.05566889999999
C    5.4924022  -13.022225800000001  38.646247499999994
O    4.5483225  -14.007333899999999  38.270766699999996
C    4.8851611  -11.5881944  38.60024119999999
O    3.7212036  -11.5360044  39.39626489999999
C    5.962619  -10.5522939  39.0574452
O    6.5363714  -10.8802067  40.32750789999999
C    5.6384377  -8.9704504  38.99522699999999
O    5.0853  -8.1723743  40.02612059999999
C    4.9376882  -8.6939305  37.65202729999999
P    5.0878705  -5.9163091  38.153463599999995
O    3.8728263  -6.171965800000001  39.09153429999999
O    6.440628  -5.7631525  38.85629479999999
O    5.240531  -7.381779  37.178905099999994
O    4.7670652  -4.7683104  37.199095699999994
O    8.2327829  -12.4740786  39.8711388
H    5.1438358  -13.2396329  40.758384899999996
H    6.4620955  -14.269079600000001  40.1270907
H    6.3146843  -13.0815987  37.9288926
H    3.9739496  -14.1846323  39.0311853
H    4.6354938  -11.3364211  37.56128459999999
H    3.0152127  -12.0050804  38.92208529999999
H    6.760668900000001  -10.6432673  38.30069999999999
H    6.6656126  -8.5631897  38.863050199999996
H    4.6360527000000005  -7.37898  39.62383259999999
H    3.8533404000000004  -8.794662200000001  37.785050299999995
H    5.3055185  -9.3498736  36.860619799999995
H    8.9181556  -12.1493921  40.482194099999994
