57

C    51.541  44.516  -0.558
N    51.3296986  45.2518222  -1.7851726
C    51.6230762  44.775033199999996  -3.0125339
N    51.329173299999994  45.6130628  -3.9737552000000003
C    50.8166935  46.7028981  -3.3483026999999996
C    50.801415999999996  46.518937  -1.9818713000000001
C    50.344068799999995  47.4202603  -0.8363055
C    51.5178823  47.72047  0.17006049999999995
C    52.7905358  48.1034001  -0.294327
C    53.8446861  48.3813867  0.5772141
C    53.650209999999994  48.3027624  1.9528630999999999
Cl    54.963137599999996  48.6698796  3.047677
C    52.406123799999996  47.9225366  2.4448784999999997
C    51.360241699999996  47.6462554  1.5655997000000001
N    49.2477789  46.6437066  -0.1369992
C    49.726314699999996  48.7346554  -1.4135919000000001
C    50.326924999999996  49.9646863  -1.1890261
C    49.8349705  51.1780531  -1.7117284000000001
C    48.5469405  48.7447594  -2.1934588
C    48.0233427  49.9169166  -2.7272233000000003
C    48.6299469  51.1748939  -2.5034281
N    48.1265836  52.3591633  -3.0373432000000005
C    46.910410399999996  52.3504605  -3.8551355999999997
C    48.744686699999995  53.5895182  -2.8065617
O    48.3035298  54.6480362  -3.2736557
C    49.9398352  53.571109899999996  -1.9969722
C    50.495000999999995  52.445911  -1.4617508
C    51.742932399999994  52.6012505  -0.6478694
C    52.920234699999995  51.9149507  -0.9690636
C    54.0783292  52.1105318  -0.21766400000000008
Cl    55.5363103  51.2563232  -0.6458884
C    54.094735  52.9735229  0.8749514999999999
C    52.925216899999995  53.6600057  1.1960395000000001
C    51.766138899999994  53.4807985  0.4446410999999999
H    52.3314082  43.7871695  -0.7254434000000001
H    50.6410378  43.9680854  -0.2739161
H    51.864078899999996  45.1892741  0.23537640000000004
H    52.0466315  43.804024  -3.1754325999999997
H    50.499389699999995  47.5575094  -3.9103852999999997
H    52.9666492  48.1728632  -1.356981
H    54.8021557  48.6691762  0.17868719999999993
H    52.2467221  47.8536519  3.5072826
H    50.4198082  47.3772803  2.017613
H    49.643802199999996  45.8557462  0.38965739999999993
H    48.5830291  46.285510099999996  -0.832951
H    48.734949699999994  47.2570363  0.5099841999999999
H    51.216249299999994  50.0307729  -0.5832083
H    48.035494  47.8264857  -2.4330339
H    47.1258786  49.8544364  -3.3171188000000003
H    47.055798499999995  51.7317581  -4.7396708
H    46.7276738  53.3794737  -4.1591156
H    46.067375  51.9881562  -3.2709636
H    50.393656  54.539039700000004  -1.8486150000000001
H    52.9486401  51.2521851  -1.8191426000000002
H    54.9947933  53.1129852  1.4503370999999998
H    52.9202982  54.3379162  2.0337439999999996
H    50.8694111  54.0186542  0.7092415999999999
