63

C    31.236  -0.32299999999999995  28.913
C    31.3173456  -1.7253243999999999  28.289682199999998
O    30.128780199999998  -2.4611156999999997  28.571659699999998
C    28.9398847  -1.9652683  28.1050781
C    28.016581799999997  -2.9400196999999997  27.7589433
C    26.7774641  -2.5766114  27.2953103
C    26.4433363  -1.2297021999999997  27.1771358
O    25.1991245  -0.9077341999999998  26.7423674
C    27.353217899999997  -0.24339009999999983  27.540227599999998
C    28.617484599999997  -0.6188077999999999  27.9860198
S    29.7623791  0.6158527000000003  28.370164499999998
C    32.5309638  0.4017238000000001  28.6643349
C    32.7588024  1.2410989000000001  27.580100299999998
C    34.005254199999996  1.8175565  27.398449
C    35.0467773  1.5655296000000003  28.294856499999998
O    36.2620223  2.1412603  28.107436
C    34.819537499999996  0.7275670000000003  29.3819954
C    33.5705922  0.16625610000000002  29.5591972
C    31.6958447  -1.8568726999999998  26.8223299
C    32.5802954  -2.8718553  26.463252699999998
C    32.9496652  -3.1220195  25.148799999999998
C    32.4625808  -2.3124854  24.127266
C    31.5805717  -1.2855915999999998  24.474964999999997
C    31.1855694  -1.077734  25.785795999999998
O    32.7569363  -2.4702981999999998  22.7998232
C    33.3006093  -3.7188523  22.3650387
C    33.6882716  -3.6885372  20.8754466
C    34.6391499  -4.8500573  20.622874799999998
N    32.5421657  -3.8550084  19.9431902
C    32.6998624  -3.1874237  18.6179555
C    31.270353699999998  -2.9036377  18.118889799999998
C    30.3602784  -3.4208578999999997  19.238153999999998
C    31.263776099999998  -3.3391462  20.459724
H    31.0972181  -0.46828749999999997  29.9899013
H    32.078863399999996  -2.2670909  28.8672816
H    28.3033808  -3.9723838999999996  27.869753
H    26.0593382  -3.3348978  27.0235842
H    24.6931139  -1.7093199  26.5410723
H    27.092140699999998  0.7984313000000001  27.4581512
H    31.9648693  1.4600770000000003  26.8855184
H    34.1908875  2.4765417000000003  26.5656587
H    36.8722315  1.8880644  28.815873099999997
H    35.6073278  0.5264257000000001  30.0922673
H    33.3997659  -0.4749967999999998  30.4122748
H    32.9888836  -3.5049874  27.2379198
H    33.6225418  -3.9410935  24.9591229
H    31.1869572  -0.6532059999999998  23.69528
H    30.4785349  -0.28862399999999977  25.987336199999998
H    32.6012073  -4.5309583  22.5910902
H    34.2298428  -3.9098958999999995  22.9130923
H    34.1584924  -2.7229894999999997  20.6779989
H    34.882197399999995  -4.9321864  19.5673193
H    34.2019339  -5.7846804  20.9638988
H    35.5738753  -4.7056602  21.1562727
H    32.4169245  -4.8591401  19.7741479
H    33.261356  -3.8257111999999998  17.939855299999998
H    33.2483224  -2.2581644  18.7608292
H    31.0652317  -3.3990619  17.1730681
H    31.1266019  -1.8359831999999998  17.9713731
H    30.0585053  -4.451481  19.0529898
H    29.4610614  -2.8221496999999998  19.3492909
H    31.4063697  -2.3075966  20.7810629
H    30.891842699999998  -3.9263424999999996  21.294649999999997
