58

C    -14.903  -36.487  5.842
N    -15.776766  -36.723263  4.6854821
C    -17.2006611  -36.9185821  5.0026874999999995
C    -15.422590200000002  -35.884441  3.5244370999999997
C    -16.4079793  -36.0835221  2.3819520999999995
C    -15.6216522  -36.0190379  1.0834966999999995
N    -16.4870995  -36.143345100000005  -0.049288600000000404
C    -17.4306135  -37.115584500000004  -0.21296030000000044
C    -16.4492434  -35.355349700000005  -1.1595112000000005
C    -15.6464089  -34.2674024  -1.4928387000000005
C    -15.837670300000001  -33.6598126  -2.7146982000000004
C    -16.814248900000003  -34.1151885  -3.6063795000000005
C    -17.6159047  -35.18919390000001  -3.2860220000000004
C    -17.4236438  -35.8327333  -2.0623226000000003
C    -18.0307247  -36.958566700000006  -1.4244941000000004
C    -19.183970300000002  -37.6890645  -2.0146376000000004
C    -19.108728  -38.286306100000004  -3.3948778000000006
O    -18.429444200000002  -37.888766700000005  -4.318032400000001
N    -20.1028339  -39.2233145  -3.5243970000000004
C    -20.7246235  -39.507485300000006  -2.3365235
O    -21.6286151  -40.3111605  -2.2230146000000004
C    -20.2597056  -38.52319120000001  -1.3086135000000003
C    -20.4654716  -38.753249100000005  0.14744609999999958
C    -20.4170545  -37.7201049  1.1350513999999996
C    -20.013088500000002  -36.3796174  1.1215199999999996
C    -20.0622335  -35.658712300000005  2.2937812999999996
C    -20.534328300000002  -36.2548314  3.4676618999999995
C    -20.9698447  -37.567257700000006  3.4959978999999994
C    -20.9102045  -38.3123829  2.3198905999999995
N    -21.2667963  -39.602892000000004  2.0361048999999998
C    -21.0198024  -39.863970800000004  0.7189247999999996
H    -15.0183519  -37.28152600000001  6.5728982
H    -15.159667  -35.5411501  6.316112899999999
H    -13.866063500000001  -36.4450506  5.523397999999999
H    -15.5025577  -37.667739600000004  4.3728072
H    -17.7590148  -37.316124900000005  4.1643932999999995
H    -17.6514733  -35.970732600000005  5.294572199999999
H    -17.2851199  -37.608652400000004  5.8380472999999995
H    -14.413160900000001  -36.1483246  3.2126053999999997
H    -15.419780500000002  -34.837565500000004  3.8376680999999997
H    -17.1990112  -35.337390500000005  2.3813877999999997
H    -16.869237000000002  -37.066836  2.4272500999999997
H    -14.8729683  -36.8206147  1.0567867999999996
H    -15.100833600000001  -35.064085600000006  0.9997164999999996
H    -17.614602700000002  -37.8680601  0.5240744999999996
H    -14.883155400000001  -33.8967528  -0.8259749000000005
H    -15.221078  -32.8190486  -2.9952644000000004
H    -16.9408904  -33.6151227  -4.555312000000001
H    -18.356606  -35.541966900000006  -3.9880270000000007
H    -19.7593439  -36.792354700000004  -2.3574594
H    -20.2867825  -39.723148300000005  -4.3841540000000006
H    -21.1544949  -37.859779200000006  -1.4472155000000004
H    -19.6947481  -35.911047800000006  0.20570289999999958
H    -19.7694847  -34.620715600000004  2.3025683999999997
H    -20.5805866  -35.6708056  4.374016699999999
H    -21.353587100000002  -37.999692100000004  4.4073747999999995
H    -21.682024900000002  -40.24868240000001  2.6861912999999995
H    -21.2452204  -40.81110700000001  0.2733350999999996
