39

C    19.995  33.686  15.983999999999998
C    18.4872866  33.805331100000004  15.7570424
C    17.7136163  32.5763368  16.200523399999998
C    18.3267512  31.318192200000002  16.343014399999998
C    19.8208261  31.1551157  16.1030673
C    20.514206  32.3564291  15.441389999999998
C    16.3433098  32.6953021  16.4525191
C    15.5827204  31.6075579  16.8516567
C    16.1804466  30.3569396  17.007312799999998
C    17.55498  30.2017564  16.744901
C    18.1725153  28.7821082  16.9105755
O    17.7693804  27.8773628  16.128342699999997
O    18.9968769  28.6025828  17.825252799999998
N    15.3513373  29.242948900000002  17.3739053
S    14.7226047  28.927295400000002  18.886632799999997
C    16.0903388  28.5849194  20.003532999999997
O    13.9198016  27.7238979  18.7382635
O    13.9974142  30.103316  19.3306394
C    16.6748953  29.6262633  20.7177923
C    17.7519486  29.3565377  21.5647971
C    18.2373206  28.0541889  21.684839099999998
C    17.6463721  27.017803  20.9613334
C    16.5687428  27.282491800000003  20.1143319
H    20.2008443  33.7345682  17.0552246
H    20.508088400000002  34.5134098  15.495047799999998
H    18.296045200000002  33.945248  14.689207499999998
H    18.0948264  34.676253700000004  16.2817683
H    19.9782072  30.2498212  15.510037099999998
H    20.2706566  30.954537600000002  17.081694199999998
H    21.5887135  32.2711855  15.5998436
H    20.3251063  32.317636300000004  14.3660502
H    15.8662154  33.6561641  16.3363329
H    14.530795600000001  31.701793000000002  17.0702934
H    15.7669622  28.381637  17.0331629
H    16.2742086  30.6199276  20.5990276
H    18.2072055  30.162205  22.115863599999997
H    19.0726823  27.847685300000002  22.3328207
H    18.0197759  26.0106864  21.0422468
H    16.0887693  26.5052586  19.5414224
