203

N    12.386000000000001  14.725  18.828
C    13.4858543  14.2863864  17.9262257
C    14.8388752  14.586033  18.5997188
O    15.0532651  15.7068933  19.0560291
C    13.4215984  15.0948157  16.6272668
C    14.4686176  14.6765447  15.5875912
C    14.0417228  13.3813801  14.8991744
C    14.624783  15.7928705  14.5544192
N    15.7179419  13.5875968  18.6802445
C    17.0207773  13.79852  19.301757000000002
C    17.9140879  14.6445128  18.3850379
O    17.581557699999998  14.9099931  17.2377919
C    17.5614981  12.378578300000001  19.478786
C    17.0040769  11.673821  18.2486107
C    15.5883862  12.2327008  18.147076300000002
N    19.0534474  15.0842886  18.9359696
C    19.9648464  15.925984  18.178027
C    20.4818055  15.1803498  16.9386623
O    21.0283097  14.0824113  17.0567299
C    21.1623056  16.3647563  19.0160698
C    22.1643439  17.1246735  18.1567325
C    23.2924144  17.791734599999998  18.974622
O    23.5582979  17.3274282  20.100787
O    23.8637837  18.7645861  18.4370452
N    20.297621  15.7731119  15.7576243
C    20.7556608  15.1740002  14.5028246
C    22.2768571  15.0546938  14.445725900000001
O    23.0101004  15.8044633  15.0815213
C    20.2506875  16.1426372  13.424450100000001
C    19.0442918  16.7870425  14.0853713
C    19.5449512  16.9951677  15.503978700000001
N    22.7434366  14.0798656  13.653109200000001
C    24.1688549  13.8674699  13.4810193
C    24.739439700000002  14.9868395  12.6060286
O    24.0295692  15.5462952  11.768873600000001
C    24.4351794  12.5302279  12.785622400000001
C    23.9287152  11.2834986  13.520169300000001
C    24.143363100000002  10.0602974  12.6269542
C    24.6486168  11.1082321  14.8525422
N    26.0156677  15.3243428  12.7998321
C    26.6299648  16.3568866  11.975397300000001
C    26.8725339  15.772375199999999  10.576078800000001
O    26.7398207  14.5802  10.351613200000001
C    27.9291908  16.681404  12.714432
C    28.2888711  15.3431575  13.3383035
C    26.934251  14.8355053  13.8202146
N    27.255227  16.651504  9.636811900000001
C    27.5192741  16.1976307  8.281666600000001
C    28.701504  15.2247174  8.274029200000001
O    28.737521100000002  14.256825  7.529834900000001
C    27.8030629  17.3825974  7.355015700000001
C    26.5273292  18.0569214  6.839429200000001
C    25.8192155  17.198297  5.8032676
O    25.4480373  16.0526563  6.0425909
N    25.6161267  17.7765969  4.614412900000001
N    29.7239531  15.5618492  9.0770373
C    30.9038817  14.734251  9.160193
C    30.8013877  13.658545  10.240583700000002
O    29.7614777  13.0555655  10.4659722
N    31.9477307  13.4089982  10.892755300000001
C    32.0411126  12.4080253  11.9425347
C    31.5303502  13.0020394  13.264527900000001
O    31.8562893  14.1275735  13.6215226
C    33.5075726  11.9741749  12.0693195
C    33.7614083  10.911189199999999  13.1407623
C    35.173966  10.3531198  13.0104991
O    35.5021433  9.6482355  12.0613878
N    36.0293036  10.6840964  13.9815203
N    30.6963402  12.2286574  13.9696496
C    30.181456400000002  12.6534557  15.2664392
C    31.378845300000002  12.7589535  16.2127009
O    32.1644057  11.8240777  16.3297178
C    29.1835265  11.616635800000001  15.787300700000001
C    28.5159273  11.9399607  17.1307875
C    27.6702418  13.2070838  17.0418121
C    27.6329157  10.7596379  17.5405433
N    31.5308909  13.9134424  16.8682269
C    32.6773647  14.1291613  17.7304784
C    32.5479568  13.3914106  19.064635
O    31.5880666  13.5627632  19.8064611
C    32.8650386  15.629363  18.032915
O    32.7082701  16.3920639  16.8594567
C    34.2324353  15.8644707  18.6650363
N    33.5391963  12.5394491  19.339583700000002
C    33.5836683  11.8192191  20.5949834
C    34.0486879  12.7759659  21.704513900000002
O    34.410895  13.9187477  21.4347776
C    34.5174008  10.6255895  20.465187200000003
N    33.9577458  12.3080179  22.951049400000002
C    34.439841799999996  13.082227  24.075436
C    36.0082015  13.020208  24.0720813
O    36.514370299999996  12.1417671  23.351594300000002
C    33.9157471  12.5304697  25.403454500000002
C    32.4451672  12.7493184  25.6723609
C    31.463191600000002  12.3319811  24.7770016
C    32.026729700000004  13.3484222  26.855981200000002
C    30.1163504  12.504972500000001  25.0484806
C    30.6822753  13.5254587  27.1415469
C    29.7140658  13.1036333  26.238851099999998
O    28.384117  13.2547996  26.494971200000002
O    36.6186175  13.8257877  24.7952053
H    11.4945032  14.7614776  18.3174154
H    12.620098  15.6714901  19.1675847
H    12.2900281  14.1064125  19.6420762
H    13.3696959  13.2226861  17.727827400000002
H    13.5934166  16.1443112  16.8765918
H    12.434491  14.9959488  16.1738946
H    15.4389143  14.5425418  16.0765266
H    14.8362249  13.021417  14.249519000000001
H    13.1645504  13.5631345  14.281244300000001
H    13.8024558  12.5922157  15.604800000000001
H    15.0197629  16.6924329  15.0208749
H    13.6695093  16.0271588  14.089998300000001
H    15.3189851  15.4912298  13.773901500000001
H    16.8971507  14.3450356  20.2414618
H    17.1651114  11.9392829  20.3935962
H    18.648686  12.3569979  19.5153796
H    17.0192621  10.5910707  18.3406776
H    17.5887664  11.960604700000001  17.3734164
H    15.2524894  12.242632799999999  17.113152200000002
H    14.9052983  11.6540148  18.7743582
H    19.3568886  14.7677203  19.8436106
H    19.4144314  16.8210267  17.886239800000002
H    21.670481000000002  15.4955147  19.4401622
H    20.839847  17.0049945  19.8391187
H    21.6773408  17.9266043  17.5954537
H    22.65068  16.4661031  17.4315783
H    20.3153569  14.1745839  14.415207200000001
H    20.018903  15.6253425  12.496893100000001
H    21.024354600000002  16.8864864  13.225421
H    18.2034932  16.0945488  14.098558
H    18.7488879  17.7171327  13.607897300000001
H    20.205567600000002  17.8643  15.581049
H    18.7098972  17.0901517  16.1939102
H    22.127794  13.6197325  13.0001168
H    24.6181239  13.9235376  14.4762727
H    25.510097000000002  12.441146400000001  12.6151605
H    23.9707022  12.5854492  11.796555300000001
H    22.8590893  11.3968863  13.720022700000001
H    23.7841406  9.1630751  13.1231191
H    25.201068  9.937272400000001  12.407872300000001
H    23.612092  10.1758055  11.686037500000001
H    24.4188976  11.925604700000001  15.533102900000001
H    25.7247036  11.0741015  14.6947048
H    24.341463  10.181059900000001  15.3298114
H    25.9451022  17.2068159  11.891099500000001
H    27.7319729  17.4170041  13.4945579
H    28.7031828  17.0617461  12.0528506
H    29.0144835  15.4445326  14.141161400000001
H    28.6855164  14.6637723  12.580653900000001
H    26.9044459  13.7488051  13.8833971
H    26.6637184  15.2680433  14.790422900000001
H    27.2444277  17.6425908  9.826846100000001
H    26.6589678  15.6297768  7.904487900000001
H    28.3792948  17.0134355  6.5044053
H    28.4149497  18.1112832  7.888206100000001
H    26.7801152  19.0244356  6.4096779
H    25.8335788  18.2063581  7.668674900000001
H    25.1540954  17.2481087  3.8914425
H    25.932782500000002  18.7096086  4.4156686
H    29.5785876  16.2518121  9.7976284
H    31.7739784  15.370669  9.318911
H    30.985937200000002  14.2112664  8.2013542
H    32.7402207  14.0236217  10.786330800000002
H    31.401778800000002  11.5694382  11.650510700000002
H    34.1018633  12.8607362  12.3021493
H    33.8340619  11.576946  11.106083400000001
H    33.0791912  10.0739896  12.978976900000001
H    33.5869643  11.312506299999999  14.1398709
H    36.9677181  10.3178789  13.953365600000001
H    35.733376899999996  11.2205533  14.7777816
H    30.5086298  11.2810852  13.6811793
H    29.7178601  13.6342619  15.143494
H    29.723767600000002  10.6723915  15.8927049
H    28.404737  11.4902093  15.0318751
H    29.2939286  12.088261  17.8891299
H    27.194  13.409821  17.9988642
H    26.8880105  13.0889916  16.2961759
H    28.2695997  14.0761279  16.787374200000002
H    28.2234722  9.8517612  17.6298485
H    26.8498686  10.6015312  16.8044319
H    27.1654841  10.961428999999999  18.5006357
H    30.8869285  14.6815925  16.7620549
H    33.5529766  13.7424183  17.1948094
H    32.0645689  15.9487926  18.708475200000002
H    33.4849118  16.2703125  16.2933634
H    34.3664648  16.9264617  18.8524765
H    35.0209041  15.5203203  17.9999349
H    34.3146934  15.3380471  19.613839900000002
H    34.3852701  12.5445832  18.7917218
H    32.5572244  11.513613  20.8275343
H    34.4521395  9.9906977  21.342984700000002
H    35.5463259  10.9691993  20.380785
H    34.2476447  10.0444848  19.5873324
H    33.902665400000004  11.3106545  23.0944493
H    34.1435884  14.1252633  23.9276454
H    34.5072773  13.0051558  26.1899186
H    34.1388986  11.458279300000001  25.4253102
H    31.7465129  11.877035  23.8417913
H    32.7674119  13.6858733  27.5661973
H    29.3655927  12.1868969  24.3426987
H    30.3921439  13.9952993  28.0697066
H    28.2562069  13.6826785  27.3555019
