30

N    -1.686  49.799  22.702
C    -1.1298390999999999  48.7747922  22.0788873
N    0.05705780000000005  49.064971  21.5298731
C    0.27399510000000005  50.38757  21.8259921
C    -0.8185662999999999  50.828809899999996  22.551416
N    -0.9199259  52.1074771  23.0121721
C    0.09824100000000002  52.987418999999996  22.7457329
N    1.1921372000000001  52.5376353  22.0132461
C    1.3484744  51.250670199999995  21.526158900000002
O    2.3409183000000002  50.9074561  20.8942497
O    0.05742500000000006  54.1386706  23.1502835
C    2.271649  53.4787879  21.7279831
C    -2.0884609  52.5296356  23.776672400000002
C    -3.2136082999999998  53.096620599999994  22.8943473
C    -2.8833953999999995  54.483981299999996  22.353207700000002
C    -3.6007529  52.1508009  21.7588359
H    -1.5938879  47.811258099999996  22.027340300000002
H    0.6816744000000001  48.4732414  21.0045693
H    2.0142875  54.4325133  22.1793054
H    2.3829172000000005  53.577718499999996  20.6494582
H    3.2005657999999997  53.091899  22.1435103
H    -1.7566868999999998  53.2891371  24.485875
H    -2.4441958  51.6417019  24.2988501
H    -4.0770009  53.1962104  23.5617479
H    -3.7486311  54.901661  21.844314100000002
H    -2.0592287999999996  54.441471199999995  21.643794200000002
H    -2.5932085000000002  55.155048099999995  23.1575584
H    -3.7744153999999996  51.147934  22.138019200000002
H    -2.8118157000000004  52.104306799999996  21.010065
H    -4.5049083  52.5081103  21.2740221
