31

C    23.856  -5.288  8.967
N    24.3106161  -4.9194905  7.765515300000001
C    25.4104142  -4.174513500000001  7.649665700000001
C    26.1353806  -3.7426025000000003  8.7652307
C    25.680114  -4.1130734  10.0254206
C    24.5187059  -4.9016545  10.1358043
C    22.610634  -6.1308454  8.989412100000001
C    25.840957  -3.7960968000000004  6.247080500000001
C    26.7615672  -4.8457974  5.5964214000000005
C    27.4987985  -4.346888300000001  4.343169300000001
N    28.8080029  -3.8246416000000005  4.800303600000001
O    29.9014684  -4.6203411  4.474602600000001
C    28.9152189  -2.3796605000000004  4.7029218
O    30.138673400000002  -1.9534359000000001  5.1447248000000005
H    27.0164404  -3.1307384000000003  8.662466400000001
H    26.2018484  -3.8008194000000004  10.9172495
H    24.1477189  -5.1967935  11.103991200000001
H    22.310086  -6.3456116  10.010431200000001
H    22.7902463  -7.0643349  8.4616205
H    21.805781  -5.610011200000001  8.476428900000002
H    26.3430515  -2.8301696000000005  6.315946700000001
H    24.9445063  -3.6825534  5.639792000000001
H    26.1310225  -5.694678700000001  5.326184000000001
H    27.473701900000002  -5.227185700000001  6.330085200000001
H    26.9404563  -3.5761279000000004  3.817656800000001
H    27.7031609  -5.1739991000000005  3.662758300000001
H    28.7702771  -3.9650841000000003  5.831232800000001
H    30.7111902  -4.068854  4.490046200000001
H    28.0847376  -1.9672311000000002  5.2927385000000005
H    28.765079  -2.0997743000000004  3.643170700000001
H    30.2244026  -0.9928149000000004  5.092935600000001
