51

C    26.961  5.275  4.748
C    26.143968899999997  6.5348793  5.0361858
C    24.6619797  6.412838200000001  4.675209400000001
O    24.085136799999997  7.412830700000001  3.8750591000000005
C    24.184815099999998  5.0247327  4.427468800000001
C    24.8519823  3.9254715000000004  4.7837094
C    24.1477175  2.5890921000000002  4.7769719
C    24.951077599999998  1.5081180000000005  4.050500800000001
C    26.3585842  1.3944400000000003  4.662904800000001
C    27.0953718  2.7588057000000004  4.5646963000000005
C    26.3195566  3.9468558000000007  5.235502800000001
C    28.556139799999997  2.6968712000000004  5.0782695
C    29.3614817  1.5573458000000002  4.4365272000000004
C    28.637793799999997  0.20869370000000043  4.580758200000001
C    27.2285895  0.3407385000000005  3.9581896000000008
C    26.7290149  -1.1143742999999997  3.8638473000000007
C    28.0115342  -1.9428085999999998  3.6288759000000006
C    29.1830358  -0.9358908999999995  3.6827013000000006
O    30.361884399999997  -1.5528574999999996  4.164314900000001
C    28.6319728  -0.2424814999999998  6.0565775
C    26.3621485  3.8630568000000003  6.776237700000001
H    27.941237899999997  5.4000402  5.205445200000001
H    27.095157999999998  5.1963578  3.6664984000000005
H    26.5873904  7.3548358  4.4647405000000004
H    26.237844799999998  6.7841545  6.092782700000001
H    24.1556674  6.585857300000001  5.6702064000000005
H    24.4079743  8.2734067  4.1686326000000005
H    23.163373  4.962425700000001  4.079485
H    23.1651614  2.69824  4.316916900000001
H    23.9995752  2.2765228000000004  5.814552900000001
H    25.035332699999998  1.7653060000000003  2.9923146000000003
H    24.436785999999998  0.5503540000000005  4.1296610000000005
H    26.2468404  1.1110466000000003  5.713328000000001
H    27.1397606  2.9920795000000004  3.4926986000000007
H    28.5585992  2.5671420000000005  6.158061600000001
H    29.0571233  3.6349244  4.847697
H    30.3464425  1.5129930000000003  4.905712800000001
H    29.500543399999998  1.7717227000000004  3.3733851000000006
H    27.376727799999998  0.6938534000000003  2.9291909000000005
H    26.0210126  -1.2359900999999995  3.0465178000000006
H    26.2319972  -1.4112299999999998  4.786563300000001
H    27.996039099999997  -2.4598406999999995  2.6715902000000007
H    28.1676424  -2.6873229999999997  4.407715400000001
H    29.3689482  -0.5358454999999998  2.6745038000000005
H    31.091659999999997  -0.9244154999999998  4.097142600000001
H    28.283228599999997  0.5512488000000004  6.7068312
H    29.643784099999998  -0.5145688999999996  6.3477712
H    27.998193299999997  -1.1108479999999998  6.195799900000001
H    25.6316971  4.550389600000001  7.1969744
H    27.343573199999998  4.1357615  7.1521004
H    26.1176528  2.8609489000000004  7.114067400000001
