20

S    94.395  19.85  -0.8210000000000002
C    94.186332  18.5255246  -1.9297752000000001
C    95.124532  17.5678345  -1.7141061000000002
C    96.0231992  17.8825408  -0.6615791000000002
C    95.75699209999999  19.0772826  -0.08654540000000033
C    93.0518144  18.539759200000002  -2.8969383
C    93.13436229999999  17.4202465  -3.9363225
C    91.7561238  16.8580709  -4.2965076
C    91.75936829999999  15.320941200000002  -4.1391314
O    91.1572879  14.8391902  -3.1565005
O    92.38315829999999  14.655331900000002  -4.9923003
H    95.1983513  16.650706800000002  -2.2691088
H    96.8258053  17.2344793  -0.35961430000000005
H    96.2612166  19.5685983  0.7198830999999997
H    92.99631749999999  19.5126163  -3.3916006000000003
H    92.12847579999999  18.4210728  -2.3188196000000003
H    93.71558759999999  16.585055  -3.5452944000000004
H    93.64629169999999  17.7691945  -4.833140800000001
H    91.4915118  17.0856621  -5.3308428
H    90.9768617  17.246828400000002  -3.6393016000000005
