26

C    94.991  18.58  -1.63
C    94.1861921  19.669000999999998  -1.3042359999999997
C    94.103444  20.1352915  -0.004256199999999932
C    94.8383529  19.5202313  0.9943908000000001
C    95.6520824  18.4428026  0.6814919000000002
C    95.72578229999999  17.972868899999998  -0.6201355999999998
C    95.07338419999999  18.0813602  -3.0442117
C    93.9586473  17.094308899999998  -3.4075859
C    92.5408776  17.6531061  -3.2583072
C    91.5411884  16.8423834  -4.089177899999999
C    91.7031463  15.3178963  -3.8711518999999996
O    91.30549859999999  14.8321727  -2.7914383
O    92.2209706  14.6564971  -4.7969167
H    93.6233621  20.1600762  -2.0843263999999997
H    93.4683334  20.9772981  0.2258490000000002
H    94.7833405  19.878868999999998  2.0110003000000005
H    96.230491  17.9615591  1.4563817000000001
H    96.3562644  17.127464  -0.8555454999999998
H    96.0315164  17.5823554  -3.2013816999999998
H    95.011789  18.9294474  -3.7304703999999997
H    94.0376971  16.1909734  -2.7952171
H    94.0974833  16.7776934  -4.445421
H    92.50948819999999  18.690492  -3.5994352
H    92.243528  17.620552999999997  -2.2081858999999997
H    91.6962617  17.030459699999998  -5.1542066
H    90.5192253  17.1139127  -3.8157897999999997
