45

Cl    30.779  5.130000000000001  47.629
C    32.0659979  6.070968000000001  48.2923793
C    32.8705478  6.7747716  47.4039302
C    33.9307933  7.5223872  47.8761708
C    34.2015929  7.5678352  49.2385459
Cl    35.541245  8.5287825  49.7714147
C    33.396104  6.870225400000001  50.1320529
C    32.3226322  6.1284855  49.6555007
S    31.3544661  5.1792085  50.85544
O    31.8784205  5.5165378  52.1580551
O    31.4482446  3.7764672  50.4941076
N    29.7553495  5.5748223  50.7436409
C    29.2557945  6.833702300000001  51.1546422
C    29.225313200000002  7.884793  50.2489506
C    28.7824204  7.0128901  52.4476899
C    28.2857894  8.2519441  52.8205175
C    28.2609578  9.3209458  51.921804
O    27.7918388  10.5395675  52.2871233
C    28.7386291  9.1329475  50.6120637
C    28.7501428  10.2220886  49.6144032
C    29.977579900000002  10.739976  49.1110355
C    31.244538900000002  10.2718441  49.5296772
C    32.4095701  10.8135294  49.0487961
C    32.378149  11.8459304  48.0975977
C    31.169916100000002  12.3270594  47.6651107
C    29.956615  11.7916466  48.1532316
C    28.7123715  12.2704138  47.6971791
C    27.5435402  11.752316  48.1771503
C    27.5496279  10.7347031  49.1473039
O    26.3681825  10.2472001  49.6070756
H    32.658149800000004  6.732416300000001  46.3485533
H    34.5540293  8.069555900000001  47.1875558
H    33.5666724  6.8836217  51.1963386
H    29.4068269  5.2641846  49.8460567
H    29.5805917  7.736144  49.239654
H    28.8205399  6.1939022999999995  53.1460903
H    27.9159502  8.3933177  53.8246648
H    27.4812114  10.5253992  53.204686
H    31.2901301  9.4786255  50.2634343
H    33.3591044  10.4383142  49.3970572
H    33.3019439  12.2595272  47.7245917
H    31.1225411  13.1247591  46.9389137
H    28.6947896  13.058232499999999  46.9591176
H    26.5958213  12.1267523  47.8176282
H    25.6280872  10.7291927  49.2101048
