29

C    -0.5070000000000001  10.844  10.627
C    0.30005170000000003  11.8166188  9.749259900000002
C    -0.29323830000000006  12.0260599  8.3453946
C    -1.0293430000000001  10.7529807  7.893402400000001
C    -2.2678130000000003  10.6117378  8.781473600000002
C    -3.0039992  9.2744247  8.699098200000002
O    0.4065167999999999  13.0574063  10.4122774
O    0.7844867  12.3877415  7.511213600000001
O    -1.4387343000000001  10.9030295  6.552614600000001
O    -2.0746193  8.2126412  8.7513
N    -1.9256552  10.7349223  10.2337786
C    -3.8041970000000003  9.2951152  10.004007300000001
C    -2.7649255000000004  9.7768  11.008843700000002
H    -0.44971740000000004  11.196876  11.6564454
H    -0.06145780000000012  9.849374599999999  10.561357600000001
H    1.3044954  11.3943115  9.604354800000001
H    -1.0176715  12.856249  8.371233600000002
H    -0.36687800000000004  9.8886925  8.005843200000001
H    -2.9614726  11.4041025  8.492541800000001
H    -3.6337374000000002  9.2192568  7.807018100000001
H    1.0037588  13.635426899999999  9.922029700000001
H    0.47655919999999985  12.3964293  6.593141100000001
H    -1.4811989  10.0445767  6.112252200000001
H    -2.5267182999999998  7.3712429  8.616567300000002
H    -2.2840502000000003  11.6642673  10.4865776
H    -4.1892785  8.3128143  10.2636149
H    -4.6428308000000005  9.9859994  9.9277232
H    -3.1917910000000003  10.2495539  11.887675300000001
H    -2.133203  8.9407559  11.313120600000001
