40

O    44.36  14.07  34.539
S    43.1621932  13.334194700000001  34.180597000000006
O    42.7535264  12.341139000000002  35.1579818
N    41.907453000000004  14.3656433  34.028835900000004
C    42.1760689  15.7718909  33.8091066
C    40.8594826  16.4401656  33.398166100000005
O    40.9934633  16.968515200000002  32.0981174
C    43.4181072  12.540081200000001  32.5979699
C    42.4054835  11.85773  31.9399988
Cl    40.8146185  11.805857200000002  32.5763315
C    42.6680974  11.196421800000001  30.7483645
C    43.9343849  11.210939000000002  30.215805800000002
C    44.6886309  12.555016600000002  32.0607179
C    44.968755  11.8928522  30.8613035
C    46.2847784  11.910001300000001  30.310686800000003
C    46.7387164  11.305752000000002  29.156367300000003
C    45.9760998  10.482821000000001  28.166230100000003
N    48.0534145  11.519767600000002  28.923428800000003
S    47.556920500000004  12.790615200000001  31.116035000000004
C    48.5997723  12.261619800000002  29.832664400000002
N    49.9286934  12.574114100000001  29.814680600000003
C    50.472984  13.754437900000001  30.240624200000003
O    49.8046262  14.6667363  30.694948300000004
C    51.961471700000004  13.806565200000001  30.088704500000002
H    41.2333847  14.1916589  34.7596213
H    42.885772  15.845444700000002  32.9845459
H    42.6221064  16.236761  34.692879700000006
H    40.6111741  17.2434552  34.1034956
H    40.0631386  15.687539600000001  33.419828800000005
H    40.1485846  17.3412381  31.808240400000003
H    41.8642928  10.675507600000001  30.2553206
H    44.0900618  10.6873467  29.2991099
H    45.4511539  13.0927941  32.6035356
H    46.680906  10.187400100000001  27.391696700000004
H    45.1867595  11.065376  27.7007961
H    45.5809888  9.5820261  28.626214700000002
H    50.5082109  11.952554200000002  29.261175100000003
H    52.3282192  14.747244  30.488001000000004
H    52.233742  13.732441600000001  29.0389565
H    52.4172946  12.9800336  30.6271653
