77

C    -40.671  20.393  -12.038000000000002
C    -40.7066912  21.729226600000004  -12.416080400000002
C    -41.8043275  22.2850892  -13.091678800000002
C    -42.9033052  21.439414400000004  -13.383572100000002
C    -42.8436093  20.088406000000003  -13.006639500000002
C    -41.7464433  19.564416  -12.338506900000002
C    -41.71459  23.7617392  -13.462505500000002
C    -41.0714348  23.966841800000005  -14.849020100000002
C    -41.1105477  25.405291300000002  -15.393228600000002
C    -42.5219345  25.9570013  -15.608588300000001
C    -42.6008614  27.166704900000003  -16.548714
C    -43.8796204  27.949857700000003  -16.2458455
C    -44.1065438  29.172009400000004  -17.1417876
C    -43.6120867  30.466940800000003  -16.4964188
C    -43.8613108  31.708916700000003  -17.3653136
C    -43.1920794  31.621639700000003  -18.726259300000002
N    -44.0336289  31.323294200000003  -19.7434265
C    -43.6767284  31.1825341  -21.156166400000004
O    -41.9895055  31.811352300000003  -18.8920083
C    -44.8661458  31.646925000000003  -22.020911700000003
C    -43.3349063  29.711526900000003  -21.4537435
N    -42.262231  29.232238100000004  -20.8212778
C    -44.5091158  32.112538900000004  -23.452304
C    -44.903893599999996  31.1694774  -24.6084998
C    -45.2690253  31.916083300000004  -25.9062275
N    -44.2471824  31.725619500000004  -26.9666985
C    -44.1765384  21.8944532  -14.101910400000001
N    -45.4259751  21.3749484  -13.501441000000002
C    -46.1649416  22.067604600000003  -12.611632400000001
N    -45.6852536  23.183740600000004  -12.044826500000003
N    -47.394958  21.675876400000003  -12.297830400000002
O    -41.8974617  27.899400300000003  -21.0435231
O    -43.9889954  28.996682300000003  -22.2087347
H    -39.8100773  20.003388800000003  -11.515995400000001
H    -39.8654205  22.365019900000004  -12.182686000000002
H    -43.6714589  19.438364500000002  -13.238487700000002
H    -41.7257239  18.5227  -12.057821700000002
H    -41.1121495  24.275575300000003  -12.712966800000002
H    -42.7037351  24.2176645  -13.471119100000003
H    -41.5800443  23.316660700000003  -15.565786100000002
H    -40.0298475  23.6421838  -14.802724900000001
H    -40.5808914  25.402850000000004  -16.3491287
H    -40.5609215  26.067642700000004  -14.720327600000001
H    -42.930868  26.251528800000003  -14.640236500000002
H    -43.1556332  25.164820100000004  -16.0136976
H    -42.5872463  26.8414378  -17.5893091
H    -41.7330943  27.812451400000004  -16.390766900000003
H    -43.8618743  28.2722319  -15.203533500000002
H    -44.7231267  27.2657452  -16.363648100000002
H    -45.174756099999996  29.2762166  -17.3447503
H    -43.5989566  29.020957600000003  -18.096603
H    -42.5396632  30.3865219  -16.3026574
H    -44.1166187  30.615530500000002  -15.541037200000002
H    -43.4416252  32.577277300000006  -16.855132400000002
H    -44.9341928  31.858338000000003  -17.487925800000003
H    -44.9901185  31.095715500000004  -19.5155323
H    -42.7827499  31.793224100000003  -21.318791700000002
H    -45.3293326  32.4794641  -21.4927689
H    -45.5846461  30.8275304  -22.0666091
H    -41.6423003  29.732602400000005  -20.200604100000003
H    -43.4400153  32.325131500000005  -23.4931033
H    -45.0278824  33.0600492  -23.603468000000003
H    -45.7670304  30.589352400000003  -24.284337200000003
H    -44.104420499999996  30.4519565  -24.783263500000004
H    -45.3721931  32.982045500000005  -25.708399500000002
H    -46.2207671  31.547650700000002  -26.285476900000003
H    -44.5102053  32.2388387  -27.815353800000004
H    -44.1591847  30.7292002  -27.1981963
H    -43.3332639  32.0666589  -26.6462758
H    -44.1371583  21.513933900000005  -15.124519700000002
H    -44.2303992  22.980435600000003  -14.154131800000002
H    -45.8069852  20.526827600000004  -13.886083300000003
H    -46.230421  23.667424500000003  -11.352121300000002
H    -44.7059173  23.4011166  -12.105071700000002
H    -47.8163203  20.873827100000003  -12.734347900000003
H    -47.9249974  22.165100200000005  -11.597183100000002
H    -42.5607621  27.570009900000002  -21.6894329
