40

C    12.93  30.870999999999995  73.555
C    12.9112756  29.619197399999997  72.91894050000002
C    11.696234  28.9160944  72.88244750000001
C    10.5515825  29.449280699999996  73.45419070000001
C    10.5590251  30.699174899999996  74.09680870000001
C    11.7800952  31.394063699999997  74.1313295
C    6.9289368  31.824857699999995  75.15591400000001
C    7.806496999999999  32.411817299999996  76.04817450000002
C    9.1605077  32.0764898  75.77409850000001
C    9.328889  31.247286999999996  74.68850980000002
S    7.769665399999999  30.865979799999998  73.99778280000001
C    14.080617499999999  29.072107199999998  72.31753640000001
N    15.0184007  28.624469199999997  71.82107600000002
C    5.4383242  31.951768799999996  75.12754960000001
O    4.8076107  31.230478899999998  74.33050500000002
O    4.931892899999999  32.7982259  75.91142750000002
N    7.3824134  33.233548899999995  77.10627290000001
S    8.3170938  34.496842599999994  77.70077650000002
C    7.824945  36.4619818  75.74103070000001
C    8.7738518  35.690680799999996  76.41791570000001
C    10.1322151  35.831730799999995  76.15959890000002
C    10.5766653  36.737287099999996  75.20434770000001
C    9.649573199999999  37.505692999999994  74.50997630000002
C    8.295594399999999  37.3682277  74.78178140000001
C    6.3540177  36.3476498  76.00479410000001
O    9.5264112  33.902006699999994  78.24055550000001
O    7.506207699999999  35.16717319999999  78.69894800000002
H    13.8493114  31.434584499999996  73.59355090000001
H    11.6529384  27.951703999999996  72.40047600000001
H    9.623744499999999  28.900640699999997  73.40865800000002
H    11.819165  32.360430199999996  74.60860730000002
H    9.9598704  32.436964399999994  76.39664550000002
H    6.376982999999999  33.402557099999996  77.03231200000002
H    10.8157089  35.2187888  76.72472320000001
H    11.6317218  36.8372384  75.01282190000002
H    9.9781123  38.2107354  73.76416680000001
H    7.5751726999999995  37.9682318  74.24917690000001
H    6.1744933  36.2906206  77.07759480000001
H    5.9538779  35.4302077  75.56636710000001
H    5.8187776  37.1935947  75.58606490000001
