6

C    53.439  25.127  41.056
C    53.4101606  23.7243501  40.406677699999996
O    54.406819  25.8833769  40.79196219999999
O    52.3231838  23.0979356  40.439771199999996
O    52.4773956  25.4174374  41.807108199999995
O    54.4676699  23.2993718  39.88383949999999
