48

O    -10.289  46.983  46.308
S    -9.1631903  47.622060499999996  46.9755476
O    -8.0440422  46.6918218  47.163465099999996
O    -8.7565531  48.895022499999996  46.3754175
N    -9.696852699999999  48.0820106  48.4832718
C    -10.294494199999999  47.102738699999996  49.2968972
C    -9.524355  46.3625694  50.1878299
C    -11.6760474  46.93329979999999  49.2798867
C    -12.2972784  46.031107  50.1424394
C    -13.7951818  45.839572  50.1160694
N    -14.363185399999999  45.271767499999996  51.341332699999995
C    -15.6964313  45.0303866  51.4295997
O    -16.226846899999998  44.5574132  52.424803399999995
O    -16.333502499999998  45.395863999999996  50.2935325
C    -17.783044099999998  45.380503399999995  50.066400699999996
C    -17.9656546  45.6202298  48.5639373
C    -18.4394359  46.5090016  50.861568999999996
C    -18.3526219  44.0153736  50.427557799999995
C    -13.5014176  44.9417098  52.4601781
C    -13.2454167  46.1424513  53.3765168
O    -12.434263099999999  46.0784928  54.292658599999996
N    -13.9797067  47.231818999999994  53.1500079
C    -13.8393917  48.421121299999996  53.9612592
C    -12.1969245  44.324071999999994  51.9467237
C    -11.5153061  45.286312099999996  51.018827699999996
C    -10.1366806  45.4582796  51.035619999999994
H    -8.8424459  48.4375046  48.8885772
H    -8.453503699999999  46.496783699999995  50.1950704
H    -12.249374  47.5129831  48.5734723
H    -14.040991499999999  45.168466099999996  49.2840658
H    -14.2780852  46.798066399999996  49.9004305
H    -19.0240953  45.683119899999994  48.339929299999994
H    -17.524483699999998  44.80695789999999  47.995567199999996
H    -17.4802667  46.5464704  48.2698581
H    -19.5073876  46.514103399999996  50.671490899999995
H    -18.017687  47.4664352  50.567223199999994
H    -18.2709509  46.3586721  51.926573
H    -19.403657  43.9748197  50.1575826
H    -18.251269399999998  43.8270037  51.4941344
H    -17.816915299999998  43.2369335  49.888177899999995
H    -14.044262799999998  44.2098897  53.0735354
H    -14.6213441  47.2596346  52.3748959
H    -14.8049955  48.699980399999994  54.383665199999996
H    -13.4487917  49.2431164  53.3593653
H    -13.1361011  48.192622799999995  54.7624098
H    -12.427979899999999  43.3958911  51.4210022
H    -11.5577806  44.0993419  52.799811
H    -9.5403361  44.881518899999996  51.725214199999996
