75

N    21.143  28.798000000000002  14.010000000000002
C    20.5544227  27.6594432  14.4278408
C    19.2012898  27.4304727  14.1227585
C    18.5774988  26.2769179  14.5421105
C    19.288258600000002  25.3305626  15.2714791
C    20.629273400000002  25.533086  15.586947
C    21.259702500000003  26.6898253  15.168902200000002
S    18.430023600000002  23.8428887  15.8316011
O    17.298144100000002  23.553584100000002  14.943261900000001
O    19.412242000000003  22.7594205  15.9507002
N    17.823574100000002  24.1812024  17.4192897
C    18.8280228  24.5301265  18.4353368
C    18.537268100000002  23.9365345  19.8314118
C    18.3200429  22.4356482  19.6843378
C    19.7177246  24.2039803  20.7684362
C    16.5776642  24.9492133  17.471826800000002
C    15.403137000000001  24.0652742  17.965189900000002
O    14.2869144  24.8472216  18.3106766
C    15.042325900000002  22.9098418  16.9808025
N    14.150871100000002  21.9920891  17.6716377
C    14.4788329  20.7455031  18.0372629
O    15.5338156  20.1903894  17.7651093
O    13.466432800000002  20.1621163  18.7577474
C    13.505752300000001  18.7394466  18.9760645
C    12.853702400000001  18.4187829  20.3280435
O    11.453535600000002  18.5890451  20.109997800000002
C    11.173586700000001  18.125887900000002  18.8022549
O    10.335242100000002  18.9676701  18.0646664
C    11.114893600000002  19.5755622  17.0291503
C    12.226667200000001  18.5790042  16.691863
C    12.517757500000002  17.9899466  18.0604255
C    14.341280800000002  23.3269316  15.669712400000002
C    12.569459100000001  21.8169233  14.6604814
C    12.182339700000002  20.7477782  13.8640758
C    13.1426206  19.9883198  13.21335
C    14.486014500000001  20.3083955  13.3590741
C    14.8707036  21.3802402  14.151592500000001
C    13.914874700000002  22.1456568  14.817134500000002
H    20.6308469  29.4476124  13.442698100000001
H    22.1200647  28.9530724  14.177966900000001
H    18.6542657  28.1608023  13.549352200000001
H    17.5483777  26.072762400000002  14.293887600000001
H    21.1587426  24.768974  16.131715
H    22.299286100000003  26.8499899  15.402753200000001
H    18.9418315  25.618553300000002  18.4951075
H    19.759898900000003  24.0955561  18.0684089
H    17.6345514  24.4009393  20.236851
H    18.0707677  21.9856975  20.6426783
H    19.2247942  21.9637817  19.306022000000002
H    17.523459900000002  22.2138569  18.9781719
H    19.890515200000003  25.2716033  20.8766934
H    20.619349500000002  23.7422524  20.375108
H    19.5112178  23.7835913  21.748134
H    16.3544519  25.315625  16.467815
H    16.6905432  25.7930278  18.1547491
H    15.709014900000001  23.585842500000002  18.9006945
H    14.029385900000001  25.3988044  17.5572005
H    15.9620425  22.3657066  16.748225
H    13.299293000000002  22.38742  18.0470301
H    14.537259800000001  18.3969908  18.875410600000002
H    13.139553500000002  19.1083228  21.120619
H    13.073182300000001  17.3854422  20.6138745
H    10.636545700000001  17.166499  18.9016778
H    11.5338642  20.5194217  17.3895859
H    10.4323856  19.768513300000002  16.202192500000002
H    13.090788500000002  19.0676343  16.2454666
H    11.859270400000002  17.8059512  16.0201163
H    12.8383914  16.9496775  18.0052583
H    15.046704600000002  23.9241954  15.091837700000001
H    13.4584401  23.9201291  15.9115435
H    11.8151562  22.4042158  15.162835600000001
H    11.1357864  20.5135256  13.7488136
H    12.850869500000002  19.1551427  12.5929999
H    15.239694100000001  19.7244213  12.8520274
H    15.915195200000001  21.6397242  14.255603700000002
