83

C    6.436  -3.4429999999999996  47.633
C    5.2107797  -3.2176013999999995  48.238356200000005
C    6.2891306  -3.1296204999999997  50.375838400000006
C    14.7370404  -6.6806101  50.379303900000004
C    14.963809399999999  -6.5151766  49.01479440000001
C    15.8705471  -8.747643799999999  48.8972393
C    15.638321300000001  -8.887830300000001  50.2533055
C    15.0763438  -7.8701112  51.0001638
C    11.3702426  -3.1592795999999996  47.429685000000006
C    8.9164578  -3.7887348  47.693479100000005
C    14.0987761  -4.2157225  48.82451270000001
C    10.0997398  -3.0135851999999996  48.28880710000001
C    9.9855727  -0.8601492999999998  49.487917100000004
C    4.85043  3.0149839  50.9699158
C    4.9887508  0.5889841000000002  45.323281300000005
C    4.1640706  1.8657631000000001  50.249747000000006
C    4.0307096  0.751306  46.492860500000006
C    4.2998940999999995  2.0478652999999998  47.254872000000006
C    5.1395804  1.102014  49.35373920000001
C    6.6207513  2.3800982  47.83115850000001
C    8.3383225  0.8433753000000004  48.717335600000006
C    9.4739139  0.5427029000000001  49.45775270000001
C    10.0815389  1.5489034000000004  50.210091000000006
C    7.8088791  2.1248359  48.71216210000001
C    8.442515199999999  3.1345226999999998  49.42924910000001
C    9.569083  2.8375336000000004  50.18569910000001
F    15.9748389  -10.0607689  50.867949100000004
C    15.528749900000001  -7.5584929  48.28237010000001
N    14.6449253  -5.3491987  48.3271171
O    13.7927172  -4.0484162  49.9930396
C    13.894822399999999  -3.1250618999999995  47.7825891
C    15.059590199999999  -2.1396010999999997  47.902182700000004
C    12.5622092  -2.4134987999999997  48.036301900000005
N    11.1165478  -2.6334356  46.065331400000005
C    7.6017497  -3.5191613  48.3901255
C    7.5131149  -3.3639164999999998  49.76983320000001
C    5.1340037  -3.0567452  49.61291620000001
N    9.7349309  -1.6123309  48.397745500000006
O    10.6145114  -1.2885856999999998  50.44863170000001
O    6.7936616  3.0241084000000003  46.794207500000006
N    5.4293081  1.8586344000000001  48.15323600000001
H    6.4754925  -3.5661802  46.560938300000004
H    4.3140124  -3.1651282  47.63850420000001
H    6.2370988  -3.0067896999999997  51.447700700000006
H    14.3018143  -5.8839627  50.95744210000001
H    16.3108158  -9.5600259  48.34227200000001
H    14.9090048  -8.009380499999999  52.055839500000005
H    11.6011565  -4.22519  47.36161430000001
H    9.1276361  -4.8579357  47.76571080000001
H    8.7676186  -3.5402869999999997  46.644074
H    10.3368888  -3.3697435999999996  49.2949071
H    4.1457144999999995  3.5443248  51.606320800000006
H    5.2593719  3.7259962  50.25371560000001
H    5.6651843  2.6485978  51.59040780000001
H    4.8412505999999995  -0.3716604999999997  44.836187100000004
H    6.0193771  0.6598737000000003  45.662373200000005
H    4.8279793  1.3759844  44.59032750000001
H    3.3091321999999996  2.2357421000000004  49.6908577
H    3.7797460000000003  1.1666741000000003  50.99659090000001
H    4.1111528  -0.10399419999999981  47.1630315
H    3.0070005999999996  0.7750278000000002  46.113553200000005
H    3.4224499  2.3536873  47.8197077
H    4.5620311  2.8456702  46.5571715
H    4.7077513  0.13813090000000017  49.07353320000001
H    6.0637199  0.9216481000000001  49.902051900000004
H    7.797694399999999  0.07753810000000039  48.179998600000005
H    10.950155  1.3059369000000003  50.80278150000001
H    8.0448105  4.1377378  49.40965750000001
H    10.0462234  3.6157363  50.760194500000004
H    15.7101408  -7.4461829  47.2250701
H    14.9045886  -5.3587472  47.3483597
H    13.916768699999999  -3.5666702  46.7834963
H    14.9731271  -1.3518181999999999  47.15939730000001
H    16.0134776  -2.6421506  47.76204010000001
H    15.0618792  -1.6859200999999997  48.89119670000001
H    12.4387234  -2.3313694  49.118531000000004
H    12.6078929  -1.3957347999999998  47.6506382
H    10.4083342  -3.1894780999999996  45.571339200000004
H    11.983753  -2.6537735  45.51356020000001
H    10.8021951  -1.6563143999999999  46.123409300000006
H    8.3956578  -3.421702  50.38854380000001
H    4.1810722  -2.8771112999999997  50.0885979
H    9.116216  -1.2445180999999998  47.69195260000001
