43

P    6.793  38.171  -38.674
O    5.3101336  37.9061436  -38.7976526
O    7.107914600000001  39.3236298  -37.740455999999995
O    7.622216700000001  36.9347486  -38.430060399999995
P    8.552680500000001  38.246107  -40.9534871
O    8.767594800000001  39.1057221  -42.156692199999995
O    8.636965  36.770315599999996  -41.131825799999994
O    7.197478  38.7316456  -40.2611917
P    11.1496054  37.9938347  -40.216682999999996
O    11.5169783  36.8649068  -39.3200868
O    11.3514073  37.8341663  -41.67779049999999
O    9.6721801  38.6250133  -39.8235153
O    11.976569  39.3232297  -39.6973911
C    11.8088289  39.511116  -38.295696899999996
C    11.3676569  40.9236865  -37.884914599999995
O    12.4431434  41.5909086  -37.2474425
C    10.9741858  41.8556854  -39.035698999999994
O    10.1423403  42.874134399999996  -38.555791899999996
C    12.334207600000001  42.4128926  -39.4933309
O    12.2998917  43.7470736  -39.8993128
C    13.202163200000001  42.264588599999996  -38.232989399999994
N    14.451949500000001  41.6442554  -38.6011757
C    14.7893191  40.7299615  -39.5783601
N    16.0738742  40.5500389  -39.6805435
C    16.6390367  41.3707458  -38.731023199999996
C    17.9675035  41.636333799999996  -38.346844899999994
N    18.997905  41.112633599999995  -39.011761299999996
N    18.1747206  42.5053285  -37.334893799999996
C    17.1310512  43.104307399999996  -36.77491139999999
N    15.8479916  42.9537113  -37.0765873
C    15.6356093  42.0608448  -38.051846999999995
H    12.7744148  39.2943918  -37.8221789
H    11.0794076  38.7803483  -37.9360309
H    10.5486134  40.849471799999996  -37.165676399999995
H    10.4505318  41.2846879  -39.8171542
H    10.5661397  43.7324396  -38.7837518
H    12.704238400000001  41.7583529  -40.28679279999999
H    11.941638000000001  43.8125378  -40.798783799999995
H    13.4734462  43.2385243  -37.8032414
H    14.059575  40.1824852  -40.143901199999995
H    19.93111  41.2719276  -38.670225599999995
H    18.7990504  40.4156903  -39.708253
H    17.3491771  43.8027485  -35.982455099999996
