57

C    47.575  52.153  33.822
C    46.5177  52.622076400000005  33.0164667
C    45.2280789  52.4391241  33.4437882
C    44.923842  51.7848084  34.6844381
C    45.9766149  51.336240100000005  35.4461655
N    47.2578223  51.529912200000005  35.0152513
N    48.3861713  51.167767000000005  35.6230029
C    49.3381422  51.5802891  34.7984298
N    48.9060116  52.186800000000005  33.6891307
C    43.5183108  51.622409600000005  35.161262300000004
C    42.6419515  52.708615800000004  35.0662887
C    41.3363181  52.629861600000005  35.527847
C    40.839285000000004  51.455556300000005  36.1005172
C    41.7057353  50.3561609  36.1798628
C    43.022574  50.4371364  35.7275702
C    39.4017475  51.427967  36.6280509
C    38.4026925  50.9526452  35.5334535
C    36.9519668  50.9956442  36.095760500000004
N    36.1732375  49.9448662  35.8205349
C    39.3298937  50.481652700000005  37.8641062
N    38.4629581  51.829107  34.3331517
O    36.5556222  51.9948616  36.6873481
O    38.734278  49.4008282  37.8092312
N    39.9350802  50.9100595  38.9934345
C    39.9469815  50.033007000000005  40.1595622
C    40.5428188  52.222151000000004  39.1953464
C    36.6227364  48.5866801  35.4935746
C    35.3886247  47.7008171  35.578086400000004
C    34.2028258  48.6560877  35.5527395
C    34.7366469  49.994766600000005  36.0643764
F    35.40197  47.0025315  36.782353
H    46.7517249  53.1077691  32.0854795
H    44.4132513  52.784710100000005  32.8285385
H    45.872989000000004  50.842925  36.3983919
H    50.3762282  51.432732  35.0155514
H    42.998975200000004  53.6382682  34.6511297
H    40.7201041  53.5147512  35.4810328
H    41.3550871  49.4306173  36.610952
H    43.665300200000004  49.5749347  35.8087407
H    39.1039532  52.4267105  36.95633
H    38.6724436  49.9339643  35.2548063
H    37.9455296  51.425213500000005  33.54312
H    39.446029700000004  51.97121  34.0549674
H    38.0530112  52.7470741  34.5615843
H    39.4467336  50.5183696  40.995758
H    40.9763765  49.8025621  40.433799
H    39.4214173  49.111606300000005  39.912684
H    41.2874131  52.4269229  38.4247199
H    41.0334183  52.222915  40.1626507
H    39.7807999  53.002752900000004  39.1859081
H    37.372376100000004  48.2580943  36.219231900000004
H    37.0284339  48.542973  34.481047600000004
H    35.3512258  46.9269653  34.8091924
H    33.3929922  48.2777  36.1718689
H    33.8419448  48.7511646  34.5299161
H    34.3073572  50.8532096  35.5480758
H    34.5475263  50.1162687  37.1362868
