38

O    8.663  11.083  5.139
S    8.6057547  10.1203264  4.0582912
O    9.6441982  10.2849647  3.0574179000000004
N    8.7295379  8.6037102  4.661455200000001
C    8.6629029  7.4949875  3.7159607000000006
C    9.8601503  7.4397891  2.7598872000000005
N    11.1233041  7.153561399999999  3.4969845000000004
C    11.3813104  7.9577604  4.7339088
C    10.511942600000001  7.5831517  5.941484600000001
C    9.2191204  8.406696  6.0082714
C    7.0838666  10.1212833  3.1419957000000007
C    7.2239535  10.1751433  1.7780828000000004
C    6.094549000000001  10.1671504  0.9440581000000003
C    4.8446515  10.1323475  1.5073219000000004
C    4.6798769  10.084795699999999  2.9091512000000006
C    5.815214  10.059698  3.7658316000000003
C    5.580965600000001  9.9932954  5.1612131
C    3.4090177000000006  10.0293001  3.5292379000000005
N    3.2198621000000003  9.9550504  4.8200906
C    4.2927078000000005  9.9488591  5.6330074
H    7.7571306  7.622951499999999  3.1195001000000007
H    8.5629153  6.576054299999999  4.2921665
H    9.958582100000001  8.4059539  2.2686535000000005
H    9.6951945  6.6588857  2.0198566000000007
H    11.9059475  7.311695  2.8529180000000007
H    11.1334724  6.1602307  3.7668423000000004
H    11.2377714  9.0122062  4.4874293000000005
H    12.4277949  7.8027114  4.996242800000001
H    11.082065100000001  7.7612165  6.851950500000001
H    10.2738505  6.520061699999999  5.914507700000001
H    8.465288900000001  7.9044802  6.6218544
H    9.3978201  9.4007866  6.4145504
H    8.2146696  10.2368434  1.3613382000000005
H    6.2188981000000005  10.2012885  -0.12510849999999962
H    3.9599901  10.1389414  0.8893783000000006
H    6.4247305  10.0048698  5.833381500000001
H    2.5139405999999997  10.036496399999999  2.9215000000000004
H    4.0714698  9.899884  6.688021900000001
