48

O    -12.874  6.515  51.759
N    -13.2221686  6.4685410999999995  50.5978159
O    -13.5132612  5.390508199999999  50.0836862
C    -13.313929900000002  7.6444689  49.759532400000005
C    -13.7662761  7.379016999999999  48.4580767
C    -13.9135912  8.3742652  47.5078596
C    -13.616911900000002  9.681945599999999  47.8584806
C    -13.1814835  9.953302899999999  49.145212900000004
C    -13.005578700000001  8.9754458  50.135783700000005
C    -12.626187100000001  9.4219914  51.545856900000004
O    -12.6938498  8.6950757  52.5243187
N    -12.340377  10.744641699999999  51.6823144
C    -11.931374000000002  11.4231263  52.9021374
C    -10.490089000000001  11.022971  53.0874627
O    -10.190816  10.4130818  54.090629
N    -9.6225308  11.2400671  52.021312800000004
N    -8.3919308  10.666721599999999  52.168873500000004
C    -7.4362729000000005  10.478157099999999  51.3405882
C    -6.2586528  9.6869708  51.7769459
C    -6.041000100000001  9.3211158  53.132441
O    -6.858064000000001  9.6801465  54.137928200000005
C    -4.9138617  8.5290679  53.470366000000006
C    -4.6471128  8.1276958  54.8931841
C    -5.330915000000001  9.192919  50.828925600000005
C    -4.268118500000001  8.416262999999999  51.274016800000005
N    -4.065169600000001  8.0998389  52.545995600000005
C    -5.4382619000000005  9.4397091  49.3418736
O    -4.6884158000000005  10.578984  48.986948000000005
P    -5.285859  11.482692  47.6914729
O    -6.7062002000000005  11.8472963  48.123743100000006
O    -4.3233566  12.6479574  47.66722
O    -5.231042800000001  10.5212396  46.5095183
H    -13.9970236  6.354639499999999  48.210546900000004
H    -14.2631126  8.125688199999999  46.520006
H    -13.725455100000001  10.4855293  47.149430900000006
H    -13.0118334  10.992145599999999  49.369864400000004
H    -12.1485339  11.2714111  50.8434073
H    -12.490957700000001  11.0334469  53.7522801
H    -12.084760900000001  12.4930071  52.7781308
H    -9.8785228  11.735462  51.1713113
H    -7.4246604000000005  10.862894899999999  50.3186625
H    -7.667981200000001  10.1059103  53.7814331
H    -3.7621486000000006  7.5047003  54.921747
H    -5.509124000000001  7.5927754  55.283642400000005
H    -4.507191400000001  9.0189677  55.4994037
H    -3.552337100000001  8.0305875  50.5622148
H    -6.4717270000000005  9.5810312  48.997460600000004
H    -5.033713700000001  8.5773722  48.787975
