35

P    29.586  43.938  22.73
O    28.320584  44.70084440000001  23.0924665
O    29.8411224  42.70014580000001  23.573771800000003
O    30.801791899999998  44.8026241  22.491968900000003
O    29.2659047  43.364088200000005  21.158386300000004
C    27.9554106  43.065966200000005  20.7672814
C    27.5232684  43.92668880000001  19.5580956
O    27.1345284  43.104212000000004  18.4639403
C    26.3580791  44.878824200000004  19.864130600000003
O    26.7729969  46.221846500000005  19.931676600000003
C    25.3490495  44.68920790000001  18.703299
O    25.2315337  45.83614540000001  17.913961200000003
C    25.8790963  43.45929400000001  17.901160500000003
N    24.9838096  42.29212390000001  17.877685000000003
C    23.9588057  42.0258018  18.7504415
N    23.3211725  40.915972800000006  18.5239009
C    23.945098  40.3487628  17.441366400000003
C    23.7223716  39.12982890000001  16.7322677
N    22.749571  38.26868900000001  17.053737
N    24.533765  38.85748720000001  15.691487400000002
C    25.481822  39.7320435  15.383218200000002
N    25.77144  40.88571640000001  15.971234700000002
C    24.9957241  41.19536120000001  17.023416800000003
H    27.2936561  43.220576900000005  21.629631600000003
H    27.9199825  42.00709750000001  20.473941900000003
H    28.408279  44.502585200000006  19.2529837
H    25.8950197  44.58574050000001  20.8153612
H    27.3564357  46.326260600000005  20.6938074
H    24.351369  44.48208290000001  19.0990277
H    25.8780656  46.492860900000004  18.228048400000002
H    26.045623  43.7393963  16.8516255
H    23.7131682  42.665113000000005  19.572904200000004
H    22.6649423  37.4155555  16.528655200000003
H    22.1689197  38.469678  17.848511100000003
H    26.105527  39.47855800000001  14.539009300000002
