53

F    39.111  11.586  60.642
C    40.2999295  11.8980292  60.0472892
C    41.4826121  11.3887401  60.593643400000005
O    41.419969  10.572158400000001  61.6957741
C    42.020190299999996  11.0551613  62.910956500000005
C    41.2585099  12.2745519  63.4398195
C    41.9906994  9.904878700000001  63.9097282
C    42.6878455  11.718362800000001  59.969497000000004
C    42.7236616  12.5344441  58.8499226
C    41.5409508  13.0405052  58.316109000000004
C    40.3291374  12.7120835  58.930888100000004
C    41.5637768  13.925059000000001  57.0946262
C    41.192914099999996  13.1289736  55.8213865
C    40.9688915  13.9831407  54.545991
C    42.1837671  14.8715589  54.217185400000005
C    39.781205  14.945205600000001  54.690825600000004
C    38.4383518  14.345626200000002  55.1134584
C    39.3975624  15.6823069  53.398586800000004
C    38.143193499999995  16.4390214  53.8310809
C    37.447643  15.480524800000001  54.8165543
O    40.6837966  13.0775129  53.4408224
C    41.7161967  12.3769714  52.913090700000005
O    41.489960499999995  11.3120528  52.3520125
C    43.0656744  12.9142445  53.050297900000004
C    43.3311643  14.0563976  53.726595200000006
O    44.580528  14.474507200000001  53.9631738
H    43.0613342  11.3415168  62.7012932
H    41.7048525  12.6098303  64.37039920000001
H    40.2181226  12.0103477  63.6142947
H    41.2948413  13.0874079  62.7167351
H    42.4443147  10.220227900000001  64.8434159
H    42.535041199999995  9.0522422  63.5133937
H    40.961956199999996  9.605091700000001  64.0891419
H    43.602772099999996  11.3222649  60.382123
H    43.670704  12.766494100000001  58.391520400000005
H    39.396757099999995  13.0920878  58.542256200000004
H    42.5631485  14.3408622  56.9914415
H    40.8473627  14.7334189  57.234729200000004
H    40.2808697  12.559367  55.9981661
H    41.9862143  12.4073843  55.6100317
H    42.4484117  15.449181900000001  55.1011583
H    41.914781999999995  15.5665096  53.4197416
H    40.0684056  15.6973079  55.430387
H    38.4159887  14.052798200000002  56.1604557
H    38.2287173  13.4682682  54.501055900000004
H    39.1703743  14.951651  52.6222976
H    40.155674999999995  16.3675103  53.0270999
H    37.5044648  16.6934105  52.9876249
H    38.425546999999995  17.3631607  54.3341219
H    37.1821741  16.005006  55.734394900000005
H    36.5251018  15.083881400000001  54.3935049
H    43.8529264  12.294535300000001  52.6557868
H    44.6014094  15.3413044  54.404389200000004
