45

C    38.402  51.063  35.116
C    37.028059600000006  51.015634500000004  35.856446500000004
O    36.635234000000004  51.994875400000005  36.4577691
C    36.6041291  48.6717798  35.0493227
C    35.56925210000001  47.7909993  35.1997748
C    34.5567354  48.4421711  35.9948356
C    35.015456500000006  49.6932447  36.2995768
C    40.0490202  50.4259678  36.8859999
C    40.68058310000001  49.1059124  38.4066669
C    40.9763674  48.5505954  39.7429654
C    40.0900067  48.8093166  40.7950292
C    40.295988  48.2422836  42.043774400000004
C    42.3047339  47.1757727  41.2294596
C    42.092303300000005  47.7342996  39.9729053
C    39.562903000000006  51.566173500000005  36.027246
N    36.2861236  49.8613836  35.7266581
N    38.1972906  51.9684864  33.9628836
N    40.219277000000005  50.379612800000004  38.1789476
N    40.7788508  48.4177215  37.2896245
O    40.3710992  49.2619792  36.2976893
C    41.3937122  47.4240818  42.2484579
S    41.592745  46.6898435  43.8673334
O    41.757591600000005  45.2554224  43.7125919
O    40.46023580000001  47.084953600000006  44.688215400000004
C    43.087807700000006  47.433793900000005  44.5201223
C    40.734265  52.113941000000004  35.179986400000004
H    38.6824025  50.0782359  34.7389302
H    37.526884900000006  48.511939600000005  34.5361228
H    35.510363700000006  46.7996544  34.8006379
H    33.61820110000001  48.0196732  36.288266
H    34.5764524  50.488250400000005  36.8656414
H    39.2370085  49.4469276  40.6264284
H    39.616888200000005  48.4110504  42.8631767
H    43.1460329  46.5277935  41.4092071
H    42.7811497  47.534021  39.1686499
H    39.198474700000006  52.340709000000004  36.7071496
H    37.4683372  51.6113288  33.3313094
H    39.070276500000006  52.0712573  33.4253596
H    37.906406600000004  52.8995479  34.2982104
H    43.264096900000006  47.027801000000004  45.5083881
H    42.9105958  48.499452600000005  44.5676616
H    43.9025777  47.188376500000004  43.8530521
H    41.589141700000006  52.2785677  35.831021
H    40.4835356  53.0729495  34.7430838
H    41.035890300000005  51.394027900000005  34.424016800000004
