58

C    14.159  -2.678  11.896
C    12.991749300000002  -1.8820867  11.7682391
C    13.0346434  -0.7631676999999999  10.935999400000002
C    15.336628900000001  -2.3700854  11.2418001
C    15.4061722  -1.2359877999999997  10.411567900000001
C    14.231871000000002  -0.4516347999999999  10.2740094
N    14.559412100000001  0.5695619000000001  9.430875600000002
N    15.836249  0.5095521000000001  9.025591900000002
C    16.386231000000002  -0.5585363999999999  9.587989400000001
C    17.776488500000003  -0.9168761999999999  9.3572064
N    18.685853  -0.12454799999999988  8.6864187
C    18.4218435  -2.0710526  9.745782000000002
C    19.7685621  -1.9961273999999998  9.305932900000002
C    19.9018957  -0.7489207  8.638241100000002
C    21.129013800000003  -0.3703677999999999  8.082812
C    22.200792500000002  -1.2430415999999997  8.1817094
C    22.0863892  -2.4970475  8.8205404
C    20.871334700000002  -2.8594839  9.391270900000002
C    23.270043100000002  -3.4474017  8.8734645
N    23.597298700000003  -4.1306847  7.558415900000002
C    24.6489127  -5.1824241  7.742582900000001
C    25.0202409  -5.8559718  6.418155100000002
C    23.7859307  -6.4483601  5.738052500000001
C    22.7290327  -5.3608033  5.557742000000001
C    22.3869458  -4.7145908  6.900300800000001
C    11.769169600000001  -2.2388982  12.5165319
C    10.733671600000001  -1.4369432999999998  13.031576800000002
N    9.8829606  -2.2963882  13.6232289
N    10.350296200000003  -3.533089  13.492861800000002
N    11.460040800000002  -3.5188667999999996  12.8437078
C    10.481072200000002  0.029719700000000238  13.0172454
O    9.878127600000001  0.4485792000000002  14.228237200000002
H    14.105769800000001  -3.5467022999999998  12.532148800000002
H    12.158333900000002  -0.15406739999999974  10.7796976
H    16.1956145  -3.0036136  11.387335400000001
H    18.4580892  0.7740955  8.295893900000001
H    17.987902400000003  -2.8955067  10.272519800000001
H    21.2406139  0.5817963000000002  7.588218500000002
H    23.1474537  -0.9456629999999999  7.758360500000001
H    20.7581282  -3.8070266  9.896219100000001
H    23.0556264  -4.233316  9.597610600000001
H    24.1645919  -2.9081227  9.185553800000001
H    23.9675103  -3.4206828  6.917260400000002
H    24.2473098  -5.927194  8.4308455
H    25.527484800000003  -4.7206177  8.1918936
H    25.750488500000003  -6.6364608  6.624923900000001
H    25.489930200000003  -5.131077899999999  5.750955100000001
H    23.381174  -7.2577219  6.3473915000000005
H    24.0604985  -6.8677542  4.7712096000000015
H    21.817500300000003  -5.7828744  5.138145600000001
H    23.094885400000003  -4.6042264  4.861456300000001
H    21.652797  -3.9197797  6.7688874000000006
H    21.9741177  -5.4628521  7.578388500000001
H    9.043406500000001  -2.086113  14.141422700000001
H    9.8224826  0.26653280000000024  12.166279200000002
H    11.4403821  0.5434167000000003  12.869303100000002
H    9.744480000000001  1.4047086000000002  14.204808700000001
H    13.9702458  1.3167271  9.0997055
