39

C    8.699  25.935000000000002  7.889
C    7.9201153  26.6708337  6.978897
C    7.6909754  26.1051367  5.7225206
C    7.134947299999999  27.8942317  7.4740335
C    7.7393731  28.5740253  8.7286121
C    8.439222  27.6043549  9.6878758
C    5.0975776999999995  28.7174185  6.3277046
C    4.3859262999999995  29.4539219  5.394553999999999
C    5.060567799999999  30.2626095  4.4890435
C    6.4464131  30.3226207  4.5304216
C    7.160596099999999  29.5869898  5.475038
C    6.4972954  28.7747645  6.3967199
C    6.0697024  30.5493096  8.8661087
C    4.7661085  32.5996144  9.7600863
C    8.2253095  24.8631651  5.386139200000001
C    9.0032202  24.145436  6.284995
C    9.2403365  24.6921153  7.536937
N    8.9010669  26.4353859  9.1759349
Cl    7.8867484  24.186007  3.8194422
O    8.7056763  27.9141829  10.841275
C    6.9654976  29.686137000000002  9.4352654
O    7.206822799999999  30.136504600000002  10.701989300000001
N    6.457707399999999  31.2606003  10.9473483
C    5.767588699999999  31.5100605  9.8623276
H    7.076916799999999  26.6318293  5.008911400000001
H    6.2470181  27.3810844  7.8990417
H    8.6272804  29.1341835  8.3563376
H    4.5520157999999995  28.093508  7.020279
H    3.3088539  29.3938773  5.3714179
H    4.514163999999999  30.8376567  3.7579797
H    6.983587  30.9426525  3.8298167
H    8.238937199999999  29.6431955  5.4932321
H    5.6536916  30.5194899  7.8833385
H    4.7732233  33.1955789  10.6667144
H    3.7786893999999998  32.1665763  9.6171063
H    4.9911598  33.2302138  8.9032561
H    9.404240099999999  23.1828818  6.0182401
H    9.832795  24.1514719  8.2565474
H    9.4357989  25.8643146  9.820792
