42

S    14.66  14.666  109.556
O    21.1463604  13.696309  109.2046902
O    16.5919027  12.1091211  114.3700923
N    17.0717551  13.5662834  109.5549806
N    17.0310642  15.8267233  109.9686186
C    16.3232829  14.676568399999999  109.7097203
C    18.3374481  15.9583109  109.4699361
C    19.0950457  14.8204922  109.3341405
C    18.4645703  13.5984699  110.0335004
C    16.3862451  16.9039551  110.7094797
C    18.7541077  17.3669548  109.1641936
C    20.4515432  14.6095381  108.7496173
C    20.994695399999998  15.430876699999999  107.6031681
C    22.3686723  15.7139258  107.5290172
C    22.8838187  16.4689993  106.4792638
C    22.0472703  16.9366641  105.4689975
C    20.694499699999998  16.6344132  105.5136569
C    20.1743701  15.8887435  106.5641291
C    18.501967099999998  13.630511  111.5953553
C    17.5674717  12.8602321  112.2982169
C    17.5167908  12.8525004  113.69534
C    18.4253756  13.6249691  114.4244361
C    19.3654273  14.3778315  113.7409545
C    19.4091022  14.3848536  112.3457357
H    16.0255574  11.625445899999999  113.7529591
H    16.6208812  12.7034351  109.2988011
H    18.9743899  12.689896  109.704877
H    15.454232  16.5185047  111.1148165
H    16.1596768  17.7558911  110.0687364
H    17.0387477  17.2112922  111.5241947
H    19.738413299999998  17.3755591  108.7090391
H    18.7871017  17.944057  110.0852509
H    18.0377302  17.8330548  108.4925191
H    23.0143779  15.3476877  108.3134385
H    23.9400374  16.6861224  106.4543438
H    22.4513277  17.5236536  104.6599172
H    20.0359276  16.9745518  104.7298709
H    19.119428799999998  15.6580777  106.5871478
H    16.852137  12.2612881  111.752086
H    18.377454  13.6168289  115.500625
H    20.0768299  14.9723699  114.2914193
H    20.153413099999998  14.9768843  111.8346519
