67

C    -50.623  -0.583  -12.561
C    -49.5411273  -0.7459918  -11.5050976
N    -49.313269299999995  -2.1771525  -11.1644135
C    -50.3748842  -2.7470974000000004  -10.288668600000001
C    -50.530250699999996  -1.9286165  -9.006173200000001
C    -48.9857346  -2.9786906  -12.3808974
C    -49.848622999999996  -2.6728267  -13.6128906
N    -50.2001281  -1.2378088999999999  -13.821775200000001
C    -49.2093531  -0.4209902  -14.6019372
C    -49.889651799999996  -0.07094719999999997  -15.9009821
C    -50.8959093  0.8940037000000001  -15.924305200000001
C    -51.5775503  1.1580482  -17.0934973
C    -49.587856099999996  -0.7914468  -17.0499811
C    -50.2658018  -0.5346401  -18.217706200000002
C    -51.2607341  0.4452153  -18.246358700000002
C    -51.945295099999996  0.676242  -19.4714446
N    -53.1159925  1.3834763  -19.6079202
C    -51.546561999999994  0.19417650000000003  -20.6848939
C    -52.4961583  0.6283516  -21.601661200000002
C    -53.4680009  1.3670722  -20.9126296
N    -54.529877  1.9068927  -21.53055
C    -54.5893987  1.6825569  -22.831627400000002
N    -53.7383575  0.9870848000000001  -23.5745723
C    -52.671745699999995  0.44294180000000005  -22.9708797
N    -51.785999  -0.29679409999999995  -23.6558461
C    -52.120934399999996  -0.8078835  -24.965218200000002
C    -51.245497099999994  -2.0098107  -25.3202797
C    -52.016678  0.31329460000000003  -25.9808801
C    -51.4408475  1.531666  -25.6286493
C    -51.3687861  2.5745465999999997  -26.536178200000002
C    -51.8653792  2.388286  -27.816212200000002
C    -52.434573099999994  1.173564  -28.1785588
C    -52.523630999999995  0.13785540000000002  -27.263825
H    -50.8061185  0.47471430000000003  -12.7403429
H    -51.5585281  -1.0335162  -12.2253977
H    -49.810639699999996  -0.19399769999999997  -10.6083095
H    -48.5984293  -0.3388602  -11.8781937
H    -48.4701331  -2.195614  -10.5780352
H    -50.084195799999996  -3.7657363999999998  -10.0327629
H    -51.3212731  -2.7864554999999998  -10.8257876
H    -51.1014767  -2.5118101  -8.2884154
H    -51.0748798  -1.0029279999999998  -9.158418000000001
H    -49.5678969  -1.7149063  -8.5490359
H    -49.0729718  -4.0401329  -12.156753
H    -47.9405918  -2.7695046999999997  -12.620844900000002
H    -50.7930937  -3.2142092  -13.5183444
H    -49.341681099999995  -3.0527149  -14.4975162
H    -51.0315817  -1.2571751  -14.426443
H    -48.3053185  -0.9967847  -14.7880167
H    -48.951493299999996  0.4822257  -14.0524171
H    -51.130935799999996  1.4652985  -15.039964000000001
H    -52.334496699999995  1.9243487  -17.1160998
H    -48.8146455  -1.5432929  -17.0391132
H    -50.0419449  -1.1061147  -19.1001009
H    -53.6379948  1.8318599  -18.8740494
H    -50.6588218  -0.35787769999999997  -20.910097
H    -55.4354278  2.1086248999999997  -23.3530363
H    -51.0515477  -0.7543447999999999  -23.1409393
H    -53.175184099999996  -1.1227955  -24.947584
H    -51.5255054  -2.3920228000000003  -26.2964008
H    -51.375728599999995  -2.8006446  -24.5864834
H    -50.1996775  -1.7138928  -25.3555634
H    -51.0368085  1.6728197  -24.639032
H    -50.9279874  3.5177546  -26.2522757
H    -51.814347  3.189712  -28.5388162
H    -52.8207227  1.0438445  -29.1788084
H    -52.9872504  -0.7955451  -27.5434623
