50

C    8.222  44.029  50.023
C    10.956998200000001  46.746530400000005  52.133088
C    5.3095534  45.99634280000001  51.9583618
C    4.4098475  46.458332500000004  53.0974323
C    2.9609663  46.15461320000001  52.7001195
C    1.9796812  46.421096500000004  53.8385694
C    2.4095676  45.709315200000006  55.1187465
C    3.8313713  46.11620260000001  55.5033377
C    4.798525  45.73733910000001  54.3899098
C    4.5405238  41.5717045  50.1021588
C    4.2724088  40.82375210000001  48.9725822
C    5.1690297  40.79543460000001  47.9169661
C    6.3386264  41.53023340000001  47.9889243
N    1.6483208999999999  40.569844800000006  49.6592677
N    7.2892389  44.68887290000001  50.731613700000004
C    7.6238433  45.66762630000001  51.569061
O    6.6758092  46.301220900000004  52.2565398
C    8.990542699999999  46.02385530000001  51.7173961
N    9.7088709  46.93538790000001  52.4586402
N    11.1321056  45.75434010000001  51.208125
C    9.8843758  45.2798609  50.9207311
N    9.5307164  44.302479700000006  50.0756302
N    7.8197809  43.029189200000005  49.1641295
C    6.6285846  42.313592400000005  49.1185422
C    5.7093821  42.309505400000006  50.1730524
S    2.8465022  39.8310395  48.8343086
O    3.0619233  38.553552200000006  49.4874409
O    2.5178754  39.7390436  47.4218047
H    11.769095499999999  47.30725410000001  52.546605
H    5.0464322  46.49610740000001  51.0194635
H    5.2116339  44.9177358  51.8086231
H    4.5395212  47.53446770000001  53.2418432
H    2.8946429  45.1010587  52.4182587
H    2.6876782  46.750984900000006  51.82896
H    0.9817749999999998  46.09380780000001  53.5444822
H    1.9358195  47.49576470000001  54.0317075
H    2.3748441  44.62875770000001  54.965778
H    1.7190765  45.956861  55.926815
H    4.1204114  45.620464500000004  56.432117500000004
H    3.8708359999999997  47.1940329  55.672192100000004
H    5.8207652  46.0083429  54.6587279
H    4.7627422  44.6577132  54.2287934
H    3.8376858  41.56823310000001  50.9177712
H    4.9274155  40.2032414  47.0500268
H    7.0351361  41.50222900000001  47.165939200000004
H    1.0685019999999996  39.91895110000001  50.1635978
H    1.1169672999999998  41.211767800000004  49.0924325
H    11.9978012  45.434256700000006  50.8039936
H    8.546307800000001  42.73429370000001  48.5247525
H    5.9259429  42.89621880000001  51.049053
