61

S    8.743000000000002  59.974  30.423
S    16.9901257  59.0428144  19.478271499999998
N    16.4833013  60.0009772  20.774694999999998
N    8.829113000000001  60.3126593  28.7788969
C    9.1872558  59.329125  27.856458699999997
C    16.552920200000003  59.5548149  22.097919299999997
C    7.227665100000001  59.0719215  30.6934528
C    18.7633239  58.8736499  19.489851199999997
O    9.8836931  59.1630416  30.759870999999997
O    16.3869195  57.7429638  19.616608999999997
O    16.6494626  59.7958797  18.2872532
O    8.657440300000001  61.248793  31.108809299999997
C    7.302689900000001  57.7071525  30.888087399999996
C    19.324063000000002  57.6697331  19.872427199999997
O    9.376276400000002  58.1726921  28.2007722
O    17.0175278  58.4538741  22.3612075
N    9.2537707  59.7790568  26.5841179
N    16.1114311  60.4424376  23.0118783
C    6.129974500000001  57.0044064  31.128320499999997
C    20.7064476  57.5454608  19.8319959
Cl    6.212843400000001  55.2938879  31.373704599999996
Cl    21.4481039  56.0521369  20.3023314
C    6.0208596000000005  59.7444006  30.738608799999998
C    19.529651100000002  59.9348589  19.046948899999997
C    4.8566459  59.0289505  30.984130699999998
C    20.9088594  59.797724  19.0233682
C    4.905927800000001  57.656861  31.1779847
C    21.4995081  58.606905  19.417534399999997
C    16.0848346  60.1401544  24.437557799999997
C    9.9480866  59.0169395  25.554806
C    15.0434199  59.0613376  24.760528899999997
C    11.457463100000002  58.984536399999996  25.8091215
C    14.423763200000002  59.2371234  26.1447698
C    12.1668321  60.3006141  25.4825038
C    13.483799800000002  60.4415921  26.2510324
H    16.240467600000002  60.954225  20.5545844
H    8.5827477  61.2438079  28.4827597
H    8.2660062  57.2258336  30.8373623
H    18.6767973  56.8745014  20.204262699999997
H    9.2205081  60.7771614  26.4412296
H    15.603358400000001  61.253734  22.6992202
H    6.010394800000001  60.8133765  30.6056703
H    19.0399672  60.8381908  18.724945299999998
H    3.9096215  59.541039  31.0248943
H    21.5273379  60.6153325  18.6915423
H    4.007540200000001  57.0935625  31.369707299999998
H    22.571205300000003  58.4935327  19.399119799999998
H    15.861240200000001  61.0697161  24.955024899999998
H    17.077738  59.7953059  24.7315196
H    9.7129227  59.4647036  24.591162299999997
H    9.558578100000002  57.997591299999996  25.5891891
H    15.509726200000001  58.0794501  24.6795862
H    14.254853100000002  59.0997386  24.0068599
H    11.887743  58.1787829  25.214325499999998
H    11.601677700000002  58.732358  26.8627029
H    15.2287909  59.3615601  26.872867399999997
H    13.886362600000002  58.3300412  26.415409999999998
H    11.531603  61.1437795  25.757378099999997
H    12.344395700000002  60.3556053  24.4081452
H    13.994041600000001  61.3460093  25.9199372
H    13.2425017  60.5745217  27.309468699999996
