77

C    15.225  -3.554  26.741
C    16.027424699999997  -4.8260784  27.103362299999997
C    16.9455523  -4.5874804000000005  28.305052599999996
C    17.9464088  -3.4584603999999994  28.0049595
C    17.3049601  -2.3894672999999997  27.108269899999996
N    15.8471449  -2.3568941999999997  27.3686622
C    15.242982099999999  -1.0255608999999999  27.025332399999996
C    14.566859299999999  -0.9919616999999996  25.654405399999998
C    13.944086899999999  0.38620770000000026  25.4401327
C    14.2837438  -0.5341630999999998  28.126670299999997
C    12.8798502  -0.25038839999999984  27.592584099999996
N    12.886157699999998  0.6272067000000002  26.4214125
C    11.9042724  1.5726076000000002  26.2470677
C    11.0753361  1.9200540000000004  27.334861999999998
C    10.0608968  2.8393044000000005  27.2477989
C    11.639643  2.2411024  25.0363831
C    12.2811594  2.1442495000000004  23.665969699999998
N    11.5301358  3.1006977000000004  22.8806566
C    11.7741545  3.3625789000000004  21.480644199999997
C    10.5678206  3.7033072000000002  23.596112799999997
O    9.793770199999999  4.555204700000001  23.150850499999997
C    10.6126227  3.1816618  24.958648399999998
C    9.8098739  3.4888106000000003  26.053298899999998
N    8.761698599999999  4.409776000000001  25.975977299999997
C    7.475359299999999  3.9904841  26.057114399999996
N    7.163940499999999  2.8464643  26.6625144
C    6.4503571  4.768143200000001  25.4825675
Cl    6.8051789  6.2717624  24.678996799999997
C    5.1655524999999995  4.281334  25.553698299999997
N    4.8698912  3.1371142  26.1519403
C    5.885546799999999  2.4554812000000004  26.696867599999997
N    5.553233099999999  1.2939655000000003  27.296463099999997
C    6.4388817  0.5278255000000003  28.045027499999996
C    7.715298499999999  0.2439184000000002  27.5864071
C    8.5813876  -0.5155672999999998  28.351974
C    8.1777495  -1.0021399999999998  29.5805619
C    6.9025231  -0.7358504999999997  30.0408816
C    6.0230217999999995  0.021810100000000165  29.2817537
O    4.742706999999999  0.2691794000000003  29.698390399999997
C    4.2919493  -0.6710959999999997  30.6624573
H    14.200298  -3.6320653999999997  27.102311399999998
H    15.2191133  -3.4255807  25.662321799999997
H    16.6412843  -5.1328604  26.2570429
H    15.340485699999999  -5.641853599999999  27.3187762
H    17.4866156  -5.504550500000001  28.533246199999997
H    16.3493719  -4.354063999999999  29.189482799999997
H    18.8225612  -3.8631615999999993  27.500727899999998
H    18.2871289  -3.0183915999999997  28.9416366
H    17.4594766  -2.6136142999999996  26.053364199999997
H    17.7495624  -1.4205347999999995  27.326910499999997
H    15.7419641  -2.4684874  28.383566799999997
H    16.0765702  -0.3211149999999998  26.977233599999998
H    13.7752945  -1.732805  25.5736204
H    15.297430799999999  -1.1607112999999996  24.865035399999996
H    13.534810799999999  0.4006845000000002  24.438435499999997
H    14.7083571  1.1676687000000003  25.526487799999998
H    14.676352999999999  0.3805234000000003  28.568599199999998
H    14.1799202  -1.2676682999999995  28.9256732
H    12.313246099999999  0.18352630000000025  28.4045605
H    12.387038  -1.1927169999999996  27.319527899999997
H    11.213123999999999  1.4890834000000002  28.3076099
H    9.4453599  3.0605260000000003  28.102377099999998
H    12.152806499999999  1.1572371000000004  23.210561499999997
H    13.337498799999999  2.4261799  23.665142799999998
H    11.0579108  4.117453  21.161480299999997
H    11.6322757  2.4547570000000003  20.892693299999998
H    12.787975  3.7377577000000004  21.3358088
H    8.8923498  5.1245829  25.2641404
H    4.334897699999999  4.816186  25.113426599999997
H    4.5677392999999995  1.1830623000000002  27.4981254
H    8.0205637  0.6347498000000003  26.631658299999998
H    9.567632399999999  -0.7281028999999997  27.973755699999998
H    8.8470686  -1.5887768999999996  30.188768999999997
H    6.6204095999999995  -1.1119899999999996  31.0083417
H    3.2111235999999996  -0.5378441999999997  30.714568899999996
H    4.7141958  -0.4652442999999997  31.648257799999996
H    4.519109599999999  -1.6914033999999996  30.3512238
