317

N    -2.721  -5.469  24.014
C    -1.488358400000001  -6.2685326  23.8045802
C    -0.5448016000000004  -5.4992736  22.8655388
O    -0.8828099000000007  -4.4189122  22.397598000000002
C    -1.840964800000001  -7.627573900000001  23.1915493
C    -0.9394803000000005  -8.7574221  23.6977654
C    -1.6662060000000007  -9.631205300000001  24.7590387
O    -2.5281825000000016  -10.428557300000001  24.344783200000002
O    -1.345480900000001  -9.465608  25.9505159
N    0.6548301999999993  -6.0660545  22.6668492
C    1.640827999999999  -5.4404998  21.796515
C    1.1182181999999994  -5.3294053  20.3619185
O    1.286270899999999  -6.2197962  19.5374617
C    2.9323397999999994  -6.2551752  21.8125528
C    2.6854269999999993  -7.7795144  21.6063149
O    1.5727076999999996  -8.1428825  21.1819959
O    3.615781099999999  -8.541805  21.924058199999997
N    0.48820639999999926  -4.1841206  20.0641565
C    -0.06483670000000075  -3.9452534000000004  18.7452584
C    -0.8151065000000006  -2.6078402  18.7263892
C    -1.1593645000000006  -2.1599955000000004  17.313246200000002
O    -1.9858114000000011  -2.7145701000000004  19.487299399999998
P    -2.301107700000001  -1.1740590000000002  20.1666479
O    -3.762534200000001  -1.2258436000000004  20.5372123
O    -1.3793579000000005  -1.0730101000000003  21.3849083
O    -1.9907207000000007  -0.1360895000000002  19.086380300000002
C    1.058697399999999  -3.9194001000000003  17.7059006
O    1.5829585999999995  -2.8686046000000003  17.3353663
N    1.389270999999999  -5.101827200000001  17.1877549
C    2.458448899999999  -5.2361072  16.2143652
C    1.8815008999999994  -5.144060100000001  14.7978574
O    2.1587722999999994  -5.9486317  13.9237231
C    3.193751999999999  -6.553664400000001  16.399107
C    4.670681999999999  -6.4571835  15.916008999999999
O    5.413037499999999  -5.6987772  16.5676553
O    4.992028899999999  -7.1469326  14.9343373
N    1.0409992999999993  -4.1189160000000005  14.5891059
C    0.41310119999999895  -3.9038643000000004  13.3020209
C    1.3169229999999992  -3.0965551000000002  12.3714281
O    1.3586107999999992  -3.2902908  11.1666775
C    -0.9340355000000011  -3.1946527000000002  13.4613442
C    -0.7993368000000007  -1.7830090000000003  14.005879
C    -2.1821422000000013  -1.1452796000000003  14.3134841
O    -3.060911000000001  -1.8661311000000003  14.8190569
O    -2.312899700000001  0.05325589999999991  14.001332300000001
N    2.0432047999999994  -2.1507483  12.9743618
C    2.924131799999999  -1.2734026000000003  12.2397657
C    4.295671099999999  -1.9123567000000004  12.0225803
O    5.040015899999999  -1.5668735000000003  11.1113675
C    3.085814599999999  0.0580162999999998  12.974745
C    2.935067599999999  1.2689851  12.0015935
O    1.778226899999999  1.6504801999999996  11.7629037
O    3.9799394999999995  1.7591251999999997  11.5429966
N    4.626660599999999  -2.8838241000000004  12.8783226
C    5.918093799999999  -3.5541310000000004  12.8251916
C    6.200283299999999  -4.0919999  11.4284002
O    7.210106  -3.7938841000000005  10.8032056
C    5.935784599999999  -4.6777996  13.8368049
C    7.379640899999999  -5.1355073  14.1851333
O    7.9946024  -5.7949025  13.326274
O    7.833662199999999  -4.7789964000000005  15.2843868
N    5.248148399999999  -4.8838374  10.9238
C    5.362667999999999  -5.4699824  9.6071995
C    5.025931099999999  -4.4523603000000005  8.516721800000001
O    5.423399099999999  -4.6056093  7.3650313
C    4.467738699999999  -6.7131601  9.488104700000001
C    3.0990601999999994  -6.5212494  10.0681758
N    2.5553738999999993  -7.4374627  10.9327225
C    2.189752799999999  -5.520448  9.8700958
C    1.3689579999999992  -6.9925569  11.2531031
N    1.0957448999999988  -5.8380849  10.620257800000001
N    4.252654799999999  -3.4305276000000005  8.8779648
C    3.8563887999999995  -2.3905671  7.9460739
C    5.073509  -1.7403006000000003  7.2929034
O    5.040384199999999  -1.3207207000000003  6.1480232
C    3.0360014999999994  -1.3180897000000003  8.6639696
C    2.7205401999999994  -0.0812337000000003  7.8158648
C    1.7224635999999993  -0.4001191000000004  6.7111333
C    2.197080399999999  1.0357642  8.7113313
N    6.170728199999999  -1.6565529000000003  8.0551381
C    7.386975499999999  -1.0660964000000002  7.5398354
C    8.218335199999999  -2.1078196  6.7893649
O    8.9360103  -1.8078881000000002  5.8397468
C    8.2129  -0.4218559000000002  8.6641661
C    7.414764899999999  0.7296548999999999  9.2864541
C    9.554575499999999  0.07585749999999969  8.1370234
C    8.1480667  1.4127695999999998  10.432724499999999
N    8.097116499999998  -3.3721524  7.2104029
C    8.8444016  -4.462956500000001  6.5999053
C    8.396652699999999  -4.6844467000000005  5.1559622
O    9.201097399999998  -4.8914657  4.2529549
C    8.6875659  -5.756871800000001  7.4277171
C    8.385443599999999  -6.9833497  6.6043893
C    7.115610599999999  -7.1761388  6.0731237
C    9.3496344  -7.954090900000001  6.371396300000001
C    6.827529799999999  -8.2738019  5.2903055000000005
C    9.0627788  -9.0775662  5.6179188
C    7.799363199999999  -9.2380954  5.0597497
O    7.535176099999999  -10.3399884  4.3133083
N    7.084167899999999  -4.6581964000000005  4.9405258
C    6.562555399999999  -4.87472  3.6084999
C    6.7705025999999995  -3.6312175000000004  2.7517664
O    6.711338499999999  -3.6423523  1.5308887000000002
C    5.100073399999999  -5.3381477  3.6306748000000004
C    4.029234399999999  -4.2523073  3.4837968000000004
C    4.178999999999999  -3.1827469  4.5470137
C    3.9807058999999994  -3.6227380000000005  2.09358
N    7.017573699999999  -2.5047199000000004  3.4278079999999997
C    7.215985399999999  -1.2568998000000002  2.7359980999999998
C    8.456000099999999  -1.3163031000000003  1.8481885
O    8.5277099  -0.6644923000000005  0.8131130000000004
C    7.312174199999999  -0.09363630000000045  3.7333636000000006
C    8.7253426  0.4363853999999998  3.9257134000000002
C    8.7924514  1.5110307999999995  5.031794700000001
O    7.7305093  2.0498927  5.3984071
O    9.927495699999998  1.7965463000000002  5.472447600000001
N    9.432478499999998  -2.1289977  2.2669612
C    10.685952  -2.2577486  1.5540751000000004
C    10.604635199999999  -3.2452863  0.39443189999999984
O    11.075704199999999  -2.9635480000000003  -0.7066949999999999
C    11.835932699999999  -2.6382533  2.4896891000000005
C    11.5606716  -3.8548318000000004  3.3479486000000005
C    12.863987899999998  -4.522522  3.8298017
O    13.4082498  -5.3326698  3.0534094000000005
O    13.2677974  -4.2268232  4.9724715
N    9.971709399999998  -4.3914645000000005  0.6306457999999999
C    9.839182899999999  -5.409840000000001  -0.39396069999999916
C    9.263068099999998  -4.816841500000001  -1.680568899999999
O    9.491390899999999  -5.3347412  -2.765077
C    8.9749924  -6.6076339  0.04918430000000029
C    7.702665399999999  -6.1684743  0.7693669999999999
C    9.7761806  -7.543921  0.9475293000000002
C    6.475740199999999  -6.0686392  -0.1195245000000007
N    8.4795757  -3.7483857  -1.5279948
C    7.865538899999999  -3.0767629000000003  -2.6572256000000003
C    8.927273099999999  -2.3702551000000005  -3.499096699999999
O    9.361260999999999  -2.8360043000000004  -4.5400741
C    6.815083699999999  -2.0839202000000006  -2.1573534999999993
C    6.4160474999999995  -1.0202642000000002  -3.1888137000000008
C    5.828425599999999  -1.6548646000000002  -4.442145399999999
C    5.4528954999999995  -0.01703560000000026  -2.5683454
N    9.268612699999998  -1.1647230000000002  -3.0336560000000006
C    10.164769499999998  -0.2926085000000005  -3.7469301
C    11.0595796  0.4519430999999998  -2.7725276999999995
O    11.4973137  1.5668124999999993  -3.0208318999999992
C    9.4004584  0.7231837999999997  -4.622528299999999
C    8.567141399999999  0.022833299999999834  -5.6903597999999995
C    8.5698946  1.6685881  -3.7521258999999993
N    11.3151564  -0.19283380000000028  -1.6274336999999992
C    12.125996299999999  0.41393179999999985  -0.5992777999999994
C    13.0520654  -0.6209954000000004  0.05205059999999939
O    13.267421299999999  -0.5977918000000004  1.2633311000000003
C    11.2694806  1.1066357  0.4664652
C    10.6734555  2.4323059999999996  0.006344999999999601
C    10.269837599999999  3.2969137999999996  1.1967540999999997
N    11.368667799999999  4.1326731  1.6473842999999997
C    11.4468596  4.6834346  2.8523567000000005
N    10.4567221  4.5413109  3.7360771
N    12.469328599999999  5.4829375  3.1494154000000005
N    13.6099253  -1.5026495000000002  -0.7747300999999993
C    14.4967598  -2.5444623  -0.3024863999999994
C    15.709105899999999  -1.9193392000000002  0.4551078000000004
O    16.0040087  -2.4102874000000005  1.5599311
C    15.004536799999999  -3.4221483000000004  -1.4512388999999999
C    13.860025899999998  -4.229733700000001  -2.0576200999999994
C    15.7174798  -2.5937343000000004  -2.5165503000000005
O    16.3219504  -0.9965408000000004  -0.1161758000000006
H    -3.3489495000000016  -5.9358472  24.6789618
H    -3.1912836  -5.3276922  23.109276899999998
H    -2.4717232000000013  -4.5227105000000005  24.3372242
H    -0.9933316000000012  -6.4163798  24.7683816
H    -1.7671128000000005  -7.5656308  22.1028127
H    -2.8706011  -7.898757300000001  23.435183600000002
H    -0.01935900000000057  -8.377742099999999  24.144184799999998
H    -0.6560031000000004  -9.411845  22.8703941
H    0.7257641999999995  -7.0806729  22.666503300000002
H    1.809482899999999  -4.421215  22.164908099999998
H    3.4650005999999993  -6.1250532  22.754435
H    3.5817313999999993  -5.9312868000000005  20.996358999999998
H    0.16113599999999906  -3.5645873000000003  20.7991621
H    -0.7700355000000005  -4.7481376  18.4862452
H    -0.17017830000000078  -1.8379720000000004  19.1800712
H    -1.9588487000000008  -1.4283150000000002  17.367177400000003
H    -1.501408500000001  -2.9955049000000002  16.7059062
H    -0.29628680000000074  -1.6781129000000004  16.8685318
H    1.1188708999999992  -5.9343256  17.7096245
H    3.1597776999999994  -4.397899300000001  16.357711000000002
H    2.700839399999999  -7.3450329000000005  15.8343676
H    3.221588299999999  -6.8029525  17.4623162
H    0.8489251999999992  -3.4719528000000004  15.339502
H    0.2770000999999995  -4.8971541  12.862245399999999
H    -1.5688812000000008  -3.7606970000000004  14.146042000000001
H    -1.4275429000000006  -3.1475700000000004  12.4901691
H    -0.31302310000000055  -1.1161264000000002  13.2869019
H    -0.23032750000000046  -1.7501540000000002  14.9334271
H    1.9501160999999994  -2.0055901  13.9685345
H    2.464690599999999  -1.0971153000000005  11.2608987
H    4.061090799999999  0.11450139999999953  13.464565
H    2.2968352999999992  0.15307369999999976  13.724933499999999
H    4.017248599999999  -3.1333642000000004  13.642754
H    6.711092699999999  -2.8274366000000004  13.0571193
H    5.374932199999999  -5.5465296  13.4938793
H    5.501257699999999  -4.3283369  14.776421299999999
H    4.487096899999999  -5.197591  11.5115713
H    6.409615499999999  -5.7658547  9.4648857
H    4.933473799999999  -7.5332916  10.0345465
H    4.406476699999999  -6.9832331  8.4315516
H    2.2039499999999994  -4.6402418  9.2671378
H    0.7051816999999989  -7.4856885  11.9310071
H    0.29348939999999946  -5.2370894  10.712643700000001
H    4.033429199999999  -3.2926057  9.8518214
H    3.2637361999999994  -2.8473354000000004  7.1465212000000005
H    3.630190999999999  -0.9803075000000003  9.5166604
H    2.113650199999999  -1.7650796000000002  9.0433675
H    3.651629899999999  0.2725213999999996  7.3616461
H    1.4583816999999994  0.5104572999999997  6.1827553
H    0.8230023999999991  -0.8352384000000002  7.1394779
H    2.1640878999999993  -1.0957751000000004  6.004291
H    2.951907999999999  1.3433259  9.4318265
H    1.324425399999999  0.7180534999999999  9.280846200000001
H    1.9263266999999993  1.9058814999999996  8.1202275
H    6.126343799999999  -1.8709142000000003  9.0427559
H    7.119423599999999  -0.2830662000000004  6.8174741
H    8.3838926  -1.1916071000000004  9.430997
H    6.4626320999999995  0.3489631999999996  9.6672626
H    7.191963399999999  1.4590362999999993  8.5033034
H    10.1084064  -0.7186097000000005  7.6411828
H    10.163305  0.4396409999999995  8.9582805
H    9.413098  0.8770992  7.4185967
H    7.453653699999999  2.0684325  10.953503
H    8.9871467  1.9956910999999993  10.0683784
H    8.5033882  0.6670102999999998  11.1418452
H    7.610055699999999  -3.5548866  8.0765176
H    9.904827  -4.176735900000001  6.5384538
H    7.868722399999999  -5.5962591  8.131934600000001
H    9.594263399999999  -5.9129495  8.013987
H    6.3310135999999995  -6.489181  6.3424468
H    10.3407787  -7.8231136  6.782183
H    5.8321803999999995  -8.3938792  4.8900137
H    9.814382899999998  -9.83146  5.4487787999999995
H    6.604051699999999  -10.341573  4.0366828
H    6.4498302999999995  -4.449520000000001  5.7018464
H    7.188439899999999  -5.6640102  3.1811551
H    4.944518699999999  -5.851868400000001  4.5785591
H    4.970030799999999  -6.060736200000001  2.8241503999999997
H    3.077831399999999  -4.7694117  3.653441
H    3.256237899999999  -2.6162056000000002  4.6532932
H    4.954016199999999  -2.4732927  4.3036871
H    4.408376999999999  -3.6344095000000003  5.505874
H    4.2648242  -4.3306877  1.3226594
H    4.6235629  -2.7546454000000002  2.0218108
H    2.965015399999999  -3.2835587000000004  1.8926844000000003
H    7.181572299999999  -2.5131570000000005  4.4219225
H    6.3616283  -1.1044753000000003  2.0626018999999998
H    6.905623199999999  -0.4112471000000002  4.6931367
H    6.689556799999999  0.7372198999999999  3.3970177
H    9.1008146  0.8738048999999997  2.9966102
H    9.4202157  -0.34630890000000036  4.2308181000000005
H    9.3620898  -2.5883824000000004  3.1634384000000004
H    10.9284249  -1.2901074000000003  1.1173935999999998
H    12.0739658  -1.7892350000000004  3.1341436
H    12.7291135  -2.8246596000000004  1.8913751000000003
H    11.0313473  -4.6348026  2.8087860000000004
H    10.995401399999999  -3.5750361  4.2379370000000005
H    9.6756546  -4.6094477000000005  1.571542
H    10.841575599999999  -5.7752167  -0.6586613000000003
H    8.7219409  -7.1490898000000005  -0.8688930999999993
H    7.874392599999999  -5.2125825  1.2363654000000004
H    7.496583099999999  -6.897928200000001  1.5556535
H    10.701513899999998  -7.8535458  0.46644359999999985
H    9.194032199999999  -8.4290792  1.1869405999999998
H    10.044076699999998  -7.0510851  1.8839351000000004
H    5.652179199999999  -5.6504914  0.4469342000000003
H    6.195789199999999  -7.0516133  -0.49099930000000036
H    6.668049099999999  -5.4176596  -0.9661565000000003
H    8.266790499999999  -3.4028440000000004  -0.6034878999999993
H    7.432535699999999  -3.8539835000000005  -3.3003280000000004
H    7.196705499999999  -1.5927033000000004  -1.2557296000000004
H    5.930740899999999  -2.6450761000000003  -1.8460379000000007
H    7.291771899999999  -0.46255460000000026  -3.4791095999999992
H    5.5501230999999995  -0.8857902000000002  -5.1570418
H    4.9373358  -2.2277021  -4.1902922
H    6.540125699999999  -2.3311940000000004  -4.9083948
H    5.891705599999999  0.4273174999999996  -1.6768482000000002
H    4.522973299999999  -0.4993169000000002  -2.2731510999999998
H    5.225554099999999  0.7743838999999997  -3.2763620000000007
H    8.977981799999998  -0.8932681000000002  -2.1069052999999993
H    10.784761199999998  -0.9263632000000004  -4.395085
H    10.1673242  1.3234991999999997  -5.1209104
H    7.937125499999999  0.7468151999999999  -6.1986759
H    7.952262599999999  -0.7635412000000001  -5.2872444000000005
H    9.2281178  -0.4366540000000003  -6.4234229
H    9.2161589  2.4453403  -3.347877799999999
H    8.1050496  1.1718932999999998  -2.908441399999999
H    7.794965099999999  2.1442255  -4.346427199999999
H    11.0243185  -1.1516701000000003  -1.4658251999999994
H    12.7641931  1.1622306  -1.0911103999999998
H    11.9088311  1.2448039  1.3427856
H    10.450164699999998  0.4542233999999996  0.7631905999999997
H    9.790375699999998  2.2223509999999997  -0.5956813000000007
H    11.3831607  2.9654992  -0.6275166999999993
H    9.933961  2.6412458  2.0060038000000002
H    9.4310447  3.9439298999999997  0.9189426000000003
H    12.1387383  4.2397431  1.0028508
H    10.6185911  4.810891  4.6941478
H    9.798761599999999  3.7840271999999997  3.6528402
H    13.2491756  5.565199099999999  2.5189819
H    12.5736214  5.823373699999999  4.0899569
H    13.3834907  -1.4869437000000003  -1.7579405999999995
H    13.9779159  -3.1748112  0.4357188000000001
H    15.7210953  -4.1108922  -0.9868804999999998
H    14.220274999999999  -4.8255457  -2.8915726
H    13.0533666  -3.5862738000000003  -2.3998846999999994
H    13.440194599999998  -4.8961379  -1.3046571999999994
H    16.366188  -1.8645610000000004  -2.0399060999999996
H    14.9958484  -2.0681374000000003  -3.1363453000000003
H    16.3113454  -3.2459185  -3.1504195
