241

N    -28.134  42.814  -21.139
C    -28.127790500000003  43.1906515  -19.7337082
C    -28.5945262  41.88953  -19.0478615
C    -29.3831911  41.1491941  -20.1330572
C    -28.7783866  41.675882300000005  -21.4180019
O    -28.8545515  41.1478714  -22.5217229
C    -26.759936200000002  43.7641518  -19.276925
O    -25.893889200000004  44.0547556  -20.0943562
N    -26.601959  43.9884283  -17.9569093
C    -25.3980421  44.626700400000004  -17.3869185
C    -24.2927398  43.5525917  -17.143982
O    -24.179003100000003  42.9694473  -16.0740117
C    -25.7963996  45.400667500000004  -16.104729499999998
C    -24.883248000000002  46.5368018  -15.571822
C    -23.5259889  46.04853  -15.060335199999999
C    -24.6989192  47.689375500000004  -16.5633722
N    -23.4782985  43.3269734  -18.196028599999998
C    -22.3443451  42.3998676  -18.187005499999998
C    -21.1531537  43.0625884  -18.9299343
O    -21.298340500000002  43.569041500000004  -20.0374545
C    -22.684036900000002  40.977225600000004  -18.7552271
C    -23.5862755  40.8481273  -19.9725025
C    -23.162800100000002  41.216900200000005  -21.2482951
C    -24.860207100000004  40.2973938  -19.8480403
C    -23.992406100000004  41.0898204  -22.348061899999998
C    -25.6961005  40.153725800000004  -20.9436832
C    -25.278638200000003  40.5706635  -22.202007
O    -26.086955200000002  40.495308  -23.297611099999997
N    -19.957944  43.069939500000004  -18.3057276
C    -18.763435400000002  43.7622531  -18.8285128
C    -17.936340100000002  42.836766700000005  -19.772685
O    -16.8512797  42.370146500000004  -19.4522945
C    -17.9722605  44.3222165  -17.6208311
C    -16.7467185  45.206139  -17.907825799999998
C    -16.996496200000003  46.5183881  -18.6865572
O    -18.1047115  47.0834982  -18.6114383
O    -16.0546809  46.9421538  -19.4003024
N    -18.4827443  42.62397  -20.986261199999998
C    -17.8960371  41.7453176  -22.004372699999998
C    -17.0967537  42.6088158  -23.0411382
O    -17.6662447  43.1489806  -23.981371
C    -19.0010739  40.916508400000005  -22.7074299
C    -19.4545599  39.677199300000005  -21.9231952
O    -20.2614308  39.7391765  -21.0022357
N    -18.915550000000003  38.5118841  -22.2974306
N    -15.775018800000002  42.729472300000005  -22.8216245
C    -14.864444100000002  43.496808900000005  -23.685629499999997
C    -13.672670900000002  42.580697  -24.1443413
O    -13.2099544  41.7670833  -23.3423177
C    -14.287364300000002  44.7386301  -22.9511987
C    -15.2882499  45.7711045  -22.385856699999998
C    -16.217751800000002  46.4267555  -23.420113
C    -16.9735264  47.667581600000005  -22.925739399999998
N    -17.850747400000003  47.3951397  -21.7628001
N    -13.1383454  42.704446700000005  -25.375922199999998
C    -12.060448400000002  41.8036277  -25.8559843
C    -10.657263200000001  42.132895000000005  -25.253027499999998
O    -10.1501034  43.238146900000004  -25.3828835
C    -12.118242400000002  41.9791785  -27.3867457
C    -12.674057000000001  43.3872425  -27.596645799999997
C    -13.667035700000001  43.550697400000004  -26.4485448
N    -10.0458867  41.127671500000005  -24.5877195
C    -8.824977200000001  41.2843162  -23.7870445
C    -7.711516900000001  40.2788599  -24.2392942
O    -7.928044500000001  39.0736541  -24.2867702
C    -9.121507600000001  41.0314975  -22.280148099999998
C    -10.024459900000002  42.0900784  -21.614368499999998
C    -10.3816488  41.7728388  -20.1347097
N    -9.879368200000002  42.7530671  -19.1791521
C    -10.4783582  43.8775817  -18.7849947
N    -11.668991100000001  44.2547274  -19.2434403
N    -9.848247  44.6655066  -17.9200265
N    -6.5094546000000015  40.8101676  -24.5427059
C    -5.284245700000001  40.0428986  -24.8442631
C    -4.640064700000001  39.4114883  -23.558597
O    -4.986920100000002  39.8444464  -22.461376299999998
C    -4.315354300000001  40.9634823  -25.6341702
C    -3.4338009000000014  41.954199800000005  -24.846211099999998
C    -4.1245086  43.154360600000004  -24.1807344
N    -4.567568500000001  44.1498681  -25.154732199999998
C    -5.064760100000001  45.3569193  -24.8680244
N    -5.389707900000001  45.7186401  -23.6325295
N    -5.256240400000001  46.222329800000004  -25.8585288
N    -3.695551700000001  38.4443761  -23.650057699999998
C    -3.0877411000000006  37.8244151  -22.4429361
C    -2.0388274000000006  38.7150328  -21.692132
O    -0.8343928000000016  38.6076354  -21.8912192
C    -2.4724498000000015  36.514233000000004  -22.974519
C    -2.2148625000000006  36.783156000000005  -24.4560492
C    -3.3912102000000015  37.667673  -24.8543066
N    -2.553937200000002  39.5741883  -20.790894899999998
C    -1.757837900000002  40.4833555  -19.956788
C    -1.6316286000000009  39.9139138  -18.5080485
O    -2.635993400000002  39.6197996  -17.8708784
C    -2.349446800000001  41.926505500000005  -20.0460723
C    -3.7042473000000005  42.2201679  -19.421727999999998
C    -3.7852887000000006  42.5029072  -18.0604123
C    -4.880578400000001  42.271864900000004  -20.1704754
C    -4.996810500000001  42.7792486  -17.455448699999998
C    -6.102317300000001  42.5565431  -19.576500799999998
C    -6.164756500000001  42.7902884  -18.2056819
O    -7.372216100000001  43.000432100000005  -17.5959497
N    -0.3907063000000015  39.704880700000004  -18.0070866
C    -0.14869550000000054  38.9488847  -16.7593706
C    -0.2946591000000005  39.8490265  -15.4877679
O    0.5187631999999986  40.7340323  -15.227578
C    1.187986699999998  38.1304764  -16.8475247
C    1.2872358999999989  37.1147646  -15.684815799999999
C    2.4573417999999982  38.9846736  -16.9404444
C    2.3556878999999995  36.0275222  -15.855797599999999
N    -1.3806809000000015  39.6154546  -14.7309586
C    -1.7554832000000005  40.380726700000004  -13.538087899999999
C    -1.0054607000000004  39.9546858  -12.2222391
O    -0.5213458000000006  40.8785809  -11.5389349
C    -3.2876637000000013  40.3873077  -13.315427499999998
C    -3.997870400000002  39.1146325  -12.7938805
C    -5.459614000000001  39.442958000000004  -12.455738799999999
C    -3.9556526000000005  37.9371766  -13.775399199999999
O    -0.9730589000000016  38.745904  -11.9289177
H    -27.560614  43.311775000000004  -21.8037088
H    -28.8598708  43.9969394  -19.577054099999998
H    -29.1964906  42.0840443  -18.1642765
H    -27.721460200000003  41.3014972  -18.7602683
H    -30.441512600000003  41.4135732  -20.119373799999998
H    -29.302743200000002  40.066763900000005  -20.074766699999998
H    -27.283393000000004  43.645168500000004  -17.2966828
H    -25.0296635  45.313971  -18.1553801
H    -25.9011596  44.662075200000004  -15.3063267
H    -26.774249  45.842856600000005  -16.3005623
H    -25.4277977  46.9345493  -14.7072072
H    -23.6521234  45.2239171  -14.363090799999998
H    -22.9083371  45.698778600000004  -15.88618
H    -23.0032786  46.857939200000004  -14.558409699999999
H    -24.1128202  47.371641700000005  -17.4228356
H    -25.661712700000002  48.0530397  -16.9131178
H    -24.173885900000002  48.508493  -16.0803366
H    -23.7070425  43.727738200000005  -19.0982615
H    -22.0781165  42.2638686  -17.1336676
H    -23.1501277  40.4251941  -17.938227599999998
H    -21.732905700000003  40.497222  -19.0003947
H    -22.175218700000002  41.6306031  -21.3723368
H    -25.209174400000002  39.9808964  -18.8746769
H    -23.6680829  41.395151000000006  -23.3300961
H    -26.6836213  39.730702  -20.8255872
H    -27.0175572  40.3453006  -23.0595768
H    -19.849139400000002  42.6033972  -17.417697399999998
H    -19.133241  44.5998461  -19.43247
H    -17.6307421  43.4752898  -17.0216384
H    -18.6821944  44.910564400000005  -17.0354316
H    -16.002029800000003  44.6351791  -18.4653419
H    -16.310081500000003  45.4892626  -16.9479113
H    -19.4145878  42.9814984  -21.1626092
H    -17.193846800000003  41.0884213  -21.4787858
H    -18.6291874  40.6117767  -23.6851472
H    -19.8708178  41.5568028  -22.8602036
H    -19.2073928  37.6738769  -21.820456399999998
H    -18.270721700000003  38.441235400000004  -23.06568
H    -15.345805100000002  42.2519344  -22.0409669
H    -15.461694800000002  43.8039153  -24.5468665
H    -13.619355400000002  45.2387184  -23.6540843
H    -13.686278300000001  44.3718025  -22.1187348
H    -14.7015326  46.5450941  -21.8907743
H    -15.886930000000001  45.2850223  -21.611616599999998
H    -16.9364274  45.6838023  -23.7746371
H    -15.623102600000001  46.742870100000005  -24.2776794
H    -17.5851797  48.042769500000006  -23.7458773
H    -16.2592389  48.435986  -22.6299931
H    -18.458766  48.191689600000004  -21.552932
H    -18.4295557  46.5667117  -21.9209522
H    -17.261270500000002  47.2393827  -20.9155125
H    -12.318483800000001  40.7834394  -25.5532653
H    -12.7958683  41.2350508  -27.8039995
H    -11.136908100000001  41.852045700000005  -27.837645
H    -13.1439157  43.5059996  -28.568058100000002
H    -11.8676694  44.1123708  -27.4930865
H    -13.740640800000001  44.5855438  -26.1156093
H    -14.661080100000001  43.1931913  -26.7352105
H    -10.507032400000002  40.2346957  -24.4928903
H    -8.496944800000001  42.3147413  -23.9490671
H    -8.1605153  40.9767317  -21.763503399999998
H    -9.587684300000001  40.0474958  -22.2000177
H    -10.945042400000002  42.160084600000005  -22.1967551
H    -9.528473700000001  43.0596199  -21.6610641
H    -9.946917500000001  40.8118867  -19.8588572
H    -11.4628048  41.681158  -20.0298609
H    -8.959647200000001  42.584141100000004  -18.7884502
H    -12.1977764  43.6507919  -19.8476259
H    -12.132752700000001  45.0602335  -18.8620464
H    -8.918694100000002  44.420556700000006  -17.616325099999997
H    -10.272817000000002  45.509620000000005  -17.5793391
H    -6.377571800000001  41.7993919  -24.3934371
H    -5.5923519000000015  39.208518000000005  -25.483813599999998
H    -4.926374800000001  41.5008308  -26.3604998
H    -3.6386748000000004  40.3215785  -26.1962402
H    -2.669316600000002  42.3262106  -25.5288638
H    -2.917490700000002  41.4000415  -24.0592064
H    -3.391478300000001  43.6144364  -23.5077093
H    -4.967291600000001  42.8155979  -23.572699999999998
H    -4.294151800000002  43.9751562  -26.1102632
H    -5.194415900000001  45.1232479  -22.8463974
H    -5.753600900000001  46.638067400000004  -23.4506963
H    -5.067331100000001  45.9753288  -26.814447
H    -5.690587500000001  47.1124499  -25.6844112
H    -3.888701600000001  37.631524  -21.7194766
H    -3.186184000000001  35.7015182  -22.847169299999997
H    -1.5586762000000007  36.2735232  -22.435803999999997
H    -2.166447400000001  35.8696404  -25.0409546
H    -1.2778037000000015  37.328978500000005  -24.5645893
H    -3.1407576000000006  38.3228911  -25.6867297
H    -4.262327500000001  37.059544700000004  -25.1205201
H    -3.5599110000000014  39.6313966  -20.6821901
H    -0.756958700000002  40.5006074  -20.401509
H    -2.3943179000000008  42.153992800000005  -21.1123813
H    -1.6140275000000006  42.5850863  -19.579761599999998
H    -2.8892038000000007  42.4811775  -17.4543124
H    -4.848394000000002  42.025431600000005  -21.2200483
H    -5.025709100000001  42.9611254  -16.3900336
H    -7.004579200000001  42.5719574  -20.164932
H    -7.260539000000001  42.9561392  -16.6355414
H    0.427714899999998  40.0331318  -18.4965701
H    -0.9689584000000018  38.220674200000005  -16.7075784
H    1.100833299999998  37.552863  -17.7772328
H    0.3169354999999996  36.622683  -15.5754314
H    1.4666146999999992  37.663580100000004  -14.7547703
H    2.4472116999999987  39.6128432  -17.8271171
H    2.5375081999999995  39.6280637  -16.066338
H    3.328810899999999  38.3416817  -16.988797299999998
H    2.2060731999999987  35.4952654  -16.791554299999998
H    3.3550959999999996  36.451687400000004  -15.8451855
H    2.278403899999999  35.3223446  -15.0335629
H    -1.978936400000002  38.8333005  -14.949687599999999
H    -1.4249701000000012  41.412415200000005  -13.7184524
H    -3.747440700000002  40.6756782  -14.266821199999999
H    -3.4671184000000004  41.183972600000004  -12.5899881
H    -3.482054400000001  38.806702800000004  -11.8764849
H    -5.510985900000001  40.255033000000005  -11.734856899999999
H    -5.990906800000001  39.7342667  -13.3578348
H    -5.943246100000001  38.5705933  -12.0263827
H    -4.233927300000001  38.256587  -14.7782077
H    -2.9582865000000016  37.501052300000005  -13.7867421
H    -4.646455600000001  37.1638828  -13.449219499999998
