261

N    -9.796  -0.5659999999999998  21.049
C    -9.9983802  -0.9519924  19.626537
C    -9.0347619  -0.16433439999999955  18.7179722
O    -8.453566299999999  0.8327895999999999  19.112370199999997
C    -11.471393299999999  -0.7537560999999999  19.2084542
C    -12.189443999999998  0.5566103  19.665613699999998
O    -11.561783899999998  1.3351446000000005  20.4211395
O    -13.352805499999999  0.7254108000000006  19.275183399999996
N    -8.852424599999999  -0.6868685999999995  17.4887864
C    -8.0534435  -0.043346199999999335  16.4437416
C    -8.5691931  -0.49124629999999936  15.064748799999997
O    -8.9601717  0.3199608999999999  14.237280699999998
C    -6.545046599999999  -0.3778838999999996  16.6096172
C    -5.591379299999999  0.6917577000000001  16.121074399999998
C    -4.801561399999999  1.3911822000000003  17.035008199999996
C    -5.464840199999999  1.0042592  14.768429999999999
C    -3.9177602999999994  2.3717011  16.620291299999998
C    -4.591660599999999  1.9974751  14.346638699999998
C    -3.8032095999999993  2.6933749000000002  15.263172099999998
O    -2.9409508999999994  3.6733357999999994  14.907990599999998
N    -8.573886  -1.8183280999999996  14.831800599999998
C    -8.959534099999999  -2.4300145  13.554117399999997
C    -8.0791218  -1.8667330999999998  12.403634299999997
O    -6.873607999999999  -1.7246818  12.604918099999997
C    -10.487127699999998  -2.4236261  13.371248199999997
C    -10.9896508  -3.6822524  12.664897699999997
C    -12.5336802  -3.6479288  12.449782199999998
O    -12.9931664  -2.7001111  11.781817299999997
O    -13.213664699999999  -4.576632399999999  12.925184199999997
N    -8.599814799999999  -1.6628149999999997  11.181557299999998
C    -7.754830299999999  -1.3381143  10.029142499999997
C    -7.4333279999999995  0.17695460000000018  9.834915599999999
O    -8.300639199999999  0.9603725000000001  9.486507199999998
C    -8.4034436  -1.8714051999999999  8.737484199999997
O    -7.562986799999999  -1.5799847999999996  7.647732699999997
N    -6.130288499999999  0.49052000000000007  10.003199899999998
C    -5.486390999999999  1.7767230000000005  9.688990599999997
C    -3.9320588999999995  1.7127474000000005  9.579077399999997
O    -3.4357777999999994  1.5742569  8.466815199999997
C    -5.9834447  2.9383505000000003  10.556800199999998
C    -7.2212160999999995  3.655565  9.905161699999997
O    -8.165438  3.9557194000000004  10.657088199999997
O    -7.157355299999999  3.916301  8.690215999999998
N    -3.1550050999999995  1.8261126  10.679161199999998
C    -1.7014525999999996  2.0197534  10.572387699999997
C    -0.8139909999999997  1.4749891000000002  11.732116299999998
O    -1.2032855999999992  1.3108257000000005  12.879972299999999
C    -1.3832967999999992  3.5131635  10.334421699999996
C    -2.142899999999999  4.544106200000001  11.224707999999998
O    -2.1575018999999993  5.715353400000001  10.808505299999997
O    -2.6774805999999995  4.157874500000001  12.286319899999997
N    0.4550081000000006  1.214664  11.354114099999997
C    1.6392224000000004  0.9100767000000003  12.187559799999997
C    1.4722150000000003  -0.1676183999999994  13.289812399999997
O    1.6970132000000007  -1.3407215999999997  13.020614799999997
C    2.294296700000001  2.2166709000000004  12.656513299999997
C    3.4307375  2.0447445  13.721292899999998
O    4.237106100000001  1.1098537000000004  13.580614599999997
O    3.4523155  2.889385  14.636848599999997
N    1.1417012000000009  0.22619699999999998  14.531038099999998
C    1.114416600000001  -0.6635080000000002  15.680927899999997
C    -0.22385909999999942  -1.4249063  15.860768999999998
O    -0.4457873999999995  -2.0800978999999997  16.8758101
C    1.4536985000000007  0.1542439  16.952073199999997
O    1.813094500000001  -0.6398143999999997  18.0488814
N    -1.1027632999999994  -1.3214549  14.859640599999997
C    -2.4927023999999993  -1.7577786999999998  14.907230999999998
C    -2.7802637999999993  -3.2349277  15.247671399999998
O    -2.1316899999999994  -4.1695571  14.810074899999998
C    -3.1877363999999995  -1.3947325999999998  13.578631199999997
C    -2.5573050999999993  -1.7593661999999997  12.246021099999997
C    -1.4347565999999992  -2.558906  12.056588099999997
C    -3.2038259999999994  -1.2698702999999996  11.111269299999996
C    -0.9859835999999991  -2.866675  10.777961899999998
C    -2.778388799999999  -1.5769061  9.831557799999999
C    -1.6606335999999997  -2.3927794999999996  9.652608499999998
O    -1.2389918999999994  -2.7504847999999997  8.411117899999997
N    -3.892862899999999  -3.4261586  15.992620999999998
C    -4.474795199999999  -4.7445321  16.244367699999998
C    -5.654690899999999  -4.9413915  15.271938199999997
O    -6.819386999999999  -4.716475  15.604945999999998
C    -4.877078299999999  -4.8866518999999995  17.721717599999998
C    -5.4637204  -6.2603074  18.070640799999996
C    -4.658344199999999  -7.4248645  17.4280023
O    -5.233883099999999  -8.0808258  16.530976
O    -3.4850764999999995  -7.5962534  17.804538199999996
N    -5.345342799999999  -5.3085040999999995  14.020853499999998
C    -6.3307044999999995  -5.2744124999999995  12.939964699999997
C    -7.465667  -6.3094695  13.080580499999998
O    -8.5810116  -6.0422063  12.646846899999998
C    -5.6908259999999995  -5.3243732999999995  11.532608499999998
C    -6.723547699999999  -4.9376432999999995  10.472257499999998
C    -4.5218627  -4.3478403  11.419484599999997
N    -7.193068499999999  -7.4958448  13.655809099999997
C    -8.253865999999999  -8.4535847  13.960529999999999
C    -9.127386699999999  -8.0252828  15.166674599999997
O    -10.1408181  -8.6477739  15.457758499999997
C    -7.6055109  -9.8424222  14.150764299999997
C    -8.530363699999999  -11.064706900000001  14.001377899999998
C    -8.9998203  -11.263381599999999  12.560494799999997
C    -7.779182199999999  -12.3256692  14.434628199999997
N    -8.693026399999999  -6.961813899999999  15.860774899999997
C    -9.3476423  -6.302277699999999  16.9876044
C    -9.8130996  -7.2780404999999995  18.091775999999996
O    -10.879029599999999  -7.146429599999999  18.6769398
C    -10.4145821  -5.3181974  16.493409099999997
C    -11.078871  -4.4800835999999995  17.626036199999998
O    -10.3285477  -3.9540860999999996  18.475518799999996
O    -12.311411699999999  -4.337439  17.572713399999998
N    -8.9285269  -8.2451673  18.4117665
C    -9.122430099999999  -9.2336867  19.473210699999996
C    -7.761763999999999  -9.6305163  20.0828994
O    -6.731903099999999  -9.6104025  19.415900999999998
C    -9.919791199999999  -10.4625202  18.966140599999996
C    -9.257923  -11.4002725  17.936475299999998
C    -8.3665638  -12.4688811  18.573666199999998
C    -10.353540599999999  -12.118333400000001  17.144840099999996
N    -7.7845721999999995  -10.0065892  21.3726383
C    -6.6382204  -10.5655395  22.081599299999997
C    -6.662015899999999  -12.0965077  21.902179599999997
O    -7.5939909  -12.754301299999998  22.366218699999997
C    -6.7291129  -10.2449464  23.601865099999998
O    -8.0576507  -10.3137872  24.063724899999997
C    -6.194677499999999  -8.8528868  23.908682
N    -5.648165699999999  -12.630219499999999  21.2278511
C    -5.4784168  -14.060015100000001  20.9981132
C    -5.030184599999999  -14.8090334  22.279694799999998
O    -4.5070331999999995  -14.2170792  23.218428799999998
C    -4.4833422999999994  -14.2843138  19.844946899999997
C    -3.0176940999999995  -13.961978599999998  20.153923699999996
C    -2.658587699999999  -12.4495429  20.250115299999997
O    -3.485921399999999  -11.610109  19.8199886
O    -1.5508933999999996  -12.1627973  20.741381899999997
N    -5.260428699999999  -16.134025  22.280361499999998
C    -4.8812576  -17.0270405  23.369322099999998
C    -4.077464099999999  -18.3080949  22.903739299999998
O    -3.2550486999999992  -18.7538883  23.7246
C    -6.105074899999999  -17.4063372  24.237552299999997
C    -6.487800899999999  -16.3175826  25.2144366
C    -7.507104699999999  -15.414578200000001  24.925861999999995
C    -5.818423999999999  -16.1885266  26.432893999999997
C    -7.852947899999999  -14.4163797  25.823474499999996
C    -6.1557355  -15.1947467  27.3383361
C    -7.1804217999999995  -14.295351199999999  27.036127399999998
O    -7.5088799999999996  -13.3252913  27.937531099999998
O    -4.306509499999999  -18.7771791  21.7761592
H    -10.140279199999998  -1.2879104  21.683183699999997
H    -10.378826799999999  0.33118780000000037  21.1163322
H    -8.8119902  -0.3327447000000001  21.216639699999998
H    -9.7825065  -2.0194414999999997  19.481806999999996
H    -12.066659399999999  -1.5957008999999998  19.570064499999997
H    -11.555690299999998  -0.7946247999999998  18.120386599999996
H    -9.337997999999999  -1.5421353  17.2579446
H    -8.197074299999999  1.0391409999999999  16.523610899999998
H    -6.340863999999999  -1.3171040999999999  16.0857255
H    -6.371717899999999  -0.5312787999999999  17.6759785
H    -4.892648299999999  1.1708058000000001  18.086910399999997
H    -6.067609599999999  0.4793966000000003  14.037529999999997
H    -3.3096160999999995  2.9107116  17.327291399999996
H    -4.5309899  2.2612510000000006  13.299616099999998
H    -2.9212856999999994  3.8359063000000004  13.943939399999998
H    -8.1926738  -2.4515835  15.520903699999998
H    -8.6549626  -3.4815334  13.638325799999997
H    -10.824406799999998  -1.5287784999999996  12.843070899999997
H    -10.941607699999999  -2.3923968999999996  14.367046699999998
H    -10.7488797  -4.5717716  13.250730799999998
H    -10.519237799999999  -3.7815673  11.684233799999998
H    -9.601381499999999  -1.6224127  11.062448699999997
H    -6.7993694  -1.8491391999999998  10.194145599999999
H    -9.372604599999999  -1.3669767  8.628087899999997
H    -8.5561799  -2.9520256  8.847860199999998
H    -8.0037415  -1.8632788999999996  6.831187499999997
H    -5.5481039999999995  -0.2059918999999999  10.448003999999997
H    -5.806004499999999  2.030804  8.662910999999998
H    -5.205107299999999  3.701340900000001  10.658851399999998
H    -6.2822062999999995  2.6012010000000005  11.553124399999998
H    -3.5575769999999993  2.0985300000000002  11.565655999999997
H    -1.423760399999999  1.4692911999999998  9.664875299999999
H    -1.6415385999999996  3.7716906000000003  9.305592499999998
H    -0.31996419999999937  3.7068508000000007  10.486297599999997
H    0.6866675000000004  1.3929054  10.387676299999997
H    2.3355120000000005  0.4106089000000006  11.503316899999998
H    1.542244600000001  2.8786456000000005  13.097075799999997
H    2.7291705000000013  2.7247326000000003  11.794731499999997
H    0.8747127000000008  1.187531  14.685864199999997
H    1.8875297000000009  -1.4263388999999997  15.521311599999997
H    0.5905831000000008  0.7899980000000006  17.197069
H    2.314500100000001  0.7908815000000002  16.728038799999997
H    1.118183900000001  -1.3103366999999997  18.1726431
H    -0.8945795999999993  -0.6986979999999994  14.088154999999997
H    -2.9948730999999995  -1.1666097  15.690407099999998
H    -3.292381899999999  -0.3032984000000001  13.582873599999997
H    -4.2047326  -1.8013306999999998  13.602334099999997
H    -0.9097643999999994  -2.9664911  12.906562499999998
H    -4.0652554  -0.6375672999999997  11.266091899999997
H    -0.11364329999999967  -3.4855389  10.650290299999998
H    -3.3111012999999994  -1.1715573999999997  8.982842599999998
H    -1.7949422999999993  -2.3287343  7.736703499999997
H    -4.418613799999999  -2.6327382999999998  16.328812
H    -3.700168299999999  -5.4850634  16.014189799999997
H    -5.614669199999999  -4.1178223  17.965037199999998
H    -3.9733277999999994  -4.7297068  18.3112951
H    -6.492194399999999  -6.3368623  17.711443
H    -5.453551999999999  -6.4034422  19.1513328
H    -4.3821867999999995  -5.5077975  13.790879299999997
H    -6.839394499999999  -4.3032658999999995  13.024146499999997
H    -5.3381207999999996  -6.344898199999999  11.354503699999999
H    -6.271623699999999  -4.9788784  9.487033899999997
H    -7.074730299999999  -3.9294146  10.665944699999997
H    -7.586443899999999  -5.5982128  10.505273799999998
H    -3.6906729999999994  -4.5959233  12.075194899999998
H    -4.8604392999999995  -3.3457999  11.674825299999998
H    -4.1489758  -4.3360147  10.400546299999998
H    -6.337178099999999  -7.6133219  14.187437099999997
H    -8.933456799999998  -8.4542335  13.100392099999997
H    -7.1301581999999994  -9.8503657  15.137592899999998
H    -6.807200699999999  -9.914898  13.408552399999998
H    -9.3967137  -10.9061993  14.649205799999997
H    -9.6164519  -12.1541775  12.497940899999998
H    -8.1426762  -11.3725118  11.901485499999998
H    -9.590985799999999  -10.413638599999999  12.227241099999997
H    -7.4141474999999994  -12.2247187  15.454995999999998
H    -6.920895499999999  -12.4854319  13.786894399999998
H    -8.4333604  -13.190232599999998  14.378084199999998
H    -7.8951084  -6.4446706  15.515396799999998
H    -8.5692878  -5.693910499999999  17.471961999999998
H    -11.2107017  -5.8452265  15.961541599999997
H    -9.9359671  -4.6225292  15.798424299999997
H    -8.0444645  -8.3088585  17.9222376
H    -9.739994  -8.7365394  20.230756399999997
H    -10.818716499999999  -10.0387549  18.512142499999996
H    -10.2127595  -11.0492362  19.838872399999996
H    -8.6550938  -10.7910686  17.2536617
H    -8.028901  -13.1725855  17.818110899999997
H    -8.9082663  -13.008488199999999  19.347161699999997
H    -7.4801801999999995  -12.0222369  19.024432299999997
H    -10.9509598  -11.3919684  16.596983899999998
H    -10.9975586  -12.666319999999999  17.8266757
H    -9.910474699999998  -12.8096411  16.4360531
H    -8.6473967  -9.9864667  21.9032794
H    -5.7242453  -10.160091399999999  21.639684099999997
H    -6.109589799999999  -10.999121899999999  24.114317699999997
H    -8.393614199999998  -11.197973000000001  23.8376223
H    -6.318963899999999  -8.6480528  24.967151299999998
H    -6.747248099999999  -8.1152948  23.332588799999996
H    -5.1442516  -8.7952175  23.640814999999996
H    -4.9304182999999995  -12.0393229  20.802060499999996
H    -6.461342599999999  -14.4579682  20.7101281
H    -4.798256899999999  -13.652899000000001  19.0093461
H    -4.5459555  -15.3314858  19.543239999999997
H    -2.385065499999999  -14.362785200000001  19.359454899999996
H    -2.7024752999999992  -14.4174835  21.095977599999998
H    -5.593227999999999  -16.5932368  21.4437431
H    -4.177685899999999  -16.4625922  23.996484699999996
H    -5.828739199999999  -18.3099354  24.786489699999997
H    -6.937083299999999  -17.636886699999998  23.571279699999998
H    -8.021699199999999  -15.469233599999999  23.9776338
H    -5.014926099999999  -16.8733247  26.6609791
H    -8.6303693  -13.7147219  25.5590087
H    -5.629935699999999  -15.093233999999999  28.273707299999998
H    -8.2211611  -12.770294499999999  27.587030299999995
