28

N    65.688  48.631  6.231
C    66.3177282  47.853001299999995  7.1898921
N    66.0619987  46.5522699  7.1744709
C    66.6187989  45.7474001  8.0775946
C    67.4790896  46.209657  9.0489353
C    67.7589369  47.569119199999996  9.0840516
C    67.1762207  48.4314332  8.1622679
N    67.4279164  49.7896825  8.192643799999999
C    68.6275137  50.2837408  8.8354706
C    69.9087356  49.7812653  8.1990622
C    69.8903053  49.0396869  7.0239623
C    71.0659425  48.5998017  6.4417641
C    72.2806933  48.9082612  7.0266223
C    72.3103277  49.651758799999996  8.196314899999999
C    71.1334455  50.0825469  8.7823663
H    66.2317919  49.3816683  5.8343092
H    65.2130395  48.0684342  5.541588
H    66.3576464  44.7022402  7.9842907
H    67.9307416  45.5353267  9.7592641
H    68.4408418  47.940563  9.8306308
H    67.1408298  50.3060237  7.3774182999999995
H    68.6083634  50.0218382  9.8962608
H    68.6051919  51.3753907  8.7737939
H    68.9572914  48.7900081  6.5440171
H    71.0301861  48.0197807  5.5318746999999995
H    73.2024905  48.5716967  6.5765288
H    73.257436  49.894159699999996  8.6550671
H    71.16188819999999  50.6581946  9.6958655
