71

O    17.292  31.431  14.386
S    18.1146193  32.492725  14.914250899999999
O    18.6496737  33.408832600000004  13.937742099999998
C    17.146486000000003  33.4263326  16.040168199999997
C    17.4581273  34.7544796  16.219614399999998
C    16.697862500000003  35.5293757  17.1018564
O    17.065468100000004  36.8277346  17.228279699999998
C    16.5314666  37.648031  18.2643094
C    15.631447500000004  34.9270553  17.7717024
C    15.336800700000003  33.587904800000004  17.5699461
C    16.095570400000003  32.8207098  16.7016355
N    19.3816464  31.805225800000002  15.708511499999998
C    20.2436256  32.7474006  16.411468399999997
C    21.673975100000003  32.2527491  16.417850799999997
C    22.790958600000003  33.240856  16.236418999999998
C    22.4277465  32.3121323  15.117209399999998
C    19.118789800000002  30.554187600000002  16.389109599999998
C    19.994043500000004  29.4305589  15.797873
O    19.997768300000004  28.305861800000002  16.643564299999998
C    19.5971906  29.044566500000002  14.354748799999998
C    18.266035900000002  28.2809935  14.302448099999998
C    17.973554300000004  27.879495600000002  12.886049699999997
C    18.178796800000004  26.573355300000003  12.461571
C    17.932825800000003  26.2086551  11.149260299999998
C    17.4836403  27.155082800000002  10.244937599999998
C    17.2901558  28.4625957  10.658904399999997
C    17.5262102  28.8248786  11.972687299999999
N    20.651122500000003  28.2343166  13.758650499999998
C    21.415660600000002  28.6548564  12.740298199999998
O    21.282657200000003  29.7575791  12.219886399999998
C    22.475146600000002  27.7110628  12.221259799999999
C    21.848419800000002  26.684960200000003  11.278603099999998
C    22.955420900000004  25.7710073  10.788213599999999
O    23.6692296  25.156523  11.576419799999998
N    23.108076200000003  25.6912077  9.463142899999998
C    24.116559700000003  24.8413851  8.860576499999999
H    18.262989200000003  35.2028981  15.662353899999998
H    17.081971300000003  38.5817778  18.190982599999998
H    16.693731300000003  37.191363100000004  19.242322199999997
H    15.466548700000002  37.8337718  18.108667899999997
H    15.025494400000003  35.5034444  18.4516827
H    14.505228600000002  33.1437612  18.0921213
H    15.875227500000003  31.7847531  16.5100156
H    19.8762797  32.9157739  17.431646399999998
H    20.184193300000004  33.677739100000004  15.846761399999998
H    21.857390700000003  31.4162092  17.0773832
H    23.713271400000004  33.0637356  16.766105399999997
H    22.535757200000003  34.283641100000004  16.133806099999997
H    21.899776400000004  32.7042354  14.261362199999999
H    23.100735200000003  31.5056954  14.870366899999999
H    18.065854  30.3070877  16.2536146
H    19.339370900000002  30.6488696  17.4560812
H    21.031817800000002  29.774048  15.763969099999999
H    19.0868536  28.059985700000002  16.8593682
H    19.526923500000002  29.9617455  13.761376099999998
H    17.4764118  28.9442024  14.654865599999999
H    18.327907000000003  27.390793900000002  14.928589699999998
H    18.526360500000003  25.8312856  13.1657348
H    18.091650500000004  25.1887336  10.833007599999998
H    17.289945900000003  26.8798415  9.219258699999997
H    16.945290500000002  29.205987200000003  9.954755699999998
H    17.366935  29.8430855  12.301991799999998
H    20.853694300000004  27.3562722  14.213622499999998
H    22.974976400000003  27.184568300000002  13.035707899999998
H    23.208461500000002  28.3096787  11.680528999999998
H    21.3447579  27.1888755  10.454240499999997
H    21.115781000000002  26.085237  11.820750099999998
H    22.499069100000003  26.215076500000002  8.856131199999998
H    24.067298100000002  24.9378392  7.782005299999998
H    23.949432700000003  23.802849300000002  9.1493416
H    25.106259700000003  25.1316722  9.2151465
