34

O    19.085  -9.245  -3.5239999999999996
C    19.7471091  -9.592158799999998  -2.5477472999999997
C    19.2314027  -9.472673699999998  -1.1610964
C    17.8197862  -10.003926599999998  -1.0336299999999996
C    18.060854900000002  -8.533652999999997  -0.9881573999999995
N    20.9835955  -10.139917599999999  -2.6725611999999996
C    21.702297  -10.251540999999998  -3.8425721
S    21.1345551  -9.617160399999998  -5.3380197
C    22.588055400000002  -10.146887699999999  -6.1474172
C    22.7562578  -9.887786399999998  -7.6056947
C    24.2479221  -9.944536099999999  -7.9262916
C    24.8659234  -11.221071199999999  -7.3590903
C    24.777552800000002  -11.304348999999998  -5.8304186
C    23.4578593  -10.7870704  -5.3197667
C    22.9623144  -10.8454904  -3.9741731
C    23.6129585  -11.457153599999998  -2.8128024
O    22.9908453  -11.537072299999998  -1.7396188999999995
N    24.8617292  -11.933455799999999  -2.9034017
H    19.935994100000002  -9.630994099999999  -0.3604645999999998
H    17.5580794  -10.517946899999998  -0.12235489999999993
H    17.3756087  -10.414278099999999  -1.9272592999999998
H    17.7867788  -7.952213999999998  -1.8548333999999995
H    17.9728188  -8.020057099999999  -0.04472749999999959
H    21.4917861  -10.561168899999998  -1.8832358999999999
H    22.3329788  -8.916992899999999  -7.8640916999999995
H    22.2179912  -10.648386899999998  -8.1784869
H    24.7408126  -9.075662699999999  -7.4856089
H    24.399910600000002  -9.910042899999999  -9.0050846
H    25.9116414  -11.2906512  -7.6592962
H    24.3378215  -12.074164599999998  -7.790919
H    25.5770012  -10.691811399999999  -5.4022806999999995
H    24.911867100000002  -12.346135899999998  -5.537930899999999
H    25.2600118  -12.325693099999999  -2.0650356
H    25.437305300000002  -11.804264899999998  -3.7139637999999997
