23

O    1.666  0.218  9.324
C    0.7461301999999996  0.031793500000000016  8.498184
O    0.8731445999999994  -0.10905419999999999  7.2660127999999995
C    -0.6465077000000004  -0.04783099999999999  9.0717714
O    -1.7582876000000005  -0.2079695  8.328189499999999
C    -0.9682797000000005  -0.0005147999999999889  10.403260999999999
C    -2.3485787000000005  -0.1335833  10.4837119
C    -2.8024246000000006  -0.23554709999999998  9.1944159
C    -4.134922400000001  -0.46444189999999996  8.7246233
C    -4.3056711000000005  -1.2997526  7.620544199999999
C    -5.5666577  -1.6442984  7.1823790999999995
C    -6.6882416000000005  -1.156984  7.846589499999999
C    -6.5408420000000005  -0.31272789999999995  8.925509499999999
C    -5.2694516  0.05755840000000001  9.3733287
N    -5.200889  1.0468985  10.3881038
O    -4.1261919  1.5813828  10.6793297
O    -6.2647341  1.3905596  10.9220163
H    -0.26235730000000057  0.1058221  11.2008777
H    -2.9148236000000005  -0.187934  11.3895831
H    -3.4195815000000005  -1.6706077  7.129788799999999
H    -5.6805719  -2.2935361000000003  6.329358899999999
H    -7.6762596  -1.4311738  7.515626899999999
H    -7.400456500000001  0.09972690000000001  9.4305437
