185

N    71.093  -27.117  48.622
C    71.9399259  -25.953520400000002  48.961228899999995
C    73.31064070000001  -26.4827284  49.430116999999996
O    73.3741024  -27.4834069  50.133575099999995
C    71.2805055  -25.1581662  50.111537799999994
C    72.0999919  -23.9208974  50.431899699999995
C    69.8615001  -24.7358064  49.7359764
N    74.3803534  -25.7902837  49.0253581
C    75.7203231  -26.1167115  49.4870203
C    76.20247760000001  -25.1446319  50.590978899999996
O    76.1205365  -23.9294482  50.4745606
C    76.7090131  -26.0954012  48.3045494
C    78.16290380000001  -25.9296784  48.740733999999996
C    79.1480676  -25.8554502  47.5401129
O    78.8078998  -26.428587  46.484587399999995
O    80.2195452  -25.2357131  47.717008099999994
N    76.6675945  -25.7341489  51.7071147
C    77.2285356  -24.9580822  52.8118479
C    78.47765000000001  -24.1497617  52.3891437
O    79.356205  -24.6493628  51.6902117
C    77.57008  -25.940770800000003  53.932318599999995
C    77.9687464  -25.2940172  55.2609747
C    78.2204186  -26.402055700000002  56.267162299999995
O    78.66544090000001  -27.4880389  55.9122001
N    77.8918726  -26.1459731  57.5368107
N    78.5556842  -22.8874979  52.833271499999995
C    79.7115026  -22.0374784  52.5737733
C    80.6330994  -22.0125265  53.8042909
O    80.15304  -22.1495849  54.921754899999996
C    79.29178280000001  -20.5668914  52.3975662
C    78.4908753  -20.295310100000002  51.1679658
N    77.1523088  -20.5723937  51.091937099999996
C    78.88794800000001  -19.724932600000002  49.98916319999999
C    76.7597788  -20.1954458  49.9043539
N    77.77688  -19.668491  49.1939984
N    81.9376695  -21.7731751  53.5976705
C    82.86846390000001  -21.5306579  54.699631
C    82.51022160000001  -20.211441400000002  55.4156601
O    81.90280890000001  -19.3370937  54.8164404
C    84.3066802  -21.362694700000002  54.1800028
C    84.8427874  -22.5297249  53.40554899999999
N    85.7921501  -22.3563115  52.4310116
C    84.55200400000001  -23.8627314  53.4948419
C    86.0598057  -23.542961400000003  51.95124989999999
N    85.32824980000001  -24.4943615  52.5613866
N    82.9151808  -20.082967800000002  56.69401
C    82.8693767  -18.786298600000002  57.369839899999995
C    83.94284830000001  -17.9034307  56.710975399999995
O    84.87422380000001  -18.42649  56.110949999999995
C    83.0466389  -18.9114398  58.8960235
C    84.4871097  -19.136823200000002  59.3895141
C    84.4916881  -19.2746384  60.9183345
N    85.8233086  -19.252148000000002  61.501002799999995
C    86.606556  -20.3185229  61.652056699999996
N    87.79875650000001  -20.198739200000002  62.2359861
N    86.1776232  -21.5105224  61.2536257
N    83.7431071  -16.5828309  56.776013199999994
C    84.6980497  -15.6175101  56.269550499999994
C    85.5622317  -15.2023613  57.44980459999999
O    85.0662045  -15.0990137  58.5656426
C    83.99319150000001  -14.3457237  55.778315899999996
C    82.98382840000001  -14.557257400000001  54.6501904
C    83.61586480000001  -15.3088201  53.470468
N    84.9322125  -14.8073501  53.0955759
C    85.1356397  -13.855143000000002  52.194454099999994
N    86.37180090000001  -13.4634742  51.8873677
N    84.0963693  -13.2722032  51.5976807
N    86.8466215  -14.979173300000001  57.188024
C    87.7582304  -14.428979700000001  58.159290299999995
C    88.7322232  -13.559053  57.3659944
O    88.8505284  -13.708672100000001  56.1509833
C    88.51329530000001  -15.5361659  58.948935799999994
O    89.2887996  -14.9564836  59.9742189
C    89.3836651  -16.389694000000002  58.0268708
N    89.4067388  -12.632704200000001  58.046997299999994
C    90.405983  -11.777379700000001  57.422513599999995
C    91.50839380000001  -12.6546663  56.7856519
O    91.9292166  -13.644264100000001  57.3723847
C    91.05841410000001  -10.901979  58.497746899999996
C    89.9974352  -10.2095119  59.4076385
O    89.6487946  -9.066596200000001  59.079400699999994
O    89.5578342  -10.8483595  60.385095899999996
N    91.9937161  -12.2480661  55.6035884
C    93.0514036  -12.940914200000002  54.8568675
C    92.81468890000001  -14.4591819  54.6146137
O    93.7414048  -15.240685800000001  54.8182584
C    94.42178750000001  -12.821446900000002  55.545311
C    94.8218887  -11.3963359  55.8596784
O    95.13127250000001  -11.047318500000001  56.9934875
N    94.8091919  -10.5474615  54.827107
N    91.60916970000001  -14.8426494  54.184971
C    91.2613628  -16.229100600000002  53.889103899999995
C    91.4343803  -16.585038700000002  52.3593621
O    92.07936330000001  -15.7759043  51.67109
C    89.8626258  -16.5699598  54.395649199999994
C    88.7281497  -15.738153  53.7513637
O    89.0225398  -14.8327299  52.943835899999996
O    87.5475279  -16.0008987  54.0871916
O    90.969645  -17.656271  51.923259099999996
H    71.35094380000001  -27.5205602  47.7137599
H    70.1001072  -26.851644800000003  48.6108628
H    71.2596439  -27.8351928  49.3475677
H    72.0585523  -25.3067511  48.0900683
H    71.2560504  -25.7975591  50.9990879
H    71.65884  -23.385101900000002  51.2678782
H    72.12840680000001  -23.2437918  49.581052899999996
H    73.12488450000001  -24.1627955  50.706944699999994
H    69.1524184  -25.5587674  49.758334
H    69.84587330000001  -24.2594886  48.759086599999996
H    69.5071294  -24.0061675  50.458814999999994
H    74.2884444  -24.9075434  48.543672199999996
H    75.666297  -27.1237054  49.912194099999994
H    76.4722964  -25.2472786  47.657154299999995
H    76.62522440000001  -27.0033204  47.7084827
H    78.49489990000001  -26.7766445  49.3486372
H    78.32125620000001  -25.023228200000002  49.3288088
H    76.931422  -26.7075886  51.672390299999996
H    76.4573055  -24.2471505  53.128162599999996
H    78.39175970000001  -26.5795849  53.5988249
H    76.6989831  -26.5753981  54.1048577
H    77.1806124  -24.6310382  55.615662
H    78.8832941  -24.7076138  55.143406799999994
H    78.08780730000001  -26.843391  58.2372136
H    77.59184760000001  -25.2292276  57.8214413
H    77.8168811  -22.4777281  53.3844346
H    80.2240465  -22.4326194  51.692211099999994
H    80.1931411  -19.9522404  52.37918689999999
H    78.7079636  -20.2856066  53.2765753
H    79.84538450000001  -19.3769677  49.6618589
H    75.7586306  -20.290235600000003  49.541148
H    77.74925160000001  -19.3189718  48.2497318
H    82.2761109  -21.5844437  52.66718049999999
H    82.78836700000001  -22.369879100000002  55.397166399999996
H    84.9688574  -21.152398400000003  55.023375599999994
H    84.3548719  -20.483134  53.533484099999995
H    83.8598163  -24.4022959  54.105994499999994
H    86.7680129  -23.7314997  51.171560199999995
H    85.3257219  -25.482280600000003  52.364328799999996
H    83.5717929  -20.7590753  57.0537214
H    81.8874993  -18.3600827  57.14330579999999
H    82.4078977  -19.7291546  59.2310679
H    82.67769290000001  -17.9870874  59.339985299999995
H    85.0986822  -18.278393400000002  59.100490799999996
H    84.9220598  -20.0138877  58.910675
H    83.9676414  -20.1797918  61.226363299999996
H    83.9525595  -18.4234058  61.3372537
H    86.2111663  -18.3415877  61.693090299999994
H    88.41769400000001  -20.987992600000002  62.304158799999996
H    88.152435  -19.2966357  62.5034545
H    85.3009432  -21.6146251  60.775720099999994
H    86.74188810000001  -22.330371  61.3971241
H    83.05123710000001  -16.210209  57.411431699999994
H    85.3133115  -16.098208800000002  55.507117099999995
H    84.7747164  -13.6585233  55.4489588
H    83.491504  -13.890731200000001  56.6351096
H    82.62505300000001  -13.5766547  54.3414692
H    82.13918960000001  -15.147141600000001  55.00098
H    82.9533129  -15.3016696  52.604774899999995
H    83.7527891  -16.3539856  53.75646879999999
H    85.75910160000001  -15.253049200000001  53.488406299999994
H    86.5359286  -12.806098800000001  51.145216899999994
H    87.1819711  -13.944977900000001  52.2641419
H    83.1573616  -13.4646857  51.8957713
H    84.25167640000001  -12.528024  50.9399491
H    87.22113610000001  -15.081471700000002  56.248608
H    87.1994354  -13.8209801  58.879056
H    87.75935580000001  -16.1452797  59.45500869999999
H    90.1025723  -14.5960219  59.598078699999995
H    89.8939886  -17.1558849  58.6041555
H    90.1379972  -15.7647381  57.5469045
H    88.7725525  -16.864495400000003  57.263332199999994
H    89.2631265  -12.484829600000001  59.0432243
H    89.9188086  -11.1598112  56.659221099999996
H    91.6662518  -10.1314285  58.0247785
H    91.6950668  -11.530991700000001  59.124821299999994
H    91.5513231  -11.4656676  55.147632099999996
H    93.07218040000001  -12.4838079  53.864024699999995
H    95.1645716  -13.2918087  54.901297799999995
H    94.3863868  -13.3823437  56.480403499999994
H    95.0957309  -9.5931788  54.979408199999995
H    94.6367224  -10.869027  53.8909119
H    90.8891344  -14.183354600000001  53.919413899999995
H    92.0020854  -16.8508916  54.4110472
H    89.81286390000001  -16.4122874  55.4708304
H    89.65988300000001  -17.619756600000002  54.1726171
