77

O    21.256  29.826  12.174
C    21.282453  28.712782500000003  12.6906403
C    22.2269194  27.645384800000002  12.1804543
C    21.8058515  27.217715000000002  10.7672771
C    21.5289534  25.7334454  10.638108899999999
O    21.8124656  24.931643200000003  11.504177599999998
C    20.8763582  25.339221600000002  9.3352468
C    20.7153083  23.833688600000002  9.183702
N    20.492490399999998  28.337053100000002  13.7024811
C    19.4726386  29.1642681  14.3130785
C    18.1459637  28.3944572  14.2747466
C    17.838824799999998  28.006031  12.852713
C    17.4909991  28.982573900000002  11.924458
C    17.2242036  28.636897  10.6104224
C    17.2997817  27.311160700000002  10.2092461
C    17.6485426  26.3349787  11.127189099999999
C    17.9212399  26.6816453  12.4408393
C    19.9179505  29.556730700000003  15.7366897
O    19.8964739  28.463489900000003  16.623981099999998
C    19.0922396  30.722031400000002  16.300107099999998
N    19.3555502  31.9462127  15.5706668
C    20.0833607  32.9770968  16.2996976
C    21.5733826  32.6483425  16.4164291
C    22.2266458  32.588830800000004  15.0364848
C    22.273163  33.646125500000004  17.3483023
C    22.199710699999997  35.096540600000004  16.8921529
S    18.0443017  32.5580463  14.7762732
O    17.2314087  31.474192700000003  14.280952599999999
O    18.522395  33.4527103  13.7538821
C    17.122125  33.4649871  15.9323898
C    17.381627599999998  34.8115912  16.079485899999998
C    16.663161  35.5579866  16.9938359
C    16.148739499999998  32.8387444  16.6891756
C    15.427130499999999  33.5785166  17.6032975
C    15.6730275  34.9511407  17.7706407
O    14.9176817  35.592494200000004  18.6908057
C    14.9869369  37.0065071  18.877656299999998
H    22.2291982  26.768784  12.829798799999999
H    23.2296719  28.070739600000003  12.163234899999999
H    22.586641099999998  27.459526200000003  10.0446341
H    20.9149353  27.767134900000002  10.4559494
H    21.4665333  25.7488667  8.514459299999999
H    19.9001833  25.8299849  9.3072719
H    20.219166599999998  23.598615900000002  8.2467823
H    20.1270694  23.434210900000004  10.006050599999998
H    21.686930399999998  23.3462123  9.2007006
H    20.6102238  27.418065600000002  14.1034048
H    19.3965699  30.081501300000003  13.7195305
H    17.352111  29.0447299  14.642961099999999
H    18.2227921  27.4978209  14.8894725
H    17.417750599999998  30.012546500000003  12.2464211
H    16.9548053  29.4041625  9.8997178
H    17.086008399999997  27.0446366  9.1848834
H    17.708266199999997  25.3004716  10.8228488
H    18.196623799999998  25.9131782  13.147958299999999
H    20.9688542  29.857916200000002  15.678047
H    18.9796947  28.2379088  16.8370014
H    19.3429795  30.851713200000003  17.3567259
H    18.0315668  30.4830679  16.2086189
H    19.641869  33.132244400000005  17.2907361
H    19.966264499999998  33.8805441  15.7027026
H    21.6660477  31.6597274  16.878308099999998
H    23.2795123  32.3352276  15.1253981
H    22.1354947  33.5414382  14.522378699999999
H    21.7372548  31.8410717  14.4148576
H    23.3213394  33.353632000000005  17.4288595
H    21.8301388  33.5644603  18.3430762
H    22.7530249  35.7253611  17.5855267
H    21.1722309  35.4482631  16.8629452
H    22.6366615  35.218852  15.9057205
H    18.121602499999998  35.272591500000004  15.446193899999999
H    16.8684798  36.6113665  17.0933214
H    15.944621099999999  31.793316100000002  16.5319778
H    14.6565281  33.1221021  18.2025858
H    14.233397499999999  37.2216572  19.6300753
H    14.753025699999998  37.5330655  17.950419099999998
H    15.972858599999999  37.3044699  19.2396925
