41

C    36.183  24.382  30.588
C    36.860974500000005  24.836940600000002  31.703920800000002
C    36.1791707  25.168125800000002  32.8752641
C    36.9219907  25.6610836  34.0838004
C    34.7938415  25.027270400000003  32.8978324
C    34.1062795  24.581549700000004  31.7856099
C    34.7906987  24.2502546  30.6136164
C    34.0582313  23.797321000000004  29.4477067
C    34.682712200000005  23.089022300000003  28.2695994
N    32.7977644  23.966777900000004  29.285367100000002
O    32.3767787  23.443147800000002  28.051501000000002
C    33.4354937  22.662211900000003  27.4795734
O    33.1914443  21.2874069  27.695549
C    32.0193558  20.7752303  27.0469939
C    31.8910455  19.298504100000002  27.448324000000003
O    32.9428177  18.527847200000004  26.9235158
C    32.1267408  20.927878000000003  25.5131807
O    30.977557  20.4434259  24.864114200000003
C    32.398888400000004  22.3976748  25.156160500000002
O    32.6689547  22.495027900000004  23.775181600000003
C    33.5716668  22.968157500000004  25.971507000000003
O    33.7104383  24.3502912  25.7418979
H    36.7320867  24.136831500000003  29.6925005
H    37.935099  24.938896900000003  31.6696177
H    36.2365208  25.8808636  34.896310400000004
H    37.4791722  26.5627789  33.8374656
H    37.6358857  24.9101098  34.4165496
H    34.247478  25.274702400000002  33.7954061
H    33.0333665  24.4773877  31.8029379
H    35.264094  22.218736800000002  28.565142700000003
H    35.295083000000005  23.772162400000003  27.679486800000003
H    31.143720700000003  21.331182000000002  27.411564400000003
H    30.9749082  18.8973942  27.0137413
H    31.8519393  19.2264687  28.5400409
H    33.7718585  18.832013900000003  27.318433000000002
H    32.949532600000005  20.307173300000002  25.1451049
H    30.23016  21.0377493  25.0269522
H    31.494752700000003  22.983270400000002  25.4051262
H    32.9910224  23.389363900000003  23.5842508
H    34.4972973  22.5015402  25.6186927
H    32.968021  24.819278800000003  26.1526052
