31

N    -27.431000000000004  -20.995  -15.702000000000002
C    -27.123244600000003  -20.7298695  -17.131749000000003
C    -25.838546000000004  -19.9154733  -17.2310002
C    -25.626694000000004  -19.4637818  -18.6711685
C    -24.574126000000003  -18.3665664  -18.7647771
C    -24.110802300000003  -18.2331671  -20.2079357
N    -23.216678700000003  -17.0731859  -20.3855449
C    -22.972327900000003  -16.8299861  -21.8134263
C    -21.946156800000004  -17.2829217  -19.677249500000002
C    -26.952006900000004  -22.073994499999998  -17.9293273
O    -26.201644400000003  -22.9307986  -17.4378612
O    -27.564200900000003  -22.184294299999998  -18.999946
H    -27.289154900000003  -20.1556065  -15.1272283
H    -26.788408200000003  -21.7425968  -15.395934700000002
H    -28.390610700000003  -21.3374235  -15.587668500000001
H    -27.954414600000003  -20.1899062  -17.5908418
H    -24.997927500000003  -20.530208599999998  -16.9052849
H    -25.915794200000004  -19.0352514  -16.588025100000003
H    -26.573835100000004  -19.1104699  -19.0832795
H    -25.334258300000002  -20.3310201  -19.267610100000002
H    -23.742311300000004  -18.6444026  -18.118094000000003
H    -25.001229600000002  -17.4291595  -18.4076685
H    -24.984847500000004  -18.1088311  -20.8502091
H    -23.585537500000004  -19.1359192  -20.520555700000003
H    -23.677801600000002  -16.2464936  -19.9889686
H    -22.322681100000004  -15.968205999999999  -21.9451363
H    -23.908800300000003  -16.6445884  -22.333576700000002
H    -22.4935651  -17.7003764  -22.256000800000002
H    -22.102439900000004  -17.3260354  -18.604500700000003
H    -21.261322300000003  -16.465737999999998  -19.8912674
H    -21.4914729  -18.2126512  -20.0096303
