64

C    33.909  6.145  4.344
C    32.9505951  5.2868378  3.5480202000000003
C    31.5035366  5.7568345999999995  3.6798856000000004
C    30.873404200000003  6.48203  2.6669134000000003
C    29.5639697  6.9335273  2.7949436000000007
C    28.7779507  6.6791371  3.9430525000000003
C    26.4599313  6.445648299999999  4.8915721
C    25.7720846  5.2571293  4.188206200000001
C    26.756129400000003  7.5303854  2.8016688000000007
C    34.1053279  9.5094899  2.6929977000000003
C    35.034730100000004  9.7605587  0.35755660000000056
C    24.4629099  4.5567239  2.2485835000000005
N    36.6284492  8.3691219  7.224066800000001
C    35.9198413  7.2502261  7.1560118
C    35.1855452  6.9116516  6.0255996000000005
C    35.2531634  7.8400133  4.951600200000001
N    35.974605000000004  8.965615399999999  5.0227861
C    36.6376598  9.1958255  6.165598500000001
C    34.3373087  5.8529306  5.6162521000000005
N    34.467481  7.3603425  3.9293978000000003
N    38.0797297  10.763656899999999  7.27838
C    29.4328827  5.9529698  4.9634514
C    30.747243700000002  5.507497799999999  4.830050600000001
N    27.435726600000002  7.131746  4.038229500000001
N    25.114984500000002  5.687911  2.9317659000000003
C    26.1214605  6.3390166  2.0617534000000006
C    34.2654412  7.9810959  2.6110676
C    35.4267352  7.6302873  1.6617598000000005
C    35.223806100000004  8.2447517  0.27073320000000045
C    33.877734100000005  10.1048504  1.2975383000000003
C    37.421494  10.4461053  6.247478200000001
H    33.035571000000004  4.2742853  3.9421384000000006
H    33.2351821  5.2803116999999995  2.4955616000000003
H    31.3953965  6.6926114  1.7451701000000006
H    29.1767523  7.4857764  1.9569086000000004
H    26.938406  6.0907488999999995  5.8000787
H    25.7138093  7.1914492999999995  5.1788448
H    25.032271700000003  4.8234547999999995  4.8597741
H    26.5182022  4.4997114  3.9406234000000007
H    27.427149900000003  8.0686403  2.1425246000000007
H    25.969850100000002  8.234109499999999  3.0944458000000004
H    35.006599900000005  9.9335687  3.1354531000000003
H    33.2635063  9.7502903  3.3447856000000007
H    34.8410115  10.1663238  -0.6360413999999999
H    35.9521376  10.2164291  0.7354706000000006
H    23.977849900000002  4.900697299999999  1.3387164000000005
H    23.717591000000002  4.1063381  2.8989587000000006
H    25.2059998  3.8062671999999997  1.9906249000000005
H    35.9521882  6.625103299999999  8.039024000000001
H    34.0829109  4.9896594  6.196530500000001
H    38.573690400000004  11.649272799999999  7.2015887
H    28.926492800000002  5.7230869  5.8871678
H    31.1919569  4.9591940999999995  5.6472135
H    24.399512700000002  6.3863653  3.1683663000000006
H    26.890259900000004  5.6065401999999995  1.8099582000000005
H    25.644609000000003  6.6889036  1.1469612000000007
H    33.3389156  7.5594126  2.2146513000000008
H    35.5203556  6.5453874999999995  1.5787941000000005
H    36.3519698  8.013686  2.0981531
H    36.087179400000004  8.0107203  -0.3524869999999991
H    34.3416078  7.7987946  -0.19366969999999917
H    33.7789772  11.1869361  1.3838887000000004
H    32.9471827  9.7113529  0.8834564000000005
H    37.3558204  11.0387057  5.325876600000001
