45

C    -0.20899999999999996  -5.264  75.899
C    0.8050875999999999  -4.2937504  75.3016743
C    0.7904181  -4.3720047  73.76172530000001
C    0.7782882999999999  -5.8276309  73.25458420000001
C    -0.2719225  -6.6403991  74.00987260000001
C    -0.257684  -8.1156288  73.5943276
O    0.47977590000000003  -2.98643  75.70531580000001
O    1.9415461  -3.759961  73.22399180000001
O    0.5181478  -5.8940318  71.87842810000001
O    0.06352329999999995  -6.5528923  75.3874395
O    -1.3244023999999999  -8.8271414  74.1733557
C    -1.5019798  -7.2426918  80.3756156
C    -1.4528227999999999  -8.1907063  79.1677884
C    -0.8304211  -7.4529792  77.9844788
C    -1.2063428  -5.9750607  77.88220030000001
C    -1.6742051999999998  -5.2625674  79.1542481
C    -2.6606436  -4.1474362  78.75016240000001
O    -1.8899461999999998  -7.8578348  81.5475981
O    -0.7096938  -9.3460159  79.46165350000001
O    -1.201009  -8.1248059  76.80971500000001
O    -0.1252139  -5.2469195  77.2908455
O    -2.3412728  -6.1459158  80.04297860000001
O    -3.1609116  -4.3774032  77.4473196
H    -1.2260862000000001  -4.9576534  75.5864205
H    1.8069116000000003  -4.579466099999999  75.6552879
H    -0.118595  -3.865371  73.40424970000001
H    1.7667825000000001  -6.2605151999999995  73.4768662
H    -1.274904  -6.2305142  73.8344794
H    0.7108525  -8.5521507  73.8537675
H    -0.39624940000000003  -8.154734  72.51206400000001
H    0.49385939999999995  -2.9462034999999998  76.6710247
H    1.9642461  -2.8319758  73.499312
H    1.156526  -5.328538  71.41688350000001
H    -1.1138786999999999  -9.135435  75.0656227
H    -0.484556  -6.8635272  80.57716210000001
H    -2.45656  -8.5302777  78.9018006
H    0.26750529999999995  -7.501684  78.10731120000001
H    -2.0595695  -5.967297  77.1922523
H    -0.8017148000000001  -4.8334445  79.6677614
H    -2.1424786  -3.1832895999999997  78.7811968
H    -3.4671707  -4.1553409  79.4891202
H    -2.7919500999999998  -8.2052639  81.4643683
H    0.16211549999999997  -9.1053026  79.80562780000001
H    -0.772584  -7.6457919  76.07798980000001
H    -3.9192519  -3.7912423  77.3037132
