22

C    -25.054  9.45  30.558
C    -25.4719087  8.1723214  30.8868477
C    -25.552087999999998  7.8200721  32.2171637
C    -25.2274161  8.7108635  33.2218066
C    -24.827136199999998  9.99061  32.872402799999996
C    -24.738505  10.3837502  31.5391388
C    -24.3324021  11.8139026  31.218497
O    -25.0520833  12.6738604  32.1027542
C    -24.552704199999997  12.1467258  29.731448399999998
C    -25.2195064  13.526953500000001  29.487008
O    -25.7594101  13.67982  28.3613996
O    -25.168552299999998  14.4036755  30.3814195
O    -23.3031132  12.0946246  29.0558057
F    -25.9502356  6.5605987  32.5391314
H    -24.9414554  9.6717337  29.5113183
H    -25.7189491  7.4548001  30.1215066
H    -25.2908576  8.4099231  34.2546321
H    -24.592149199999998  10.7134281  33.6368996
H    -23.250270099999998  11.9336356  31.4041712
H    -25.079224  13.562168400000001  31.676537099999997
H    -25.2613493  11.4555477  29.2582901
H    -23.4323789  12.4278326  28.1560784
