10

O    2.243  -3.8190000000000004  9.081
S    1.6509443999999998  -4.8606398  8.2296947
O    0.1761541999999996  -4.7502794  8.2280569
O    2.1738022  -4.797138  6.8616386
C    2.0195539  -6.455592  8.9194851
C    3.508476  -6.7838197000000005  8.7078982
O    3.8278786  -7.315483200000001  7.6297238
O    4.2860317  -6.536524  9.6482936
H    1.3781227999999999  -7.1375504  8.3736853
H    1.7639006  -6.376282100000001  9.9694709
