45

Cl    13.308  13.652  0.23099999999999987
C    12.5886586  12.424291199999999  1.2488461999999998
C    12.4071864  11.147846399999999  0.7521103
C    11.838376100000001  10.177276599999999  1.556223
C    11.445091900000001  10.4518187  2.8641984999999996
C    11.6298742  11.750779699999999  3.334288
C    12.2021351  12.730466  2.5415324
C    10.783234400000001  9.3848117  3.7371251
C    11.0644644  7.944735099999999  3.2523523
C    12.512099200000002  7.5253396  3.4546983
N    12.851930000000001  7.622181299999999  4.8935181
C    12.6958648  9.0137693  5.3781768
C    11.2494932  9.4451938  5.2051651
C    9.2650941  9.558036699999999  3.6594616999999996
C    8.4830442  9.800666699999999  4.7829089
C    7.1093305  9.8837915  4.6876184
C    6.467187200000001  9.730888199999999  3.4631509
C    7.249043  9.490932299999999  2.3347865999999997
C    8.6218701  9.4058209  2.4345399999999997
C    5.017093900000001  9.7471971  3.3851627
C    4.108457800000001  9.656400399999999  4.4332413
N    2.8766182000000002  9.6300025  3.9047028
N    2.9262491000000006  9.6859033  2.571138
C    4.2035312000000005  9.751069  2.2389124999999996
H    12.7031939  10.9154562  -0.2581388000000002
H    11.716315400000001  9.200166099999999  1.1219373
H    11.311043000000002  12.0315744  4.3242358
H    12.336648700000001  13.7300993  2.9221136999999997
H    10.788767400000001  7.815982999999999  2.21102
H    10.410829  7.279220899999999  3.8219089
H    13.179927500000002  8.1817119  2.8954948999999996
H    12.6516311  6.4991704  3.1159228999999997
H    13.814683  7.303164  5.047325
H    12.2208798  7.011240599999999  5.4271244
H    13.3577755  9.661878999999999  4.8012092
H    12.9745696  9.0673538  6.4299295999999995
H    10.620633100000001  8.7699871  5.786063
H    11.130190200000001  10.4449556  5.6121165
H    8.915038200000001  9.957186  5.7556729
H    6.528656700000001  10.083151599999999  5.5746606
H    6.774258400000001  9.3635594  1.3739257999999999
H    9.194274100000001  9.2446862  1.5347610999999999
H    4.2607346  9.608507699999999  5.4918176
H    1.9848528000000005  9.5732229  4.369824299999999
H    4.4758611  9.8156967  1.2050777999999998
