104

O    70.07  56.70199999999999  35.383
O    69.3775728  56.50568669999999  30.954696900000002
C    69.2713625  56.829324699999994  34.4685481
N    69.59570409999999  56.41173299999999  33.216389400000004
C    68.97698379999999  56.90536289999999  32.0372265
N    68.04036609999999  57.86243389999999  32.2065107
C    67.66840029999999  58.32815099999999  33.39446220000001
C    67.87989319999998  57.48227149999999  34.6566885
N    67.78539109999998  58.23669069999999  35.909671
C    67.33513899999998  59.55275699999999  35.913217700000004
C    67.23779499999999  60.24308669999999  37.1226202
C    66.79489449999998  61.55257359999999  37.2044597
C    66.7042609  62.21567069999999  38.5486717
C    66.4577705  62.22585409999999  36.020645200000004
C    65.9901228  63.65544239999999  36.0454142
C    66.56818359999998  61.553014299999994  34.811255100000004
C    66.9799616  60.21943629999999  34.7264898
N    67.07646629999999  59.53512099999999  33.4825966
P    66.6848031  65.4506277  26.853313500000002
O    67.6789429  66.2149934  26.067281400000002
O    65.52415749999999  64.79875809999999  26.187518100000002
O    66.00672599999999  66.40317789999999  27.9906153
C    66.7260743  56.40355689999999  34.8673281
C    66.82716149999999  55.09476589999999  34.132761900000006
C    67.62364179999999  54.05127829999999  34.602841600000005
C    67.66402719999999  52.838374599999995  33.939523
C    66.9151345  52.65284549999999  32.7885134
C    66.122339  53.68336649999999  32.3117754
C    66.0706226  54.89284549999999  32.9846676
C    66.68575619999999  56.17749699999999  36.38549690000001
C    67.49393919999999  57.32324469999999  37.0148406
O    68.64709289999999  56.85627229999999  37.6577442
C    66.4958183  60.139764099999994  32.2781729
C    67.50063399999999  60.901636399999994  31.3804976
O    68.30639479999999  61.706360399999994  32.2012246
C    66.73248339999999  61.75106509999999  30.3361857
O    65.84070329999999  60.95211479999999  29.604027500000004
C    67.64267089999998  62.54112309999999  29.3496589
O    68.85567549999999  62.96261799999999  29.9400605
C    66.84453339999999  63.74319469999999  28.835561300000002
O    67.5014492  64.33974839999999  27.7272944
P    66.89601479999999  67.4424519  28.871634900000004
O    66.006429  67.8889581  29.9798216
O    68.21874399999999  66.84611879999999  29.167388400000004
O    67.1028576  68.6726772  27.8223136
C    66.16115779999998  69.7315606  27.777100900000004
C    66.89205139999999  71.06432199999999  27.953134600000002
O    65.99463739999999  72.1537566  27.7610272
C    67.4901932  71.2209503  29.357152100000004
O    68.84856079999999  71.56773159999999  29.323528000000003
C    66.69116399999999  72.3923349  29.973659100000003
O    67.43761409999999  73.130772  30.884938700000003
C    66.3484558  73.17515039999999  28.692677900000003
N    65.28182899999999  74.1106772  28.806432600000004
C    64.0979053  73.9814086  29.479650300000003
N    63.31589339999999  75.01001319999999  29.347282200000002
C    63.99359209999999  75.8786095  28.5321734
C    65.22373359999999  75.32649269999999  28.178399600000002
N    66.11613129999999  75.93382229999999  27.388539
C    65.7270997  77.12020319999999  26.9512272
N    64.59202129999998  77.7445245  27.209539000000003
C    63.68876189999999  77.1481185  28.006818700000004
N    62.54207109999999  77.763431  28.280739900000004
H    70.48671449999999  55.93871479999999  33.1008367
H    67.55995889999998  59.748779799999994  38.024510400000004
H    67.0142377  61.53325979999999  39.332748200000005
H    65.68320709999999  62.540198399999994  38.7386664
H    67.34040949999999  63.09816459999999  38.5733656
H    65.80767339999998  64.01848319999999  35.037794500000004
H    66.74135089999999  64.2922979  36.508328000000006
H    65.0718831  63.74417729999999  36.6229242
H    66.36965779999998  62.10623079999999  33.9091406
H    65.81308529999998  56.91469669999999  34.5458325
H    68.25988059999999  54.19040119999999  35.4632197
H    68.28846589999999  52.04308429999999  34.315559900000004
H    66.9483037  51.710426999999996  32.2644935
H    65.53917739999999  53.54848659999999  31.413737200000003
H    65.45049019999999  55.692567999999994  32.6061265
H    67.1295675  55.23407869999999  36.683728
H    65.65673129999999  56.198180199999996  36.7367957
H    66.9166427  57.84388459999999  37.7810593
H    69.35329599999999  56.73194589999999  36.992410400000004
H    65.6939743  60.80609109999999  32.583736900000005
H    66.08488609999999  59.32726029999999  31.6784263
H    68.12572979999999  60.16297539999999  30.8529644
H    68.8279499  62.29968499999999  31.637255000000003
H    66.11441589999998  62.47834359999999  30.874914300000004
H    66.34016249999999  60.31266169999999  29.073637
H    67.87708009999999  61.89819099999999  28.4866576
H    69.15210919999998  63.76330339999999  29.486724400000003
H    66.74271209999999  64.49910929999999  29.627571200000002
H    65.84085619999999  63.43160679999999  28.519857500000004
H    65.42287579999999  69.5898694  28.573545700000004
H    65.65700069999998  69.7065995  26.8056386
H    67.68758189999998  71.1010884  27.1955844
H    67.40848129999999  70.2925262  29.928461400000003
H    69.06066019999999  72.07247589999999  28.5214688
H    65.7805174  72.02788849999999  30.453813500000003
H    68.37672069999999  72.88578489999999  30.767431900000002
H    67.22177669999999  73.7406161  28.3326628
H    63.85140519999999  73.10976369999999  30.049197300000003
H    66.42383249999999  77.6357223  26.3072918
H    62.36181469999999  78.6693105  27.882625100000002
H    61.87564489999999  77.30248069999999  28.8746557
