52

O    31.139  14.327  12.618
C    30.6849131  13.879173000000002  13.6664266
C    31.5688675  13.299095900000001  14.6956162
S    33.3067808  13.4793064  14.5143373
C    33.6108887  12.6063676  15.9746026
C    32.4436959  12.200953900000002  16.5523226
C    31.2922109  12.586154800000001  15.8371448
N    29.3408864  13.918759300000001  13.9079562
C    28.4297743  14.3893626  12.9507401
S    28.331217  13.6896801  11.3487572
C    27.0380583  14.787507300000001  10.9274774
C    26.7219074  15.629830400000001  11.9555179
C    25.6346357  16.6564743  11.7946401
C    25.2630115  16.9047884  10.3146019
C    26.3076853  17.792799000000002  9.637348
C    23.9330681  17.657813  10.2832747
C    25.1289449  15.5720264  9.5549716
C    26.4261484  14.754133000000001  9.5602913
C    27.5409672  15.421141200000001  13.1198984
C    27.3710575  16.1341009  14.4370396
O    26.2914874  16.0105756  15.0229
N    28.3678499  16.834746000000003  15.0108128
C    29.6210876  17.190598  14.374289300000001
C    29.6019044  18.6249507  13.8581498
C    28.1475839  17.3444435  16.3667129
C    29.2813651  17.006235500000003  17.3266043
H    34.6174168  12.4550493  16.3026863
H    32.3995104  11.6369845  17.4665319
H    30.298382099999998  12.3319416  16.1600059
H    28.9733528  13.599681700000001  14.7928231
H    25.9448531  17.5939962  12.2612542
H    24.7553393  16.3056291  12.3431717
H    26.093928899999998  17.8850603  8.5757871
H    27.308003499999998  17.3829081  9.7568066
H    26.2982819  18.7880407  10.0761792
H    23.1315262  17.049257400000002  10.6974647
H    23.6681342  17.9209187  9.2620595
H    24.0024417  18.572199400000002  10.8671922
H    24.8257843  15.7683508  8.5270779
H    24.342838999999998  14.983857100000002  10.0331643
H    26.2258525  13.722004  9.27064
H    27.1394411  15.1636596  8.840417500000001
H    29.7895504  16.518953500000002  13.5300092
H    30.4351227  17.0495486  15.0842509
H    30.5302386  18.8334808  13.3347908
H    29.4961344  19.333923600000002  14.6745415
H    28.7741955  18.7617451  13.1661738
H    27.2145199  16.8960949  16.711463600000002
H    28.007008  18.4283031  16.3213955
H    28.945370099999998  17.201163400000002  18.3406826
H    30.1631378  17.6123632  17.1414297
H    29.5490927  15.954923  17.249316
