52

O    12.944000000000003  -9.971  14.961
C    13.042742100000002  -9.0465701  15.754702
N    12.326325900000002  -7.902533100000001  15.562524100000001
C    12.337839200000001  -6.790701900000001  16.3827985
N    11.610250000000002  -5.781487300000001  16.0921109
C    13.196941600000002  -6.909490900000001  17.5324411
C    13.904586000000002  -8.029199  17.7466484
N    13.875620900000001  -9.0989947  16.8789293
C    14.680763800000001  -10.3253043  17.1773406
O    15.198384200000001  -10.357509400000001  18.484399500000002
C    15.901664000000002  -10.487944200000001  16.226558
O    15.938479500000001  -11.7532907  15.6310595
C    17.1440468  -10.2861889  17.1504256
O    17.8070252  -11.514773100000001  17.2758192
C    16.529159800000002  -9.7975854  18.4779576
C    17.272428400000003  -10.0944184  19.8056932
N    18.1856313  -11.2060937  19.7360878
C    19.4982514  -11.1351277  19.9726157
O    20.074156600000002  -10.0987776  20.3040368
C    20.2755119  -12.4292455  19.7694635
C    19.488083900000003  -13.7141585  20.0585935
C    19.072742500000004  -13.8136664  21.496091200000002
N    18.2436888  -13.015799900000001  22.1192623
C    18.168414100000003  -13.4628232  23.4139274
C    17.448824000000002  -12.9970826  24.5124055
C    17.572075100000003  -13.671289600000001  25.7117276
C    18.394114300000002  -14.7935801  25.8309279
C    19.116458  -15.2680602  24.7530436
C    18.998454900000002  -14.595172100000001  23.5493388
N    19.556842800000002  -14.791418400000001  22.3164431
H    11.723939600000001  -7.881445800000001  14.7483289
H    11.696965000000002  -5.024681600000001  16.7599156
H    13.237078600000002  -6.0930692  18.2324598
H    14.487625600000001  -8.173947100000001  18.639662
H    13.991039300000002  -11.167880700000001  17.0545886
H    15.861303300000001  -9.765504100000001  15.410483900000001
H    15.964001300000001  -12.4327296  16.3251865
H    17.823987100000004  -9.5234214  16.7533502
H    18.067121200000003  -11.802904600000002  16.3861401
H    16.445335800000002  -8.706536  18.39176
H    16.509550200000003  -10.2854162  20.5643417
H    17.863117000000003  -9.220917400000001  20.0875263
H    17.7696879  -12.102365  19.547514
H    21.1646159  -12.3709527  20.3979142
H    20.6008357  -12.436201400000002  18.7276974
H    20.134833500000003  -14.564869000000002  19.8358989
H    18.616086000000003  -13.787292800000001  19.4104131
H    16.814706400000002  -12.1296291  24.4185738
H    17.022948900000003  -13.3252976  26.5739381
H    18.466672300000003  -15.2978289  26.782136
H    19.752899400000004  -16.1349259  24.8496663
H    20.2125075  -15.514785100000001  22.0690517
