36

C    14.739  4.671  -1.4929999999999999
C    15.8634299  4.3061423  -0.6265063
N    14.8793814  4.4914346  -2.8434722
C    13.5393243  5.1617462000000005  -1.0855211000000002
C    16.1909603  5.0554485  0.5007266999999995
C    16.6360732  3.1977648  -0.960629
C    13.8493513  4.8064138000000005  -3.5664537000000003
S    12.5485039  5.4109597  -2.5030714
C    17.277836100000002  4.7276083  1.2973284999999999
C    17.7179637  2.8468061000000002  -0.17724530000000005
N    13.849725  4.7070744  -4.934889500000001
C    18.021376  3.6134436  0.9292268999999997
C    17.6420645  5.5352143  2.5027514
C    12.8236253  4.6693552  -5.8984917
F    19.0967876  3.2521416  1.6908292999999999
C    13.1819846  4.788284  -7.2460298000000005
C    11.476558  4.5066236  -5.5841005
C    12.223695600000001  4.7748765  -8.2526455
C    10.5225876  4.4828061  -6.5916723
C    10.8688164  4.6264118000000005  -7.9283556
O    12.584344  4.9030965  -9.5611475
C    9.8294891  4.6257329  -9.0503386
O    9.336173200000001  3.5209156000000004  -9.3615538
O    9.540073  5.7216998  -9.5897469
H    13.1485076  5.3690556  -0.11506030000000012
H    15.5971334  5.9210561  0.7510992999999999
H    16.3847787  2.6243275  -1.8370022000000001
H    18.329088300000002  1.9908177  -0.41461119999999996
H    14.7813223  4.5468205  -5.2980365
H    16.9545333  6.364936  2.6296904999999997
H    18.655154  5.92157  2.4022689
H    17.6178139  4.9096959  3.3937935999999995
H    14.2241531  4.9021072000000006  -7.5095773999999995
H    11.1634408  4.4014957  -4.5571496
H    9.4795642  4.3541447  -6.3423494
H    13.5483653  5.0152299000000005  -9.6270413
