15

O    26.695  -22.579  -25.508
C    26.686898300000003  -21.713256700000002  -24.60758
O    27.663901300000003  -21.0023462  -24.293529099999997
C    25.374694400000003  -21.551565600000004  -23.856488
C    24.3382378  -22.426833900000002  -24.173599999999997
C    23.141767700000003  -22.306024200000003  -23.497944099999998
C    25.169259500000003  -20.587495  -22.881458399999996
C    23.9224523  -20.543397600000002  -22.261579599999997
N    22.9386306  -21.3893407  -22.564121999999998
C    23.5969078  -19.5088869  -21.189993599999998
O    22.4434858  -19.529768100000002  -20.719169599999997
O    24.497024500000002  -18.7050911  -20.8605387
H    24.5095043  -23.1705998  -24.9372823
H    22.3019411  -22.957697300000003  -23.6947397
H    25.9453515  -19.8886767  -22.606143999999997
