50

O    56.626  40.632  19.848
C    57.28835039999999  40.8855596  18.841940899999997
N    58.0498238  41.9740712  18.793791699999996
O    58.12647259999999  42.7597801  19.9440757
C    57.215375099999996  40.0123671  17.603152599999998
C    55.94297029999999  40.2933936  16.797535899999996
C    55.705918999999994  39.203356299999996  15.783808899999997
C    55.7646185  39.4774376  14.405029799999998
C    55.51446609999999  38.4976173  13.482138499999998
C    55.1987962  37.189767599999996  13.897065299999998
C    54.9310761  36.1559196  12.977585699999997
C    55.1477266  36.9016485  15.293675799999997
C    54.833317199999996  35.5969154  15.722257899999997
C    54.58133229999999  34.6164462  14.802388299999997
C    54.62525359999999  34.8997069  13.427012199999997
C    55.403484799999994  37.9340999  16.210707599999996
N    58.36259559999999  40.2159343  16.751157799999998
S    59.623086799999996  39.1917772  16.938287399999997
O    59.943351199999995  39.121006  18.341686399999997
O    60.667133299999996  39.6749964  16.067459399999997
C    59.084734  37.6490145  16.363146399999998
C    58.8470592  37.5498992  14.989329599999998
C    58.44727459999999  36.3522612  14.467792299999997
C    58.277237299999996  35.2327927  15.308150899999998
C    57.8734535  33.9866646  14.791056699999997
C    58.521432999999995  35.358786099999996  16.711593199999996
C    58.931919799999996  36.6050624  17.224118999999998
C    58.3481969  34.2332037  17.540381899999996
C    57.9459422  33.0387511  17.003497399999997
C    57.71213519999999  32.9125582  15.624923799999998
H    58.770967799999994  42.1679415  18.116133799999997
H    57.532705699999994  42.315123  20.5928962
H    57.1991306  38.9782526  17.973207
H    56.03718179999999  41.2667104  16.316470999999996
H    55.102677299999996  40.3326955  17.495160199999997
H    55.99160189999999  40.4821802  14.078780699999998
H    55.5514051  38.7170859  12.425885699999997
H    54.966568599999995  36.3729879  11.920894299999997
H    54.80331509999999  35.3874101  16.7808431
H    54.3432354  33.6150339  15.126507499999997
H    54.4182102  34.108024  12.722959599999998
H    55.3399065  37.7167752  17.267392199999996
H    58.142616499999995  40.3575253  15.776542299999997
H    59.01573449999999  38.4189733  14.375641299999998
H    58.259094  36.245936799999996  13.411414699999998
H    57.6901331  33.898003  13.732039299999997
H    59.1405378  36.7438146  18.273053799999996
H    58.533709699999996  34.3328966  18.598648999999998
H    57.8113185  32.178537999999996  17.6412925
H    57.400751699999994  31.958274699999997  15.229631599999998
