73

N    7.781000000000001  20.241  27.461
C    6.392447600000001  20.3226255  27.924743799999998
C    8.0259503  18.8017973  27.271437
C    8.9003938  18.5340869  26.061717199999997
C    8.6801229  18.2732071  28.547354499999997
O    9.4363611  18.979453499999998  29.2051435
N    8.330646  17.0355862  28.879339099999996
C    8.8953722  16.3888613  30.042959699999997
C    9.8414772  15.2883085  29.561180699999998
O    9.543777200000001  14.587784599999999  28.592084199999995
C    7.7649903  15.7974256  30.894902999999996
C    8.249213000000001  15.2795027  32.2424105
C    7.0906278  14.7213437  33.0681076
C    7.5773875  14.2531484  34.433030099999996
N    8.6152589  13.2024834  34.284318
N    10.9835635  15.135443  30.229495399999998
C    11.9287329  14.0954832  29.837874699999997
C    11.4991951  12.7590987  30.455943399999995
O    10.7385775  12.7254131  31.414835699999998
C    13.2451102  14.5782233  30.447656
C    12.766307600000001  15.2343741  31.735676099999996
C    11.5389419  16.0039394  31.265427899999995
N    12.0168432  11.6592976  29.901491299999996
C    11.7503803  10.326669899999999  30.419224899999996
C    12.955001  9.464181100000001  30.060575199999995
O    13.7189079  9.8511153  29.197757599999996
C    10.4559279  9.7335535  29.813029799999995
C    10.6029925  9.3420348  28.368007
C    11.1846646  8.125607899999999  28.026954899999996
C    10.164821  10.1800939  27.350594299999997
C    11.336009  7.7615152  26.700092199999997
C    10.3058358  9.8140061  26.021554899999998
C    10.895299  8.605648299999999  25.692600999999996
O    13.1147049  8.3313366  30.714445699999995
H    8.4518356  20.5777131  28.174697399999996
H    7.9191310999999995  20.7774918  26.598385399999998
H    6.1216147  21.352887199999998  28.156613899999996
H    6.2667626  19.7323879  28.828040999999995
H    5.7172382  19.9653908  27.152198399999996
H    7.073922700000001  18.290405800000002  27.1161513
H    9.069745900000001  17.4670117  25.943149299999998
H    9.8730064  19.0114663  26.165152699999997
H    8.4213326  18.8970021  25.156485699999998
H    7.8264461  16.437186099999998  28.239727499999997
H    9.4362615  17.1615189  30.592388399999997
H    7.3026356  14.982904099999999  30.332283999999998
H    7.0135521  16.5747318  31.046571399999998
H    8.7121121  16.1005444  32.793040299999994
H    8.9941723  14.5073051  32.0416263
H    6.6196226  13.8971356  32.531629599999995
H    6.3358992999999995  15.4932271  33.2121321
H    6.7455169999999995  13.8518037  35.010267899999995
H    8.0061704  15.0936379  34.97900679999999
H    8.957136  12.8924828  35.1999097
H    9.4105447  13.5415879  33.7302622
H    8.2288495  12.392284199999999  33.78579379999999
H    11.9520755  13.9990568  28.749017099999996
H    13.7126022  15.310711099999999  29.790134799999997
H    13.9453153  13.761897  30.613879199999996
H    12.4850467  14.4671596  32.4551139
H    13.5159632  15.8828857  32.181335399999995
H    10.828346  16.1704985  32.070311999999994
H    11.8257394  16.9638751  30.825078499999996
H    12.6403142  11.697963  29.106282099999998
H    11.6347527  10.388601099999999  31.505736299999995
H    9.6738071  10.484821  29.919562899999995
H    10.1889617  8.8526112  30.398448699999996
H    11.4996644  7.4443624999999995  28.8037571
H    9.7130683  11.1306503  27.596853799999998
H    11.7904395  6.814221  26.449671399999996
H    9.9566692  10.4734372  25.241371199999996
H    11.0097031  8.318694  24.657984799999998
H    13.9230421  7.8537888  30.446304499999997
