15

N    24.304  4.329000000000001  62.84899999999999
C    25.2527365  4.3589621  63.49719669999999
C    26.40069  4.385903900000001  64.2852025
C    27.0048061  3.3057404000000004  64.94739929999999
N    28.083577299999998  3.675206  65.61443229999999
N    28.209136  4.9854287  65.40889909999999
C    29.1704787  5.7994393  65.8814216
C    29.1229927  7.1246203  65.54742329999999
C    28.0746882  7.575991500000001  64.7241397
N    27.1414719  6.781564400000001  64.25863489999999
C    27.2026811  5.4971332  64.59460189999999
H    26.6838108  2.2835514000000003  64.95322879999999
H    29.9287769  5.3503096  66.50373129999998
H    29.8731899  7.80665  65.9063602
H    27.9926252  8.611557600000001  64.43234989999999
