14

C    33.676  -9.603000000000002  18.561
O    32.2644944  -9.5922581  18.6091522
C    34.1353944  -8.652647400000001  17.4560691
O    35.5446319  -8.5324211  17.5140992
C    33.7174198  -9.201636  16.0881203
O    34.1524962  -8.3532749  15.045735700000002
H    34.0587217  -10.6084133  18.347058
H    34.1055012  -9.2590532  19.510426000000002
H    31.9686853  -10.1928128  19.3073215
H    33.6554202  -7.678814200000001  17.6139185
H    35.8077366  -7.740736900000001  17.0240391
H    32.6281455  -9.2372004  16.0351681
H    34.1185576  -10.212332  15.9618775
H    35.0963823  -8.5035415  14.897808000000001
