17

C    16.404  6.135  14.289
Cl    14.156632  5.4676260999999995  17.4731518
C    16.8753709  4.8660008  13.9910389
C    16.4949643  3.7730569  14.7543134
C    15.6509271  3.9397811999999997  15.835127
C    15.1898721  5.2109476  16.1317323
C    15.548931600000001  6.3060056  15.359144299999999
S    15.0892291  2.5559743999999998  16.7753555
N    15.677944700000001  1.2059437999999996  16.0391156
O    15.5887112  2.6595277999999998  18.1273789
O    13.649389900000001  2.5057551  16.6714767
H    16.692933800000002  6.9820426  13.6892062
H    17.5417577  4.7187354  13.1564904
H    16.8431049  2.7810846  14.521029799999999
H    15.1600256  7.2752889  15.6219123
H    16.386200300000002  0.7327976999999999  16.5783846
H    14.934708  0.5980555999999999  15.7393618
