17

C    16.966  6.198  14.564
C    15.623781800000001  6.126668700000001  14.9114556
C    15.131765300000001  5.0245315  15.5989664
C    15.991279600000002  3.9923769000000005  15.9256735
C    17.332679400000004  4.057538900000001  15.6006803
C    17.821257300000003  5.1614354  14.911953500000001
S    15.364569900000001  2.644170000000001  16.843914
O    13.916705400000001  2.6598203000000007  16.746396
O    15.929918200000001  2.757011500000001  18.1716167
N    15.948276600000002  1.2607110000000006  16.170483700000002
H    17.3407687  7.054827600000001  14.028484
H    14.953421200000001  6.9301855  14.6507942
H    14.092827400000001  4.9396801  15.8734123
H    17.9777974  3.2419431000000007  15.8825567
H    18.866462300000002  5.207634800000001  14.652582
H    16.278273300000002  0.6109009000000007  16.8689397
H    15.283787100000001  0.8409353000000004  15.5404857
