45

O    -0.5779999999999998  -12.415  61.687
C    0.07613610000000026  -12.8146989  60.52929699999999
N    -1.00271  -10.921727599999999  58.775738399999994
C    -2.1955478  -10.207957799999999  59.22678679999999
C    -1.8700879  -8.664224299999999  59.2918476
O    -2.7228624999999997  -7.9562528  59.832764899999994
O    -0.7743682000000001  -8.328408999999999  58.812447999999996
C    -3.310313  -10.5725015  58.25332289999999
C    -4.6732195  -10.3872887  58.897779799999995
C    -3.201685  -9.8398644  56.921999799999995
S    -3.0514737999999997  -12.3715476  57.92967109999999
C    -1.2945997999999999  -12.3188669  58.427954699999994
C    -1.0256811  -13.3045232  59.58470729999999
N    -2.2202465  -13.6212497  60.343115299999994
C    -2.8376359  -14.8128803  60.23811299999999
O    -2.5406155  -15.6323862  59.3787811
C    -3.9523577  -15.0748579  61.23137259999999
C    -5.2548282  -14.533048599999999  60.689851999999995
C    -5.6507343  -14.810479299999999  59.384216099999996
C    -6.8371591  -14.295998699999998  58.887073699999995
C    -7.6450403  -13.505974799999999  59.692116299999995
C    -7.2598868  -13.2301687  60.994698799999995
C    -6.0693132  -13.7398213  61.48948289999999
H    0.054359999999999964  -12.217856999999999  62.392607399999996
H    0.7295503000000001  -13.6729598  60.75101589999999
H    0.7292330000000002  -12.0437476  60.1068886
H    -0.27675269999999985  -10.838076099999999  59.4965924
H    -0.6427641999999998  -10.367920999999999  57.979499999999994
H    -2.4682028999999996  -10.5306541  60.235786899999994
H    -5.467854  -10.5785734  58.181868599999994
H    -4.7561391  -9.362038199999999  59.25707609999999
H    -4.799209299999999  -11.0654718  59.73893929999999
H    -2.2468732  -10.0213118  56.435154999999995
H    -3.3082882  -8.7672042  57.08316609999999
H    -3.9924933  -10.171422999999999  56.25452299999999
H    -0.6880305  -12.610701899999999  57.56884109999999
H    -0.7423853  -14.2540871  59.11445859999999
H    -2.461073  -12.9961254  61.0975287
H    -3.7284775999999997  -14.622022999999999  62.196220399999994
H    -4.0330417999999995  -16.157331199999998  61.347513799999994
H    -5.0181631  -15.421521599999998  58.757152299999994
H    -7.1306014  -14.512369499999998  57.87111709999999
H    -8.5691385  -13.104740999999999  59.30445269999999
H    -7.884612799999999  -12.6156641  61.62521519999999
H    -5.7751482  -13.517712099999999  62.5048329
