20

C    -17.518  -39.882  -22.735
C    -18.0034169  -38.46935259999999  -23.0455904
O    -17.3761447  -37.5005185  -22.224533
P    -16.0522782  -36.683842799999994  -22.7282196
O    -15.967175500000002  -36.687660199999996  -24.2202481
N    -14.733682700000001  -37.4574174  -21.9299614
C    -14.722623000000002  -38.905671399999996  -22.0214855
C    -13.325037700000001  -39.49188769999999  -22.1231666
H    -16.6945444  -40.18280609999999  -23.3697733
H    -17.2392289  -39.950892499999995  -21.6902552
H    -18.3408748  -40.57401829999999  -22.9130733
H    -19.071319300000003  -38.36983049999999  -22.8259549
H    -17.8261016  -38.207981  -24.0956567
H    -14.669354000000002  -37.090750099999994  -20.9913899
H    -15.224143200000002  -39.116600399999996  -22.9633247
H    -15.265352100000001  -39.370529299999994  -21.1920232
H    -12.8007357  -39.041773799999994  -22.9614055
H    -12.756440700000002  -39.29828309999999  -21.2164186
H    -13.397212000000001  -40.564439699999994  -22.2768119
O    -16.196361200000002  -35.32837419999999  -22.142554
