80

N    36.293  -28.482  21.137
C    36.3317019  -28.5029349  22.4609264
N    35.7555295  -27.6734168  23.3227641
C    35.051346  -26.6937109  22.7400811
C    34.9339542  -26.5596386  21.343741400000003
C    35.5938159  -27.5115473  20.516300700000002
N    35.5443729  -27.4829829  19.181251200000002
N    34.1487781  -25.4690402  21.052657
C    33.811308600000004  -24.9662635  22.2048463
N    34.3132751  -25.663187399999998  23.2760339
C    34.1654965  -25.3766008  24.6735145
C    34.799695  -24.040238  25.1054
O    36.1799805  -24.1320954  25.2578785
C    34.0843473  -23.7982946  26.440994
O    34.8610005  -24.4234735  27.4201591
P    34.7794967  -23.7817779  29.018115100000003
O    35.80922  -24.6104194  29.7931362
O    33.320291  -23.9711539  29.4630087
O    35.1973008  -22.3320142  28.8550161
C    32.72581  -24.4812778  26.2468201
O    32.805978  -25.2769291  25.067667
C    31.622599100000002  -23.4498298  26.0720557
O    31.922711  -22.6755553  24.9239564
P    31.4828709  -21.0910074  24.950827500000003
O    31.863711000000002  -20.5148717  26.267196600000002
O    31.9625343  -20.4178965  23.6948034
O    29.864424200000002  -21.3721289  24.887133600000002
P    28.8031769  -20.1298691  25.131871500000003
O    27.5699245  -20.7138233  25.7375006
O    29.4577703  -18.9824034  25.8407702
O    28.4974887  -19.7360435  23.572805600000002
C    27.0781783  -20.2402257  21.641231400000002
C    28.1124718  -20.7665571  22.6512014
C    26.8043041  -21.3349812  20.607407000000002
C    25.803120800000002  -19.8746411  22.3994876
C    27.6413988  -18.9897231  20.916193
O    28.9240939  -19.2054505  20.3638216
C    26.643111  -18.6225113  19.8237281
O    25.5289483  -18.2024751  20.1317814
N    27.007277600000002  -18.7859209  18.5515342
C    26.0267352  -18.5338646  17.5126905
C    26.5301762  -17.8160593  16.2632094
C    25.3089375  -17.4141707  15.441041000000002
O    24.1720562  -17.7171035  15.7809401
N    25.5518735  -16.711924500000002  14.325217
C    24.4911134  -16.2191674  13.458915200000002
C    23.467221600000002  -17.294467400000002  13.0977425
S    22.5193006  -16.8190287  11.6195614
H    36.9055874  -29.3000792  22.9090589
H    35.034826  -26.739623299999998  18.7373383
H    36.0519533  -28.1809129  18.6642687
H    33.1877306  -24.1053002  22.3562248
H    34.6655358  -26.1911686  25.2237963
H    34.5518317  -23.2440013  24.3945186
H    36.3519221  -24.3089802  26.2021243
H    33.9605764  -22.7352866  26.6907328
H    32.5129996  -25.1115711  27.1193269
H    31.573215700000002  -22.8080739  26.9578807
H    30.6544666  -23.9377265  25.9187771
H    27.6848087  -21.5912847  23.2336903
H    29.0227696  -21.1403755  22.166720400000003
H    27.6829071  -21.480021  19.984022200000002
H    26.5811002  -22.269496  21.115618
H    25.954250000000002  -21.0527199  19.992942300000003
H    25.3312144  -20.7812574  22.770551700000002
H    26.064298  -19.265318  23.2645474
H    25.1111092  -19.3276245  21.769999600000002
H    27.6698539  -18.1696999  21.647745800000003
H    29.5608217  -19.2914068  21.081556
H    27.9207513  -19.1632389  18.349392700000003
H    25.2389231  -17.9392305  17.9813101
H    25.5733485  -19.4853303  17.2116705
H    27.1780906  -18.464525000000002  15.6743555
H    27.0863701  -16.9209574  16.543587600000002
H    26.501653  -16.4737515  14.087426700000002
H    24.9593241  -15.8499447  12.5457072
H    23.9737004  -15.390640099999999  13.955827000000001
H    22.7807983  -17.4991861  13.915463
H    23.9711751  -18.2214421  12.822154900000001
H    21.8930765  -15.7759653  12.149972600000002
