43

C    19.978  -2.209  10.843
C    21.2102613  -2.8240052  10.8706963
C    21.8709855  -3.0501691  9.6781463
C    21.2853158  -2.6850745000000003  8.478583
C    19.9913854  -2.1950982  8.4496514
C    19.3159048  -2.0020406  9.6379691
C    17.9676011  -1.4714593  9.6496906
C    17.7823192  -0.2264143999999999  9.0568091
N    16.6374357  0.42131490000000005  8.9907061
C    15.604501599999999  -0.21514919999999993  9.5334579
N    14.326999  0.2036273999999998  9.6356354
N    13.5828133  -0.7078852  10.2580745
C    14.3578709  -1.7146737  10.5806997
C    15.6678687  -1.4845923  10.1460163
C    16.8951505  -2.1610843  10.231041
N    16.9773869  -3.3788604  10.843517
C    18.1631456  -3.873076  11.5146658
C    15.9135861  -4.3631944  10.7492604
C    15.7156395  -5.0791436  12.0867208
O    16.9404939  -5.6112272  12.5399856
C    17.8102656  -4.5390187  12.8378079
C    19.0147338  -5.110676  13.5965829
N    19.6973411  -4.0976448  14.430312
H    19.6436256  -1.6467106  11.7072138
H    21.7241684  -3.0130277  11.799513600000001
H    22.8589557  -3.4853418  9.6766847
H    21.8338212  -2.8010887  7.5550244
H    19.5079801  -1.9685860000000002  7.5106660000000005
H    18.6259203  0.28033639999999993  8.6090675
H    13.917448499999999  1.0534721999999999  9.2838282
H    13.920361100000001  -2.5082956  11.150899
H    18.7729421  -3.0414531  11.7733471
H    18.6975684  -4.5905161  10.8803484
H    16.2386025  -5.129088100000001  10.025367899999999
H    14.9941544  -3.9344598  10.3781967
H    15.0350471  -5.9215442  11.9575314
H    15.3003473  -4.3927108  12.8378199
H    17.2710074  -3.819084  13.4764014
H    19.7193102  -5.5373019  12.8826559
H    18.6332177  -5.9161714  14.2243983
H    20.4699613  -4.539899800000001  14.9445299
H    20.0859542  -3.3445293  13.8521537
H    19.0474262  -3.6881719  15.113156499999999
