33

C    2.742  5.473  7.017
C    4.0536223  5.696062599999999  7.439865800000001
C    5.1189436  5.8721475  6.5477145000000005
C    4.8603316  5.8194998  5.203368800000001
C    3.5449322  5.6187119999999995  4.7200445
C    3.3052509  5.5917691  3.326136800000001
C    2.045154  5.3923886  2.825684100000001
C    0.9355938999999999  5.2553151  3.682421100000001
N    1.7684042999999998  5.1608963  7.959333900000001
S    -0.43869230000000003  5.3332086  5.9299778000000005
C    1.1152047999999999  5.2944506  5.040070600000001
C    2.4240310999999997  5.4443532  5.6144464
C    1.4294851  5.9064388  9.0798153
C    0.6010210999999999  5.2980248  10.0337361
C    0.25515979999999994  6.0020112999999995  11.1757266
C    0.6851299999999999  7.3125356  11.332036800000001
C    1.4856622  7.9242256  10.3729288
C    1.8763457  7.2162239  9.2501818
O    -1.5466958  5.3717187  4.9575256
O    -0.4086251000000001  6.5915726  6.678802600000001
O    -0.5679676  4.1476313  6.811166600000001
H    4.2309062  5.7087213  8.504483200000001
H    6.1142970000000005  6.0272023  6.927662700000001
H    5.6497833  5.9337751999999995  4.4781022
H    4.1403167  5.7213395  2.655770500000001
H    1.880328  5.3618429999999995  1.7597595000000004
H    -0.070106  5.1535432  3.3122377000000007
H    0.9797731999999999  4.6392831  7.590213800000001
H    0.24067299999999991  4.2980421  9.8470145
H    -0.3743211000000002  5.5421461  11.921697300000002
H    0.3931205  7.8663104  12.211662500000001
H    1.7984750999999999  8.9484675  10.500683200000001
H    2.4814306999999998  7.673110299999999  8.482867200000001
