36

C    4.512  -12.661  27.569
C    4.607833899999999  -11.4093541  28.452011199999998
C    4.4308571  -11.6802734  29.9564043
N    4.1423307  -10.4935925  30.8074777
C    4.3503908  -9.1329566  30.299411
C    5.3787935  -8.2672048  31.043716599999996
C    6.7665513  -8.8866634  31.0351032
C    3.6425243  -10.7180035  32.032000599999996
O    3.4375356999999997  -11.8539823  32.477651699999996
C    3.3239845999999997  -9.5327605  32.9707776
O    3.6941721  -9.8418448  34.3015117
C    1.8396843999999997  -9.1212306  32.8394827
O    1.6912441999999996  -8.5308074  31.562165099999998
C    1.4826647  -8.079227  33.9131826
O    2.2250093  -6.8936435  33.737657899999995
H    5.2766888  -13.385024  27.839610399999998
H    3.5390564999999996  -13.1328255  27.678784699999998
H    4.6499383  -12.378909799999999  26.530193299999997
H    3.8216078999999996  -10.7265251  28.124458699999998
H    5.5778872999999995  -10.9412791  28.279890499999997
H    5.328988799999999  -12.1636698  30.354295299999997
H    3.5970541  -12.3714693  30.112494599999998
H    3.3886850999999996  -8.6186162  30.297383699999997
H    4.700099  -9.218600799999999  29.276576199999997
H    5.139281899999999  -7.9985294  32.0626646
H    5.4178624  -7.3281905  30.4827785
H    6.7634232  -9.8310031  31.577450799999998
H    7.103381799999999  -9.0762588  30.0184692
H    7.4814126  -8.2245232  31.516610899999996
H    3.8752777  -8.6340871  32.7419375
H    3.5381774  -10.7935292  34.434218
H    1.1960943  -10.0044114  32.9527198
H    0.7486533999999998  -8.4350488  31.3614759
H    1.7351444999999996  -8.4615514  34.902442699999995
H    0.4059626999999999  -7.8644314  33.8699422
H    2.1584820999999996  -6.641794  32.8024851
