37

C    6.97  -3.032  -23.851
C    5.8661129999999995  -1.9712070000000002  -23.8070864
C    4.6223265  -2.4066076  -24.567152399999998
N    6.374178499999999  -0.6944420000000002  -24.305053899999997
N    7.6072339  -0.35340170000000026  -23.922508099999998
C    5.7905565999999995  0.32182829999999985  -24.998382099999997
N    4.5689055  0.4937655999999998  -25.548821699999998
C    4.3857028  1.6494791999999998  -26.163999399999998
N    5.2243917  2.6777488  -26.2854095
C    6.439813099999999  2.5339134  -25.7377263
N    7.368178599999999  3.4837428  -25.8264835
C    6.748823799999999  1.3417526999999998  -25.0775448
C    10.1459528  2.0559711  -24.0779078
C    11.477083799999999  2.4936438  -24.018291299999998
C    12.228602899999998  2.1604682  -22.9002961
C    12.053137  3.1673571  -25.096343599999997
C    13.3815467  3.5424700999999996  -25.0458462
C    14.131645899999999  3.2366608999999995  -23.926101
C    13.5619491  2.5388348  -22.861762199999998
O    14.2866574  2.2087410999999997  -21.7598208
C    7.863320999999999  0.8602024999999998  -24.3768407
C    9.0617099  1.5444879999999999  -24.2037524
H    7.239957899999999  -3.2521429  -24.880530299999997
H    7.849838599999999  -2.6764020000000004  -23.3259707
H    6.6080909  -3.938814  -23.378438199999998
H    5.595878599999999  -1.8027010000000003  -22.7540421
H    3.8822522999999993  -1.6124280000000004  -24.5774397
H    4.872963299999999  -2.6504631  -25.5966693
H    4.1995352  -3.2851404000000004  -24.091027099999998
H    3.4113385999999997  1.7848456999999998  -26.6113097
H    8.244361699999999  3.3585396999999997  -25.3468545
H    7.139839299999999  4.360564699999999  -26.263348099999998
H    11.7951859  1.6242723999999997  -22.0721581
H    11.4509911  3.3933617  -25.962918799999997
H    13.8315787  4.0691439  -25.8721334
H    15.1709341  3.5275828999999996  -23.875378899999998
H    15.2036364  2.5100260999999997  -21.850089599999997
