67

C    0.6339999999999999  37.52  83.674
C    0.09275820000000001  38.897186600000005  84.0111475
O    0.7641222999999999  39.421176900000006  85.14905320000001
C    0.5922154000000002  38.578238600000006  86.2742317
C    1.1414277000000004  37.189796400000006  85.9781961
N    0.4590995000000002  36.634033900000006  84.8167209
C    1.024057  35.320385800000004  84.52874870000001
C    0.37084090000000014  34.6342772  83.36650180000001
C    -0.5535226999999998  33.6404438  83.6474287
C    -1.1660989  32.964324000000005  82.62407710000001
C    0.6907185999999998  34.928855  82.0430475
C    0.06952809999999987  34.2658375  81.0058364
C    -0.8737910000000002  33.2907451  81.3026928
C    -1.4843283  32.472694700000005  80.30319010000001
N    -1.3773733  32.624177700000004  78.9539453
N    -2.1748784  31.405600900000003  80.6211471
C    -2.5409294  30.807787400000002  79.46051510000001
C    -2.0457813  31.582023500000002  78.3948105
N    -2.2442187000000002  31.321145200000004  77.10879170000001
C    -2.9478776  30.226999600000003  76.8744666
C    -3.4950495999999998  29.398966500000004  77.85657130000001
Br    -4.4242647999999996  27.875125200000003  77.1339875
C    -3.3335938  29.660738900000002  79.24282950000001
N    -3.8784879  28.960144800000002  80.31590080000001
C    -5.2961445000000005  28.753933800000002  80.2743571
C    -5.8029842  27.639630000000004  81.1622938
C    -3.590211  29.2453277  81.74943270000001
C    -4.818185  29.071511200000003  82.73219110000001
N    -5.3497788  27.721725000000003  82.52922280000001
C    -6.2590816  26.812325500000004  83.23652320000001
C    -6.048026800000001  25.347440000000002  82.80338350000001
C    -6.8425213  24.656176600000002  81.8797691
C    -6.580966999999999  23.325429600000003  81.5765267
C    -5.5373252  22.6686142  82.21011530000001
Cl    -5.1977005  21.007412100000003  81.81699320000001
C    -4.7493489  23.3254583  83.1400363
C    -5.0124575  24.6544935  83.42546750000001
H    1.7019485000000003  37.6150997  83.4043546
H    0.07360310000000014  37.121295200000006  82.82991550000001
H    -0.9840875  38.8366238  84.2163708
H    0.27874979999999994  39.606539500000004  83.2047929
H    -0.4754551  38.5095781  86.52259910000001
H    1.1352403000000004  39.0522943  87.0917967
H    0.967317  36.533885100000006  86.83259500000001
H    2.2298323  37.266456600000005  85.80237260000001
H    0.8964509999999999  34.711758700000004  85.42607620000001
H    2.1103816999999996  35.4109227  84.3293266
H    -0.7863340000000001  33.4009475  84.67265200000001
H    -1.8753039  32.177248000000006  82.8151045
H    1.4627575000000004  35.6502397  81.8231267
H    0.3334022000000001  34.495922300000004  79.9861711
H    -0.9158217  33.358933400000005  78.44419280000001
H    -3.1048923999999998  29.988534400000002  75.8332263
H    -5.624052799999999  28.509607600000002  79.2617335
H    -5.8060659999999995  29.697674900000003  80.52554620000001
H    -5.485356100000001  26.681303300000003  80.73173630000001
H    -6.9060887  27.680093400000004  81.09610020000001
H    -3.2025836  30.256186000000003  81.86646680000001
H    -2.8255784  28.530815600000004  82.0592113
H    -5.5646521  29.8628785  82.5896232
H    -4.4151681  29.155112300000003  83.7417607
H    -7.3123483  27.089188600000004  83.06383520000001
H    -6.0564496000000005  26.873920700000003  84.30864450000001
H    -7.6639584  25.155339400000003  81.38955100000001
H    -7.1891031  22.805188  80.85410850000001
H    -3.9411547000000002  22.806243900000002  83.62879190000001
H    -4.3897573  25.169220900000003  84.1396682
