60

O    -7.259  1.0810000000000004  17.195
S    -5.8542302  1.1609648000000004  16.883735
O    -5.0321514  1.7427244000000002  17.908349
N    -5.2329984000000005  -0.3019170999999998  16.5818917
O    -5.760881  1.9501360000000005  15.5130625
C    -4.4921761  2.1886349000000007  14.8752924
C    -4.3272789000000005  1.3669574000000004  13.5725052
C    -3.3352472000000004  2.1714060000000006  12.7041393
C    -4.2630833  3.6456504000000005  14.3964561
C    -2.9574140000000004  3.3503543000000007  13.6125048
C    -5.477674500000001  4.092160100000001  13.5603119
C    -3.9930849000000004  4.7106104  15.4708437
C    -3.2676424000000006  5.9510269000000005  14.9053703
C    -1.9852354000000003  5.588340700000001  14.1201179
C    -2.3083123000000003  4.5882966000000005  12.9790615
C    -1.0151372000000003  4.2500526  12.2161107
C    -0.42406140000000025  5.4965403  11.528547
C    -0.4801418000000002  6.754831500000001  12.3732306
C    0.2056085999999997  7.921023700000001  11.9698133
C    -1.2226133000000003  6.7940288  13.5650039
C    -1.1815409000000003  8.002872  14.2330181
C    -0.5267319000000004  9.1760497  13.9004651
C    -0.6602351000000002  10.3767966  14.8165595
C    -1.8810992000000002  11.2159259  14.4308209
C    0.20147029999999955  9.118469000000001  12.701003199999999
O    0.9252972999999995  10.245994  12.2400789
S    2.5429584  10.2710805  12.2667745
O    2.9497432999999997  11.6455818  12.1424184
O    3.0784902  9.398374700000002  11.255599799999999
N    3.0325632999999996  9.725415900000002  13.699239799999999
H    -4.848471  -0.6888460999999992  17.4278804
H    -5.9141701  -0.9095174999999998  16.1573664
H    -3.7374868  1.9163711000000005  15.6191873
H    -5.303613200000001  1.2717376000000007  13.1028453
H    -3.9604273  0.3684334000000007  13.7975351
H    -3.7978241000000006  2.5220360000000004  11.7841778
H    -2.464268  1.5756324000000008  12.443549299999999
H    -2.2397891000000003  2.9748872000000004  14.3510103
H    -6.373425500000001  3.9454716000000003  14.1592798
H    -5.5797457  3.5216129000000005  12.6451594
H    -5.3957426  5.143221800000001  13.3029781
H    -3.3740135  4.2689978  16.2572181
H    -4.9315255  5.017765600000001  15.9332627
H    -3.0208516000000003  6.5884719  15.7517136
H    -3.9357188  6.5075047  14.2476982
H    -1.3043923000000004  5.0836537  14.8167984
H    -3.0112185  5.0594149  12.2863092
H    -1.2152979000000004  3.4951967000000006  11.4586153
H    -0.28848470000000037  3.8436524000000007  12.9209119
H    -0.9835655000000003  5.6959042  10.610409
H    0.6092546999999997  5.3040266  11.237580699999999
H    0.7953982999999996  7.8986156  11.064553199999999
H    -1.7341469000000003  8.056189  15.1640068
H    0.23215339999999962  11.0001926  14.726834199999999
H    -0.7570949000000002  10.0320665  15.8447054
H    -1.9723054000000002  12.071975600000002  15.0935339
H    -2.7878801  10.6207291  14.4974888
H    -1.7772590000000004  11.5756554  13.4096329
H    2.8539781  8.7468119  13.8455987
H    2.7530532  10.3126253  14.4654252
