38

C    1.818  1.946  25.489
C    2.3648972  5.0958746999999995  22.8324692
C    0.8208687000000001  6.7051457  23.6545606
C    -3.0502667999999997  3.5454316  27.1428239
C    2.1204002  6.3724969  23.3105272
C    -1.9680309999999999  2.9033533  27.705367499999998
C    3.1271273  1.4445679999999999  25.4340402
C    1.4203133000000001  1.7493241  26.7994925
C    -0.8463094999999998  2.6497439  26.896594999999998
C    0.16641890000000015  4.6203182  23.0760491
C    -1.9698088  3.5921012  25.1425166
C    4.0498388  1.3903344999999998  24.2685195
C    -1.4603135999999999  3.7280202  21.481749399999998
C    -0.9482299999999999  3.6278881  22.913840699999998
N    1.3814021  4.2229944  22.7158269
N    -0.15656329999999985  5.8256482  23.5303109
N    -3.0627972999999997  3.881896  25.8616517
N    -0.8634749999999998  3.0051815  25.6241265
N    2.4486963  1.1680196  27.4556245
N    3.4872374  0.9823548999999998  26.6248771
N    0.23754890000000015  2.0427453  27.4330194
N    -2.0247862  3.8859956  23.83569
F    3.1223509000000003  7.2712792  23.4346897
Cl    -1.9822384999999998  2.4312734999999996  29.3737082
H    1.2511332000000002  2.3959055  24.704653699999998
H    3.3538017  4.7730463  22.5382531
H    0.5604694000000001  7.686799  24.0251503
H    -3.9358068999999998  3.7851860999999998  27.7137649
H    4.9896198  0.9400251000000002  24.5709048
H    4.2328692  2.3943969999999997  23.891305799999998
H    3.605884  0.8030984000000001  23.467838099999998
H    -2.2658297999999997  3.0166041999999997  21.3273659
H    -0.6551048999999999  3.5055153  20.788718799999998
H    -1.8263721999999998  4.7327127  21.2886309
H    -0.5491645999999999  2.6281252999999998  23.110346399999997
H    2.5162998  0.8728357  28.415263
H    0.16102910000000015  1.8083176  28.415613699999998
H    -2.8026017  4.4523377  23.5352341
