62

N    5.643  14.589  9.059
N    2.2810869999999994  14.7935549  10.3375586
C    2.5601388  16.6237211  9.193853599999999
N    1.6896655999999997  15.9450157  9.945542799999998
N    2.2227650999999997  17.880337700000002  8.6618193
C    2.8462198999999995  18.5551377  7.637090799999999
C    2.3544408  19.8936791  7.260549899999999
O    3.8026028999999997  18.055432  7.043181399999999
C    3.1756534  20.7307846  6.478302099999999
C    2.7608469999999996  21.9877094  6.089327199999999
C    0.6675038999999998  21.6253764  7.229533699999999
C    1.0878982999999995  20.3701638  7.615571499999999
C    3.5190813999999997  14.7228548  9.8511642
C    3.7452229999999997  15.8643568  9.1203861
C    5.1134774  15.8675305  8.5617922
C    4.6777622999999995  13.8032292  9.871450199999998
N    1.0751351999999996  23.7479668  6.111428199999999
C    1.4682246999999995  24.4021401  4.869213099999999
C    1.7789982999999996  25.9061492  5.045346999999999
N    0.7785435999999994  26.5408865  5.862249299999998
C    0.5010440999999997  25.9214591  7.126129499999999
C    0.07819329999999969  24.4571441  6.897624099999999
C    0.37325769999999947  27.891694  5.608720799999999
C    1.4899098999999998  22.4852542  6.460007199999999
C    6.892433799999999  14.158431  8.8412358
O    7.275044299999999  13.047078899999999  9.2208832
C    8.3549551  16.2094823  9.0665324
C    8.427742599999998  17.5162804  8.584319699999998
C    8.698604  15.9610612  10.397871299999998
C    8.8124162  18.5555606  9.423428399999999
C    9.0796226  17.0011873  11.237106299999999
C    7.9141119  15.0788962  8.135812199999998
C    9.1318542  18.3024221  10.7526552
O    9.0329501  14.3173402  7.731935299999999
H    1.7567841999999998  14.1567723  10.9176232
H    1.3864531999999996  18.2727641  9.070755799999999
H    4.153362199999999  20.3653792  6.202108699999998
H    3.4388672  22.5987051  5.516380499999999
H    -0.3300649  21.9374611  7.491626799999999
H    0.39693419999999957  19.7488696  8.164119199999998
H    5.1187153  15.9009958  7.467848699999999
H    5.7182533  16.7046871  8.9264213
H    5.0951213  13.6264055  10.8663739
H    4.4881883  12.837307599999999  9.3946098
H    0.6230262999999998  24.3158883  4.1709312999999995
H    2.3252309999999996  23.8981241  4.432844599999999
H    1.7923422999999996  26.3792903  4.064292799999999
H    2.7864587  26.0092561  5.493928999999999
H    -0.31033560000000016  26.4540114  7.619602599999999
H    1.3847305999999997  25.9339178  7.791595199999999
H    -0.029761900000000452  23.9707513  7.864528999999999
H    -0.8860416000000004  24.452245  6.372754199999999
H    1.1017701999999998  28.6394369  5.960882599999999
H    0.23501329999999943  28.0341633  4.5383562999999985
H    -0.5735762000000006  28.082388899999998  6.106425399999999
H    8.1686448  17.7196731  7.555977999999999
H    8.6533593  14.9497902  10.776195999999999
H    8.8571467  19.5621649  9.037691399999998
H    9.3327394  16.7920473  12.264516999999998
H    7.466322999999999  15.5086289  7.231359599999999
H    9.4218288  19.1121139  11.4035541
H    8.990233499999999  13.475917500000001  8.226888999999998
