57

S    9.26  70.429  3.46
C    9.3668547  66.5353514  3.1955098
C    10.1741083  66.8186339  4.4783414
N    9.6448302  68.8200376  3.2761081
C    8.4368675  65.3655941  3.3984836
N    6.8081194  59.0195252  3.4126786
C    11.4758623  66.018342  4.4957706
C    10.3653318  68.35145729999999  4.4617378
C    8.6194168  67.8402123  2.9527333000000002
C    5.754702399999999  58.6664212  2.5599191
C    7.3068366  60.3625202  3.3297179
N    9.0061193  64.1879005  3.0715421000000003
C    8.1283768  60.713027499999995  2.2655657
N    12.1568291  66.0921877  5.6653864
C    8.3978066  62.9339716  3.2416671
C    8.6514943  61.985785  2.2548927
O    8.1735572  70.5675189  4.4047911
O    10.485109699999999  71.0915707  3.8471801
C    7.3606339  58.146051899999996  4.3023321
O    7.313303599999999  65.4719909  3.8638476
O    11.8033489  65.3135547  3.5535162
C    5.3253623  57.2943095  2.6337219999999997
O    5.3143638  59.5186904  1.7782399
C    6.996368199999999  61.2947958  4.3133594
C    7.535864  62.5753974  4.2745087
C    6.8756585  56.881848  4.4270192
C    5.8464621999999995  56.4443725  3.5585412
C    13.3094267  65.3753566  6.0475033
N    8.7781375  70.9002562  1.9725256999999998
F    9.4393779  62.3753666  1.2207503000000002
C    15.448276700000001  63.8803317  6.9451474
Cl    16.6901836  62.792585  7.511656
C    13.6691696  65.4037296  7.396266799999999
C    14.0434984  64.604562  5.1451289
C    15.115560299999999  63.8538014  5.5975137
C    14.7395847  64.6549103  7.854021299999999
H    10.0662784  66.3457173  2.3793148
H    9.5818976  66.531496  5.3512512
H    11.408750999999999  68.6525946  4.3587081
H    9.9490191  68.8214508  5.3585972
H    7.7513292  67.9196058  3.6192231
H    8.3039068  67.9737707  1.9211604000000002
H    9.9199888  64.1934516  2.6320845999999998
H    8.351549  60.0204354  1.4712394999999998
H    11.7740974  66.6907032  6.3862326
H    8.164649  58.536804599999996  4.904949
H    4.5468855  57.0036266  1.9479685
H    6.3374365  61.017446  5.1201743
H    7.2801699  63.2979019  5.0302173
H    7.304373099999999  56.2064876  5.1462339
H    5.4939392  55.4272639  3.6244783
H    7.9478354  71.4676621  1.9952405
H    9.5266323  71.30455119999999  1.4343701000000002
H    13.104898  66.0031052  8.0928335
H    13.7695444  64.5799985  4.1053296
H    15.678014000000001  63.2410878  4.9132783
H    15.0101817  64.65726049999999  8.896300400000001
