40

C    7.024  -1.1389999999999998  9.997
C    6.390758  -1.6088744  11.313071
C    6.886701899999999  -0.6829845999999997  12.4319039
C    4.8701237  -1.4665  11.179537700000001
C    6.7705632  -3.0543576  11.6297209
C    7.6832118  -3.6821042  10.7960249
C    8.1119831  -4.986854  10.9920459
C    7.632701399999999  -5.6934534  12.0846429
C    6.7153513  -5.1031406  12.9319623
C    6.272982799999999  -3.7969903  12.723885300000001
O    5.3638791  -3.2564335  13.582685000000001
C    9.1540515  -5.5642252  10.0927033
O    10.2264103  -5.9483184  10.5638508
N    8.9104387  -5.586107  8.7655159
C    9.922193499999999  -6.0202317  7.809220100000001
C    9.459498  -7.2946431  7.101070900000001
O    8.190237699999999  -7.109910299999999  6.496789000000001
C    7.217029  -6.7561256  7.4637791
C    7.591423  -5.4511269  8.175994000000001
H    6.6850631  -0.12353259999999988  9.7966657
H    6.713095399999999  -1.76004  9.161492800000001
H    8.1082596  -1.1115570999999997  10.0598734
H    6.4168047999999995  -0.9458039999999999  13.3763737
H    6.6423936999999995  0.34951370000000015  12.197962500000001
H    7.9652897  -0.7703755999999999  12.5469486
H    4.5013904  -2.0891365  10.3670991
H    4.6112982  -0.43213849999999976  10.970065
H    4.3750994  -1.7668532  12.098090500000001
H    8.105884399999999  -3.1612684  9.9579333
H    7.9743094  -6.7016126  12.2659537
H    6.3364831  -5.6603435  13.7761308
H    5.1245761  -3.8985409  14.267598
H    10.849886099999999  -6.1947804  8.354341400000001
H    10.0598761  -5.2214372  7.074773100000001
H    9.4076866  -8.1210963  7.8246073
H    10.1431702  -7.5566510000000005  6.294332000000001
H    7.1198219  -7.5648505  8.202441100000001
H    6.2808778  -6.6408701  6.9185233
H    7.617337  -4.6397534  7.441043700000001
H    6.8588945  -5.2265037  8.9485493
