44

C    14.099  -1.206  8.918
C    13.839206800000001  -1.802019  10.305305099999998
C    14.726383900000002  -1.0993636000000002  11.336066799999998
C    14.058448  -3.3020882  10.3303471
C    15.102985400000001  -3.861134  9.612129499999998
C    15.334222  -5.2297411  9.571582999999999
C    16.51873  -5.7558088000000005  8.822897299999998
O    17.5362149  -6.0609150000000005  9.449253499999998
N    16.4442802  -5.8525366000000005  7.482959799999998
C    17.5265242  -6.4153009  6.6680484999999985
C    16.8707189  -6.6395995  5.334886999999998
C    17.3253694  -7.337009800000001  4.2292641999999985
C    16.516673700000002  -7.4244408  3.1028221999999985
C    15.271014200000002  -6.818588200000001  3.087031099999998
C    14.8186078  -6.1089083  4.192636599999998
C    15.623925400000001  -6.0188862  5.314226899999998
C    15.3585191  -5.3553713  6.639189999999998
C    14.5156501  -6.0746753  10.324499499999998
O    14.7199512  -7.418445800000001  10.322668499999999
C    13.463077000000002  -5.5388745  11.050109699999998
C    13.220219100000001  -4.1737015  11.057466199999999
O    12.178193700000001  -3.6406929000000003  11.755410499999998
C    11.3500166  -4.5230592000000005  12.502282699999999
H    13.723805200000001  -0.18621960000000026  8.885478699999998
H    13.5930782  -1.7849618  8.149625099999998
H    15.161740400000001  -1.1772941000000001  8.696586399999997
H    12.792950800000002  -1.6247663  10.574674899999998
H    14.509332500000001  -1.4652031  12.337155499999998
H    14.5510932  -0.027187800000000095  11.311286699999998
H    15.776181500000002  -1.2891087000000003  11.122199399999998
H    15.769263100000002  -3.2214229000000003  9.057657399999998
H    17.896486600000003  -7.3306027  7.136931499999998
H    18.3633318  -5.709625  6.599768199999998
H    18.2932893  -7.814408500000001  4.246958899999998
H    16.8615081  -7.9734262000000005  2.2408018999999983
H    14.6452383  -6.8959975  2.211846999999999
H    13.848073300000001  -5.6369464  4.178476199999999
H    15.4053091  -4.2632555  6.553802099999999
H    14.388187900000002  -5.6268311  7.062236299999999
H    14.0872653  -7.8583354  10.911116499999999
H    12.8383157  -6.2139501  11.6109251
H    10.6103292  -3.8781411  12.971947299999998
H    11.9223067  -5.042824  13.2735639
H    10.8471287  -5.2396262  11.849419799999998
