25

O    8.279  7.165000000000001  40.963
C    9.1677115  8.0157021  40.940233
N    9.571243299999999  8.706750300000001  39.8705495
C    9.0052219  8.692044300000001  38.545017300000005
B    8.866971  10.152099  37.886077300000004
O    8.336784  10.2131526  36.6264081
O    8.7804343  11.216091800000001  38.7309256
C    9.918187999999999  8.3222932  42.2097116
C    10.3592672  7.285573500000001  43.0556156
N    10.276437  5.8449939  42.702814700000005
O    10.292656299999999  5.428919700000001  41.5399327
O    10.2185038  5.015877700000001  43.623013
C    9.9688657  9.645337900000001  42.652633800000004
C    10.5745436  9.9780405  43.855135000000004
C    11.094528799999999  8.9688177  44.6533959
C    10.9719449  7.6407734000000005  44.2640934
H    10.3100189  9.380105  40.0142487
H    8.0014352  8.2639411  38.625593800000004
H    9.585414499999999  7.9979947000000005  37.9238012
H    8.3285409  9.4140177  36.0995125
H    8.5154408  12.0496309  38.332368100000004
H    9.5482254  10.412454400000001  42.0209739
H    10.6305022  11.007653300000001  44.1672251
H    11.582034799999999  9.198231300000002  45.5861794
H    11.3464832  6.847891800000001  44.8949054
