41

C    5.651  -29.087  -49.414
C    5.9587684  -29.5848491  -50.7050878
C    5.117543100000001  -30.003781099999998  -51.7357713
C    5.6528657  -30.4477709  -52.9315866
C    7.0426427  -30.4824451  -53.1072525
C    7.8942737  -30.0800298  -52.107316100000006
C    7.343416700000001  -29.6383531  -50.9191444
S    8.2168962  -29.099658299999998  -49.530487400000005
C    6.7531114  -28.7769192  -48.6921266
C    6.7820865  -28.2611262  -47.304134000000005
O    8.0967124  -28.0606649  -46.7513036
C    8.224010400000001  -28.448507499999998  -45.4331636
C    7.1662875  -28.5905916  -44.6398713
C    7.2625741  -29.0596253  -43.2394565
C    6.040524100000001  -29.9934446  -42.933890600000005
O    6.2339639  -31.18364  -42.64036
O    4.9385382  -29.409197  -42.984591200000004
O    7.130746  -27.8951588  -42.404806
C    8.5828234  -29.7501663  -42.961270400000004
C    9.752325800000001  -28.922352099999998  -43.4844552
O    10.9720011  -29.5477015  -43.138597600000004
C    9.6440987  -28.8296302  -45.0174856
O    10.598946  -27.926102699999998  -45.5391666
C    4.7874799  -30.900776  -54.075439700000004
H    4.649952000000001  -28.9613375  -49.0412265
H    4.0475713  -29.9738742  -51.591474000000005
H    7.4427734  -30.8310565  -54.0465758
H    8.9650286  -30.1050671  -52.2310389
H    6.2431273  -28.989284599999998  -46.6865345
H    6.2395515  -27.3064522  -47.246191100000004
H    6.171006  -28.2671893  -44.904145
H    6.1762175  -27.7470839  -42.2967172
H    8.5676365  -30.733113799999998  -43.434165
H    8.6730625  -29.8942816  -41.8830256
H    9.7043285  -27.9051206  -43.073540900000005
H    11.052697  -29.554313399999998  -42.1748652
H    9.8552833  -29.8383203  -45.418237000000005
H    10.374172100000001  -27.7538229  -46.4657714
H    4.9733442  -30.281173  -54.950059700000004
H    5.0222769000000005  -31.930764  -54.3350146
H    3.7346440000000003  -30.8354723  -53.8158887
