56

C    27.158  47.933  63.61899999999999
C    25.681969300000002  47.816370000000006  63.42334279999999
N    24.781692  48.6566812  63.974320399999996
C    25.0446224  49.748384  64.89000429999999
N    23.5236725  48.339274700000004  63.621101599999996
C    24.942560800000003  46.907947  62.6561962
C    23.5812758  47.282115600000004  62.812972499999994
C    22.3316035  46.662133700000005  62.242628599999996
C    25.5057291  45.794561200000004  61.815898999999995
C    25.5110629  44.526935300000005  62.58570939999999
O    24.3474636  43.8792635  62.840891299999996
C    24.759100800000002  42.8047277  63.549658099999995
N    26.0536143  42.7961442  63.72251309999999
N    26.5320051  43.905576100000005  63.08793659999999
C    23.7701828  41.8765422  64.02317749999999
S    22.1632749  41.9366326  63.33285299999999
C    21.597570700000002  40.658799200000004  64.363135
C    20.2998652  40.147831800000006  64.40411479999999
C    20.0299658  39.1225887  65.29771869999999
C    21.0475603  38.6026933  66.1081821
C    22.3389628  39.0977953  66.06994359999999
C    22.634009300000002  40.1713661  65.20174119999999
C    23.878236  40.8925624  64.99968999999999
O    25.0127968  40.6635137  65.69780859999999
C    24.860328  40.658085  67.14409629999999
C    25.7909088  39.5995877  67.75352419999999
C    27.2540008  39.9131135  67.44697729999999
N    27.5658278  41.247855400000006  68.01119729999999
C    26.6950834  42.3199727  67.4593082
C    25.2081743  42.048679  67.67970629999999
H    27.6623941  47.110057000000005  63.124452399999996
H    27.4018108  47.91053  64.6794441
H    27.5174485  48.8747787  63.2071097
H    24.093138200000002  50.2197784  65.11727929999999
H    25.7138959  50.470962400000005  64.4246515
H    25.498608400000002  49.36864  65.804634
H    22.5858366  45.814627300000005  61.611835799999994
H    21.7865401  47.399354900000006  61.658934099999996
H    21.6883493  46.3214047  63.050431599999996
H    26.5281126  46.019053400000004  61.51781569999999
H    24.8867106  45.659686900000004  60.92641619999999
H    19.5398877  40.5477865  63.7533566
H    19.0342369  38.714683  65.35875979999999
H    20.816832  37.7851589  66.7727357
H    23.106396  38.6302527  66.66168579999999
H    23.8235363  40.4390846  67.40290999999999
H    25.547460100000002  38.6230798  67.3373532
H    25.6140469  39.5661575  68.82776109999999
H    27.3929498  39.9460331  66.36610289999999
H    27.9087269  39.1623132  67.8840788
H    28.5429874  41.4894782  67.8133335
H    27.4435836  41.211322200000005  69.0314432
H    26.8690734  42.3731701  66.3806377
H    26.972178  43.272038300000006  67.90970589999999
H    24.950656300000002  42.0912862  68.7380925
H    24.629299200000002  42.8067094  67.15515599999999
