43

C    11.128  12.493  20.806
C    11.2887006  13.5627381  21.6999697
C    11.321751299999999  14.867021000000001  21.1775005
C    11.0510705  14.065908  19.110050100000002
C    11.5140505  14.8615362  23.3469932
N    11.2071518  15.1413068  19.8643135
N    11.0081299  12.796130400000001  19.4982498
N    11.4836213  15.6962521  22.262449
N    11.4177048  13.5969117  23.056445
C    11.5926767  17.1398084  22.4661105
C    10.2936443  17.930054000000002  22.2068373
N    11.0923178  11.219918700000001  21.2150964
C    9.743913599999999  17.7771547  20.8003588
C    8.372022099999999  18.3804705  20.5119583
C    7.8783052  17.8310365  19.1652029
C    7.9910730999999995  16.2938266  19.105791500000002
C    6.798091899999999  15.5921071  18.4718284
C    12.8986929  17.796163800000002  21.9495891
O    13.9702841  17.3123144  22.7428586
C    13.1923649  17.797138  20.4528217
H    10.9491335  14.2391585  18.048718100000002
H    11.6335899  15.2296831  24.3462786
H    11.7372724  17.2142032  23.5551441
H    10.490924099999999  18.9765836  22.440334200000002
H    9.543668  17.5670698  22.9156795
H    10.9725716  10.4858673  20.5395188
H    11.1787625  11.0266989  22.1968307
H    9.7279611  16.7178026  20.5815971
H    10.4486586  18.2197168  20.0935802
H    8.4224418  19.4683605  20.4866095
H    7.6679335  18.0901978  21.2959627
H    8.4631997  18.2709312  18.357146800000002
H    6.8372738  18.125457  19.019914800000002
H    8.050853199999999  15.9006679  20.123337
H    8.9025119  16.0035311  18.583985900000002
H    6.952793  14.5158543  18.4767823
H    6.656888299999999  15.911846200000001  17.4407734
H    5.8882709  15.8131793  19.025444800000002
H    12.8173909  18.8452642  22.2686165
H    14.2776691  16.4670872  22.3885843
H    14.2212253  18.1120224  20.298515300000002
H    12.5363177  18.4940216  19.9452453
H    13.0468579  16.8092237  20.0196273
