59

C    16.828  -10.796  19.268
C    15.898639  -11.061801299999999  18.2571211
C    16.683339699999998  -5.608582199999999  16.249213
C    15.570602099999999  -7.690745799999999  17.054320399999998
C    18.1186906  -11.296971499999998  19.2120575
C    17.608077299999998  -12.381983899999998  17.1348125
C    16.3191565  -11.8716943  17.1975495
C    14.5339364  -10.504702799999999  18.3696855
C    9.6136881  -7.6474929  16.5242046
C    10.207279499999999  -4.205300899999999  14.02289
C    8.443341499999999  -3.2474390999999994  15.3502524
C    9.2664482  -4.337537299999999  15.0471899
C    8.5662054  0.3934383000000006  13.054527199999999
C    9.6479351  -0.637380799999999  12.8833839
C    9.5317294  -1.899057899999999  13.6595735
C    8.5794547  -2.0504821999999994  14.6750152
C    10.4985851  -8.562405199999999  17.0678566
C    11.8227431  -8.2119149  17.3698567
C    12.195414699999999  -6.885380999999999  17.1266654
C    11.3138586  -5.958074399999999  16.5807855
C    12.7284397  -9.216566  17.965579599999998
C    12.4323269  -10.058777  19.019292
C    13.562195899999999  -10.852998  19.2805425
O    10.5086804  -0.4834536999999992  12.027862599999999
C    10.3338554  -3.0037870999999994  13.3438891
O    9.03432  -5.495060099999999  15.750924099999999
C    10.0124008  -6.334484999999999  16.2564021
N    14.0214252  -9.506814299999998  17.572756299999998
C    14.745954  -8.852460099999998  16.5113813
O    15.812468299999999  -7.552456599999999  18.2316351
N    16.0058989  -6.8023739999999995  16.0708753
N    16.897503  -4.852398099999999  15.180889
N    16.9861963  -5.188484699999999  17.4623913
C    18.5123157  -12.088629999999998  18.1430965
Cl    15.2203579  -12.290049799999998  15.9015627
H    16.5175793  -10.1750511  20.0936988
H    18.8156242  -11.0706294  20.0030897
H    17.8942351  -13.0047296  16.3025525
H    8.600286399999998  -7.936524899999999  16.2936113
H    10.833907799999999  -5.044684599999999  13.762329399999999
H    7.707869399999999  -3.358895499999999  16.1312886
H    8.748994799999998  1.212009300000001  12.3631502
H    8.555154899999998  0.7788062000000009  14.0713999
H    7.598900499999999  -0.05455739999999931  12.8413755
H    7.939846199999999  -1.2300345999999989  14.9533955
H    10.165018799999999  -9.571633299999998  17.2546771
H    13.1858167  -6.554677299999999  17.3983481
H    11.634025999999999  -4.940352599999999  16.4147642
H    11.504054799999999  -10.086737  19.5567797
H    13.6510831  -11.605477399999998  20.0398043
H    11.054317999999999  -2.9007841999999995  12.5466223
H    15.4205197  -9.575039  16.041158499999998
H    14.0268687  -8.498058799999999  15.7682919
H    15.7724619  -7.0432817  15.113864
H    17.3812057  -3.971832299999999  15.2702569
H    16.665399  -5.165879799999999  14.2518144
H    16.7857345  -5.791616199999999  18.2542888
H    17.465652499999997  -4.314214199999999  17.6097569
H    19.5142384  -12.483374699999999  18.0932098
