110

N    10.621  22.347  -1.542
C    11.2655119  22.6640073  -0.24269129999999994
C    12.514035  21.775523800000002  -0.04632929999999991
O    12.4231671  20.557457000000003  -0.0567361999999999
C    10.250197700000001  22.397860200000004  0.8807741
C    10.8526542  22.554177900000003  2.2524477000000003
C    10.699672  23.735507300000002  2.9634910000000003
C    11.5537809  21.503443700000002  2.831712
C    11.231465  23.861735000000003  4.2343722
C    12.0916477  21.630012600000004  4.0979202
C    11.9230956  22.808323100000003  4.8039661
N    13.672892000000001  22.4357022  0.10268630000000001
C    14.9327279  21.728472800000002  0.24209800000000004
C    15.8306604  22.3297759  1.3318751
O    15.959795  23.539433400000004  1.4647844
C    15.7219129  21.715496800000004  -1.1067325
O    17.0466266  21.2763117  -0.82345
C    15.736571  23.0896745  -1.770914
N    16.4283698  21.429586200000003  2.1262526
C    17.3953597  21.803447500000004  3.1336563
C    18.8335753  21.506784900000003  2.6746003
O    19.7992707  21.8707324  3.3417809
C    17.151799  21.092327700000002  4.479777
C    15.7617942  21.231589400000004  5.1303874
C    15.826837900000001  20.751907000000003  6.5827074
C    15.248362199999999  22.664037500000003  5.0904122
N    18.9627844  20.857938200000003  1.5113169000000002
C    20.2635756  20.491175400000003  0.9792368
C    20.5403836  21.261434500000004  -0.3248929999999999
O    20.2401937  20.798585100000004  -1.4196177
C    20.3575218  18.9877834  0.6989384000000001
C    19.5278979  18.162974500000004  1.7173276
O    18.3260714  17.976616300000003  1.439213
O    20.1084663  17.747682200000003  2.7374131999999998
N    21.1035035  22.466433500000004  -0.18417130000000004
C    21.4471464  23.2895621  -1.3345394999999998
C    22.7964846  23.987976300000003  -1.0982024
O    23.2152103  24.184133300000003  0.03747050000000007
C    20.3377207  24.313138000000002  -1.592156
N    23.4629205  24.367388700000003  -2.1968997000000003
C    24.775570000000002  25.003436800000003  -2.1310899
C    24.6299299  26.469931400000004  -1.7053884000000001
O    24.1312632  27.297134600000003  -2.4677588000000004
C    25.4924675  24.944650600000003  -3.4774664999999993
C    26.235444100000002  23.593267300000004  -3.7108644999999996
O    26.4608305  23.274745700000004  -4.8942169
O    26.5671721  22.937035700000003  -2.7059866
N    25.0568134  26.791523  -0.48411420000000005
C    24.9682929  28.158946500000003  -0.015893899999999905
C    26.2544073  28.6091757  0.7468109
O    26.3834422  29.830191700000004  0.9431769000000001
C    23.6917392  28.394747000000002  0.8201632000000001
C    23.7285127  27.769567700000003  2.1852333
C    24.2662628  28.466688700000002  3.2607600999999997
C    23.2163668  26.4976121  2.4038444
C    24.2976595  27.9037371  4.5232821
C    23.2443546  25.9331868  3.6669749000000005
C    23.7841433  26.635442400000002  4.7299912
O    27.0736193  27.742199400000004  1.0973216000000001
H    9.696620300000001  22.794709  -1.600242
H    10.5012534  21.324481700000003  -1.6053414000000001
H    11.1931385  22.652688100000002  -2.3381071999999996
H    11.564195000000002  23.7144064  -0.23035519999999998
H    9.8930825  21.370737400000003  0.7886406
H    9.413409  23.087998900000002  0.7824301
H    10.1545017  24.56134  2.5320916
H    11.6743334  20.571483300000004  2.2992150000000002
H    11.0995299  24.779271  4.7877041
H    12.6258217  20.804003200000004  4.5429549
H    12.295446  22.898369400000004  5.8128609
H    13.7277494  23.4376892  0.22535990000000006
H    14.703767800000001  20.690579400000004  0.5052747000000001
H    15.2326581  20.9839328  -1.7662756
H    17.5170363  21.1012808  -1.6475313
H    16.399252  23.067272000000003  -2.632612
H    16.1182775  23.828096500000004  -1.0685513
H    14.743558700000001  23.3710504  -2.1002352
H    16.3283827  20.439601800000002  1.9494568
H    17.3227705  22.889358500000004  3.2603381000000002
H    17.911996600000002  21.484378300000003  5.1602363
H    17.3765785  20.029592800000003  4.3362453
H    15.066794699999999  20.590352100000004  4.5788151
H    14.8342314  20.7503406  7.0241065
H    16.469705400000002  21.408335400000002  7.1636543
H    16.2335802  19.7442664  6.633483
H    14.9867197  22.967068  4.080504
H    16.0157184  23.341555700000004  5.4614596
H    14.3765862  22.7637953  5.724544
H    18.1660654  20.608784400000005  0.9394251
H    20.9926091  20.779641200000004  1.7451025
H    21.4003979  18.673371300000003  0.7444385
H    19.9561931  18.791679600000002  -0.2982346
H    21.4241026  22.8000691  0.7147786
H    21.5346738  22.611186200000002  -2.1908478000000002
H    20.5813332  24.920911800000003  -2.4579741000000004
H    20.2292253  24.960803800000004  -0.7256018
H    19.4045044  23.784319000000004  -1.7613728
H    23.0942788  24.177872600000004  -3.1166095
H    25.3757831  24.459754800000002  -1.3889957
H    26.2642279  25.7181123  -3.4990882999999995
H    24.8100206  25.134206100000004  -4.3056949
H    25.5342524  26.133239800000002  0.11389900000000008
H    24.898317  28.7910214  -0.9107603
H    22.851284  28.000637600000005  0.24376930000000008
H    23.5865269  29.476978700000004  0.9199888
H    24.6840088  29.449255700000002  3.0884491
H    22.8252226  25.930764200000002  1.5709981000000002
H    24.7286663  28.456862500000003  5.3440399
H    22.8466615  24.938949100000002  3.8129470999999997
H    23.8072273  26.192506100000003  5.7140233
