30

C    1.489  29.401  26.932
C    1.2515066000000001  28.884318699999998  25.513022099999997
C    2.3369214000000005  27.8724949  25.145123399999996
C    -0.1587682999999998  28.2910291  25.3989685
N    -0.23233839999999983  27.001611699999998  26.123776299999996
C    -1.6052488999999999  26.4755538  26.157548799999997
C    -2.091316  26.2176587  24.718449699999997
O    -3.3728786  25.6487701  24.708995099999996
C    -2.0488804  27.5352581  23.923794599999997
O    -2.4520937  27.2817392  22.593408899999996
C    -0.6048644999999998  28.0741928  23.946714599999996
O    0.2465381000000002  27.1461878  23.310774799999997
H    2.4401381000000004  29.9247423  26.9750803
H    1.5387304000000002  28.593961099999998  27.658162799999996
H    0.7155476000000001  30.1025624  27.233995599999997
H    1.3072577  29.727121  24.820985399999998
H    2.1364373  27.3997803  24.1918834
H    2.4604007  27.1157295  25.9147793
H    3.2901273  28.3894065  25.059531299999996
H    -0.8677723999999998  28.9851003  25.8607955
H    0.13901700000000017  27.1241165  27.0725317
H    0.37920140000000013  26.345997099999998  25.614670899999997
H    -2.2596600999999996  27.198824899999998  26.6480151
H    -1.6424976999999998  25.5347556  26.707678499999997
H    -1.4559525  25.4795857  24.220283499999997
H    -4.0322715  26.292678  25.003111999999998
H    -2.7257188999999995  28.2597116  24.3967994
H    -2.7401475  28.0977438  22.163999699999998
H    -0.5658519999999998  29.0398128  23.421453899999996
H    -0.18334179999999983  26.8528558  22.4938926
