53

N    -17.091  44.006  1.2030000000000003
C    -17.620914300000003  42.80346900000001  1.1543255000000006
C    -17.347991600000004  41.9560614  0.015023500000000745
C    -16.389840900000003  42.332080000000005  -0.9268066999999993
C    -16.1332267  41.532182500000005  -2.0133963999999995
C    -18.298108900000003  37.360812700000004  -7.986250699999999
C    -19.037357600000004  36.630862  -8.866431799999999
C    -19.087258000000002  35.2475558  -8.706993699999998
C    -19.2804484  34.4769093  -9.878022999999999
N    -19.6049526  35.1099328  -10.983004699999999
N    -18.394106200000003  42.370000000000005  2.125414
C    -18.0409891  40.7668064  -0.15934389999999965
C    -17.781143200000002  39.9652435  -1.2500950999999993
C    -16.819318100000004  40.337061500000004  -2.1888583999999995
O    -16.556408400000002  39.5428039  -3.2495530999999995
O    -17.589380700000003  37.476043000000004  -5.781592399999999
C    -17.705400400000002  36.7376524  -6.8902635
C    -17.670699000000003  35.3401342  -6.7710101
C    -18.384311800000003  34.628751900000005  -7.678882399999999
N    -18.920031200000004  33.2115919  -9.8393774
C    -18.6082454  38.7446415  -1.3610842999999995
N    -18.405401500000004  37.9286353  -2.5387577999999995
C    -17.583633900000002  36.7105678  -2.3860280999999994
C    -17.928701600000004  35.7349228  -3.5133083999999997
N    -16.871010500000004  35.3868444  -4.4666025
C    -16.977731900000002  34.5954964  -5.657349399999999
H    -17.2666411  44.614594600000004  1.9890575000000004
H    -16.565437900000003  44.3913309  0.4372555000000009
H    -15.805482400000002  43.2296415  -0.8225880999999995
H    -15.384038800000003  41.832291700000006  -2.7303673999999996
H    -18.2760935  38.438675100000005  -8.0523692
H    -19.5625436  37.1575335  -9.6427623
H    -19.965676800000004  36.046474800000006  -10.9756603
H    -19.6759799  34.605744200000004  -11.8555105
H    -18.735348100000003  41.4239393  2.1547415
H    -18.588081300000002  42.952972  2.9262443000000005
H    -18.812666600000004  40.4504475  0.5196965000000002
H    -15.810192600000002  39.8891378  -3.7614714999999994
H    -17.679491400000003  38.420445  -5.998307
H    -18.424300100000004  33.56513820000001  -7.520023199999999
H    -18.704795800000003  32.729373100000004  -8.987211599999998
H    -18.967974400000003  32.648901200000005  -10.6770518
H    -19.656437200000003  39.060861100000004  -1.3270303999999995
H    -18.4494949  38.126030400000005  -0.46991159999999965
H    -17.968293900000003  38.489014100000006  -3.2895674999999995
H    -19.3206309  37.6195906  -2.8855965999999995
H    -16.525661500000002  36.9696463  -2.4076718999999995
H    -17.806391400000003  36.245087500000004  -1.4278731999999996
H    -18.250622200000002  34.780225800000004  -3.0778290999999998
H    -18.807084000000003  36.122488700000005  -4.0607143
H    -15.963277800000002  34.334178900000005  -5.9702863
H    -17.5167083  33.6707769  -5.4358521
H    -16.2587009  36.1742027  -4.6216607
