22

O    18.476  65.418  20.175
O    19.1147931  63.4730355  19.3229622
O    15.145558699999999  63.3727828  14.9234136
C    17.197288399999998  62.8851942  13.80308
C    18.577576399999998  62.938169800000004  13.7172896
C    20.802963  64.467054  16.0891176
C    17.2135489  64.09984130000001  15.9113689
C    19.3767504  65.486396  17.9693965
N    20.6164748  63.783635200000006  14.9194816
C    18.9506273  64.7053683  19.2622824
C    16.5183228  63.4615918  14.8960167
C    19.607515499999998  64.72673160000001  16.6997642
C    19.2802492  63.578409400000005  14.7392972
C    18.608805099999998  64.1647708  15.8455107
H    14.811976099999999  63.786927500000004  15.7313829
H    16.6095288  62.398085  13.0424149
H    19.0916316  62.4897642  12.8824614
H    21.7901883  64.7230381  16.4245653
H    16.6970427  64.5283095  16.760794399999998
H    20.293706  66.010559  18.2551898
H    18.5969528  66.24181850000001  17.8246551
H    21.3496407  63.4642434  14.3097023
