60

O    3.585  10.053  -11.921
C    4.6122072  9.6195318  -12.4126017
N    5.7146075  10.442602700000002  -12.4552875
C    6.8996428  10.135287900000002  -13.0485985
N    7.0086678  8.859551800000002  -13.5760616
C    5.9631910999999995  7.983814300000001  -13.538357699999999
C    4.7838292  8.302288400000002  -12.9535646
O    7.8041094  10.951567100000002  -13.1106448
C    8.2911205  8.422006900000001  -14.1401032
C    8.256282  8.288804200000001  -15.6610041
C    8.1032237  9.668441000000001  -16.2843303
S    8.1621607  9.462414  -18.0509568
N    8.2488808  10.9686321  -18.6628202
C    9.5553272  11.5903667  -18.8170023
C    9.630954  11.875102600000002  -20.3215321
C    8.1715787  12.0345635  -20.7847559
C    7.2998097  11.489058600000002  -19.6353611
O    9.3481446  8.714967900000001  -18.4272678
O    6.9237678  8.815505400000001  -18.4203632
C    6.383264  12.598221400000002  -19.0384857
O    7.1437235  13.714093100000001  -18.6021595
C    5.396039999999999  13.092873  -20.0855584
C    4.9606669  14.4116133  -20.0075244
C    4.0302389  14.8983685  -20.9132827
C    3.5344018  14.077635800000001  -21.9148705
C    3.9735311999999996  12.766145000000002  -22.000826099999998
C    4.8871421999999995  12.2670825  -21.0854113
C    5.5888022  12.075699700000001  -17.8516107
C    5.8824491  12.6074312  -16.6039552
C    5.1801381  12.2041839  -15.4885991
C    4.1846993  11.249691100000001  -15.5997463
C    3.8720089  10.7205895  -16.8452534
C    4.5602351  11.1478204  -17.9690829
H    5.6189976  11.3749675  -12.0672867
H    8.5440528  7.462565200000001  -13.6857861
H    9.0299632  9.168830900000001  -13.846514899999999
H    7.4322601  7.656949500000001  -15.9919606
H    9.1888359  7.848107600000001  -16.010794
H    8.9058922  10.336398800000001  -15.9874884
H    7.1373476  10.120921300000001  -16.081456199999998
H    10.310535999999999  10.876642900000002  -18.4910274
H    9.6307054  12.4979902  -18.216109499999998
H    10.0859612  11.0200887  -20.8207132
H    10.222713599999999  12.7605523  -20.5375612
H    7.9862885  11.494917300000001  -21.7091395
H    7.9292281  13.085286100000001  -20.9442844
H    6.6775582  10.6405074  -19.9223502
H    7.9224898  13.387290700000001  -18.139647
H    5.3568657  15.048978000000002  -19.234410699999998
H    3.6964392  15.921755000000001  -20.8371691
H    2.8157487  14.457356400000002  -22.6243205
H    3.5949578  12.1200349  -22.778389699999998
H    5.2008547  11.240121000000002  -21.1759722
H    6.6384358  13.3645165  -16.4886905
H    5.415838  12.632598100000001  -14.526057699999999
H    3.6349661999999996  10.9291838  -14.7260205
H    3.0843398  9.990323900000002  -16.9421662
H    4.3041883  10.746184500000002  -18.9370469
H    6.1474453  7.014682000000001  -13.9739171
H    3.9516044  7.624611800000001  -12.9150619
