47

N    -25.163  -9.142  -29.59
C    -25.377798600000002  -10.441763799999999  -29.713626
C    -25.6521402  -11.241394799999998  -28.588978400000002
N    -25.700781600000003  -10.6937705  -27.3673168
C    -25.473292  -9.377890399999998  -27.243753
C    -25.204157700000003  -8.5990545  -28.3834919
N    -25.8783384  -12.595998499999999  -28.7356122
N    -25.509935300000002  -8.807383599999998  -25.9721038
C    -25.979324300000002  -13.604296199999999  -27.800937
C    -26.2379025  -14.804708699999999  -28.5003357
C    -26.273566600000002  -14.3982979  -29.8526454
N    -26.0485343  -13.114917599999998  -29.9735093
C    -25.812465900000003  -9.442790099999998  -24.7779428
C    -25.8266859  -8.557752899999999  -23.7342507
C    -25.4865171  -7.291601599999999  -24.2902174
C    -25.298290700000003  -7.476033699999999  -25.6294964
C    -26.373145400000002  -16.0204244  -27.8216284
C    -26.2537738  -16.0113465  -26.4553822
C    -25.9999761  -14.808709299999999  -25.7440286
C    -25.8465171  -13.595900499999999  -26.4316125
N    -25.883227400000003  -14.855085099999998  -24.3874631
C    -26.023752400000003  -13.678457599999998  -23.5511332
C    -24.7693894  -13.434986299999998  -22.7096195
C    -27.300238500000003  -13.7523764  -22.7141263
C    -26.202201900000002  -8.8844351  -22.3271515
C    -25.3820084  -8.178987399999999  -21.2093408
O    -24.759382300000002  -7.1350042999999985  -21.475241099999998
O    -25.4474115  -8.7236149  -20.086761
H    -25.3413942  -10.864099499999998  -30.7037428
H    -25.020791000000003  -7.539097699999999  -28.3350029
H    -26.4434407  -14.9902269  -30.730207
H    -26.025837300000003  -10.493057399999998  -24.7753112
H    -25.3780347  -6.381159999999999  -23.7378582
H    -25.0256073  -6.745031799999999  -26.3629203
H    -26.5629151  -16.9307573  -28.3668416
H    -26.3534903  -16.9265425  -25.8931269
H    -25.598048700000003  -12.670918399999998  -25.9448849
H    -26.078449600000003  -15.736154299999999  -23.9383146
H    -26.1426671  -12.811670999999999  -24.2021448
H    -24.868623000000003  -12.506955499999998  -22.1511516
H    -23.899085600000003  -13.3575267  -23.3554819
H    -24.612165100000002  -14.247906399999998  -22.0044453
H    -27.4204747  -12.833944699999998  -22.1451259
H    -27.2589182  -14.584702499999999  -22.0137158
H    -28.164450300000002  -13.8759415  -23.3618926
H    -26.1525599  -9.959662299999998  -22.1478697
H    -27.2342264  -8.563636299999999  -22.141489
