39

P    4.413  12.672999999999998  17.928
O    4.550286600000001  12.6884473  19.4376834
O    3.5577236000000005  11.554368199999999  17.380228600000002
O    5.7185112  12.8892633  17.1935343
P    3.0766032000000005  14.8360396  16.3734732
O    3.0462871000000007  13.984115499999998  15.154401
O    1.8605460000000007  15.621105499999999  16.763747900000002
O    3.4942421000000006  14.072539299999999  17.7108332
O    4.338037900000001  15.8710393  16.1689896
C    4.555918  16.856849999999998  17.1650522
C    5.5671458000000005  17.8734309  16.637764400000002
O    5.012861600000001  18.5306307  15.5067514
C    5.9513255  18.9604432  17.6624145
O    7.3398836  19.163477699999998  17.6233818
C    5.1811338000000005  20.193382099999997  17.1418958
O    5.733917600000001  21.4221702  17.502896200000002
C    5.264947200000001  19.9192376  15.6290817
N    4.327217600000001  20.645017799999998  14.839815000000002
C    2.9572153000000005  20.6492205  14.8942694
N    2.4125085000000004  21.4368466  14.01261
C    3.4638670000000005  21.9855283  13.309666100000001
C    3.5566898000000005  22.915479899999998  12.239599700000001
N    2.4742697000000007  23.4712283  11.6883858
N    4.786554000000001  23.23511  11.7862157
C    5.850278600000001  22.6807542  12.349332400000002
N    5.8875405  21.80895  13.347822100000002
C    4.673078100000001  21.4835574  13.815956900000002
H    4.9316418  16.3615154  18.071048100000002
H    3.5886988000000004  17.3233018  17.3941561
H    6.462007900000001  17.3195242  16.324781700000003
H    5.6383885000000005  18.656048799999997  18.6696041
H    7.515594  20.0992431  17.842917200000002
H    4.130514300000001  20.0975683  17.4391694
H    5.3389679  21.742140499999998  18.3281856
H    6.267195300000001  20.1802583  15.253619100000002
H    2.4154965000000006  20.034582699999998  15.5851894
H    2.5856795000000004  24.0816044  10.8967915
H    1.5700782000000006  23.1698539  12.006194
H    6.8083923  22.969307299999997  11.944500300000001
