250

N    -11.325  23.442  -16.759
C    -12.540002000000001  23.071477  -17.529304699999997
C    -13.7782552  22.9144005  -16.6352574
O    -14.0914731  21.8273487  -16.1695355
C    -12.3158162  21.730677800000002  -18.243087799999998
O    -11.2698101  21.8757451  -19.179163099999997
N    -14.473779  24.026481099999998  -16.398517899999998
C    -15.7533256  23.917244500000002  -15.726861
C    -16.7400774  23.6225412  -16.8730853
O    -17.7219322  24.316627  -17.078491999999997
C    -16.0936587  25.197304600000002  -14.954051999999999
C    -15.2606986  25.4444985  -13.7096659
C    -14.9783605  26.7453075  -13.291696499999999
C    -14.7816434  24.393460400000002  -12.933329899999999
C    -14.2358732  26.9848814  -12.143407999999999
C    -14.0352006  24.6278977  -11.787938699999998
C    -13.7569955  25.9250395  -11.387891599999998
N    -16.3556443  22.6183291  -17.694705999999996
C    -17.0989767  22.3116134  -18.904467999999998
C    -18.5176986  21.785017500000002  -18.640266699999998
O    -18.7459201  20.838959799999998  -17.8982845
C    -16.3458475  21.304826900000002  -19.7971723
C    -16.1706704  19.930183  -19.1553455
O    -15.4388562  19.7687411  -18.182374699999997
N    -16.8029677  18.9186887  -19.752439799999998
N    -19.4612031  22.4295808  -19.338694999999998
C    -20.8663708  22.0977836  -19.2627609
C    -21.2294726  20.9999148  -20.267589599999997
O    -22.074292800000002  20.1512091  -20.0108243
C    -21.7329291  23.3241598  -19.5682837
C    -21.3936911  24.5842732  -18.764561099999998
C    -22.3563186  25.7008711  -19.1660234
C    -21.4717785  24.3121205  -17.2681644
N    -20.605292300000002  21.071435  -21.450419999999998
C    -20.884252  20.131554  -22.517187699999997
C    -19.8332473  19.020197500000002  -22.5586715
O    -18.7461824  19.1485701  -21.987440099999997
C    -20.9397264  20.8592008  -23.8615478
N    -20.1576812  17.920461500000002  -23.2357336
C    -19.2231819  16.801578  -23.356803499999998
C    -17.9370526  17.2474836  -24.053912699999998
O    -17.9311033  18.1718051  -24.854817699999998
C    -19.9893392  15.775757800000001  -24.2030435
C    -21.443011300000002  16.092366300000002  -23.8840142
C    -21.4351333  17.6117299  -23.8660052
N    -16.8427775  16.531528  -23.760080799999997
C    -15.5737585  16.8029376  -24.404206
C    -15.4649504  15.987784300000001  -25.698342699999998
O    -14.76319  16.3512024  -26.635017899999998
C    -14.3925338  16.4428391  -23.499277099999997
C    -14.2964387  17.2042228  -22.1710058
C    -13.1860346  16.5778873  -21.324794999999998
C    -14.0234895  18.6872168  -22.400313999999998
N    -16.1513728  14.8395173  -25.7154885
C    -16.123062400000002  13.9573474  -26.8620572
C    -16.920885  12.6905878  -26.581858099999998
O    -17.8172117  12.6774748  -25.7446135
N    -16.6025365  11.6229479  -27.323846
C    -17.3240276  10.3724499  -27.1798573
C    -16.5547908  9.3386229  -26.352665599999998
O    -15.335917  9.3498706  -26.2400783
C    -17.6634033  9.7527513  -28.5425273
C    -16.4681804  9.0710885  -29.2115026
C    -16.8640041  8.4820299  -30.5662171
N    -15.737612  8.5134347  -31.485797299999998
C    -15.8238499  8.2596014  -32.7874191
N    -16.9822666  7.8997246  -33.3290599
N    -14.7393217  8.3554585  -33.552646499999994
N    -17.3430647  8.4215744  -25.7878424
C    -16.8490131  7.302638399999999  -25.0168121
C    -17.0539534  6.047465  -25.8599499
O    -17.9255579  6.0093408  -26.720352199999997
C    -17.6702127  7.1433808  -23.7294123
C    -16.8832675  7.3971806  -22.4530301
C    -17.7682707  7.0889263  -21.241527899999998
N    -18.489136600000002  5.839366  -21.415511199999997
C    -18.0937925  4.6400687  -21.0018444
N    -16.9527685  4.4841547  -20.347846699999998
N    -18.8562907  3.5781948999999997  -21.260491199999997
N    -16.2530351  5.0096034  -25.602943699999997
C    -16.4565095  3.7669863  -26.325418799999998
C    -17.3812103  2.9148698  -25.4491397
O    -16.9794506  2.4472135  -24.3929987
C    -15.1510038  3.0082753999999996  -26.5717984
C    -15.1982549  2.1635937  -27.8484874
C    -16.4723519  1.3156820000000007  -27.9818149
N    -16.7736107  0.9928743000000004  -29.3644185
C    -17.5564464  1.7017977000000002  -30.169887699999997
N    -18.1393492  2.8229372999999995  -29.756398599999997
N    -17.7375621  1.3073964  -31.430370099999998
N    -18.6405692  2.7778194999999997  -25.878194
C    -19.5770565  1.9347937999999996  -25.163432099999998
C    -18.9521339  0.5396248000000003  -25.127483899999998
O    -18.1197393  0.20941930000000042  -25.954078199999998
C    -20.9340001  1.8784448000000005  -25.8915626
C    -21.5262371  3.2776192999999996  -26.0362916
C    -20.7867865  1.2185532000000006  -27.260899199999997
N    -19.386201800000002  -0.2987017000000005  -24.1746914
C    -18.841101600000002  -1.6357443000000007  -24.0910685
C    -19.9134068  -2.724094000000001  -24.1945542
O    -19.655284  -3.904656600000001  -24.023955899999997
C    -17.9352531  -1.8009682999999992  -22.8572076
C    -18.530185200000002  -1.3174624000000001  -21.5300557
C    -19.4520097  -2.336495899999999  -20.8886391
O    -19.244319  -2.7765474999999995  -19.7615429
N    -20.5089194  -2.7223734000000004  -21.6080632
N    -21.1511241  -2.2612793999999994  -24.472523
C    -22.3518636  -3.0758223000000005  -24.583665999999997
C    -22.1707901  -4.5321371  -25.051327399999998
O    -22.1922638  -5.467272899999999  -24.265424499999998
C    -23.3289945  -2.376607699999999  -25.5461945
O    -23.667051100000002  -1.0920552000000008  -25.1037419
N    -22.1450004  -4.656952  -26.384588299999997
C    -22.1328446  -5.9067051  -27.1307764
C    -22.2135187  -5.4274339000000005  -28.6204788
O    -23.310344999999998  -5.5252268  -29.196691299999998
C    -23.3272337  -6.781900700000001  -26.725848999999997
C    -23.8459393  -7.7681924  -27.781440699999997
C    -23.0237573  -9.019558100000001  -27.9255739
O    -21.8171832  -9.0644579  -27.6997714
N    -23.7141994  -10.1047604  -28.3130243
O    -21.1879152  -4.9183576  -29.126942
H    -10.521715  23.3615109  -17.403004799999998
H    -11.1787977  22.7855008  -15.980268899999999
H    -11.3708145  24.397893699999997  -16.3876705
H    -12.715114  23.840772100000002  -18.286112199999998
H    -13.251531100000001  21.4305161  -18.7284728
H    -12.084966900000001  20.9610389  -17.4969227
H    -11.0959115  21.0368589  -19.617331999999998
H    -14.2635687  24.9082538  -16.843134499999998
H    -15.7214088  23.0413372  -15.074365399999998
H    -17.145522  25.1276803  -14.662106999999999
H    -16.015952900000002  26.0531639  -15.626344
H    -15.3474716  27.5810241  -13.868358099999998
H    -14.990306  23.370041399999998  -13.2038865
H    -14.0347428  28.0011435  -11.839727599999998
H    -13.6774013  23.7940555  -11.203074599999999
H    -13.1797154  26.1102971  -10.494952299999998
H    -15.799422  21.8506516  -17.327541399999998
H    -17.187579  23.2593156  -19.450735199999997
H    -15.353790400000001  21.7096656  -20.0035326
H    -16.889575100000002  21.193291000000002  -20.734415199999997
H    -16.7683086  18.017362  -19.3024153
H    -17.4668547  19.0564324  -20.502549799999997
H    -19.2225625  23.2721703  -19.8406299
H    -21.0782976  21.698099900000003  -18.2658511
H    -22.7711513  23.047146400000003  -19.3769112
H    -21.6451626  23.5530273  -20.6336841
H    -20.3746955  24.9114898  -18.9919576
H    -22.1130602  26.6181382  -18.6364217
H    -23.3793568  25.426242000000002  -18.919693499999997
H    -22.3003335  25.8955613  -20.2340947
H    -20.6836297  23.6319563  -16.9534153
H    -22.4345792  23.8799466  -17.0041001
H    -21.3475527  25.2373423  -16.7105685
H    -19.8312734  21.7053069  -21.5772719
H    -21.8576943  19.6989625  -22.2642423
H    -21.2409671  20.1845444  -24.653471999999997
H    -19.957507200000002  21.2572956  -24.1075669
H    -21.6540151  21.6761415  -23.807056799999998
H    -18.9931426  16.4243825  -22.3545646
H    -19.7066886  14.7537427  -23.964458299999997
H    -19.7897995  15.961332299999999  -25.259613899999998
H    -22.1325537  15.6932919  -24.6227995
H    -21.7108648  15.7074807  -22.900347699999998
H    -21.4496484  18.0052056  -24.8867987
H    -22.2671662  18.0298851  -23.3035416
H    -16.8612748  15.8447946  -23.0210655
H    -15.5511237  17.8592  -24.688448299999997
H    -13.481071100000001  16.6166077  -24.0752879
H    -14.447835300000001  15.3720798  -23.2870571
H    -15.2455015  17.1145921  -21.6332663
H    -13.1246665  17.0751183  -20.3603079
H    -12.2274198  16.6762923  -21.827868499999997
H    -13.378052499999999  15.5223492  -21.1521542
H    -14.835285800000001  19.1482187  -22.957729699999998
H    -13.0984295  18.826512  -22.953991
H    -13.9452075  19.198929  -21.4441223
H    -16.8207138  14.5979058  -24.9965713
H    -15.0813051  13.7330173  -27.107986599999997
H    -16.5662743  14.4607279  -27.731334999999998
H    -15.7718188  11.6320099  -27.8947407
H    -18.244546  10.6359736  -26.6480875
H    -18.050477100000002  10.5425474  -29.1873233
H    -18.4547046  9.0168575  -28.395043599999997
H    -16.0684878  8.2936114  -28.561609999999998
H    -15.6820593  9.8134442  -29.356933599999998
H    -17.6734457  9.0886259  -30.9843027
H    -17.2181222  7.4569299  -30.434440199999997
H    -14.833550800000001  8.7272838  -31.094051099999998
H    -17.0594235  7.7682031  -34.3228717
H    -17.8239625  7.8611617  -32.7817085
H    -13.850079000000001  8.6230158  -33.1688046
H    -14.7862201  8.1668259  -34.538869
H    -18.3265306  8.3966954  -26.0153361
H    -15.7895228  7.4826865  -24.821199
H    -18.055744100000002  6.1230784  -23.7073729
H    -18.5203382  7.8244051  -23.7729634
H    -16.5496445  8.4322939  -22.403571699999997
H    -15.998762  6.7587174  -22.4397323
H    -18.5158931  7.8769501  -21.1352841
H    -17.1825052  7.0751100000000005  -20.3230456
H    -19.3957072  5.9091547  -21.850922999999998
H    -16.6494598  3.5696297  -20.0594003
H    -16.3223176  5.2526054  -20.2013742
H    -19.7917748  3.6910343  -21.609952099999997
H    -18.5976731  2.6763608000000003  -20.8990884
H    -15.5780598  5.0265603  -24.8550509
H    -16.9351463  4.0605675  -27.2628998
H    -14.9613955  2.3686550000000004  -25.707234399999997
H    -14.3258165  3.7155948  -26.655149299999998
H    -14.3181065  1.5238423  -27.8828697
H    -15.1467357  2.8384875000000003  -28.7066977
H    -17.3353143  1.8019087999999996  -27.546472899999998
H    -16.3523763  0.37839899999999993  -27.439232099999998
H    -16.3361188  0.16654639999999965  -29.740478
H    -18.7505294  3.331123  -30.3725004
H    -17.9050863  3.2229067000000002  -28.865722599999998
H    -17.4186106  0.4034121000000006  -31.7334866
H    -18.4099514  1.7722192000000003  -32.0170515
H    -18.9809198  3.2789903999999996  -26.684174
H    -19.6996459  2.3046688999999994  -24.139879999999998
H    -21.6141429  1.2709726000000003  -25.2876756
H    -22.4986885  3.2057586999999996  -26.5165525
H    -20.9042175  3.9312034000000002  -26.6396095
H    -21.6710622  3.7363295  -25.062534799999998
H    -20.340508200000002  0.22966609999999932  -27.1870399
H    -20.175053  1.8183471999999998  -27.927160699999998
H    -21.7678232  1.1005272999999995  -27.7159683
H    -20.0288871  0.009663099999999147  -23.461797599999997
H    -18.2073314  -1.7664597000000004  -24.9781926
H    -17.0256325  -1.2294605999999995  -23.046239399999997
H    -17.665868  -2.8554198  -22.780822699999998
H    -19.0635442  -0.3774929  -21.6603453
H    -17.7177143  -1.1596887000000002  -20.8210621
H    -21.0771986  -3.475607  -21.2557434
H    -20.8335424  -2.2222443  -22.412118699999997
H    -21.2725275  -1.3119508  -24.8068548
H    -22.8082296  -3.159784  -23.585910199999997
H    -24.2090685  -3.0105532000000004  -25.688685399999997
H    -22.8598439  -2.2282068000000006  -26.521153499999997
H    -24.3006973  -1.1419209000000006  -24.373661799999997
H    -21.8435019  -3.8743218000000006  -26.945787199999998
H    -21.1887104  -6.448782699999999  -26.990451099999998
H    -24.1505036  -6.1011998  -26.493374799999998
H    -23.064108  -7.322552699999999  -25.8146511
H    -23.8911589  -7.272732999999999  -28.7501982
H    -24.8625434  -8.050088500000001  -27.5009178
H    -23.2125281  -10.958291899999999  -28.4986452
H    -24.6841322  -10.039245399999999  -28.5671702
