38

C    -22.232  40.013  93.233
C    -21.8927133  43.114072199999995  91.84557550000001
C    -21.872521  41.490797199999996  89.85012
C    -19.5445726  39.40748859999999  92.80088020000001
C    -21.5897088  39.0646523  94.02272860000001
C    -22.3870519  44.1975238  90.8922699
C    -18.0915811  39.0808037  92.5398251
C    -17.2641034  39.0221952  93.8262239
O    -23.5482456  40.307513199999995  93.4590797
C    -20.2607166  38.757291699999996  93.80044070000001
N    -15.8326882  38.764202  93.5300498
C    -20.1971187  40.358733699999995  92.02439050000001
C    -21.5405031  40.670828799999995  92.2041645
C    -22.235566  41.7026846  91.33427970000001
C    -21.6919451  44.01353769999999  89.546897
C    -22.1321434  42.6875028  88.92958080000001
H    -22.3397401  43.241610599999994  92.83387450000001
H    -20.8097181  43.208383  91.95301110000001
H    -22.4173579  40.621857999999996  89.4774818
H    -20.8103247  41.2621354  89.7711395
H    -22.139240700000002  38.563389199999996  94.80625760000001
H    -22.161555  45.18238959999999  91.30611660000001
H    -23.4686834  44.12331759999999  90.7649736
H    -17.6879293  39.83969269999999  91.86979190000001
H    -18.0485034  38.1163568  92.02776490000001
H    -17.6334296  38.2287025  94.472875
H    -17.357765  39.96997999999999  94.3562088
H    -23.889516  39.7676398  94.1849851
H    -19.8032093  37.9958532  94.41049530000001
H    -15.2857246  38.72957649999999  94.3974324
H    -15.4537515  39.50646819999999  92.929837
H    -15.730131400000001  37.868626299999995  93.0379101
H    -19.6328655  40.884316399999996  91.27092040000001
H    -23.3168781  41.569606699999994  91.44718400000001
H    -20.6102282  44.0212235  89.6920745
H    -21.9467789  44.830875799999994  88.86917930000001
H    -23.2033327  42.7548591  88.7153636
H    -21.6207868  42.5217672  87.9798298
