41

O    -4.93  -2.656  -21.392
S    -4.5367704  -3.4872693999999997  -20.2786272
O    -5.1684386  -4.778938500000001  -20.301816499999997
C    -4.831145  -2.700156  -18.7159574
C    -5.1748794  -3.7215795  -17.6461008
C    -5.0934311999999995  -3.0639138  -16.2720743
N    -2.8684624  -3.6683627000000003  -20.2511548
C    -1.9945379  -2.6136955  -20.4314289
C    -0.6067905999999998  -2.8187188  -20.5169039
F    -0.0633111999999999  -4.0653458  -20.405535099999998
C    -2.4419371  -1.2900871999999999  -20.5355269
C    -1.5740575999999997  -0.2295332000000001  -20.732925299999998
C    -0.21583809999999992  -0.46705569999999996  -20.809874
F    0.6268507000000001  0.5757905000000001  -21.007540199999998
C    0.2844869000000001  -1.7643165  -20.694135
C    1.7365363  -2.142746  -20.7749113
O    2.1216790000000003  -2.7788904  -21.7448655
C    2.5347817  -1.7768076  -19.621105
C    2.0597715  -1.3751232999999998  -18.3747988
C    3.9790102000000003  -1.7999244  -19.5203952
C    5.0635159000000005  -2.0877289  -20.3571876
C    4.2622876000000005  -1.3911079  -18.190500999999998
N    3.0873496  -1.1496131  -17.5313499
N    5.4819003  -1.2635592999999998  -17.6861119
C    6.4942954  -1.542382  -18.481820799999998
C    6.3337403  -1.9539360000000001  -19.8090683
Cl    7.7894248  -2.2732502  -20.7092386
H    -5.6417277  -1.9919637  -18.870755199999998
H    -3.9197018000000003  -2.1645775  -18.4677735
H    -4.4697141  -4.5507466999999995  -17.707354
H    -6.1693704  -4.1262913  -17.8272947
H    -5.35591  -3.7787887  -15.4979029
H    -5.780642  -2.2251039  -16.2107723
H    -4.0867528  -2.7044192  -16.0813334
H    -2.4944907  -4.600604000000001  -20.3345873
H    -3.5011042  -1.1039795  -20.530915
H    -1.9476985999999998  0.7756208999999998  -20.830838
H    1.0399475000000002  -1.2564099  -18.0652434
H    4.9105396  -2.4048003  -21.3769618
H    3.0212482  -0.8609514  -16.5655823
H    7.4786478  -1.4351753  -18.053369399999998
