41

C    -7.5489999999999995  36.213  41.511
C    -8.0479123  30.935947600000006  39.43932590000001
C    -5.808768499999999  31.969250200000005  38.70961930000001
C    -7.128803899999999  33.8414463  40.876741900000006
C    -8.3123792  39.87401440000001  41.543266900000006
C    -6.7064752  31.533799000000002  39.86898790000001
C    -7.7170365  35.85168530000001  40.15122590000001
C    -11.3346242  40.7974545  40.3618146
C    -10.698418  42.462837500000006  38.2662777
C    -11.9806742  41.952749000000004  38.39813960000001
C    -9.7252869  42.1350673  39.18581470000001
C    -8.3336554  38.14602610000001  39.7266011
C    -8.1063831  36.8583335  39.26454450000001
C    -12.314237  41.118034300000005  39.44870420000001
C    -7.7479602  37.502377100000004  41.972870300000004
C    -7.7563949  41.533444  42.82317700000001
C    -8.167024  38.49322420000001  41.074007200000004
C    -10.0413801  41.2786437  40.23119880000001
C    -9.0210087  41.008652700000006  41.222565800000005
N    -8.6496089  42.0448839  42.04791970000001
N    -7.4714754  34.5364335  39.847911800000006
N    -6.8343111  32.542229400000004  40.93401490000001
O    -7.5010169  40.244398100000005  42.582048500000006
F    -11.6638332  39.9853619  41.40849920000001
S    -7.0658355  34.79775300000001  42.41082720000001
H    -7.8689805  30.102265300000006  38.76883780000001
H    -8.6498515  31.680561600000004  38.9232031
H    -8.5967841  30.583864900000005  40.307452000000005
H    -4.8405503  32.2865551  39.0854787
H    -6.2601482  32.799107500000005  38.1707924
H    -5.6734729  31.134611800000005  38.03094290000001
H    -6.1661939  30.721775500000003  40.375733100000005
H    -10.4663501  43.1207433  37.4441119
H    -12.7374189  42.2151994  37.67569030000001
H    -8.7234094  42.5232274  39.11030230000001
H    -8.6402676  38.910130900000006  39.028067400000005
H    -8.233327599999999  36.6227244  38.2210662
H    -13.3112016  40.727357000000005  39.5700562
H    -7.5965761999999994  37.73807000000001  43.0150434
H    -7.2260414  42.029335200000006  43.610164600000004
H    -6.652877  32.1993949  41.86459730000001
