43

C    -30.241  -53.13  6.648000000000001
O    -31.3338054  -52.5447893  6.527143700000001
O    -29.1441561  -52.7200295  6.219240500000001
C    -30.2538922  -54.4428631  7.4386616000000005
C    -29.1303037  -55.0618265  7.811505100000001
C    -29.1635429  -56.1729351  8.8309119
C    -30.5345081  -56.8742704  8.7565167
N    -30.6458086  -57.8787435  9.7896934
C    -30.5958971  -59.2115071  9.5563032
O    -30.488556199999998  -59.6899602  8.436233000000001
C    -30.637751899999998  -60.0680496  10.7930554
C    -31.6434087  -55.8216752  8.8236454
O    -31.5151176  -54.8610112  7.773842900000001
C    -33.0376655  -56.4496417  8.6710103
O    -33.1257734  -56.987381  7.3717784
C    -34.1205795  -55.373787899999996  8.883662900000001
O    -33.9574497  -54.807363699999996  10.1737652
C    -35.5292853  -55.9842094  8.782107400000001
O    -35.7882193  -56.8312445  9.8790609
N    -28.1568276  -57.1782404  8.588766000000001
C    -27.520647399999998  -57.916797  9.4875772
N    -27.656098399999998  -57.715852  10.7940731
N    -26.703099899999998  -58.8674503  9.0491045
H    -28.1893217  -54.6485903  7.493432
H    -29.018709299999998  -55.7349836  9.824175
H    -30.6227297  -57.3888924  7.7918384000000005
H    -30.8186894  -57.5574664  10.730810600000002
H    -30.443612599999998  -61.0990748  10.5144474
H    -31.6252758  -60.0078646  11.2455808
H    -29.903112999999998  -59.7312302  11.517895800000002
H    -31.609066199999997  -55.2914881  9.786861100000001
H    -33.155896  -57.2305737  9.4332215
H    -33.8501179  -57.6261196  7.333493000000001
H    -33.9804579  -54.6272769  8.0935536
H    -34.271843  -53.8948108  10.167003000000001
H    -35.6382879  -56.5764022  7.874970200000001
H    -36.2692713  -55.1721038  8.752290400000001
H    -35.5127446  -56.3556927  10.680791300000001
H    -28.049678999999998  -57.4264066  7.6153066
H    -27.059868599999998  -58.2116687  11.4363962
H    -28.156716199999998  -56.9182792  11.144317000000001
H    -26.6615747  -59.0966892  8.071284200000001
H    -26.2228025  -59.472323  9.694588300000001
