40

P    -17.808  39.473  17.123
O    -16.5286056  40.1762256  16.7368836
O    -18.3448267  38.5896848  16.0169735
O    -17.754158399999998  38.7969459  18.4714103
O    -18.996135799999998  40.7165256  17.2605352
P    -19.057026  41.6716857  18.5550753
O    -20.159088999999998  41.240242  19.4668097
O    -17.7301856  41.9244154  19.1869467
O    -19.5906979  43.0693008  17.8459085
C    -18.724935  44.1700696  17.6049729
C    -19.5521113  45.4683015  17.5780239
O    -20.7377353  45.2998541  16.7944831
C    -19.9732488  45.956165  18.975536
O    -19.5947441  47.2857248  19.1902939
C    -21.5093053  45.7948101  18.9836157
O    -22.1457753  46.8597466  19.6271677
C    -21.8853818  45.764132000000004  17.48774
N    -23.057683  44.9420729  17.2494101
C    -23.1575688  43.5811098  17.4360883
N    -24.3422151  43.1078434  17.1830818
C    -25.107287799999998  44.1914126  16.8051715
C    -26.4899401  44.2911792  16.3989515
O    -27.3284079  43.3964152  16.298516
N    -26.8692778  45.5912997  16.0898251
C    -26.032073099999998  46.6711268  16.1589692
N    -26.536488499999997  47.8659871  15.8352559
N    -24.7636514  46.5806045  16.5298458
C    -24.3103815  45.3479243  16.8425693
H    -18.2392567  44.0113495  16.6334235
H    -17.9494821  44.1956012  18.3777559
H    -18.936627  46.2418466  17.0993247
H    -19.5079659  45.315657  19.735634
H    -20.4123529  47.8080067  19.3424852
H    -21.7587374  44.8182891  19.4151543
H    -22.2291883  46.6828201  20.578401500000002
H    -22.154535799999998  46.7749355  17.1421496
H    -22.313727399999998  42.985856  17.7375415
H    -27.8341372  45.7003109  15.7943012
H    -25.9209417  48.6594823  15.8841563
H    -27.4931562  47.9636656  15.5455769
