76

N    33.67  36.773  12.773
C    30.3990022  36.2639508  11.034365099999999
C    32.5439311  34.7070802  12.1032044
C    31.436860300000003  34.0964507  11.4957186
C    30.389797500000004  34.8688234  10.978018899999999
C    32.177058900000006  42.513281  21.6020954
C    29.263966600000003  37.1500906  10.4755879
C    29.820362600000003  38.0809485  9.381002899999999
C    30.801801100000002  42.5682953  21.7907218
C    31.110444500000003  44.2737149  23.449716199999997
C    33.057467  32.8389208  9.165857599999999
C    37.1492043  38.9584218  14.0243992
C    38.3798845  40.2005478  15.819655299999999
C    34.811811000000006  38.4051845  14.169721899999999
C    33.0363892  43.3358187  22.3289398
C    32.573673400000004  36.1157679  12.1698605
C    31.519119200000002  36.8576431  11.6312707
C    33.4618083  33.6525944  14.0088818
C    28.670463600000005  38.0027887  11.613446
C    28.105380500000003  36.3502926  9.8546866
C    33.5390528  37.8223695  13.6407927
C    30.263653200000004  43.4504852  22.7159631
C    32.485391500000006  44.2170434  23.259656399999997
C    37.126139800000004  39.5893241  15.272469599999999
C    36.021139500000004  38.3727696  13.4708132
O    33.586748500000006  33.9388199  12.6174183
O    32.44573990000001  38.2687649  13.9662425
N    31.339869600000004  32.6967336  11.4113379
S    32.366087  31.8042765  10.448286
O    31.5134937  30.8101329  9.8261041
O    33.413915  31.2888747  11.2920891
C    34.771974300000004  39.0449043  15.4113148
C    35.904804600000006  39.6280669  15.9676221
N    35.7675161  40.2326442  17.2529491
C    35.4823978  41.5216668  17.5433367
N    35.8771044  39.5192535  18.3814485
N    35.6778076  40.3102101  19.3727372
C    35.4299101  41.5696358  18.9235748
C    35.149617000000006  42.7251847  19.804776099999998
O    35.132601300000005  43.8902231  19.4062642
N    34.9201088  42.3600915  21.0732589
C    34.541275000000006  43.275966  22.1267024
H    34.541527900000006  36.2595408  12.7570541
H    29.557615700000003  34.3472141  10.534863099999999
H    32.5769717  41.8275491  20.870369
H    29.019650100000003  38.6985257  8.984791
H    30.245325200000003  37.4963219  8.5691479
H    30.592872100000005  38.7332739  9.7772419
H    30.157188500000004  41.923238  21.2135119
H    30.699934100000004  44.9633995  24.170966800000002
H    33.66080830000001  32.1801986  8.5569598
H    33.6617881  33.5999245  9.6398216
H    32.2371124  33.2574269  8.600088
H    38.0785561  38.9333278  13.4786865
H    39.2096579  40.0486409  15.1387718
H    38.6239275  39.7552034  16.7832341
H    38.243976700000005  41.2697923  15.9789868
H    31.583304800000004  37.930441  11.7059872
H    34.367830500000004  33.1154398  14.2753988
H    32.591907600000006  33.0177677  14.1912483
H    33.3744766  34.5729574  14.5932042
H    28.223931300000004  37.3615592  12.3697355
H    27.903303100000002  38.662286  11.218159
H    29.433312700000002  38.6082759  12.095356599999999
H    28.447499000000004  35.7585127  9.0094691
H    27.346980000000002  37.0421377  9.500645500000001
H    27.647603500000002  35.6929861  10.5896074
H    29.196312600000002  43.4988187  22.8659201
H    33.13595350000001  44.8612266  23.8314998
H    36.0813642  37.9160756  12.4966268
H    30.401973200000004  32.4044472  11.1712012
H    33.831154700000006  39.0779455  15.9412016
H    35.344265500000006  42.2753511  16.798269
H    34.964957600000005  41.3733752  21.2872363
H    35.03016280000001  42.97346  23.0547408
H    34.899623600000005  44.2696027  21.8392262
