30

O    1.2029999999999998  -15.881  23.461
C    0.8868398999999999  -16.3678189  22.1883022
C    1.0286328  -15.264824200000001  21.1353825
C    -0.05746819999999997  -15.2738289  20.0402921
O    -1.1662819  -14.4584276  20.2988455
C    0.7616563999999999  -14.7520594  18.8485767
O    0.15357179999999993  -14.938318500000001  17.609714599999997
C    1.9853926999999998  -15.6598234  18.971719999999998
C    3.1622149  -15.235459  18.103344299999996
O    3.4795186  -13.8884345  18.403653499999997
N    2.3179983  -15.5419709  20.412927899999996
C    2.9404079999999997  -16.7648012  20.978041199999996
C    1.8285922  -17.5044851  21.720615799999997
O    1.1736906999999999  -18.3734729  20.8262008
H    2.1333404  -15.622181000000001  23.516768799999998
H    -0.142123  -16.7235505  22.2632582
H    1.0430439  -14.2836266  21.613611799999997
H    -0.37350870000000014  -16.3016054  19.820521199999998
H    -1.7423044  -14.8595042  20.961281399999997
H    1.0309377  -13.6994412  19.003570599999996
H    -0.6623014  -14.4205494  17.567840399999998
H    1.6876379  -16.6834369  18.736589
H    2.8530818  -15.346311  17.0594999
H    4.0280384  -15.8834166  18.2887851
H    4.048609  -13.5207609  17.718679899999998
H    2.9551894  -14.738876900000001  20.4743221
H    3.7412247  -16.493969  21.663907099999996
H    3.3418842  -17.388672200000002  20.181975799999996
H    2.2206151  -18.0486572  22.584718799999997
H    0.697803  -19.0650678  21.3001616
