79

C    60.388  53.183  2.2040000000000006
C    60.9887959  52.523553299999996  0.9403520000000003
C    60.643995499999996  51.0323993  0.9101705000000004
C    61.051696  50.3533125  2.2225010000000003
C    60.462509499999996  51.1363811  3.4105422000000005
C    60.9482614  50.5413321  4.734769
O    60.4775533  53.1833376  -0.1984897999999995
O    61.2881268  50.4680137  -0.21846699999999952
O    60.8375893  52.5145856  3.3652025000000005
O    62.343849999999996  50.6403783  4.8847564000000006
O    58.9833107  53.14122  2.0891619000000006
O    60.6179529  49.0139382  2.2434005000000004
C    55.6018042  55.466409  2.5393314000000005
C    56.4131441  55.7338643  1.2596624000000003
C    57.3283844  54.522563  1.0515226000000002
C    58.2014632  54.3186183  2.2936771
C    57.3222859  54.1492187  3.5327827000000003
C    58.1524577  54.0483168  4.8178526
O    54.801913299999995  56.5549523  2.8077440000000005
O    55.5825258  55.9630978  0.15812340000000047
O    58.1101229  54.735656  -0.0897114999999995
O    56.4518497  55.2553996  3.6643509000000005
O    59.0367769  55.1508482  4.8935884000000005
C    53.751337199999995  56.2671672  3.7340725000000003
C    52.5026369  55.8758286  2.9758646000000004
C    51.4164557  55.5458257  3.9899608000000004
C    50.1082172  56.1485882  3.5215073
C    48.9081761  55.853639199999996  4.4165528
C    49.138846599999994  55.6516036  5.908515700000001
C    47.8140362  55.4515417  6.6513584
C    47.9386807  55.786071899999996  8.1465547
C    48.5115269  54.6640388  9.0195241
C    47.821900799999995  53.3232643  8.7907325
C    47.836072099999996  52.9567157  7.3109628
C    47.2351074  54.0494725  6.430178400000001
H    60.7431231  54.2136423  2.3053462000000002
H    62.0815321  52.6325555  0.9861320000000005
H    59.550800699999996  50.944217  0.7919226000000004
H    62.141714099999994  50.3175216  2.3107952000000003
H    59.365120399999995  51.0683741  3.3646211000000004
H    60.7174311  49.475059  4.7471604
H    60.4353341  51.0391444  5.566381
H    60.783983299999996  52.6995621  -0.9830052
H    61.3348146  49.5084984  -0.10185209999999989
H    62.5862979  51.5775662  4.848957700000001
H    59.6499963  48.9820787  2.2076234
H    54.9943524  54.5484298  2.3890242000000006
H    57.0026003  56.6437368  1.3990600000000004
H    56.706375699999995  53.618827599999996  0.9183776000000003
H    58.849343899999994  55.1908328  2.4335526000000005
H    56.7324475  53.2237356  3.4190624000000005
H    58.718540399999995  53.109832499999996  4.791826800000001
H    57.4572249  54.0450647  5.6621337
H    55.317655099999996  55.1219042  -0.24448899999999973
H    58.867351799999994  54.1161528  -0.10265709999999961
H    59.3703356  55.2279615  5.7990347
H    53.591077799999994  57.1950192  4.2862624
H    54.0759933  55.4894512  4.4304630000000005
H    52.708675899999996  55.0263293  2.3243972000000004
H    52.2144506  56.7138365  2.3420953000000004
H    51.6788837  55.9663654  4.9601077
H    51.317023199999994  54.4659415  4.1082709
H    49.885754399999996  55.8006817  2.5117000000000003
H    50.2511212  57.231434  3.4664786000000003
H    48.4259743  54.9468294  4.0377763
H    48.1815016  56.660943599999996  4.289092
H    49.6427724  56.5333473  6.313024500000001
H    49.788533599999994  54.7926247  6.076399800000001
H    47.103772899999996  56.1715723  6.2267476
H    46.9350999  56.0132007  8.5204456
H    48.542527799999995  56.6854465  8.2712096
H    48.426747899999995  54.952742799999996  10.0684909
H    49.575898499999994  54.549968299999996  8.7940135
H    46.7849921  53.3903303  9.1323474
H    48.317583799999994  52.5459382  9.3736556
H    47.283788  52.0286635  7.1523214
H    48.871538  52.7776094  7.007133100000001
H    47.342780499999996  53.7662823  5.3834990000000005
H    46.161933999999995  54.0940533  6.6424311000000005
