25

C    49.632  59.94  0.5569999999999999
C    48.4690151  60.254704  1.4594471
C    47.6890075  59.3762851  2.1105865
C    46.5504935  59.8634113  2.9903366
C    46.6663848  59.3236632  4.4302482
C    45.3339025  59.0940666  5.1757456
C    44.165912500000005  59.942831  4.6888382
C    43.9606486  59.8626992  3.1698032
C    45.2121124  59.5052461  2.3496997
H    50.0707094  60.8537462  0.1700267000000002
H    49.3109527  59.3227323  -0.2806899999999999
H    50.3964145  59.3864462  1.0999697000000002
H    48.2639228  61.3082126  1.5959257
H    47.8293842  58.3102412  2.0234084
H    46.6070075  60.957161  3.0362236
H    47.2842531  60.0224254  4.9974657
H    47.2045799  58.3732308  4.4100906
H    45.4877305  59.2656032  6.2416751
H    45.0520288  58.043612  5.0552177
H    44.3660366  60.9834244  4.9609021
H    43.2555057  59.6398221  5.204765500000001
H    43.5717547  60.8246868  2.8293597
H    43.1955639  59.1165662  2.9467093
H    45.2130913  58.4232788  2.1800771
H    45.1504221  59.9798861  1.3692779000000002
