65

O    46.293  34.818  30.977
C    45.9957972  33.692693399999996  30.5660472
N    46.774882  33.048088699999994  29.674859
C    47.9716988  33.6298028  29.085127
C    49.0821519  32.619768099999995  28.895778900000003
C    50.450722799999994  33.1069928  29.2775757
C    49.739606699999996  32.1129174  30.146818600000003
C    44.740536399999996  32.996584899999995  31.029119100000003
C    44.4116055  31.701479199999998  30.6280974
C    43.252038899999995  31.083013499999996  31.0648765
C    43.8538603  33.653757799999994  31.890292700000003
C    42.6930844  33.035244299999995  32.3281417
C    42.380219499999995  31.7376749  31.926301900000002
C    41.0987565  31.118443  32.316856800000004
C    39.9578899  31.530751099999996  31.6185048
C    40.058120599999995  32.5565036  30.5281582
C    40.9918159  30.157756799999998  33.315666300000004
C    39.7463007  29.624027199999997  33.6501311
C    38.6110646  30.035636999999998  32.955512500000005
C    38.726952499999996  30.9776669  31.9485442
N    39.5883244  28.677661699999998  34.6831327
C    40.2268695  28.705278099999997  35.8822378
O    41.1365416  29.487561299999996  36.140094500000004
C    39.7981172  27.710666299999996  36.926211800000004
C    40.092382799999996  27.9834109  38.258302
C    39.7542451  27.0485762  39.266304000000005
N    39.1636453  25.888514899999997  38.9156783
C    38.8949366  25.632762299999996  37.640565800000005
C    39.185949799999996  26.495553299999997  36.5979114
N    40.0100684  27.2884149  40.5927195
C    40.0036884  26.171597399999996  41.5376609
C    39.8517015  26.6418872  42.986964
O    40.7358317  27.7109027  43.2664478
C    40.3585142  28.830983599999996  42.4952354
C    40.5898527  28.5666716  41.0044408
H    46.490347799999995  32.154052199999995  29.3081618
H    48.2854822  34.4290692  29.7603885
H    47.709649999999996  34.0846254  28.121169300000002
H    48.9775185  31.954774099999998  28.051588700000003
H    50.5469065  34.121535599999994  29.629061200000002
H    51.2975086  32.7633302  28.703372700000003
H    50.1026692  31.0971974  30.164369100000002
H    49.3432211  32.4524821  31.0914171
H    45.056674099999995  31.135692499999998  29.9739076
H    43.0213664  30.0803272  30.737778400000003
H    44.099513699999996  34.656911799999996  32.2072225
H    42.0292983  33.5591478  32.999841100000005
H    39.088449499999996  32.7150077  30.0644522
H    40.7654883  32.2337638  29.7657096
H    40.4150272  33.5053482  30.923876900000003
H    41.8705528  29.846532999999997  33.8582506
H    37.6457097  29.6225654  33.205033
H    37.8436047  31.2904694  31.4127517
H    38.7416999  28.1266501  34.6295957
H    40.6066083  28.9058954  38.470401800000005
H    38.4301435  24.6729812  37.464536800000005
H    38.978181299999996  26.210311899999997  35.5805196
H    40.9546213  25.629912899999997  41.4455742
H    39.1913112  25.503738999999996  41.255650100000004
H    40.117001  25.8330657  43.6668977
H    38.8191981  26.9630539  43.1814842
H    40.9826948  29.662542499999997  42.8227865
H    39.3019016  29.067707699999996  42.6808558
H    40.123523  29.370126099999997  40.434660900000004
H    41.671019699999995  28.565126199999998  40.809216500000005
