43

C    41.988  0.383  15.087
C    42.877209  -0.4227977999999999  16.0385384
C    42.6488721  -1.8992726  15.6609687
C    41.8175866  -1.8480826  14.3852174
N    41.046404  -0.5958889999999999  14.5074828
C    40.4982574  -0.1420729999999999  13.2153316
C    39.0205745  -0.4515589  13.1648447
O    38.5753766  -1.4438882  12.2473654
C    38.072884200000004  0.7587686000000002  12.9279551
O    37.6701962  1.1967591  14.204913300000001
C    36.910813600000004  0.11489700000000003  12.1328941
C    37.1817854  -1.3291556  12.5542366
N    36.3554829  -2.5044363  12.2957625
C    36.693469  -3.581513  13.0973071
C    35.9941643  -4.7298466999999995  13.1320573
C    36.3993405  -5.8956631999999995  13.982042
C    34.809682  -4.8424494  12.3062269
O    34.1191148  -5.8487433  12.2621743
N    34.497643100000005  -3.7164345  11.553282900000001
C    35.2165148  -2.5348022  11.5164543
O    34.8537108  -1.5901825  10.8376097
H    42.5906168  0.7992007000000001  14.280102
H    41.448051  1.1873040000000001  15.581074300000001
H    42.6103663  -0.24921630000000006  17.0788576
H    43.9198108  -0.13953539999999998  15.9208622
H    42.1120107  -2.4155417999999997  16.4556937
H    43.5837896  -2.4289226  15.5025697
H    41.160419000000005  -2.7043336  14.2538952
H    42.4727084  -1.763529  13.5185451
H    40.2944174  -0.7397008999999999  15.188833500000001
H    41.0089232  -0.6358063999999999  12.3891465
H    40.6391889  0.9346272999999998  13.124815700000001
H    38.7357017  -0.7905228  14.1764577
H    38.549665600000004  1.5616558999999999  12.3595939
H    37.1145066  1.9833870999999998  14.1338221
H    37.021447  0.23799910000000013  11.0583717
H    35.9318265  0.4689298000000002  12.4403206
H    37.088155900000004  -1.2842166  13.6593783
H    37.5958256  -3.4579635  13.6734996
H    37.295079900000005  -5.6698106  14.547844300000001
H    36.5707533  -6.7635199  13.3486124
H    35.5877339  -6.154023  14.6592578
H    33.6671125  -3.7503059  10.9721984
