51

C    118.73399999999998  57.066  42.634
C    119.07306549999998  58.327957000000005  43.098021700000004
C    119.81825719999999  58.473652200000004  44.256417000000006
C    119.86163069999999  56.0897428  44.5066173
C    119.11925369999999  55.932474000000006  43.337361400000006
C    118.77441939999999  54.528077  42.8734623
C    117.68068099999999  58.739866400000004  47.118250100000004
C    115.7702722  57.721641700000006  45.829618700000005
C    114.20214119999999  57.610902800000005  48.097864300000005
C    115.48781119999998  58.1235141  48.1803326
C    116.28270519999998  58.185696300000004  47.0412594
C    113.68792159999998  57.1552087  46.8943919
C    114.4742259  57.2035179  45.7371266
C    113.95055489999999  56.7035902  44.443794700000005
C    114.72608509999999  55.98574060000001  43.441439
C    113.8095573  55.7344268  42.404414100000004
C    114.23336669999999  55.047653100000005  41.268799400000006
C    116.02830959999999  55.536548100000005  43.3309824
C    116.387205  54.868965300000006  42.1496353
Cl    113.21725879999998  57.5404113  49.552123900000005
C    117.79444779999999  60.134574400000005  46.4877581
C    117.30796889999999  61.262154800000005  47.40453600000001
O    116.1838294  61.8983168  46.8178278
O    112.59338689999998  56.2557132  42.76100890000001
N    112.7169668  56.838695900000005  44.015901400000004
N    115.48665629999999  54.639801000000006  41.159817700000005
N    117.6538162  54.43377530000001  41.945567600000004
C    120.00143469999999  53.912911400000006  42.1965718
C    120.2131386  57.348690600000005  44.9646411
H    118.16043309999999  56.965061600000006  41.724403
H    118.7601553  59.201160300000005  42.5452127
H    120.10182809999999  59.457776700000004  44.593181300000005
H    120.15924249999999  55.2150564  45.066803900000004
H    118.52943409999999  53.9351732  43.768475200000005
H    118.34145339999999  58.0685548  46.567061200000005
H    118.01288399999999  58.7770018  48.1545204
H    116.38365269999998  57.7902592  44.94383130000001
H    115.86509189999998  58.466258700000004  49.1307288
H    112.6860658  56.76097790000001  46.8381928
H    113.57339669999999  54.8201643  40.446444400000004
H    116.73685789999999  55.6812277  44.127254900000004
H    117.21147669999999  60.1769618  45.5679005
H    118.83808339999999  60.314292300000005  46.237211200000004
H    118.10596029999999  62.0017398  47.5520853
H    117.02912579999999  60.858299300000006  48.385934000000006
H    115.85567029999999  62.5856652  47.4112121
H    117.83174129999999  54.0129826  41.0476862
H    120.84894879999999  53.935143100000005  42.8751666
H    120.25746979999998  54.482727000000004  41.306742
H    119.80330079999999  52.8811874  41.9182514
H    120.79903479999999  57.4496759  45.8653264
