53

N    17.491  -6.082  12.819000000000003
C    17.896376500000002  -6.7256447999999995  11.547845200000001
C    19.0447193  -5.9009713999999995  10.948097400000002
O    19.3053943  -4.7969404  11.413067300000002
C    16.717417  -6.7552372  10.574639700000002
C    15.600537000000001  -7.6471399  11.058870900000002
C    14.2898001  -7.1858939  11.084468700000002
C    15.853184700000002  -8.9490889  11.472122800000001
C    13.254790000000002  -8.004235  11.493020800000002
C    14.8280913  -9.7727746  11.894675800000002
C    13.5188886  -9.3064758  11.904996000000002
O    12.475388300000002  -10.0931719  12.282138900000001
N    19.730183500000003  -6.4913685999999995  9.972874000000003
C    20.8794156  -5.8616036  9.356082600000002
C    20.4964602  -4.9557441  8.192870000000003
O    19.657186600000003  -5.3130455  7.374741100000001
C    21.850317  -6.9146635  8.807997600000002
C    22.8819813  -7.28194  9.867899200000002
C    22.1450313  -7.6648621  11.137506200000002
C    23.800969100000003  -8.409379399999999  9.401939400000002
N    21.2260864  -3.8390838  8.115493200000001
C    21.121416200000002  -2.8870705  7.022070500000002
C    19.8262225  -2.0048557000000002  7.125392900000001
O    19.5537306  -1.5155653999999998  8.240035000000002
C    21.1924478  -3.5901443  5.673822700000001
O    19.1678748  -1.8293466  6.0862427000000014
H    16.4699721  -6.0218173  12.899717400000002
H    17.9002814  -5.1225001  12.775096900000001
H    17.8718669  -6.5569752  13.643834400000003
H    18.253647  -7.7395461999999995  11.736533200000002
H    17.060219800000002  -7.1115402  9.600908100000002
H    16.3481551  -5.7406276  10.416034000000002
H    14.066459900000002  -6.1807807  10.758716500000002
H    16.8527273  -9.3520773  11.440586600000001
H    12.234651300000001  -7.6547064  11.496947900000002
H    15.041944100000002  -10.7852085  12.203421400000002
H    12.784665700000001  -10.972637800000001  12.545884500000001
H    19.369191800000003  -7.315606  9.515178800000001
H    21.3592896  -5.2468467  10.122660100000003
H    22.3447047  -6.5158246  7.920049600000002
H    21.290389100000002  -7.7960633  8.494128300000002
H    23.5018348  -6.4004107  10.065781600000001
H    22.850295900000003  -8.0655834  11.865208200000001
H    21.411662200000002  -8.438107200000001  10.927494200000002
H    21.6563048  -6.8148902  11.598564200000002
H    24.3024955  -8.134067  8.477157200000002
H    23.2314678  -9.318574  9.224782100000002
H    24.5572035  -8.6152907  10.154296800000003
H    21.718828600000002  -3.5219893  8.934993300000002
H    21.961705000000002  -2.1909784  7.125681400000001
H    21.1813809  -2.8402822  4.887715900000002
H    20.3255288  -4.2292795  5.540866700000002
H    22.102458900000002  -4.182570699999999  5.604532700000002
