32

N    36.431  -2.022  12.093
C    35.2320515  -2.1607553999999998  11.4093818
N    34.5682158  -3.3284912999999996  11.604261300000001
C    34.976171599999994  -4.3617402  12.4266967
C    36.222537499999994  -4.1413028999999995  13.1059
C    36.90371209999999  -2.9932441  12.9176635
O    34.793961599999996  -1.2876276  10.6813731
O    34.285120199999994  -5.3646175  12.525582
C    37.1630821  -0.7890536999999999  11.8572216
C    36.764413299999994  0.3341554000000002  12.8222105
O    36.595322599999996  1.5289209000000001  12.1137783
C    37.97881709999999  0.4194872000000003  13.7658619
C    39.1194639  0.03373190000000004  12.8092026
O    38.1314363  1.6712992  14.3544147
O    38.558406299999994  -0.9696727999999999  11.9634677
C    40.3430015  -0.5038076999999999  13.544069
O    39.9654349  -1.7496170999999998  14.0497415
P    41.029613499999996  -2.6083737  15.0295593
O    41.4317851  -1.6228752999999998  16.117401700000002
O    42.1691194  -3.0206112  14.1104315
O    40.1358574  -3.7452677999999997  15.4750213
H    33.689282  -3.4424913999999998  11.1047119
H    36.6021509  -4.9063271  13.7590592
H    37.858154899999995  -2.7953924  13.3879222
H    36.906208  -0.4998906999999999  10.8240643
H    35.82555369999999  0.13962050000000015  13.3404057
H    37.294026099999996  1.6422395  11.453816400000001
H    37.931943999999994  -0.3367442999999999  14.5572576
H    39.427966299999994  0.8991145  12.2034024
H    37.6887492  2.3288816999999997  13.7791028
H    40.634083  0.1663810000000001  14.3645384
H    41.20429789999999  -0.6317549999999998  12.8731141
