71

C    34.835  41.621  -0.04000000000000001
C    34.4349271  42.9553673  0.050321499999999963
C    33.544178900000006  43.3670537  1.0415548
C    32.8441563  40.042599  2.7479814
C    34.3090884  44.9016907  -1.479191
C    34.9327275  45.4582835  -2.7406247
C    31.597640700000003  39.8611795  -2.2408415
C    30.5011864  40.3161172  -1.5227316
C    30.293491200000002  41.6805576  -1.3327054
C    31.194615100000004  42.6067644  -1.8327266
C    32.3035769  42.167898  -2.5379115
C    32.4737389  40.8080689  -2.7253416
C    29.2112605  39.7020377  1.3947289999999999
C    31.886101200000002  38.4557265  1.0610476
C    30.5103669  40.2942934  1.9554095999999999
C    28.143354300000002  37.8987252  -0.05776530000000002
C    28.5691491  38.9455433  -1.9181505
C    26.2915791  35.0618844  -0.09300860000000002
C    24.1333431  35.6465473  1.8738467
F    33.5488842  40.3474925  -3.409394
N    34.9523719  43.8270016  -0.9140252
O    33.2910069  45.3964409  -1.0195612
N    31.614559500000002  39.3290763  2.2274001
O    28.475930100000003  39.2571835  -3.095368
N    29.5703065  39.3637641  -1.0692985
C    33.0360554  42.4272217  1.9234895
N    27.696371400000004  38.124030499999996  -1.2525448000000001
C    33.4116019  41.0868714  1.8198661999999999
N    27.5488448  37.1586569  0.894117
C    34.3255366  40.6937942  0.8444408999999999
C    29.443042900000002  38.7254391  0.2318904
C    30.6034593  37.7669984  0.5863874
C    25.4108583  33.9227401  0.4512575999999999
C    26.539095800000002  36.0634591  1.0372864
C    25.206122200000003  36.6749721  1.4843359
C    24.0538674  34.4213205  0.9568547999999999
H    35.535619600000004  41.3205773  -0.8036575
H    33.2532682  44.4015288  1.101318
H    33.598983000000004  39.279689499999996  2.9393
H    32.5653394  40.5132439  3.6912477
H    34.333598  46.2962932  -3.0811873
H    34.9676409  44.6977779  -3.517818
H    35.9476356  45.7957722  -2.5436984
H    31.7572678  38.8143254  -2.437177
H    29.4152324  42.0160188  -0.8040941
H    31.043943600000002  43.6627022  -1.6784684
H    33.011386300000005  42.8626914  -2.957895
H    28.574717500000002  40.5219885  1.0689723
H    28.680439000000003  39.1714457  2.1868208
H    32.619901500000005  37.7006452  1.338282
H    32.2914179  39.0791649  0.261744
H    30.281260600000003  40.8208467  2.8813669
H    30.9031449  41.0180678  1.2359798
H    25.797506400000003  35.5554509  -0.9310187
H    27.236454900000002  34.6538177  -0.4533834
H    23.163056800000003  36.1392175  1.9089679999999998
H    24.358654  35.2956412  2.8857368
H    35.7328064  43.459169  -1.4432979
H    31.303670600000004  38.7158816  2.9920686
H    32.3526277  42.7470412  2.6931164
H    28.016180000000002  37.2555502  1.7879151000000002
H    34.6492652  39.6676564  0.7759252
H    30.2461513  37.0857956  1.3606643
H    30.8409055  37.1644784  -0.2907989
H    25.9437146  33.4274875  1.2666099
H    25.250672100000003  33.1870864  -0.33635950000000003
H    26.9351653  35.4745146  1.8739263
H    25.367280200000003  37.3429214  2.3306084
H    24.834392100000002  37.2805765  0.6526721999999999
H    23.4512487  34.6834093  0.08144109999999999
H    23.536690200000002  33.613506799999996  1.4744667
