47

C    107.293  32.84  26.946
C    106.64127640000001  31.619947200000006  27.0156722
C    105.4549784  31.478195000000007  27.7615063
C    104.60525270000001  30.399176200000007  28.0054145
C    103.592321  30.839285700000005  28.856710200000002
C    103.8051009  32.20856870000001  29.162153200000002
C    105.56803620000001  33.801973700000005  28.369008700000002
C    106.71015360000001  33.945059300000004  27.647003
C    108.5615832  33.005557700000004  26.1791652
C    102.48525160000001  29.942747100000005  29.335946500000002
C    103.0479373  33.493143700000005  31.3380647
C    103.867698  34.860564600000004  31.483338800000002
C    101.6457639  33.611907200000005  31.987314400000002
C    100.9158712  34.89748650000001  31.5909822
C    101.6788618  33.464503500000006  33.5035371
C    102.33143720000001  34.69805160000001  35.4530076
N    104.93679470000001  32.589048500000004  28.4578197
N    109.1018677  34.240501900000005  26.1828192
N    102.95228130000001  33.067669200000005  29.9132493
N    101.51392320000001  33.94601910000001  36.2144087
O    101.2219311  30.351091300000007  28.8142251
O    109.1245387  32.094827300000006  25.5640189
O    104.30341440000001  35.36160240000001  30.433779
O    104.0664459  35.36644140000001  32.6180037
O    99.2193496  32.424656000000006  32.114303
O    101.1295351  30.885712200000007  31.8455763
O    102.1609978  34.6513423  34.119520200000004
O    103.1727321  35.42845510000001  35.9448982
S    100.50543010000001  32.19450510000001  31.3657378
H    107.04194100000001  30.763765800000005  26.4969205
H    104.71371830000001  29.410576700000007  27.609520800000002
H    105.110996  34.60652780000001  28.9188704
H    107.1359365  34.93153910000001  27.6297576
H    102.44567860000001  29.936370800000006  30.4293444
H    102.6757731  28.926084500000005  28.976615900000002
H    103.62459630000001  32.74293550000001  31.9127136
H    100.9703456  35.026090700000005  30.512489900000002
H    99.8740459  34.82326270000001  31.8991105
H    101.3907605  35.74779660000001  32.0770623
H    102.30110690000001  32.606993  33.7873967
H    100.6352959  33.270610000000005  33.8033221
H    109.9636006  34.36847720000001  25.6780115
H    108.69925450000001  35.013412200000005  26.677263500000002
H    102.0012653  32.76396890000001  29.7432755
H    101.635525  33.995918700000004  37.212474900000004
H    100.809754  33.345122800000006  35.8260671
H    100.6598045  30.611939700000008  29.5528064
