85

C    15.324  38.083  5.699
C    15.4215707  39.258764299999996  4.97495
C    14.279031100000001  39.9560852  4.5882595
C    13.0365935  39.4284809  4.9532396
C    12.9443978  38.2526321  5.6778769
C    14.0879188  37.56226709999999  6.072734800000001
C    15.6083754  41.474404099999994  3.3301351000000006
C    13.028164799999999  35.809404699999995  7.461880900000001
C    10.903939099999999  35.8988507  8.2992367
C    12.191243799999999  34.06275289999999  8.618544400000001
C    -1.1125046000000003  29.088521599999996  6.840334500000001
C    -2.4751116999999994  29.758843199999994  6.967820400000001
N    -3.5229022000000008  28.722609599999995  6.8388887
C    -4.866750700000001  29.316665999999998  6.770857400000001
C    -3.4011469000000005  27.710706799999997  7.9163841
C    -2.0164150999999997  27.068730999999996  7.8744095000000005
N    -0.9650914999999998  28.115438799999996  7.9524977
C    0.39771979999999996  27.534410999999995  8.0612347
C    1.4546343999999998  28.575614999999996  8.3611658
C    2.6106732  28.607710499999996  7.5893801000000005
C    3.5938212000000003  29.547143699999996  7.8380821
C    1.3134775999999997  29.503509599999994  9.3907279
C    2.2964645  30.449337299999996  9.637446200000001
C    3.4559895000000003  30.483299899999995  8.8636018
C    4.579922  31.461257499999995  9.0493165
O    5.4619175  31.562608399999995  8.198071200000001
N    4.5487912  32.176364099999994  10.1982176
C    5.4825139  33.09158849999999  10.678391600000001
C    6.5569504  33.574618599999994  9.934362400000001
C    5.3178761  33.5289727  11.9898114
C    6.2145062  34.42531029999999  12.5355794
C    7.2897086  34.9260331  11.8101041
C    8.2468549  35.89789759999999  12.4476184
C    7.4430523  34.492121299999994  10.4893917
N    8.5204887  34.974022299999994  9.7143555
C    8.5423083  36.1923384  9.1558584
N    7.4358194  36.9468026  9.264546900000001
C    7.3979485  38.14534329999999  8.7159794
C    8.4605015  38.690902099999995  8.0040446
C    9.608646  37.9309989  7.8714396
C    9.6860272  36.66157449999999  8.4492391
N    11.8915602  36.483722799999995  7.6269482
N    11.0249854  34.657607899999995  8.8174113
N    13.2180506  34.563875499999995  7.9679776
N    14.0535745  36.360880599999994  6.788730200000001
O    14.329496200000001  41.1168577  3.8588580000000006
H    16.229493599999998  37.566057799999996  5.9791907
H    16.406388800000002  39.611959999999996  4.7216266000000005
H    12.1443202  39.95293959999999  4.650976700000001
H    11.9757412  37.856503399999994  5.923108600000001
H    15.4176264  42.341606899999995  2.701119500000001
H    16.0209522  40.6638975  2.7273373000000003
H    16.300154  41.75041639999999  4.1283257
H    12.3095721  33.068750699999995  9.0294507
H    -0.31672169999999955  29.831670399999997  6.9080376
H    -1.0050016  28.561550499999996  5.891266400000001
H    -2.5936819999999994  30.500806399999995  6.177633200000001
H    -2.5887597000000007  30.265837199999996  7.9273752
H    -3.3735338000000006  28.239681099999995  5.941754100000001
H    -5.6201001999999995  28.541772999999996  6.655231700000001
H    -4.9374041  29.995850799999996  5.925719300000001
H    -5.078863999999999  29.872111099999998  7.6816718
H    -4.1609566000000004  26.940051299999997  7.7856822
H    -3.5811522  28.204102699999996  8.873750900000001
H    -1.8704470000000004  26.502885599999995  6.952165000000001
H    -1.9144249999999996  26.379932599999997  8.713013400000001
H    -1.1136263  28.639663599999995  8.8277531
H    0.6463695999999999  27.027328599999997  7.1285987
H    0.3948603999999998  26.794299699999996  8.865016500000001
H    2.756118  27.901480199999995  6.787398400000001
H    4.4938612  29.579320199999994  7.2424667000000005
H    0.4487040000000002  29.500386299999995  10.0363237
H    2.127655  31.165412799999995  10.425941400000001
H    3.8246281  31.953752999999995  10.8686878
H    6.7042278  33.250372299999995  8.9175764
H    4.4949543  33.1689965  12.5874555
H    6.0791876  34.7497111  13.5564735
H    7.9795921  36.0736364  13.484708300000001
H    8.2258992  36.8458639  11.9114944
H    9.2650814  35.51421859999999  12.4015844
H    9.3546737  34.4068645  9.5709984
H    6.4728934  38.68648459999999  8.857432600000001
H    8.390868600000001  39.6738747  7.568963
H    10.467218299999999  38.31427299999999  7.3453705000000005
H    14.9055295  35.81433009999999  6.796738700000001
