41

C    -12.945  56.47  50.23
N    -13.8532609  55.3630333  49.8988416
C    -14.9808627  55.2365035  50.8506796
C    -15.7718806  53.9568157  50.5064723
O    -15.9969669  53.847796  49.1250238
C    -17.0842375  53.9577749  51.2922528
O    -17.8760381  55.0578633  50.8945489
C    -17.3044002  56.2929489  51.2747929
C    -18.0333439  57.39662  50.523558799999996
C    -15.874933500000001  56.4781958  50.7425837
O    -16.0266011  56.8227542  49.3689436
C    -17.2962184  57.4444734  49.1723828
C    -18.1349039  56.6532488  48.1192541
O    -17.7442321  55.5096754  47.8155321
O    -19.1372511  57.2396635  47.6799183
C    -17.1031013  58.8977296  48.7478664
C    -16.4852009  59.0812904  47.3703045
C    -16.7782759  60.5606003  46.9219844
O    -17.9562858  60.9212734  46.9879552
O    -15.778636500000001  61.2167348  46.5656071
N    -15.0235249  58.8707908  47.3308411
H    -12.1286245  56.5025785  49.5137111
H    -12.5334831  56.320344399999996  51.2248788
H    -13.4763326  57.4143749  50.2048421
H    -13.3418994  54.473033799999996  49.8622291
H    -14.3004601  55.4918139  48.9768778
H    -14.5966773  55.1594804  51.8714775
H    -15.1872272  53.071681399999996  50.7806405
H    -16.6991719  54.459452999999996  48.8062608
H    -16.8986946  53.9901334  52.3745161
H    -17.6719987  53.0741611  51.0425106
H    -17.3534717  56.4021111  52.3672761
H    -17.9507376  58.3492372  51.0460713
H    -19.0856198  57.1574555  50.3827031
H    -15.4332858  57.3253093  51.2876801
H    -16.5119066  59.4329252  49.4955065
H    -18.0932183  59.3570978  48.6995597
H    -17.0080812  58.4316743  46.665217
H    -14.7426194  58.1421864  46.6733291
H    -14.654298  58.6749441  48.2637426
H    -14.6966997  59.8198217  46.9861368
