68

C    -4.318  0.649  -23.654
C    -4.356295899999999  -0.6438677999999998  -23.0811922
C    -4.2019552000000004  -0.6978260000000001  -21.6520966
N    -4.0551188  0.4136105000000003  -20.9417389
N    -4.1561999  1.7614125000000005  -22.8844246
C    -1.3135415999999998  -9.151529199999999  -15.2749674
C    -0.7436535999999998  -8.4792133  -14.061840199999999
C    -0.17719869999999993  -7.2168923  -14.1710083
C    -0.7744147999999998  -9.1074258  -12.8185772
C    -0.24227549999999987  -8.485747700000001  -11.701086499999999
C    0.3102733000000002  -7.2212216  -11.806566199999999
C    0.34001910000000013  -6.5941063  -13.0434531
N    0.9029709000000001  -5.3267644  -13.1331004
N    2.039658  -5.0378308999999994  -12.5039991
C    2.3097519  -3.7674919  -12.751471200000001
C    3.5041447999999997  -3.0429299999999997  -12.1680572
C    4.1914684  -2.1844954  -13.2428111
C    4.5265952  -4.0017625  -11.550430299999999
C    2.9644109  -2.1551983  -11.038317
C    1.2943504000000003  -3.2103032999999996  -13.5465187
C    0.41714850000000014  -4.2417435  -13.7754479
N    -0.7678241999999998  -4.2617042  -14.4815995
C    -0.9737420999999998  -3.5142993999999996  -15.6125287
O    -0.13581909999999975  -2.7700215999999998  -16.0970395
N    -2.2334834  -3.6711994  -16.112012
C    -2.7181239  -3.1536979  -17.3104844
C    -1.8764416999999998  -2.9806709  -18.4039379
C    -2.3800537  -2.5503444999999996  -19.6169995
C    -4.0807006999999995  -2.906834  -17.4656548
C    -4.5799561  -2.4695262  -18.6837981
C    -3.7352247999999997  -2.2749745  -19.769035
N    -4.242292  -1.9053839999999997  -21.0434716
C    -4.5087648  -1.7655541  -23.9033179
C    -4.6300129  -1.6270272999999997  -25.2785505
N    -4.8005569  -2.7096291  -26.0867665
C    -4.605682399999999  -0.33110919999999977  -25.8386184
C    -4.4509419  0.7762206000000003  -25.0511359
C    -4.0373885000000005  1.5797241  -21.6000061
H    -1.1899289  -8.5320213  -16.1582877
H    -2.3732983  -9.3535042  -15.1307745
H    -0.8161601999999999  -10.1045725  -15.4444625
H    -0.10740369999999988  -6.7356286999999995  -15.1348844
H    -1.2110613999999997  -10.0905725  -12.7340546
H    -0.26415339999999987  -8.9834454  -10.7443154
H    0.7378391  -6.7190065  -10.9544251
H    5.0388366  -1.6603472  -12.8087983
H    3.5025109  -1.4510674999999997  -13.6534687
H    4.5470806  -2.8140862999999996  -14.0550616
H    4.0450198  -4.6360356  -10.8124083
H    5.3216945  -3.4347255  -11.0746671
H    4.9588763  -4.6427741  -12.3147536
H    2.2264108  -1.4518996999999998  -11.4193213
H    3.7749606  -1.5911958999999998  -10.5826859
H    2.4935689  -2.7687339  -10.2743468
H    1.2119258  -2.2130437  -13.9250761
H    -1.4293692999999998  -4.9867691999999995  -14.235578499999999
H    -2.9347019  -4.0755878  -15.5048577
H    -0.8211247999999999  -3.1738513  -18.3004748
H    -1.7123624  -2.4184297  -20.4553301
H    -4.7549243  -3.0554246999999997  -16.6368394
H    -5.6344845  -2.2710394999999997  -18.7905304
H    -4.3252749999999995  -2.6872039  -21.6773032
H    -4.534523699999999  -2.7652926  -23.4961438
H    -4.683908799999999  -2.587442  -27.076825200000002
H    -4.6217299999999994  -3.6243624  -25.711672800000002
H    -4.7048723  -0.2233063999999998  -26.9082689
H    -4.4246975  1.7678055000000006  -25.4734798
H    -3.9137553  2.4603096000000004  -20.9822679
