38

C    -0.7549999999999999  6.806  14.246
C    -0.04722499999999963  7.980185499999999  14.3505567
C    1.3357704000000001  8.0372292  14.6290281
C    1.9966259000000002  6.7747242  14.8074319
C    1.2313947000000003  5.6020293  14.744349399999999
C    -0.11701879999999987  5.593857999999999  14.451094999999999
C    1.3069231000000003  10.4088952  13.9272447
C    1.2179858000000001  11.6458779  14.8086536
C    3.6116717000000005  11.031658199999999  14.9927073
C    3.0929151000000004  9.65715  15.4287241
C    2.9046057000000003  13.3750416  15.4550913
C    3.4051167  6.5012079  15.3125119
C    5.1194118  7.263962599999999  12.5977062
N    3.8769246  7.4974945  12.182281
S    6.444764  7.499492699999999  11.6051489
N    5.4138249  6.7927532  13.851411599999999
N    4.7286713  6.5066980999999995  14.8328235
N    1.9063993000000004  9.3009718  14.6628432
N    2.5744486  12.0251415  15.1054949
H    -1.8155526999999996  6.8386618  14.0480793
H    -0.6224907999999996  8.8868557  14.2986301
H    1.7256851000000002  4.655672299999999  14.912299299999999
H    -0.6584971  4.6626414  14.3969302
H    1.9527523000000002  10.6515075  13.072208199999999
H    0.33712490000000006  10.1512928  13.523565999999999
H    0.6438381000000004  11.4197382  15.723325599999999
H    0.7096112000000003  12.4523891  14.2714535
H    4.016578900000001  10.9648287  13.9681026
H    4.4384743  11.3148488  15.649578
H    2.848739  9.6840682  16.4980969
H    3.8973143  8.936407899999999  15.268876899999999
H    1.9924515000000003  13.9623506  15.5130767
H    3.5676245  13.835323599999999  14.7102202
H    3.4077297  13.4238821  16.4286749
H    3.0773294  7.3334873  12.7832227
H    3.715681  7.790885299999999  11.231080299999999
H    3.5312558000000003  7.0754556  16.2470007
H    3.3813392  5.4667764  15.697483
