73

O    80.526  62.063  14.922
C    80.85161599999999  62.3558311  13.7709162
C    82.0370311  61.656798300000005  13.1183811
C    81.51296289999999  60.52266970000001  12.208768
C    80.90194609999999  59.36936970000001  13.0061126
C    80.3549501  58.30251090000001  12.0603526
C    81.4526551  57.7804392  11.1360508
C    82.1014501  58.926841700000004  10.3654175
C    82.636128  59.9862036  11.3233305
N    82.926542  61.140623500000004  14.140109
C    84.2543851  61.191290800000004  14.0324334
O    84.85849379999999  61.6545155  13.0742871
C    85.0353571  60.6050479  15.2146268
C    85.1213131  61.6454444  16.3275189
N    86.40241669999999  60.26861040000001  14.7593143
C    86.5354661  59.0635704  13.9255121
N    80.1720931  63.257370800000004  13.0524371
C    79.0070269  63.914264200000005  13.6389653
C    78.5582137  64.9605693  12.6091145
C    79.7596071  65.12812650000001  11.6934609
C    80.4386109  63.75982200000001  11.7139578
C    77.8915042  62.978824  13.9582627
S    77.6146378  61.51106850000001  13.079543600000001
C    76.2719671  61.245854400000006  14.0998512
C    76.10543659999999  62.243687300000005  15.0189346
N    77.04757099999999  63.21811160000001  14.9011396
C    75.00288309999999  62.2650452  15.9984252
C    73.75561359999999  61.8450551  15.5803457
C    72.6574557  61.829577300000004  16.4474268
C    72.8032413  62.2353486  17.7450659
C    74.05497159999999  62.6697039  18.2155306
C    74.2045759  63.08731410000001  19.5513448
C    75.17460249999999  62.690972  17.3439219
C    76.4100763  63.126338200000006  17.860886
C    76.52712659999999  63.52885870000001  19.165331600000002
C    75.4163325  63.51163040000001  20.0203035
H    82.61864469999999  62.356419300000006  12.5094618
H    80.7341833  60.945915500000005  11.5676299
H    80.1020559  59.739910900000005  13.6513816
H    81.6659705  58.9155183  13.6391893
H    79.547297  58.731351100000005  11.4615948
H    79.9329728  57.47945670000001  12.6397724
H    81.03282  57.0536657  10.4386701
H    82.211243  57.2688381  11.7321869
H    81.3607237  59.3787809  9.7019247
H    82.9127602  58.544047500000005  9.744430099999999
H    83.4083263  59.538711500000005  11.9502052
H    83.09237239999999  60.8008778  10.7588465
H    82.46008119999999  60.8501624  14.9902581
H    84.5433425  59.6979139  15.57566
H    85.6658573  61.255503600000004  17.1829713
H    84.1253777  61.9184126  16.6649837
H    85.6095532  62.54944390000001  15.9719927
H    87.02298429999999  60.19950550000001  15.5739899
H    86.70577779999999  61.07353020000001  14.1833679
H    87.5786018  58.90530630000001  13.66933
H    85.9661264  59.18889250000001  13.0073543
H    86.1636939  58.1928801  14.4605985
H    79.30311859999999  64.38321  14.5858661
H    78.2561964  65.8852356  13.091387600000001
H    77.7051302  64.5731674  12.0491851
H    80.4360483  65.88065560000001  12.0992551
H    79.47567079999999  65.42407370000001  10.6873361
H    79.9838216  63.0943765  10.9729615
H    81.5080631  63.8271493  11.5234349
H    75.69028759999999  60.352461100000006  13.9854175
H    73.61421209999999  61.539368100000004  14.5539967
H    71.69878849999999  61.499535400000006  16.0771887
H    71.9625933  62.230813000000005  18.4228524
H    73.34001289999999  63.065339200000004  20.1985197
H    77.2682662  63.1468666  17.206509
H    77.4818521  63.862593000000004  19.5427662
H    75.5262099  63.832734900000005  21.0451868
