70

O    95.88  7.094  63.786
S    96.4475042  8.3222506  64.303809
O    95.9729782  8.7643623  65.5987688
C    98.2164995  8.214686200000001  64.411495
N    96.2316522  9.5879183  63.1958338
C    96.06134420000001  9.4038381  61.8191633
C    95.3527931  10.3438728  61.0513272
C    96.5977214  8.3010047  61.1510461
C    96.4114426  8.153515  59.785081
S    97.0447959  6.7305679000000005  58.9836597
O    98.3794335  6.4370965  59.4604402
O    96.059439  5.6733845  59.0897577
N    97.133677  7.2477412  57.3816486
C    96.3324677  8.2653602  56.8854959
N    95.5529793  8.9915172  57.6345907
C    95.6895991  9.0612767  59.0105281
C    95.1696566  10.1786489  59.6921534
C    96.52742740000001  8.6143275  55.4692928
C    97.1474285  7.6438592000000005  54.5114978
O    97.0354962  6.4208929  54.711188899999996
N    97.8062796  8.1568886  53.4454841
C    98.5115278  7.2754247  52.5029073
C    99.9066973  7.7651292000000005  52.0595557
C    100.0579656  7.3167245  50.602662
C    97.7129241  7.033758000000001  51.2026385
C    98.6422456  7.3611433  50.0293965
C    97.8311575  9.5935943  53.201733
C    96.5277366  10.3017921  53.6071958
C    96.7585542  11.819211899999999  53.528402299999996
C    96.1697702  9.8632829  55.0195087
O    95.5127376  10.7395328  55.751141
C    95.4006584  9.8765231  52.6361279
C    94.0239691  10.4403365  52.9857085
C    92.8747334  9.6901393  52.2994272
C    91.5373991  10.109302  52.9100038
C    92.8689691  9.9454484  50.7925784
H    98.6135792  7.9430236  63.4432489
H    98.4510761  7.4590711  65.1504746
H    98.569832  9.185876500000001  64.7295807
H    95.758623  10.3879408  63.5866835
H    94.9377318  11.2139514  61.5340629
H    97.1336454  7.5258744  61.6714845
H    97.4705426  6.5948503  56.6811486
H    94.6179581  10.9145741  59.1311511
H    98.60943520000001  6.327479800000001  53.0410515
H    100.6867549  7.3534391  52.696821899999996
H    99.9666864  8.849646700000001  52.1145281
H    100.4356571  6.2934986  50.5716976
H    100.7482969  7.951821000000001  50.0528784
H    96.8153627  7.649875  51.1830989
H    97.3910512  5.9936663  51.1644041
H    98.5151606  6.6631697  49.205073399999996
H    98.4304775  8.3637095  49.6553587
H    97.9935597  9.7450749  52.135260699999996
H    98.6642764  10.0358968  53.7599726
H    95.8727796  12.3473829  53.8629095
H    96.9798157  12.1003793  52.5044919
H    97.5894366  12.1078628  54.1654457
H    95.3151012  10.3393978  56.6463738
H    95.3409115  8.7844201  52.6510791
H    95.6870042  10.1918771  51.6330755
H    93.9702347  11.4929126  52.7063799
H    93.8695109  10.374383  54.062690599999996
H    93.007947  8.6152626  52.4729394
H    90.7176272  9.5783742  52.4317961
H    91.378922  11.176961200000001  52.7769386
H    91.5144951  9.88636  53.9740972
H    93.7862224  9.588291  50.333081
H    92.7681243  11.0092659  50.5914856
H    92.0343669  9.4284781  50.3244678
