82

C    -19.801  10.56  -13.299000000000001
N    -19.1994653  11.721401400000001  -12.692892400000002
C    -19.117564599999998  11.8711082  -11.375490500000002
N    -19.506877699999997  10.9006494  -10.5714739
N    -18.580948  12.966740399999999  -10.8812186
C    -19.0853775  10.3757861  -14.627141900000002
O    -17.7197121  10.089901900000001  -14.4145087
C    -19.710341099999997  9.2241357  -15.4145502
N    -19.317493499999998  9.361330800000001  -16.7895587
C    -18.1496  8.9129354  -17.2224442
N    -17.3583304  8.2216139  -16.4109139
N    -17.8464377  9.082686  -18.490016
C    -21.249339199999998  9.2231861  -15.3897898
O    -21.7166316  8.198204200000001  -14.526153800000001
C    -21.786068999999998  10.5718086  -14.888988200000002
O    -21.337498  11.5959816  -15.751928600000001
C    -21.3188371  10.8017275  -13.446305400000002
O    -22.050331099999998  10.0241822  -12.532613200000002
C    -22.0660924  6.9417486  -15.0904114
C    -21.1700093  6.5045242000000005  -16.269735500000003
C    -20.443433799999998  5.236466200000001  -15.741203400000002
O    -21.051078699999998  4.126543  -16.351327700000002
C    -18.979545199999997  5.2933921999999995  -16.116285400000002
O    -18.563422  4.7102085  -17.0825445
C    -20.6907242  5.288322300000001  -14.228941200000001
C    -20.7993433  3.8886134000000006  -13.651830600000002
O    -21.926382699999998  5.994009  -14.080598700000001
O    -21.914241699999998  6.1682404  -17.4086135
C    -21.4009634  6.7012971  -18.6085809
C    -21.688185299999997  5.744032600000001  -19.7671661
N    -20.792633199999997  4.5735286  -19.7326456
C    -19.3777968  4.7930375000000005  -20.0799501
C    -21.519685199999998  6.5103171  -21.091652500000002
O    -21.5888134  5.6272009  -22.174803100000002
C    -22.618935899999997  7.5895444  -21.1667762
O    -23.7187241  7.0323479  -21.856397400000002
C    -23.051262599999998  7.9966044  -19.7461549
O    -21.9438739  7.9790147000000005  -18.845950000000002
C    -23.654336999999998  9.4002117  -19.750092700000003
O    -24.1312081  9.7455871  -18.4715965
H    -19.6169977  9.6763528  -12.685687900000001
H    -19.071592499999998  12.5315132  -13.282522400000001
H    -19.420442299999998  11.0229883  -9.575137000000002
H    -20.1869977  10.2184991  -10.868318400000001
H    -18.1926314  13.6822978  -11.473116700000002
H    -18.4816078  13.0919368  -9.887582700000001
H    -19.1875745  11.292891000000001  -15.222586900000001
H    -17.2905186  10.805680800000001  -13.929590700000002
H    -19.3518133  8.2831109  -14.992127100000001
H    -19.8276588  10.0453747  -17.330601
H    -16.478715599999997  7.8916198  -16.7797135
H    -17.3453643  8.455017  -15.426136900000001
H    -18.472137399999998  9.5624647  -19.1157676
H    -16.9597473  8.7825431  -18.8630411
H    -21.6358772  9.0680681  -16.40305
H    -22.882044299999997  10.5151989  -14.876607600000002
H    -21.921089199999997  12.3627365  -15.693264800000001
H    -21.5392944  11.8410929  -13.1751818
H    -22.1477012  9.1240565  -12.880443900000001
H    -23.120177899999998  6.959717  -15.3991865
H    -20.444699  7.2737096  -16.5203621
H    -20.605141  3.3141192000000004  -16.073716100000002
H    -18.338268499999998  5.9244127  -15.486596000000002
H    -19.8952748  5.8524047  -13.723193000000002
H    -20.9760335  3.9490796  -12.5809346
H    -19.8747017  3.3426712  -13.815980600000001
H    -21.642455499999997  3.3647677  -14.091701800000001
H    -20.3186485  6.8650413  -18.513249100000003
H    -22.7162132  5.3810443  -19.679583700000002
H    -21.1620061  3.8888474000000004  -20.4045391
H    -20.8545038  4.1629651  -18.786298100000003
H    -18.8367245  3.8594914000000005  -19.9504035
H    -18.922915399999997  5.528577  -19.4263707
H    -19.293996999999997  5.0988024  -21.118512600000003
H    -20.5388254  6.9915953  -21.120031
H    -22.501128599999998  5.6231862  -22.5091943
H    -22.2334543  8.4621888  -21.704324
H    -24.206306299999998  7.7024384  -22.344921300000003
H    -23.824634999999997  7.3026318  -19.3927142
H    -24.5197424  9.4259558  -20.4120211
H    -22.911559399999998  10.1291891  -20.094851400000003
H    -23.377868799999998  9.7549886  -17.8659418
