48

C    35.539  35.844  20.035
N    35.0545458  34.6118331  20.1383664
N    34.438763200000004  34.5122551  21.3164879
C    34.5124523  35.6595678  22.0083697
C    35.226179  36.5640187  21.2160868
C    36.269445600000005  36.2661274  18.8394009
C    35.474899300000004  37.9613695  21.5068399
C    33.947721  35.8574312  23.371448700000002
C    35.746552300000005  35.9866221  17.5807412
C    36.402989  36.3903091  16.4330664
C    37.6026852  37.0710626  16.5360221
C    38.1546597  37.332584  17.7772541
C    37.4865725  36.9322046  18.9201467
C    35.768023400000004  38.4094661  22.799454100000002
C    35.9129019  39.771275  22.964329
N    35.7909089  40.6369799  21.9612214
C    35.5289774  40.1095277  20.7752307
N    35.3612198  38.8317416  20.4959537
C    32.611414700000005  35.1540747  23.6153841
C    32.140666100000004  35.4156512  25.0422878
N    33.1536783  35.0763404  26.0269562
C    34.461400000000005  35.670567  25.8248329
C    34.9603312  35.3670242  24.4126046
Cl    38.4141008  37.6164386  15.0961414
C    32.8651184  34.3194888  27.1017148
O    32.060709700000004  33.3884955  27.1093128
C    33.5558122  34.7301436  28.397060500000002
O    33.0340095  33.9873324  29.4685819
H    33.992395  33.644558  21.5691342
H    33.7926816  36.933562  23.5111846
H    34.8114662  35.4560533  17.504663
H    35.9821642  36.1818637  15.462322400000001
H    39.096524800000005  37.8528369  17.8517737
H    37.9203769  37.1439151  19.8861367
H    35.9212457  37.7380818  23.622470800000002
H    36.1380931  40.2086903  23.9283228
H    35.4382705  40.7990505  19.9458359
H    32.7230869  34.0770634  23.4806864
H    31.856906000000002  35.5150388  22.9173296
H    31.250544100000003  34.8269431  25.2673687
H    31.907331900000003  36.4800287  25.1652146
H    35.1641156  35.2683992  26.548948199999998
H    34.3985849  36.7581206  25.9632469
H    35.9369293  35.8264086  24.2704865
H    35.0854749  34.2875334  24.3043164
H    33.3687244  35.7961164  28.5672939
H    34.637984700000004  34.5575821  28.3642615
H    32.4016433  33.3496727  29.0837449
