58

O    62.386  34.577  5.618
O    60.2148894  31.5162923  0.7987481000000001
O    60.9066457  28.2735244  3.9494468
O    63.6925251  27.683791499999998  7.0806512
O    59.0678106  28.720861199999998  6.4969247
O    57.4115163  27.3636686  8.0007517
O    58.314946  25.9522387  9.5246829
N    61.6377391  29.265227799999998  5.8197156
C    61.3770764  29.2557594  4.5046621
C    61.6806949  30.554138  3.7724798
C    60.3941986  31.3694765  3.8635637000000003
C    60.3392774  32.6609834  3.0052889
C    60.6823898  32.405904  1.5063389000000003
C    61.584938199999996  33.3611111  0.8875310000000001
C    62.1246881  34.428534  1.4698790000000002
C    61.8876525  34.8347073  2.8590066
C    61.3885583  33.6153197  3.6684115999999998
C    61.139203099999996  34.1099127  5.1123202
C    60.296792599999996  35.3903601  5.1646541
C    61.2333188  36.381194199999996  4.4798706
C    61.0181722  36.0957821  2.9859914
C    63.1767029  35.3792786  3.5231366
C    62.6396355  35.8021362  4.8888452000000004
C    63.540153  36.6290525  5.801787
C    58.8784084  33.1771241  2.9216697000000003
C    58.3681656  26.7597138  8.5657029
C    59.7437968  27.042562  8.0803755
C    60.031311699999996  27.993420399999998  7.1042188
C    61.370175599999996  28.2248099  6.7572767
C    62.3845278  27.4868804  7.3832809
C    62.0577511  26.5373666  8.3443832
C    60.7541921  26.3234264  8.6889632
H    64.2473176  27.0743266  7.592587
H    58.2101543  28.3889899  6.8856588
H    62.1344148  30.0606919  6.2004425
H    61.9003165  30.3163579  2.7314902
H    62.5316182  31.0518172  4.2335236
H    60.17482  31.6096386  4.9018703
H    59.5880501  30.710698  3.5202382
H    61.7962927  33.1416174  -0.1511079999999998
H    62.7615617  35.0797772  0.8838400000000002
H    62.2820787  32.9852246  3.7496977
H    60.787950699999996  33.3255489  5.7814758
H    60.1417334  35.6448407  6.2164389
H    59.3293282  35.3005337  4.6841353
H    61.0816663  37.4158067  4.7752289
H    59.9736361  35.9437569  2.7395343
H    61.4204211  36.8811031  2.3456903000000002
H    63.567373599999996  36.2271343  2.9634314
H    63.9547194  34.6221059  3.6197331000000004
H    63.8168594  37.5655438  5.326062
H    63.0145599  36.8306139  6.7299141
H    64.4333009  36.0533848  6.0226667
H    58.2749866  32.4260467  2.4168335
H    58.4744107  33.3308426  3.9184083000000003
H    58.8299127  34.1002636  2.3522232
H    62.8461369  25.9719314  8.818524400000001
H    60.4712939  25.6037615  9.4407633
