13

C    20.152  -6.286  -6.802
C    20.185861000000003  -6.285235199999999  -5.252540099999999
C    19.0827147  -6.197283199999999  -3.1100125999999992
C    17.666471100000003  -6.1588031999999995  -2.4757631999999994
O    19.037327  -6.249840599999999  -7.353874599999999
O    21.2591375  -6.3196824  -7.3783467
O    21.2779239  -6.325655899999999  -4.678716799999999
O    17.607512  -6.116150599999999  -1.2296574999999996
N    19.0449714  -6.230817399999999  -4.557814199999999
O    16.6972111  -6.169907499999999  -3.2523889999999995
H    19.613108  -7.079209999999999  -2.7351956999999993
H    19.6432492  -5.317635899999999  -2.7752264999999996
H    18.136925  -6.200549799999999  -5.0045611999999995
