79

P    35.061  18.607  3.412
O    34.7480884  17.9263367  2.1256359
O    34.005987999999995  18.9651809  4.3935907
O    36.2597053  17.863768  4.2341090999999995
P    36.875234999999996  16.384866199999998  4.0141933000000005
O    35.7940816  15.369143  3.964112
O    37.9722722  16.281005  5.0149035
O    37.5346656  16.6310165  2.5539961
N    34.934788499999996  23.7205028  1.7717904
C    34.011053999999994  22.9542325  2.3879292
N    32.9081863  23.6496341  2.6164191
C    31.698263299999997  23.1721561  3.2476935
C    33.1168724  24.9162411  2.1426952999999997
C    32.2783014  26.0747775  2.127874
O    31.138727199999998  26.1391719  2.5621558999999996
N    32.8981255  27.1721572  1.5583584999999998
C    34.1724616  27.1533372  1.0483246999999998
N    34.675962399999996  28.2563712  0.5188142999999998
N    34.932967399999995  26.0626826  1.0645042999999998
C    34.397923199999994  24.9715205  1.6064275
O    35.808018499999996  20.0106469  3.0677757
C    36.937464299999995  19.9549718  2.219729
C    37.353280399999996  21.3757104  1.8898465999999998
O    36.3669697  21.9866943  1.0682177999999998
C    37.4628149  22.2767692  3.127547
O    38.6890511  22.1742916  3.7925171
C    37.3056218  23.661695599999998  2.4851922999999996
O    38.502664599999996  24.1063324  1.9222613999999998
C    36.285925999999996  23.3615292  1.3642887
P    38.216980299999996  15.4662337  1.6306363999999998
O    37.726306199999996  14.1034884  1.9698925999999999
O    39.6748555  15.7435367  1.5437420999999998
O    37.581962999999995  15.9132034  0.20235119999999984
C    36.1998925  15.678072799999999  -0.027980100000000174
C    35.877413499999996  16.0998743  -1.4583759
O    36.0614868  17.4992089  -1.6273671000000003
C    36.7644883  15.4313915  -2.5148
O    36.0750025  15.333779199999999  -3.7347858
C    37.8981949  16.4527118  -2.723275
O    38.533760199999996  16.340139399999998  -3.9557344
C    37.107390499999994  17.7714937  -2.5516382
N    37.857005199999996  18.8877794  -2.0627906
C    38.4627658  18.9211693  -0.8225110000000002
N    38.9994368  20.085369099999998  -0.5733571000000002
C    38.7201689  20.8680128  -1.6775874000000002
C    39.060331399999995  22.2333192  -1.9661583
O    39.691229699999994  22.9951106  -1.24004
N    38.601005  22.6612723  -3.2164304
C    37.891892999999996  21.8667771  -4.084954
N    37.493331299999994  22.3782839  -5.2553635000000005
N    37.5755221  20.6089459  -3.8134485
C    37.989371399999996  20.1332608  -2.6185205000000003
H    34.16829439999999  21.919130499999998  2.6359826999999996
H    31.274913899999998  22.3543047  2.6674609
H    31.923158799999996  22.7949077  4.2436378999999995
H    30.9959115  24.001741799999998  3.3023506
H    32.345065999999996  28.0241614  1.5282826999999999
H    34.156098  29.1179592  0.4822127999999999
H    35.6183865  28.211131199999997  0.16382409999999992
H    36.674633299999996  19.4048713  1.3077318999999998
H    37.747288899999994  19.3946498  2.7023683
H    38.3076155  21.3376138  1.3435137
H    36.6230434  22.051927  3.7996646
H    38.8274705  21.2703561  4.095685899999999
H    36.9180856  24.4078571  3.1922254999999997
H    39.2377476  23.7815841  2.466832
H    36.5253837  23.9611882  0.4768560999999999
H    35.6080658  16.2683918  0.6839802999999999
H    35.9893995  14.6184573  0.15244039999999992
H    34.8143317  15.894164499999999  -1.6327742
H    37.146049399999995  14.4687223  -2.1639952
H    35.450978299999996  14.592736899999998  -3.7141268
H    38.6418034  16.3574236  -1.9275778000000003
H    37.868165399999995  16.0577508  -4.6112992
H    36.6741853  18.0782541  -3.5171793000000005
H    38.4857017  18.0775889  -0.16122970000000014
H    38.826169699999994  23.62091  -3.4585349
H    37.7575161  23.3066431  -5.5355306
H    37.009096899999996  21.7624912  -5.8852643
