27

C    3.786  49.407  34.646
N    3.3617673  49.1861915  29.962334100000003
O    3.1242783  52.3135676  28.063681000000003
Cl    7.3723056  50.0197802  36.408242400000006
C    4.7564193999999995  49.7108894  35.601337300000004
N    2.8158738999999997  50.9448596  31.380887400000002
O    2.5684769999999997  53.0618872  30.595436900000003
Cl    4.2188321  50.1596279  37.19105570000001
C    6.1145867  49.6497764  35.2654256
O    3.925274  48.0767085  27.629843300000005
C    6.4828763  49.2797327  33.970893000000004
O    3.7633321  49.9768989  26.508257400000005
C    5.5111121999999995  48.9763521  33.0266661
C    4.150736  49.0380006  33.350309700000004
C    3.0928464  48.6954065  32.3193837
C    3.0981866  49.6323925  31.143371600000002
C    3.3847907  50.0192833  28.8801914
C    3.1253041  51.3703177  29.034549000000002
C    2.8182963  51.8664198  30.370592400000003
C    3.7192495  49.302112199999996  27.555380300000003
H    2.7487019  49.4559033  34.9337907
H    2.9049405999999998  53.1659013  28.499386800000003
H    2.6161418  51.279638  32.319449500000005
H    7.5277904  49.2306717  33.715084000000004
H    5.8005102  48.691751  32.027550000000005
H    2.1075421  48.7173054  32.78505800000001
H    3.2785338  47.698295099999996  31.921304600000003
