34

N    -5.436  -35.147  1.8850000000000002
C    -6.4780994  -34.312269199999996  1.7582296000000002
N    -7.0172262  -32.1100013  0.9887662000000002
N    -7.713743900000001  -34.5273919  2.1785246000000003
C    -7.8740317  -35.711472199999996  2.7640783
C    -6.8675843  -36.6791919  2.9535458
C    -5.5842274000000005  -36.3229167  2.4939496
N    -4.5378066  -37.1682827  2.6847301000000003
N    -7.4015385  -37.7736792  3.5811838
C    -8.6618137  -37.4695917  3.7569346
N    -9.008685700000001  -36.2397701  3.2955215000000004
C    -11.230956599999999  -36.3053755  2.3454166
F    -1.1364723000000003  -35.3919381  -0.1782906999999998
F    -0.05058399999999974  -38.614725  3.0559512
C    -0.5406826000000002  -36.9902339  1.4297878000000002
C    -2.8330493  -36.2147662  1.2223732000000003
C    -2.2708643  -37.8669301  2.8834124
C    -10.318124000000001  -35.6163587  3.3421135
C    -6.1757109  -33.0444224  1.0813511
C    -1.5129408  -36.2125645  0.8310453000000002
C    -0.9642948000000002  -37.8123068  2.4533122
C    -3.2269736  -37.0630843  2.257257
H    -6.6777684  -31.285636099999998  0.49979280000000004
H    -4.7583025  -37.968771499999995  3.26537
H    -9.3622117  -38.123542  4.2363669999999995
H    -12.2147608  -35.8454514  2.3648567000000003
H    -11.336681200000001  -37.3609615  2.5830267
H    -10.8284117  -36.2133542  1.3394546000000003
H    0.4852496999999998  -36.9656207  1.1064042
H    -3.5521803  -35.5782133  0.7371324000000001
H    -2.5398328  -38.5364889  3.683553
H    -10.1742959  -34.5662869  3.0863616
H    -10.709612100000001  -35.7032601  4.3576189
H    -5.1490007  -33.015763299999996  0.6948356000000002
