111

N    8.821  -18.045  14.572
C    8.4098023  -16.8728136  13.754333899999999
C    6.9012572  -16.5684077  13.873521899999998
O    6.2665425  -16.1273935  12.928054799999998
C    8.7743907  -17.1210504  12.288613999999999
C    8.085556  -18.3778547  11.6676235
O    7.1233828  -18.873861400000003  12.290279499999999
O    8.5656974  -18.807290700000003  10.603751399999998
N    6.3462272  -16.797100300000004  15.079919599999998
C    4.9126514  -16.6230008  15.280495299999998
C    4.4540766000000005  -15.179744000000001  14.994170399999998
O    4.9628156  -14.221587600000001  15.565934599999999
C    4.553569  -17.009205800000004  16.7129601
N    3.4600231  -15.050139700000003  14.1072487
C    2.8438440000000003  -13.774118600000001  13.799970299999998
C    1.6483378000000002  -13.500242400000001  14.724717499999999
O    0.9342266000000001  -14.404539100000001  15.136669999999999
C    2.2926413  -13.750285400000001  12.372020499999998
C    3.3302659000000006  -13.500322100000002  11.291144199999998
C    2.6241877000000002  -13.233213100000002  9.935716
O    1.5654599  -13.846861600000002  9.69492
O    3.1604617  -12.399361400000002  9.177982499999999
N    1.4435295  -12.214483500000002  15.053508699999998
C    0.27982660000000004  -11.819165600000002  15.8344384
C    -0.9298694999999999  -11.722555800000002  14.9004473
O    -0.7838897999999999  -11.567265300000003  13.692151899999999
C    0.5404641000000001  -10.484408400000001  16.5514218
C    -0.5536112999999998  -10.091457400000001  17.5111411
C    -1.2205297  -8.880533600000001  17.3783314
C    -0.9022957999999999  -10.930556700000002  18.5650471
C    -2.2167263  -8.5132106  18.267790899999998
C    -1.8981587999999998  -10.567470300000002  19.454020399999997
C    -2.5611897  -9.359942500000002  19.306918
N    -2.1301693  -11.852574700000002  15.4738294
C    -3.354854  -11.879012700000002  14.689430299999998
C    -3.8387074  -10.463629400000002  14.330207799999998
O    -3.8805381999999997  -9.577485700000002  15.169333899999998
C    -4.4145388  -12.614883500000001  15.513395299999999
C    -5.7936401  -12.654495500000001  14.863621199999999
C    -6.7064658999999995  -13.536805600000001  15.706881899999999
N    -8.085353699999999  -13.431878700000002  15.270573399999998
C    -9.0986992  -13.946222600000002  15.951512999999998
N    -8.8849517  -14.610331000000002  17.085600399999997
N    -10.3428892  -13.798453100000001  15.5016401
N    -4.2736234  -10.297778200000002  13.0658128
C    -4.7287996  -9.004806000000002  12.5900565
C    -5.9986831  -9.068649200000001  11.723321899999998
O    -6.2926136999999995  -8.146344600000003  10.9676961
C    -3.6050204  -8.257368800000002  11.8486023
C    -2.5398834  -7.772014300000001  12.778849399999999
N    -2.6814085  -6.619271500000002  13.505466499999999
C    -1.3248337  -8.328404600000002  13.073854099999998
C    -1.5917736999999998  -6.484292300000002  14.211728099999998
N    -0.7327783999999999  -7.498974500000002  13.987074499999999
N    -6.7665078  -10.147877700000002  11.8670525
C    -8.0013852  -10.326407800000002  11.130279899999998
C    -8.9540005  -11.231289600000002  11.956701899999999
O    -8.4258515  -11.957308200000002  12.822419499999999
C    -7.7388328  -10.979535400000001  9.772091799999998
O    -10.1672726  -11.194393300000002  11.7115973
H    9.8106931  -18.2589544  14.395927599999998
H    8.2511108  -18.835614900000003  14.220745999999998
H    8.6671811  -17.9216748  15.577982599999999
H    8.9445004  -15.981167100000002  14.100689299999999
H    9.8498476  -17.215710700000002  12.144370799999999
H    8.4268035  -16.2820724  11.684270299999998
H    6.8994427  -16.789043  15.924531199999999
H    4.4131963  -17.2819401  14.5607876
H    3.4767615000000003  -16.947901  16.841509799999997
H    5.0200436  -16.3128855  17.4053704
H    4.8768882  -18.0245414  16.9168684
H    3.0608185000000003  -15.859977200000001  13.658680399999998
H    3.6078035  -13.002136000000002  13.9380896
H    1.5360565  -12.961149200000001  12.299293299999999
H    1.7730781000000002  -14.686235700000001  12.157984899999999
H    3.9933171000000005  -14.360530700000002  11.169766599999999
H    3.9435336000000003  -12.625228500000002  11.513627399999999
H    1.9325659000000002  -11.494465800000002  14.5444415
H    0.10258790000000007  -12.628708200000002  16.5485756
H    0.6607297000000001  -9.708222800000001  15.793469299999998
H    1.4825217  -10.583004200000001  17.0962011
H    -0.9750215999999998  -8.218995300000001  16.5614177
H    -0.3810750999999999  -11.867245400000002  18.6961618
H    -2.7266689  -7.572007200000002  18.134819099999998
H    -2.1564961  -11.2299067  20.265856199999998
H    -3.3390516999999997  -9.0787033  19.9993739
H    -2.2158957  -11.792745300000002  16.478854899999998
H    -3.1231708  -12.418198300000002  13.764296899999998
H    -4.4926458  -12.100084600000002  16.473667799999998
H    -4.0548721  -13.630343400000001  15.683169499999998
H    -5.7319689  -13.046336200000002  13.847715399999998
H    -6.2086578  -11.646752800000002  14.810488699999999
H    -6.6321667  -13.202606900000001  16.747299899999998
H    -6.3660507  -14.575618000000002  15.632928099999999
H    -8.2659534  -12.940344800000002  14.397233599999998
H    -9.6581003  -14.998475200000001  17.597790999999997
H    -7.9537087  -14.776526200000001  17.4202628
H    -10.5029408  -13.284361100000002  14.6517337
H    -11.1294204  -14.179727200000002  15.996904599999999
H    -4.0514221  -10.989987000000001  12.365908699999999
H    -4.9839552  -8.4192861  13.4838212
H    -4.061804  -7.405402300000001  11.3427577
H    -3.1620342  -8.919423900000002  11.101386299999998
H    -0.8628779999999999  -9.233657100000002  12.733447799999999
H    -1.3986375  -5.673624100000001  14.882534999999999
H    0.1939514000000001  -7.611575400000001  14.366022399999999
H    -6.5669126  -10.880843200000001  12.538252599999998
H    -8.4726535  -9.349242600000002  10.9821724
H    -8.6853047  -11.131740300000002  9.2600185
H    -7.2508972  -11.942271400000001  9.909819499999998
H    -7.1019711  -10.334375400000003  9.170878499999999
