20

C    10.811  9.479  -4.927
C    15.007695899999998  10.678248299999998  -0.2869096999999994
C    14.470056199999998  9.820811199999998  -4.7302374
C    13.7163636  10.488991599999999  -0.6804166999999994
C    15.4724776  10.076488799999998  -3.8153954999999993
C    12.7744068  9.981056699999998  -3.0105767999999995
N    15.8506624  10.555053  -1.3566479999999994
O    12.178983299999999  9.511528299999998  -5.3012836
C    13.1208879  9.769891699999999  -4.328510099999999
C    13.771497799999999  10.239227299999998  -2.0774457999999996
C    15.121999099999998  10.2883898  -2.4812297999999995
H    10.274067899999999  9.269670599999998  -5.8494714
H    10.4894293  10.442296199999998  -4.523086599999999
H    10.6185282  8.685244799999998  -4.200637899999999
H    15.400160499999998  10.8907178  0.6885182000000003
H    14.697153899999998  9.652840899999998  -5.7704828
H    12.8384766  10.522876499999999  -0.06821929999999954
H    16.502449  10.113024799999998  -4.1346811
H    11.748885399999999  9.948974199999999  -2.6797211999999995
H    16.851081  10.652638699999999  -1.3170885999999995
