97

N    -9.445  -5.484000000000001  15.265
C    -9.6825031  -6.708685000000001  14.449963700000001
C    -10.8706312  -7.497932700000002  15.024740900000001
O    -10.9336063  -7.784460700000001  16.212084400000002
C    -8.472244499999999  -7.648578400000001  14.4854739
C    -8.530874  -8.7044568  13.3788552
C    -7.2670574  -9.550489800000001  13.389095300000001
O    -6.192940999999999  -9.084565900000001  13.764856
N    -7.4072672  -10.807690500000001  12.943910500000001
N    -11.8285048  -7.785782000000001  14.1394848
C    -12.9507987  -8.622361100000001  14.5202462
C    -12.6223779  -10.085601500000001  14.2111912
O    -11.745605099999999  -10.371750400000002  13.408494600000001
C    -14.208542099999999  -8.1877153  13.754979200000001
C    -14.8218828  -6.928632500000001  14.3665728
C    -16.0664118  -6.423409000000001  13.6211818
N    -17.0324925  -7.471984600000002  13.3445994
C    -17.1778395  -8.122898500000002  12.1923292
N    -16.4792423  -7.7839819000000015  11.113823
N    -18.0861669  -9.0954616  12.120942600000001
N    -13.3505955  -11.008249900000001  14.876649400000002
C    -13.2949603  -12.403344100000002  14.454517200000002
C    -13.7805742  -12.514459100000002  13.0016323
O    -14.6958938  -11.8002382  12.6057719
C    -14.1734658  -13.260022000000001  15.3783249
O    -13.6959961  -13.2565702  16.6987305
N    -13.1225876  -13.379826900000001  12.2206179
C    -13.461414  -13.5714874  10.826333100000001
C    -14.4199372  -14.7654527  10.6244874
O    -14.1808069  -15.8403539  11.1587466
C    -12.1858279  -13.857300200000001  9.994265200000001
O    -11.2323804  -12.838590400000001  10.1954987
C    -12.544381  -13.948098900000002  8.528595900000001
N    -15.4640716  -14.574749500000001  9.8106734
C    -16.3967968  -15.6294727  9.460276
C    -17.7827661  -15.269037700000002  9.9920197
O    -18.14782  -14.0478599  9.4121772
C    -16.4511757  -15.7151089  7.937224200000001
O    -15.8170351  -14.9075444  7.2704291
P    -19.6128421  -13.368339500000001  9.898936200000001
O    -19.4872291  -13.140421400000001  11.4005498
O    -20.673073  -14.385944700000001  9.5182853
O    -19.6165778  -12.083211300000002  9.1011857
N    -17.1485223  -16.729304300000003  7.4145713
C    -17.3361463  -16.858384100000002  5.989088100000001
C    -18.791501  -17.2457819  5.577294
O    -19.0271232  -17.2191735  4.350893600000001
C    -16.3638907  -17.9185371  5.432743500000001
O    -16.2179195  -17.7003933  4.0464396
C    -16.8348037  -19.3351487  5.849947800000001
O    -19.6083835  -17.5705618  6.4536823000000005
H    -8.5069631  -5.107303400000001  15.078956000000002
H    -9.5038549  -5.7459361000000015  16.2613881
H    -10.1470842  -4.759833200000001  15.0729646
H    -9.883070499999999  -6.410650100000002  13.419123200000001
H    -8.4216229  -8.1503568  15.453456500000001
H    -7.5429333  -7.0922138000000015  14.3482187
H    -8.5733058  -8.2218741  12.3998807
H    -9.404387400000001  -9.350928500000002  13.4810499
H    -6.601246999999999  -11.409349700000002  12.8984713
H    -8.300427899999999  -11.162392100000002  12.647489400000001
H    -11.645432  -7.7317661000000015  13.147116
H    -13.086068299999999  -8.5100615  15.6008589
H    -14.9285818  -9.007485500000001  13.7618484
H    -13.9356994  -8.023893300000001  12.711967000000001
H    -14.0878643  -6.1260378000000015  14.3725424
H    -15.0919094  -7.144904600000001  15.4008459
H    -15.7759802  -5.9464361000000014  12.6872881
H    -16.5625955  -5.671537700000001  14.2363109
H    -17.5715529  -7.803011600000001  14.130355600000001
H    -16.6332404  -8.2839687  10.2554279
H    -15.841543399999999  -7.0072046000000014  11.1160226
H    -18.5708848  -9.429682900000001  12.935687000000001
H    -18.2004592  -9.666409000000002  11.299178900000001
H    -14.2174646  -10.711021500000001  15.3032947
H    -12.2535669  -12.732382900000001  14.521739400000001
H    -14.1543539  -14.297802400000002  15.0399356
H    -15.2124031  -12.9073679  15.322690300000001
H    -13.6955971  -12.3524846  17.0479744
H    -12.4457087  -14.018292800000001  12.611442700000001
H    -13.9425978  -12.651552800000001  10.482805800000001
H    -11.7785003  -14.818182900000002  10.349607200000001
H    -10.7235264  -12.720477400000002  9.3808675
H    -11.6672249  -14.2033269  7.937969600000001
H    -12.9464577  -12.999518100000001  8.1794048
H    -13.3005474  -14.707520900000002  8.3423393
H    -15.6968212  -13.6762525  9.4147239
H    -16.0435304  -16.5629919  9.9075176
H    -17.7790104  -15.154223700000001  11.0869824
H    -18.5377954  -16.029967000000003  9.7425449
H    -17.857343  -17.1937375  7.969739000000001
H    -17.1045317  -15.8929872  5.521166000000001
H    -15.3684911  -17.7323185  5.8556346
H    -17.1168183  -17.615258400000002  3.6770873
H    -16.1754165  -20.0820474  5.417977800000001
H    -17.851241299999998  -19.503123600000002  5.5019105
H    -16.8169115  -19.3981342  6.931986200000001
