30

N    10.043  -6.409  -6.222
C    10.524533  -6.7624017  -7.4602260000000005
N    9.779103  -6.3458972  -8.445539700000001
C    8.730425  -5.6852418  -7.8419811
C    8.9090335  -5.7294405  -6.4716643000000005
N    8.0542902  -5.199361499999999  -5.5767398
C    6.9341471  -4.5520961  -6.0070744000000005
N    6.72837  -4.466127299999999  -7.3594811
C    7.5725565  -5.012291299999999  -8.345016300000001
O    7.2888437  -4.9080265999999995  -9.5283873
O    6.1635445  -4.0881248999999995  -5.1786867
C    5.5082088  -3.7724348999999995  -7.7761774
C    8.3009659  -5.265448599999999  -4.1512839
C    9.3213238  -4.2230436  -3.6708254000000005
C    8.894606  -2.7685689999999994  -3.8877439000000003
C    9.5795871  -4.5024839  -2.1905471
H    10.4641383  -6.623971299999999  -5.331476
H    11.4293818  -7.3163307  -7.5973332000000005
H    4.9986238  -3.4318642999999995  -6.8808358
H    4.8810099000000005  -4.4586003  -8.3434142
H    5.7742815  -2.9333141999999994  -8.4168217
H    8.6453891  -6.2706024  -3.9051273
H    7.3427907999999995  -5.087761499999999  -3.6591691
H    10.257220199999999  -4.373630899999999  -4.2221782
H    9.6496236  -2.1000655999999998  -3.4863609
H    7.9466261  -2.5709431999999994  -3.392027
H    8.7706898  -2.5550178999999997  -4.9475523
H    9.9014551  -5.5286205  -2.0348068
H    8.6725426  -4.3344318  -1.6143977999999999
H    10.3522874  -3.8393200999999997  -1.8092445000000001
