213

N    26.627  -2.2219999999999995  27.235999999999997
C    25.2838009  -1.8758456  27.7695963
C    24.2021656  -2.0606310999999993  26.709613599999997
O    24.4998966  -2.5249444999999993  25.6200896
C    24.955300299999998  -2.8299986999999995  28.9074785
C    25.8853652  -2.5686061999999996  30.1123004
O    25.3650064  -2.6611940999999995  31.2316091
O    27.0780191  -2.2737996999999996  29.8570434
N    22.951368499999997  -1.731719299999999  27.0631908
C    21.8193788  -1.9041042999999993  26.150132199999998
C    20.556118599999998  -1.231535599999999  26.735486599999998
C    19.4644265  -0.9705794999999995  25.7358029
C    19.271354  0.18496550000000056  25.0255689
N    18.160432399999998  0.0837955000000008  24.2386986
C    17.606427999999998  -1.1510449999999999  24.4085754
C    16.4820098  -1.7210731999999993  23.816273499999998
C    16.1416611  -3.0027547999999995  24.188075599999998
C    16.896154  -3.6992497999999996  25.139817999999998
C    18.016952699999997  -3.1442999999999994  25.7241201
C    18.397804299999997  -1.8502994999999993  25.3572764
C    21.578491699999997  -3.3897153999999996  25.839277099999997
O    21.5384843  -3.8256768999999995  24.6920699
N    21.3802868  -4.1703098999999995  26.9083362
C    21.0958547  -5.5821176999999995  26.7463111
C    20.301876999999998  -6.0995931  27.9581309
C    19.973005399999998  -7.530831399999999  27.7377403
C    20.7435005  -8.611475599999999  28.058004699999998
N    20.1458069  -9.7587152  27.6144462
C    18.982797299999998  -9.433457299999999  26.9738193
C    18.032273099999998  -10.238000499999998  26.3512369
C    16.9443427  -9.6153569  25.7792766
C    16.790594499999997  -8.2230777  25.821203599999997
C    17.7296223  -7.4220991  26.429718299999998
C    18.842356  -8.025701699999999  27.0222688
C    22.395389599999998  -6.395420099999999  26.6330181
O    23.306331399999998  -6.1691880999999995  27.425916899999997
N    22.513897099999998  -7.337355799999999  25.6761177
C    21.593864999999997  -7.687175399999999  24.605962299999998
C    21.705945  -9.2049726  24.5294083
C    23.2102993  -9.4178546  24.7586603
C    23.626938799999998  -8.2924063  25.728904
C    21.6707833  -6.998691399999999  23.2359999
O    20.687241099999998  -7.0649728  22.493161
N    22.788143899999998  -6.353126499999999  22.912184699999997
C    23.112877299999997  -5.995607  21.5416852
C    24.533557799999997  -5.4336533  21.435904299999997
C    25.600312799999998  -6.519479899999999  21.643349
C    25.2709673  -7.775179  20.840505099999998
C    26.9914198  -6.0189688  21.248488899999998
C    22.175832999999997  -4.9789948  20.9265394
O    22.0136345  -4.9463384999999995  19.7033341
N    21.6212149  -4.113719699999999  21.768919399999998
C    20.654974499999998  -3.1352881999999993  21.3132259
C    20.425461199999997  -2.0624252999999997  22.3740642
C    19.3255734  -3.7979149999999993  20.9194277
O    18.6398779  -3.3343766999999995  20.013169599999998
N    18.9712259  -4.883349299999999  21.6217938
C    17.781030599999998  -5.6587852  21.2989462
C    18.0283119  -6.510288699999999  20.0632676
O    17.1620231  -6.648967999999999  19.205379399999998
C    17.3628921  -6.5806868  22.4558604
C    16.1045606  -7.3817506999999996  22.181238699999998
C    16.090073399999998  -8.7663409  22.309045599999997
C    14.915576899999998  -6.754396099999999  21.826209
C    14.928213099999999  -9.496858  22.0945939
C    13.7568451  -7.480296299999999  21.587998799999998
C    13.753697799999998  -8.858627599999998  21.7309456
N    19.237075899999997  -7.0642795  19.976187699999997
C    19.639660799999998  -7.813559  18.8092173
C    19.6483608  -6.9219452  17.5613168
O    19.280227099999998  -7.373936499999999  16.4803777
C    21.0249438  -8.421747199999999  19.0501732
C    20.940522899999998  -9.6291827  19.980775299999998
C    22.3483406  -10.209143399999999  20.254271799999998
O    22.8869854  -9.923904199999999  21.3448213
O    22.8433711  -10.913433099999999  19.355220199999998
N    20.067721  -5.6618338999999995  17.719459099999998
C    20.056236499999997  -4.715592099999999  16.6094517
C    20.703308999999997  -3.4021379999999994  16.9969801
C    18.6126966  -4.4670827  16.1611554
O    18.3217811  -4.388935399999999  14.972787599999998
N    17.7074894  -4.3563192  17.1411601
C    16.300607  -4.2240923  16.8029935
C    15.401875299999999  -4.099792099999999  18.0367817
C    15.611602399999999  -2.7252528999999996  18.6778683
C    15.169279  -1.6077225999999998  17.7343147
C    14.873528399999998  -2.5843036999999995  20.0076069
C    15.7758355  -5.369599599999999  15.955305599999999
O    15.0490748  -5.150872199999999  14.989655599999999
N    16.0953518  -6.589398599999999  16.3969545
C    15.5783952  -7.7757494  15.7593258
C    16.0262191  -9.038094699999998  16.5058713
C    15.130310099999999  -9.602096099999999  17.6237061
C    14.6934446  -8.5781414  18.6576252
C    13.900064599999999  -10.294058799999998  17.049455899999998
C    16.0875322  -7.804802499999999  14.312786599999999
O    15.4114896  -8.307148399999999  13.414448699999998
N    17.307983  -7.3156079  14.126537599999999
C    17.9398968  -7.292005199999999  12.8301831
C    19.4537697  -7.220942599999999  13.038971199999999
C    20.1297572  -6.852868099999999  11.728984099999998
C    21.64453  -7.088462  11.728441899999998
N    21.9454504  -7.883622399999999  10.550417
C    22.5589108  -9.061852199999999  10.472336599999998
N    23.1217294  -9.6230742  11.537492199999999
N    22.666558799999997  -9.6750001  9.293612099999999
C    17.311770099999997  -6.1664318  11.923912
O    16.9512675  -6.513507  10.781292299999999
O    17.175466999999998  -5.013134999999999  12.354209599999999
H    27.196634099999997  -2.3088537999999996  28.134454299999998
H    27.0028072  -1.4963414999999998  26.6198563
H    26.579078  -3.1071759999999995  26.7196013
H    25.305633  -0.8482897999999999  28.1422012
H    25.0673595  -3.8701634999999994  28.592068299999998
H    23.9385874  -2.7063488999999996  29.2740674
H    22.7672511  -1.3342647999999997  27.9722273
H    22.0782265  -1.4347898999999993  25.1928057
H    20.8646368  -0.26955669999999987  27.148225999999998
H    20.160517799999997  -1.8496925999999991  27.542521699999998
H    19.853244399999998  1.0854210000000002  25.037278099999998
H    17.819235199999998  0.7962067000000008  23.616239699999998
H    15.900739599999998  -1.178484899999999  23.0868689
H    15.2777879  -3.4793714999999996  23.7495822
H    16.579734499999997  -4.6945748  25.4166302
H    18.590293  -3.7001592999999993  26.4509205
H    21.5958647  -3.8427243999999994  27.837947399999997
H    20.502409699999998  -5.669941799999999  25.833002299999997
H    19.390935  -5.5117289  28.0713384
H    20.920045  -5.987881499999999  28.851546199999998
H    21.6690531  -8.641707  28.5992118
H    20.492024899999997  -10.6919688  27.7598312
H    18.145781399999997  -11.3107052  26.314702399999998
H    16.1881216  -10.2059569  25.2844651
H    15.9240374  -7.783783699999999  25.349515699999998
H    17.611703499999997  -6.3501869  26.4596928
H    20.5671245  -7.461236899999999  24.9318661
H    21.403983  -9.5982524  23.5601234
H    21.108352699999998  -9.6604739  25.3125081
H    23.723837399999997  -9.3315972  23.801161699999998
H    23.425881999999998  -10.401359  25.165964799999998
H    23.730034  -8.6414356  26.757803799999998
H    24.565803199999998  -7.816879599999999  25.438873
H    23.5583356  -6.36975  23.5651619
H    23.0251964  -6.893812199999999  20.9198162
H    24.6557551  -4.6278787999999995  22.1611609
H    24.6449086  -5.018395999999999  20.432333999999997
H    25.6282562  -6.794034999999999  22.703940799999998
H    26.1381584  -8.4326636  20.8060272
H    25.0134758  -7.5245932  19.8121789
H    24.4592352  -8.3649753  21.2602865
H    27.232919699999997  -5.101247099999999  21.7787264
H    27.027053499999997  -5.8224911  20.1799388
H    27.7390957  -6.7690882  21.487269599999998
H    21.7832682  -4.165589  22.770164299999998
H    21.037319099999998  -2.6790176999999993  20.390993299999998
H    19.6826868  -1.3579874999999992  22.0130359
H    21.3555507  -1.5393296999999997  22.569801499999997
H    20.0675463  -2.5195575999999993  23.291364599999998
H    19.6302971  -5.312121899999999  22.2590373
H    16.9819568  -4.9532532  21.0490393
H    17.196726299999998  -5.952556899999999  23.3357392
H    18.1887068  -7.2612466  22.6724586
H    16.999919199999997  -9.2825819  22.582641199999998
H    14.887452399999999  -5.6795243  21.7242903
H    14.950204999999999  -10.5705382  22.206916999999997
H    12.855220099999999  -6.96207  21.3003441
H    12.849662799999999  -9.425048499999999  21.5679375
H    19.8763927  -7.0267439  20.764160099999998
H    18.9133827  -8.6114292  18.604145199999998
H    21.6810849  -7.655953599999999  19.4656895
H    21.449150799999998  -8.749214199999999  18.0982696
H    20.337598399999997  -10.410302699999999  19.5152105
H    20.492717499999998  -9.338985399999999  20.9345988
H    20.5714597  -5.380323  18.5572041
H    20.5694616  -5.1635253  15.748579799999998
H    20.7083983  -2.7373728999999996  16.1389125
H    21.7214957  -3.5785376999999996  17.3343006
H    20.1360918  -2.9403510999999996  17.8027089
H    17.9764785  -4.3683646  18.1163524
H    16.190632899999997  -3.3491057999999994  16.151298699999998
H    15.650226499999999  -4.904831199999999  18.7298281
H    14.365324699999999  -4.2183570999999995  17.7175626
H    16.6812233  -2.6092323999999993  18.8792878
H    15.209461699999999  -0.6501689999999991  18.2482713
H    14.147650599999999  -1.7783445999999996  17.399932999999997
H    15.804664299999999  -1.5378853999999995  16.856555399999998
H    15.206920699999998  -3.3456089999999996  20.708783
H    13.801313299999999  -2.6940634999999995  19.861123
H    15.071360199999999  -1.6085610999999993  20.4405367
H    16.5940303  -6.6887373  17.275017
H    14.484410999999998  -7.7136968999999995  15.6903726
H    17.0198093  -8.8207778  16.9073352
H    16.1515554  -9.8264317  15.758234599999998
H    15.738512799999999  -10.360218199999998  18.1313185
H    14.097160499999998  -9.066721099999999  19.4185399
H    14.0940683  -7.798229999999999  18.192223
H    15.548440499999998  -8.1050591  19.130149799999998
H    14.187021399999999  -11.0711298  16.3447097
H    13.275367099999999  -9.5780601  16.5197985
H    13.313626999999999  -10.7432303  17.8461388
H    17.7898255  -6.856956899999999  14.886633
H    17.659653199999997  -8.223947599999999  12.3175572
H    19.791862499999997  -8.1843721  13.4235613
H    19.646533899999998  -6.457456499999999  13.795630999999998
H    19.879686  -5.813789699999999  11.507663999999998
H    19.658026699999997  -7.4542389  10.9486102
H    21.928200099999998  -7.6133427  12.637819599999998
H    22.190136799999998  -6.145208599999999  11.6803952
H    21.5516163  -7.5049122  9.7013413
H    23.5309262  -10.539464599999999  11.474026299999998
H    23.0343511  -9.210644799999999  12.4489954
H    22.2214946  -9.2980016  8.475124999999998
H    23.1111886  -10.5742829  9.2266211
