32

C    8.335  -9.531  14.869
C    7.8142523000000015  -13.003481500000001  14.0147266
C    9.149310900000001  -13.3576835  13.6323376
N    10.883102200000002  -10.2808069  14.1413504
N    11.5313595  -8.118900700000001  14.5875167
N    9.319916200000002  -8.641670000000001  14.919379600000001
C    5.375426700000002  -13.276680500000001  14.486792300000001
C    4.224307500000002  -13.9581362  14.5081026
C    4.1044268000000015  -15.379228300000001  14.2499096
C    5.1880453000000015  -16.0202791  13.8259303
C    6.3902309000000015  -15.196797400000001  13.455477
C    6.680357000000002  -13.9623785  14.301555800000001
N    7.584310900000002  -11.768896600000001  14.407809
C    8.578181500000001  -10.868288100000001  14.4352183
N    7.087383700000002  -9.2170769  15.2346392
C    10.558110800000001  -9.0502806  14.5464085
C    9.897944500000001  -11.2020104  14.0773875
N    10.143064000000003  -12.4674531  13.665670500000001
N    9.484052900000002  -14.613740100000001  13.239573700000001
H    12.471074600000001  -8.398997900000001  14.37689
H    11.310539900000002  -7.211164200000001  14.952791600000001
H    5.390725400000002  -12.2198176  14.6917826
H    3.3037145000000017  -13.4223158  14.6996643
H    3.1714359000000014  -15.8710053  14.4723848
H    5.212733400000001  -17.0705714  13.5893671
H    6.252670300000002  -14.887648200000001  12.4076178
H    7.248343900000002  -15.8735473  13.4854272
H    6.955139100000002  -14.3460768  15.3079923
H    6.3976019000000015  -9.946021400000001  15.1861625
H    6.866905000000002  -8.291970200000002  15.5573348
H    10.429658600000002  -14.699503100000001  12.899105800000001
H    8.784150100000002  -15.192089600000001  12.813236400000001
