59

N    -15.133  -2.086  -1.848
C    -15.265239999999999  -1.9787652999999996  -0.5127715000000002
O    -16.155503  -2.5864991999999996  0.08894529999999978
C    -14.30764  -1.0959588999999998  0.20012729999999967
C    -14.5800783  -0.8408386999999995  1.5506202999999998
C    -13.7823564  -0.01917829999999965  2.3420642
N    -14.13937  0.20384170000000035  3.6689800999999997
C    -12.6787225  0.5570560000000003  1.6910587999999998
N    -11.6932262  1.4325312000000003  2.0953057999999998
C    -11.571513399999999  2.0861161000000004  3.3656631999999993
C    -10.799961699999999  1.2374360000000004  4.3710097999999995
C    -10.643379999999999  1.8356578000000003  5.766333
C    -10.613421899999999  0.6977426000000003  6.7915111999999995
C    -11.406087399999999  -0.5284653999999998  6.3534248
C    -10.663835299999999  -1.4713218999999995  5.3809537
C    -9.561755999999999  -0.9534163999999996  4.4221489
C    -9.5568758  0.49439000000000033  3.8731491999999994
O    -8.3278479  1.1134968000000003  4.2348786
C    -10.8608462  1.6370351000000003  1.0208680999999997
N    -9.7730718  2.4371158000000004  1.1862207999999996
C    -8.99902  2.9375876000000005  0.08564549999999982
C    -9.6292955  4.1050658  -0.6367974000000003
C    -10.4187215  5.0601617  0.00969949999999975
C    -10.986309199999999  6.1134211  -0.6946707000000003
C    -10.7668577  6.230488900000001  -2.0604859000000006
C    -9.9830723  5.292902700000001  -2.7216801999999998
C    -9.4207359  4.2427048  -2.0090629
Cl    -8.4421143  3.077134  -2.8701419
N    -11.2281032  0.9607962000000003  -0.041188000000000224
C    -12.3698793  0.2873070000000004  0.33872979999999975
C    -13.1829839  -0.5488071999999997  -0.41481800000000035
H    -14.459985999999999  -1.5454385999999998  -2.3592736
H    -15.788501  -2.6644164999999997  -2.3467562000000006
H    -15.453351999999999  -1.3127405999999997  1.9764724999999999
H    -14.8326551  -0.4471292999999996  4.0039453
H    -13.379649  0.3437745000000003  4.3159012
H    -12.5766797  2.2656387000000002  3.7554739
H    -11.119951  3.0756218000000004  3.2228819
H    -11.498389099999999  0.4082634000000003  4.466566299999999
H    -11.497166499999999  2.4876161000000003  5.9615361
H    -9.7342707  2.4304729000000003  5.8374066
H    -11.0010473  1.0620078000000004  7.7438034
H    -9.579295499999999  0.3901330000000003  6.9554132
H    -12.391315899999999  -0.23783509999999963  5.9907314
H    -11.6029857  -1.1207200999999998  7.2537684
H    -11.4252671  -1.9709198999999997  4.772937499999999
H    -10.1847277  -2.2542956999999997  5.9690367
H    -9.5302157  -1.6433177999999997  3.5785592
H    -8.6003273  -1.0502288999999996  4.9365726
H    -9.5958439  0.4276815000000004  2.7781654
H    -8.1854271  1.8877196000000003  3.6769039
H    -9.824240999999999  3.0596881000000002  1.9779324999999996
H    -8.8715619  2.1130107000000002  -0.6178588000000003
H    -8.0145542  3.2293439000000004  0.4623947999999998
H    -10.593542399999999  4.9788017  1.0705942999999998
H    -11.5938052  6.839145500000001  -0.17857100000000026
H    -11.2039223  7.044167700000001  -2.6158746000000006
H    -9.808748699999999  5.3741416  -3.7822573999999998
H    -12.9099259  -0.7568308999999998  -1.4354997
