51

C    -14.038  -27.041  11.939
N    -13.3325973  -26.4468486  13.073974
C    -12.0401882  -26.0539305  13.0721348
N    -11.3488086  -25.9076229  11.9420126
N    -11.3919887  -25.7934349  14.2160944
C    -14.9689525  -28.2277065  12.259511
C    -14.2358157  -29.5573764  12.5350981
C    -15.179685000000001  -30.7285417  12.8305914
C    -15.9470627  -30.554033099999998  14.145073
C    -17.3590324  -31.100254  14.0058534
C    -14.4010706  -32.0482978  12.8270192
C    -13.9233373  -32.4342617  11.431337899999999
N    -13.2386934  -29.4401367  13.5715497
C    -11.911229200000001  -29.4251114  13.333231099999999
C    -11.0931789  -29.1335521  14.562073999999999
O    -11.394899500000001  -29.6131173  12.2355387
C    -15.8240019  -28.3322967  10.9712775
O    -15.2791582  -29.249862999999998  10.0486144
C    -15.8769238  -26.9365876  10.355925899999999
C    -17.3259297  -26.386979699999998  10.3919801
O    -17.445991  -25.159694899999998  10.1971049
O    -18.24201  -27.2012718  10.6307343
C    -14.9666472  -26.058087  11.2115245
H    -13.2809214  -27.4154352  11.2417924
H    -13.8453097  -26.4065152  13.9415692
H    -10.3590251  -25.7303146  11.9754813
H    -11.7529497  -26.1318569  11.0502402
H    -11.8891794  -25.7692917  15.0901535
H    -10.4765526  -25.3774717  14.1861994
H    -15.6322959  -27.9547097  13.0822711
H    -13.677881900000001  -29.806686499999998  11.6268777
H    -15.8998117  -30.7583047  12.0088414
H    -16.0208454  -29.5016436  14.4190117
H    -15.4316035  -31.0810693  14.9501502
H    -17.8986578  -31.0340341  14.9486138
H    -17.3438141  -32.1423347  13.695432
H    -17.9125068  -30.5330337  13.2589205
H    -15.0627657  -32.8328151  13.1991468
H    -13.5469169  -31.9821505  13.5028108
H    -13.6037444  -33.4740944  11.4140954
H    -13.0783903  -31.823802399999998  11.1218275
H    -14.7231345  -32.306198  10.705343599999999
H    -13.5656193  -29.3354708  14.519301
H    -10.097855899999999  -28.8165004  14.2663204
H    -10.9921913  -30.0506246  15.1412881
H    -11.5646488  -28.3821486  15.1846848
H    -16.8358922  -28.690931499999998  11.1778392
H    -14.5020975  -28.8547188  9.629070200000001
H    -15.5812092  -26.958320699999998  9.3056499
H    -14.4339529  -25.3222322  10.6122155
H    -15.578101  -25.5109624  11.932295
