60

C    -14.294999999999998  -4.439  1.132
C    -15.3859645  -4.551814299999999  1.9530821999999999
C    -15.545000499999999  -4.5197953  3.409899
N    -20.4561139  -6.1646334  -7.503288700000001
C    -14.5417989  -4.1384196  8.3928568
C    -14.273606399999998  -5.3293928  7.7441572
C    -14.2464064  -5.4183718  6.355013
C    -13.958656999999999  -6.7450677  5.7196935
C    -17.6120456  -4.971605299999999  -2.0564823
C    -17.9443646  -5.0641361  -3.3924662000000003
C    -19.3089093  -5.2067076  -3.6756845
C    -19.8247315  -5.1587625  -1.4474112000000001
C    -20.871069499999997  -5.2012934  -0.3707400000000002
C    -18.9806229  -4.9070604  -6.0694615
C    -21.1355844  -5.7904713999999995  -5.1097309
C    -20.692587099999997  -7.3054407999999995  -8.4232826
C    -21.926487299999998  -8.1186556  -8.079606
N    -16.2838721  -4.8399737  -1.7009290000000001
C    -15.819953799999999  -4.719191599999999  -0.4366512000000002
N    -14.5472463  -4.5351118999999995  -0.19112940000000017
S    -16.8398874  -4.7998899  0.9846097999999999
N    -14.443304099999999  -4.303452699999999  4.1674196
C    -14.4827374  -4.2699959  5.5888656
C    -14.7522063  -3.0754954999999997  6.2563035
C    -14.783162999999998  -3.0010354999999995  7.6410788
Cl    -15.052909199999998  -1.6099222999999996  5.3436011
O    -16.6604301  -4.6938436  3.9020759
N    -20.2339294  -5.2721586  -2.6970899000000004
N    -18.5431445  -5.0089555  -1.0947049000000002
N    -19.7811105  -5.2798345  -4.9276821
C    -19.0573536  -6.0793313  -7.023676
C    -21.541493199999998  -5.7346682  -6.5647473000000005
O    -23.0688006  -7.4217768  -8.5575601
H    -13.276474  -4.284646899999999  1.4368476999999997
H    -20.4855311  -5.3760638  -8.159599400000001
H    -14.563776299999999  -4.0884073  9.468551300000001
H    -14.0866733  -6.2202908  8.3229826
H    -13.852858399999999  -7.514780699999999  6.4759576999999995
H    -13.043886399999998  -6.6966208  5.1315082
H    -14.770913  -7.0179295999999995  5.046457
H    -17.1647133  -5.0498704  -4.1294205
H    -21.8498359  -5.3152772  -0.8217018000000001
H    -20.826393  -4.285828599999999  0.2138535999999998
H    -20.6643635  -6.0291771999999995  0.30284209999999984
H    -17.9567613  -4.7094135  -5.7792669000000005
H    -19.378056  -3.9934353  -6.5261069
H    -21.8305146  -5.2023569  -4.5073938
H    -21.1578537  -6.812963399999999  -4.7179850000000005
H    -19.8292155  -7.969511499999999  -8.380242200000001
H    -20.8163293  -6.9483055  -9.4437745
H    -21.9968407  -8.325126299999999  -7.0059575
H    -21.8398561  -9.082494  -8.5961274
H    -15.5885006  -4.7830566  -2.4340071
H    -13.554368  -4.1357358  3.7205819
H    -14.9955962  -2.0560645999999996  8.1139085
H    -18.3954082  -5.9642633  -7.8809112
H    -18.7965315  -6.994941799999999  -6.4868254
H    -22.4417609  -6.315974799999999  -6.7313003
H    -21.7933189  -4.6998245999999995  -6.8004107000000005
H    -23.8399848  -7.9982606999999994  -8.5567514
