32

N    13.582  8.613  55.803
C    12.829339300000001  8.987861  56.87113539999999
N    12.954971500000001  10.1070002  57.4950196
C    13.906190200000001  10.971683500000001  57.032723399999995
C    14.696672600000001  10.6876383  55.9070415
C    14.5785862  9.410855100000001  55.2634269
O    15.240107700000001  9.0239666  54.297739899999996
N    15.595815700000001  11.7101305  55.74228899999999
C    15.3227021  12.6568755  56.6721465
C    14.2827036  12.2537991  57.49255899999999
N    14.6888624  12.8889966  59.80684659999999
C    13.7329469  12.9898036  58.6712443
C    14.8347885  11.5514281  60.425574499999996
C    13.923136300000001  11.485228600000001  61.66464
C    16.3129935  11.2167835  60.7657397
O    17.1516662  12.3566893  60.70644119999999
O    13.976505900000001  12.7103562  62.3785167
H    13.4474666  7.710519  55.36319339999999
H    12.0864496  8.2875257  57.219046899999995
H    16.2723978  11.7675324  54.9984085
H    15.8817194  13.5715172  56.698695699999995
H    14.4002241  13.5073971  60.587275
H    15.6306138  13.2018398  59.526344099999996
H    12.7816112  12.5472112  58.9617266
H    13.59773  14.0433618  58.43127989999999
H    14.4785935  10.8003717  59.71673009999999
H    14.2250384  10.6437843  62.29390419999999
H    12.8928563  11.3050929  61.3310136
H    16.6769766  10.470247800000001  60.047249199999996
H    16.3508562  10.7709333  61.7627672
H    17.992767100000002  12.1710239  61.134261599999995
H    13.4318836  12.6547854  63.1718516
