71

C    -3.489  8.534  24.872
N    3.0521457000000005  6.053005500000001  25.6093886
O    0.8245487000000002  6.315093600000001  24.0371944
C    -2.9437428999999993  7.985010500000001  23.7159546
N    -2.8686466  8.525543800000001  26.0458224
O    8.2890518  4.7898257000000015  26.6307734
C    -1.6729433999999994  7.4528253000000015  23.7930692
N    1.1541959000000004  7.377692400000001  26.0216092
O    3.9501980000000003  12.6930686  28.3339232
C    2.4002423000000004  6.934385800000001  26.3573361
N    2.8974530000000005  7.501533000000001  27.446634
O    4.484298300000001  8.945961500000001  28.7428924
C    0.38940010000000047  6.973757400000001  24.9644125
N    5.377691400000001  13.212498800000002  29.9810308
C    -1.6532818999999996  8.007450100000002  26.122865
N    2.9580286000000005  10.479278800000001  29.4530982
C    -0.9904421999999995  7.482092900000001  25.009397200000002
C    8.822773300000001  4.896185500000001  25.3746629
C    7.870796500000001  5.221035500000001  24.457809400000002
C    10.287669300000001  4.6927058000000015  25.2535891
C    4.388794600000001  5.667726000000002  25.8891071
C    5.3188031  5.678953600000002  24.8562246
C    6.6371561  5.357455300000002  25.1794222
C    4.732361000000001  5.358769800000001  27.2171821
C    6.0388625000000005  5.062291700000001  27.5568682
C    6.967052600000001  5.068464900000001  26.5276018
C    5.818806800000001  14.416067000000002  29.2783784
C    3.9786746000000006  11.195474500000001  30.2086523
C    4.4231977  12.444357500000002  29.4430011
C    6.1712750000000005  12.940033300000001  31.1734014
C    7.088527200000001  14.861943  29.9979507
C    7.0182795  14.204537400000001  31.3759996
C    1.2358890000000007  7.926156500000001  29.2000333
C    3.3246532000000006  9.360883500000002  28.8198333
C    2.2035644000000003  8.5561281  28.1701197
C    1.5722448000000004  10.942004400000002  29.5622524
C    0.1259680000000003  8.8558067  29.6970389
C    0.6943153000000004  10.051345900000001  30.4592794
H    -4.4670708999999995  8.9933077  24.8682603
H    2.6142541000000006  5.781983900000002  24.727964200000002
H    -3.4986233999999996  7.986240800000001  22.7929144
H    -1.1821889999999993  7.031602800000002  22.9285198
H    0.6787115000000004  7.9582377000000015  26.7001166
H    3.8877367000000005  7.433078100000001  27.6954854
H    -1.2452530999999993  7.991056800000001  27.1237658
H    8.0190342  5.364677200000001  23.4083536
H    10.592071700000002  4.792151700000002  24.2171635
H    10.561611  3.704836900000001  25.619547100000002
H    10.812803500000001  5.429436600000001  25.8588552
H    5.0333872  5.916826800000001  23.8455225
H    3.9656066000000005  5.288711300000001  27.9690562
H    6.3286485  4.818967200000001  28.5642824
H    5.0262463  15.1683947  29.339720800000002
H    5.9774096000000005  14.1852914  28.2230295
H    4.838516800000001  10.530813400000001  30.328026700000002
H    3.5874625000000004  11.468983300000001  31.1904328
H    6.804837900000001  12.065252300000001  30.9951306
H    5.527807800000001  12.7386136  32.0306447
H    7.153088  15.944291300000001  30.0640176
H    7.96332  14.500467400000002  29.4567073
H    8.002823800000002  13.969380400000002  31.769892
H    6.517051700000001  14.870310500000002  32.078556
H    1.8218658000000005  7.582626000000001  30.0542848
H    0.7837601000000003  7.040637500000002  28.750215100000002
H    1.6902998000000005  9.249189900000001  27.495024700000002
H    1.1394429000000006  11.031769400000002  28.5645839
H    1.6249241000000005  11.949013  29.9745437
H    -0.5312656999999996  8.288206200000001  30.3546945
H    -0.47228369999999975  9.226828900000001  28.8632851
H    -0.12952599999999936  10.657722300000001  30.833586
H    1.2787831000000005  9.7115088  31.3142833
