43

C    31.466  -15.067  -0.18800000000000017
C    31.950663400000003  -15.358352  -1.4629052000000002
C    31.2737191  -16.2221545  -2.3030629
C    30.2949273  -15.6334736  0.2769649999999997
C    29.5998197  -16.507810199999998  -0.5564722
C    30.098629100000004  -16.7917367  -1.8437430000000001
N    29.2077227  -17.6760844  -2.3972088
C    28.228357600000002  -17.8928583  -1.4675351
N    28.437018400000003  -17.2171911  -0.36596110000000026
C    27.0659899  -18.7985239  -1.7080635000000002
C    25.8923427  -18.0050366  -2.3056725
N    26.171518700000004  -17.6641015  -3.6768693000000003
C    26.437910600000002  -16.3961737  -4.0328804
O    26.5045159  -15.4788721  -3.2211519
C    26.739262000000004  -16.1841424  -5.4899458
C    28.076119600000002  -15.4534161  -5.647164
C    28.613474300000004  -15.5931027  -7.0434855
C    28.250654  -16.673267199999998  -7.8393343
C    28.7431151  -16.8075147  -9.1218907
C    29.6219417  -15.8667108  -9.6262326
C    30.004002500000002  -14.7930049  -8.838770100000001
C    29.5012897  -14.6546411  -7.5563424999999995
C    24.5817225  -18.8315985  -2.1940938
O    24.1503134  -19.3430495  -3.2450682
O    24.074065500000003  -18.9141185  -1.0641977000000002
H    32.014079200000005  -14.3879315  0.44602260000000005
H    32.867513  -14.9017752  -1.8008819
H    31.647741900000003  -16.4412921  -3.2926029000000003
H    29.912371  -15.411629999999999  1.2607603999999997
H    29.2366533  -18.066582699999998  -3.324504
H    26.7329538  -19.2098261  -0.7547475000000001
H    27.334206700000003  -19.6089038  -2.3868174
H    25.7527955  -17.0831417  -1.7298518
H    25.821108900000002  -18.3445184  -4.3412839000000005
H    25.942276200000002  -15.5861723  -5.935165400000001
H    26.743086100000003  -17.1626738  -5.9558201
H    28.798862500000002  -15.8759787  -4.9403246
H    27.9530813  -14.4044815  -5.3776516
H    27.593471200000003  -17.4490395  -7.4893533
H    28.444840600000003  -17.6507218  -9.726585100000001
H    30.009962100000003  -15.9659443  -10.6287301
H    30.6932401  -14.0577074  -9.2257644
H    29.793581200000002  -13.8141404  -6.944339
