39

O    -5.542  -36.431  -0.08999999999999986
Br    -0.08523190000000014  -36.58738639999999  0.3961317000000002
C    -0.6356815999999998  -39.29337939999999  3.4896117
C    -1.844274  -38.89738609999999  4.0402094
C    -5.1306085  -39.1670641  7.4361184
C    -5.8689842  -38.19343969999999  8.1101765
C    -0.10041959999999994  -38.5968476  2.4200829
C    -2.5384627  -37.8166344  3.5266158
C    -5.1604907  -39.27006959999999  6.0592729
C    -6.6578096  -37.289521199999996  7.4279413000000005
C    -6.7438146  -35.3813379  2.1982384
C    -7.5517447  -36.61580479999999  2.625462
C    -3.3321702  -36.2109027  0.7242448000000001
N    -6.1933709  -38.18478329999999  4.0302989
N    -5.3283723  -35.6602779  2.0220264
N    -7.3560948  -36.62189849999999  5.0994903
O    -2.6787666999999997  -36.0174099  1.9611067000000002
C    -4.841521999999999  -36.10912269999999  0.8628201
C    -0.7988982  -37.5198603  1.9053504
C    -7.053319500000001  -37.1291818  3.9313849000000003
C    -2.0146167  -37.11388039999999  2.4509891
C    -5.9453262  -38.36675579999999  5.3664696
C    -6.6881582  -37.3710196  6.0369203
H    -0.10267520000000019  -40.13732339999999  3.8955352000000003
H    -2.2524314  -39.4361791  4.8805297
H    -4.5268187  -39.857257399999995  8.0052621
H    -5.8241510000000005  -38.151683399999996  9.1877455
H    0.8407280999999998  -38.886513199999996  1.9811108000000002
H    -3.4724038  -37.497127199999994  3.9602513000000004
H    -4.6003891  -40.0355711  5.5433428
H    -7.230266  -36.53498619999999  7.9424067
H    -6.848512899999999  -34.600283999999995  2.9495527
H    -7.1304342  -35.03140319999999  1.2375349
H    -7.4645215  -37.3868174  1.8596955000000002
H    -8.5936846  -36.3209289  2.7309048000000002
H    -3.0968789  -37.17797169999999  0.26972949999999996
H    -3.0175888  -35.42569089999999  0.02575269999999996
H    -5.8352964  -38.740356799999994  3.2708837
H    -4.6687431  -35.406512199999995  2.7439173
