300

N    32.142  -34.735  43.494
C    32.779824000000005  -34.0356095  44.641071600000004
C    32.108261500000005  -32.6932237  44.968788800000006
O    31.792422500000004  -32.4280265  46.120856800000006
C    34.2878151  -33.826791799999995  44.496056700000004
C    35.0506619  -35.0575209  44.00466900000001
C    36.5338124  -34.7523385  43.79044880000001
C    37.3031285  -36.033868  43.4846305
N    38.7348664  -35.7462964  43.220270500000005
N    31.9058525  -31.8809362  43.9317727
C    32.28616340000001  -32.1427554  42.554443000000006
C    32.939608400000004  -30.840403199999997  42.054701900000005
O    32.320129400000006  -29.784913  42.155162600000004
C    31.049988500000005  -32.4669909  41.6974389
C    31.358785000000005  -32.6503286  40.207964600000004
C    30.082531800000005  -33.0139144  39.4459797
N    29.448271500000004  -34.1791427  40.049530600000004
C    28.194863500000004  -34.5673026  39.8170664
N    27.713952000000006  -35.6363804  40.444906200000005
N    27.421626700000004  -33.8994754  38.969925100000005
N    34.171298900000004  -30.9552417  41.544272600000006
C    34.9532533  -29.818358699999997  41.0378205
C    34.5137  -29.277935  39.667378600000006
O    33.80223050000001  -29.9462448  38.9216647
C    36.381519000000004  -30.374875  40.9266311
C    36.4237114  -31.4730828  41.9707578
C    35.049632900000006  -32.088675699999996  41.81878760000001
N    34.96194870000001  -28.058037499999998  39.33406660000001
C    34.588256400000006  -27.430207499999998  38.065000700000006
C    35.279153300000004  -28.1274506  36.893421700000005
O    36.358205700000006  -28.6893951  37.0575156
C    35.1045266  -25.9843272  38.161213800000006
C    35.5923449  -25.825027499999997  39.5922678
C    35.9275749  -27.2366326  40.0454555
N    34.6433005  -28.093245099999997  35.716249600000005
C    35.2425396  -28.7497166  34.569333300000004
C    36.505726900000006  -27.9980409  34.168458300000005
O    36.6190238  -26.7866985  34.343776000000005
C    34.2581994  -28.881624799999997  33.404600300000006
C    33.1264782  -29.8646566  33.7246485
C    32.68744290000001  -30.671693599999998  32.50018610000001
C    31.768047000000003  -31.8110011  32.930798300000006
N    31.340934200000003  -32.6491073  31.782337600000005
N    37.4672787  -28.737039199999998  33.61343290000001
C    38.786640500000004  -28.2026523  33.331713900000004
C    38.731188800000005  -26.8947209  32.540808000000006
O    39.6045201  -26.04434  32.6554768
C    39.593078000000006  -29.252972399999997  32.5738889
C    40.9866274  -28.793498999999997  32.14381040000001
C    41.950776100000006  -28.757026099999997  33.3215975
C    41.499737100000004  -29.741401099999997  31.069847800000005
N    37.693360600000005  -26.743854199999998  31.705025900000003
C    37.5218976  -25.5217729  30.951072900000003
C    37.249177700000004  -24.3185751  31.855339200000003
O    37.8324348  -23.2547625  31.699552300000004
N    36.302332400000004  -24.5075881  32.7866566
C    35.973984300000005  -23.4654802  33.736519400000006
C    37.1478874  -23.050369  34.6295651
O    37.2514808  -21.8917491  35.020890200000004
C    34.8187336  -23.9222714  34.630751100000005
C    33.4832899  -23.9801729  33.89117340000001
C    32.4873173  -24.8740816  34.6085956
O    32.7959206  -25.991939199999997  35.014995400000004
N    31.251283100000002  -24.3919906  34.7384245
N    38.0105681  -24.008311799999998  34.9912404
C    39.0002507  -23.7100957  36.009944000000004
C    40.174277800000006  -22.877264699999998  35.4788664
O    40.712650200000006  -22.0392123  36.1998115
C    39.4986964  -24.951532399999998  36.794285300000006
C    40.1646398  -25.9801219  35.8803082
C    38.3735019  -25.5867003  37.609301900000006
C    40.808248400000004  -27.132706  36.6467412
N    40.5691513  -23.0982134  34.221546700000005
C    41.687853200000006  -22.3726481  33.6598642
C    42.92059450000001  -23.265500499999998  33.566366200000004
O    42.8287836  -24.478073799999997  33.6811798
N    44.096641700000006  -22.651852899999998  33.348351
C    45.2878569  -23.428378799999997  33.039440400000004
C    46.475996800000004  -23.219412  34.013086
O    47.2690866  -22.293519699999997  33.8699464
C    45.7521957  -23.0949389  31.617629300000004
C    44.671021200000006  -23.3503543  30.570166800000003
C    44.902665500000005  -22.484098499999998  29.332968100000002
N    46.2714026  -22.5850147  28.868693600000004
C    46.681994  -23.107748  27.720141500000004
N    45.819625  -23.614230199999998  26.848049200000005
N    47.981940200000004  -23.123850599999997  27.438841700000005
N    46.6095842  -24.141151899999997  34.9782176
C    47.78277730000001  -24.351335799999998  35.85077630000001
C    48.364568600000005  -23.122120799999998  36.59709410000001
O    47.630922600000005  -22.3067907  37.131778600000004
C    48.8565112  -25.078808799999997  35.0396809
O    49.3304215  -24.2958239  33.95695980000001
N    49.7121925  -23.0952286  36.689144500000005
C    50.4381313  -21.990892799999997  37.31092340000001
C    51.94508690000001  -22.2871475  37.393322500000004
O    52.72966650000001  -21.543114799999998  36.822609500000006
C    49.8836912  -21.6873655  38.7016088
C    50.644122900000006  -20.571651099999997  39.399588300000005
C    49.97659230000001  -20.2270847  40.729122600000004
C    50.6243995  -18.988618799999998  41.33501390000001
N    49.916563700000005  -18.5302591  42.5582763
N    52.300089500000006  -23.377696999999998  38.0871823
C    53.6722872  -23.8520044  38.2725244
C    54.2108423  -23.2128092  39.560301800000005
O    53.665089  -22.2226295  40.0250946
C    54.4965454  -23.606396999999998  36.99638530000001
C    55.96723730000001  -24.0344879  37.0117435
C    56.4380754  -24.1715548  35.549902800000005
N    57.855145500000006  -23.8869646  35.3408985
C    58.47831670000001  -24.0182796  34.170226400000004
N    57.827786200000006  -24.4622083  33.0996182
N    59.769010200000004  -23.7086008  34.0607862
N    55.246853800000004  -23.8378795  40.144874400000006
C    55.74297010000001  -23.5149835  41.480018300000005
C    57.2098858  -23.9266276  41.613511300000006
O    57.578664100000005  -25.012807799999997  41.185265900000005
C    54.97890650000001  -24.2887858  42.5975102
C    55.89382690000001  -24.6163529  43.774058600000004
C    53.7772859  -23.4899953  43.091015500000005
N    58.063464800000006  -23.0908506  42.235805500000005
C    59.4009398  -23.5842542  42.562181300000006
C    59.917146900000006  -23.0516644  43.914984000000004
O    59.215807700000006  -22.340687799999998  44.6321025
C    60.44739870000001  -23.343504199999998  41.440623200000005
C    61.6116672  -24.3339244  41.57252080000001
C    59.84325990000001  -23.5029883  40.047225100000006
N    61.15142710000001  -23.439031999999997  44.2587216
C    61.7727771  -23.1036267  45.531216900000004
C    63.329405900000005  -23.2860773  45.45985400000001
O    63.91798800000001  -22.853732  44.446935700000004
C    61.127292800000006  -23.9149869  46.6829589
C    60.6861102  -22.9898939  47.8361462
C    61.9881618  -25.0993812  47.159083100000004
C    59.353381000000006  -23.382933899999998  48.4796095
O    63.91168040000001  -23.8248838  46.41138600000001
H    32.2227936  -35.7506357  43.657536300000004
H    32.5580671  -34.545566699999995  42.576031900000004
H    31.140223100000004  -34.514317899999995  43.4821705
H    32.601460100000004  -34.6491743  45.5302803
H    34.6308426  -33.6561142  45.5279729
H    34.5232255  -32.8858045  44.0409633
H    34.65596480000001  -35.4232336  43.056658000000006
H    34.9467804  -35.8494082  44.745318000000005
H    36.937477200000004  -34.2861048  44.690503500000005
H    36.6486281  -34.0527311  42.9652892
H    36.881659400000004  -36.5244249  42.606888700000006
H    37.232123400000006  -36.7209428  44.3279131
H    39.2546837  -36.6150016  43.055003400000004
H    39.1572138  -35.269896  44.025600700000005
H    38.8396138  -35.143671  42.39631790000001
H    31.494789800000003  -30.9719045  44.1043273
H    33.02346420000001  -32.919243  42.471121800000006
H    30.369706200000003  -31.6145799  41.7943523
H    30.517735700000003  -33.329336  42.085117200000006
H    32.09817940000001  -33.4395162  40.063580900000005
H    31.773732700000004  -31.7332312  39.7897904
H    30.3282358  -33.199308099999996  38.396651000000006
H    29.393203900000003  -32.1690319  39.503998900000006
H    30.075025600000004  -34.8670611  40.441573600000005
H    26.772868100000004  -35.947021199999995  40.2772306
H    28.284548100000002  -36.203137  41.0476199
H    27.743019800000006  -33.0579712  38.5240742
H    26.444939600000005  -34.1238149  38.884115300000005
H    34.873097  -29.0057689  41.76970970000001
H    37.125363500000006  -29.5985873  41.08605180000001
H    36.5236006  -30.7819894  39.9239606
H    36.5523486  -31.0395364  42.9636318
H    37.233593400000004  -32.1686127  41.775110000000005
H    35.05139320000001  -32.7325019  40.9281592
H    34.778731400000005  -32.6432968  42.6800974
H    33.503607200000005  -27.4910607  37.943113200000006
H    34.311123200000004  -25.2760398  37.9262737
H    35.9014621  -25.8306288  37.4422414
H    34.786433  -25.4273937  40.2122444
H    36.4418026  -25.1542632  39.680358600000005
H    36.9370739  -27.5127468  39.7225875
H    35.842234100000006  -27.345575999999998  41.1240114
H    33.888025600000006  -27.435715  35.552582
H    35.5529111  -29.7445819  34.913080300000004
H    34.819149700000004  -29.234345899999997  32.538058400000004
H    33.8575074  -27.8949119  33.1703952
H    32.2805228  -29.32112  34.14223380000001
H    33.4773257  -30.5567063  34.4917097
H    33.5729501  -31.0808629  32.01200480000001
H    32.1823478  -30.0128401  31.793767800000005
H    30.883268700000002  -31.398001  33.41475560000001
H    32.29290590000001  -32.4436962  33.646209000000006
H    30.725015000000006  -33.4083039  32.09354570000001
H    32.1578789  -33.0586716  31.314064100000003
H    30.833473000000005  -32.080816999999996  31.094208800000004
H    37.379473600000004  -29.743182599999997  33.591301900000005
H    39.3032647  -27.978958499999997  34.270343200000006
H    39.0336628  -29.529705  31.676645500000003
H    39.6960872  -30.1382172  33.203306100000006
H    40.92997690000001  -27.787681  31.718957300000003
H    42.970377400000004  -28.6301411  32.966679500000005
H    41.901887300000006  -29.677467699999998  33.898019600000005
H    41.7244407  -27.909578699999997  33.9615206
H    40.8443982  -29.745065  30.201818100000004
H    41.567512  -30.7562299  31.456239600000004
H    42.4906811  -29.4418452  30.737885900000002
H    37.013643  -27.480122599999998  31.599906300000004
H    36.691942100000006  -25.6362104  30.255529700000004
H    38.4347329  -25.2915209  30.393453700000002
H    36.104699000000004  -25.4538463  33.099321800000006
H    35.697706100000005  -22.5617739  33.179656
H    34.7447328  -23.236169999999998  35.47626210000001
H    35.0619427  -24.915793  35.0166216
H    33.648555900000005  -24.416090099999998  32.9027029
H    33.0788525  -22.97879  33.755946
H    30.548766500000003  -24.9473098  35.2021838
H    31.007552600000004  -23.468809399999998  34.42524280000001
H    37.8474366  -24.970149799999998  34.7227389
H    38.5186281  -23.028966  36.7290787
H    40.251620900000006  -24.5522101  37.4849941
H    40.933655200000004  -25.485886999999998  35.281485700000005
H    39.4117284  -26.3555213  35.192610200000004
H    37.7600367  -24.8045617  38.043177500000006
H    38.789919100000006  -26.1900881  38.408862600000006
H    37.7753269  -26.2278603  36.968085300000006
H    41.41194110000001  -27.7418767  35.982732600000006
H    40.051472000000004  -27.7632917  37.106329300000006
H    41.456766  -26.7409037  37.42694
H    40.164949500000006  -23.845128199999998  33.6723798
H    41.880018500000006  -21.5207661  34.317413
H    41.41777750000001  -22.0131429  32.66294070000001
H    44.154673900000006  -21.6466136  33.29311010000001
H    44.9659957  -24.4744589  33.0987312
H    46.641083  -23.688917999999997  31.407370600000004
H    46.038029900000005  -22.0398309  31.623326300000002
H    43.6859856  -23.1159711  30.972132400000003
H    44.6725198  -24.4063336  30.299306100000003
H    44.71516930000001  -21.4374361  29.592797800000003
H    44.198305000000005  -22.756401399999998  28.5517928
H    46.9677991  -22.206429  29.4921031
H    46.1436142  -23.9816051  25.969996400000003
H    44.8323417  -23.6373727  27.027493000000003
H    48.6546972  -22.7213525  28.0681055
H    48.3153446  -23.4894669  26.563770000000005
H    45.8772503  -24.829085799999998  35.076820600000005
H    47.4362165  -25.010274  36.653765500000006
H    48.40782420000001  -25.985872  34.6082801
H    49.6936461  -25.4014331  35.6633512
H    48.8547437  -23.4521034  33.924517
H    50.252597  -23.5962516  36.000422300000004
H    50.34585800000001  -21.090792099999998  36.686547000000004
H    49.916143700000006  -22.5943398  39.3089681
H    48.8392756  -21.3960983  38.5972474
H    50.65656430000001  -19.6926325  38.7522627
H    51.6817092  -20.8673177  39.570284
H    50.0700427  -21.0768064  41.404596100000006
H    48.91682350000001  -20.042559599999997  40.54548870000001
H    50.6136343  -18.1810854  40.6028255
H    51.663283500000006  -19.2083232  41.5819868
H    50.37741510000001  -17.7028479  42.952312600000006
H    49.9161371  -19.274471  43.266096700000006
H    48.942713600000005  -18.2932819  42.3353423
H    51.5866514  -23.853359899999997  38.617718700000005
H    53.6145739  -24.932527699999998  38.446966200000006
H    54.461483900000005  -22.547077299999998  36.754682
H    53.9769991  -24.1491285  36.204175400000004
H    56.1002711  -24.9858075  37.5278476
H    56.56103350000001  -23.2852413  37.53542830000001
H    55.859208900000006  -23.463409499999997  34.94595760000001
H    56.224544200000004  -25.1883151  35.210506
H    58.376620900000006  -23.5447702  36.1330037
H    58.305118900000004  -24.5565273  32.219898300000004
H    56.84686860000001  -24.6748297  33.1356997
H    60.2997764  -23.3928369  34.8532809
H    60.252717000000004  -23.823927599999998  33.187344700000004
H    55.6296766  -24.6914381  39.762564000000005
H    55.6263744  -22.4385039  41.631526300000004
H    54.64027540000001  -25.233912099999998  42.161625
H    55.3066759  -25.0759938  44.567887500000005
H    56.3592389  -23.7232915  44.186921700000006
H    56.677094200000006  -25.320506599999998  43.505500500000004
H    53.1862756  -23.1327951  42.2526688
H    54.1173056  -22.6325674  43.666467100000006
H    53.1556774  -24.1091063  43.731389500000006
H    57.765019900000006  -22.261609999999997  42.72923230000001
H    59.2935208  -24.6747172  42.672303400000004
H    60.8292458  -22.322435199999997  41.546753300000006
H    61.96792500000001  -24.606631999999998  40.5798867
H    61.30758850000001  -25.258258299999998  42.0581656
H    62.475462300000004  -23.9092533  42.082373100000005
H    59.023188100000006  -22.8051244  39.8987412
H    59.4777951  -24.5169969  39.9185212
H    60.613629100000004  -23.2950007  39.310351100000005
H    61.6915161  -24.0438988  43.6675764
H    61.619524600000005  -22.0292626  45.6983023
H    60.2121538  -24.3420609  46.252169900000005
H    60.5763145  -21.973997999999998  47.4505166
H    61.475827100000004  -22.9642469  48.590561900000004
H    62.46310390000001  -25.6086195  46.3277719
H    61.323393800000005  -25.8127118  47.657924900000005
H    62.7485166  -24.8004863  47.867266300000004
H    59.1210596  -22.6981875  49.2898561
H    59.404170300000004  -24.3928692  48.8784806
H    58.562448800000006  -23.333689999999997  47.735866900000005
