43

Cl    75.801  -8.422  71.504
C    75.1343173  -8.796939700000001  69.9377772
C    75.2379234  -7.864436800000001  68.91926360000001
C    74.70598260000001  -8.150718600000001  67.6736894
C    74.06800980000001  -9.3551608  67.4218193
C    73.473455  -9.703898200000001  66.0824588
N    73.56970700000001  -8.637515  65.11882680000001
C    74.7371196  -8.504448000000002  64.43359650000001
O    75.6507284  -9.3125511  64.6045689
N    74.86069710000001  -7.498003800000001  63.5463174
C    76.1067531  -7.376623600000001  62.801066
C    75.8083101  -7.093246000000001  61.334949
C    74.87850390000001  -5.875855900000001  61.189859
C    74.38380280000001  -5.358270600000001  62.541759400000004
C    73.8096026  -6.525637800000001  63.3250268
O    75.46707470000001  -4.810508800000001  60.4284072
C    76.514621  -4.128615400000001  60.8828613
N    77.2462979  -4.5897928000000014  61.8930529
C    78.27864890000001  -3.862479100000001  62.2896451
C    78.59417640000001  -2.656785600000001  61.686666100000004
C    77.7751109  -2.2575632000000008  60.6391398
N    76.74833070000001  -2.9854859000000014  60.236867000000004
C    73.98304110000001  -10.276260400000002  68.4564818
Cl    73.1852843  -11.7765445  68.098615
C    74.5067736  -10.0162688  69.7140328
H    75.7308649  -6.923142600000001  69.0982946
H    74.799497  -7.423185600000001  66.8840526
H    72.42363610000001  -9.9790305  66.2035833
H    74.0190913  -10.562160800000001  65.6766094
H    72.8725503  -7.914920500000001  65.13784700000001
H    76.6392024  -8.320881400000001  62.918556
H    76.7224704  -6.574674800000001  63.2178648
H    75.3323775  -7.966521200000001  60.8897782
H    76.7402141  -6.907501600000001  60.8050902
H    74.018128  -6.135435700000001  60.5658593
H    73.61837270000001  -4.599627000000001  62.376969800000005
H    75.20841410000001  -4.905717600000001  63.089117200000004
H    73.4368108  -6.152960200000001  64.2845262
H    72.98051570000001  -6.9789134000000015  62.7694344
H    78.8484786  -4.2730785000000004  63.1112861
H    79.4285315  -2.0606693000000007  62.012576
H    77.9311546  -1.3343367000000006  60.100050700000004
H    74.4263715  -10.747653300000001  70.5017143
