27

P    17.256  32.475  7.609
C    15.1116745  33.0748522  6.1609108
N    16.0882066  32.0294611  6.4246365
O    17.0415731  31.6356533  8.8318031
C    13.922911  32.925169100000005  7.0982807
N    18.7836802  32.1398619  6.9594783
O    17.1781991  33.9528241  7.8394343
C    14.674584399999999  33.032866500000004  4.7040501
C    19.141403  32.9118054  5.7768852
C    18.9327893  32.0905161  4.5121876
C    20.5893943  33.381681300000004  5.8803469999999995
H    15.6146658  34.024428  6.3653838
H    15.654576599999999  31.1602593  6.7078561
H    13.2129856  33.7375828  6.9620551
H    13.421142799999998  31.9754244  6.9186083
H    14.2846026  32.9416083  8.1269688
H    18.974852499999997  31.151109400000003  6.8765613
H    14.196831499999998  32.080801  4.4851732
H    13.973595399999999  33.838714100000004  4.5078867
H    15.538695699999998  33.147716700000004  4.055034299999999
H    18.4763131  33.7819993  5.781632
H    19.1413163  32.6912566  3.6303297
H    19.597175999999997  31.2287903  4.520207599999999
H    17.902202199999998  31.7435866  4.4698438
H    21.2560304  32.523608700000004  5.916280899999999
H    20.840556  34.000030800000005  5.0235723
H    20.7186004  33.9613572  6.790716799999999
