52

C    48.812  14.597  30.68
N    48.4048526  12.833587499999998  29.091851899999998
O    42.213016499999995  13.971528  33.9935451
C    40.556877  10.977841199999999  30.665612799999998
N    46.2551537  11.800130099999999  29.3091485
O    42.6928943  12.052076099999999  31.0685495
C    38.834281  11.5171535  32.3067998
N    47.1591023  15.289729  32.322426
O    38.417723599999995  10.0442185  30.4602266
C    49.173835499999996  13.7771505  29.621830799999998
N    47.1778707  17.9915241  33.2209831
O    39.2816261  12.9869957  34.1259366
C    45.1803246  11.958713799999998  30.1005841
C    46.7104382  13.4860446  30.7411799
C    40.9993949  12.4784022  32.5324526
C    45.3939008  12.981531799999999  31.0144657
C    47.548382399999994  14.4876346  31.271661299999998
C    41.4009177  11.7981103  31.374961
C    39.2528584  10.8449499  31.1522353
C    39.6966219  12.345108  33.0177774
C    47.2098649  12.7136445  29.6661991
C    42.1380689  13.232717699999998  33.001648599999996
C    43.1842786  12.9159469  32.0317342
C    44.461884999999995  13.365391399999998  32.0079853
C    45.9778793  16.124030899999998  32.2040886
C    48.1073732  15.734932399999998  33.324918
C    46.352196299999996  17.605355099999997  32.0781511
C    48.4250689  17.2271331  33.2110115
C    46.3580896  10.829034799999999  28.2544772
C    47.4129934  19.428745799999998  33.2769107
H    49.5129569  15.337057699999999  31.0296151
H    40.8613481  10.4552985  29.7768043
H    37.824323799999995  11.4041126  32.6682582
H    37.5431478  10.004869399999999  30.8804861
H    50.143355199999995  13.8877358  29.155481299999998
H    40.0116888  13.516943999999999  34.4923229
H    44.335739  11.3123493  29.992564299999998
H    44.755655  14.022606  32.807
H    45.371135599999995  16.0238059  33.1123623
H    45.3964861  15.8123367  31.3384571
H    49.0143914  15.136806  33.2593251
H    47.6393504  15.565102099999999  34.3017002
H    46.8827107  17.7797338  31.1229423
H    45.441573299999995  18.2049297  32.0863904
H    49.0269432  17.5375427  34.0662289
H    49.0004837  17.4249397  32.2871219
H    46.2377982  9.823556499999999  28.6567452
H    45.5902173  11.0083256  27.5023244
H    47.3422805  10.9271766  27.8028884
H    47.9643235  19.8015011  32.4002908
H    46.4531041  19.9372665  33.3311267
H    47.9843354  19.6535608  34.1746399
