50

O    42.647  59.555  72.824
O    40.0109346  55.7516502  83.99761269999999
O    41.265518900000004  57.8018798  74.2942515
O    36.5074675  59.1530161  83.8378262
O    37.645426900000004  58.108262800000006  78.6991613
O    38.7394267  59.4074733  73.9816608
O    39.1878757  58.9234592  84.8842207
O    39.5370312  57.1854188  76.0140491
O    41.6357828  61.3833154  76.9457178
O    41.126618  60.9811246  79.260924
O    43.1539142  60.0610182  78.2924415
C    41.462668  60.0367278  73.4167588
C    40.7246949  56.6945677  83.2326217
C    37.3455724  58.1000159  81.78959689999999
C    39.5849552  58.499399700000005  80.09637599999999
O    41.0354575  59.0620652  77.6790339
C    41.0621419  59.1620246  74.6151258
C    37.6329019  58.951912  83.0279127
C    39.0482801  58.1013022  78.7158668
C    39.6228812  59.4744892  75.0833076
C    38.6878941  58.163291300000004  83.8219957
C    39.1645443  58.522021  76.2151714
C    39.7997212  57.841634500000005  82.8191499
C    39.6201669  59.0325342  77.6151603
S    38.9095845  57.3812732  81.31705629999999
S    41.7747794  60.458447  78.0624361
H    43.3645043  59.579038600000004  73.4706759
H    40.5814758  54.9999861  84.2015012
H    35.8921227  59.7731786  83.4239154
H    37.3194951  59.0186727  78.6277691
H    37.851963  59.683073400000005  74.2513369
H    38.462816000000004  59.1048707  85.50305689999999
H    40.4385664  57.1373904  75.646788
H    40.6953796  59.9726884  72.6424219
H    41.5634975  61.076451000000006  73.74998769999999
H    41.1530505  56.238337900000005  82.332296
H    41.5393064  57.1212831  83.83325959999999
H    36.9242654  58.6437912  80.9504031
H    36.680489800000004  57.276962600000004  82.05443149999999
H    39.3428987  59.534743600000006  80.33472789999999
H    40.6691417  58.3978163  80.0981145
H    41.7262283  59.3756986  75.4625739
H    38.0781483  59.917488600000006  82.7449993
H    39.3465974  57.0767839  78.47165509999999
H    39.6614607  60.500306  75.4807204
H    38.2449492  57.2280363  84.1883477
H    38.0664296  58.506597400000004  76.2345976
H    40.3886369  58.737325600000005  82.6190756
H    39.2810438  60.0650689  77.7724678
H    40.8105721  57.6108106  73.4577474
