149

C    -28.558  40.322  20.229
O    -28.2270921  41.173485500000005  19.405504199999996
C    -28.509213900000002  40.5549813  21.7134194
N    -28.841723  39.064684500000006  19.8478981
C    -28.5640679  38.662257800000006  18.488883199999997
C    -29.735527700000002  38.962245200000005  17.5794291
O    -30.8898125  38.907357600000005  17.982318299999996
C    -28.2057922  37.1774021  18.416077299999998
O    -26.8478055  37.008883600000004  18.700906399999997
N    -29.425820700000003  39.273009  16.317605199999996
C    -30.467686800000003  39.634403500000005  15.381841399999997
C    -30.923252100000003  38.404588600000004  14.584713199999998
O    -30.924883700000002  38.3878014  13.362511399999997
C    -29.993381900000003  40.740834500000005  14.446983099999997
C    -29.429674300000002  41.9476237  15.196592699999997
C    -29.0864805  43.063294500000005  14.213040299999998
C    -28.570011  44.3066146  14.928881699999998
N    -28.3563212  45.39706580000001  13.943468399999997
N    -31.2965446  37.3568171  15.333652799999998
C    -31.7903071  36.1274267  14.739800199999998
C    -32.7540514  35.4862466  15.738076499999998
O    -32.7239102  35.7840579  16.9244371
C    -30.610101500000003  35.183939300000006  14.441264799999997
O    -29.9021964  34.8421974  15.608322699999997
N    -33.6575816  34.648931100000006  15.216155899999997
C    -34.624878700000004  33.99318280000001  16.0733984
C    -35.7055159  33.3533285  15.201464599999998
C    -36.508708500000004  34.4005425  14.431851099999998
C    -37.621959000000004  33.7656678  13.597964899999997
C    -37.060981600000005  33.001229200000004  12.395150699999999
N    -37.8129232  33.225908800000006  11.131689899999998
C    -33.974843400000005  32.9092956  16.935374699999997
O    -32.9928414  32.2913049  16.5563534
C    -39.1426702  32.603691600000005  11.184274499999997
C    -37.0529905  32.62141080000001  10.019540999999997
C    -37.9719025  34.6667603  10.870724699999997
N    -34.571905  32.6969378  18.123850199999996
C    -34.367936900000004  31.446391300000002  18.8377724
C    -32.9319561  31.209829100000004  19.2980797
O    -32.495544  30.070787200000005  19.420298
C    -34.8271521  30.256416900000005  17.987160399999997
C    -35.1406686  29.0062409  18.856886199999998
O    -35.8292249  29.187314900000004  19.883938399999998
O    -34.7242855  27.907411500000002  18.448660699999998
N    -32.1715255  32.280753000000004  19.572779199999996
C    -30.858357  32.0591841  20.156324199999997
C    -31.048109800000002  31.743018500000005  21.645684599999996
O    -31.918442600000002  32.3093817  22.298918299999997
C    -29.938730200000002  33.2690825  19.956077999999998
C    -28.5363891  32.9981306  20.5069952
C    -27.519835200000003  34.071736900000005  20.115539899999998
N    -26.172487200000003  33.565510700000004  20.3361751
C    -25.047808200000002  34.180492400000006  19.968154399999996
N    -25.0702651  35.336653000000005  19.3426886
N    -23.8700401  33.6008781  20.204501599999997
N    -30.228801100000002  30.825136300000004  22.172695599999997
C    -30.253918600000002  30.505428000000002  23.5948276
C    -29.356021400000003  31.524905000000004  24.316532399999996
O    -28.1602143  31.594620900000002  24.0410336
C    -29.744209  29.091938400000004  23.845812699999996
N    -29.958917900000003  32.3508305  25.170133599999996
C    -29.263189  33.444684200000005  25.816980799999996
C    -28.733571400000002  33.102736900000004  27.256549699999997
O    -28.922352  31.954370200000003  27.695029499999997
C    -30.1543218  34.68819070000001  25.864319599999998
C    -30.3901411  35.287190800000005  24.504701999999998
C    -29.325982600000003  35.805974400000004  23.773308999999998
C    -31.661274900000002  35.3459037  23.947810599999997
C    -29.518651000000002  36.36614  22.525769699999998
C    -31.8696665  35.9072278  22.699409499999998
C    -30.7984611  36.4195573  21.980450599999998
O    -30.956556900000002  36.9843312  20.7473048
H    -27.468763300000003  40.480524800000005  22.024815599999997
H    -28.857679  41.5574262  21.949064699999997
H    -29.095829900000002  39.819810700000005  22.2568529
H    -29.3706274  38.43175  20.4307897
H    -27.712335900000003  39.27510770000001  18.1671688
H    -28.4420949  36.784068600000005  17.419699299999998
H    -28.781557000000003  36.61867530000001  19.154442899999996
H    -26.314805500000002  37.5000088  18.0578002
H    -28.4714619  39.300569200000005  15.994784399999997
H    -31.321413300000003  39.969742100000005  15.985275499999997
H    -30.8421519  41.0402051  13.831862299999997
H    -29.240611400000002  40.325894600000005  13.773289899999998
H    -28.5443494  41.667006  15.766233099999997
H    -30.1738612  42.299181100000006  15.914319899999997
H    -29.9875003  43.3090041  13.649136099999996
H    -28.337370300000003  42.69275760000001  13.512572899999999
H    -27.6316527  44.086319100000004  15.436302099999997
H    -29.2941432  44.6316063  15.675498999999999
H    -27.996809600000002  46.2404808  14.404407999999997
H    -27.6817376  45.0988892  13.229087099999997
H    -29.240855800000002  45.628586500000004  13.476389999999999
H    -31.4554282  37.453600400000006  16.3329386
H    -32.2954241  36.3677441  13.798639599999998
H    -29.9458775  35.682326  13.722233499999998
H    -30.960095300000003  34.242800100000004  14.015359399999998
H    -29.780572300000003  35.6505421  16.126669299999996
H    -33.4713903  34.2179414  14.322388499999997
H    -35.0457188  34.761686600000004  16.7300591
H    -36.3731987  32.776804000000006  15.844980799999998
H    -35.220476500000004  32.6457677  14.526476099999996
H    -35.8440189  34.9848007  13.796704599999998
H    -36.956691  35.0834776  15.155028099999997
H    -38.2847383  34.566805200000005  13.288105899999998
H    -38.1979728  33.0971124  14.239003499999997
H    -37.046823100000005  31.930554900000004  12.598136299999997
H    -36.034847  33.3249404  12.215021999999998
H    -39.049980000000005  31.522451100000005  11.259894599999997
H    -39.6942115  32.9624637  12.049491599999998
H    -39.7016915  32.84554060000001  10.283999699999997
H    -36.1152456  33.152309900000006  9.874763699999997
H    -36.836341600000004  31.577888100000003  10.236037299999998
H    -37.6332134  32.672588700000006  9.101890299999997
H    -38.7862135  35.0893328  11.449294499999997
H    -37.051436100000004  35.1960999  11.101337799999998
H    -38.2045308  34.818099000000004  9.818652899999998
H    -35.4335088  33.1815021  18.327607199999996
H    -34.980843300000004  31.450748600000004  19.748644399999996
H    -34.0677541  29.978532  17.257332199999997
H    -35.7589684  30.513554900000003  17.477744499999996
H    -32.5799533  33.2003673  19.630283199999997
H    -30.452402900000003  31.173845100000005  19.656096299999998
H    -30.380672800000003  34.1282701  20.463740799999997
H    -29.893724600000002  33.473055900000006  18.884901799999998
H    -28.1983946  32.0437274  20.096569499999998
H    -28.577310400000002  32.901758900000004  21.594115499999997
H    -27.692592700000002  34.9741068  20.7085789
H    -27.6378406  34.3001604  19.053013299999996
H    -26.103055  32.7480838  20.9222732
H    -25.934168800000002  35.847324  19.210904699999997
H    -24.1988702  35.76623540000001  19.0869826
H    -23.8095778  32.72796580000001  20.697742499999997
H    -23.0136101  34.0695976  19.9676688
H    -29.5172773  30.3791791  21.6149553
H    -31.2897819  30.618474500000005  23.929983099999998
H    -30.319367600000003  28.376574700000003  23.264461999999998
H    -28.6927354  29.032505600000004  23.575452999999996
H    -29.840355900000002  28.856899600000006  24.902173199999996
H    -30.912337400000002  32.182256300000006  25.450046199999996
H    -28.3631494  33.6337758  25.2209193
O    -28.142086300000003  34.01813610000001  27.8602541
H    -29.643328500000003  35.4042219  26.515589099999996
H    -31.1018532  34.42051240000001  26.338432499999996
H    -28.3360647  35.775745  24.203418199999998
H    -32.502727400000005  34.9440084  24.493064499999996
H    -28.685502900000003  36.776569200000004  21.977867899999996
H    -32.867825100000005  35.936225500000006  22.287926699999996
H    -31.8911644  37.030874000000004  20.505329599999996
