19

N    19.919  -18.996  -9.649
C    20.0667879  -19.4321426  -11.0538004
C    18.7960553  -20.1434741  -11.637858099999999
O    18.7769441  -21.3864871  -11.6412443
O    17.911094300000002  -19.3842775  -12.0655001
C    19.7720548  -20.1703655  -8.7771879
C    18.7514841  -18.1215339  -9.46744
C    21.119947500000002  -18.235950199999998  -9.2701423
H    20.9025433  -20.1284341  -11.1278583
H    20.243334100000002  -18.5597533  -11.684123
H    19.6168221  -19.8545299  -7.7490612
H    20.663009000000002  -20.792007899999998  -8.837960299999999
H    18.9244419  -20.768083  -9.1089785
H    18.8426287  -17.2442335  -10.1039522
H    18.678129900000002  -17.8171192  -8.427097999999999
H    17.842825  -18.6425029  -9.76347
H    22.007146900000002  -18.8512946  -9.4016327
H    21.049349  -17.9332829  -8.227671899999999
H    21.2105274  -17.350093299999997  -9.8934085
