42

C    35.959  28.131  43.41
C    36.8163708  27.3082546  42.6914952
C    36.340347200000004  26.5308746  41.645820799999996
C    35.0027293  26.5614594  41.303598199999996
C    34.0978408  27.3374957  42.032337299999995
C    34.6197533  28.1235799  43.077080699999996
F    33.7445305  28.9037249  43.7739292
I    38.8847005  27.2372066  43.1908884
N    32.744162100000004  27.3758042  41.80371099999999
C    32.070476400000004  26.732029700000002  40.804596
N    32.1693688  25.4144265  40.55573019999999
C    31.3455486  25.1447589  39.476451
C    30.7220331  26.3285872  39.071438799999996
C    31.153427100000002  27.3660374  39.9089117
C    30.843793400000003  28.8144837  40.054415399999996
O    31.282287200000003  29.4174803  41.0404187
N    30.0255025  29.4736668  39.176788599999995
O    29.7615939  30.8687622  39.444685899999996
C    28.5622458  31.4651344  38.914570899999994
C    28.199202300000003  32.7286434  39.73720719999999
O    27.197815000000002  33.4897103  39.095090199999994
C    32.9663221  24.4375589  41.2817088
C    31.1992002  23.8396659  38.864939899999996
O    31.8299314  22.8355646  39.1890198
C    30.181925800000002  23.8181922  37.7551857
H    36.304648900000004  28.7580654  44.2152099
H    37.0223133  25.9194073  41.076977199999995
H    34.6760188  26.0322793  40.4281442
H    32.2863308  28.2568212  42.054647499999994
H    30.019909000000002  26.4203187  38.269554799999995
H    29.9507745  29.2151672  38.20094039999999
H    27.7403386  30.7419911  38.961242299999995
H    28.734145700000003  31.7594095  37.87210999999999
H    29.080262700000002  33.3691792  39.800274099999996
H    27.9015969  32.4397575  40.749228699999996
H    26.355093800000002  33.0151372  39.12827599999999
H    33.8077558  24.0965393  40.681067199999994
H    33.3044417  24.8683064  42.217658099999994
H    32.3388863  23.5677678  41.480925299999996
H    30.4679831  24.5093032  36.968858999999995
H    30.122868500000003  22.8132707  37.3427033
H    29.206799600000004  24.1023349  38.13955659999999
