36

N    -3.301  9.857  11.059
C    -2.4861641000000003  9.1166798  11.7981011
N    -2.7506162  7.9229880999999995  12.2792016
C    -3.9438198  7.363388199999999  11.9900241
C    -4.8978193  8.095703799999999  11.1720913
C    -4.5119865  9.4000674  10.7244384
N    -4.2289243  6.156524499999999  12.5131097
C    -3.9807175  4.289014899999999  14.1598139
C    -5.315063  4.254953299999999  14.5691651
C    -5.7726758  3.171130499999999  15.3172603
C    -4.9105318  2.132163399999999  15.6230563
C    -3.5816678  2.152235099999999  15.2453491
C    -3.1333959  3.229879799999999  14.504297099999999
S    -5.5212587  0.782175399999999  16.575863299999998
O    -5.013923  0.8491374999999994  17.9302989
O    -6.9680675999999995  0.7533647999999991  16.4224796
N    -4.802082  -0.5414740000000009  15.882828799999999
N    -6.171245600000001  7.418651299999999  10.915783
O    -6.141992500000001  6.362154899999999  10.3016376
O    -7.224724  7.868793499999999  11.3507309
O    -5.271702400000001  10.1974682  9.8988891
C    -5.6099381  11.5753639  10.204321
C    -3.3303075  5.403252799999999  13.3669224
H    -1.5202791000000002  9.5411931  12.0230739
H    -5.0278084000000005  5.649521599999999  12.1584075
H    -5.988469  5.062801099999999  14.3324599
H    -6.7969933000000005  3.103408899999999  15.6448898
H    -2.9385706000000003  1.333071799999999  15.514058499999999
H    -2.1018847000000003  3.259592799999999  14.191007299999999
H    -4.5749413  -1.2430762000000009  16.5693086
H    -5.3477275  -0.9160371000000005  15.1236816
H    -5.9737594000000005  11.972489199999998  9.2629861
H    -4.7287808  12.116022099999999  10.5463145
H    -6.3930724  11.5850936  10.962337
H    -2.8624827  6.111715599999999  14.0575817
H    -2.5303606000000003  4.973953099999999  12.7555943
