63

N    15.346  5.907  -2.965
N    16.6049304  6.3732564  -2.7590426999999997
C    14.349585999999999  6.7073858  -3.2351446
C    16.9556097  7.6899334999999995  -2.8202591999999997
C    15.8765278  8.6378362  -3.1353088
C    14.5701176  8.1486287  -3.3498216999999997
C    12.6997857  4.8553532  -3.3711854
N    13.0839512  6.1935959  -3.4205334
N    11.423689699999999  4.4676609  -3.3593633
C    13.5356589  3.7270237  -3.3340132
N    11.445260099999999  3.1144410999999996  -3.3070412
C    12.7048405  2.630922  -3.2883017
N    15.8642448  12.958827  -2.4264048999999996
N    14.833839399999999  15.474256  -1.4401391
C    13.561186099999999  9.0619518  -3.6689651
C    17.6634295  5.3804391  -2.4798104
C    16.1401999  10.0107746  -3.2398507
O    18.1238868  8.0478065  -2.6277597999999998
C    15.124811999999999  10.901493  -3.5469887
C    15.370147999999999  12.386661499999999  -3.671321
O    18.7747558  2.7398419  -2.7876231
C    14.8886785  13.0235079  -1.3443197999999998
C    16.5919105  14.211605800000001  -2.5742403
C    15.6798942  15.4432994  -2.6274420999999997
C    14.003375799999999  14.2770516  -1.3808842
C    13.837877899999999  10.4060969  -3.7611757
C    17.1452878  4.1854099  -1.676489
C    18.2848368  4.8949064  -3.7982668
C    14.0214082  16.6767533  -1.4007950999999998
C    18.2498586  3.1326903999999995  -1.5300757999999999
C    19.3360318  3.8200671  -3.5121351
C    13.0898487  1.1947866999999999  -3.2274167
H    12.3225321  6.847554199999999  -3.5121609
H    14.6020854  3.7322375999999995  -3.3563614999999998
H    10.5704529  2.6172021  -3.2871596999999997
H    12.5518495  8.729387  -3.8515651999999996
H    18.420251  5.9292276  -1.907902
H    17.148395999999998  10.3517249  -3.0642236
H    16.1454776  12.5423852  -4.4269915
H    14.446781  12.8705042  -4.0306068
H    15.456235999999999  13.033880100000001  -0.40929459999999995
H    14.2747839  12.1230616  -1.3731913999999998
H    17.217951799999998  14.162834  -3.464314
H    17.2357066  14.306839799999999  -1.6942761999999998
H    16.2901261  16.3479248  -2.6391489
H    15.0707227  15.423846600000001  -3.5517296
H    13.3174599  14.229474  -2.2491281
H    13.400220999999998  14.3185936  -0.4726841999999998
H    13.041798499999999  11.0932241  -4.0081191
H    16.3016908  3.7465868999999996  -2.2059683
H    16.8098882  4.5056049  -0.6913606999999997
H    18.743049  5.734427999999999  -4.3214036
H    17.496487899999998  4.4702769  -4.4229034
H    14.6767323  17.5454758  -1.3978880999999999
H    13.3366174  16.753002799999997  -2.2606992
H    13.4332943  16.675487099999998  -0.4849251999999997
H    19.062565799999998  3.5313533  -0.9044700999999999
H    17.8588365  2.2207283999999996  -1.0802064999999998
H    19.7154439  3.3868469  -4.4373176
H    20.1687844  4.257327  -2.9422403
H    13.6921614  0.9360678  -4.0951818
H    13.6846605  1.0096942000000002  -2.3361244
H    12.2094732  0.5581738999999999  -3.2044075999999997
