32

C    7.703  2.945  19.08
C    8.3390948  4.1604844  18.4187689
C    7.1640037  4.810988099999999  17.6916327
N    6.3144694  3.6811040999999998  17.300935499999998
C    6.6594518  2.4870765999999995  18.059812
C    5.093229  3.9201846999999996  16.74427
N    4.8641584  5.240738299999999  16.570650699999998
C    3.7039647  5.6516974  16.0868929
N    2.6856396000000005  4.8906963999999995  15.722175499999999
C    4.0696978  2.9746829999999997  16.3627087
C    2.8768592  3.5687580999999997  15.8572986
N    1.9634772000000003  2.6126975999999997  15.549614299999998
C    2.5112252  1.3883374999999996  15.8156778
C    3.7822077000000003  1.5505506999999996  16.301032499999998
C    4.620535  0.36808929999999984  16.669153899999998
N    7.0337908  3.3537993999999998  20.3383921
H    8.4234021  2.1585598999999998  19.3038501
H    9.087249400000001  3.8364325999999997  17.6985144
H    8.811915800000001  4.8416961  19.119320899999998
H    7.4634929  5.362627999999999  16.801270199999998
H    6.5987556000000005  5.5089806999999995  18.3162383
H    5.767695300000001  2.0610403999999996  18.5217437
H    7.0929755000000005  1.7362336999999997  17.3942911
H    3.5695848000000003  6.719628  15.9824156
H    1.0535590000000004  2.8029849999999996  15.166677199999999
H    1.9696171000000002  0.4836914999999995  15.6322251
H    5.6222574000000005  0.4512705999999995  16.256516299999998
H    4.1593808  -0.5257258000000005  16.258604899999998
H    4.6873755  0.24013389999999957  17.7472942
H    7.7173853  3.7377095999999996  21.0034414
H    6.5625412  2.5574677999999995  20.7845045
H    6.3342339  4.0805599  20.1433656
