55

C    31.349  65.188  4.215
N    30.8833981  67.49233120000001  4.6956069
O    30.2917263  65.06454760000001  3.6036982999999996
C    31.9661865  66.57118310000001  4.4297258
C    32.721188500000004  67.01554820000001  3.1748609999999995
C    25.3379834  71.82888960000001  6.8121221
O    32.1097559  68.7119926  6.1409278
O    27.304982600000002  71.0518729  4.0923333
O    28.890899  68.9227599  3.7611651999999993
O    36.889824000000004  68.3186989  -1.4089590000000003
O    33.5101533  62.26588180000001  6.2240521
O    31.3448309  62.18331830000001  7.12528
C    35.0641619  67.09178940000001  -0.5186564000000002
C    36.6614033  68.1055355  0.9693054999999995
C    34.3749797  66.59617970000001  0.5710124999999997
C    35.9606504  67.6091413  2.0529841999999996
C    26.2305619  70.6175862  6.6703638
C    34.064478  66.3053115  3.0476183999999993
C    31.612021300000002  62.75622430000001  4.6294037999999995
C    28.562283400000002  70.63056660000001  7.3957633
C    29.9432351  70.11875450000001  6.985619099999999
N    32.0206163  64.15996080000001  4.725999
C    31.0711176  68.50689750000001  5.5336327999999995
C    27.9388473  70.62508190000001  5.0449176
C    29.0047916  69.57431770000001  4.7935867
B    32.1609797  62.148952400000006  6.0254357999999995
C    36.2177628  67.84832650000001  -0.3218853000000008
C    34.8180052  66.8457482  1.8664777999999993
N    27.6226438  70.9252278  6.3268816
N    29.9481293  69.35204820000001  5.7449689
H    30.0521777  67.42007770000001  4.1177993
H    32.6315257  66.58839  5.297789799999999
H    32.8921125  68.09254790000001  3.2463507999999996
H    32.0977469  66.8306393  2.2988203999999994
H    25.6980759  72.48753860000001  7.5977478
H    25.3098761  72.38387730000001  5.8778103999999995
H    24.3299709  71.5078  7.056151099999999
H    37.6650845  68.8288486  -1.1311429000000004
H    33.810665900000004  62.108040800000005  7.1240556999999995
H    30.3970212  62.211330000000004  6.9885394
H    34.7325084  66.9017953  -1.5271778000000005
H    37.5542457  68.69348930000001  1.1258683999999994
H    33.4895631  65.99941700000001  0.41286599999999973
H    36.3117217  67.81474890000001  3.0526834999999997
H    25.8213012  69.98577300000001  5.8745505
H    26.2217328  70.04724270000001  7.5995425999999995
H    33.8986848  65.2335139  2.9189757999999992
H    34.6449921  66.4640705  3.9568645999999994
H    32.0624527  62.31777950000001  3.7346901999999993
H    30.5311137  62.73760490000001  4.4992866
H    28.6986302  71.54729080000001  7.9757766
H    28.1117829  69.88339880000001  8.0584251
H    30.3554241  69.47596050000001  7.7641051999999995
H    30.6353948  70.9602584  6.8582073999999995
H    32.9189924  64.31492580000001  5.1590129
