27

O    37.556  -26.359  38.648
C    37.66061259999999  -25.6226977  39.833064500000006
C    39.154303799999994  -25.4758473  40.225387500000004
O    39.9474422  -26.6364177  40.109208100000004
C    39.429314299999994  -24.4863159  41.4007543
O    39.353966799999995  -24.9340576  42.7166538
C    40.76997119999999  -23.8556136  40.9663971
O    41.1578253  -22.649205000000002  41.5650156
C    40.6604308  -23.8531514  39.43257380000001
O    39.563337999999995  -24.6860544  39.114789300000005
C    41.973919699999996  -24.3717579  38.8198105
O    41.860808199999994  -24.4011372  37.4238245
P    43.0542465  -25.2003447  36.473470000000006
O    43.0887282  -26.668656300000002  36.91794180000001
O    44.380857999999996  -24.4677444  36.70949960000001
O    42.5109407  -25.0280737  35.078805900000006
H    37.991188599999994  -27.2154591  38.7753786
H    37.0939061  -26.1012397  40.64489280000001
H    37.2737534  -24.629034100000002  39.624614300000005
H    40.272408899999995  -26.6722402  39.1998522
H    38.6556509  -23.7162177  41.235414000000006
H    39.2174084  -24.1741644  43.303384900000005
H    41.5252499  -24.6254593  41.2014689
H    41.84898999999999  -22.8058618  42.22243040000001
H    40.4542757  -22.8593955  39.022982400000004
H    42.21025959999999  -25.3852131  39.1790104
H    42.806561699999996  -23.7100659  39.10418130000001
