102

N    19.038  13.887999999999998  68.253
C    19.7402816  15.093464999999998  68.7385685
C    19.7911625  15.097690999999998  70.26753
C    19.2347944  16.4069893  70.8295437
C    20.0363729  16.868861799999998  72.0423412
C    19.8828584  18.372134099999997  72.2389772
N    20.2803628  19.0765511  71.02662
C    20.0047799  20.3847469  70.9151544
O    19.3759501  21.000898399999997  71.7689153
C    20.4316007  21.09244  69.6319884
C    19.1841787  21.3490391  68.7657159
C    18.5559608  20.052505099999998  68.3601453
C    19.0110672  19.3681584  67.2394393
C    18.4352283  18.1652833  66.878276
Br    19.0769419  17.259177599999997  65.3126297
C    17.390652  17.6039167  67.6192368
O    16.8140716  16.433511099999997  67.3143245
C    16.9650893  18.302510599999998  68.7534387
Br    15.5598236  17.578173  69.8010307
C    17.5303409  19.506860999999997  69.11952
N    21.042853  22.366731199999997  69.9597248
C    22.4139968  22.446082299999997  70.0708046
O    23.1169461  21.4611335  69.84209369999999
N    22.9602045  23.6454791  70.3681401
C    24.4130277  23.7836932  70.4617373
C    24.8135697  24.3433778  71.828045
C    24.0683633  25.6621119  72.0776764
C    22.5608475  25.410682599999998  71.9965589
C    22.206709  24.8617174  70.6133415
N    24.4530167  26.2693194  73.3575738
C    23.8679417  25.743232199999998  74.5890619
C    24.3136007  26.437796499999997  75.8549994
C    23.8058536  26.058694199999998  77.0910529
C    24.2223337  26.713703799999998  78.2429297
C    25.1489781  27.7466707  78.1661408
C    25.6645407  28.1357361  76.9402897
C    25.2420908  27.4799533  75.785059
N    25.7303511  27.8423752  74.5381815
C    25.3592314  27.271910499999997  73.3515025
O    25.8602482  27.699181699999997  72.3088748
C    20.7597269  18.8334007  73.4056468
O    21.9010913  19.2332257  73.180142
N    20.262408699999998  18.7664254  74.6439921
C    18.9451944  18.2629743  74.9905603
C    18.1998051  19.2894784  75.8329696
N    19.0034132  19.6503786  76.9968425
C    20.2920256  20.2091192  76.6052943
C    21.0684137  19.1919513  75.7826148
C    18.3032181  20.430714499999997  77.913793
C    18.7430369  21.711694899999998  78.2755347
C    17.9959277  22.4477864  79.1724218
N    16.8785747  21.996045  79.7214525
C    16.4617844  20.7756935  79.3983612
C    17.1242043  19.9557288  78.5062495
H    19.041145  13.844754199999999  67.2278699
H    19.4925876  13.0395525  68.611323
H    18.0608377  13.900077699999999  68.5710808
H    19.2071978  15.968416699999999  68.3754097
H    20.7432787  15.111938599999998  68.3151649
H    20.8184663  14.972050799999998  70.60369969999999
H    19.2181816  14.2649172  70.6700291
H    18.1828148  16.306597699999998  71.095353
H    19.3066994  17.1885384  70.07313669999999
H    21.10062  16.6732068  71.8922088
H    19.7270686  16.3480198  72.9470118
H    18.8424447  18.6653265  72.3979819
H    21.0716315  18.7062653  70.5192981
H    21.1773503  20.505886999999998  69.0890294
H    19.48955  21.923556599999998  67.8917948
H    18.480994199999998  21.941578  69.35210599999999
H    19.8115338  19.7840076  66.6478879
H    16.925275499999998  16.182906199999998  66.38293519999999
H    17.1726507  20.025137599999997  69.9948732
H    20.4794449  22.9145704  70.5945149
H    24.7500907  24.463105499999998  69.672053
H    24.8453058  22.7968495  70.29857439999999
H    25.8892416  24.516374199999998  71.8469039
H    24.5600137  23.6186753  72.6031722
H    24.3676164  26.388033699999998  71.3144607
H    22.0136523  26.3367902  72.1722753
H    22.267486299999998  24.6706635  72.741569
H    21.1392191  24.6842604  70.5343924
H    22.4869566  25.5955182  69.8478923
H    24.1135827  24.6756796  74.6660341
H    22.7773206  25.8349288  74.5260691
H    23.0880662  25.2559491  77.1494174
H    23.8258115  26.419111299999997  79.2015526
H    25.4694127  28.250987799999997  79.0645221
H    26.3829577  28.9365143  76.8696709
H    26.4007134  28.5933431  74.4665336
H    19.0803592  17.352950099999997  75.5867255
H    18.3589584  18.025288999999997  74.1116322
H    17.2515245  18.871886699999997  76.1636389
H    18.0002408  20.1832095  75.2195732
H    20.8648113  20.4367459  77.50366149999999
H    20.1657469  21.121396599999997  76.0012211
H    21.9930713  19.6203632  75.3970108
H    21.2950874  18.313647999999997  76.3936138
H    19.630339  22.1569738  77.8640997
H    18.2887327  23.4468532  79.4646191
H    15.5517433  20.455488499999998  79.8859751
H    16.7476397  18.9713972  78.2857887
