54

C    6.648  -38.1  -25.767
C    5.5335999  -38.8899399  -25.533123999999997
C    5.446156599999999  -40.1341993  -26.132327
C    6.4509801  -40.5799194  -26.9711634
C    7.5577195999999995  -39.7764744  -27.218638499999997
C    7.652995799999999  -38.5368809  -26.6124819
C    8.6324249  -40.2297592  -28.149402199999997
C    8.204089799999998  -40.0445857  -29.5983426
N    7.7044676999999995  -38.8578821  -29.9503073
O    8.3432086  -40.9560903  -30.4027799
N    6.765960199999999  -36.8462823  -25.2009698
N    7.182467699999999  -35.8046538  -25.931748
C    7.1492599  -34.777862999999996  -25.1053523
C    6.725569699999999  -35.1486429  -23.818880999999998
C    6.4919657  -36.4948296  -23.926095399999998
C    7.540841199999999  -33.4043464  -25.5129529
C    7.583507299999999  -33.3505501  -27.0403795
C    8.9205477  -33.0866564  -24.9209571
C    6.498816099999999  -32.4353152  -24.9505196
N    6.0968386  -37.4387643  -23.000197
C    5.171546299999999  -37.0958136  -22.065336
N    4.761651199999999  -38.1788185  -21.3229267
C    3.8139146999999993  -38.1144675  -20.306807
O    4.7736652  -35.9498859  -21.9575219
C    2.5693907999999994  -37.5350212  -20.5344105
C    1.6406868999999995  -37.501014  -19.512736699999998
C    1.9298306999999997  -38.0399027  -18.264751399999998
C    3.1619876999999996  -38.6332739  -18.020964499999998
C    4.0985298  -38.6614738  -19.0468531
Cl    5.648435899999999  -39.4034317  -18.7483127
Cl    3.5536709999999996  -39.3420554  -16.446430499999998
H    4.7258052  -38.5275167  -24.9166888
H    4.580623699999999  -40.7523836  -25.952503
H    6.3800474  -41.547474  -27.4434352
H    8.4993483  -37.8916489  -26.7866921
H    8.856462  -41.2883365  -28.0185788
H    9.5458602  -39.6539033  -27.9944684
H    7.4148898999999995  -38.7120816  -30.9031976
H    7.5772943999999995  -38.12377  -29.2736314
H    6.6089875  -34.542908  -22.9476162
H    7.873828  -32.3577776  -27.3778722
H    6.6060403999999995  -33.5884593  -27.449500899999997
H    8.2975748  -34.0764098  -27.415273199999998
H    8.8925729  -33.1559747  -23.836231599999998
H    9.223147299999999  -32.0797399  -25.198562199999998
H    9.6618956  -33.7889724  -25.294405299999998
H    5.5035042999999995  -32.7063127  -25.2958893
H    6.713570099999999  -31.4204493  -25.2808687
H    6.5010869  -32.4476011  -23.8648657
H    6.3117262  -38.4074923  -23.1954395
H    5.4355572  -38.9282849  -21.212921199999997
H    2.3616684999999995  -37.1037444  -21.498699
H    0.6751085999999997  -37.0526229  -19.6768297
H    1.1967027999999997  -38.0080445  -17.475720499999998
