53

N    -16.411  7.465  10.415
C    -17.1051282  6.9937255  11.5212109
C    -17.5397018  8.0885235  12.269727
C    -17.0934348  9.2250794  11.5962327
C    -16.404100800000002  8.8148682  10.4631659
N    -15.857170700000001  6.641217299999999  9.485772999999998
C    -15.987268700000001  5.3467914  9.657761399999998
N    -16.648478700000002  4.780016  10.6862926
C    -17.1961875  5.576825599999999  11.607331299999998
N    -17.8650668  5.0361858999999995  12.651311399999999
C    -18.0987431  3.6877776  12.966814699999999
C    -17.795566100000002  2.4728187999999998  12.3114724
C    -18.2747072  1.4634741999999998  13.148603399999999
N    -18.8357021  2.0889391  14.195554
N    -18.7342138  3.4195302  14.1095753
C    -18.3178935  0.002704099999999876  12.9793869
C    -19.091130500000002  -0.32430139999999996  11.7313909
C    -17.5955848  -0.4337972000000003  11.7486225
C    -15.356866  4.4359248  8.5977833
N    -14.5934974  3.3268416  9.1831435
C    -14.9639676  2.0287242  8.6256642
C    -15.8004797  2.3665933  7.386404799999999
C    -16.3874551  3.7542212999999998  7.680323399999999
C    -13.622657400000001  3.5871504  10.073891499999998
O    -13.1809218  4.725291  10.248208799999999
C    -13.0955184  2.4860382  10.933380099999999
C    -13.9762229  1.6823875  11.6578006
C    -13.477985  0.7018073999999999  12.489960799999999
C    -12.099756500000002  0.5914224999999997  12.570266199999999
N    -11.236645800000002  1.3588722999999998  11.932891499999998
C    -11.7275536  2.3033114  11.1302369
F    -11.6407222  -0.3878083000000001  13.3861958
H    -18.1022734  8.0571971  13.1797843
H    -17.2466786  10.2439656  11.888997
H    -15.9176392  9.3929777  9.704657399999999
H    -18.2433367  5.6714059  13.3402821
H    -17.3106444  2.4055802999999996  11.361814699999998
H    -19.281318  1.6862884999999999  15.0043379
H    -18.3843873  -0.6119475000000003  13.861373799999999
H    -19.5448749  0.49367389999999967  11.195774599999998
H    -19.6629957  -1.2393077000000003  11.703176999999998
H    -17.172893600000002  -1.4274190000000004  11.7359516
H    -17.0073028  0.28717429999999977  11.211177399999999
H    -14.6756331  5.080170799999999  8.028686699999998
H    -15.5639532  1.4637321  9.3446345
H    -14.0667779  1.4559207  8.3909317
H    -16.5760368  1.6269881  7.210451799999999
H    -15.1571628  2.4184001  6.508376899999999
H    -16.5583286  4.3372131  6.780806899999999
H    -17.3287956  3.6573971999999997  8.2229859
H    -15.039539600000001  1.8491241999999999  11.588862899999999
H    -14.1142649  0.053798800000000035  13.0689993
H    -10.9988623  2.9187250999999996  10.6254967
