56

N    10.339000000000002  -1.85  13.066000000000003
C    10.647556400000001  -2.6425376  12.024056500000002
N    11.5889889  -2.3803281  11.136025400000001
C    12.278313  -1.239992  11.270343200000001
C    12.034974400000001  -0.32266189999999995  12.326238500000002
C    11.009511700000001  -0.7247707999999999  13.233446200000001
C    18.5392031  1.4150873000000002  12.149350600000002
C    12.625112600000001  1.9150158  13.414548000000002
N    9.962641600000001  -3.7871023  11.884835400000002
N    10.639277400000001  0.022529299999999974  14.287506200000003
C    15.9475545  1.7493034  2.1371774000000014
C    16.827737300000003  1.8158321000000002  3.203898200000002
C    14.8799845  2.6286426  2.0632464000000015
C    16.6333671  2.7675970000000003  4.190204000000001
C    14.683769800000002  3.5702534  3.0568345000000017
C    17.661682300000002  2.6635824  8.509705800000003
C    17.9438183  2.2135851  9.771902600000002
C    13.914690300000002  0.10819519999999994  10.406763100000003
C    15.345032100000001  2.9229632  9.109494500000002
C    14.9846318  4.0635002  6.553134200000002
C    15.316376800000002  4.692632  5.202355200000001
C    14.557931500000002  2.3554755  11.429118800000001
N    13.218398  -1.0005145999999998  10.341890200000002
O    17.1730018  1.6836391000000002  11.975587200000001
O    16.197129200000003  3.4584642  6.9186428000000015
C    15.5569149  3.6504715  4.133091300000002
C    16.3654486  3.0225367  8.180914900000001
C    13.750676300000002  1.0798347000000001  11.390907300000002
C    15.620724500000001  2.4570188  10.382439200000002
C    12.792773300000002  0.8595194  12.368525000000002
C    16.9250359  2.1115026  10.707432500000001
H    18.6401991  1.1012859000000002  13.191671300000001
H    19.1505313  2.3068044  11.997992300000002
H    18.8760348  0.5944124000000001  11.5129221
H    11.569857300000002  2.1387164  13.560362400000002
H    13.1089005  2.8417301999999998  13.138205300000003
H    13.064712400000001  1.5849336  14.355705100000002
H    9.2107016  -3.9912605  12.516620600000001
H    10.167170500000001  -4.3679133  11.093254900000002
H    11.303366200000001  0.6249453  14.738209100000002
H    9.948821300000002  -0.41784129999999986  14.877838400000002
H    16.093963000000002  1.0138845  1.359542000000002
H    17.6639927  1.1362887000000002  3.2655463000000013
H    14.197919100000002  2.5769927  1.2273766000000013
H    17.3235753  2.8321544000000003  5.0157858000000015
H    13.845256800000001  4.2485257999999995  2.993159900000002
H    18.4308287  2.7523016  7.760108800000002
H    18.964024600000002  1.9505699  9.971657900000002
H    14.653674100000002  0.23331919999999995  9.624265900000001
H    14.330332900000002  3.184952  8.856920600000002
H    14.181373200000001  3.3206775  6.463258900000001
H    14.694813500000002  4.8329715  7.279071700000001
H    16.218417600000002  5.2925148  5.336144900000002
H    14.501565700000002  5.3478696  4.893026000000002
H    15.048414100000002  2.4318623  12.401353800000003
H    13.876675200000001  3.2011867  11.296065100000002
