53

C    -6.724  4.175  16.414
C    -0.3133522000000002  9.0395261  15.101231100000001
N    -5.1820841  -0.7123825000000004  16.1617524
O    -0.5158963999999999  11.2964202  12.932724000000002
O    -4.5548383  1.4836809999999994  17.239842200000002
O    -6.781170299999999  1.2291338999999994  16.2644263
C    -3.0046157  2.8116385999999993  14.234986500000002
C    -4.5205166  5.075938799999999  14.244731300000002
C    -6.576867399999999  3.8854616999999996  14.917879000000001
C    0.9956985999999999  9.5115953  12.238913200000002
C    -0.9495204999999998  4.010890699999999  13.567131800000002
C    1.0083604  8.046316  12.697199200000002
C    -0.5442801999999998  5.2436801  12.767274800000001
C    -3.0157825  7.7767725  14.367578000000002
C    -2.4483107  9.0858127  13.783218200000002
O    -4.8227528  1.3790347999999994  14.803150500000001
C    -0.20631449999999996  10.1237378  12.939678
C    -5.121307  3.8549975999999995  14.562097900000001
C    -2.4156516  4.032745199999999  13.916688100000002
C    -4.3430402  2.6953253999999993  14.569526000000002
C    -3.1694501  5.2128649  13.941393200000002
C    -2.54864  6.553115699999999  13.546837300000002
C    -1.0017089000000001  6.492128699999999  13.516552100000002
C    -0.4929043000000002  7.784381999999999  12.8762038
C    -0.9243774999999999  9.0104864  13.6894278
S    -5.3722145999999995  0.9200588999999999  16.1990407
H    -7.7673173  4.1097167  16.708807200000003
H    -6.3488817  5.1693275  16.645043400000002
H    -6.1615641  3.4468195999999995  16.994244000000002
H    -0.7308194000000001  9.8869318  15.643126000000002
H    0.763712  9.1718944  15.077102500000002
H    -0.5421407  8.1350123  15.651979500000001
H    -5.9400031  -1.1151292000000002  16.6906661
H    -5.2142231  -1.0327890000000002  15.205525500000002
H    -2.4025468  1.9158567999999994  14.220036200000001
H    -5.1574935  5.9461167999999995  14.2433235
H    -7.0877099  4.656975399999999  14.341661400000001
H    -7.0383056999999996  2.9198998999999994  14.705598600000002
H    0.8248009999999999  9.586410999999998  11.164426900000002
H    1.9026588000000002  10.0690929  12.467578000000001
H    -0.3728636000000001  3.9748679999999994  14.495392200000001
H    -0.725279  3.1027658999999996  13.0072173
H    1.5546024999999997  7.9105533999999995  13.625731900000002
H    1.4533101999999998  7.401528899999999  11.940675100000002
H    -1.0064840999999998  5.214192499999999  11.779246
H    0.5377014  5.2577345  12.639580700000002
H    -4.1026474  7.841907399999999  14.349354900000002
H    -2.708892  7.660550799999999  15.406067000000002
H    -2.7507187  9.9315336  14.401479100000001
H    -2.8615395  9.2419087  12.783763300000002
H    -2.8815528  6.7278461  12.513235700000001
H    -0.6304544999999999  6.4136953  14.5408091
H    -0.9560738  7.860185399999999  11.885011000000002
