51

C    14.462  -0.552  10.062
C    15.6322098  -1.2691398  10.304872799999998
N    16.6170651  -0.6742524000000001  9.515320999999998
N    16.1307066  0.36367170000000004  8.810812199999999
C    14.8449568  0.43393670000000006  9.1398555
N    15.8861905  -2.3054747  11.1068606
C    17.119475  -2.7547975  11.1374423
C    18.1701924  -2.2027689  10.3673957
C    17.9021274  -1.1529598  9.5199526
N    18.7915618  -0.5117696  8.7140153
C    17.4380695  -3.8678063  12.111589799999999
C    13.1943898  -0.7407407000000001  10.727553499999999
C    16.9485098  -3.4412234  13.5049692
N    17.2809538  -4.4621996  14.521312499999999
C    16.5962869  -5.7311237  14.2086657
C    17.0892951  -6.233069100000001  12.855695899999999
C    16.7999833  -5.2111955000000005  11.7490016
C    12.1369317  0.18200250000000007  10.805625999999998
N    11.141381200000001  -0.28322780000000014  11.5375932
N    11.528412  -1.4906782  11.9568318
C    12.7584083  -1.8056500000000002  11.504142
C    10.6560845  -2.2876167  12.790844499999999
C    20.0407695  -0.8955311000000001  8.3113712
S    20.819634100000002  -2.3938113000000003  8.692104599999999
N    22.1752153  -2.0649952000000003  7.832586899999999
C    22.0899044  -0.8810283000000001  7.263265099999999
C    20.8924715  -0.17245630000000012  7.506487999999999
C    23.2171343  -0.3732512000000001  6.431105499999999
H    14.2325356  1.1959736  8.6988504
H    19.164548  -2.6044483  10.4300006
H    18.404656  0.3066835999999997  8.2489026
H    18.524493  -3.9892373  12.127671999999999
H    15.8678339  -3.3024552  13.4647832
H    17.4089078  -2.4905982  13.775611999999999
H    17.0042257  -4.124534  15.4493577
H    18.2965337  -4.6182167000000005  14.5248178
H    15.5215912  -5.5530264  14.1746567
H    16.8100375  -6.4678721  14.982592799999999
H    16.593365  -7.1724077  12.617149999999999
H    18.1611479  -6.430285100000001  12.897912199999999
H    17.1963101  -5.5667076  10.798931499999998
H    15.7248167  -5.0753016  11.630268899999999
H    12.0625658  1.1523248  10.3538149
H    13.2347199  -2.736494  11.724714299999999
H    10.4286066  -1.7429459  13.706130599999998
H    9.724063000000001  -2.4855626  12.2636604
H    11.1538909  -3.2238437  13.0247882
H    20.6803272  0.8012930999999999  7.1081534999999985
H    24.1241469  -0.31405810000000023  7.028855699999999
H    23.409488500000002  -1.0561185000000002  5.606397699999999
H    22.9801166  0.610314  6.037257899999999
