81

P    24.222  2.167  20.842
O    24.678551900000002  3.5074463999999996  20.410635099999997
O    25.2398446  1.1248266999999998  21.162105099999998
O    23.147220400000002  2.1952727999999997  22.088837699999996
P    23.292180300000002  3.1363880999999996  23.399621099999997
O    24.664661900000002  3.6712064999999994  23.560537599999996
O    22.6836166  2.3587918999999995  24.5108294
O    22.273110400000004  4.2931554  22.892508199999998
P    22.093775  5.839970699999999  23.324077499999998
O    21.4370103  6.511068999999999  22.174991999999996
O    23.336813300000003  6.4725263  23.831133899999998
O    21.013371900000003  5.5661963  24.493605599999995
P    20.2781246  6.653373199999999  25.447496799999996
O    20.707408  8.056614699999999  25.200367199999995
O    20.362230500000003  6.1048141  26.824575399999997
O    18.765138500000003  6.577239  24.859485399999997
P    17.6475204  5.4634569  25.326589499999997
O    18.256792600000004  4.1301546  25.527187399999995
O    16.485203100000003  5.6184514  24.398185899999998
O    23.215496  1.6335250999999995  19.673787999999995
C    22.445078000000002  0.44556409999999946  19.828979799999995
C    22.091028500000004  -0.08527459999999998  18.441283
O    21.411694600000004  0.9011683999999995  17.673743599999998
C    23.323881600000004  -0.48978330000000003  17.619396899999998
O    23.661547300000002  -1.8232434  17.860977899999995
C    22.821183700000002  -0.2613909000000003  16.180537599999997
O    22.061466300000003  -1.3502530000000004  15.748295499999998
C    21.9005204  0.9602400999999996  16.360629499999998
N    22.560347200000002  2.2363042999999996  16.126573599999997
C    22.8917685  3.2163170999999995  17.035260199999996
N    23.4403666  4.2595063  16.483682599999998
C    23.4806564  3.9863137999999996  15.137749199999996
C    23.913714900000002  4.723786199999999  14.017130599999996
N    24.365503600000004  5.974910599999999  14.122661399999997
N    23.8073362  4.1510691  12.800596999999996
C    23.268766300000003  2.9415370999999997  12.700069099999997
N    22.8031046  2.1767612999999995  13.680203399999996
C    22.922050900000002  2.7264902999999996  14.897463099999996
O    17.224000300000004  6.013452299999999  26.794443699999995
C    16.623205600000002  7.2935101  26.938542599999998
C    15.664667300000001  7.183786  28.116619199999995
O    16.3633838  7.0426782999999995  29.341035199999997
C    14.730969600000002  8.3956511  28.291434099999996
O    13.433864700000003  8.1374715  27.840788499999995
C    14.760838200000002  8.667602599999999  29.8252155
O    13.509158200000002  8.8876952  30.382956099999998
C    15.424100200000002  7.3780532999999995  30.354427199999996
N    16.0492549  7.5186733  31.628968499999996
C    17.0731135  8.3594483  31.979516299999997
N    17.3939075  8.273795199999999  33.237460399999996
C    16.553287200000003  7.3221454  33.771314999999994
C    16.397546400000003  6.7816749  35.06815399999999
N    17.105600600000002  7.1973436  36.121955
N    15.446829200000003  5.839544  35.2397211
C    14.713130400000002  5.4453127  34.20784809999999
N    14.757417200000003  5.900531099999999  32.9604588
C    15.704265200000002  6.8333644  32.7697046
H    21.5427107  0.6892951999999997  20.400197899999995
H    23.0320484  -0.2882863000000002  20.3918373
H    21.4262149  -0.9509098000000007  18.569187799999998
H    24.1288622  0.21256969999999953  17.8653019
H    24.6223263  -1.9369282000000005  17.892912999999997
H    23.6271342  -0.041668200000000155  15.469190299999998
H    22.379120900000004  -2.1428071000000006  16.222155099999995
H    21.0538747  0.8963861999999998  15.662339299999998
H    22.728106900000004  3.1138231999999997  18.088454099999996
H    24.6957637  6.4512377  13.300105699999996
H    24.464963400000002  6.366227599999999  15.042615099999997
H    23.198799100000002  2.5290114999999997  11.706733999999997
H    16.0860081  7.5351634999999995  26.014781399999997
H    17.413460900000004  8.0323786  27.114011399999995
H    15.077032200000001  6.266077999999999  27.947223499999996
H    15.105874800000002  9.2548681  27.730812799999995
H    13.250989800000003  7.1863681999999995  27.816990299999997
H    15.416222500000003  9.5173803  30.046937299999996
H    12.843633000000002  8.774439399999999  29.672959899999995
H    14.668368200000003  6.583188099999999  30.467166299999995
H    17.560242000000002  8.9871723  31.261601099999996
H    16.9946474  6.712347599999999  36.996333199999995
H    17.861687900000003  7.839906099999999  35.9624543
H    13.974545000000003  4.6846594999999995  34.405801399999994
