49

N    11.327  -20.538  -2.9200000000000004
C    10.0855134  -20.1468986  -2.6355213000000006
C    9.5491879  -19.0088166  -3.5343590000000003
C    10.4466496  -17.733158799999998  -3.4593106000000002
N    9.9357656  -16.6633787  -4.30862
C    10.611760799999999  -16.035938599999998  -5.2904834
C    9.8365887  -14.8977817  -5.9035571000000004
C    9.9424897  -13.6466312  -5.311076600000001
C    9.2284878  -12.575587599999999  -5.807173700000001
C    8.3951935  -12.721164599999998  -6.9234412
C    8.2898636  -13.976151499999999  -7.5499712
C    9.0126044  -15.048079199999998  -7.0141286
Cl    8.891222599999999  -16.6057296  -7.7367475
C    7.322476  -14.1610208  -8.6997095
F    7.8546952  -14.4447508  -9.9119118
F    6.491827499999999  -15.188600399999999  -8.4345397
F    6.4988578  -13.1320772  -8.9548389
O    7.6663188  -11.742119899999999  -7.479387300000001
C    7.7583171  -10.4272256  -6.9595168
C    7.0737635  -9.4398507  -7.869958400000001
N    7.2208334  -8.1642649  -7.5160272
C    6.652291099999999  -7.236370399999999  -8.272221
C    5.919835  -7.518177899999999  -9.4154643
C    5.7816811  -8.8439433  -9.7866833
C    6.3607098  -9.8241582  -8.997035100000002
O    11.7519694  -16.2930106  -5.648876100000001
C    10.571751599999999  -17.2378866  -2.010677200000001
C    11.7016151  -16.229492699999998  -1.8478333000000005
O    8.2009775  -18.7494686  -3.2264649000000003
O    9.4000362  -20.664419  -1.7599665
H    11.7314337  -21.297089  -2.3922991000000002
H    11.8563593  -20.1265024  -3.6685221000000006
H    9.5827405  -19.3752846  -4.5737042
H    11.4379933  -17.9765701  -3.8538654000000006
H    8.974276  -16.4041157  -4.135936900000001
H    10.5799704  -13.515898799999999  -4.4522447000000005
H    9.3090565  -11.619345999999998  -5.3196715
H    8.8065744  -10.1213375  -6.8642133
H    7.2898362  -10.377830399999999  -5.968539600000001
H    6.7990303  -6.219229499999999  -7.9360901
H    5.4822614000000005  -6.722623099999999  -9.9957793
H    5.2270803  -9.1171438  -10.671402100000002
H    6.2664108  -10.8657411  -9.246817100000001
H    10.7510472  -18.095938699999998  -1.3615332000000002
H    9.622354099999999  -16.7894908  -1.7138568000000003
H    12.658622699999999  -16.6849271  -2.0884042000000003
H    11.555848300000001  -15.380597499999999  -2.5112298000000006
H    11.7372497  -15.8677558  -0.8243734000000007
H    7.970409699999999  -19.310754099999997  -2.4624967000000004
