58

N    -6.334  20.929  -3.825
C    -5.0901306  21.2444007  -3.1588879000000007
C    -5.053983799999999  22.7624352  -3.0322606000000007
O    -4.986775999999999  23.5258309  -3.9853688000000003
N    -5.182024999999999  23.1804809  -1.7652817
O    -5.130730699999999  24.5552836  -1.5642433000000002
C    -6.8974835  19.667006399999998  -3.7256872000000003
O    -6.3644482  18.772614599999997  -3.0595423000000004
N    -8.0793515  19.4907434  -4.3771858
C    -8.8292627  20.534868499999998  -5.0601773
C    -9.3473565  20.0494761  -6.4070789
C    -10.3109358  18.8761309  -6.2047289
C    -9.484592899999999  17.7634825  -5.5418507
C    -8.7894513  18.2183147  -4.2531117
C    -10.9316587  18.3745229  -7.499811
C    -11.7924103  17.2697169  -7.524572
C    -12.330187599999999  16.808109899999998  -8.7182726
C    -12.016204  17.4556441  -9.9167933
C    -11.1692048  18.559825099999998  -9.9060466
C    -10.6450027  19.002336099999997  -8.711942200000001
C    -12.4538175  17.0327223  -11.1855474
C    -12.6200212  16.6793318  -12.326354
C    -12.7919928  16.2015221  -13.6415979
C    -12.0357611  15.092588399999999  -14.042351
C    -12.1735622  14.5849953  -15.322452900000002
C    -13.059705099999999  15.185748399999998  -16.2100932
C    -13.8051442  16.2917785  -15.8150351
C    -13.6790355  16.8063748  -14.533418300000001
C    -3.7885361  20.703730999999998  -3.8179818000000005
C    -3.6410647999999997  21.043444299999997  -5.2944918
O    -2.6826086999999994  21.193897699999997  -3.0770308
H    -6.468702499999999  21.4483851  -4.6793002
H    -5.138767399999999  20.786234399999998  -2.1650794000000007
H    -4.9979365  22.620612899999998  -0.9443394000000005
H    -6.0429414  24.9001584  -1.5093855000000005
H    -8.2191939  21.422421  -5.2002724
H    -9.6821553  20.814068199999998  -4.4269955
H    -8.508505  19.7337757  -7.027547200000001
H    -9.854766099999999  20.888138299999998  -6.8844915
H    -11.1153808  19.1809321  -5.5264781
H    -8.7313656  17.427211999999997  -6.2583767
H    -10.108671099999999  16.9070082  -5.2904182
H    -9.545626  18.3288585  -3.4636362000000003
H    -8.0634944  17.4734688  -3.9246495000000006
H    -12.0500031  16.7689573  -6.6036519
H    -12.9890562  15.953394  -8.7281227
H    -10.9282937  19.057330399999998  -10.8327641
H    -9.9888596  19.8554691  -8.7435452
H    -11.352605  14.640264599999998  -13.3391438
H    -11.594074299999999  13.728116  -15.630182399999999
H    -13.1705923  14.793811599999998  -17.2096826
H    -14.4896923  16.752697899999998  -16.5114035
H    -14.257402899999999  17.6615161  -14.2190415
H    -3.7799372  19.617159599999997  -3.6751249
H    -2.6599600999999993  20.7256519  -5.636861100000001
H    -3.7483801999999997  22.1163453  -5.4459109
H    -4.3964073  20.523911899999998  -5.878222900000001
H    -2.469484799999999  22.08464  -3.3898985
