60

C    49.047  27.176  -18.087
O    52.127829799999994  31.029781099999997  -11.7160334
S    51.528138  29.672395499999997  -11.8685059
C    57.4809704  31.337744499999996  -21.9962136
S    50.1838881  28.092247499999996  -19.0601695
C    51.294525199999995  28.260923899999998  -17.7539027
C    50.7843319  27.660636599999997  -16.6139796
C    49.5210356  27.037741799999996  -16.819701900000002
C    47.755135599999996  26.702754099999996  -18.7102443
C    48.0403774  25.4904238  -19.599739
C    46.678222899999994  26.431232299999998  -17.649595
C    47.217413199999996  27.730445299999996  -19.7066404
C    51.621411099999996  27.629742799999995  -15.406845
C    56.4469849  33.8737601  -22.4596417
O    52.849479099999996  27.558751799999996  -15.560174100000001
C    57.5707557  33.453182399999996  -23.127986800000002
N    52.510831599999996  28.913275099999996  -17.849380200000002
C    52.743269  29.869421999999997  -18.811284
C    58.098237299999994  32.169907099999996  -22.8963065
O    51.8644171  30.191298399999997  -19.6128811
N    53.988285999999995  30.3967434  -18.7804663
C    54.5247391  31.3027794  -19.718296000000002
C    53.98421329999999  32.58018989999999  -19.953368
C    54.6136006  33.4168434  -20.8409099
C    55.7862832  33.033986299999995  -21.5336125
C    56.322223599999994  31.744559599999995  -21.296088700000002
C    55.666550599999994  30.908723799999997  -20.3748986
N    51.127350299999996  27.623401299999998  -14.1360268
C    49.9357312  28.322976599999997  -13.704843200000001
C    50.2809324  29.720819099999996  -13.1688293
C    52.7829699  28.610954099999997  -12.572068100000001
C    52.095966  27.349433399999995  -13.0800794
O    50.9120594  28.916344799999997  -10.7486533
H    57.8749392  30.349659499999998  -21.8075214
H    49.012203899999996  26.503940799999995  -16.0394098
H    47.1283003  25.159862999999998  -20.0879859
H    48.436789999999995  24.6573294  -19.018792700000002
H    48.77281309999999  25.752052999999997  -20.3583515
H    46.5094746  27.323626199999996  -17.0544629
H    46.9769661  25.617811399999997  -16.9939141
H    45.749641  26.153929199999997  -18.139218500000002
H    47.9489236  27.934410999999997  -20.4847624
H    46.9835906  28.6745061  -19.2144428
H    46.3103876  27.355790099999997  -20.1718514
H    56.043678899999996  34.85936409999999  -22.6413143
H    58.056495299999995  34.108616999999995  -23.8343075
H    53.1656779  28.670487499999997  -17.109816000000002
H    58.980256399999995  31.847775199999997  -23.4265604
H    54.6784821  29.8899281  -18.2420551
H    53.080774999999996  32.876876499999995  -19.4456221
H    54.2081015  34.400926999999996  -21.024683800000002
H    56.0798321  29.927571299999997  -20.1867845
H    49.461276  27.7452214  -12.907982500000001
H    49.2511308  28.422015899999998  -14.547700200000001
H    50.7047087  30.354258799999997  -13.944481
H    49.4016933  30.198610499999997  -12.746233100000001
H    53.5066682  28.383783599999997  -11.7952627
H    53.258694199999994  29.1684988  -13.3733872
H    52.84007149999999  26.6589641  -13.4804255
H    51.560535099999996  26.885742699999998  -12.2488313
