63

N    -21.062  4.911  -18.926
C    -19.8067351  5.3571078  -19.106084099999997
N    -19.4541434  5.5531591  -20.398294199999995
N    -18.9349831  5.5982509  -18.110402199999996
C    -19.3299659  5.3822097  -16.8566929
C    -17.1134099  6.1043023  -16.068613699999997
N    -18.463354  5.6155987  -15.796188299999997
C    -18.8433106  5.3947430999999995  -14.465515799999997
O    -18.0604951  5.5919535  -13.539342599999998
N    -20.1077471  4.9553709999999995  -14.223928699999997
C    -21.1069623  4.6856665  -15.227326299999998
C    -20.6240056  4.9208951  -16.598401899999995
C    -21.453694  4.7022671  -17.6810609
C    -18.1973429  5.869819  -20.9091544
C    -17.2747463  6.6265681  -20.1892689
C    -16.0389763  6.9210582  -20.730022399999996
C    -15.697931  6.4765024  -22.010431899999997
O    -14.455026  6.809681299999999  -22.484121599999998
C    -16.6250904  5.7304791  -22.731504499999996
C    -17.8615599  5.4327036  -22.186474099999998
C    -14.1338558  6.5496624  -23.845472299999997
C    -12.747239  7.1377795  -24.186130199999997
N    -11.6485993  6.7722081  -23.300112699999996
C    -11.3904772  7.7755104  -22.2688486
C    -10.1985779  8.6587176  -22.620197999999995
C    -11.7295837  5.4139289  -22.7660925
C    -10.6214486  4.5179  -23.299936599999995
C    -20.5187347  4.6569201  -12.895104299999996
C    -20.5043893  3.3278057  -12.473925699999997
Cl    -19.9862375  2.1043646  -13.614097499999996
C    -20.8717137  2.9875094  -11.182461799999997
C    -21.2681418  3.9850442999999998  -10.302700599999998
C    -21.3062344  5.3111942  -10.705095499999997
C    -20.9352701  5.6420715999999995  -12.001300399999998
Cl    -20.9722818  7.297333399999999  -12.541760899999996
H    -20.1474918  5.2212412  -21.055634799999996
H    -17.1390056  7.174281199999999  -16.268294499999996
H    -16.5051973  5.9099311  -15.190467699999997
H    -16.7259558  5.5823981  -16.9382234
H    -21.9791152  5.3287651  -15.022668199999996
H    -21.4498656  3.6460049  -15.123514399999998
H    -22.465771  4.3469608  -17.552004199999995
H    -17.529480200000002  6.9731401  -19.203633999999997
H    -15.3200821  7.5037772  -20.1771297
H    -16.3984939  5.3757233  -23.723823399999997
H    -18.567815500000002  4.8540189  -22.761489499999996
H    -14.8715263  7.0413358  -24.495045199999996
H    -14.1703418  5.4755405  -24.053751399999996
H    -12.812817299999999  8.2248665  -24.209713899999997
H    -12.5076383  6.7866128  -25.196142699999996
H    -11.1679758  7.2802203  -21.320320199999998
H    -12.2761983  8.401537099999999  -22.1005354
H    -9.3054236  8.0510483  -22.732730399999998
H    -10.3735192  9.184191  -23.555739399999997
H    -10.0345035  9.389206699999999  -21.832823299999998
H    -12.678768  4.9364063  -23.003271299999998
H    -11.6648944  5.4326428  -21.6731593
H    -10.683226699999999  4.4434375  -24.382402799999998
H    -9.6466598  4.9240065  -23.042681599999998
H    -10.7114876  3.5226559999999996  -22.872751699999995
H    -20.8455082  1.9559026999999998  -10.872926099999997
H    -21.5503832  3.725465  -9.296285599999997
H    -21.6199425  6.0884754  -10.028714099999998
