51

C    21.862  -17.387  -8.025
C    20.7377267  -18.103949  -7.5646699
C    21.1366452  -18.7945734  -6.357037900000001
O    20.5737035  -19.5371659  -5.5565964
N    22.4711651  -18.4597185  -6.1496649
C    22.9608038  -17.6209105  -7.1068959000000005
O    24.1038341  -17.1877596  -7.125064200000001
C    19.5012935  -18.0345898  -8.2679501
C    19.4670294  -17.2214611  -9.4383158
C    20.6250888  -16.539585600000002  -9.8663709
C    21.853158399999998  -16.601916  -9.1644099
C    22.7440736  -15.771996900000001  -9.9188051
C    21.9778897  -15.283872  -11.0198138
N    20.7030364  -15.7855193  -10.9637972
Ru    18.829864099999998  -15.677414500000001  -11.7296414
Cl    16.521336599999998  -15.4743207  -12.3242338
C    19.0223686  -17.0603086  -12.9153953
O    19.0639381  -17.9769858  -13.6257527
N    18.3623199  -17.0630387  -10.2024308
C    17.240367  -17.6747393  -9.842382500000001
C    17.1653218  -18.5017573  -8.6920889
N    16.0229376  -19.1672409  -8.338776800000002
C    18.3144913  -18.6740939  -7.9163582
N    18.590898799999998  -14.0988521  -10.4033844
C    19.5542248  -13.0974646  -10.791218200000001
C    19.54368  -12.9971589  -12.2927668
N    19.2690122  -14.1196658  -12.9767819
C    19.1651012  -14.0188469  -14.304824700000001
C    19.328682  -12.830428000000001  -14.991831000000001
C    19.6118852  -11.6768406  -14.2819835
C    19.7188317  -11.7750438  -12.9112205
C    22.558148199999998  -14.428185500000001  -11.954387
C    23.886975  -14.0760903  -11.7826844
C    24.6437473  -14.568184200000001  -10.715416600000001
C    24.079108599999998  -15.4140791  -9.7769789
H    23.002479  -18.8068704  -5.3643051
H    16.3727638  -17.518074000000002  -10.470641200000001
H    15.9842315  -19.5398023  -7.4064002
H    15.157122900000001  -18.875844  -8.758366800000001
H    18.293692  -19.2952047  -7.033212600000001
H    17.6594419  -13.6762422  -10.3821428
H    20.5509089  -13.3970058  -10.4379614
H    19.3278449  -12.112556600000001  -10.3529962
H    18.9394244  -14.940619400000001  -14.8297372
H    19.2257481  -12.8220167  -16.063968000000003
H    19.7420748  -10.7323956  -14.785398700000002
H    19.9373055  -10.9085704  -12.3065909
H    21.9864691  -14.0649732  -12.7955819
H    24.3515742  -13.4138452  -12.497169600000001
H    25.6784168  -14.2777677  -10.620113
H    24.6492986  -15.7968543  -8.943886200000001
