40

C    50.372  22.867  38.115
C    49.2507738  22.6548182  38.8959054
C    48.342374299999996  21.6556544  38.5551451
O    47.2453837  21.4745649  39.3434074
C    48.5799472  20.869036  37.4378749
C    49.712946099999996  21.0784248  36.6756647
C    50.619453299999996  22.0844552  36.9883287
C    51.8348382  22.333382200000003  36.1295285
C    51.7303427  21.6484509  34.7542542
N    52.2356956  22.4715846  33.6775044
C    51.4700683  23.0692361  32.7507672
N    50.1725987  22.7478829  32.6309698
N    52.1237012  23.9799881  31.969493399999998
C    51.4601927  24.6206927  31.0284832
N    52.0631811  25.526196300000002  30.252311
N    50.0987349  24.3332214  30.8608993
N    49.1378797  24.8093225  29.996480899999998
C    49.4847221  23.383867300000002  31.6813188
N    48.1949706  23.2706474  31.3412236
C    48.015590599999996  24.1535973  30.3136704
C    46.7127208  24.3383481  29.632557
C    45.5581649  23.5907626  29.7496906
C    44.5934471  24.1596262  28.8850853
C    45.2107092  25.219548800000002  28.2921595
O    46.4817254  25.3374059  28.7290621
H    51.0636003  23.651258300000002  38.3838339
H    49.0573711  23.2552929  39.7708801
H    46.6964784  20.7558537  38.9963303
H    47.8878452  20.083742400000002  37.1705598
H    49.8802753  20.4074274  35.8515829
H    52.7279633  21.991674500000002  36.6553417
H    51.930788  23.4113507  35.9819179
H    50.6888092  21.4839224  34.4840005
H    52.265125499999996  20.6971636  34.7533785
H    53.191387299999995  22.7968282  33.7149188
H    53.041228499999995  25.7060205  30.402240499999998
H    51.5300333  26.0042963  29.5457
H    45.4394864  22.739767  30.387957399999998
H    43.5904276  23.8213343  28.735487199999998
H    44.8872312  25.9452257  27.57446
