100

C    -3.823  3.039  6.536
O    -3.3702589  3.4444764  5.467183199999999
N    -5.6362352  1.6380322  5.7557005
C    -4.6224024  1.7573117000000003  6.5890694
C    -4.2600529  0.7364382000000003  7.494662099999999
C    -4.9936845000000005  -0.4197698000000001  7.506444599999999
C    -6.8777408  -1.7335240999999995  6.611004199999999
C    -7.932882599999999  -1.8350770999999995  5.745724699999999
C    -8.2315479  -0.7770883  4.8736752999999995
C    -7.4745287000000005  0.36935300000000026  4.873626899999999
C    -6.085381099999999  -0.5706935  6.633965799999999
C    -6.379856500000001  0.5035761000000001  5.754239499999999
N    -3.6686492  3.6099121000000003  7.758294199999999
C    -3.1278387  4.9455428  7.880434599999999
C    -2.2551184  5.0685813  9.134300099999999
O    -2.538158  5.9094111  9.985968
C    -4.240758899999999  6.0014656  7.866199799999999
C    -4.7261029  6.219253500000001  6.437341699999999
O    -3.938095  6.6786586  5.603261099999999
N    -6.015072999999999  5.8794276000000005  6.266380399999999
C    0.9665534  4.9343272  10.0774028
O    1.7912580999999999  4.829568500000001  11.209620999999999
C    -0.32032420000000017  4.0982789  10.282723599999999
N    -1.2019487  4.2191376  9.131949299999999
C    -0.03406710000000013  2.6365767  10.6556967
C    -1.3077041  1.8386556  10.8511089
C    -2.399413  2.3643183000000003  11.5351696
C    -1.4068853000000001  0.5447594000000002  10.348254699999998
C    -3.5603274000000003  1.6217862000000003  11.696065299999999
C    -2.5656456  -0.20132480000000008  10.5124032
C    -3.6505869  0.33742300000000025  11.183401499999999
N    1.6514082  7.2959174  9.492371899999998
C    0.557901  6.3959112000000005  9.9230255
C    2.7449204999999997  7.4606633  10.498557799999999
C    2.2723919  7.8626459  11.9095333
O    1.1009802999999998  8.1846756  12.107167599999999
C    3.7925573  8.436924000000001  9.9559716
C    3.2461371  9.7788568  9.4704433
C    2.8335019000000004  10.6899634  10.6282195
C    2.2797623  12.0117641  10.128526899999999
C    1.0977986999999998  11.769026499999999  9.197539899999999
C    1.477348  10.850970700000001  8.0355531
C    2.1142849  9.5320526  8.476359299999999
C    1.0659218  8.586969700000001  9.0592467
N    3.2759332999999997  7.810188800000001  12.805443299999999
C    3.1814538999999997  8.2069648  14.2256688
C    4.526681399999999  7.9452417  14.8860538
C    2.1007396  7.3845186  14.9171537
C    2.8454358  9.693605900000001  14.3279627
H    -3.4192424  0.8691762000000001  8.157450699999998
H    -4.746399800000001  -1.2228038999999997  8.185756
H    -6.6356936  -2.5402692999999994  7.286974999999999
H    -8.5409061  -2.7261654999999996  5.727284399999999
H    -9.0650125  -0.8687287000000001  4.194852499999999
H    -7.6931198  1.1860074000000003  4.204426599999999
H    -4.2138808999999995  3.2500533000000003  8.527815799999999
H    -2.5064098  5.109481000000001  6.9877335999999985
H    -3.8205711  6.940158  8.230968699999998
H    -5.0456539  5.704177700000001  8.535946699999998
H    -6.4346779000000005  5.9487912000000005  5.352393099999999
H    -6.5538945  5.490868300000001  7.018195799999999
H    1.4937591000000001  4.582753  9.1764324
H    2.1101209  3.9231477000000003  11.3121133
H    -0.8498458000000001  4.5774207  11.1152138
H    -1.1228436  3.5490043  8.382522
H    0.5135079999999999  2.6213900000000003  11.5987245
H    0.5705486  2.1595587000000003  9.8826741
H    -2.3606816  3.3571109000000003  11.9552525
H    -0.5715081000000001  0.10917780000000032  9.819048899999999
H    -4.3970338  2.0490122000000004  12.228404399999999
H    -2.6154534  -1.2044208999999997  10.1153316
H    -4.5559685000000005  -0.23688649999999978  11.308501199999998
H    2.1018018  6.8817917  8.6659233
H    0.17085379999999994  6.7608453  10.8753633
H    -0.23374260000000002  6.4647912000000005  9.1805162
H    3.2063788  6.4753141  10.614543399999999
H    4.3002772  7.9579188  9.1139379
H    4.545765100000001  8.6196612  10.720609199999998
H    4.0542672  10.290356899999999  8.9360532
H    3.7035297999999996  10.8755267  11.261073999999999
H    2.0741351999999997  10.2115998  11.244123499999999
H    3.0583122  12.5572505  9.5877682
H    1.9679015  12.630365000000001  10.971270299999999
H    0.7385951999999998  12.718257000000001  8.796722299999999
H    0.27736929999999993  11.3287943  9.7683877
H    2.1958273999999998  11.3808136  7.405663499999999
H    0.5942437999999999  10.6520445  7.426274799999999
H    2.5394654  9.0585112  7.583142699999999
H    0.5869213999999998  9.0329585  9.9312571
H    0.3010963  8.3885386  8.3083476
H    4.1709619  7.4553167  12.5089548
H    4.4807579  8.2296129  15.9326619
H    5.3130486999999995  8.5289654  14.412484899999999
H    4.7866979  6.8905596000000005  14.833846699999999
H    2.0260575  7.6693064  15.962337899999998
H    2.3327415  6.3235638000000005  14.8607825
H    1.1367729999999998  7.5536417  14.4441908
H    2.7801943999999996  9.9872431  15.3710053
H    1.888039  9.8983679  13.8552763
H    3.6107660000000004  10.297119200000001  13.845697099999999
