67

C    2.9880000000000004  19.849  27.519
N    5.8824570000000005  21.0011012  27.2287185
O    6.6020679  22.097067900000003  29.379079599999997
S    6.536326900000001  20.788984600000003  28.754030699999998
C    3.3688955000000003  21.203564300000004  27.6483691
N    3.7756134  18.947992900000003  26.870253599999998
O    7.8215957  20.119613200000003  28.6365044
C    2.5079186  22.079452200000002  28.283637799999997
N    1.1450112000000003  16.510930600000002  24.6460589
O    3.0012071000000002  17.429019500000003  32.0760967
C    1.2810686000000002  21.665809900000003  28.8098164
N    2.4993918  15.520056700000001  26.075836
C    0.9147569000000004  20.3207667  28.6909159
N    -0.18334090000000014  23.412866400000002  29.974843399999997
C    1.7564381000000004  19.4355814  28.059352999999998
C    4.6755248  21.8183504  27.1566893
C    6.0021773000000005  19.861113900000003  26.3201413
C    4.637061500000001  19.393850500000003  25.799657099999997
C    3.6946038000000003  17.522437000000004  27.1153214
C    2.7175535  16.866151600000002  26.1869236
C    1.8723682000000004  17.457462500000002  25.290635199999997
C    1.5421438000000003  15.3630393  25.1362597
C    3.1510458000000003  14.458735  26.810354699999998
C    6.9803365  20.156486  25.1621372
C    5.8454043  23.479221700000004  22.6780333
C    6.3904215  23.700308000000003  23.9341805
C    6.758357500000001  22.6290893  24.7325925
C    6.5774775000000005  21.3203083  24.291244499999998
C    6.0334516  21.110584600000003  23.0286155
C    5.671552800000001  22.181271000000002  22.225927
C    3.8287792  18.212560500000002  31.3278534
C    3.6823029000000003  19.5986803  31.3052377
C    4.5154185  20.368171500000003  30.519741
C    5.4810644  19.752225000000003  29.746583599999997
C    5.6529045  18.3795983  29.7685173
C    4.8239263  17.604225300000003  30.562022
C    1.6124441000000003  17.655008000000002  31.8289662
C    0.46029430000000016  22.6144949  29.4518342
H    2.7935731  23.1158457  28.3923201
H    -0.0336078999999998  19.9885497  29.084525
H    1.4441534000000003  18.412796800000002  27.9381375
H    4.5787627  22.1663706  26.124519199999998
H    4.8980784  22.6885188  27.7778149
H    6.4529946  19.057897200000003  26.9128893
H    4.1521581  20.193673800000003  25.238978499999998
H    4.7921589  18.5585172  25.1154561
H    3.4147670000000003  17.3597025  28.1612157
H    4.6963707  17.104585500000002  26.9687421
H    1.7333372000000002  18.4966374  25.0720711
H    1.1617961  14.408593100000001  24.8360216
H    3.8637694000000002  14.884615600000002  27.5101998
H    3.6729591000000004  13.796456100000002  26.119809699999998
H    2.4092618000000003  13.879404400000002  27.3596462
H    7.066739200000001  19.2544615  24.557248299999998
H    7.9517389000000005  20.368683200000003  25.613970199999997
H    5.565258200000001  24.314741700000003  22.0551228
H    6.535458500000001  24.708734  24.2917514
H    7.1901108  22.8004442  25.7086149
H    5.894723  20.1025938  22.667295199999998
H    5.254474  22.0014529  21.246860599999998
H    2.9262769000000004  20.0746326  31.9080382
H    4.4417038  21.4431435  30.5046514
H    6.4429021  17.9381908  29.1836572
H    4.9395984  16.533716100000003  30.6110358
H    1.1005570000000002  16.7937872  32.252947999999996
H    1.4176992000000004  17.719405400000003  30.757220399999998
H    1.2567259000000002  18.563191900000003  32.3199098
