53

N    -15.602  15.565000000000001  -27.817
C    -15.6188106  16.7510163  -27.196987200000002
N    -14.5045816  17.1345635  -26.5496494
N    -16.6818694  17.6010047  -27.201281400000003
C    -17.7916293  17.238551  -27.8433144
N    -18.8423704  18.058767800000002  -27.874291200000002
C    -17.8821781  15.964463600000002  -28.530652
N    -18.9887157  15.559314800000001  -29.1883933
C    -18.9858098  14.364002800000002  -29.7811962
C    -17.8241802  13.5724354  -29.7151134
N    -16.7286528  13.953533700000001  -29.089975600000002
C    -16.7143729  15.1623701  -28.4644131
C    -20.2300796  13.8898829  -30.5225246
N    -20.0249552  12.704697000000001  -31.342895900000002
C    -19.396510799999998  12.953899100000001  -32.6328863
C    -22.6465935  9.4196434  -31.2869715
C    -21.76192  9.6248042  -32.3421736
C    -20.8752973  10.6770139  -32.3265394
C    -20.868912899999998  11.6133573  -31.275546700000003
C    -21.7304747  11.3600618  -30.193717000000003
C    -22.5118744  10.2239635  -30.156503500000003
C    -23.5771996  8.2651939  -31.3796563
O    -24.3257281  8.054931700000001  -32.3422469
N    -23.4659179  7.401748700000001  -30.3121608
C    -22.94114  6.076120100000001  -30.5983769
C    -22.2828503  5.5769197  -29.275190300000002
O    -21.5884996  6.3932903  -28.638019800000002
O    -22.5641497  4.420949600000001  -28.918096000000002
C    -21.9606544  6.0709179  -31.7982085
C    -20.4707151  6.1101733000000005  -31.4835472
C    -20.0195996  4.7504144  -30.8813411
O    -19.3235559  4.782060400000001  -29.847743700000002
O    -20.3508958  3.699863100000001  -31.4721127
H    -13.7369847  16.4896229  -26.512559300000003
H    -14.5119203  17.9992598  -26.0399873
H    -19.6702092  17.7450709  -28.3519454
H    -18.8022681  18.940205300000002  -27.391831500000002
H    -17.7850765  12.5974637  -30.180039500000003
H    -20.5858263  14.718515100000001  -31.1479299
H    -21.0037934  13.700811000000002  -29.7798164
H    -18.6855963  12.1632379  -32.866307400000004
H    -18.842920499999998  13.8879639  -32.5663623
H    -20.1374927  13.029233900000001  -33.431561
H    -21.7990778  8.964664500000001  -33.1967391
H    -20.1936822  10.757103200000001  -33.1529389
H    -21.7127353  11.9803516  -29.3119917
H    -23.1406908  10.036794200000001  -29.297115100000003
H    -22.8653357  7.782812900000001  -29.575764600000003
H    -23.7716072  5.394857700000001  -30.8240023
H    -22.2278255  6.871161400000001  -32.4873815
H    -22.1153435  5.1208337  -32.3253038
H    -20.219752  6.8881551000000005  -30.759021200000003
H    -19.908747599999998  6.2683477000000005  -32.406591
