32

C    11.281000000000002  -2.976  38.781
C    10.559135800000002  -4.1373758  38.510121
C    9.653195300000002  -4.189844399999999  37.4447226
C    9.471282800000001  -3.0425525999999996  36.669055300000004
C    10.169274000000001  -1.8888669999999999  36.9492347
C    11.076230700000002  -1.8518964999999996  37.9934602
C    8.812220000000002  -5.3639347  37.0565374
P    9.788143600000001  -6.961153599999999  36.7475339
O    10.773832100000002  -7.1932379  37.8926033
O    8.752013500000002  -8.0692492  36.6004817
O    10.483842500000002  -6.670168199999999  35.4211933
C    7.496089800000002  -5.4217238  37.840185500000004
C    6.5171252000000015  -4.3509933  37.3047905
C    5.9033516000000015  -4.5772385  35.9169971
O    5.774647800000001  -5.6896312  35.3887656
N    5.412851000000002  -3.4849761  35.2866482
C    5.462799200000001  -2.0857792999999996  35.6619926
O    4.728309900000001  -3.6813705  34.0701822
F    9.972680400000002  -0.7602389999999999  36.2097472
F    11.740225800000001  -0.6776613999999999  38.1872686
H    11.996508100000002  -2.9462576999999994  39.5850389
H    10.716216600000001  -5.0331572  39.0890449
H    8.816466300000002  -3.0635315  35.8125183
H    8.521805600000002  -5.230069599999999  36.0010383
H    7.680567100000001  -5.2572652  38.9021621
H    7.085754400000001  -6.4258057  37.7003602
H    7.022750700000001  -3.3859645999999994  37.3260363
H    5.665911300000001  -4.3033117  37.9921722
H    4.9493626000000015  -1.5438942999999998  34.872771
H    6.494962300000001  -1.7419713999999997  35.7301449
H    4.956441500000001  -1.9308710999999996  36.6128688
H    4.793080500000001  -4.6438574  33.898703
