53

C    13.798  -1.069  51.667
F    17.6694519  -7.7678368  54.32737540000001
N    16.3325454  -4.7288813  51.48423460000001
O    15.216560099999999  -6.4299926  52.57084630000001
Cl    12.8526141  -0.7702038  49.118785
C    13.588106699999999  -1.1733131  53.072839300000005
F    19.3717028  -8.1904354  53.044727800000004
N    17.650108  -1.7573732000000002  49.92171990000001
O    14.7129716  -1.2716993  53.833728900000004
Cl    9.585557699999999  -1.0125722000000001  53.35293790000001
C    12.282745799999999  -1.1492165  53.582911900000006
N    15.796586099999999  -0.31043200000000004  50.45913410000001
C    11.2002607  -1.0142587  52.718268200000004
N    17.6479895  0.45519219999999994  49.2874489
C    11.3827128  -0.8803896  51.350713000000006
N    17.2253726  -6.9200583  51.65842920000001
C    12.6800442  -0.9052578000000002  50.843791
N    16.9356723  -2.3911527  55.235555000000005
C    15.7189674  -2.5882027  51.17717450000001
N    16.8119802  -3.6892376000000002  55.5155048
C    15.338252899999999  -3.8061444  51.7297086
C    17.3619885  -4.1144695  50.765273400000005
C    17.009206  -2.779322  50.55851990000001
C    17.0351757  -0.5825450000000001  49.8983271
C    15.1591632  -1.2744753000000002  51.077720600000006
C    16.2114034  -6.0777862  51.95990810000001
C    14.6414183  -1.4096353000000001  55.25780640000001
C    16.0687434  -1.4067365  55.8300696
C    17.9381664  -2.157323  54.3633911
C    18.4976972  -3.3762127  54.061160900000004
C    17.7499739  -4.2961825000000005  54.80936940000001
C    17.213278  -8.3146709  52.06888970000001
C    18.077607  -8.5857422  53.30461090000001
C    18.0750746  -10.0222149  53.774215600000005
H    12.1062034  -1.2452114  54.64066570000001
H    18.5277503  0.29372419999999977  48.833739200000004
H    17.1661946  1.3330422999999998  49.230475600000005
H    10.5446809  -0.7666416000000003  50.6850103
H    18.080736899999998  -6.560416200000001  51.261860600000006
H    14.4605836  -4.0878145  52.27421340000001
H    18.2427868  -4.6308288  50.452798800000004
H    14.1498019  -2.357853  55.50133340000001
H    14.0853244  -0.5740589000000003  55.692706300000005
H    16.523269499999998  -0.4297960999999999  55.6583977
H    15.9941596  -1.6014586000000002  56.901589400000006
H    18.1715254  -1.1706350000000003  54.020788700000004
H    19.3172295  -3.5791845  53.403592700000004
H    17.8564384  -5.3612629  54.86655210000001
H    17.5781799  -8.930306999999999  51.2460674
H    16.1800679  -8.570943100000001  52.313105400000005
H    17.0614489  -10.3176679  54.0240372
H    18.7030196  -10.1072766  54.6574827
H    18.4671753  -10.6614795  52.990046400000004
