64

C    40.761  9.262999999999998  23.23
C    39.638935000000004  10.1659981  23.6155607
C    38.3070141  9.844302599999999  23.7208804
N    37.611681700000005  11.002094999999999  24.1028157
C    38.4987349  12.024911999999999  24.2457071
C    39.7701909  11.555569299999998  23.9557088
C    40.9360737  12.3923577  24.0981165
O    42.0835676  11.9624831  23.9873628
C    40.684165500000006  13.843288999999999  24.502602
C    39.441814  14.041366799999999  25.392965099999998
C    38.2123902  13.421037799999999  24.6839689
C    39.188104800000005  15.5370594  25.6249404
C    39.6691355  13.385482  26.759248499999998
C    36.212812500000005  11.0973426  24.3364969
C    35.4160929  12.0369248  23.6755814
C    34.0541695  12.045867999999999  23.9167923
C    33.4467002  11.1410805  24.7907521
C    34.2499781  10.198854699999998  25.4961806
C    35.6337264  10.227899999999998  25.2483398
N    33.6800895  9.3012328  26.3481073
C    34.3502893  8.332661199999999  27.1953448
C    35.4661962  7.5363337999999995  26.4895279
O    36.4789578  7.292529999999999  27.1562834
N    35.372525100000004  7.141719599999999  25.2025251
C    36.5575568  6.4976153  24.6242965
C    37.7576306  7.4586974999999995  24.533135899999998
C    37.625958600000004  8.530075499999999  23.425963499999998
C    34.2349139  7.303736299999999  24.310237
C    33.3310912  7.384179  27.8392013
C    31.983729000000004  11.202456999999999  25.0219545
O    31.467066000000003  10.763411499999998  26.058885099999998
N    31.2264985  11.764234899999998  24.0624349
H    40.391848800000005  8.2859617  22.9332097
H    41.447236700000005  9.1461449  24.0685582
H    41.3298543  9.703532  22.41202
H    40.5562066  14.4076288  23.5739514
H    41.583875000000006  14.212922599999999  24.9961099
H    37.345905800000004  13.4420174  25.3487138
H    37.9772563  14.0342989  23.8082878
H    40.0388187  15.9882834  26.1284866
H    38.3065775  15.674128499999998  26.2452515
H    39.033290300000004  16.056145  24.6818752
H    39.8518138  12.3177621  26.6505753
H    38.7996138  13.5237039  27.3971759
H    40.532355100000004  13.8280152  27.2496489
H    35.8589241  12.731143999999999  22.9815949
H    33.459358800000004  12.802470999999999  23.432094499999998
H    36.280587700000005  9.572045899999999  25.8063367
H    32.712016500000004  9.506302199999999  26.5783622
H    34.8855366  8.8508552  28.0093741
H    36.2956893  6.121531499999999  23.6379542
H    36.842558100000005  5.666030699999999  25.274359099999998
H    38.6530703  6.8634504  24.3522726
H    37.8939644  7.933432199999999  25.5045045
H    38.034393900000005  8.134080699999998  22.4953875
H    36.5688805  8.743971299999998  23.2620098
H    33.341947000000005  7.5521096  24.873292
H    34.0715367  6.364553299999999  23.782990299999998
H    34.4245626  8.094627  23.5834686
H    33.852243  6.6992026  28.5017636
H    32.8018692  6.810431599999999  27.083198799999998
H    32.6127826  7.959419799999999  28.4167497
H    30.231162400000002  11.801076299999998  24.2103297
H    31.604808100000003  12.023520399999999  23.1698676
