58

C    -32.4  10.737  -5.453999999999999
O    -40.19766  8.306336  -22.0999695
O    -40.7355182  10.867501299999999  -21.314911699999996
O    -37.8299471  7.515746  -21.7122219
O    -39.5789971  7.1392785  -19.892324
O    -40.3705188  10.7683982  -18.767456099999997
O    -38.9449319  12.286661899999999  -20.180859199999997
C    -35.2959408  12.655814399999999  -19.2996786
C    -35.8447559  11.814143  -20.206162799999998
C    -36.3789088  11.088213999999999  -18.218423599999998
C    -33.5674319  9.9284853  -6.013720499999998
C    -34.702269799999996  10.7974163  -6.575386099999998
C    -34.6754761  10.9166185  -8.100196099999998
C    -33.781501399999996  12.065806  -8.543394499999998
C    -33.5303308  12.0740382  -10.041674299999999
C    -34.781365199999996  12.532939599999999  -10.772630699999997
C    -34.4382583  13.1266392  -12.134079799999999
C    -35.0723222  12.3091063  -13.242547099999998
C    -34.4102594  12.642960799999999  -14.562008499999997
C    -35.0777651  11.886906  -15.703936599999999
C    -35.2242321  12.8437419  -16.867473299999997
C    -37.0994206  9.731359099999999  -20.188851399999997
C    -38.5896352  9.523558999999999  -20.0662357
N    -35.5915424  12.1552232  -18.075574999999997
N    -36.5534164  10.8801465  -19.521125499999997
P    -39.1267217  8.0445891  -21.055516599999997
P    -39.7509688  10.962724  -20.1634884
H    -31.939249099999998  11.349262  -6.224028599999999
H    -32.7422084  11.3904394  -4.654810599999998
H    -31.6409523  10.0698025  -5.051301099999998
H    -34.6791724  13.519780299999999  -19.435878099999996
H    -35.8619146  11.8361415  -21.2756315
H    -36.8261054  10.492576399999999  -17.4512692
H    -33.9603085  9.3041453  -5.207838299999999
H    -33.2018155  9.2564843  -6.7915956999999985
H    -34.6660053  11.7925612  -6.1317939999999975
H    -35.6554002  10.3484562  -6.284794399999997
H    -35.6887167  11.0891155  -8.470849199999998
H    -34.3253751  9.9816708  -8.5407041
H    -32.8212705  11.9694705  -8.031545599999998
H    -34.2227125  13.015884  -8.239292599999999
H    -33.2203537  11.0871944  -10.386039799999999
H    -32.7186205  12.774279  -10.250274899999997
H    -35.2865324  13.2846701  -10.162030799999998
H    -35.4769606  11.702166499999999  -10.890092699999999
H    -33.3572441  13.124896  -12.276116199999997
H    -34.7772  14.1602813  -12.209451999999999
H    -36.143926  12.5093062  -13.298229
H    -34.944775899999996  11.2434161  -13.039056999999998
H    -33.349607999999996  12.400588899999999  -14.513941099999998
H    -34.5031543  13.7168557  -14.728919499999998
H    -36.0607074  11.5253413  -15.400310399999999
H    -34.488033  11.0218407  -16.0064602
H    -34.2736102  13.3424963  -17.0653066
H    -35.9855448  13.596290499999999  -16.644046399999997
H    -36.8773015  9.811980499999999  -21.2580158
H    -36.6292215  8.8118309  -19.8197598
H    -38.7978606  9.1812037  -19.0445228
