36

P    -24.077  10.565  7.186
O    -22.7279169  9.881259799999999  7.2108343
O    -24.7792341  10.6602101  8.541008999999999
O    -24.0649798  11.885834599999999  6.4262587
O    -25.0289169  9.4893371  6.2603671
C    -26.4151765  9.7134876  6.1950926
C    -27.0014206  8.8920352  5.0396038
O    -26.2851934  9.1521251  3.8284844999999996
C    -26.9440184  7.361290599999999  5.1866372
O    -27.918286600000002  6.831366099999999  6.0171776999999995
C    -27.0975168  6.93309  3.7116901999999996
O    -28.4357024  7.0821343  3.3209549999999997
C    -26.206053400000002  7.983344  3.0364519999999997
N    -24.864765900000002  7.4649087  2.903542
C    -23.8463435  7.4131944  3.8189653
N    -22.7786907  6.8356958  3.3533589999999998
C    -23.0894488  6.4726330999999995  2.0666437999999996
C    -22.3184854  5.8296083  1.0614084
O    -21.1560177  5.4525734  1.1645282
N    -23.0131133  5.6498376  -0.13971230000000023
C    -24.3105074  6.0586851  -0.33310370000000056
N    -24.8957324  5.8453678  -1.5130653
N    -25.0174114  6.6547673  0.6086923999999998
C    -24.3900566  6.8606715  1.7778512999999996
H    -26.5871489  10.7863712  6.0320521
H    -26.8839837  9.4238697  7.1453693
H    -28.0466349  9.2068421  4.8995834
H    -25.968321500000002  7.0734987  5.585729499999999
H    -28.7782384  6.9113329  5.5632792
H    -26.7292238  5.9167444  3.5427356
H    -28.5803193  6.663075299999999  2.4584044999999994
H    -26.5385626  8.2340808  2.0208687999999997
H    -23.9166436  7.8713218  4.7875993999999995
H    -22.4918564  5.2045074  -0.8868954000000002
H    -25.831854  6.191210399999999  -1.6357968999999999
H    -24.392916  5.436872899999999  -2.2815094
