21

C    -1.515  -16.793  14.438000000000002
O    -1.8428392999999998  -17.0201328  15.621966000000002
C    -0.5935181999999999  -15.578202999999998  14.156441500000001
C    -0.5124274999999998  -14.608080699999999  15.331260400000001
C    -1.8434206  -13.875897199999999  15.534481500000002
N    -1.9523244  -13.2531439  16.838156800000004
C    -2.2357157  -13.907694099999999  17.964535
N    -2.3912303  -15.216273699999999  17.9896993
N    -2.3849871  -13.2203561  19.0957401
O    -1.888963  -17.490344399999998  13.465121100000001
H    -0.9604227  -15.093270299999999  13.249558700000001
H    0.39161210000000013  -15.994371  13.932091400000003
H    0.29035719999999987  -13.890468899999998  15.155453300000001
H    -0.2681186999999998  -15.1889542  16.2219599
H    -2.6554716999999997  -14.5979078  15.407701500000002
H    -1.9597848  -13.103298899999999  14.775431400000002
H    -1.7531698999999998  -12.266801899999999  16.8961216
H    -2.6413829  -15.6852729  18.843493600000002
H    -2.2416023999999997  -15.805671199999999  17.174134100000003
H    -2.2960434999999997  -12.219365199999999  19.113301200000002
H    -2.5906503  -13.697097099999999  19.956267000000004
