36

S    15.032  0.9630000000000001  16.895
N    18.4300207  5.7539839  13.507618699999998
O    16.3616095  6.627181  13.5274255
C    16.6484649  4.5386906  14.628765099999999
C    17.0258185  2.4468156  15.775169899999998
C    17.514609  3.5418993  15.0820408
C    15.663222300000001  2.3515034000000004  15.996801999999999
C    15.2785913  4.434450200000001  14.884180399999998
C    14.7860297  3.3375120000000003  15.572246
C    17.1240798  5.7270071  13.859525
F    20.4606251  7.4706547  14.4890657
F    18.8341752  9.7005442  12.316453
F    20.6169168  9.8497108  15.378872999999999
F    22.4343057  10.1717803  13.731790199999999
F    18.489576  8.313941  14.639091099999998
F    20.8371728  8.9401108  12.187146599999998
F    19.1263291  11.042319299999999  14.2923061
F    21.6505499  12.069706199999999  14.466717399999999
F    21.1831608  11.461830299999999  12.4223997
C    18.9507083  6.865645  12.7669261
O    13.5861263  0.9575288000000004  16.7594744
C    19.4269842  7.9301363  13.743207799999999
O    15.572348999999999  1.0164729000000001  18.2388719
C    19.8516516  9.214863900000001  13.058508
N    15.6862385  -0.36133340000000036  16.161749399999998
C    20.2133544  10.2730413  14.1520345
C    21.4163019  11.043438  13.663066299999999
H    19.0808822  5.065798  13.8505174
H    17.6749541  1.6683494999999997  16.1364192
H    18.5781745  3.5957996  14.921922299999999
H    14.6264178  5.2185331999999995  14.5332879
H    13.7349184  3.2177318  15.7772908
H    18.140948  7.2895365000000005  12.162617399999998
H    19.792846  6.5644171  12.142615499999998
H    16.0457839  -1.025474  16.827767599999998
H    15.0598937  -0.7816087999999999  15.4942973
