14

O    17.067  2.503  16.057
S    15.089675  0.9542768  17.0162524
O    13.6525043  0.9926009000000001  16.85831
C    15.7320378  2.3352264  16.1403762
O    15.6248212  1.025067  18.354589899999997
C    15.064872900000001  3.3480018  15.513834699999999
C    16.0708092  4.1904007  14.980302799999997
C    17.2654522  3.6362703  15.337966199999999
N    15.6562355  -0.3647216999999998  16.286203899999997
H    14.0029869  3.4457425  15.442320699999998
H    15.9228038  5.0862532  14.415134199999997
H    18.2808156  3.9263437000000003  15.161700199999999
H    16.531792  -0.7593889  16.568513499999998
H    15.124971  -0.7907322000000001  15.552256999999997
