37

N    -0.774  4.767  10.215
C    -1.5069430000000001  4.160796  11.1391591
N    -1.9112810000000002  4.6876645  12.2879489
C    -1.6218910000000002  5.974143400000001  12.526564800000001
C    -0.8805900000000002  6.691097300000001  11.5946669
C    -0.4463318000000003  6.0396187  10.4416853
S    -1.9306321  2.5081332000000005  10.7183615
C    -3.0644654  1.9823059000000003  12.066380800000001
C    -4.2200238  2.9483247  12.2087257
O    -4.6521215  3.5817742000000004  11.26556
C    -2.1305534  6.6328019000000005  13.781077400000001
C    0.40465050000000025  6.735392000000001  9.4400187
C    -4.8287130000000005  3.0893942  13.5691976
C    -4.9849116  2.0156805  14.4390899
C    -5.6123261  2.2038262000000004  15.6476333
C    -6.1073404  3.4521262000000004  15.994711800000001
C    -5.9257186  4.5489987  15.1610949
C    -5.3481482  4.3352334  13.9329573
S    -5.9455656  0.7979239000000002  16.7105671
O    -7.3949248999999995  0.6899353000000001  16.7426482
O    -5.2892906  0.9803590000000004  17.9836454
N    -5.2646669  -0.5350249999999996  16.019173000000002
Cl    -6.8181254  3.7059038  17.5290903
H    -0.6388551000000002  7.7278737  11.762027400000001
H    -2.4999229  1.8925922000000004  12.9909106
H    -3.4242784  1.0083405000000005  11.7368192
H    -1.3017992  7.094949700000001  14.312241
H    -2.6189772  5.8984196  14.4159708
H    -2.8414455  7.408233200000001  13.5077162
H    0.1332939999999998  7.7856968  9.3742824
H    0.3051008999999998  6.2569842  8.4696329
H    1.4473856  6.666073900000001  9.7497903
H    -4.6235593  1.0304776000000002  14.1942211
H    -6.2895354999999995  5.5161648  15.4606651
H    -5.2351897  5.1509657  13.233842600000001
H    -4.7077239  -1.0422197999999998  16.6879221
H    -5.9314026  -1.1142689999999993  15.5332715
