70

C    -2.662  1.363  16.067
C    -4.6663433  1.2415776000000003  14.742827199999999
C    -2.9347996  2.7736736000000004  12.681579099999999
C    -3.3842046  2.066774  14.9128531
C    -2.4967206  3.1601179000000004  10.270618899999999
C    -3.2438203  2.2224578  9.272921799999999
C    -1.1382252  3.7107997  9.7942042
C    -0.45210740000000005  4.473694  10.908939299999998
C    0.6795250999999998  3.9406771000000003  11.521286199999999
C    -0.9321247000000001  5.7034641  11.358678399999999
C    1.3155813000000003  4.5978564  12.5637349
C    -0.3011157  6.3590235  12.4069609
C    0.8159116999999996  5.8070521  13.017481199999999
C    -3.7463078000000003  2.9185747  7.990344499999999
C    -6.2012162  3.2837524  7.836468899999999
C    -6.8544014  2.3023359  8.830207399999999
C    -4.6885468  5.8172682  6.430143399999999
C    -3.5169473  5.9285134  5.698773299999999
C    -3.5828269  6.3022522  4.377968899999999
C    -4.8299944  6.5557796  3.779351899999999
C    -5.9980443  6.4382398  4.551532899999999
C    -5.926391300000001  6.07499  5.872922999999999
C    -7.0375482  2.9496042  10.1991599
C    -8.2186855  1.8268812000000003  8.3300466
C    -4.481689  0.06328829999999996  15.7114856
N    -2.2936804000000004  2.4701784  11.5430771
N    -4.8905586  3.7583491  8.273541
N    -4.9187675  6.9090443  2.4828953999999994
O    -2.5690790000000003  1.9697256  13.732125799999999
O    -3.7685981  3.6562371000000002  12.798455399999998
O    -2.5069732  1.0727481  8.927334799999999
O    -3.2038763  5.6156476  8.4642501
O    -5.5673415  6.0890597  8.8597518
O    -3.0985487000000003  0.02152799999999999  16.0210634
S    -4.5783849  5.372952  8.089637
H    -2.9487189000000003  1.8293037  17.0178661
H    -1.5804738  1.3713412000000003  15.9468596
H    -4.7386523  0.8988735000000001  13.711783599999999
H    -5.5518841000000005  1.8267468  14.9763485
H    -3.5775221  3.1248776  15.106502499999998
H    -3.1692765  4.0005398  10.4731677
H    -4.1159893  1.8418491000000001  9.815184899999998
H    -1.3287208000000001  4.3890536  8.962659799999999
H    -0.4953133000000003  2.8911845  9.474234099999999
H    1.0721158000000002  2.9946203000000002  11.178018199999999
H    -1.8018747000000002  6.135589100000001  10.882046299999999
H    2.1896057  4.1626118000000005  13.022745699999998
H    -0.6906203  7.3065028000000005  12.7495148
H    1.2946734999999996  6.3251100000000005  13.8342253
H    -4.0228568000000005  2.1364156000000003  7.277386199999999
H    -2.9533706  3.5343677000000002  7.566691199999999
H    -6.8281198  4.1747301  7.779497399999999
H    -6.1273716  2.8296709  6.842955799999999
H    -6.195854199999999  1.4338925000000002  8.9317403
H    -2.5777027  5.747935200000001  6.1934958999999985
H    -2.6820631  6.4059411  3.7948572999999994
H    -6.9531756  6.649523  4.097511599999999
H    -6.8049428  6.0200281  6.493811699999998
H    -7.468956  2.2409224  10.900880999999998
H    -7.6956218  3.8126393000000003  10.1227474
H    -6.0867376  3.3011317  10.5992485
H    -8.1332435  1.3524597000000003  7.355533899999999
H    -8.9024528  2.6679115  8.247443299999999
H    -8.6347687  1.1089953000000001  9.029700499999999
H    -4.7465468  -0.9012141999999996  15.2819054
H    -5.0579892  0.22803070000000014  16.631551599999998
H    -1.6627402  1.6811367000000002  11.5504903
H    -4.0871019  7.0359574  1.9358015999999987
H    -5.8111031  7.1317896  2.0820086999999994
H    -1.7461324  1.328068  8.3850532
