68

C    10.051  45.214  62.59
C    10.110458  43.4196547  65.8603983
C    8.7041738  45.309882  62.363113
C    11.4514999  43.3163897  66.0991953
C    8.2441938  44.154208  64.4307557
C    11.9346134  44.4677455  64.0239016
C    9.6259763  44.049081  64.6933076
C    10.5504406  44.5868236  63.7574861
C    7.808237  44.7703648  63.2955899
C    12.3629868  43.8437336  65.1668365
C    5.7768756  40.8751293  54.7278927
C    4.8418611  40.1073101  55.3506752
C    7.1165797  40.4531632  54.7267032
C    7.4654175  39.2762972  55.3400641
C    5.1895368  38.8787038  56.0086559
C    7.0677418  42.3162352  60.403111700000004
C    7.9690271  39.750614  58.6189326
C    4.2815794  41.9354339  59.8534164
C    4.7344722  41.8187987  61.3010419
C    9.0870228  37.3682658  55.5016687
C    5.3286285  41.3482065  58.91531
C    9.485025499999999  39.5638143  56.6517076
C    6.8844896  37.2527134  56.6528042
C    8.9932041  37.6290281  57.9932746
C    8.9126751  38.8787858  55.3932099
C    6.0188558  42.629552000000004  61.4943427
C    8.3777777  36.9239046  56.7760764
C    7.7122395  41.2448604  58.3414029
N    6.5459838  38.5148641  55.9829391
N    6.6883237  41.721796  59.2601861
N    8.8093132  39.0605481  57.8267035
N    5.7907563  44.054484  61.6209025
O    4.3712292999999995  38.1459697  56.5865314
O    8.2451055  42.6232014  60.5924642
O    7.4114372  39.2270582  59.5834694
O    5.4087818  44.2271663  64.1247375
O    5.697317399999999  46.2376263  62.7620436
S    6.0758043  44.8669477  63.0135393
Cl    14.0541301  43.6734414  65.5109924
H    10.7518394  45.6190187  61.8776044
H    9.3986234  43.0183327  66.5642169
H    8.3079348  45.7902863  61.4845271
H    11.8233407  42.8346847  66.9887322
H    7.5193395  43.751279  65.1205413
H    12.6438586  44.8690824  63.3178975
H    5.4980893  41.795077400000004  54.2389303
H    3.797624  40.3731711  55.3836797
H    7.8719833999999995  41.0368828  54.2302823
H    4.1173974  42.9877002  59.6158338
H    3.3440909999999997  41.4028365  59.7003523
H    4.9443145  40.7751115  61.5391897
H    3.975252  42.1920947  61.9875082
H    10.1458169  37.1161387  55.5453708
H    8.6496662  36.8748487  54.6334834
H    5.1393661  41.6726325  57.8866803
H    5.2632663  40.2530942  58.9401296
H    9.378949  40.6432747  56.5813324
H    10.5482476  39.3214041  56.7417253
H    6.4140232  37.2915668  57.6412197
H    6.3693679  36.4618806  56.0965271
H    10.0605273  37.410444  58.064744
H    8.4976072  37.3261949  58.9162974
H    9.4259149  39.2695342  54.5140808
H    6.4931623  42.3502009  62.442515900000004
H    8.4674228  35.8455611  56.9172776
H    7.3675616  41.4037197  57.3184291
H    8.6232723  41.8134651  58.5427699
H    5.4985798  44.588913500000004  60.8239531
