43

C    -9.476  1.163  3.115
N    -11.464621600000001  1.3145164999999999  1.7723324000000005
O    -8.8402831  1.4927777  4.114880800000001
C    -10.590630200000001  2.0565807  2.6165090000000006
N    -9.194224100000001  0.03990299999999991  2.4214909000000002
N    -14.7523505  -0.6386265  1.5324258000000004
N    -13.581093800000001  2.3755971999999996  4.687083100000001
Br    -16.3527233  -4.0924376  -1.9228397
Br    -13.360071000000001  6.3505928  8.0495888
C    -13.6327551  -3.057003  -1.5273067999999999
C    -11.341659100000001  5.4673724  6.0887476000000005
C    -12.701574800000001  -2.2695117000000002  -0.8751470999999995
C    -10.878087500000001  4.6476616  5.0716121
C    -13.591022800000001  -0.017381400000000102  1.8037511000000004
C    -12.7119645  1.7874553999999998  3.8382068000000005
C    -15.442097100000002  -2.2777998  -0.09561429999999937
C    -13.439270800000001  4.2734117000000005  6.201353500000001
C    -9.862014400000001  -0.5097611  1.2452799000000006
C    -11.2292628  0.1308342  1.0125562000000004
C    -14.9698235  -3.0488989  -1.1215274999999996
C    -12.6123019  5.2762451  6.6377988000000006
C    -12.5572794  -0.5378638  1.0702359000000004
C    -11.5659214  2.5261248  3.6860376000000006
C    -14.513840900000002  -1.5034851000000002  0.5379941000000006
C    -12.965836500000002  3.4586744  5.2004492
C    -13.137848400000001  -1.4804225  0.18787370000000037
C    -11.6864012  3.6133732  4.5961523
H    -10.086340700000001  2.9226663999999998  2.1447116000000004
H    -8.425283400000001  -0.5008639000000001  2.7932582000000004
H    -15.654604  -0.4156789000000001  1.9164404000000004
H    -14.441438900000001  1.979137  5.026891200000001
H    -13.3393005  -3.6799990000000005  -2.3581861999999996
H    -10.713279400000001  6.258015  6.4684474000000005
H    -11.6698435  -2.2742398  -1.1864408999999996
H    -9.8869184  4.7985519  4.6720145
H    -13.672517200000001  0.9048623  2.3156940000000006
H    -12.759922900000001  0.7352958999999999  3.6887404000000004
H    -16.4811397  -2.2808985  0.18998790000000065
H    -14.4136392  4.1167052  6.636633100000001
H    -9.964249800000001  -1.5881720000000001  1.3939906000000004
H    -9.220008900000002  -0.3381354000000001  0.3783631000000005
H    -11.166100100000001  0.4100248999999999  -0.07187759999999965
H    -12.0407126  1.9504344  1.2372217000000005
