33

N    34.216  23.457  28.697
O    32.4011062  24.1543607  29.9174142
C    33.6074792  24.137878100000002  29.747878800000002
N    34.436356100000005  24.8056671  30.599959300000002
C    35.8152714  24.877658000000004  30.504435700000002
O    36.42992580000001  25.528349400000003  31.3333926
C    36.3909913  24.159077500000002  29.396436700000002
C    35.5836437  23.496070900000003  28.5434905
C    33.328016100000006  22.7882938  27.7494263
O    33.28823920000001  21.387746200000002  27.9570136
C    32.222140200000005  20.772366200000004  27.233676
C    32.2291693  19.2952237  27.6597605
O    33.261048800000005  18.565833500000004  27.048053
C    32.4438625  20.9591871  25.714372400000002
O    31.422607300000003  20.389848500000003  24.930074700000002
C    32.6347316  22.453248900000002  25.3724276
O    33.044715000000004  22.596357100000002  24.0357619
C    33.716307300000004  23.0722212  26.2847807
O    33.876865300000006  24.4589597  26.112648800000002
H    33.989963200000005  25.304946400000002  31.3630591
H    37.4581528  24.182911600000004  29.274648900000003
H    35.972211200000004  22.937399100000004  27.7088377
H    32.331517500000004  23.217623300000003  27.945116600000002
H    31.270098000000004  21.235676700000003  27.5335517
H    31.301545200000003  18.823508500000003  27.3310409
H    32.2956458  19.256192100000003  28.750873900000002
H    34.107063800000006  18.846930300000004  27.4247067
H    33.3521086  20.4173982  25.428407500000002
H    30.560387400000003  20.7371738  25.2019199
H    31.686748300000005  22.9941764  25.535728
H    32.53644130000001  21.9788013  23.487436600000002
H    34.6580603  22.5509251  26.0536797
H    33.985236  24.6362406  25.1653318
