18

C    -5.729  2.501  16.062
N    -5.3350728  -0.2983003000000002  16.0448112
O    -7.4336875  0.7233407999999999  16.9183727
S    -6.0077177  0.9688160999999998  16.908116800000002
C    -6.1659804  3.6573408  16.687411
O    -5.3304958  0.9967374999999998  18.1829691
C    -5.9772587999999995  4.8744423  16.046529200000002
O    -3.9284353  -0.2231394  16.0725593
C    -5.3652182999999996  4.9139102  14.799971900000001
C    -4.9372761999999994  3.7445829999999996  14.1890867
C    -5.1185008  2.5220379  14.8224448
H    -5.6523084  -0.3343798000000002  15.0833186
H    -6.6343361  3.5786023  17.654614900000002
H    -6.3076441  5.7845783  16.5203006
H    -3.6146104  -0.9351257  16.6616134
H    -5.2206921  5.8614704  14.306138500000001
H    -4.4596830999999995  3.7801346  13.2234051
H    -4.7602309  1.6151290999999999  14.366151
