75

N    -10.118  15.739  35.041
C    -9.8594641  15.5365023  33.736507499999995
C    -9.2522843  16.5602405  32.9935474
C    -8.985996  16.3770857  31.663407199999998
C    -9.3313904  15.1770121  31.071112099999997
C    -9.921136  14.1428601  31.7728166
C    -10.1855232  14.3200004  33.109514499999996
S    -8.9470255  14.9697282  29.416972199999996
O    -7.7598055  15.7431443  29.145758599999997
O    -8.7868923  13.5576606  29.173484699999996
N    -10.2006906  15.560036  28.501731299999996
C    -11.4913618  14.9525663  28.791905299999996
C    -12.3587649  14.7497999  27.539303699999998
C    -11.5551602  14.1298068  26.398917599999997
C    -13.5373039  13.8387996  27.879730999999996
C    -10.2085247  17.0042341  28.395960399999996
C    -9.9562707  17.4197064  26.941010499999997
O    -10.2571131  18.7797932  26.735939999999996
C    -8.5086957  17.1590695  26.478195599999996
N    -8.467369699999999  17.3724707  25.039434999999997
C    -8.3443532  16.4264623  24.104960199999997
O    -8.242125  15.2292473  24.310958
O    -8.3439334  16.9413131  22.839607799999996
C    -7.9434651  16.0761735  21.775840999999996
C    -8.9234217  16.3052162  20.634947399999998
O    -8.394928499999999  17.4054905  19.8847988
C    -7.0764534  17.6975781  20.276472599999998
O    -6.9799519  18.8948566  21.0306373
C    -6.1101455  18.7307917  22.158134399999998
C    -5.6781790999999995  17.2558174  22.191722
C    -6.6068233  16.5681759  21.195987799999997
C    -7.483826199999999  18.1083438  27.109568699999997
C    -5.466932099999999  18.6606948  25.700201699999997
C    -4.2034967  18.3580784  25.216328599999997
C    -3.5777820999999994  17.184309  25.600338799999996
C    -4.2157932  16.3174301  26.475422499999997
C    -5.4732315  16.6242811  26.9657098
C    -6.1110635  17.7994692  26.578607199999997
H    -9.8326011  16.5934401  35.483152
H    -10.5041117  15.0014301  35.6016221
H    -8.9869407  17.4837387  33.4825848
H    -8.4821164  17.1258539  31.0762181
H    -10.1293751  13.217432800000001  31.262759399999997
H    -10.6363028  13.529990699999999  33.688097
H    -12.032234299999999  15.527823399999999  29.550821499999998
H    -11.2551227  13.9673186  29.201589799999997
H    -12.7397879  15.7223468  27.2137118
H    -12.181860499999999  14.0086715  25.5191408
H    -11.183232  13.1506985  26.697522199999998
H    -10.6878971  14.7281537  26.132751499999998
H    -14.1172285  14.2470496  28.703426099999998
H    -13.1771263  12.8534016  28.164312199999998
H    -14.1877864  13.732376200000001  27.016631299999997
H    -9.4271268  17.4232884  29.028159199999997
H    -11.1745542  17.3955574  28.7250235
H    -10.6027615  16.8026787  26.299945299999997
H    -11.1968064  18.9409642  26.897234799999996
H    -8.2543044  16.116019  26.678575199999997
H    -8.6274739  18.3215693  24.729678099999997
H    -7.915128  15.0486688  22.145739399999997
H    -9.9141514  16.5783459  20.998241399999998
H    -8.9852252  15.4358088  19.973309399999998
H    -6.4896033  17.8209991  19.354396699999995
H    -6.6710211  19.0117656  23.051539499999997
H    -5.2615488  19.4071566  22.029825099999996
H    -5.7660847  16.8322493  23.191269
H    -4.6460334  17.1510342  21.862086599999998
H    -6.1280148  15.7589102  20.648189099999996
H    -7.4856314  17.9420931  28.1861087
H    -7.774536599999999  19.1357322  26.89446
H    -5.9470284  19.5817574  25.405727999999996
H    -3.7102312  19.0380935  24.539045599999998
H    -2.594861  16.9439718  25.224497299999996
H    -3.7307631  15.4024058  26.782112799999997
H    -5.9693757  15.9620809  27.661278499999998
