156

N    -28.689  -2.1879999999999997  13.626000000000001
C    -27.222332899999998  -2.0089496000000002  13.8115346
C    -26.915609  -1.8518322999999999  15.3252205
O    -27.689956  -2.3220083000000002  16.1518059
C    -26.700636799999998  -0.8694170000000003  12.9469601
N    -25.766187  -1.2544046  15.6597478
C    -25.1133067  -1.4883116999999997  16.9493075
C    -25.6629771  -0.6520123  18.124889
O    -25.669683499999998  0.5719199000000001  18.0860958
C    -23.594276699999998  -1.2176038  16.8338618
C    -22.9726276  -2.1136754  15.7509037
C    -22.9204144  -1.4768324999999995  18.1791384
C    -21.5511208  -1.7239345999999998  15.3587342
N    -26.1032415  -1.3496467999999995  19.1882348
C    -26.6074566  -0.7068824999999999  20.4006835
C    -25.4340883  -0.31093999999999955  21.3052046
O    -24.4621653  -1.0419177  21.4385964
C    -27.553986799999997  -1.6417373  21.2033197
C    -28.8912406  -1.8027065000000002  20.4676981
C    -27.7746805  -1.1317871999999998  22.6365077
C    -29.712518699999997  -2.9843941000000003  20.9694696
N    -25.5439132  0.8735084  21.9302189
C    -24.580268399999998  1.3091421000000003  22.9271348
C    -23.1436957  1.4303429000000003  22.404070400000002
O    -22.1889324  1.0819612000000003  23.0854651
N    -23.0216274  1.9997543000000002  21.191573
C    -21.757648399999997  2.0714337  20.465177
C    -20.8796596  3.2438569  20.9207162
O    -19.6678668  3.2153179  20.7518293
C    -22.0557253  2.1674697000000003  18.9546289
C    -20.8708553  2.2362996  17.9735696
C    -19.882597599999997  1.0915104000000002  18.1743875
C    -21.403608199999997  2.2407766000000002  16.5328412
N    -21.528828299999997  4.2645974  21.5116666
C    -20.8971329  5.5308311  21.8377623
C    -21.364531  6.0646789000000005  23.1985106
O    -21.711023599999997  7.2288645  23.336070499999998
C    -21.2069413  6.6038178  20.7830513
C    -20.600985599999998  6.3484041  19.4131918
S    -18.8385766  6.858367  19.3675365
C    -18.590338099999997  6.9824737  17.5721067
N    -21.368765  5.1907461  24.2166131
C    -21.7688089  5.5941965  25.5508563
C    -20.6124095  6.1257336  26.411523
O    -20.8378655  6.710732  27.4632951
C    -22.462620299999998  4.4506254  26.3240688
C    -23.5782472  3.8215997  25.4913855
C    -21.4489324  3.3977955  26.7634615
N    -19.3696508  5.87009  25.9684372
C    -18.189325399999998  6.271255200000001  26.6982653
C    -17.5674128  7.6037137999999995  26.2738017
O    -16.6566732  8.0937253  26.9340509
N    -18.0621914  8.1734915  25.162396700000002
C    -17.563097799999998  9.441553599999999  24.6492109
C    -17.988969599999997  9.7807478  23.2119998
O    -18.5692056  8.9868533  22.4888258
N    -17.6713631  11.031146  22.8261602
C    -17.926953899999997  11.5341343  21.492575
C    -16.6789787  12.0376384  20.7366888
O    -16.761056699999997  12.255717  19.5294568
C    -18.985595099999998  12.666007  21.5023812
C    -20.3764257  12.110715500000001  21.8191595
C    -18.5854894  13.7619521  22.4853616
N    -15.567727199999998  12.2869524  21.4488964
C    -14.403286199999998  12.9733243  20.8819496
C    -13.649401899999999  12.1972352  19.7311524
O    -13.383226399999998  12.8317907  18.6946599
C    -13.3719489  13.3303094  21.9744992
C    -12.2264337  14.1412198  21.368497
C    -13.996543499999998  14.1206015  23.1219551
O    -13.304378199999999  11.0164662  19.9167492
H    -28.9090766  -2.7948058  12.8299047
H    -29.1506378  -1.2784870999999995  13.4985622
H    -29.0480686  -2.6099217  14.5030889
H    -26.7258942  -2.9447653999999996  13.531076
H    -25.6176361  -0.8888359000000001  12.8862803
H    -27.010865199999998  0.09646899999999992  13.335776899999999
H    -27.0724262  -0.9737929000000003  11.931332
H    -25.2487155  -0.7097641999999995  14.9869693
H    -25.275365299999997  -2.5456166  17.1930768
H    -23.470240999999998  -0.16302349999999954  16.5674902
H    -23.584190399999997  -2.0881384999999995  14.8486671
H    -22.9691439  -3.1427807000000003  16.1163365
H    -23.337089199999998  -0.8644186999999999  18.9758767
H    -21.8576579  -1.2680656  18.1194957
H    -23.0378834  -2.5192528000000003  18.4699152
H    -21.193906899999998  -2.3788910999999997  14.568319299999999
H    -20.8648112  -1.8112120999999997  16.1963698
H    -21.5136805  -0.6995659999999999  14.9952831
H    -25.964755999999998  -2.3476609  19.2332663
H    -27.1425338  0.19356669999999987  20.0818847
H    -27.0588124  -2.6167651000000003  21.2683272
H    -28.688886999999998  -1.9452492999999995  19.4035587
H    -29.4701089  -0.8843810999999997  20.5778983
H    -26.8417444  -1.1135636  23.193337200000002
H    -28.4548617  -1.7997670999999995  23.1554365
H    -28.2101288  -0.1363525000000001  22.630422
H    -30.6086143  -3.0969223999999995  20.3651474
H    -30.0208941  -2.8453022  22.0019053
H    -29.138196399999998  -3.905754  20.905419600000002
H    -26.377819  1.4265370000000002  21.8084242
H    -24.537553799999998  0.5957523  23.7567347
H    -24.892785  2.2793277  23.3118865
H    -23.8604722  2.1678182  20.6520572
H    -21.182208499999998  1.1641678  20.6840172
H    -22.6677741  3.0601132  18.7960771
H    -22.6624715  1.2974079  18.695362
H    -20.3273007  3.1722805000000003  18.1489416
H    -19.1276187  1.1075732  17.3920465
H    -20.3881995  0.1310916999999998  18.1497267
H    -19.3739061  1.1979647  19.1298056
H    -22.1235331  3.0423648  16.3917715
H    -21.8815933  1.2908663000000002  16.3161829
H    -20.5825146  2.3854501  15.8363934
H    -22.5389914  4.2506116  21.5147772
H    -19.8143647  5.3572728000000005  21.8643204
H    -20.8320419  7.5555149  21.1647278
H    -22.291374899999997  6.690051  20.6885649
H    -21.111309  6.948851100000001  18.6617187
H    -20.6507173  5.2939811  19.1393803
H    -17.565057699999997  7.3108585999999995  17.4357662
H    -19.272160999999997  7.7211883  17.1615678
H    -18.738363999999997  6.0090614  17.1151405
H    -21.0891737  4.2323252  24.0638903
H    -22.4646996  6.4333652  25.4306793
H    -22.888760899999998  4.9140579  27.218677
H    -24.1911925  3.1876489  26.1248037
H    -23.152594299999997  3.2076518  24.70195
H    -24.205338599999997  4.5930107  25.0533795
H    -20.6926003  3.8337451000000002  27.4105819
H    -20.9605715  2.9349089  25.908593500000002
H    -21.9558203  2.6126217  27.3186759
H    -19.243087799999998  5.4093024  25.0797745
H    -17.4181468  5.5033544  26.6165333
H    -18.463719899999997  6.3813129  27.751977
H    -18.812865499999997  7.7503156  24.6341628
H    -16.468096099999997  9.4152211  24.6909867
H    -17.8964191  10.249468799999999  25.3120758
H    -17.2509964  11.6674495  23.4860892
H    -18.316759899999997  10.6916647  20.9097679
H    -18.9888417  13.0782924  20.4880064
H    -21.101460099999997  12.9188932  21.8307039
H    -20.379216399999997  11.6205684  22.7898921
H    -20.672244499999998  11.3815226  21.0702593
H    -17.5597657  14.0770501  22.3063475
H    -18.6863024  13.4180354  23.5113541
H    -19.2333584  14.6248525  22.3552385
H    -15.423608299999998  11.811931099999999  22.3271161
H    -14.778084799999998  13.8849082  20.3980633
H    -12.967792  12.3805379  22.3470576
H    -11.466881099999998  14.3373839  22.1205674
H    -12.6005004  15.085962  20.9804891
H    -11.771058599999998  13.6003543  20.5414375
H    -14.773416699999999  13.5533131  23.6253835
H    -14.431398499999998  15.0410229  22.7393204
H    -13.229056099999998  14.3732337  23.8481441
