45

C    5.568  8.367  23.618
Cl    -4.8887705  -1.454329099999999  23.077971899999998
C    4.284229  7.628704600000002  23.5267971
Cl    0.9178941999999999  6.572397900000001  21.8794069
C    3.3463502999999997  7.684885900000001  22.5113718
Cl    3.4066134  8.6498378  21.0728388
C    2.3057581  6.807129200000001  22.8555675
C    2.6138225999999998  6.226945500000001  24.078282799999997
N    3.8290697  6.749295700000001  24.449171999999997
C    1.9257129  5.2252325000000015  24.915461699999998
O    2.44991  4.865281600000001  25.9739026
N    0.7446844999999999  4.724826700000001  24.503258199999998
C    0.060295899999999875  3.6664832000000014  25.2473046
C    -1.3855194000000002  3.5240738000000014  24.762344199999998
C    -2.0480355  2.260605400000001  25.3173218
N    -1.2272338  1.0812010000000012  25.0661907
C    0.09640499999999988  1.1685959000000012  25.653376299999998
C    0.8240164999999999  2.3538719000000015  25.033250499999998
C    -1.8173455  -0.14769299999999852  24.9955735
C    -1.3115621000000002  -1.2698151999999991  25.684756999999998
C    -1.9632839  -2.4862380999999987  25.5871598
C    -3.093185  -2.5859287999999987  24.766522799999997
C    -3.4926600000000003  -1.4317691999999989  24.1157917
N    -2.9043022  -0.26384779999999886  24.2223264
C    -1.4236971  -3.6635345999999984  26.352698399999998
O    -0.21329280000000012  -3.8316660999999987  26.4696015
N    -2.3011485  -4.510324099999998  26.9035664
H    6.0839266  8.122561600000001  24.5405971
H    5.3838911  9.438444400000002  23.583075299999997
H    6.2043292999999995  8.1115685  22.7735086
H    4.2852805  6.484182300000001  25.311493799999997
H    0.3746542999999999  4.996148400000001  23.603984999999998
H    0.09697889999999987  3.935115800000001  26.308551599999998
H    -1.3764297  3.458780700000001  23.672941599999998
H    -1.9717519000000001  4.393538500000002  25.054427399999998
H    -3.0141527  2.1028218000000014  24.841038599999997
H    -2.1911111  2.368027500000001  26.4013772
H    0.6571546999999999  0.26518480000000144  25.420231599999997
H    0.04132669999999988  1.2906774000000012  26.7439406
H    1.8188271999999999  2.446344000000001  25.4687156
H    0.9273516999999999  2.1830478000000015  23.9605423
H    -0.4550044000000001  -1.2076811999999988  26.3333351
H    -3.6269215  -3.5094933999999984  24.625359699999997
H    -1.9440442  -5.300561299999999  27.416188499999997
H    -3.2940458  -4.366503699999999  26.832710799999997
