15

O    -24.227  -24.942  -31.527
C    -25.271334  -25.4736511  -31.1010104
O    -25.8236535  -26.4876598  -31.5683019
C    -25.9592089  -24.8279874  -29.8739244
C    -25.3503845  -23.5416245  -29.3602997
C    -26.380340699999998  -22.6541937  -28.6693778
C    -24.197844099999998  -23.8863039  -28.4098709
O    -26.9277865  -25.3704575  -29.3715146
H    -24.923793699999997  -23.0390552  -30.2353733
H    -26.812174799999998  -23.1846583  -27.823908799999998
H    -25.907272  -21.7409915  -28.3199509
H    -27.182399999999998  -22.4016106  -29.3585825
H    -23.7197478  -22.9704369  -28.0750585
H    -24.573753  -24.4358162  -27.5497294
H    -23.4667629  -24.5012634  -28.9306025
