28

C    -1.3689999999999998  39.78399999999999  38.34
C    -2.2003255999999998  40.99658829999999  37.9841374
O    -1.6321066999999996  42.0861871  37.865087100000004
O    -5.5654732  41.011467399999994  39.8804017
P    -6.0451223999999995  41.6833171  38.6003443
O    -6.6804907  43.066774099999996  38.6836763
C    -4.5516377  41.7178828  37.5102062
C    -4.042094499999999  43.078065599999995  37.1617708
C    -4.0127220999999995  43.04332469999999  35.6811826
C    -4.2923518  41.84428449999999  35.0236544
C    -4.4601766  41.810785599999996  33.6642174
C    -4.238144699999999  42.960187  32.9369961
C    -3.8666161999999997  44.131367899999994  33.5696242
C    -3.7761764999999996  44.18490189999999  34.9461785
N    -3.5068502999999995  40.75407859999999  37.7692531
H    -1.9654944999999997  38.878198899999994  38.3667344
H    -0.9189777999999995  39.956562399999996  39.3144289
H    -0.5720349999999996  39.691904799999996  37.6067121
O    -7.0088978  40.7573447  37.8624808
H    -5.1939892  41.3452546  36.7162653
H    -3.0915336  43.315309299999996  37.6231473
H    -4.781651699999999  43.8152803  37.5034492
H    -4.223225599999999  40.8735277  35.4760778
H    -4.7029935  40.881412299999994  33.1717163
H    -4.347196899999999  42.949474699999996  31.861864100000002
H    -3.6665160999999995  45.016028899999995  32.9830698
H    -3.5365306999999997  45.1036484  35.459878100000005
H    -3.8861801  39.88810889999999  38.129205
