56

C    3.404  46.117  14.506999999999998
C    4.3259495999999995  44.8974795  14.318985499999998
O    3.6041688  43.6842829  14.4632917
C    3.0606408  43.4430447  15.765533599999998
C    2.7948600999999997  44.7470359  16.536193599999997
N    2.3899418999999997  45.765228  15.534191799999999
C    1.5047567999999998  46.858075  16.001051699999998
C    1.9416352  47.4675696  17.3294136
C    0.7462524999999998  47.8019119  18.2277347
O    -0.046882900000000116  48.8182722  17.605416299999998
C    -0.5786044000000001  49.8521802  18.3027357
C    -1.2358593  50.8390642  17.499177399999997
C    -1.8135773000000002  51.9309301  18.092042399999997
O    -1.2818138000000001  50.6339271  16.156850199999997
C    -2.3534105000000003  51.243715  15.439467099999998
C    -0.5607469000000002  50.0051581  19.6709659
C    -1.1548814000000003  51.1270994  20.2746213
C    -1.7933806  52.0980959  19.480437499999997
N    -2.3928958000000002  53.1885375  20.0148324
C    -2.3358499000000004  53.3256562  21.3100681
N    -1.7648210000000002  52.4730362  22.161418599999998
C    -1.1888048000000002  51.3846199  21.668073399999997
N    -0.5885025000000002  50.4961748  22.5073533
C    -0.8286489000000001  50.3427155  23.857234799999997
C    -2.1138614000000002  50.5064584  24.380385399999998
C    -2.3326507000000003  50.32703  25.732658599999997
Cl    -3.8947561  50.5192189  26.4995987
C    -1.2714204000000002  49.9735632  26.5471759
F    -1.5378191  49.8148385  27.870550899999998
C    0.000952699999999862  49.77648  26.0385755
C    0.2210534999999999  49.9490572  24.6861163
H    2.8914534  46.3720047  13.582519299999998
H    3.99444  46.9709959  14.843242299999998
H    5.1602726  44.9247011  15.029278599999998
H    4.732956  44.8718494  13.309329499999997
H    3.7483899000000003  42.8080179  16.3366874
H    2.1406631999999997  42.882669899999996  15.586730499999998
H    3.6977933  45.0751426  17.0525694
H    1.9903214  44.598648499999996  17.2526114
H    1.7430699  45.2018257  14.958291499999998
H    0.5018875999999999  46.4494967  16.134385299999998
H    1.4495330999999998  47.6231831  15.228689999999999
H    2.510909  48.3830378  17.1684257
H    2.5638549  46.7798225  17.895502299999997
H    1.1280643  48.1474701  19.189855599999998
H    0.10866939999999986  46.926603  18.3894788
H    -2.31354  52.6891762  17.5143328
H    -2.3765808  50.7348315  14.479294099999997
H    -2.1694602  52.3080113  15.281650899999999
H    -3.2999321  51.106161  15.962722099999997
H    -0.13665130000000014  49.2388297  20.296727899999997
H    -2.7940469  54.202026000000004  21.7470574
H    0.2201854999999998  50.0115681  22.147089199999996
H    -2.9245731  50.8001764  23.7360649
H    0.7955269999999999  49.4918166  26.7086394
H    1.209652  49.8005725  24.2853133
