37

O    -8.878  36.468  10.283
C    -9.370121300000001  35.91780320000001  11.2968544
C    -9.0659824  34.456225100000005  11.5568937
C    -9.70951  33.82136020000001  12.6119786
C    -9.4766438  32.486132500000004  12.8795626
C    -8.1793783  33.718957  10.7804134
C    -7.9355991  32.38436730000001  11.0464505
C    -8.5896609  31.738735500000004  12.0960536
N    -8.3984176  30.371806600000006  12.375596999999999
C    -7.8671093  29.410709300000004  11.5438819
N    -7.023786100000001  29.773595900000004  10.5681734
C    -6.5098803  28.853866900000003  9.7494499
N    -5.6268087  29.241874600000006  8.7343127
C    -5.2613806  30.577595000000006  8.4378301
C    -6.2455754  31.496365400000006  8.0773793
C    -5.93039  32.82068410000001  7.821680799999999
C    -4.6172078  33.26411230000001  7.9137113
C    -3.6173058  32.3690647  8.2418994
C    -3.9226649  31.024192900000006  8.4938467
C    -2.8644035  30.140720800000004  8.8309473
N    -1.9966129000000006  29.436470100000005  9.0982184
C    -6.8652942  27.500885900000004  9.9359684
C    -7.7286577  27.210527900000006  10.977697299999999
N    -8.2306019  28.140340000000005  11.788192
O    -10.1218435  36.497866300000005  12.1217989
H    -10.3942541  34.40224430000001  13.2128968
H    -9.9936728  32.01049940000001  13.700913
H    -7.6777255  34.2215769  9.965421599999999
H    -7.2356033  31.835614100000004  10.4420082
H    -9.0058998  29.986178000000006  13.0869512
H    -4.9524014  28.531399200000006  8.4848692
H    -7.2693654  31.161505900000005  8.0215131
H    -6.7161422  33.51042400000001  7.5547014
H    -4.3791692  34.2991456  7.7302526
H    -2.5885747000000006  32.68872580000001  8.3076093
H    -6.4767951  26.725681200000004  9.297714299999999
H    -8.0437061  26.198464700000006  11.1846439
