48

C    28.637  14.551  28.356
C    28.7247513  15.5413604  27.205945600000003
N    29.4674966  16.7363754  27.660834
C    28.7070285  17.4412591  28.7114894
C    28.5933409  16.5308452  29.924029300000004
C    27.9486334  15.1867557  29.564248000000003
C    28.0672668  14.2647727  30.7801742
N    27.2834531  13.0687434  30.647741200000002
C    25.9228172  12.978366300000001  30.7933431
C    24.9574919  13.9177964  31.066295500000003
C    27.7259947  11.8080386  30.3899119
N    29.0300548  11.5471853  30.155626700000003
N    26.7518799  10.917565  30.352184900000005
C    25.605214  11.6123536  30.606873600000004
C    24.2766946  11.2066871  30.716936200000003
C    23.3074352  12.146729500000001  31.0107041
C    23.6278232  13.501401  31.192049000000004
C    22.6008429  14.535646100000001  31.4677402
O    22.7702269  15.692216  31.082703800000004
C    21.3693716  14.1661911  32.2361979
C    20.1318853  14.714651  31.893287100000002
C    18.9930868  14.382980400000001  32.6085665
C    19.0826731  13.5235995  33.6941074
C    20.3113572  12.9932861  34.056357600000005
C    21.447802199999998  13.308598400000001  33.332499600000006
H    29.6405497  14.226084  28.634908400000004
H    28.0850937  13.667324500000001  28.039048100000002
H    27.7278617  15.846123  26.886683200000004
H    29.2394943  15.0869061  26.359526200000005
H    29.6392424  17.3654212  26.868858300000003
H    30.3776205  16.4438877  28.038717400000003
H    27.7173129  17.6877321  28.325845200000003
H    29.216423  18.3651233  28.984634500000002
H    28.0012407  17.0270461  30.691665300000004
H    29.5862513  16.3525785  30.341268200000002
H    26.8888151  15.3377757  29.340466700000004
H    27.712951  14.793937  31.671778400000004
H    29.1106997  13.9917064  30.940245400000002
H    25.183548299999998  14.964217  31.210910300000002
H    29.2454753  10.564137  30.101099
H    29.7109454  12.1053712  30.645285100000002
H    24.0112046  10.1714245  30.572013000000002
H    22.2757985  11.8376196  31.089250100000005
H    20.0781994  15.3893688  31.051114200000004
H    18.0402209  14.8008062  32.3228894
H    18.1967336  13.2680751  34.2547404
H    20.3848304  12.332481300000001  34.906429700000004
H    22.4040496  12.8953497  33.618076200000004
