142

C    12.657  16.742  33.966
C    14.1834044  21.582943  33.7094698
C    15.164923  20.648382100000003  33.3466374
C    12.8373926  21.2004193  33.7477015
C    14.8002746  19.3351934  33.0185341
C    12.4747883  19.8856205  33.4237604
N    11.9725705  17.4585322  31.7164688
C    13.4496605  18.938624  33.0534438
C    13.0531176  17.502961000000003  32.7024694
C    9.5450664  17.492738300000003  24.7829983
C    13.0225016  18.443102300000003  25.2466965
O    13.2467627  16.483712  30.1303413
O    6.3744233  15.929424800000001  28.7485696
O    10.946962899999999  19.8517617  24.3275167
O    11.503605700000001  20.0759179  26.6762029
C    9.6748838  16.7255478  29.9254402
C    11.1848758  17.476996000000003  28.1605186
C    8.804324099999999  17.2376904  27.6958095
C    12.1670191  16.966944700000003  30.4685005
C    7.1747752  16.4697159  29.5089599
C    10.982795  17.0541772  29.4979296
C    8.5851159  16.8258577  29.0329753
C    10.106494900000001  17.5753823  27.2365281
N    10.329397  17.9951092  25.894454
S    11.4160483  19.1961133  25.5335177
N    6.8816428  16.7591952  30.8051315
C    5.5916002  16.436333200000004  31.3894117
C    5.7635346  15.619027300000003  32.7002885
C    7.1431641  14.968848300000001  32.8305336
C    7.6062889  14.006689200000002  31.9076861
C    8.0131566  15.330540200000002  33.8830626
C    8.8862109  13.4406846  32.0336607
C    9.2928075  14.762123500000001  34.0127391
C    9.737087500000001  13.812682200000001  33.0848406
C    4.7334998  17.712770300000003  31.6105215
O    5.5368966  18.7810135  32.0474244
C    3.8781941  18.0878322  30.3817684
C    2.8351759000000003  17.006429100000002  30.1071844
O    3.1031131  16.065970500000002  29.365167200000002
N    1.6227056000000002  17.055802200000002  30.7399438
C    0.6511080000000002  16.0029967  30.4001373
C    0.4028092000000001  16.071151800000003  28.8791403
O    0.5130929000000002  17.1491703  28.3059364
C    -0.6654996999999998  16.147302600000003  31.1698783
C    -1.7604461999999996  15.214108500000002  30.6343682
C    -1.6284752999999998  13.831607200000002  31.2496034
C    -3.1217957  15.795646600000001  30.9654152
N    0.05062180000000005  14.949705300000002  28.2079445
C    -0.18908910000000034  14.989011800000002  26.767493
C    -1.6217648000000002  14.555338200000001  26.427512
O    -2.1396385  13.683350200000001  27.1217461
C    0.7675988  14.023275300000002  26.082175
N    -2.2962176000000003  15.101228000000003  25.3770748
C    -3.6485630999999996  14.581905400000002  25.1137394
C    -4.719712100000001  15.710142100000002  25.0807356
O    -5.273601599999999  15.996788400000002  24.0195408
C    -3.6815379999999998  13.676468600000002  23.8444845
C    -2.8564711999999997  12.392816700000001  23.9911269
C    -3.3785052  11.270441800000002  24.6676169
C    -1.5546917000000002  12.286746400000002  23.4509122
C    -2.6197863999999997  10.097304100000002  24.8113119
C    -0.7921037999999996  11.115800200000002  23.5895426
C    -1.3244163999999996  10.015154900000002  24.273998300000002
C    -1.7514196999999996  16.122928400000003  24.493133
C    -6.176962400000001  20.1892634  23.7076579
O    -4.4443927  18.758240800000003  25.1991048
C    -5.642932500000001  16.7188516  28.5008336
C    -6.3693481  17.776908000000002  27.6799111
C    -4.5505373  16.1831567  27.5758353
O    -6.576575699999999  19.213879600000002  24.6823604
C    -5.6290709  18.565406000000003  25.35915
C    -6.1162548999999995  17.3941324  26.2147064
N    -5.081443  16.345147700000002  26.2289076
H    11.807211299999999  17.221175100000004  34.4454283
H    12.3932099  15.717746200000002  33.7154379
H    13.4911339  16.7348718  34.6610466
H    14.4670647  22.5934865  33.9561808
H    16.2024603  20.9395534  33.3152086
H    12.078431  21.913819500000002  34.0250817
H    15.5564243  18.621430800000002  32.7315087
H    11.4348656  19.6029197  33.463357
H    11.0938381  17.890708200000002  31.953016
H    13.9033808  17.0077585  32.223726400000004
H    9.632649  16.407676900000002  24.7233828
H    8.493110099999999  17.7673567  24.8757932
H    9.940776  17.956886  23.886088
H    12.9195895  17.752316  24.421006300000002
H    13.6976475  19.250448000000002  24.9958982
H    13.3350791  17.940782400000003  26.1499054
H    9.514729800000001  16.3554782  30.9260366
H    12.1809117  17.749876  27.8613414
H    7.9543674  17.287859800000003  27.0363814
H    7.4883687000000005  17.357267800000002  31.3430267
H    5.0812333  15.824446500000002  30.6380906
H    4.9951385  14.848183000000002  32.7310818
H    5.6310642  16.282927400000002  33.554691500000004
H    6.9721335  13.710665400000002  31.0855312
H    7.6889737  16.063427400000002  34.6057196
H    9.2127665  12.712487900000003  31.307739
H    9.926572499999999  15.060572300000002  34.8319476
H    10.7167165  13.371673900000001  33.1717135
H    4.0188257  17.455937900000002  32.4138365
H    4.9832605  19.548960200000003  32.2397391
H    4.5115177  18.157258400000003  29.4969647
H    3.3905642  19.046165700000003  30.5589787
H    1.2710607999999999  17.9233353  31.1121036
H    1.1331626  15.044765900000002  30.6213427
H    -0.9978351999999999  17.182257900000003  31.0581967
H    -0.49060279999999956  15.950873900000001  32.2265655
H    -1.7029760999999999  15.138707200000002  29.5501657
H    -0.6309091999999996  13.425300000000002  31.0988486
H    -1.8225204999999995  13.871906300000003  32.3189683
H    -2.3414311000000003  13.146647700000003  30.7966045
H    -3.2422113  15.908405200000002  32.0412085
H    -3.239025  16.772520800000002  30.5029648
H    -3.9100697999999996  15.143215900000001  30.5997483
H    0.0013722000000000456  14.048689700000002  28.6567927
H    0.004444600000000243  16.019318300000002  26.4592696
H    1.7898673999999999  14.256426100000002  26.3709789
H    0.5339149999999999  13.002178300000002  26.3773498
H    0.6790560999999999  14.096013200000002  25.0020374
H    -3.8765541  13.938752800000001  25.973557
H    -3.3231561999999997  14.248784300000002  22.9888894
H    -4.7252659999999995  13.418238900000002  23.6645907
H    -4.371677999999999  11.317776000000002  25.0866372
H    -1.1380757  13.128889700000002  22.9185285
H    -3.0394581  9.254281700000002  25.3363128
H    0.1994552999999999  11.070505400000002  23.169363699999998
H    -0.7468579999999996  9.112243600000003  24.3878524
H    -1.4683374999999996  17.010194400000003  25.0605291
H    -0.8842347000000004  15.748591900000001  23.9502205
H    -2.5261902000000003  16.4076936  23.7856944
H    -5.6786411999999995  21.025869500000002  24.19791
H    -5.493759900000001  19.7305412  22.9923781
H    -7.097957900000001  20.504556200000003  23.229214900000002
H    -6.328235899999999  15.910870400000002  28.7564987
H    -5.229919300000001  17.126052100000003  29.4176141
H    -5.942729699999999  18.7627813  27.8715464
H    -7.433045699999999  17.8135006  27.893814
H    -4.3009647  15.140146300000001  27.7715678
H    -3.6324235  16.7766105  27.6706194
H    -7.013084299999999  16.995180100000002  25.7271659
