14

C    8.555  -0.9929999999999999  9.021
N    9.5499402  -1.4477047  8.218896700000002
N    10.6643637  -1.1165528  8.721892500000001
N    10.4915704  -0.44318919999999995  9.851785000000001
C    9.171482699999999  -0.3225923999999999  10.105023400000002
C    8.443587599999999  0.2756069000000001  11.115478900000001
C    7.0795042  0.16210960000000008  10.9986045
Cl    6.103893899999999  0.8776882000000001  12.218085100000001
C    6.4272217  -0.4905133999999999  9.9453045
C    7.1635254999999995  -1.0771674  8.9448117
Cl    6.394535899999999  -1.8919588999999999  7.639561800000001
H    11.282115999999998  -0.10179559999999993  10.379016300000002
H    8.9026706  0.7888713  11.942173700000001
H    5.3515751  -0.5322262999999999  9.9264179
