45

C    23.050000000000004  13.59  14.99
O    21.706637500000003  14.037119100000002  15.0335891
C    20.834412800000003  13.2263281  14.3501224
C    20.6536815  11.888071900000002  14.6373374
C    20.129387500000004  13.8576437  13.3203993
O    20.3738783  15.193420500000002  13.2044724
C    20.283153900000002  15.775670400000001  11.920012400000001
C    19.2629644  13.105256100000002  12.5519924
C    19.0876842  11.7653136  12.844041500000001
C    19.757438800000003  11.143875000000001  13.8855293
C    19.4689371  9.734164800000002  14.2574634
C    19.110567600000003  8.844883800000002  13.068332100000001
N    18.586620300000003  7.578860000000001  13.542038300000002
C    17.281415600000003  7.471363100000001  13.830390000000001
O    16.494819800000002  8.392033600000001  13.6053122
C    16.801697800000003  6.209576500000001  14.4479289
C    15.448684400000001  6.130803200000001  14.766018800000001
C    14.948809100000002  5.013654600000001  15.4120817
C    17.6373065  5.139695400000001  14.7580576
C    17.136929400000003  4.020047800000001  15.4068394
C    15.795296300000002  3.9698511000000014  15.731744
S    15.157181200000002  2.600559500000001  16.6662308
O    15.724042700000002  2.693039100000001  18.000678
O    13.709756200000001  2.6284724000000015  16.5664016
N    15.724901800000001  1.2243162000000014  15.958668300000001
H    23.635589300000003  14.3650035  15.479921200000001
H    23.386093000000002  13.473079300000002  13.9556228
H    23.180634  12.644495500000001  15.522395600000001
H    21.200971600000003  11.433805800000002  15.448264
H    20.744619800000002  16.756453800000003  12.0118585
H    19.240794700000002  15.893637100000001  11.6076376
H    20.819496500000003  15.1783598  11.177918300000002
H    18.720853100000003  13.553013500000002  11.7343437
H    18.377295600000004  11.219972300000002  12.2464676
H    18.6113837  9.733224400000001  14.939979300000001
H    20.318487100000002  9.307895700000001  14.7943285
H    19.979987700000002  8.6626095  12.4379334
H    18.313283100000003  9.293382800000002  12.4781555
H    19.243788600000002  6.877278400000002  13.8387878
H    14.810832100000002  6.963840500000001  14.5143497
H    13.906269000000002  4.9314426000000005  15.6754735
H    18.6856444  5.150001400000001  14.510581
H    17.774550100000003  3.1919451000000008  15.665686
H    16.1152225  0.5748236000000011  16.623499000000002
H    15.038261900000002  0.8030325000000014  15.354431400000001
