47

C    4.572  -5.006  -16.765
C    3.2270887000000004  -4.5432983  -16.2357552
O    3.376253  -3.204237  -15.7595141
C    2.2358058000000005  -2.5302391  -15.443968
C    1.0129401000000002  -2.7901545  -16.0477681
C    2.3135597000000003  -1.5077594  -14.478249700000001
F    3.5227384000000006  -1.2632996  -13.8892033
C    1.2266868000000004  -0.7525769000000001  -14.0980062
C    0.001969400000000343  -1.0254987  -14.7039185
N    -1.2336228999999996  -0.4720868000000001  -14.542658000000001
C    -0.08107899999999968  -2.0381434  -15.6802972
N    -1.3776052999999995  -2.0668899  -16.0944361
C    -2.0304754999999997  -1.1082507000000001  -15.3813355
C    -3.4021965999999995  -0.8099349000000001  -15.527526
N    -4.3245927  -1.4243322  -16.305486600000002
N    -5.5034582  -0.8482975  -16.1886762
C    -5.3807528  0.15985449999999995  -15.338581000000001
C    -4.069516699999999  0.2331265999999999  -14.8872134
N    -3.4514631  1.103197  -14.0391448
C    -3.8552058  2.3948846  -13.8237748
O    -4.873357599999999  2.870286  -14.3270114
N    -3.0627296999999993  3.0906119  -12.980047200000001
C    -1.8459177999999996  2.5581675  -12.392144000000002
C    -0.6166332999999996  2.932732  -13.216670400000002
C    -3.3947511999999995  4.478668  -12.6981645
C    -2.9504525999999993  5.4145368  -13.8192891
H    4.885624900000001  -4.3653722  -17.5841949
H    5.323037500000001  -4.954096  -15.9814144
H    4.4919826  -6.0293541  -17.117081
H    2.8783052000000002  -5.1763373  -15.411726600000001
H    2.5055516000000004  -4.585882  -17.0550821
H    0.9042104000000004  -3.5561117  -16.7950308
H    1.3326991000000006  0.013859499999999941  -13.3491639
H    -1.7606171999999995  -2.6740962  -16.7990597
H    -4.237061199999999  -2.2428891  -16.886402
H    -6.2094124  0.7927135999999999  -15.101214
H    -2.4719891999999994  0.8440551999999999  -13.908115400000002
H    -1.9175430999999996  1.4798548  -12.264986400000002
H    -1.7537400999999995  2.9946175  -11.3933991
H    -0.7280855999999996  2.5968244  -14.24444
H    -0.4563530999999996  4.0053563  -13.210308000000001
H    0.26427440000000035  2.4559238  -12.7945062
H    -2.9285097999999996  4.7571048  -11.753642900000001
H    -4.4820690999999995  4.5436344  -12.596863800000001
H    -1.8749250999999996  5.3918565  -13.9584066
H    -3.4317354999999994  5.11635  -14.747981500000002
H    -3.2517623999999996  6.4322407  -13.5860406
