48

C    10.671  0.6659999999999999  15.062
C    9.7456856  0.7608228999999997  14.0258472
C    9.0393557  -0.35931080000000026  13.5861596
C    8.0433191  -0.29774210000000023  12.4621935
C    9.2949909  -1.5639630000000002  14.2385763
C    10.2118656  -1.6604775000000003  15.2740166
C    10.9370048  -0.5385149  15.696915599999999
O    11.8819594  -0.6509465000000003  16.6994924
C    12.6506314  0.5366497999999997  16.9920929
C    13.8729733  0.32421509999999976  17.9004965
C    14.6465821  1.6307106999999998  18.1666258
C    15.298056299999999  2.2268633999999996  16.9179112
O    14.2789179  3.0006033999999997  16.2829576
C    14.4493332  3.4212039  15.0046793
C    13.319038299999999  3.9718589  14.397975599999999
C    15.6470463  3.3552926  14.2950486
C    15.7044097  3.8246029  12.9920295
C    14.5853538  4.3634565  12.383641899999999
C    13.388570999999999  4.4099708  13.0882908
S    11.9841338  5.132161  12.258608299999999
C    10.6147888  4.0952227  12.6792862
N    9.4311157  4.667370999999999  12.540281
C    10.7712905  2.7881443999999997  13.1112836
C    9.6067141  2.1082549999999998  13.4658652
N    8.414036  2.6830640999999997  13.3739115
C    8.3591871  3.9325742  12.887732699999999
N    7.154554999999999  4.5072579  12.7933494
H    11.1517608  1.5780067  15.3740648
H    7.6083925  -1.2762570000000002  12.2863095
H    8.5253343  0.04709029999999981  11.5486474
H    7.2569728  0.4114994999999999  12.7073292
H    8.764638399999999  -2.4529855000000005  13.9348762
H    10.3928267  -2.6058743  15.7611466
H    11.986098  1.2730854999999999  17.4623464
H    13.007955899999999  0.9473941999999997  16.0414651
H    14.5346956  -0.4080425000000001  17.4347313
H    13.5356218  -0.08793870000000004  18.852017699999998
H    15.4234932  1.4114224999999998  18.8974424
H    13.975189  2.380394  18.584915799999997
H    15.653899299999999  1.4393884999999997  16.24581
H    16.1325832  2.8818064  17.1911229
H    12.404082599999999  4.0407138  14.966296499999999
H    16.5327804  2.9449927999999996  14.750880299999999
H    16.6364062  3.7770162  12.4516235
H    14.618383099999999  4.72551  11.3694674
H    11.7368005  2.3146625999999997  13.1575876
H    7.0881925  5.4437622  12.4407087
H    6.3442091  3.9788135  13.0604209
