39

C    -24.282  27.86  12.508000000000001
C    -25.4776689  28.353779  12.0154115
C    -24.2744566  26.9912757  13.5862876
C    -31.1849372  27.321678300000002  21.1780094
C    -26.668651099999998  27.9752576  12.59918
C    -25.4596321  26.6192053  14.186990300000001
C    -31.7301986  26.0684078  21.3894896
C    -30.5374145  27.6176264  19.9938518
C    -30.9608819  25.379179  19.2374858
C    -26.652994800000002  27.1163385  13.6898522
C    -31.6147447  25.092985900000002  20.4139938
C    -30.4270027  26.6407583  19.0129083
C    -29.5513732  26.3347834  15.5350678
C    -29.9394856  26.0538648  14.255223200000001
C    -27.9078031  26.7319021  14.2862895
C    -31.179989  25.5538827  13.6221323
C    -32.1853018  23.7209171  20.6196176
C    -30.3185299  26.162031900000002  16.779351300000002
N    -28.2500979  26.7474715  15.537559400000001
O    -28.881424  26.3227  13.453446800000002
O    -31.6188882  23.1787707  21.7964019
O    -29.8156297  26.9605901  17.8300433
H    -23.3503023  28.1513744  12.047705
H    -25.47911  29.0297462  11.174159200000002
H    -23.3379238  26.6065099  13.960221500000001
H    -31.2714379  28.080651500000002  21.939986700000002
H    -27.6114743  28.3449266  12.225131300000001
H    -25.4743025  25.953960300000002  15.035388800000002
H    -32.2407412  25.8426069  22.312693000000003
H    -30.1111791  28.5903944  19.808517600000002
H    -30.8760041  24.570617300000002  18.5349082
H    -31.0291216  25.503705500000002  12.5483659
H    -32.0146066  26.2183991  13.8382401
H    -31.4300605  24.563137  13.996651400000001
H    -31.9589559  23.0828913  19.755761200000002
H    -33.2782924  23.7926456  20.7254313
H    -30.216071  25.0963334  17.012467700000002
H    -31.3821534  26.3829029  16.6126229
H    -31.9943654  22.303251500000002  21.961748200000002
