91

C    3.6850000000000005  -1.1559999999999997  35.447
C    2.3807482  -1.2083072000000001  36.2762758
C    1.3531560000000002  -0.19522679999999992  35.7299967
C    1.9313356000000006  1.2280380000000002  35.822823
C    3.2197865000000006  1.3042408000000003  34.985865100000005
C    4.2457753  0.28539860000000017  35.519207900000005
C    3.332300600000001  -1.4539049999999998  33.9666385
C    1.0263426000000004  -0.5198305999999997  34.2622675
C    2.901609100000001  0.9853284000000002  33.516378700000004
C    2.31409  -0.4336968999999997  33.4266213
C    4.732940300000001  -2.2281022999999998  35.888052200000004
C    4.9867089  -2.5020584999999995  37.3940138
C    5.7190137000000005  -1.3984050999999997  37.9986454
C    6.3140878  -0.4580993999999996  38.4472503
C    7.0045956  0.7272922000000004  38.9284039
C    6.688536  1.9786550000000003  38.058692900000004
C    7.7599535  3.0987914  38.2219104
C    5.272860400000001  2.4335668000000004  38.446015100000004
O    5.7336691  -3.7135954  37.517698800000005
C    7.6703197  4.3838817  37.327278500000006
C    9.0934499  4.9760177  37.5651187
C    10.0209176  3.773804  37.3912417
C    9.213821600000001  2.5973556  37.974899300000004
C    6.6677216  5.4576497  37.807724
C    6.8767467  6.8223669000000005  37.1269885
C    8.3339127  7.313829500000001  37.2027287
C    9.3141809  6.2444799  36.76538
C    7.4296234000000005  4.0214714  35.846479800000004
C    10.246019500000001  6.3685928  35.805176700000004
C    10.5526596  7.5369694  34.9898329
C    11.130073  7.5660748  33.7758891
C    11.3650176  8.8849278  33.0757624
C    12.7128563  8.9853743  32.3271516
C    12.8964777  7.795223  31.411723000000002
C    12.820220800000001  6.4754906000000005  32.1538466
C    11.504336  6.3512865000000005  32.960709200000004
C    13.089494  7.900229700000001  30.103345100000002
O    12.9572708  5.3759129  31.276658
O    13.7790777  9.057089000000001  33.2681849
H    2.5980192000000004  -0.9626687999999994  37.317357300000005
H    1.9603696000000008  -2.2151591999999996  36.237783400000005
H    0.4395859  -0.25825489999999984  36.3298568
H    2.1525856  1.4708649000000003  36.863500800000004
H    1.2022209000000004  1.9491343000000003  35.449917400000004
H    3.6455468000000004  2.3099431000000004  35.0592546
H    5.161162600000001  0.3471382000000003  34.927176700000004
H    4.4960627  0.5167010000000003  36.5526811
H    2.9122933  -2.4584443  33.885231100000006
H    4.2429752  -1.4192633999999993  33.365565200000006
H    0.28774680000000075  0.1885855000000003  33.8829748
H    0.6046793000000008  -1.523765  34.1889716
H    3.8117615000000002  1.0469353000000003  32.9176662
H    2.1844159000000003  1.7085081000000002  33.1240181
H    2.089093  -0.6710277999999996  32.3818293
H    5.6939910000000005  -1.9807340999999994  35.4328355
H    4.418675400000001  -3.1920935999999998  35.478157800000005
H    4.0213004  -2.6286987999999996  37.9107434
H    8.0751527  0.5136812000000002  38.9118435
H    6.7150717  0.9244874000000003  39.9632956
H    6.6839541  1.6581524000000003  37.0125399
H    7.6955742  3.441533  39.262038100000005
H    4.6222269  1.5672317000000002  38.538132100000006
H    4.850067000000001  3.0966968  37.6970602
H    5.289167300000001  2.9545747  39.4006812
H    5.978973  -3.8326553  38.4442132
H    9.13028  5.2679393  38.622039400000006
H    10.9689132  3.9179614000000003  37.9074991
H    10.2328172  3.5988917000000002  36.337591100000004
H    9.208178  1.7591083000000003  37.277347600000006
H    9.6585962  2.2526906  38.9076869
H    6.7845997  5.580881400000001  38.8873431
H    5.643165100000001  5.1361537  37.6202227
H    6.2256014  7.558143100000001  37.6000281
H    6.587534400000001  6.7459794  36.077376400000006
H    8.5618086  7.5778563000000005  38.2400779
H    8.4388336  8.2109033  36.593964500000006
H    8.0352733  3.1699330000000003  35.554758500000005
H    7.6904798  4.8615858  35.2083121
H    6.3830513  3.7723909000000004  35.690294800000004
H    10.848886100000001  5.4972613  35.585024000000004
H    10.2704713  8.4904044  35.419899300000004
H    11.3131864  9.703192900000001  33.7942553
H    10.5812424  9.03264  32.326316600000006
H    12.697404800000001  9.910775600000001  31.730603700000003
H    13.670371500000002  6.414604300000001  32.842508300000006
H    10.698124100000001  6.184460700000001  32.235503200000004
H    11.5700699  5.4635163  33.588450800000004
H    13.132061700000001  8.8597967  29.617429
H    13.237575  7.0332957  29.483840700000002
H    12.1664505  5.324878200000001  30.7216868
H    14.6063974  9.2078624  32.7941258
