52

O    -16.4  50.87899999999999  -48.457
P    -15.601253499999999  50.4667457  -49.6924956
O    -14.4347436  51.41031759999999  -49.9866187
O    -16.5048364  50.290224599999995  -50.919845900000006
C    -14.853676899999998  48.799107799999994  -49.3295303
P    -13.897918699999998  48.930233099999995  -47.732238100000004
O    -14.9258402  48.90468249999999  -46.5983657
O    -13.016838499999999  47.657871699999994  -47.6843321
O    -13.051826499999999  50.18636839999999  -47.7617862
C    -13.985689699999998  48.3536843  -50.500693500000004
N    -13.908568399999998  46.91475739999999  -50.565878100000006
C    -12.898514399999998  46.15821019999999  -50.139582100000005
C    -15.007644399999998  46.115719399999996  -50.6707909
C    -14.6488193  44.87424839999999  -50.257049
N    -13.333740599999999  44.922855299999995  -49.9158355
C    -12.581046399999998  43.859786299999996  -49.2800644
C    -11.862343  44.33651809999999  -48.0200411
C    -12.783461999999998  44.43692289999999  -46.804594900000005
C    -12.012992699999998  43.97449379999999  -45.576700100000004
C    -12.895887599999998  43.85538079999999  -44.351162200000005
C    -12.084674999999999  43.3431746  -43.1704993
C    -13.003004399999998  43.095654399999994  -41.9808831
C    -13.385509899999999  41.620447999999996  -41.833237000000004
C    -12.672943899999998  41.030814799999995  -40.6212584
C    -13.071024199999998  41.7894976  -39.356177
H    -15.698778099999998  48.11769759999999  -49.1488546
H    -12.9972985  48.79172609999999  -50.340009900000005
H    -14.430094299999999  48.772954999999996  -51.4135122
H    -11.923502299999999  46.547779999999996  -49.9316643
H    -15.945681899999999  46.515221499999996  -50.9982478
H    -15.2297383  43.977714299999995  -50.1904902
H    -11.844071699999999  43.494135699999994  -50.0015611
H    -13.2803832  43.060187299999996  -49.039083600000005
H    -11.3974847  45.30701079999999  -48.1823684
H    -11.0736247  43.61338839999999  -47.806999000000005
H    -13.6611324  43.799585799999996  -46.9337661
H    -13.1411705  45.4641446  -46.6867649
H    -11.206236399999998  44.6843806  -45.378574900000004
H    -11.5702021  42.99760969999999  -45.78533
H    -13.7194419  43.168799299999996  -44.561588
H    -13.331463499999998  44.832674899999994  -44.1228639
H    -11.330783599999998  44.095807099999995  -42.925959500000005
H    -11.559941299999998  42.429907299999996  -43.4512021
H    -13.894136699999999  43.71564049999999  -42.0996696
H    -12.503640299999999  43.444114299999995  -41.082042
H    -13.1250793  41.0714085  -42.737802800000004
H    -14.463645199999998  41.523754  -41.6900423
H    -11.5933085  41.08822429999999  -40.765462500000005
H    -12.9479344  39.980336599999994  -40.5125686
H    -12.779058799999998  41.224252899999996  -38.4730261
H    -14.148212399999998  41.931367099999996  -39.3282783
H    -12.5983361  42.76314789999999  -39.2871236
