28

C    -16.689  -7.105999999999999  61.40800000000001
C    -17.5010873  -6.022597699999999  61.32119600000001
C    -17.2474998  -7.003713899999999  63.523175900000005
C    -17.402322  -8.5534246  65.3693324
C    -17.3691362  -10.4942315  69.88382490000001
C    -17.8817984  -11.6295547  68.99920630000001
C    -16.8001856  -9.4288037  68.94636790000001
C    -18.1796657  -11.0019092  67.6452728
C    -17.226437  -9.8115238  67.5224798
C    -17.8714267  -8.631543299999999  66.7937337
N    -16.5535298  -7.646201999999999  62.6499311
N    -17.3875161  -7.2697989  64.86574370000001
O    -17.068686  -9.5212393  64.72006590000001
S    -18.1496341  -5.6445986999999995  62.86927870000001
H    -16.1528495  -7.557945499999999  60.595459700000006
H    -17.7460392  -5.4283167  60.466401000000005
H    -16.6262245  -10.851995599999999  70.5952639
H    -18.1978509  -10.0770938  70.4586797
H    -18.7562064  -12.1181184  69.4260938
H    -17.1014674  -12.386161699999999  68.8874141
H    -15.713318  -9.3909042  69.01587310000001
H    -17.1782879  -8.4465249  69.2247114
H    -19.2146441  -10.6536146  67.63159
H    -18.0552881  -11.702917  66.82200970000001
H    -16.3482671  -10.123764399999999  66.95121320000001
H    -18.9581343  -8.7340808  66.7801482
H    -17.6303254  -7.693624999999999  67.295091
H    -17.815770099999998  -6.534760199999999  65.4127193
