46

C    17.952  7.952  55.887
C    19.052165400000003  8.5789309  56.451644800000004
C    17.889496700000002  6.5700522999999995  55.8192996
C    24.239057100000004  5.8681632  55.489035200000004
C    22.897229100000004  6.1195045  55.6857173
C    20.098973  7.8248812999999995  56.9521088
C    18.931412500000004  5.8097549  56.3194609
C    24.476229800000002  4.635766599999999  57.5531163
C    17.083243300000003  1.9922907999999997  61.1470273
C    25.023498300000004  5.1487434  56.394491
C    23.1330771  4.8735029999999995  57.7691197
C    22.361790900000003  5.6132842  56.8504759
C    20.032251900000002  6.4378446  56.8855618
C    17.561848400000002  2.4226219999999996  62.3692304
C    18.997829900000003  2.8795700999999996  60.759172400000004
C    21.1600442  4.9660287  58.5626121
C    17.131899100000002  2.4201285999999995  63.7036882
C    17.949824500000002  2.9857909999999994  64.6346708
C    19.1909762  3.5459391999999994  64.2062118
C    26.475924100000004  4.9306712  56.1121841
C    20.226614100000003  3.3839074999999994  60.126246
C    20.001103200000003  4.7387947  59.452339
N    17.9736444  2.2809535999999997  60.176215
N    22.347018700000003  4.4908231999999995  58.8168672
N    19.619235000000003  3.5619335999999997  62.9835998
N    21.098045100000004  5.6587207  57.3842536
N    18.802523500000003  2.998855099999999  62.087525
H    17.140440400000003  8.5463053  55.4960516
H    19.097173500000004  9.6556453  56.5003072
H    17.034105200000003  6.084659499999999  55.3765716
H    24.7107582  6.245724399999999  54.592562900000004
H    22.3077031  6.682455099999999  54.9792583
H    20.966608900000004  8.2951675  57.3896383
H    18.901540600000004  4.73154  56.2696929
H    25.062377700000003  4.073190899999999  58.2606396
H    16.1612997  1.4952835999999996  60.924441800000004
H    16.179961500000005  1.9789340999999996  63.9534435
H    17.691095400000002  3.0258034999999994  65.6784544
H    19.8549232  4.0049214  64.9225009
H    26.7667566  5.385277499999999  55.1688521
H    26.697826600000003  3.8654948999999994  56.066193
H    27.084802300000003  5.360354899999999  56.9062281
H    20.555392500000004  2.6712196999999995  59.369292200000004
H    21.008864000000003  3.4787628999999995  60.8770306
H    19.0761314  4.7318983999999995  58.8731947
H    19.930908000000002  5.5301886  60.2018799
