53

Cl    41.46  21.445  3.2059999999999995
C    40.3505862  20.1346271  3.4640967
C    40.0664149  19.3690016  2.3336086
C    39.1823912  18.3044175  2.4123197
C    38.5815939  18.020924100000002  3.6285337999999996
F    37.7136276  16.9770683  3.6883964
C    39.7719644  19.8650218  4.7276758
C    38.8574996  18.7821703  4.7754784
Cl    38.0285521  18.2985663  6.232916599999999
C    40.1233582  20.7322956  5.9681558
C    38.8601171  21.381301200000003  6.5653476
O    40.7880136  20.0297091  7.0531942
C    42.0679162  19.471029400000003  6.9539455
C    42.9975153  19.7751638  5.9733509
C    42.4772662  18.521315  7.9526953
N    41.6381067  18.155306500000002  8.9695656
N    43.681125800000004  17.940994800000002  7.9042943999999995
C    44.542893  18.2442193  6.926641999999999
C    44.2791442  19.170633600000002  5.9164324
C    45.214979  19.5310156  4.8244666
C    46.6140677  19.3083196  4.6755008
C    44.8903161  20.210465000000003  3.6549346999999996
N    46.0168306  20.3533161  2.9247496999999996
N    47.0640373  19.804201000000003  3.5379574
C    46.0814918  21.001818  1.6211392999999998
C    45.8365186  19.9851373  0.48955269999999995
C    45.8474433  20.688630800000002  -0.8682574000000001
N    47.120153  21.424307900000002  -1.0749328
C    47.3929639  22.4027287  0.008879199999999976
C    47.4201056  21.7117031  1.3744685999999997
H    40.5358594  19.6117396  1.3950782
H    38.9520066  17.6988892  1.5521558999999998
H    40.7932252  21.531422300000003  5.627661499999999
H    39.1606862  22.130964900000002  7.2920064
H    38.2458754  20.64302  7.0637358
H    38.2916818  21.853591100000003  5.7707790999999995
H    42.7453149  20.5042242  5.2214462
H    42.0599237  17.6688034  9.740825399999999
H    40.857237500000004  18.762702100000002  9.1507884
H    45.479808  17.706890700000002  6.9734095
H    47.281953200000004  18.818882900000002  5.3565743999999995
H    43.9512428  20.5852827  3.3044706999999995
H    45.2712109  21.739637000000002  1.6216477999999999
H    44.8743177  19.4963254  0.6321860999999998
H    46.6099337  19.217544  0.5349758999999996
H    45.0259155  21.4054229  -0.9117592999999999
H    45.7197158  19.956131000000003  -1.6638990000000007
H    47.09999  21.9055737  -1.9800878000000006
H    47.8896208  20.7424259  -1.0933429000000006
H    46.6058203  23.1579145  -0.0017393000000005543
H    48.350157  22.8879498  -0.17501489999999986
H    48.2240662  20.9789065  1.4347369999999997
H    47.5958357  22.454654700000003  2.1498470999999997
