138

N    -2.3279999999999994  -23.561  -41.11
C    -3.4856374999999993  -23.096488700000002  -41.893150199999994
C    -4.730640599999999  -23.9012771  -41.5076926
O    -4.622444999999999  -25.0396188  -41.063851299999996
N    -5.896875299999999  -23.2810492  -41.6819613
C    -7.143512199999999  -23.9366686  -41.3465588
C    -8.307962099999997  -22.954420400000004  -41.3044174
O    -8.340395699999998  -21.9616322  -42.021828299999996
N    -9.301272399999998  -23.292254800000002  -40.47429459999999
C    -10.525713199999998  -22.5192437  -40.3887734
C    -10.325984799999999  -21.246910800000002  -39.5508144
O    -9.5368772  -21.218675  -38.6143413
C    -11.617994999999999  -23.356809900000002  -39.7183031
C    -11.908491499999998  -24.676716900000002  -40.433338799999994
C    -12.802909699999999  -25.579522700000002  -39.5869521
N    -14.060820199999998  -24.9308592  -39.2447952
C    -15.007953899999999  -25.497909  -38.503358399999996
N    -14.842238199999999  -26.723849700000002  -38.0220688
N    -16.125295299999998  -24.8299321  -38.229839399999996
N    -11.081777499999998  -20.1991775  -39.9021597
C    -11.123771199999998  -18.9873154  -39.1041216
C    -12.5575421  -18.7771703  -38.6004776
O    -13.5143572  -18.964734500000002  -39.3524143
C    -10.666130899999999  -17.770095700000002  -39.9219747
C    -10.932007299999999  -16.450033100000002  -39.2003287
C    -10.3641268  -15.246136800000002  -39.942426
N    -8.958685599999999  -15.056406400000002  -39.6205721
C    -8.292286899999999  -13.927470000000001  -39.83554959999999
N    -8.891671799999997  -12.887578600000001  -40.4037568
N    -7.008389399999999  -13.841051700000001  -39.4988952
N    -12.704435299999998  -18.407787000000003  -37.3240936
C    -14.022830399999998  -18.082218700000002  -36.7805263
C    -14.680979899999999  -16.9624956  -37.5837024
O    -14.019012899999998  -16.0274694  -38.013196099999995
C    -13.722143599999999  -17.588157300000002  -35.358626199999996
C    -12.427950099999999  -18.2994565  -34.996379399999995
C    -11.6592521  -18.3262152  -36.3080443
N    -16.007187  -17.0560127  -37.753471499999996
C    -16.765965299999998  -16.0080715  -38.3976373
C    -17.5652206  -15.188598600000002  -37.3808326
O    -18.1316687  -14.151103700000002  -37.702592499999994
C    -17.693497999999998  -16.574142700000003  -39.4931795
C    -18.6272181  -17.648237100000003  -38.9985432
C    -19.8728673  -17.3230258  -38.476797
C    -18.2727592  -18.9928814  -39.065705599999994
C    -20.739784699999998  -18.303229  -38.030639099999995
C    -19.130496  -19.982080800000002  -38.6211249
C    -20.3742359  -19.6411234  -38.0982127
O    -21.2046019  -20.628451400000003  -37.664325299999994
N    -17.6343574  -15.714195400000001  -36.148303899999995
C    -18.381290399999997  -15.0884516  -35.074852299999996
C    -17.4847702  -14.135230700000001  -34.275538899999994
O    -16.325989399999997  -14.440963200000002  -34.00202779999999
C    -18.970951799999998  -16.1642638  -34.139248099999996
C    -20.0231372  -16.984346000000002  -34.890884799999995
C    -19.5706535  -15.527775100000001  -32.8894265
C    -20.4984397  -18.211317700000002  -34.1237437
N    -18.0400593  -12.9727162  -33.9299061
C    -17.3318075  -11.961536300000002  -33.170727299999996
C    -18.1136989  -11.619581600000002  -31.866326799999996
O    -17.4578846  -11.258664300000001  -30.874488799999995
C    -17.160723299999997  -10.703959400000002  -34.034827099999994
C    -16.3313971  -9.581748100000002  -33.4009261
C    -14.905810699999998  -10.041054  -33.110158199999994
C    -16.318707  -8.360670100000002  -34.319548299999994
O    -19.3536315  -11.726762800000001  -31.888358599999997
H    -1.438175499999998  -23.3776408  -41.583627
H    -2.450053499999999  -24.582032700000003  -40.9794212
H    -2.3099409999999985  -23.131826  -40.177284699999994
H    -3.3078914999999984  -23.272313500000003  -42.9569864
H    -3.656242599999999  -22.0316018  -41.7416407
H    -5.985792899999999  -22.3753914  -42.124662199999996
H    -7.016126299999999  -24.4529317  -40.3915307
H    -7.389039899999998  -24.693349  -42.1040749
H    -9.147480199999999  -23.988522000000003  -39.7603261
H    -10.802550199999999  -22.2371984  -41.4099322
H    -12.5132243  -22.7384959  -39.6613659
H    -11.2924224  -23.5608067  -38.694607899999994
H    -10.982787499999999  -25.21291  -40.6313611
H    -12.3845204  -24.4757873  -41.394235599999995
H    -12.275739399999999  -25.8314239  -38.6611226
H    -12.9982888  -26.4993331  -40.147855199999995
H    -14.2561419  -24.044117500000002  -39.6811291
H    -15.547424799999998  -27.143070100000003  -37.440676399999994
H    -14.013915299999999  -27.256954300000004  -38.217796
H    -16.2781135  -23.9044497  -38.588932199999995
H    -16.855805099999998  -25.2479085  -37.679672
H    -11.764957999999998  -20.2650158  -40.643290699999994
H    -10.433919499999998  -19.1526217  -38.275791999999996
H    -11.216882299999998  -17.768691  -40.8654072
H    -9.606549699999999  -17.891634800000002  -40.147014799999994
H    -10.4969112  -16.4728418  -38.2013063
H    -12.007155899999999  -16.3105239  -39.0812928
H    -10.925302799999999  -14.364826200000001  -39.6206116
H    -10.495514299999998  -15.375284200000001  -41.0212851
H    -8.470776599999999  -15.846299900000002  -39.2272422
H    -8.4007431  -12.018351900000003  -40.5239282
H    -9.855564499999998  -12.9259111  -40.682603099999994
H    -6.5439688999999985  -14.595876200000001  -39.025129799999995
H    -6.501061199999999  -12.983506900000002  -39.6333907
H    -14.654182699999998  -18.976748800000003  -36.786964899999994
H    -14.5345322  -17.801864600000002  -34.668327
H    -13.574796  -16.5060843  -35.3765698
H    -12.645656399999998  -19.3142625  -34.6624607
H    -11.885555499999999  -17.7846134  -34.208092199999996
H    -11.0913367  -17.4011293  -36.4248492
H    -10.990617799999999  -19.184601100000002  -36.3627027
H    -16.5131335  -17.8929055  -37.498720799999994
H    -16.0491515  -15.3208528  -38.860709199999995
H    -17.061913599999997  -16.9767997  -40.286141199999996
H    -18.2673532  -15.735751700000002  -39.889688699999994
H    -20.168266499999998  -16.2846608  -38.417243
H    -17.314999699999998  -19.2661316  -39.4840246
H    -21.7042219  -18.0235363  -37.631701899999996
H    -18.8671991  -21.0244241  -38.6790746
H    -22.067222199999996  -20.2683219  -37.4179064
H    -16.9636203  -16.414371600000003  -35.867995099999995
H    -19.183386499999997  -14.5065079  -35.539529699999996
H    -18.1469  -16.815579300000003  -33.8284251
H    -19.5944331  -17.3041208  -35.842206
H    -20.8744421  -16.337727700000002  -35.1128693
H    -18.8263768  -14.9667705  -32.325881499999994
H    -19.9730772  -16.2921337  -32.231555099999994
H    -20.3733798  -14.838821500000002  -33.14580049999999
H    -21.0943683  -18.8455771  -34.7729036
H    -21.110103499999997  -17.931301100000002  -33.2712681
H    -19.650067099999998  -18.786909700000002  -33.764085699999995
H    -19.031596399999998  -12.807506200000002  -34.0300368
H    -16.3616031  -12.379320500000002  -32.8897975
H    -18.1634343  -10.322820200000002  -34.254115899999995
H    -16.6983255  -11.007182  -34.979744399999994
H    -16.805961399999997  -9.311458100000001  -32.449450399999996
H    -14.2970458  -9.195158000000001  -32.802127899999995
H    -14.465647999999998  -10.493294800000001  -33.9953224
H    -14.907141699999999  -10.768163300000001  -32.302242299999996
H    -17.3330922  -8.022328000000002  -34.5179045
H    -15.843947499999999  -8.610393100000001  -35.265224599999996
H    -15.770017999999999  -7.547089300000001  -33.8531887
