32

Cl    -19.019  25.29  -3.261
C    -19.160614399999996  27.0080838  -3.0524527000000004
C    -20.408013599999997  27.5684086  -2.9307740000000004
C    -20.5447872  28.9554353  -2.8270448000000004
C    -21.884041099999997  29.5581999  -2.7478321
O    -22.9080946  28.8969853  -2.6428441000000005
N    -21.952260799999998  30.956729  -2.7737975000000006
C    -20.905253499999997  31.6864315  -2.7765407000000004
C    -19.396446799999996  29.75255  -2.8345123
C    -18.140085999999997  29.1723619  -2.9339755000000003
C    -17.990462199999996  27.7955644  -3.0380247000000002
O    -16.8177356  27.1438243  -3.1296889000000006
C    -15.569936399999998  27.8564439  -3.1312068
C    -15.136736199999998  28.181171  -4.579494800000001
C    -19.5139236  31.229098  -2.7715421000000005
C    -14.499925499999998  26.8949738  -2.6130787000000004
C    -14.021743999999998  26.1688458  -3.8675588000000003
N    -14.097112099999997  27.1822154  -4.956969000000001
H    -21.299516099999998  26.9604296  -2.9383587
H    -21.0909712  32.7549607  -2.7915531000000002
H    -17.286334399999998  29.8288075  -2.9517533000000005
H    -15.645786999999997  28.7416206  -2.5011234000000004
H    -14.730954899999997  29.1885314  -4.6436648
H    -16.002395599999996  28.1035075  -5.235966400000001
H    -19.021577799999996  31.6205686  -1.8729747000000003
H    -18.990614299999997  31.6994547  -3.6114599000000003
H    -14.915597899999998  26.2100674  -1.8812746000000002
H    -13.692912899999998  27.4593768  -2.1495459000000006
H    -14.713595799999997  25.3569817  -4.0918511
H    -13.016609599999997  25.7691352  -3.767825
H    -13.189574299999997  27.6502176  -5.0516199
H    -14.310181199999997  26.7356768  -5.8535532
