99

C    12.161999999999999  24.162  4.65
N    10.397689  25.436261  5.736108000000001
O    12.4945294  25.480248399999997  4.270065000000001
Br    16.423458  16.4372148  10.8340837
C    11.0014336  24.2424507  5.6299184
N    15.4043247  22.3272025  7.3175965000000005
O    10.6021682  23.244880499999997  6.2207984000000005
C    9.2079406  25.6667824  6.544571100000001
N    15.9125428  21.636  6.2326376
O    14.1294267  20.273190399999997  6.1085506
C    9.5255663  26.531585  7.779171900000001
N    16.8213363  18.7937904  5.6595094
O    18.8706913  19.538523299999998  5.102735600000001
C    8.255174199999999  26.728930999999996  8.6051338
N    7.0472021  25.8411716  5.402724200000001
O    18.6539331  17.889911899999998  6.6188051
O    8.4874224  27.544819099999998  5.2806142000000005
C    13.3909424  23.456601  5.2585633000000005
C    13.8145146  24.1021035  6.5794493
C    15.2385821  23.7608179  6.9976767
C    16.2968983  22.1470994  8.4794934
C    16.3102954  20.74365  8.964654
C    15.247417800000001  20.5707174  5.7356223
C    16.1300605  19.751042799999997  4.808761800000001
C    15.375968  19.0666141  3.6573115000000005
C    16.4213565  18.516016399999998  2.6879306000000005
C    14.507473  17.9221248  4.1840419
C    14.5118582  20.100672599999996  2.9326654000000003
C    18.160659  18.799165499999997  5.761043600000001
C    20.0708939  17.986768599999998  6.787845600000001
C    15.1327657  20.145853199999998  9.3960173
C    15.1588423  18.859874799999996  9.9038133
C    16.3720663  18.202088599999996  10.040388400000001
C    17.5540795  18.802047699999996  9.640543300000001
C    17.5119605  20.064414199999998  9.0769607
C    11.6781137  23.328225999999997  3.4341621000000004
C    10.3380367  23.757551499999998  2.9636115000000003
C    10.1728606  24.973655599999997  2.3165973000000006
C    8.9159363  25.3797766  1.9188104000000008
C    7.809971  24.587567399999998  2.1759938000000005
C    7.9699945  23.379168899999996  2.8398643000000003
C    9.2322724  22.955441699999998  3.2066213000000006
C    6.4757968  25.0333142  1.6935074000000006
C    5.4159492  24.7661654  2.6951214000000006
C    8.212815899999999  26.4248323  5.6998141
C    10.6150921  25.8738672  8.6172485
C    5.276189  25.399595199999997  3.8533006000000003
C    6.1735826  26.444645299999998  4.395349400000001
H    10.7577084  26.2195781  5.2084352
H    13.2146649  25.451450199999996  3.6233963000000005
H    14.4741781  21.893231699999998  7.501657300000001
H    8.837511899999999  24.682727299999996  6.8476984000000005
H    16.877092  21.817729599999996  5.978031700000001
H    9.869115  27.5058041  7.417364900000001
H    16.2844585  18.112888299999998  6.173069000000001
H    8.4701322  27.336346499999998  9.480213500000001
H    7.8640351  25.770208099999998  8.9377022
H    7.4898419  27.2347856  8.0207066
H    6.846566  24.896446899999997  5.6918639
H    14.1963123  23.511302199999996  4.5249173
H    13.1255307  22.411122699999996  5.4153082
H    13.1052084  23.8203376  7.3586293000000005
H    13.7544102  25.1864188  6.462024700000001
H    15.9371853  24.017749  6.2010322
H    15.4865932  24.3557982  7.875666000000001
H    15.9368443  22.7886872  9.289086600000001
H    17.2981659  22.4763216  8.195359700000001
H    16.915483899999998  20.379454799999998  4.376172200000001
H    15.9376184  17.9802917  1.8751803000000002
H    17.094414399999998  17.8262699  3.1926556000000006
H    17.0182028  19.3180551  2.2606370000000005
H    13.833214  18.272659599999997  4.959817800000001
H    15.1179852  17.111857599999997  4.5739403
H    13.9063744  17.518209199999998  3.3727731000000003
H    15.1112772  20.9525412  2.6228106000000007
H    13.7022961  20.443966399999997  3.5706775000000004
H    14.0726716  19.653890599999997  2.0454197
H    20.3464436  17.165233699999998  7.442259900000001
H    20.330959  18.945190899999997  7.2365195
H    20.5746703  17.894607399999998  5.8254014000000005
H    14.185701  20.659662799999996  9.3439436
H    14.2495297  18.3788432  10.2272304
H    18.489182800000002  18.279176399999997  9.7577608
H    18.4337682  20.526757599999996  8.7610022
H    11.6347932  22.281162099999996  3.7346098000000003
H    12.4169421  23.433428499999998  2.6358973000000003
H    11.0256628  25.6045961  2.1223827
H    8.793495  26.323086099999998  1.4065646000000003
H    7.1085878  22.759886499999997  3.0406790000000004
H    9.3570443  22.012615099999998  3.7188840000000005
H    6.2401643  24.504929599999997  0.7647043
H    6.5116923  26.100166599999998  1.4575133000000005
H    4.6976221  23.996670299999998  2.4456775000000004
H    11.5396719  25.809205099999996  8.051512800000001
H    10.3089577  24.871068499999996  8.9055953
H    10.796853500000001  26.457013999999997  9.5157651
H    4.4640001  25.116099399999996  4.5096773
H    6.8146606  26.894114799999997  3.6329092000000003
H    5.5945512  27.248063699999996  4.8654411
