55

C    10.262  -48.012  6.214
C    11.0795158  -48.8526152  5.4767299000000005
C    9.2846575  -47.250587900000006  5.5930812
C    10.9018179  -48.9280933  4.1081911
C    11.3526848  -44.993284800000005  -0.9155088
C    12.2098129  -44.507841400000004  -1.8983741999999997
C    9.1027825  -47.310403  4.2162766000000005
C    13.210924200000001  -45.573064200000005  0.5202327000000002
C    9.9216865  -48.1679569  3.4772253
C    11.8232479  -45.5275898  0.2756415000000001
C    13.5603832  -44.557490200000004  -1.6517184
C    14.0579453  -45.071053400000004  -0.45475759999999976
C    8.0542173  -46.4861712  3.5092851
C    13.7847252  -46.1024249  1.8200257000000002
C    15.7545569  -44.264956600000005  -1.6460287999999998
C    7.9270862  -42.1228709  1.4606216
C    6.1968277  -43.564265600000006  3.4955862
C    10.9774934  -48.2061034  -0.08046249999999988
C    9.7723442  -48.2685594  1.9890488000000002
C    10.8212488  -46.098225000000006  1.2569323000000001
C    8.475222  -43.1296812  2.4602247000000004
C    7.4386852999999995  -44.1858778  2.8602100000000004
N    8.0726981  -45.1591566  3.7499534000000003
N    10.8750559  -47.596222700000006  1.2577489000000002
O    14.7996331  -45.5351659  2.2572348
O    7.2597930999999996  -46.9922796  2.7165618
O    13.1815026  -47.0607173  2.3729385
O    14.5965881  -44.1421489  -2.4531414
O    15.4321813  -44.9982356  -0.46928079999999994
H    10.3825277  -47.945823000000004  7.2845269
H    11.8416206  -49.4399455  5.9629477
H    8.6504056  -46.61099  6.189076
H    11.53374  -49.5742191  3.5193223
H    10.2911011  -44.9501088  -1.0968185
H    11.8357962  -44.1020729  -2.8224786999999996
H    16.1148661  -43.2636929  -1.3607161999999997
H    16.5329714  -44.8021292  -2.1991948
H    8.731321  -41.486767500000006  1.0996436000000003
H    7.173584  -41.487223  1.9147796000000001
H    7.4846591  -42.631263000000004  0.6075766
H    5.6576229  -42.9752291  2.7627132000000003
H    6.470996599999999  -42.9279194  4.333398900000001
H    5.5372432  -44.3509795  3.8538924000000003
H    11.1505534  -49.2725487  0.022872000000000003
H    11.808298  -47.7711217  -0.6291610999999997
H    10.0544529  -48.034546600000006  -0.630833
H    8.8191256  -47.857590200000004  1.6570437
H    9.8001735  -49.3252656  1.7200824000000001
H    9.8147045  -45.7903145  0.9677111000000002
H    11.0420769  -45.7699742  2.2728949000000003
H    8.8048301  -42.6012112  3.3580341000000002
H    9.3466168  -43.6274895  2.0298399000000003
H    7.1220661  -44.756440500000004  1.9790575000000001
H    8.7392827  -44.7965925  4.4161228
H    11.8058877  -47.7328435  1.7548161000000002
