33

C    9.729  -1.5209999999999995  1.89
C    10.034985299999999  -3.7053146999999997  0.7070762999999999
N    13.8269177  -8.020973399999999  -0.9834847000000002
C    14.355148999999999  -7.4691184999999995  0.2847054
C    14.003067999999999  -5.986430499999999  0.3719587999999999
C    14.315820899999999  -5.3727580999999995  1.7369793999999998
C    14.002731999999998  -3.8797417999999997  1.7644860999999998
N    12.6017339  -3.6700710999999995  1.4799049
C    11.854508399999999  -2.6412713999999995  1.8612965
N    12.366811899999998  -1.6384175999999995  2.5647333999999997
N    10.576608499999999  -2.6238468999999993  1.5006661
C    13.657609699999998  -8.2765078  1.4307698999999998
O    14.3930341  -8.8759167  2.2229324
O    12.415785199999998  -8.2788164  1.4039016
H    9.659802099999999  -1.4392793999999993  2.9762902999999996
H    10.090210799999998  -0.5796232999999997  1.4716339999999999
H    8.725917899999999  -1.6869127999999995  1.5095595
H    10.541058399999999  -3.7758463999999994  -0.2571420000000002
H    10.092263799999998  -4.661066699999999  1.2340816
H    8.984455699999998  -3.5091630999999994  0.5132223999999999
H    13.9932126  -7.392696399999999  -1.7795734
H    14.235620599999999  -8.939402  -1.1846235999999999
H    12.811022399999999  -8.1484673  -0.8377792000000002
H    15.430938699999999  -7.633396299999999  0.36476719999999985
H    12.931022699999998  -5.9210229  0.175446
H    14.546974399999998  -5.434758499999999  -0.39769830000000006
H    15.370960399999998  -5.5194889  1.9696664
H    13.743662099999998  -5.894889699999999  2.5072566
H    14.6151682  -3.3627024999999993  1.0177625
H    14.258190299999999  -3.4970634999999994  2.7554537999999997
H    12.130589999999998  -4.4569148  1.06686
H    13.3378626  -1.6404988999999994  2.8214682
H    11.804676699999998  -0.8565477999999995  2.8469222
