48

F    -45.769  -2.133  2.185
C    -45.8889989  -1.3613715999999998  1.0824669000000002
F    -46.60550739999999  -0.2943123000000001  1.4656691000000002
F    -46.64001089999999  -2.0285408  0.2046127000000002
O    -44.6953001  -1.0061421  0.6579301000000002
C    -44.1242635  -1.5501627999999998  -0.5147078999999999
C    -42.8102545  -1.9568724  -0.4061105999999999
C    -44.8116646  -1.6157409  -1.7114158
C    -44.152786199999994  -2.1342999  -2.8149593
C    -42.8392808  -2.5538157999999997  -2.7332985
C    -42.161896  -2.4588379  -1.5255610999999998
N    -40.8486042  -2.8628466  -1.4118563
N    -40.1329584  -3.3715789  -2.4512143
N    -38.9520875  -3.6591044999999998  -2.0445887000000003
C    -38.850797799999995  -3.3498038  -0.7236688999999998
C    -37.8130326  -3.4547014999999996  0.21026410000000018
C    -38.059322099999996  -3.0359146  1.4836167000000002
C    -40.079325299999994  -2.8251105  -0.28348779999999985
N    -40.3377494  -2.4192983  0.9672687000000002
C    -39.328346499999995  -2.5077203  1.8484925000000003
N    -39.466759599999996  -2.0902486  3.1199566
C    -40.6862249  -1.639519  3.7393553000000006
C    -41.578837099999994  -2.8334455  4.1130593
C    -42.495398099999996  -2.4378289  5.2708791
C    -40.708802199999994  -4.0312249  4.512088
C    -41.5678346  -5.2157579  4.964417
N    -42.999233499999995  -4.8492809  4.9714619
C    -43.328113599999995  -3.6339161  5.748117700000001
H    -42.2886217  -1.8728900999999998  0.5335488000000002
H    -45.823870799999995  -1.2620862  -1.8102425
H    -44.6729663  -2.1982254  -3.7563901999999993
H    -42.3257505  -2.9508395  -3.5934723999999996
H    -36.8555164  -3.8583163  -0.08172239999999986
H    -37.2819307  -3.0973216  2.2283002
H    -38.6545663  -2.1901297  3.7059742
H    -41.214622799999994  -0.9766556  3.0514281
H    -40.4107656  -1.0741911  4.629354
H    -42.163748899999995  -3.0848926  3.2238491
H    -43.1435167  -1.6225977999999999  4.9529815
H    -41.8800525  -2.066008  6.089015900000001
H    -40.047984  -3.7215974999999997  5.3211512
H    -40.0897401  -4.3348773  3.6710869000000006
H    -41.290699999999994  -5.5204626  5.974074300000001
H    -41.434377299999994  -6.0690112  4.3012363
H    -43.545218299999995  -5.635863199999999  5.3404173
H    -43.30228889999999  -4.7003542  4.0022298
H    -44.3929135  -3.4334488  5.6346188
H    -43.126396299999996  -3.8392472  6.799539800000001
