27

C    0.008000000000000007  0.44600000000000006  7.003
C    -0.394065  0.2725274  8.3320519
C    0.5355957  0.47270880000000004  9.343467100000002
C    1.8208117  0.9050571000000001  9.0611376
C    2.2339927  1.0260923  7.751191100000001
C    1.3435953  0.693871  6.759303900000001
O    -0.9203741999999999  0.2053682  5.993973500000001
C    -1.0740041  0.986175  4.877222400000001
C    -0.09780520000000001  1.5812422000000002  4.0754529
C    -0.45665600000000006  2.3314596  2.9628427000000004
C    -1.7798585  2.4959218  2.6173264000000005
C    -2.7695301  1.8994727  3.3784825000000005
C    -2.4066812  1.1600371  4.4827098
C    2.8008952  1.0608569  10.1620417
Cl    3.1937748  -0.5942787  10.7427556
Cl    -2.2037741  3.4472728  1.237375600000001
Cl    1.6160980999999999  1.5113326  4.2807174
O    -1.6310666  -0.1481713  8.6783923
H    0.2267122  0.28046650000000006  10.358259700000001
H    3.2644883  1.227726  7.5093151
H    1.7693975  0.2882483  5.875731000000001
H    0.3197338  2.7832456  2.3677843000000007
H    -3.8082461  2.0128999  3.1176808000000005
H    -3.1660994000000002  0.691095  5.0866962000000004
H    2.3980285  1.593686  11.022048900000001
H    3.7349304  1.5097607  9.832464700000001
H    -2.1592609  -0.3053264  7.8787609000000005
