55

C    11.209000000000001  21.883  13.328
N    12.486155400000001  22.065281999999996  14.0496212
C    12.6406673  21.096266299999996  15.1553155
C    13.700685300000002  22.225986999999996  13.1834399
C    13.766966200000002  21.365586999999998  11.9232762
N    13.878825  19.962642499999998  12.2887734
S    13.682240500000002  18.7746763  11.1362155
O    13.624573400000003  17.5341602  11.8833456
O    12.577269100000002  19.103727399999997  10.2605415
C    15.185720100000001  18.817842499999998  10.1874611
C    15.168236000000002  19.174252699999997  8.853588499999999
C    16.3565781  19.2083178  8.1460833
C    17.563354200000003  18.887669799999998  8.7701891
C    17.552471200000003  18.5381562  10.120951699999999
C    16.369255000000003  18.505778699999997  10.830359099999999
C    18.824385200000002  18.864512899999998  8.0307084
C    19.0201555  19.567012599999998  6.834671
N    20.128025400000002  19.496085599999997  6.1284532
C    21.1273884  18.7197881  6.5950638999999995
C    20.947374500000002  18.037748299999997  7.832444799999999
N    19.8160272  18.112237299999997  8.5155578
C    22.014471  17.1746587  8.3772421
O    23.1205977  17.0871732  7.8405904
N    21.6311882  16.497135099999998  9.4837726
C    22.4048461  15.697283099999998  10.318614
C    21.7869731  15.066105999999998  11.3969257
C    22.5525854  14.298845499999999  12.2536536
C    23.912409  14.187233499999998  12.0001096
N    24.510027200000003  14.776118199999999  10.9737753
C    23.780009  15.512391199999998  10.1545588
N    22.245763500000002  18.6131735  5.8774850999999995
H    10.383305500000002  21.953129099999998  14.0297117
H    11.185562000000001  20.9027225  12.8555703
H    11.096302000000001  22.6508661  12.5678349
H    12.3989887  22.975902499999997  14.5199895
H    13.528227600000001  21.327759099999998  15.7371449
H    12.7284772  20.090068499999997  14.7476322
H    11.769250600000001  21.1392618  15.8034493
H    14.577237300000002  22.025248299999998  13.798162999999999
H    13.735596400000002  23.2645086  12.849713699999999
H    14.629213800000002  21.7011331  11.3357236
H    12.877332200000001  21.4498206  11.301003699999999
H    14.6960428  19.741730299999997  12.8404907
H    14.224874600000001  19.406823399999997  8.386941499999999
H    16.3349417  19.456049999999998  7.0975502
H    18.4865019  18.294815399999997  10.6003449
H    16.3499564  18.204237499999998  11.865141699999999
H    18.266620300000003  20.228513099999997  6.432551
H    20.665362400000003  16.663717  9.7571913
H    20.7256481  15.183314999999999  11.5566708
H    22.109713300000003  13.797853599999998  13.0987327
H    24.558950600000003  13.601551599999997  12.6382345
H    24.3103675  15.971260199999998  9.3343159
H    23.0039233  18.052695699999997  6.2442413
H    22.3115291  19.111980499999998  5.0060991999999995
