35

N    15.572999999999999  -24.706  10.768
N    17.250070899999997  -25.036068399999998  12.294533900000001
N    19.028889799999998  -29.8203258  12.1806135
N    17.6262875  -27.3820591  12.433644000000001
C    16.8113949  -19.9739626  12.021650000000001
C    15.884357999999999  -20.522313599999997  11.1418379
C    17.612913799999998  -20.813738999999998  12.7804771
C    15.7350371  -21.890302199999997  11.0046157
C    17.470328499999997  -22.1841165  12.645813
C    20.0442873  -28.8798139  12.767181
C    17.690096399999998  -29.8460701  12.8143571
C    16.8835168  -28.645609699999998  12.3374112
S    15.7264568  -26.3481383  10.7506137
C    16.5345393  -22.7352341  11.771469100000001
C    16.4376385  -24.182783999999998  11.6115642
C    19.5233617  -28.1025477  13.9623677
C    17.011809799999998  -26.279422699999998  11.9500335
C    18.416838499999997  -27.096787099999997  13.6312463
H    19.416807199999997  -30.769609199999998  12.2121789
H    18.8960571  -29.588908999999997  11.189195400000001
H    16.904127499999998  -18.902569  12.1051646
H    15.264798899999999  -19.863569299999998  10.5500835
H    18.341260899999998  -20.409024199999998  13.4646907
H    15.015534599999999  -22.308080299999997  10.3187195
H    18.0863987  -22.854739  13.2255603
H    20.351452199999997  -28.1717336  11.9985188
H    20.915593299999998  -29.451924599999998  13.0808749
H    17.782362799999998  -29.8676501  13.8959309
H    17.1600827  -30.743732799999997  12.4967708
H    16.6073779  -28.756833999999998  11.2853057
H    15.952366999999999  -28.5849655  12.912979100000001
H    20.3637299  -27.537377699999997  14.3647678
H    19.213039  -28.779066099999998  14.7560964
H    17.7525856  -26.987673899999997  14.4964039
H    18.856474199999997  -26.1162079  13.447464700000001
