38

O    -14.667  3.978  -9.588999999999999
C    -15.3938152  3.8746928000000005  -10.7939715
C    -15.2092064  2.5366184000000005  -11.4837759
O    -13.809015800000001  2.2451818  -11.5007662
C    -16.0328844  1.4607560000000004  -10.777310499999999
O    -17.4020981  1.8239522000000004  -10.824942199999999
C    -15.7582958  0.1150610000000003  -11.4332904
O    -16.3284466  -0.8886495999999995  -10.6267153
C    -14.2497211  -0.13919289999999962  -11.5241316
O    -13.715947400000001  -0.3602483999999997  -10.2506758
C    -13.5167044  1.0440486000000004  -12.1511461
O    -13.8902841  1.0832522000000004  -13.4960021
C    -13.1342639  1.9992856000000003  -14.3046949
C    -13.7164569  2.1197908000000005  -15.6371304
C    -14.201019800000001  2.2982613000000005  -16.7297856
C    -14.7365722  2.5771797000000003  -18.030511
C    -13.9203547  3.1304067000000004  -19.0316381
C    -14.4609181  3.4176627  -20.2759514
C    -15.8056897  3.1347488000000006  -20.4863653
N    -16.5889808  2.6144231  -19.5458027
C    -16.0793223  2.3426895000000005  -18.352518
H    -14.8443811  4.8449478  -9.198669299999999
H    -15.0584293  4.661576800000001  -11.4852364
H    -16.4700553  3.9959017000000006  -10.617214
H    -15.5830238  2.6225300000000002  -12.5150426
H    -15.6929911  1.4131663000000003  -9.730992
H    -17.9098717  1.1201758000000004  -10.3931231
H    -16.1881335  0.12265580000000043  -12.443478299999999
H    -16.4224943  -1.7113008999999995  -11.1283178
H    -14.069001  -1.0170264999999996  -12.1685828
H    -14.3866748  -0.8384209999999994  -9.7296737
H    -12.4304125  0.9165734000000003  -12.0275943
H    -12.0998721  1.6343120000000004  -14.3864827
H    -13.1265195  2.9883393000000003  -13.8261582
H    -12.880698800000001  3.3289379000000006  -18.818369699999998
H    -13.8552797  3.8435478000000005  -21.0585637
H    -16.2876419  3.3301236000000003  -21.4331899
H    -16.7625012  1.9226407000000003  -17.6283059
