44

C    36.229  15.499  -16.976
C    36.0895039  15.6509448  -18.4718144
O    35.1312342  15.2175842  -19.100106099999998
N    37.0945564  16.323839800000002  -19.0713858
C    37.101739  16.5918478  -20.5026179
C    36.1969354  17.8079291  -20.7791989
O    36.9176067  19.0081287  -20.6524119
C    35.6428625  17.7048753  -22.2030347
O    34.9061085  18.8434615  -22.5485712
C    34.7322402  16.4769968  -22.2489597
C    34.0777731  16.2882064  -23.6286041
O    35.0669497  16.1114979  -24.6220537
O    35.4904803  15.3090867  -21.9581154
C    36.6681974  15.3888892  -21.3418722
N    37.4914351  14.4168734  -21.4672874
O    36.9798374  13.377385199999999  -22.2855488
C    37.9510296  12.6242766  -22.8658662
O    39.1391263  12.749925000000001  -22.648479
N    37.4501419  11.7168512  -23.7084343
C    36.0699107  11.612042  -23.9843131
C    35.3061363  10.6690915  -23.3174943
C    33.9531486  10.5804991  -23.5898668
C    33.3706263  11.4306362  -24.516401
C    34.1413479  12.3736982  -25.1756559
C    35.4956843  12.467632  -24.9103468
H    36.3668005  16.470138  -16.5107624
H    37.0889677  14.8736923  -16.7525041
H    35.3329352  15.027364500000001  -16.5848367
H    37.9476283  16.4857023  -18.5587558
H    38.1256667  16.8343768  -20.7974156
H    35.3453174  17.7906441  -20.084669299999998
H    37.0741849  19.2123643  -19.7207672
H    36.4756091  17.5526957  -22.909574199999998
H    35.4317397  19.6248711  -22.3084666
H    33.9387357  16.5755153  -21.4963802
H    33.4654862  17.1722717  -23.8109574
H    33.4483349  15.3916334  -23.5841341
H    34.8380128  16.6379155  -25.3992974
H    38.1085195  11.0740889  -24.1256692
H    35.7706829  10.0188617  -22.5929645
H    33.3493517  9.8506999  -23.0726978
H    32.3137867  11.3584203  -24.7212842
H    33.688423900000004  13.0384274  -25.8939504
H    36.105753  13.210428  -25.3997193
