35

F    29.775  46.621  4.274000000000001
C    29.709833599999996  47.4770637  5.3031135
C    29.466104699999995  48.8122355  5.006220600000001
F    29.318591399999995  49.2132643  3.7371950000000003
C    29.391292399999998  49.7150016  6.054682400000001
F    29.166964999999998  51.0168833  5.876325100000001
C    29.557203699999995  49.2956417  7.361309400000001
F    29.465332999999998  50.214471  8.326318800000001
C    29.809415099999995  47.968156  7.641575400000001
F    29.978158199999996  47.6269384  8.9279395
C    29.896509299999998  47.0323221  6.6123925
C    30.201526899999998  45.6005081  6.9068135
C    28.926080599999995  44.7903657  7.1956762
C    29.184455699999997  43.2683488  7.1822736
O    27.9152629  42.647176  7.0529297
C    30.020379199999997  42.9590344  5.888029
O    29.331958799999995  42.9225986  4.8515038
O    31.248927999999996  42.824852299999996  5.9923494
C    28.319671599999996  45.2187633  8.507003300000001
O    27.421968399999997  46.0405316  8.540552700000001
C    28.918298099999998  44.6495684  9.782418700000001
O    28.173919199999997  44.9688476  10.9357299
C    29.130335499999997  43.121196499999996  9.6944829
O    29.839094899999996  42.6784111  10.8281466
C    29.917297799999996  42.787494  8.4320222
H    30.877325599999995  45.531784  7.7593247000000005
H    30.697137399999995  45.1536116  6.0443886000000004
H    28.198303399999997  45.0012657  6.4035377
H    27.800344899999995  42.4907376  6.0948054
H    29.918998999999996  45.1044229  9.882387900000001
H    27.470586599999997  45.5883184  10.676652
H    28.145186299999995  42.6343629  9.6440623
H    29.376986299999995  42.999879  11.6184272
H    30.910120099999997  43.233375  8.460312
H    30.041917399999996  41.7061066  8.3664529
