45

C    26.739  20.108  -39.97
O    27.0329246  18.934779600000002  -39.677246
O    27.537746900000002  21.038683100000004  -40.164298499999994
C    25.2408208  20.439117200000002  -40.08131349999999
C    24.4517013  19.205937300000002  -40.5049424
C    22.9830618  19.5600327  -40.6166202
C    22.7911253  20.707151900000003  -41.594788699999995
N    21.3746617  21.113443300000004  -41.628012999999996
C    20.5204403  20.770981400000004  -42.6455741
O    20.8868656  20.069533000000003  -43.5786689
C    19.084238900000003  21.2380232  -42.574596099999994
C    23.6998183  21.875880700000003  -41.223419299999996
O    25.0632237  21.499242700000003  -41.021394799999996
C    23.6445619  22.8723391  -42.394872899999996
O    24.256519400000002  22.337441100000003  -43.534037899999994
C    24.286572  24.202019500000002  -42.0015515
O    23.5026233  24.785350500000003  -40.9911318
C    24.3949958  25.148338600000002  -43.202485499999995
O    23.1679219  25.6197103  -43.694257199999996
N    22.190810900000002  18.3999172  -41.0415789
C    20.9228834  18.127093400000003  -40.659004599999996
N    20.251603000000003  17.135067900000003  -41.23543969999999
N    20.3153483  18.819630300000004  -39.701100399999994
H    24.9125964  20.786661100000003  -39.0853044
H    24.6316566  18.421215300000004  -39.7711665
H    24.850697500000003  18.868355800000003  -41.463817999999996
H    22.6440717  19.875226200000004  -39.6247347
H    23.045053900000003  20.3748399  -42.6095123
H    21.078778800000002  21.8000988  -40.9511608
H    18.986718500000002  22.1242799  -43.202535299999994
H    18.450519200000002  20.460829800000003  -42.992917799999994
H    18.781585200000002  21.486157300000002  -41.560915699999995
H    23.326134800000002  22.3690855  -40.311505399999994
H    22.6014698  23.0560705  -42.670652399999994
H    25.1256878  22.0011362  -43.268084599999995
H    25.3034647  23.9829213  -41.6432644
H    24.0122706  25.472933800000003  -40.5408439
H    24.8743865  24.623645300000003  -44.0310304
H    25.0303717  26.0016867  -42.917598999999996
H    22.637293  25.924859500000004  -42.9399879
H    22.5483556  17.917687400000002  -41.8526233
H    20.6434949  16.6292721  -42.0111024
H    19.3130789  16.9156295  -40.9474166
H    20.7976217  19.529913200000003  -39.180898899999995
H    19.4075117  18.529904900000002  -39.376819899999994
