52

C    18.912  33.642  -23.665
C    17.7727978  33.0422361  -22.859896799999998
C    16.892573799999997  32.2476889  -23.7614514
C    16.667703699999997  30.9139866  -23.484667799999997
C    16.311579199999997  32.8409455  -24.8710702
C    15.496226899999998  32.087275  -25.6974721
C    15.294089199999998  30.7434066  -25.417869
C    15.858137199999998  30.1606004  -24.307019099999998
C    14.878793699999997  32.6169961  -26.958459899999998
C    15.349510299999999  34.6514097  -28.2912909
C    15.315320499999999  35.9985413  -28.535086099999997
C    14.694147899999997  36.8255403  -27.626345999999998
C    14.108709299999997  36.2915581  -26.492601299999997
C    14.154972799999998  34.9338622  -26.240907099999998
C    14.796721699999997  34.1047454  -27.143189
S    15.966429999999997  32.0350516  -28.321286899999997
C    17.582350799999997  32.2255675  -27.509446299999997
C    18.6855874  32.7518944  -28.406097799999998
N    19.4944085  31.6302046  -28.9147711
C    11.309150799999998  31.4000999  -26.6251163
C    12.510835999999998  32.0009472  -26.3032789
C    13.541352499999999  31.989367  -27.226946299999998
C    13.352658099999998  31.3816818  -28.448690499999998
C    12.164103899999997  30.7636668  -28.7596471
C    11.1267851  30.7759147  -27.8425099
O    12.006738899999998  30.1568255  -29.954065399999998
H    19.592952399999998  34.1874747  -23.013975799999997
H    18.542064599999996  34.3358308  -24.414089699999998
H    19.474887799999998  32.8532653  -24.1578302
H    17.1969  33.8454053  -22.3899108
H    18.167794599999997  32.409712  -22.064310399999997
H    17.119883899999998  30.4657556  -22.612230599999997
H    16.4275363  33.9024902  -25.0402687
H    14.675208999999999  30.1498653  -26.0751189
H    15.673483199999998  29.119064299999998  -24.091048599999997
H    15.807783799999997  34.0624606  -29.059300899999997
H    15.757233899999997  36.4062932  -29.4306654
H    14.649959299999997  37.8927829  -27.7921265
H    13.610199599999998  36.9439776  -25.7894036
H    13.708250199999998  34.5304266  -25.344489
H    17.848623699999997  31.271555  -27.0584082
H    17.433891699999997  32.945133  -26.7117895
H    19.330087799999998  33.4247431  -27.840385599999998
H    18.2589011  33.3037921  -29.2431403
H    20.232028299999996  31.9629811  -29.547409299999998
H    18.886779699999998  30.9812986  -29.4318894
H    19.928881399999998  31.1157415  -28.1403283
H    10.500066899999998  31.4105815  -25.9100175
H    12.645982099999998  32.4570945  -25.3345842
H    14.102084899999998  31.3835577  -29.2222133
H    10.192625199999998  30.297275  -28.0916966
H    12.815522299999998  30.2200799  -30.4868027
