42

C    3.5299999999999994  18.859  21.371
N    3.8603039999999993  20.1463275  21.949365799999995
C    5.039212699999999  20.4392479  22.534658899999997
N    6.073336499999999  19.6573587  22.766621499999996
C    7.126007899999999  20.298620500000002  23.384012799999997
C    8.376920899999998  19.554896300000003  23.744641399999995
C    6.918305799999999  21.6431197  23.666709899999997
C    7.7118948  22.6938952  24.324201099999996
N    7.114329999999999  23.4609813  25.251314899999997
C    7.777884199999999  24.4387251  25.878320999999996
N    7.145824499999999  25.2396132  26.830916399999996
C    5.944298799999999  25.959507000000002  26.603368899999996
C    4.9324395999999995  25.4401667  25.7909819
C    3.8048874999999995  26.189674  25.507417999999998
S    2.535038899999999  25.4859963  24.461782299999996
O    2.641244799999999  24.0418582  24.444052999999997
N    2.861707799999999  26.0623029  22.937092299999996
O    1.2305497999999995  25.9712999  24.871436599999996
C    3.629459999999999  27.4599091  26.0228877
C    4.616886599999999  27.976984100000003  26.852831
C    5.757924899999999  27.240685900000003  27.143864299999997
N    9.0836212  24.6953815  25.634383699999997
C    9.6907421  23.9808873  24.702356999999996
C    9.068435899999999  22.9484667  23.9831795
C    9.7652019  22.2319882  22.977653999999998
N    10.3497858  21.6586037  22.167468599999996
S    5.320108599999999  22.0706502  23.116683399999996
H    2.5143369999999994  18.5889685  21.6541236
H    4.2292119999999995  18.1206491  21.753984399999997
H    3.6078037999999992  18.8967305  20.283073299999998
H    3.189381799999999  20.8943289  21.880232699999997
H    8.9081421  20.0732171  24.537418499999998
H    9.026229899999999  19.4816964  22.873769899999996
H    8.119029699999999  18.5490929  24.065697999999998
H    7.8387917  25.7951611  27.325418299999995
H    5.0251041999999995  24.4525932  25.367105799999997
H    2.1350420999999993  26.6695903  22.592978499999997
H    3.0747451999999993  25.3187658  22.2949535
H    2.7326113999999992  28.0077711  25.789802399999996
H    4.501715699999999  28.9616165  27.274638899999996
H    6.515959399999999  27.6648529  27.783477999999995
H    10.7216002  24.2436538  24.509205199999997
