70

C    -23.043  31.455  32.602
C    -22.493344999999998  30.200297300000003  32.3861098
C    -22.4760481  29.273755  33.429681699999996
C    -23.0111112  29.6889823  34.653341299999994
N    -23.526671699999998  30.8869653  34.858635799999995
C    -23.541162699999997  31.7582116  33.859615299999994
C    -21.8790603  27.9395099  33.2973443
C    -21.478220399999998  27.3942566  32.068531099999994
C    -20.8841227  26.1405927  32.106271899999996
N    -20.7031082  25.457400500000002  33.227313599999995
C    -21.1194912  26.040549300000002  34.363558299999994
N    -21.6988444  27.2493945  34.424038599999996
N    -20.935633199999998  25.3839311  35.536046899999995
C    -20.321938099999997  24.0938813  35.663357899999994
C    -21.068305699999996  22.9229528  35.48506389999999
C    -20.4294408  21.694262900000002  35.638830199999994
C    -19.0816092  21.6261483  35.94143209999999
C    -18.333377499999997  22.7965417  36.117083099999995
C    -18.969122699999996  24.0293019  35.9878389
N    -16.9699097  22.6908689  36.47893319999999
C    -16.080925699999998  23.7036948  36.745275199999995
C    -14.722692099999998  23.291541600000002  37.238862
C    -14.150966599999997  22.0561283  36.933662999999996
C    -12.901051999999998  21.7237702  37.4240455
C    -12.197793299999997  22.626319600000002  38.22041109999999
C    -12.761792499999999  23.858433  38.529121399999994
C    -14.017296999999997  24.1915888  38.0465643
C    -10.826687999999997  22.2702764  38.744655699999996
N    -10.018071699999997  21.6069666  37.69356
C    -8.691739199999997  21.1366815  38.150627799999995
C    -7.992027799999997  20.340336100000002  37.0596791
N    -7.788112499999997  21.168926900000002  35.8502552
C    -7.065030399999998  20.438918100000002  34.785866799999994
C    -9.095295499999999  21.7054214  35.3907847
C    -9.849970799999998  22.4570543  36.491381
O    -16.327404899999998  24.897793  36.5998447
C    -22.532433499999996  22.969868  35.154027199999994
H    -23.069727899999997  32.186807200000004  31.810473799999997
H    -22.079479799999998  29.959209100000002  31.419384199999996
H    -23.021230799999998  29.0119652  35.4943404
H    -23.969459299999997  32.7242748  34.08482849999999
H    -21.619370299999996  27.9057765  31.133461699999998
H    -20.539541099999997  25.6509424  31.205571299999995
H    -21.185712699999996  25.8886559  36.3725683
H    -20.998492399999996  20.787448400000002  35.5104487
H    -18.608645  20.6623277  36.050678399999995
H    -18.417984099999998  24.9446802  36.1216472
H    -16.66753  21.744174  36.665967099999996
H    -14.667983799999998  21.3614535  36.2907118
H    -12.521320199999998  20.7419679  37.190969499999994
H    -12.231972999999996  24.5641974  39.1484208
H    -14.472180899999998  25.1428021  38.2749367
H    -10.925702299999998  21.5911569  39.59483109999999
H    -10.314468699999997  23.1716848  39.0830785
H    -10.554297099999998  20.7745835  37.407218099999994
H    -8.813745399999998  20.5019958  39.0298075
H    -8.099795499999997  22.0057902  38.4468897
H    -8.576252699999998  19.4610501  36.77751859999999
H    -7.0279783999999985  19.993513  37.433819799999995
H    -7.195353699999998  21.9689513  36.112747299999995
H    -6.917884799999998  21.0827201  33.9232271
H    -7.634421899999998  19.565458800000002  34.4776191
H    -6.094533999999998  20.1147346  35.1504851
H    -9.691085599999997  20.8634166  35.029316699999995
H    -8.937354999999997  22.3829804  34.551375099999994
H    -9.311211799999999  23.3595578  36.788737399999995
H    -10.824236399999997  22.758898300000002  36.108258299999996
H    -22.8796072  23.9930458  35.0473837
H    -23.110272099999996  22.4826466  35.9376177
H    -22.721650499999996  22.4424701  34.221053899999994
