18

C    -4.388999999999999  3.0499999999999994  -37.788
C    -5.6434135  2.596382899999999  -38.131510999999996
F    -9.6763826  6.007738499999999  -40.6811988
C    -4.014742399999999  4.3793736999999995  -38.0015895
C    -4.8842593  5.289317199999999  -38.5624622
C    -6.1435014  4.839612099999999  -38.905438
C    -6.5293636  3.5047729999999993  -38.6959006
F    -10.5609029  4.563181299999999  -39.3141767
C    -9.5418852  4.7516715  -40.1751106
C    -8.192312  4.515813  -39.5623139
N    -7.2238211  5.4665178999999995  -39.4631344
N    -7.8182286  3.3427309999999997  -39.1248371
F    -9.7400773  3.8821917999999993  -41.1837424
H    -3.6788724  2.3684291999999996  -37.3475084
H    -5.9417003  1.5733745999999993  -37.971253
H    -3.0229752999999997  4.696993399999999  -37.7212369
H    -4.590252899999999  6.314786  -38.7243913
H    -7.285602  6.4337157  -39.7433511
