68

C    -9.263  -10.704  -16.770000000000003
C    -8.0346721  -11.3454457  -16.584442000000003
C    -6.98193  -10.485182600000002  -16.642067
Cl    -5.3319402  -10.9333422  -16.456113300000002
S    -7.4993889  -8.866189100000001  -16.9235489
C    -9.1607588  -9.3557296  -16.9750236
C    -10.2725606  -8.401019300000002  -17.1872998
O    -10.1372538  -7.1841420000000005  -17.10253
N    -11.4697429  -8.976163900000001  -17.4410385
C    -12.6635187  -8.1912701  -17.655726
C    -12.788992  -7.705890600000001  -19.1118491
C    -11.4730384  -7.057951700000001  -19.561168000000002
O    -10.6021274  -7.751917500000001  -20.0826554
N    -11.3366367  -5.746268000000001  -19.3926911
C    -12.3216179  -4.896974100000001  -18.749963700000002
C    -12.6158584  -3.692839400000001  -19.633243200000003
N    -11.359433  -2.979243000000001  -19.924894100000003
C    -11.630396  -1.7629387000000012  -20.7006792
C    -10.4087605  -3.8626617000000008  -20.632114100000003
C    -10.0932367  -5.083963600000001  -19.77627
N    -13.1333213  -8.802029500000002  -20.0028064
S    -14.259705799999999  -8.337135900000002  -21.118067800000002
O    -14.7319621  -9.4970472  -21.833103700000002
O    -15.2928088  -7.605486000000001  -20.4150411
C    -13.4353882  -7.200117200000001  -22.2428054
C    -12.7004884  -7.702643500000001  -23.3038975
Cl    -12.6116086  -9.4177406  -23.4928648
C    -13.585716999999999  -5.840032100000001  -22.043302800000003
C    -12.9628599  -4.980797900000001  -22.935893500000002
F    -13.0722949  -3.6463968000000007  -22.757971400000002
C    -12.2125466  -5.4484139  -23.9946784
C    -12.0810747  -6.8235942000000005  -24.209632300000003
N    -11.3558327  -7.290210500000001  -25.3134437
C    -10.4992533  -8.4714027  -25.150556700000003
C    -9.4236037  -8.531716900000001  -26.2177462
C    -10.1010199  -8.4908286  -27.5804444
C    -10.7620852  -7.131034400000001  -27.740560900000002
C    -11.5176962  -6.6513464  -26.521262900000004
O    -12.2554285  -5.678047500000001  -26.6193563
H    -10.1897559  -11.245617500000002  -16.721994000000002
H    -7.9268058  -12.3998323  -16.409880700000002
H    -11.508773  -9.9517211  -17.681794800000002
H    -12.5996481  -7.3208425  -16.998482300000003
H    -13.5345057  -8.793264  -17.4042429
H    -13.6536362  -7.049486000000001  -19.1728093
H    -11.9001191  -4.566232600000001  -17.792199
H    -13.2436252  -5.419672200000001  -18.5340968
H    -13.2954639  -3.020460400000001  -19.107196100000003
H    -13.073471  -3.984868900000001  -20.568050600000003
H    -10.9290411  -2.7079736000000008  -19.0310916
H    -10.7058469  -1.2204522000000004  -20.881804000000002
H    -12.3102051  -1.1149234000000003  -20.1539232
H    -12.0806089  -2.010381700000001  -21.6551794
H    -9.4878644  -3.3177520000000005  -20.838312300000002
H    -10.8551319  -4.170017000000001  -21.577268800000002
H    -9.4919142  -5.806270500000001  -20.3267117
H    -9.5528116  -4.8116453  -18.864512400000002
H    -12.3217825  -9.2605605  -20.3983871
H    -14.259839  -5.5117726000000005  -21.2696617
H    -11.741854  -4.746909200000001  -24.66345
H    -11.0854395  -9.3809535  -25.265782700000003
H    -10.0691045  -8.4377882  -24.150556
H    -8.8616303  -9.455292400000001  -26.0881858
H    -8.7310014  -7.693665300000001  -26.1281292
H    -10.8470242  -9.2843449  -27.6457457
H    -9.3788126  -8.644520400000001  -28.3818424
H    -11.4614966  -7.108145  -28.576961400000002
H    -10.0081389  -6.364458900000001  -27.938987400000002
