50

C    13.44  4.607  7.346
O    12.892023799999999  4.8231923000000005  8.6402536
C    13.170157199999998  3.9284864000000006  9.5890354
N    13.7957547  2.8240443000000006  9.2826825
C    14.051717799999999  1.9577367000000003  10.287193199999999
C    14.713370999999999  0.7417335000000005  10.044488699999999
N    15.214437299999998  0.1596529000000002  8.8993003
C    15.224440999999999  0.7117554000000004  7.591784499999999
C    16.4186455  1.2005247000000003  7.0837593
C    16.4621672  1.7801398000000004  5.8278132
C    15.3115797  1.8713703000000004  5.0687726
C    14.110625099999998  1.3747073000000003  5.5530545
C    14.0702085  0.7987489000000003  6.8113505
O    12.9004254  0.2711719000000006  7.4052562
C    11.7767355  0.3234655000000006  6.7412452
F    11.382568099999999  1.5626511000000005  6.392800899999999
F    10.798860999999999  -0.17489379999999954  7.4951967999999995
F    11.770115999999998  -0.39620759999999944  5.603882799999999
C    15.7965004  -1.0474528999999997  9.233878299999999
O    16.341586999999997  -1.8123492999999993  8.4577488
N    15.6384748  -1.2053410999999996  10.587099
C    14.9735605  -0.11647889999999972  11.113792499999999
C    14.5593794  0.2386092000000004  12.4039796
N    13.9314618  1.3601452000000003  12.653274
C    13.672648999999998  2.2129010000000005  11.641450299999999
C    12.9956898  3.4212217000000003  11.9285553
C    12.7405461  4.2877415  10.9061208
C    12.070378999999999  5.5672204  11.1049598
C    10.792133499999998  5.8207176  11.6879045
C    9.818894099999998  4.847381800000001  12.241302399999999
N    10.539742799999999  7.1032698000000005  11.6746874
O    11.618446299999999  7.729267200000001  11.111050299999999
C    12.535330499999999  6.811866200000001  10.763807499999999
C    13.7940151  7.2864304  10.1453417
H    13.325373399999998  5.5482756  6.8164309
H    12.890725999999999  3.8172470000000005  6.8304319
H    14.488236999999998  4.317605100000001  7.4189805
H    17.3095234  1.1194541000000005  7.685936699999999
H    17.396141  2.1599173000000005  5.4474819
H    15.334814399999999  2.3222806000000005  4.0908218
H    13.229816699999999  1.4400513000000004  4.935987099999999
H    15.968109499999999  -2.0100489999999995  11.096521599999999
H    14.7429578  -0.4046719999999997  13.2520283
H    12.713387699999998  3.6310697000000003  12.946440299999999
H    8.854280699999999  5.3303399  12.361495099999999
H    10.1609977  4.4925967  13.2125127
H    9.729885199999998  3.9901233000000005  11.5769319
H    13.958022499999998  8.3254722  10.421085699999999
H    13.7197181  7.2161169  9.060930299999999
H    14.627528499999999  6.6722469  10.477758999999999
