28

O    11.016  10.779  42.45
C    10.7902472  11.6822385  41.623614
O    10.5659293  11.5233349  40.409297800000004
C    10.748497799999999  13.1386449  42.1323249
C    9.3264532  13.4664882  42.5854896
C    9.3637094  13.490447399999999  44.1091428
C    10.8341935  13.3687273  44.5130063
N    11.6106739  13.2890276  43.2875713
C    12.9559471  13.2212101  43.1998278
O    13.5393161  13.117891499999999  42.1151701
C    13.7967644  13.3005231  44.4785568
C    14.4366737  14.6805616  44.6328668
C    14.8983409  12.2531385  44.3856855
S    14.2029238  10.5776067  44.143500200000005
H    11.1039058  13.7724934  41.3116902
H    8.6421791  12.7113183  42.198122700000006
H    9.0251202  14.4327151  42.1797344
H    8.799215499999999  12.6530586  44.515022300000005
H    8.9334584  14.4140057  44.490727500000006
H    10.993428399999999  12.4586279  45.1012871
H    11.1634872  14.2342878  45.094228300000005
H    13.172977  13.0765411  45.3458678
H    15.0946469  14.6861239  45.496498900000006
H    13.6718624  15.4423374  44.760298600000006
H    15.0126279  14.9161352  43.740617300000004
H    15.5287164  12.2440788  45.2684897
H    15.5008831  12.4366627  43.4945606
H    14.2343098  10.2436532  45.433744000000004
