28

O    10.062  -7.983  -18.264
C    11.0224358  -7.4670122999999995  -18.8661603
O    11.0984655  -6.2891094999999995  -19.2542751
C    12.2409052  -8.3743559  -19.1367154
C    13.052584  -7.7347987  -20.2468016
C    13.7850743  -6.607085499999999  -19.5287969
C    13.8196674  -7.0277381  -18.0547598
N    13.1095749  -8.294585399999999  -17.9739131
C    13.1946404  -9.212417499999999  -16.9889544
O    12.5509917  -10.2655153  -17.001041999999998
C    14.1819947  -8.979384699999999  -15.8419895
C    15.4106589  -9.8506892  -16.1022851
C    13.5376224  -9.4085419  -14.532705199999999
S    11.9020277  -8.621063399999999  -14.3232093
H    11.9141447  -9.4053518  -19.2912985
H    12.3974036  -7.3659918  -21.0322522
H    13.7541361  -8.458503  -20.6674118
H    13.2301468  -5.6798921  -19.639780299999998
H    14.7916721  -6.4735035  -19.9225809
H    13.3130843  -6.2837659  -17.4301372
H    14.8459052  -7.1539429  -17.7069383
H    14.4529245  -7.925214499999999  -15.7746526
H    16.0899638  -9.8022704  -15.255757599999999
H    15.9314913  -9.5176351  -16.9966287
H    15.0961177  -10.881198399999999  -16.2502643
H    14.1563476  -9.1730159  -13.6731431
H    13.3213641  -10.477183  -14.5610714
H    12.3495043  -7.546980899999999  -13.673742
