34

C    -9.042  -17.514  9.331
O    -4.1673875  -23.9195873  8.4638926
S    -5.2533335  -21.561532  8.4537008
C    -8.8051222  -18.5859423  8.5723772
O    -7.7177226  -22.6464049  5.580470099999999
C    -7.540121699999999  -19.190383899999997  8.1071156
C    -6.2361265999999995  -18.525131799999997  8.4195905
C    -7.556272399999999  -20.3538754  7.4290689
C    -6.3586352999999995  -21.1619659  6.992044399999999
C    -5.513078999999999  -20.4583065  5.908782499999999
C    -5.043288199999999  -23.258237299999998  7.938172799999999
C    -5.9430475  -23.5955773  6.8475459
C    -6.0366694999999995  -24.9954884  6.277793099999999
C    -7.0055416  -25.9345274  7.0547930999999995
C    -6.4200884  -26.628960499999998  8.2888735
C    -6.710814  -22.542844799999997  6.4513516
H    -10.0481982  -17.233966699999996  9.582727199999999
H    -8.2558994  -16.888678  9.7196097
H    -9.6715369  -19.147260799999998  8.2360782
H    -8.121168899999999  -21.783713499999998  5.3836056999999995
H    -5.4019141  -19.2126137  8.3743954
H    -6.2694358999999995  -18.106063499999998  9.423800499999999
H    -6.066200599999999  -17.6991101  7.729234699999999
H    -8.512357399999999  -20.835471199999997  7.2619584999999995
H    -6.1110185999999995  -20.3212981  5.010830499999999
H    -4.645783  -21.068811399999998  5.666613
H    -5.1777552  -19.4889188  6.2556212
H    -5.0372552  -25.4336022  6.277480499999999
H    -6.3955343  -24.9034071  5.2532476
H    -7.3397675  -26.705281499999998  6.3582335
H    -7.8816728  -25.352757699999998  7.349139
H    -7.191885399999999  -27.205741699999997  8.7897943
H    -6.0172987  -25.899716899999998  8.9897643
H    -5.6118431  -27.2970589  8.0012213
