165

N    13.568  -27.802  -2.606
C    13.1855634  -28.736357  -1.5229999000000003
C    13.5616241  -28.1519159  -0.15467089999999928
O    14.2023349  -27.0998442  -0.09742220000000046
C    13.9918768  -30.0227222  -1.7879147999999994
C    14.8816777  -29.7227439  -2.9925356
C    14.193360199999999  -28.5759412  -3.7047980999999996
N    13.1250833  -28.8486052  0.8965434000000005
C    13.363858  -28.399506000000002  2.2607029999999995
C    14.8591319  -28.4678038  2.5313789
O    15.5361429  -29.3394429  1.9832038
C    12.6326523  -29.4015983  3.1685789
C    11.961913599999999  -30.4095426  2.2353275999999997
C    12.606660699999999  -30.211074  0.8689561000000001
N    15.381707299999999  -27.5394576  3.330563100000001
C    16.8269263  -27.5090167  3.4683703999999995
C    17.3212565  -28.701846500000002  4.30524
O    16.5340958  -29.4080753  4.9312911
C    17.1323699  -26.1166914  4.0265465
C    15.823563799999999  -25.6290252  4.6316493
C    14.719586399999999  -26.3654873  3.8835195000000002
N    18.6262612  -28.9897  4.2250813
C    19.191522799999998  -30.103406800000002  4.97351
C    18.9375249  -29.8839252  6.4612712000000005
O    19.017819799999998  -28.761821400000002  6.9478749
C    20.705709  -30.0368935  4.7430333000000005
C    20.929429  -28.9972561  3.6523147
C    19.6087831  -28.2678882  3.437747
N    18.639678  -30.9693139  7.1727596
C    18.4402532  -30.8853851  8.6085372
C    19.7798338  -30.6374755  9.2979862
O    20.813262299999998  -31.0477538  8.7709449
C    17.9339883  -32.2209613  9.1490484
C    16.434409799999997  -32.3841927  9.4437253
C    15.5445098  -31.2648959  8.9201156
C    15.962168499999999  -33.7546678  8.9564397
N    19.7765599  -30.0261307  10.4865454
C    21.0287163  -29.824369700000002  11.2160454
C    21.7308117  -31.156222500000002  11.4424547
O    21.1089738  -32.1917933  11.644834300000001
C    20.6135624  -29.214310400000002  12.5601199
C    19.2345039  -28.6269295  12.2868777
C    18.6239836  -29.5380963  11.2296185
N    23.0715322  -31.077869  11.448863300000001
C    23.8813917  -32.2786361  11.3958633
C    23.846871  -33.0703484  12.7024805
O    24.061022899999998  -34.2785449  12.6921169
C    25.317217499999998  -31.991371700000002  10.938160700000001
O    26.009437499999997  -31.1880172  11.863699200000001
N    23.5894399  -32.3795765  13.814164400000001
C    23.380522  -33.056374  15.0735974
C    22.0121489  -32.729541  15.656089
O    21.3847187  -31.7409339  15.2710925
N    21.5552805  -33.585561  16.5818077
C    20.223019999999998  -33.4214274  17.1196491
C    20.1806915  -32.234891  18.082588700000002
O    21.1718804  -31.5596384  18.3194147
C    19.962367999999998  -34.7473435  17.832628200000002
C    21.337874199999998  -35.1367425  18.3763773
C    22.3436584  -34.5044032  17.4065478
N    18.9607334  -31.9550167  18.5545967
C    18.7576994  -30.9091943  19.532379
C    19.0223139  -31.547442  20.894120700000002
O    18.8397252  -32.7475213  21.0524759
C    17.3244131  -30.403720500000002  19.4699356
N    19.5021976  -30.7407362  21.836331700000002
C    19.6184937  -31.1638664  23.2120035
C    18.586634099999998  -30.3867571  24.0258909
O    18.550306  -29.158685000000002  23.9660793
C    21.0383388  -30.9177586  23.738067100000002
C    22.0149588  -31.8612791  23.0916426
C    22.1843419  -33.1478016  23.602885999999998
C    22.7632943  -31.4684807  21.9915914
C    23.0937621  -34.0164858  23.037534
C    23.6687418  -32.3318116  21.4090947
C    23.8093882  -33.6162562  21.9084159
O    24.691817399999998  -34.4897594  21.3536551
N    17.7110457  -31.1451728  24.6868799
C    16.6643772  -30.6128874  25.5343857
C    17.073766  -30.5855328  27.0343512
O    16.391464799999998  -29.8305999  27.7469335
C    15.3789308  -31.4315232  25.4169257
O    18.013643  -31.3042759  27.4180316
H    14.2469676  -27.1539574  -2.155567999999999
H    12.7843314  -27.230291  -2.9319784999999996
H    12.1112541  -28.922596  -1.5532022999999988
H    13.323004599999999  -30.8537547  -2.0011563
H    14.6075318  -30.2913369  -0.9326825000000003
H    14.9997416  -30.5898092  -3.6354577999999993
H    15.8732139  -29.4184103  -2.6564511
H    14.874444599999999  -27.9551609  -4.2808794
H    13.403321599999998  -28.9498103  -4.356900499999998
H    12.996242299999999  -27.3772796  2.361241100000001
H    11.908651899999999  -28.8961191  3.8029466000000003
H    13.3615034  -29.8915909  3.8169432000000008
H    10.8935751  -30.199837900000002  2.178249000000001
H    12.087931  -31.4291679  2.588391400000001
H    13.441009  -30.9074427  0.754532600000001
H    11.8918317  -30.352376500000002  0.062459900000000346
H    17.2565514  -27.6488568  2.4674496
H    17.4492945  -25.4633557  3.214333700000001
H    17.919568299999998  -26.150836  4.777701700000001
H    15.7156956  -24.550439  4.552914100000001
H    15.790673799999999  -25.900258700000002  5.687916100000001
H    13.9033111  -26.6606524  4.543396700000001
H    14.329477299999999  -25.7539997  3.062866100000001
H    18.7334563  -31.0385674  4.6378386
H    21.0967044  -31.012166  4.4632225000000005
H    21.1922695  -29.7388719  5.673521900000001
H    21.2358661  -29.4897159  2.7297995999999998
H    21.716364  -28.3016399  3.9339155000000012
H    19.670341099999998  -27.2318578  3.7780743999999995
H    19.3148558  -28.273933800000002  2.3851502
H    18.728487599999998  -31.8860518  6.7630841
H    17.7615999  -30.0522904  8.7897924
H    18.4925782  -32.4528849  10.060724800000001
H    18.2354464  -32.9852558  8.4286739
H    16.315022  -32.3825203  10.5350051
H    14.502022199999999  -31.536906000000002  9.064909100000001
H    15.7068662  -31.0904204  7.8573373
H    15.722094599999998  -30.3373864  9.4570954
H    16.5946267  -34.5382517  9.3657032
H    15.9977372  -33.8056135  7.870450300000001
H    14.939589699999999  -33.9383221  9.2754782
H    21.6694548  -29.1588758  10.6284385
H    21.324350799999998  -28.4668967  12.9004618
H    20.5526527  -30.0037863  13.3134968
H    19.3379527  -27.6190967  11.8834221
H    18.6253082  -28.5823149  13.1856873
H    18.098872999999998  -30.3831212  11.6860027
H    17.942373099999998  -28.9994889  10.572227
H    23.5376808  -30.2025338  11.2644748
H    23.4358641  -32.9559212  10.652167200000001
H    25.269235899999998  -31.4954901  9.9591264
H    25.8073046  -32.9653732  10.821588
H    26.9442613  -31.1508814  11.621852800000001
H    23.2997421  -31.4136184  13.7635681
H    24.151009  -32.7540458  15.7918083
H    23.4722905  -34.1277276  14.8800781
H    19.5275419  -33.2164697  16.3006362
H    19.612259599999998  -35.4848682  17.1111615
H    19.232146399999998  -34.652831  18.6330152
H    21.4615263  -36.2138486  18.4402532
H    21.4676591  -34.7148246  19.3741692
H    23.1178536  -33.9472834  17.9360649
H    22.814864  -35.2532746  16.7664895
H    18.2113792  -32.620592  18.4415202
H    19.4860741  -30.1199099  19.3309928
H    17.1728484  -29.6226339  20.2102608
H    16.636937099999997  -31.2182798  19.6851863
H    17.112414299999998  -30.0034174  18.4830736
H    19.5572867  -29.7430469  21.6835199
H    19.396678899999998  -32.2354283  23.2300839
H    21.0246366  -31.0682669  24.8202545
H    21.305388699999998  -29.8782172  23.5435385
H    21.6169552  -33.4517549  24.470079300000002
H    22.6433253  -30.4733461  21.591135299999998
H    23.2412936  -35.0116032  23.4242563
H    24.2356485  -32.0158585  20.545823900000002
H    25.2152119  -34.052427800000004  20.66515
H    17.9175936  -32.1233725  24.8297394
H    16.4936023  -29.5746163  25.2328557
H    14.6366965  -30.9946873  26.0788382
H    15.5681172  -32.4557033  25.7319992
H    15.009414  -31.4254304  24.394627800000002
