38

C    -6.068  15.182  12.29
C    -7.1080702  14.7609688  13.3283768
C    -8.3388261  15.6557069  13.280765899999999
C    -9.0944749  15.417917000000001  11.9826415
C    -8.2260762  15.3769881  10.7311929
C    -6.7294098  15.449959100000001  10.9301449
C    -5.916138  15.0922519  9.746037099999999
C    -5.0085341  15.9373392  9.2675121
C    -4.2991305  15.7097464  8.0086458
C    -2.9865454000000002  15.8886237  7.895771999999999
C    -5.4190681000000005  16.5192994  12.6974361
C    -4.9568449  14.135937700000001  12.2129456
C    -8.7811744  14.502240400000002  9.630829799999999
C    -5.1654599999999995  15.2760929  6.8596661
H    -6.6568211  14.7936534  14.32251
H    -7.4147625999999995  13.730122900000001  13.1349465
H    -8.0462135  16.7026757  13.3668246
H    -8.9958808  15.432729700000001  14.123538
H    -9.8801717  16.1645983  11.8657528
H    -9.5980263  14.4472068  12.083205699999999
H    -8.4298236  16.3692338  10.2797817
H    -6.6083086  16.5454866  10.904620699999999
H    -6.0715722  14.1333015  9.2731851
H    -4.8037298  16.8745756  9.766122099999999
H    -2.465883  15.7313199  6.9664763999999995
H    -2.385256  16.195990000000002  8.7350941
H    -4.9281396  16.419958100000002  13.6673476
H    -6.1469671  17.3206893  12.7743365
H    -4.6585026  16.8015183  11.9753765
H    -5.3468449  13.184172100000001  11.8572922
H    -4.5246603  13.978122  13.1990768
H    -4.1680187  14.4556573  11.5376055
H    -9.846269  14.693042100000001  9.523085
H    -8.6525047  13.4368747  9.8355035
H    -8.2959458  14.7279742  8.6853982
H    -6.0164173  15.947217  6.7634595
H    -5.5489417  14.271956300000001  7.0326185
H    -4.6019773  15.2755933  5.9297888
