105

C    7.902  23.234  2.8770000000000002
C    9.199540299999999  22.928966300000003  3.2029947000000005
C    10.2008296  23.829732000000003  2.8803635000000005
C    11.5778864  23.503364800000003  3.258405
C    9.9241847  25.0330514  2.2614831000000004
C    8.6207965  25.339548300000004  1.9422145000000004
C    7.6294344  24.417489100000004  2.2030408
C    6.2297788  24.726483500000004  1.8785579000000006
C    5.4836194  24.839159400000003  3.1880563000000004
C    5.3552935  26.261965200000002  3.5511813000000005
C    5.9922032  26.786866800000002  4.588510100000001
N    6.9484928  26.015228500000003  5.298776800000001
C    8.1145249  26.577766600000004  5.658752600000001
O    8.399830099999999  27.723041500000004  5.327211800000001
C    9.115255600000001  25.745461100000004  6.412707200000001
C    9.5163969  26.488634100000002  7.7008739
C    8.2965508  26.656140300000004  8.6042588
C    10.615017  25.714854800000005  8.4203022
N    10.2560249  25.530208200000004  5.5350983000000005
C    10.8499514  24.329142000000004  5.4742565
O    10.4596676  23.369321000000003  6.126988600000001
C    12.017253199999999  24.187306300000003  4.5324051
O    12.5346742  25.470693000000004  4.2577511
C    13.0609057  23.265852000000002  5.1525985
C    13.8250454  24.0197743  6.2247629
C    15.3041254  23.677460300000003  6.160211
N    15.4929947  22.454267100000003  6.8774505
N    16.1211946  21.454615900000004  6.244805700000001
C    15.3320574  20.589336000000003  5.596424300000001
O    14.1494569  20.430041300000003  5.835299600000001
C    16.1783018  19.686773300000002  4.717770600000001
C    15.3911428  18.966457300000002  3.6254693000000002
C    14.4012017  17.989448700000004  4.259683900000001
C    14.6489596  19.9924953  2.7671183000000004
C    16.3962304  18.202427800000002  2.7648460000000004
N    16.8428897  18.746076100000003  5.6110945
C    18.174910099999998  18.783737400000003  5.7228661
O    18.849589  19.567469200000005  5.073775400000001
O    18.7207753  17.9231374  6.6071152
C    20.0213314  18.334985700000004  7.048189300000001
C    15.663689399999999  22.526472500000004  8.279808300000001
C    15.974  21.195830700000002  8.8366255
C    17.293559899999998  20.771916200000003  8.8658338
C    17.6104621  19.590136800000003  9.4902488
C    14.9527421  20.431082600000003  9.3700507
C    15.2571433  19.232978600000003  9.9659343
C    16.5830442  18.838993300000002  10.024983500000001
C    16.8674358  17.640306900000002  10.7246143
C    16.0468024  16.509845600000002  10.5897073
C    16.4191347  15.522139100000004  11.4274695
S    17.7170157  16.019329000000003  12.428908400000001
C    17.7844042  17.564527600000005  11.7153791
H    7.1068216  22.533059700000003  3.0820969000000003
H    9.448408  22.011395000000004  3.7140949000000005
H    12.2755909  23.785934700000002  2.4634957
H    11.6608669  22.4227963  3.4001425000000003
H    10.7248547  25.7249477  2.0494709
H    8.375861  26.273952800000004  1.4601444
H    5.8093277  23.918640500000002  1.2718000000000007
H    6.1459816  25.649153800000004  1.3040606000000006
H    5.9714805  24.2514849  3.9567669000000003
H    4.4705087  24.436294300000004  3.0655451000000005
H    4.661803300000001  26.861575000000002  2.9841445
H    5.9724794  27.827866800000002  4.8650437
H    6.758091  25.0489865  5.512381700000001
H    8.7327508  24.750274500000003  6.661546700000001
H    9.8868928  27.477093000000004  7.4104101
H    8.5775989  27.180795300000003  9.5130785
H    7.8916174  25.684399300000003  8.8767504
H    7.5225415  27.232278600000004  8.1020705
H    11.5123718  25.655783600000003  7.8094428
H    10.2844715  24.700949500000004  8.633908700000001
H    10.8684151  26.206356300000003  9.3561852
H    10.6396854  26.3161525  5.032241000000001
H    13.292154  25.379881100000002  3.6618384
H    13.7424905  22.941554700000005  4.364106400000001
H    12.5709484  22.3833848  5.5588237000000005
H    13.4347612  23.7832417  7.2116474
H    13.696939  25.093683100000003  6.0664594
H    15.9078891  24.483720700000003  6.6121727
H    15.6315354  23.548778200000005  5.127996
H    17.1077828  21.527228100000002  5.9810596
H    16.9783592  20.2701099  4.2516818
H    13.7735438  17.553000600000004  3.4850884000000004
H    13.7597473  18.497844200000003  4.9710668
H    14.921728  17.176166700000003  4.7581927
H    15.3423004  20.7278194  2.3647388000000005
H    13.8937324  20.503152300000004  3.3590186
H    14.155733699999999  19.4934815  1.9379771000000003
H    16.952347  17.486155900000004  3.3646140000000004
H    17.1088748  18.885335600000005  2.3074503
H    15.8823406  17.660701800000002  1.9747132
H    16.2904467  18.1331981  6.187654
H    20.3375057  17.575957200000005  7.7576853
H    19.960349700000002  19.314830300000004  7.5205682000000005
H    20.7089496  18.384638300000002  6.2026193
H    18.066004200000002  21.4002079  8.4451883
H    18.6264806  19.238323400000002  9.5664195
H    13.9364353  20.789591200000004  9.3186716
H    14.489885  18.622510600000002  10.4142056
H    15.2634849  16.423917900000003  9.8594855
H    16.0136961  14.537988700000003  11.5497667
H    18.495138  18.293053900000004  12.042932400000002
H    14.7435643  22.918145700000004  8.7278268
H    16.4793922  23.234021900000002  8.547193100000001
