26

C    -11.543  -4.047  40.83
C    -10.112256799999999  -4.145575  41.394349399999996
C    -10.030889199999999  -5.3352138  42.3609532
C    -10.531799199999998  -6.5937914  41.608889399999995
C    -11.976849399999999  -6.3564975  41.136669399999995
C    -12.561268299999998  -7.5472973  40.385497699999995
O    -12.3833065  -3.6420483999999997  41.887314499999995
O    -9.726249499999998  -2.9295283999999997  41.980377999999995
O    -8.7260046  -5.5081313  42.871773299999994
O    -9.735098399999998  -6.8854539  40.4764517
O    -11.987091799999998  -5.2368239  40.2453545
C    -13.741423999999999  -3.4392460999999996  41.510481
H    -11.5770881  -3.3055638  40.015079
H    -9.428692999999999  -4.3207932  40.556506
H    -10.677743199999998  -5.1590093999999995  43.2262613
H    -10.5251264  -7.4390219  42.309635699999994
H    -12.587809499999999  -6.1208566  42.0196298
H    -13.548686  -7.2917021  40.015240299999995
H    -12.6283958  -8.400832399999999  41.0518381
H    -11.9174782  -7.784999299999999  39.5442483
H    -10.391947199999999  -2.6739181  42.6362908
H    -8.079117799999999  -5.262968099999999  42.193419999999996
H    -8.934428599999999  -7.3435501  40.7628018
H    -14.264728799999999  -3.1948254999999994  42.4303556
H    -14.159666499999998  -4.3407309  41.0595545
H    -13.814628699999998  -2.6121649999999996  40.7984416
