24

C    18.7  -24.5  19.51
C    19.9225095  -23.6054607  19.768097
C    19.6290291  -22.1270469  19.490202300000004
C    18.3364679  -21.7068363  20.2271636
C    17.213413499999998  -22.6706565  19.8185527
C    15.892507799999999  -22.2743626  20.486758100000003
O    19.0202735  -25.7628525  19.984615100000003
O    20.7430542  -21.3320087  19.843636800000002
O    18.494888399999997  -21.7592979  21.6272321
O    17.5505581  -24.0064855  20.1741464
O    14.811082599999999  -23.0324179  20.009080500000003
O    21.039710499999998  -24.058526999999998  19.048545200000003
H    18.488045399999997  -24.524699899999998  18.417686300000003
H    20.181509199999997  -23.7320566  20.8259295
H    19.481876999999997  -21.9674159  18.4159499
H    18.063184  -20.6927122  19.907797000000002
H    17.087715099999997  -22.620256899999998  18.724237700000003
H    15.672104599999999  -21.235609999999998  20.2400206
H    16.005317499999997  -22.3797812  21.5711255
H    18.237743899999998  -26.3355826  19.957434000000003
H    21.1382275  -21.6745126  20.6583338
H    19.016771199999997  -20.9963576  21.913827500000004
H    14.961217699999999  -23.9609226  20.236325500000003
H    20.8855588  -23.9690858  18.097121400000002
