40

C    -26.674  -22.099  -11.444
C    -26.1220622  -23.221201999999998  -10.572031100000002
C    -24.0652527  -19.815305  -11.935752200000001
C    -23.772914099999998  -18.3304509  -11.727458400000002
C    -22.2420236  -20.4333987  -10.5831779
C    -21.5701848  -21.641188  -9.893308500000002
C    -21.597554  -19.3035334  -10.8863385
C    -22.2457998  -18.1341376  -11.592023000000001
C    -25.257039  -16.6547619  -12.794990100000001
C    -25.5448123  -15.9781951  -14.115373100000001
N    -24.2624  -17.5617389  -12.848813800000002
C    -25.5802451  -21.4847099  -12.312439300000001
C    -26.1094691  -23.071610800000002  -14.153205600000001
C    -25.852771399999998  -21.6120774  -13.8044553
O    -25.416570099999998  -20.0922166  -11.970263800000001
O    -23.5553818  -20.6198815  -10.884583500000002
O    -20.4430925  -21.4503989  -9.398891200000001
O    -22.1964626  -22.7161839  -9.8928591
O    -21.9445882  -16.9026395  -10.972560900000001
O    -25.8709871  -16.39039  -11.770009900000002
H    -27.048472  -21.3009816  -10.798027500000002
H    -27.509882599999997  -22.4506757  -12.042375000000002
H    -26.8720125  -23.5591179  -9.861482200000001
H    -25.2485897  -22.878050899999998  -10.0198332
H    -25.8166686  -24.067567  -11.182302000000002
H    -23.5647002  -20.134484  -12.875810500000002
H    -24.3005808  -17.9828254  -10.834101300000002
H    -20.5585893  -19.212846  -10.617274600000002
H    -21.8123961  -18.0404651  -12.597329700000001
H    -26.3442178  -15.2582924  -13.9738553
H    -25.8477556  -16.7192844  -14.849373100000001
H    -24.6525673  -15.4690579  -14.468250300000001
H    -23.8209527  -17.7388911  -13.738938300000001
H    -24.6469046  -22.0077148  -12.083278400000001
H    -26.145245199999998  -23.1952373  -15.233585600000001
H    -27.046942899999998  -23.4275443  -13.743287400000002
H    -25.3039838  -23.691952  -13.765845900000002
H    -24.9918653  -21.239961  -14.362390400000002
H    -26.7173949  -20.9966877  -14.059325700000002
H    -22.1384517  -16.958943  -10.027193800000001
