45

C    14.084  11.352  60.337
C    15.3032778  11.3932511  59.480403900000006
C    16.0665501  12.5579496  59.3281617
N    15.7480887  10.34384  58.8134828
S    17.097397  10.7032944  57.96794870000001
C    17.132564199999997  12.341018300000002  58.49493150000001
C    18.130418499999998  13.271105300000002  58.064918500000005
C    18.1600824  14.5823219  58.6241514
C    19.1046412  15.457527800000001  58.189601200000006
N    18.9698469  12.857332300000001  57.1463279
N    19.8837744  13.709617300000001  56.732702800000006
C    20.0057571  15.008706100000001  57.205670600000005
N    21.0124504  15.593275400000001  56.59099760000001
N    21.541085199999998  14.718342900000001  55.746307400000006
C    20.8837771  13.5805424  55.808796300000004
C    21.1446757  12.334499800000001  55.011179600000006
N    21.118184799999998  11.140250600000002  55.822107300000006
C    22.122996699999998  10.765582700000001  56.6371747
C    23.3654731  11.391393  56.6751214
C    24.3388111  10.9126162  57.543603000000004
N    24.1776034  9.890725600000001  58.35613000000001
C    22.9872883  9.253426500000002  58.344656500000006
C    22.7698587  8.160168500000001  59.2072464
C    21.9240267  9.646957100000002  57.502200800000004
N    20.738083099999997  9.007147800000002  57.505181900000004
C    20.5574677  7.990877000000001  58.303173900000004
C    21.5523721  7.514862700000001  59.192319600000005
O    21.2260419  6.457570700000001  59.983077200000004
C    22.0436332  6.210153000000001  61.121141300000005
H    13.905847599999998  12.327208100000002  60.77655430000001
H    14.206425699999999  10.614131500000001  61.126837200000004
H    13.2208325  11.056301000000001  59.744821
H    15.821181999999999  13.4876093  59.8045321
H    17.4487852  14.8620835  59.3791214
H    19.1966113  16.4649167  58.55806760000001
H    22.1089867  12.446755000000001  54.514577800000005
H    20.368777299999998  12.2391196  54.2471115
H    20.2295476  10.6928528  55.99743180000001
H    23.5789003  12.253004500000001  56.0663374
H    25.308469799999997  11.3900777  57.591278100000004
H    23.5782104  7.867470300000001  59.857081400000006
H    19.590248799999998  7.510654300000001  58.272640300000006
H    21.5101323  5.455517400000001  61.694021500000005
H    22.1661122  7.118422600000001  61.71444150000001
H    23.0219596  5.824118000000001  60.8257928
