80

O    -8.159  -2.303  -14.117
S    -7.341445600000001  -3.3887088999999997  -14.6006051
O    -6.782630900000001  -4.2598079  -13.593830500000001
C    -8.293640100000001  -4.351986  -15.7007443
C    -9.2676096  -3.7529222  -16.481006999999998
C    -9.990007600000002  -4.5191356  -17.3751921
C    -8.0434008  -5.705483  -15.8021082
C    -8.7573798  -6.4767402999999995  -16.6984602
C    -9.738847900000001  -5.8924765  -17.5019814
O    -10.458344400000001  -6.5864927  -18.4114126
C    -10.101025100000001  -7.9436522  -18.6690851
N    -6.074658300000001  -2.7558793999999995  -15.4465261
C    -5.304673200000001  -3.7732341999999996  -16.1518836
C    -3.801428300000001  -3.4728082  -16.202859
C    -3.188783200000001  -3.4722817  -14.8039146
C    -3.090064800000001  -4.455703  -17.1453823
C    -3.239725500000001  -5.9179527  -16.7545433
C    -6.341734800000001  -1.5254548999999997  -16.161721
C    -5.445411700000001  -0.39000619999999986  -15.6292081
O    -5.531933000000001  0.7443068000000002  -16.4622084
C    -5.789512600000001  0.0262532000000002  -14.180203800000001
C    -7.129005600000001  0.7692799000000001  -14.0482648
C    -7.398491000000001  1.1000183000000003  -12.6024935
C    -7.885544000000001  0.11625470000000004  -11.746697600000001
C    -8.121852200000001  0.3993953000000001  -10.4113999
C    -7.8711327  1.66785  -9.9109697
C    -7.383411400000001  2.6507983  -10.755183500000001
C    -7.1500935000000005  2.3685535  -12.0916598
N    -4.728818100000001  0.8854000000000002  -13.6699154
C    -3.844161500000001  0.5533379  -12.717215
O    -3.734287000000001  -0.5517409999999998  -12.2150775
O    -3.051371800000001  1.6072524000000001  -12.3632618
C    -2.083454600000001  1.4682519000000003  -11.303611100000001
C    -1.807090800000001  2.8692002000000003  -10.7439935
N    -2.958554700000001  3.4007544000000003  -10.0351725
C    -2.864739900000001  3.5725875  -8.5893595
C    -3.708859900000001  4.4506263  -10.5386481
O    -3.709821000000001  4.8663394  -11.6902934
N    -4.437094000000001  4.9748243  -9.533555100000001
C    -4.137458400000001  4.3627483  -8.260186000000001
H    -9.462856  -2.7000785  -16.365560600000002
H    -10.756861500000001  -4.0775305  -17.9901066
H    -7.303809600000001  -6.1469809  -15.1541362
H    -8.5471555  -7.5309425  -16.7553926
H    -10.7460506  -8.250186  -19.4891501
H    -10.2933743  -8.571768599999999  -17.7974912
H    -9.055363900000001  -8.020013500000001  -18.9701221
H    -5.698600800000001  -3.9073751999999997  -17.1667815
H    -5.459007000000001  -4.688016299999999  -15.5814357
H    -3.668651400000001  -2.4740580999999997  -16.6298615
H    -2.121275600000001  -3.2756043  -14.8566838
H    -3.348236000000001  -4.4263884000000004  -14.3093726
H    -3.652143900000001  -2.7071623999999996  -14.1826971
H    -2.029862300000001  -4.198518  -17.1615362
H    -3.480232200000001  -4.317005999999999  -18.1557895
H    -2.663663200000001  -6.5397188  -17.4360055
H    -4.277968300000001  -6.2339895  -16.8039247
H    -2.871788400000001  -6.0921343  -15.7477967
H    -7.3857721000000005  -1.2511872  -16.0166042
H    -6.153624500000001  -1.6653110999999998  -17.2302409
H    -4.408096900000001  -0.7529060999999999  -15.5972777
H    -5.187384900000001  0.5380372000000002  -17.3420426
H    -5.800571900000001  -0.8811547999999999  -13.5667746
H    -7.917698300000001  0.11041320000000021  -14.4095068
H    -7.091378400000001  1.6700212000000003  -14.6601291
H    -8.080806200000001  -0.8717902999999998  -12.1417183
H    -8.501453000000001  -0.37469109999999983  -9.7609215
H    -8.056746700000001  1.8847921000000003  -8.870151400000001
H    -7.180063500000001  3.6411128  -10.3770326
H    -6.764952000000001  3.1432187000000003  -12.739063400000001
H    -4.709424300000001  1.8351543000000001  -14.012716600000001
H    -1.169158200000001  1.0361124  -11.7201307
H    -2.489691200000001  0.7952620000000001  -10.5429964
H    -1.592592400000001  3.5300654  -11.5900252
H    -0.9489724000000006  2.8224886000000002  -10.0735298
H    -1.9607623000000007  4.1371926000000006  -8.3305845
H    -2.8373337000000007  2.6022989  -8.093042
H    -5.132725300000001  5.6843967  -9.6720895
H    -3.9741085000000007  5.1159211  -7.4884965
H    -4.950089300000001  3.6965013000000004  -7.9490077
