40

C    27.183  -14.866  38.999
C    26.9010496  -15.015845599999999  41.4937342
C    25.5044568  -14.571216199999999  43.9322025
C    24.8488306  -14.6049607  42.711667500000004
C    25.5148751  -14.819230999999998  41.5166586
C    25.9731069  -14.3493651  32.0860264
C    26.5262418  -14.977280299999999  33.2010567
C    27.475100700000002  -14.3179916  33.9688049
C    27.8801536  -13.0376923  33.5742825
C    27.3255617  -12.406096699999999  32.4716376
C    26.358402400000003  -13.067506199999999  31.723933000000002
C    28.2497364  -14.783299399999999  35.211683
C    29.4439075  -13.779527499999999  35.2410935
C    28.9476765  -12.5250103  34.4976681
N    30.630608000000002  -14.3610753  34.5672653
N    27.549150100000002  -14.7138133  36.5249521
C    28.088822800000003  -15.090784399999999  37.7117698
N    27.6126484  -15.203510999999999  40.2609793
O    26.084200000000003  -14.369368399999999  38.7872628
O    29.2104415  -15.5712158  37.8223672
C    27.5593903  -14.9904075  42.737473800000004
C    26.8772726  -14.771026299999999  43.9284642
Cl    24.601964900000002  -14.281389299999999  45.3831194
F    23.5067965  -14.4197673  42.6901868
H    24.9369146  -14.818409299999999  40.6069083
H    25.2341434  -14.8749018  31.501123200000002
H    26.1978189  -15.971245799999998  33.466903200000004
H    27.645841400000002  -11.4137566  32.1950574
H    25.9168186  -12.590970299999999  30.8631159
H    28.594061200000002  -15.816579099999998  35.1081449
H    29.7199628  -13.5590499  36.2733231
H    28.5149166  -11.811811299999999  35.1998966
H    29.7446847  -12.012201099999999  33.9629209
H    30.9476774  -15.197606599999999  35.0738725
H    31.4011867  -13.6811546  34.5512799
H    30.4041861  -14.620365099999999  33.5982974
H    26.616839600000002  -14.318857699999999  36.5608872
H    28.5617674  -15.5530753  40.342112900000004
H    28.6267432  -15.1415242  42.7780089
H    27.4192183  -14.7536755  44.8584058
