15

N    25.358  12.533  11.401
C    25.0796596  12.537224199999999  12.670247499999999
N    23.919726  13.1807283  12.9671186
C    23.4085018  13.631157799999999  11.7731345
C    22.268475000000002  14.3441031  11.4321611
C    22.058745000000002  14.6327704  10.098457499999999
C    22.962206600000002  14.2219149  9.117622399999998
C    24.0995853  13.5151529  9.445213299999999
C    24.3298061  13.2129213  10.7868868
H    25.6981896  12.0805404  13.416718
H    23.5127343  13.305854  13.8791975
H    21.5644694  14.6639892  12.1859681
H    21.178348800000002  15.185256599999999  9.8092397
H    22.7666157  14.4648753  8.0847777
H    24.801681600000002  13.196899499999999  8.690881099999999
