41

N    4.712  6.409  39.054
O    5.1813933  7.6391038  37.2338599
S    3.6204589  5.453616  36.7336316
C    7.4163128  8.614253099999999  39.0106133
N    3.5495744999999994  4.4228822999999995  39.0891761
O    -1.3460474000000002  -4.6170596999999995  38.2785102
S    1.0998969999999997  2.6807677  33.615284100000004
C    5.268328499999999  7.4802599  38.4386292
N    1.4938063999999998  2.0523431  36.0799577
O    0.023786299999999816  -3.6164787  39.7038881
C    5.959927499999999  8.428332600000001  39.38131
N    0.2719598999999997  0.44380109999999995  34.8410623
C    3.9968094999999995  5.4367842  38.4269677
C    2.8569344999999995  3.5594242  38.3028182
C    2.2769587999999996  2.3292686  38.907788000000004
C    2.7735689  3.9420015  36.9856089
C    2.0972448999999997  3.271218  35.8989035
C    1.9924075999999997  3.7644923  34.6214356
C    0.9357916999999998  1.6046968000000001  35.0032053
C    0.050921799999999795  -0.5381635999999999  35.806224300000004
C    0.6090003999999998  -0.4573936999999999  37.0746865
C    0.3827822999999997  -1.4588770000000002  37.9898528
C    -0.3989232000000005  -2.5505461  37.6539323
C    -0.5962652000000004  -3.6776853999999997  38.6232974
C    -0.9608078000000004  -2.6273152  36.3934624
C    -0.7402409000000003  -1.6316316000000004  35.4708617
H    4.813767499999999  6.2705496  40.0532402
H    7.8640773  9.395082500000001  39.6181807
H    7.5022820999999995  8.893468  37.9627726
H    7.9738583  7.6929976  39.1626817
H    5.4476081999999995  9.3899106  39.2931523
H    5.8688942  8.0787895  40.408124900000004
H    -0.13202630000000015  0.2765575  33.9295197
H    1.2307111999999996  2.229007  38.6336952
H    2.3713613999999996  2.3870274  39.987448
H    2.8090003999999995  1.4497565  38.5522481
H    2.3721168999999995  4.6860808  34.2319369
H    1.2236258999999996  0.38672970000000007  37.3243472
H    0.8139719999999997  -1.4266381  38.9801898
H    -1.5656305000000001  -3.4922641  36.1598386
H    -1.1769975000000001  -1.7013349  34.4851052
