72

P    17.348  9.949  17.643
O    18.103833599999998  10.867785999999999  18.574136600000003
O    17.3681423  8.483580499999999  18.0743076
O    15.991592299999999  10.471435199999998  17.226145300000002
P    13.9912473  7.385447999999999  13.247503000000002
O    13.7574057  6.227099599999999  12.3356895
O    13.712569599999998  7.239972799999999  14.702458600000002
O    15.520542299999999  7.9404831  13.011604600000002
C    16.5619738  6.9760127999999995  12.914683000000002
C    17.8275217  7.3723016999999995  13.694540600000002
O    18.5519152  8.4080135  13.032367
C    17.576508099999998  7.8628564999999995  15.128301900000002
O    18.4988974  7.2440869999999995  15.983440100000001
C    17.838229  9.3808118  15.060682100000001
O    18.3190267  9.9561745  16.236029600000002
C    18.929112099999998  9.3987295  13.979388900000002
N    19.1658527  10.6461705  13.328491200000002
C    18.281208  11.588396999999999  12.876226
N    18.8626133  12.6089136  12.314802000000002
C    20.2130979  12.3468089  12.3818084
C    21.3619242  13.045499099999999  11.949193700000002
N    21.2893591  14.2230888  11.328851900000002
N    22.5672328  12.4862723  12.175269000000002
C    22.626438999999998  11.3182966  12.792350200000001
N    21.619692  10.579462999999999  13.236010100000001
C    20.4158621  11.1197582  13.015250200000002
P    13.2930692  10.1736183  12.958404400000001
O    14.2391493  10.367296399999999  14.084619100000001
O    11.9346642  10.790271599999999  12.975961400000001
O    13.0801582  8.584596099999999  12.642130400000001
O    14.0322509  10.689819  11.601342500000001
C    14.0681957  9.953867599999999  10.395488100000001
C    15.5142645  9.826843499999999  9.911419600000002
O    16.0173863  8.5036153  10.033158100000001
C    15.6174859  10.1832391  8.424749600000002
O    15.7010028  11.568042299999998  8.2739948
C    16.8829888  9.415357799999999  7.985506100000001
O    17.995268199999998  10.2517619  7.901037700000002
C    17.0429659  8.298575199999998  9.063973
N    16.9829637  6.974439299999999  8.477792400000002
C    15.917366999999999  6.340359599999999  7.891708800000002
N    16.2076933  5.1721167999999995  7.396132800000001
C    17.5469595  4.986773999999999  7.649695800000002
C    18.4629126  3.9406878999999995  7.376863400000001
N    18.120627199999998  2.8186805999999995  6.739627900000001
N    19.7416522  4.0984055999999995  7.770386600000002
C    20.0855197  5.2117591999999995  8.395534700000002
N    19.3162  6.243740599999999  8.704144200000002
C    18.040598499999998  6.107919599999999  8.328247300000001
H    16.8177081  6.8855869  11.853086000000001
H    16.1882201  6.019480699999999  13.293045600000001
H    18.4792193  6.4887365  13.747021100000001
H    16.540810999999998  7.6801017  15.4514706
H    18.2781823  7.578343899999999  16.890515100000002
H    16.9090044  9.8784694  14.734762000000002
H    19.8767706  9.1074025  14.464864900000002
H    17.219484299999998  11.4647346  12.9971945
H    22.1432119  14.682092699999998  11.058329400000002
H    20.3832585  14.631561999999999  11.183939500000001
H    23.610323  10.9063619  12.954854700000002
H    13.474682999999999  10.525409699999999  9.673775100000002
H    13.6405543  8.956790199999999  10.534546100000002
H    16.1275899  10.5163316  10.512637900000001
H    14.737673399999998  9.7695254  7.916051000000001
H    15.5715943  11.805606  7.340057000000002
H    16.764954799999998  8.9459757  7.0014739000000015
H    17.8131825  11.071442999999999  8.386495300000002
H    18.0329129  8.3782441  9.539129800000001
H    14.9403633  6.780445199999999  7.887024800000002
H    18.8169654  2.1018605999999993  6.624063200000002
H    17.1571446  2.677017799999999  6.492700200000002
H    21.120429299999998  5.300342199999999  8.690661400000002
