50

C    -7.57  1.78  -8.221
C    -8.4043205  2.010572  -6.9566959
C    -8.0843811  3.3609166  -6.3328926
C    -8.4004004  4.4999286000000005  -7.3008932
C    -7.8883090000000005  4.2487588  -8.6955259
C    -7.5882027  3.01545  -9.130374100000001
C    -7.2084184  2.8830265  -10.5427926
C    -6.0581294  2.3474124  -10.9617527
C    -5.652563300000001  2.2207239  -12.343787299999999
C    -4.7145574  1.3011781  -12.6534005
C    -4.2469548  1.0575888  -13.9746257
C    -3.1888792  0.2657160999999999  -14.1950217
C    -2.7243718  -0.0024805000000001076  -15.5231859
C    -1.9112051000000005  -1.0328521  -15.7671356
C    -1.4994978000000003  -1.3004739  -17.1712316
C    -8.110944400000001  0.5342377  -8.929916200000001
C    -6.135753  1.4650403  -7.7711957
C    -7.7332326  5.460172099999999  -9.5896327
C    -6.248513600000001  3.103491  -13.4058184
C    -3.1899482000000003  0.8402506000000001  -16.676163
H    -8.2259362  1.2068469  -6.2422141
H    -9.4669173  1.9931084000000001  -7.2183133999999995
H    -7.0265316  3.3973172  -6.0669984
H    -8.6598573  3.4949814  -5.4142508
H    -7.9829882  5.4329287  -6.9145476
H    -9.486056300000001  4.635203499999999  -7.3647881
H    -7.90714  3.3035539  -11.2528797
H    -5.367516800000001  1.9279275  -10.2476169
H    -4.2646443000000005  0.7152566  -11.8616881
H    -4.774987100000001  1.5250086999999999  -14.7852686
H    -2.6939325000000003  -0.23960690000000007  -13.3780517
H    -1.5491697000000002  -1.6751432  -14.9807215
H    -2.3671166  -1.408179  -17.8202176
H    -0.8883261000000005  -0.4861106999999998  -17.5627043
H    -0.9113224000000004  -2.2149533999999997  -17.2393241
H    -7.5340043  0.3128369  -9.8244583
H    -8.059398400000001  -0.3208251999999998  -8.2603815
H    -9.1491605  0.6793768  -9.2243835
H    -6.149530700000001  0.8795753  -6.8551256
H    -5.6063199  0.8815047  -8.5183787
H    -5.569232100000001  2.3741789  -7.5867168
H    -6.7257499  5.4997267  -9.9998666
H    -8.432664500000001  5.4185766  -10.424705
H    -7.9241039  6.3720983  -9.030711199999999
H    -5.463804700000001  3.5182602000000003  -14.0340266
H    -6.936369200000001  2.541595  -14.0371506
H    -6.7920844  3.9306962  -12.9581269
H    -2.3691934000000003  1.036235  -17.3611248
H    -3.9769770000000007  0.3285091  -17.2299014
H    -3.5702277000000002  1.8007878  -16.34189
