35

N    34.097  23.508  28.807
C    33.4723836  24.327121599999998  29.7443315
O    32.2685827  24.518707499999998  29.7671405
N    34.298642300000004  24.933204099999998  30.6507538
C    35.6669229  24.7718681  30.742012
O    36.2899534  25.3893806  31.5865615
C    36.2562524  23.8502701  29.7818934
C    35.452858400000004  23.276949799999997  28.8469534
C    37.656216900000004  23.6415543  29.8968099
C    38.8398447  23.513785499999997  30.0586805
C    33.252648900000004  22.8773596  27.8067351
C    33.705223800000006  23.205538899999997  26.3483773
O    33.856039900000006  24.594135299999998  26.1874595
C    32.6546101  22.611814199999998  25.4033016
O    33.0965172  22.7351748  24.0644456
C    32.4181577  21.130024199999998  25.7778771
O    31.323054600000003  20.646080499999997  25.044618
C    32.2038584  20.879172399999998  27.2966644
O    33.2508197  21.4806949  28.0420608
C    32.142943300000006  19.3568529  27.5956511
O    33.2964397  18.707213399999997  27.1258654
H    33.855352700000005  25.5582921  31.3173765
H    35.834964500000005  22.593359999999997  28.1070463
H    39.8737975  23.3853971  30.180725
H    32.246488600000006  23.2953588  27.9660284
H    34.6621541  22.697173699999997  26.1549205
H    34.0033511  24.7716355  25.2460629
H    31.714924900000003  23.173914899999996  25.535528499999998
H    32.553349700000005  22.157065699999997  23.5080897
H    33.2789123  20.538244199999998  25.4481375
H    30.510004500000004  21.086382899999997  25.3335939
H    31.245216100000004  21.330049  27.601771199999998
H    31.304024800000004  18.9305438  27.0460591
H    32.005864700000004  19.212641499999997  28.6709799
H    34.0520329  18.994003799999998  27.6579503
