58

O    0.15799999999999992  72.798  89.676
C    1.1202981  72.2292621  89.11594840000001
O    1.4559478000000001  72.3827875  87.92339410000001
C    1.9765939000000001  71.2247445  89.96001980000001
C    2.9818994  71.9659424  90.84398030000001
C    3.6524343  71.1282618  91.9670722
C    3.7881348  72.0988803  93.1862349
O    2.9086081999999998  72.04827060000001  94.06647190000001
O    4.7561274000000004  72.87799530000001  93.15306600000001
N    2.9144309  69.9388639  92.3185763
C    3.5113184  68.7282271  92.4438051
O    4.7163769  68.5705662  92.2418772
C    2.5825633  67.59559850000001  92.7390077
C    2.9514575  66.2556739  92.8988278
C    2.0042917  65.2673178  93.1609258
C    1.2333472  67.9001909  92.8401462
C    0.30490819999999996  66.92291110000001  93.0876449
C    0.6475389  65.58505980000001  93.26002840000001
C    -0.5387867  64.6762159  93.50313960000001
S    -0.8076024999999998  63.457521  92.1250005
C    0.7593519  63.3000149  91.2302222
C    -0.6800417000000001  64.0072485  94.88687030000001
C    -0.39669730000000003  64.993769  96.03035720000001
C    -1.2638805  64.90045520000001  97.3057598
C    -0.5201525  65.64010830000001  98.39080360000001
C    0.2511375  64.8890782  99.2997433
O    0.2940891  63.6511573  99.36305660000001
N    1.0204582  65.6040413  100.2084591
C    1.0594582  66.96145750000001  100.19966930000001
N    1.8381048  67.5570426  101.1132482
N    0.35161200000000004  67.66871470000001  99.35312490000001
C    -0.42937369999999997  67.0252895  98.4447305
N    -1.1284556000000001  67.8082057  97.59933930000001
H    2.4913166  70.54831560000001  89.2757464
H    1.2837465  70.65770090000001  90.583455
H    2.4341975  72.7885164  91.3241411
H    3.7607422  72.4175597  90.2304737
H    4.6553162  70.8183996  91.6559878
H    2.1069129  70.1672283  92.87843640000001
H    3.9975097  65.9998889  92.82144000000001
H    2.3440054999999997  64.2558956  93.3177629
H    0.8608878  68.89906280000001  92.69047800000001
H    -0.7344622999999999  67.2160786  93.135182
H    -1.4265214  65.3055466  93.38636190000001
H    0.5087886  62.7308377  90.34022800000001
H    1.4818468  62.7535092  91.8269669
H    1.1327403  64.2807276  90.9531439
H    -0.005660599999999905  63.152977400000005  94.9620453
H    -1.6997129000000002  63.625923400000005  94.95276030000001
H    -0.4782474000000001  66.0100463  95.6359444
H    0.6465842  64.8719707  96.3329161
H    -1.3461617000000001  63.85792420000001  97.6181485
H    -2.2625386  65.2998712  97.13695240000001
H    1.5767583  65.0566965  100.85321110000001
H    1.9501579  68.5542393  101.04805780000001
H    2.4938212  67.0194264  101.6513647
H    -0.9428380999999999  68.7949873  97.6017786
H    -1.639418  67.40023570000001  96.84056100000001
