34

C    10.389  -53.791  -23.271
N    11.1083445  -53.0666489  -24.0654147
C    11.206891599999999  -51.846966599999995  -23.4524175
C    11.864196499999998  -50.6846567  -23.8513859
N    11.8515141  -49.594896899999995  -23.117151800000002
C    11.181388199999999  -49.6217828  -21.9633829
C    10.470225699999999  -50.730990399999996  -21.4465107
C    10.496529999999998  -51.880521599999994  -22.2329303
N    9.980715599999998  -53.14097219999999  -22.145163
C    9.2008455  -53.809758599999995  -21.142421600000002
C    7.712028499999999  -53.46460199999999  -21.1183774
C    7.047285099999999  -54.585077999999996  -20.3259394
N    7.624876799999999  -54.655351599999996  -18.964904100000002
C    9.0883168  -54.8719354  -18.9538747
C    9.763977399999998  -53.7474947  -19.7254238
C    9.9100504  -50.310947899999995  -20.2130534
C    10.285565599999998  -49.0175011  -20.026067700000002
N    11.050188799999999  -48.59970609999999  -21.0741366
H    10.133570899999999  -54.81129189999999  -23.477285600000002
H    12.411939099999998  -50.63470159999999  -24.7810647
H    9.2688549  -54.860678099999994  -21.4588826
H    7.3097672  -53.43817969999999  -22.1300239
H    7.539888199999998  -52.489092299999996  -20.6648413
H    7.206609899999998  -55.5394892  -20.8286619
H    5.9738945999999995  -54.40934109999999  -20.2489922
H    7.162047199999999  -55.405169699999995  -18.4377549
H    7.4234393999999995  -53.770500199999994  -18.4814534
H    9.310237299999999  -55.834143899999994  -19.416344300000002
H    9.440942399999999  -54.893007  -17.922520000000002
H    9.5771825  -52.785448699999996  -19.257643100000003
H    10.842347899999998  -53.9024169  -19.7407312
H    9.2757954  -50.858471099999996  -19.5499324
H    10.061196299999999  -48.35343889999999  -19.2152062
H    11.4587288  -47.6873283  -21.1859681
