67

O    19.359  -4.483  13.985
C    19.4871861  -3.2652797999999996  13.921668799999999
C    19.9675685  -2.6146443999999995  12.6275187
O    19.2541961  -3.0886958999999994  11.499587799999999
C    17.9449982  -2.5513722999999997  11.4073697
C    21.4771572  -2.8761904999999994  12.4619997
O    22.1637847  -1.9505338999999995  13.250703699999999
C    21.9182618  -2.7084668999999995  11.0034987
O    22.0536313  -1.3219242999999996  10.7568424
C    23.257927  -3.4276166999999993  10.788395099999999
O    23.803083700000002  -2.9069194999999994  9.5801936
C    23.0501143  -4.9077614  10.679401299999999
C    23.5307354  -5.698596499999999  11.622759599999998
C    23.458249  -7.187851499999999  11.749608199999999
C    22.7949964  -7.453036599999999  13.1021577
C    22.6826279  -7.833293699999999  10.6105086
C    24.9029554  -7.699490899999999  11.769978499999999
N    19.1515533  -2.4338105999999993  14.91345
C    18.7061158  -3.0144911999999997  16.171492999999998
C    19.4359524  -2.337829299999999  17.3294529
C    19.1777236  -2.8826674999999993  18.7640118
C    19.9086238  -2.0236281  19.8150163
C    19.9184106  -0.6656415999999994  20.0303248
C    20.7597885  -0.3973587999999997  21.1458798
C    21.2182452  -1.6220705999999996  21.5393175
O    20.7076318  -2.6075708999999994  20.744193
C    17.7178352  -3.1964941999999996  19.1632697
C    17.5400868  -4.0277652999999995  20.2810515
C    16.2876858  -4.4032272  20.7533455
C    15.1435246  -3.9706974999999995  20.0952336
C    15.2900373  -3.1542884999999994  18.9816264
C    16.551161  -2.7592981999999995  18.5296511
H    19.8376196  -1.5209834999999996  12.685721899999999
H    17.5227944  -2.9628664999999996  10.4945495
H    17.9833818  -1.4591485999999994  11.344782799999999
H    17.3341991  -2.8513722999999995  12.263976499999998
H    21.711277  -3.8872207999999997  12.8086554
H    22.3098584  -1.1634143999999993  12.6908567
H    21.1635247  -3.1372654999999994  10.333968299999999
H    22.6374157  -1.2279289999999996  9.9871957
H    23.9240904  -3.1846611999999994  11.6280751
H    24.640191899999998  -3.3508551999999994  9.3939561
H    22.5008612  -5.2487125  9.818554599999999
H    24.0664731  -5.232164699999999  12.4427831
H    22.7066197  -8.5227451  13.2820767
H    21.7971639  -7.016815899999999  13.1287416
H    23.3792502  -7.016586199999999  13.908387999999999
H    23.1597339  -7.623344599999999  9.6569194
H    21.6628495  -7.4562203  10.5853162
H    22.645966  -8.911736399999999  10.7472786
H    25.4635443  -7.235434  12.577363799999999
H    25.3972834  -7.472215799999999  10.8284971
H    24.9185986  -8.777418599999999  11.916224699999999
H    19.3360947  -1.4452620999999994  14.8647947
H    18.9363926  -4.081575999999999  16.1283675
H    17.624782500000002  -2.9054998999999997  16.2475213
H    19.1705413  -1.2770278999999993  17.321882199999997
H    20.5097946  -2.4091495  17.1496052
H    19.6796008  -3.8589056999999993  18.8188655
H    19.3766169  0.06561660000000069  19.4649903
H    20.9866459  0.5543161000000008  21.5749325
H    21.8730162  -1.9378517999999996  22.3249231
H    18.418307  -4.3810799  20.805277699999998
H    16.2141809  -5.0332704999999995  21.6262091
H    14.163583299999999  -4.2604999999999995  20.4395997
H    14.4158169  -2.7975159999999994  18.458282999999998
H    16.6000489  -2.0599743999999998  17.7113086
