41

C    38.313  -12.115000000000002  26.658
C    37.6334183  -13.317931500000002  26.3827648
C    37.0244443  -13.977244400000002  27.442320000000002
C    37.0740503  -13.4522428  28.769962300000003
C    37.7617303  -12.249806000000001  29.024127
C    38.3788802  -11.588241900000002  27.970884400000003
N    36.310884  -15.1514035  27.5355849
C    35.9739554  -15.306635100000001  28.8552299
N    36.3966309  -14.308940900000001  29.6050198
C    35.5167331  -20.443790300000003  28.3553587
C    36.5279673  -19.573278100000003  27.9391806
C    36.4485784  -18.219721200000002  28.2550384
C    35.366134100000004  -17.720125300000003  28.9972062
C    34.377948700000005  -18.6128754  29.4466003
C    34.4530432  -19.964256900000002  29.129410200000002
N    35.2352905  -16.365875700000004  29.331100600000003
C    38.9469973  -11.434212200000001  25.593829
N    39.4597913  -10.9003212  24.712137300000002
C    32.9365402  -23.5318246  25.371807500000003
C    33.741554300000004  -24.363138900000003  26.1435277
C    34.6745352  -23.819752100000002  27.0366785
C    34.7508164  -22.4038572  27.156836700000003
N    33.979725200000004  -21.632965000000002  26.3910051
C    33.1117925  -22.1615961  25.529472600000002
O    35.6058213  -21.8326785  28.0388862
C    35.5308609  -24.7827153  27.8153791
F    36.7541218  -24.3310378  28.137753200000002
F    35.7287236  -25.9255608  27.116758200000003
F    34.9450925  -25.1544227  28.980742300000003
H    37.6013794  -13.701902500000003  25.3750293
H    37.8052751  -11.856064800000002  30.0256282
H    38.913278500000004  -10.668138500000001  28.141907600000003
H    36.0779135  -15.775451800000003  26.780261600000003
H    37.358553300000004  -19.956466300000002  27.370002200000002
H    37.2433639  -17.5614752  27.9447453
H    33.5561864  -18.2494106  30.040300300000002
H    33.6877793  -20.6469375  29.4617121
H    34.8088774  -16.1774425  30.228657700000003
H    32.2162574  -23.9344526  24.6832388
H    33.6679988  -25.435899000000003  26.0560304
H    32.5491355  -21.437376500000003  24.9613219
