64

C    25.274  -20.447  22.71
C    23.972935200000002  -21.2235415  22.5359655
N    23.8456343  -21.8435096  21.1938085
C    23.4238612  -23.25352  21.2539572
C    25.043993200000003  -21.5917764  20.371238
C    26.326946500000002  -21.9466847  21.0971075
N    26.4206451  -21.2741066  22.385164500000002
S    27.9271888  -20.710252  22.7995372
O    28.0184859  -20.6119044  24.2423735
O    28.882541500000002  -21.6165047  22.1909089
C    28.055058600000002  -19.0555583  22.10849
C    28.3629092  -18.8904576  20.7652252
C    27.839987700000002  -17.9531362  22.9218672
C    27.9352977  -16.6806035  22.3772391
C    28.254595000000002  -16.4804783  21.0212749
O    28.375418500000002  -15.2465921  20.4546661
C    27.539197100000003  -14.1667241  20.8941188
C    27.8677831  -12.788931900000001  20.2703453
C    29.066683100000002  -12.7195523  19.3279001
C    28.4776007  -17.619923  20.1960605
C    28.8461407  -17.5260666  18.7332107
N    28.195980600000002  -18.3146394  17.8787899
N    29.8263785  -16.6965787  18.3595385
C    30.1615708  -16.6339893  17.0651734
O    31.150919000000002  -15.774591000000001  16.7389595
C    29.5136983  -17.4272019  16.0874779
C    29.8900258  -17.3256221  14.619811200000001
C    31.1006727  -18.1689982  14.2122529
C    28.5100948  -18.2781239  16.572178700000002
C    27.6998165  -19.1901078  15.6770994
C    26.370885  -18.5407309  15.2779557
H    25.384459200000002  -20.1613214  23.7572652
H    25.2720062  -19.5249967  22.1129377
H    23.1376876  -20.553993300000002  22.7335276
H    23.9643346  -22.020998900000002  23.2811434
H    23.083811700000002  -21.3594806  20.7030309
H    23.263559800000003  -23.6350166  20.2497395
H    22.497327900000002  -23.3336408  21.8155985
H    24.1869503  -23.8543264  21.742784
H    25.065496  -20.538943  20.088352
H    24.9875624  -22.1902115  19.4608668
H    27.1877794  -21.6854792  20.481181
H    26.3893275  -23.0239684  21.2833878
H    28.5482506  -19.7539071  20.1473833
H    27.625357400000002  -18.100239000000002  23.967062300000002
H    27.7736992  -15.830358  23.0183616
H    27.621970100000002  -14.070852  21.9815593
H    26.504530600000002  -14.4394831  20.655433
H    28.0349562  -12.0828833  21.0840651
H    26.988613  -12.4516162  19.7197023
H    29.174870900000002  -11.7066861  18.9528919
H    28.937486800000002  -13.3987283  18.4884896
H    29.9804287  -13.0050562  19.8431954
H    31.3222948  -15.7830183  15.7839542
H    30.0828284  -16.2764819  14.3755775
H    29.0335933  -17.6261603  14.017360199999999
H    31.3353167  -17.9914165  13.1667872
H    30.8905037  -19.2277655  14.3455731
H    31.976065600000002  -17.9267768  14.8120294
H    27.4904057  -20.098299700000002  16.241735300000002
H    28.273463500000002  -19.4549556  14.7916896
H    25.7921933  -19.2307664  14.6712214
H    26.5412465  -17.6324821  14.7036751
H    25.8025127  -18.2822491  16.1660641
