51

C    7.815  -3.191  6.568
C    7.671526200000001  -2.5678585  5.1867212
C    6.3278647  -1.870203  5.0730775
C    5.2126319  -2.8290105  5.4710925999999995
C    5.5000728  -3.3617819  6.8663061
C    4.4411565  -4.3771048  7.302910499999999
C    8.824843300000001  -5.2084321  7.1359333
C    10.0467917  -6.0587719  6.8747909
C    9.615415500000001  -7.4681351  6.488789199999999
C    10.5411629  -8.0490318  5.4396651
C    9.8149844  -9.0721938  4.584584899999999
C    10.417128  -9.0899742  3.1850419999999997
C    10.6799693  -10.516609800000001  2.7263588999999997
C    9.7889113  -10.9252875  1.5592004
C    10.6319376  -11.0539986  0.3043693999999997
O    9.007427700000001  -3.9192082  6.5651275
O    8.685385  -1.619637  4.98156
O    6.098142500000001  -1.4786530999999998  3.7446814999999996
O    3.9735354000000003  -2.1793988  5.4638385
O    6.737435400000001  -4.040692  6.8399997
O    5.026758900000001  -5.3583562  8.1177991
H    7.8646498000000005  -2.3894639  7.335524599999999
H    7.725828600000001  -3.3714031999999996  4.4366997
H    6.3170280000000005  -0.9962783999999996  5.7423075
H    5.211174700000001  -3.6715559  4.7612039
H    5.553484300000001  -2.5254499999999998  7.5780505
H    3.9822594000000002  -4.8354900999999995  6.4181834
H    3.6638139  -3.8908207  7.8898814999999995
H    8.6058618  -5.1028811  8.2056663
H    7.966694800000001  -5.6783607  6.6555097
H    10.716195200000001  -6.064963  7.7330096
H    10.5814171  -5.5950948  6.0447851
H    8.6136427  -7.4254768  6.0611941
H    9.563325  -8.111058  7.3679137
H    11.4329924  -8.485092  5.889074
H    10.865149200000001  -7.2322752  4.7920225
H    8.7553155  -8.818337  4.5232764
H    9.8764654  -10.0527947  5.0548259
H    11.3638142  -8.5472929  3.1999617
H    9.766905300000001  -8.5711135  2.4830281999999997
H    10.5333264  -11.2055085  3.5578358
H    11.722184500000001  -10.6233958  2.4215077
H    8.994314600000001  -10.196707799999999  1.4003061999999997
H    9.307726800000001  -11.8859071  1.7587815
H    11.1333347  -10.1134465  0.08578740000000007
H    11.387260300000001  -11.8262208  0.4309050000000001
H    10.020093600000001  -11.318988300000001  -0.5571283999999999
H    9.5455131  -2.0384998  5.1318941
H    6.832281  -0.9189967999999995  3.453562
H    3.8710663000000007  -1.7303164999999998  4.6093019
H    5.7676693000000006  -5.7550392  7.6416143000000005
