81

C    40.991  110.209  9.028000000000002
C    40.1956315  108.8920212  9.010754200000001
C    40.8202299  107.8711651  9.988438600000002
C    42.326625199999995  107.6235617  9.723085100000002
C    43.0485556  108.9770218  9.6282919
N    42.3905033  109.9024408  8.670711800000001
N    38.805011799999996  109.1602266  9.289555200000002
C    43.0004755  106.8244736  10.876735300000002
S    37.5628402  108.4117471  8.493526400000002
C    36.859889599999995  107.3496961  9.735944600000002
O    36.634396699999996  109.4652743  8.125526200000001
O    38.106060199999995  107.6141394  7.410072600000001
C    36.4079562  107.925492  10.914038500000002
C    35.8642666  107.1197653  11.904662900000002
C    35.7608069  105.7388884  11.728814500000002
C    36.2181862  105.1817757  10.529119800000002
C    36.7781459  105.9793674  9.538547400000002
C    35.162533599999996  104.8769329  12.807226400000001
O    42.4928391  106.8184251  11.986625500000002
N    44.1624208  106.18792739999999  10.600127400000002
C    44.9510442  105.4475742  11.584785500000002
C    46.228131  106.1923621  12.153440900000001
O    45.2392544  106.5339943  14.816323500000001
C    45.7336854  107.5589366  12.669850900000002
C    45.207730999999995  107.6261012  13.965398300000002
C    44.6584753  108.8152363  14.457738900000003
C    44.6108912  109.9519701  13.664174100000002
C    45.1292502  109.9111301  12.377491000000001
C    45.6772798  108.7264093  11.897771400000002
C    46.20368  105.5626985  14.612329300000003
C    46.7418322  105.3292434  13.339441100000002
C    47.7057183  104.31267989999999  13.252203900000001
C    48.1299522  103.5786682  14.358487800000002
C    47.6036237  103.8497916  15.614375700000002
C    46.6410141  104.842029  15.7325689
C    47.2754568  106.3075478  11.004831500000002
C    48.569258399999995  107.1057842  11.261637900000002
C    49.6073646  106.94481569999999  10.129806100000001
C    49.3044686  107.7720278  8.870036000000002
O    50.437129799999994  107.7759295  7.993404900000002
C    50.1444921  107.4386304  6.650730600000002
H    40.9593693  110.6393626  10.029285400000001
H    40.554636099999996  110.9090405  8.318128100000001
H    40.1873947  108.46838149999999  8.000315900000002
H    40.277546199999996  106.92866959999999  9.914739800000001
H    40.7115771  108.2276129  11.014708300000002
H    42.4418375  107.06366609999999  8.791844300000001
H    44.0830383  108.8296871  9.320768500000002
H    43.0443626  109.4399617  10.6178795
H    42.9328596  110.7742526  8.626395100000002
H    42.401567  109.4793328  7.733072600000002
H    38.5795702  109.4128577  10.236572800000001
H    36.4474041  108.99624539999999  11.032611500000002
H    35.512185699999996  107.5690142  12.819779300000002
H    36.1413626  104.1170261  10.375167200000002
H    37.1372656  105.5636933  8.611094500000002
H    34.8572322  105.4773854  13.657765500000002
H    35.8875831  104.1363658  13.137083200000001
H    34.2967119  104.3440519  12.420654200000001
H    44.537874099999996  106.2223861  9.664558500000002
H    45.269641199999995  104.5042891  11.140398600000001
H    44.283080999999996  105.2402956  12.424720600000002
H    44.2703442  108.8157346  15.464277900000003
H    44.1811486  110.8573543  14.061853100000002
H    45.124712699999996  110.7928815  11.759229300000001
H    46.0814605  108.706367  10.898752800000002
H    48.146749899999996  104.0807477  12.295927200000001
H    48.8739287  102.8092637  14.229583700000001
H    47.9278493  103.3050267  16.485749400000003
H    46.200455299999994  105.0813429  16.688253600000003
H    46.771804599999996  106.7518487  10.145992300000001
H    47.553136699999996  105.293415  10.718107900000001
H    49.0227382  106.7416556  12.186138500000002
H    48.3461363  108.1627701  11.403531500000001
H    49.7031841  105.893694  9.854669800000002
H    50.579763199999995  107.2752227  10.498481900000002
H    49.0973045  108.8118664  9.153215000000001
H    48.4364649  107.3638663  8.344850200000002
H    51.0970278  107.447929  6.126012700000001
H    49.472634799999994  108.1741239  6.196638600000002
H    49.7005714  106.4406888  6.580307900000002
