43

N    83.823  49.725  -38.261
C    82.69265859999999  50.3157278  -37.8838597
N    81.8454604  49.890352799999995  -36.9646084
C    82.20566819999999  48.7521734  -36.352129600000005
C    83.3872993  48.0558055  -36.640606600000005
C    84.18048669999999  48.58119  -37.662849300000005
C    79.21747579999999  48.5026881  -35.837645900000005
C    79.91005089999999  47.289300999999995  -33.7659487
C    80.44756489999999  49.727495499999996  -34.017088400000006
N    85.31087589999998  47.9906031  -38.062336200000004
C    83.0949414  41.8516026  -35.3582927
C    82.13080369999999  42.8684037  -35.3634769
C    85.65031199999999  46.1302631  -35.8756752
C    84.4174348  42.167276799999996  -35.486193400000005
C    86.19387359999999  43.8062118  -35.7524238
C    82.5039516  44.1779881  -35.4926185
N    82.24536579999999  46.9707317  -35.0782084
C    84.3071667  45.8729856  -35.7213888
C    83.3645179  46.952353099999996  -35.772655400000005
C    84.8283936  43.503855099999996  -35.619698400000004
C    83.8589957  44.534850999999996  -35.612455600000004
N    81.5619964  48.064195399999996  -35.3892443
C    80.29050349999999  48.3932242  -34.7511576
C    86.59830039999999  45.1040151  -35.873733900000005
H    82.43510889999999  51.2336246  -38.3909983
H    78.2642525  48.7617711  -35.388246200000005
H    79.1125905  47.5562827  -36.3635133
H    79.49208959999999  49.273233999999995  -36.553684100000005
H    80.6815094  47.1688143  -33.0109426
H    79.79089199999999  46.341177099999996  -34.282664100000005
H    78.97413289999999  47.549841099999995  -33.282940800000006
H    80.73753719999999  50.5038359  -34.7209304
H    81.21056329999999  49.647723899999995  -33.2461898
H    79.50679099999999  50.0056304  -33.5532032
H    85.4831026  47.026623099999995  -37.829092
H    85.7596882  48.3846935  -38.8734399
H    82.78416179999999  40.8225821  -35.2549803
H    81.08671729999999  42.6100895  -35.2692777
H    85.99538229999999  47.153475  -35.866253400000005
H    85.16985059999999  41.3918902  -35.490608
H    86.9105216  42.9986201  -35.745463900000004
H    81.75979149999999  44.9562293  -35.4856075
H    87.6449413  45.351968  -35.9648893
