36

C    11.925  -22.763  4.88
C    11.728533500000001  -21.90745  3.7960160000000003
C    12.2617795  -20.6298538  3.7919056
C    9.3728447  -25.5232109  5.1073
C    11.4148045  -24.1753118  4.905692800000001
C    9.9439369  -26.7964508  5.153556200000001
C    9.0969678  -27.8840314  5.275973400000001
C    12.6865805  -22.2957168  5.9539914000000005
C    12.9999473  -20.1884927  4.874963500000001
C    13.216688300000001  -21.0177047  5.9602512
Cl    10.8073447  -22.4123287  2.4095383000000004
O    12.1918381  -25.1130499  4.8509137
N    10.0760998  -24.3184571  5.017521
N    7.7749763000000005  -27.7926836  5.330625700000001
C    7.2265252  -26.5797575  5.2733173
C    7.9934689  -25.425157  5.187767
N    5.832899100000001  -26.4882527  5.330047400000001
C    5.1150191000000005  -25.4105818  4.8774763000000005
O    5.6362041000000005  -24.4271561  4.366836500000001
C    3.6385913000000008  -25.4428701  5.007634400000001
C    2.9793158  -24.0952329  5.2398002
C    2.8999743000000002  -24.7245765  3.8949567000000003
Cl    12.9640611  -23.314883299999998  7.3314436
H    12.0933762  -19.9900709  2.9415835
H    11.0091731  -26.9344496  5.098229600000001
H    9.4897135  -28.888164  5.3305032
H    13.4110131  -19.1925594  4.8712442000000005
H    13.7899378  -20.6858601  6.8093921
H    9.5009348  -23.4843392  5.017102
H    7.5246957000000005  -24.457528  5.1753669
H    5.3509196  -27.3428469  5.5756226
H    3.1935002  -26.3221189  5.4482773
H    3.644069  -23.2541986  5.3606451
H    2.1007312000000002  -24.0773161  5.8638159000000005
H    1.9629431000000004  -25.1454889  3.5677998000000004
H    3.5127873000000003  -24.3097366  3.1099645000000002
