74

O    -9.601  26.045  -4.733
N    -6.101940300000001  22.2805047  -5.8464389
O    -7.255778400000001  22.554425100000003  -5.1818522
C    -8.636286100000001  26.338840100000002  -4.0288769
C    -8.196737  25.417881300000005  -2.9115317
C    -8.212871400000001  23.980905000000003  -3.4396775999999996
C    -5.760908600000001  23.970064300000004  -4.4134484
C    -5.185761700000001  23.117377500000003  -5.4005551999999994
C    -3.803890800000001  23.086300400000002  -5.871069
C    -3.424549400000001  22.249601300000002  -6.9233463
C    -2.1091177000000014  22.203542100000004  -7.3494279
C    -1.139190000000001  22.991037800000004  -6.727345
C    -1.5240796000000012  23.8111865  -5.665600899999999
C    -2.832994100000001  23.862897500000003  -5.240929899999999
C    -7.065860200000001  23.574399300000003  -4.3127636
Cl    3.1838325999999997  20.486826800000003  -8.3012596
C    2.3186529999999985  21.928367400000003  -7.7961466999999995
C    0.966695099999999  21.852545000000003  -7.5003062
C    3.013430799999999  23.123431500000002  -7.6998424
C    2.336421099999998  24.265989400000002  -7.3036746
C    0.9879441999999994  24.207171500000005  -7.0126804
C    0.2848827999999992  23.004124200000003  -7.107239
C    -9.2563411  25.573894600000003  -1.8162169999999997
P    -8.718860600000001  24.806880200000002  -0.21723449999999955
O    -7.299984200000001  25.206117100000004  0.056891200000000364
O    -9.0441467  23.338610200000005  -0.19883599999999957
C    -9.7920172  25.602554800000004  1.0083842000000005
C    -9.2210236  25.9462946  2.2211908
C    -9.9943787  26.5196834  3.2128243
C    -11.338960400000001  26.725447800000005  2.9643725
Br    -12.3798566  27.526679900000005  4.339883200000001
C    -11.930237100000001  26.364492000000002  1.7652848000000003
C    -11.1433291  25.792834600000003  0.7809205000000001
N    -7.9916629000000015  27.501027300000004  -4.1656771
C    -8.481632000000001  28.491793800000004  -5.1038171
C    -7.751145400000001  28.407428300000003  -6.4501741
O    -6.594580600000001  28.015406800000004  -6.5439243
C    -8.342929900000001  29.888919400000002  -4.508659499999999
N    -8.4639436  28.831849000000002  -7.5021476
C    -7.844201900000001  28.967486900000004  -8.8114314
C    -6.749807300000001  30.042376700000002  -8.7155843
O    -5.596559100000001  29.822550500000002  -9.0566631
C    -8.878949500000001  29.320609900000004  -9.8702351
N    -7.159065500000001  31.223791900000002  -8.243485399999999
H    -7.219810200000001  25.676843800000004  -2.4970137999999995
H    -9.140311  23.824037200000003  -3.9973579
H    -8.229431700000001  23.309727100000003  -2.5713619999999997
H    -5.286575300000001  24.754493100000005  -3.8641143999999996
H    -4.182956400000001  21.646318300000004  -7.395137699999999
H    -1.8359104000000013  21.566448500000003  -8.1760738
H    -0.7831200000000011  24.389796200000003  -5.1374177
H    -3.1021533000000012  24.496725600000005  -4.4110096
H    0.44835959999999897  20.908908500000003  -7.5613361999999995
H    4.065390099999999  23.1549286  -7.933118199999999
H    2.8673756999999993  25.201421200000002  -7.2312536
H    0.4637683999999993  25.110520800000003  -6.7457034
H    -10.195408500000001  25.129877300000004  -2.1468090999999996
H    -9.421595100000001  26.637452800000002  -1.6180366999999998
H    -8.163012400000001  25.772850500000004  2.3534389
H    -9.5603309  26.800759000000003  4.1603996
H    -12.9853232  26.527010900000004  1.6041945000000006
H    -11.575128600000001  25.491052600000003  -0.16064459999999992
H    -7.134382100000001  27.684893700000003  -3.6694055999999997
H    -9.536651  28.239791900000004  -5.2631466
H    -8.7926137  30.624774800000004  -5.1670082
H    -7.291036200000001  30.130434800000003  -4.3745232
H    -8.840675800000001  29.925507700000004  -3.5435754999999998
H    -9.441639900000002  29.060457000000003  -7.4041967
H    -7.333394100000001  28.029182900000002  -9.0584655
H    -8.3848356  29.430957000000003  -10.830942
H    -9.382216800000002  30.251793900000003  -9.6275764
H    -9.613256300000002  28.5236839  -9.9477488
H    -6.483421400000001  31.959843500000005  -8.1151374
H    -8.1060987  31.365103600000005  -7.9376908
