56

O    15.072  84.585  33.929
C    14.6940502  85.906285  33.5817807
C    13.4738882  86.3655845  34.3921269
C    13.7596838  86.3464073  35.8945146
C    12.5310785  86.8148661  36.675246200000004
C    13.1053747  87.7993845  33.9953124
C    11.9118254  88.3367512  34.8004473
N    12.0716875  88.1336434  36.2368379
C    11.4354173  88.9789653  37.1328182
N    10.2224889  89.46197509999999  36.846782
C    9.6073133  90.2894807  37.6852559
C    10.1722732  90.7165362  38.8712873
C    11.4429353  90.2461198  39.1917995
C    12.0828303  89.3643594  38.337877
O    13.3595471  88.9074586  38.5560848
C    13.8095376  88.7030771  39.8453977
C    15.0662739  89.1830195  40.1923419
C    15.5667305  88.9755746  41.4643249
C    13.0633751  87.99045629999999  40.7787205
C    13.5672169  87.7739716  42.0431699
C    14.8257695  88.2569194  42.4038708
N    15.2521147  88.0082745  43.690885200000004
C    16.4927944  88.1544681  44.2086779
N    17.634276  88.27225399999999  43.4707403
C    18.6589009  88.3885335  44.3759146
C    20.0194752  88.551088  44.2187585
C    20.7960805  88.64181959999999  45.3616591
C    20.2194446  88.57469789999999  46.628610800000004
C    18.8541345  88.4192952  46.7892757
C    18.0605205  88.32767199999999  45.6516649
N    16.7058045  88.17773609999999  45.5034552
H    15.8355856  84.3258137  33.3978549
H    14.4466425  85.9580678  32.5128692
H    15.5278738  86.5942748  33.7792839
H    12.6414293  85.68855119999999  34.1790386
H    14.5975425  87.0113037  36.111457800000004
H    14.024482299999999  85.3379602  36.2109457
H    12.7589165  86.8566069  37.7381857
H    11.7160173  86.0888569  36.5252647
H    12.851185599999999  87.8535413  32.9370167
H    13.9719254  88.4390713  34.1736565
H    10.9974765  87.8327635  34.4496514
H    11.7889188  89.4064095  34.6331714
H    8.6270054  90.61263339999999  37.3667338
H    9.657320599999998  91.3999657  39.5253109
H    11.9422907  90.56572609999999  40.095687500000004
H    15.6296996  89.7439373  39.4640918
H    16.4964007  89.4477278  41.727794700000004
H    12.082603599999999  87.62574889999999  40.5098616
H    12.9804764  87.2254023  42.7627065
H    14.552681399999999  87.74979069999999  44.3721231
H    17.735584799999998  88.1223103  42.481546800000004
H    20.46958  88.60004719999999  43.2383059
H    21.8640476  88.7658855  45.2698634
H    20.8504886  88.64714099999999  47.5012865
H    18.4072187  88.3709947  47.769873000000004
