47

C    0.925  19.572  10.036
C    -0.5465145  19.9025649  9.802816
C    -1.3090169999999999  19.8095677  11.1243098
C    -0.7594842  20.8237815  12.1223461
C    0.7485836  20.6740026  12.316196099999999
C    1.538116  20.5896329  11.0071784
O    1.6560188999999998  19.5372576  8.8571067
O    -0.6690493000000001  21.1659414  9.236172400000001
O    -2.6605559  20.0359868  10.935097
O    -1.3787414  20.6740089  13.3514887
O    1.1975262  21.746987700000002  13.1375677
O    2.8314475  20.1956189  11.3055726
O    2.275054  17.0191765  9.1388076
O    -2.7690725  21.1888377  7.7272882
O    -3.5854095  18.4538382  12.7824966
O    -3.7844744  21.5954555  13.7442957
O    1.7818811  20.3020361  14.785702
O    5.11887  20.8046368  12.1380149
O    0.48016000000000003  17.6263716  7.489133
O    -0.6926058  20.089585800000002  6.8311185
O    -3.2633314  17.565517200000002  10.4536718
O    -1.901634  23.2234251  13.293335299999999
O    3.6068715  22.667038  11.2106958
O    2.887259  18.2472248  7.0034275
O    -0.7409773999999999  22.596682  7.1217342
O    -5.093814399999999  19.2783138  10.9096864
O    -1.9901108  21.927492100000002  15.483688
O    3.7712939999999997  24.4967829  15.7211792
O    4.7057539  20.992489  9.6717395
O    4.3895434  22.5592934  14.2678686
O    2.8081829  24.3944039  13.390740300000001
P    1.8340352000000002  18.0105096  8.062278599999999
P    -1.2501554000000001  21.2578357  7.6145952
P    -3.7310325  18.7507626  11.2977338
P    -2.3343304000000002  21.9489014  14.00729
C    1.6147243000000002  21.4461187  14.3864503
P    4.1564286  21.2625666  11.0622969
C    1.8343991000000002  22.6232373  15.2591348
P    3.3228044999999997  23.5904014  14.560340199999999
H    0.9716488  18.574299500000002  10.5322397
H    -0.9649301  19.144318300000002  9.1091915
H    -1.1433189000000001  18.7903801  11.539744
H    -0.9563023999999999  21.8325105  11.7018361
H    0.9307865000000001  19.7302226  12.8633269
H    1.5269856000000002  21.5861156  10.5192563
H    2.022437  22.2723074  16.274527
H    0.9547523  23.2672304  15.1935893
