67

C    -13.02  27.334  22.153
O    -12.8898943  28.246835  23.2293188
C    -12.8750181  27.6980227  24.4758153
C    -12.9801112  26.3431992  24.7246266
C    -12.7390476  28.5901692  25.5576528
O    -12.6358017  29.9139276  25.2453036
C    -12.5032185  30.7784082  26.3576493
C    -12.7128371  28.104917399999998  26.8543584
C    -12.8166425  26.7445345  27.0907069
C    -12.9478096  25.875201  26.0307512
C    -13.0353907  24.4111911  26.2759902
C    -14.4235617  23.935676  26.0719176
N    -15.2570583  23.8330606  27.1565559
C    -16.5439284  23.3229125  27.0555504
O    -17.2692104  23.221154  28.0339743
N    -14.776519799999999  23.5934574  24.8872664
N    -16.0118069  23.1072553  24.7255794
C    -16.914536299999998  22.942466  25.7511637
C    -18.0471573  22.3971175  25.1835226
C    -19.3181341  22.028400599999998  25.8666276
N    -17.823135  22.2365319  23.8632936
C    -16.5967046  22.6740866  23.597954
C    -15.9446155  22.6304727  22.247458299999998
C    -14.6162337  21.8386519  22.2785812
C    -14.8741981  20.4145684  22.7672965
O    -14.088891199999999  21.8218455  20.9618933
C    -15.749679  24.0092283  21.5927763
C    -17.0698687  24.6351445  21.1479466
C    -16.7835621  25.9429832  20.4071944
C    -18.0269698  26.5326707  19.8584015
C    -18.3103413  26.4025634  18.5078624
C    -19.4650142  26.9443297  17.9741558
C    -20.350568799999998  27.617493  18.797852
C    -20.0764291  27.7408686  20.1509015
C    -18.9184123  27.2027559  20.6819979
H    -13.014903499999999  27.9492609  21.25567
H    -13.9630296  26.7846395  22.2095471
H    -12.1804682  26.6363932  22.1228473
H    -13.0926409  25.6260259  23.9307568
H    -12.436105699999999  31.7790565  25.933491
H    -11.5920203  30.5635601  26.9204322
H    -13.3774003  30.7217807  27.0104785
H    -12.6072049  28.766391499999997  27.6953439
H    -12.7809236  26.379862499999998  28.1047767
H    -12.713042999999999  24.1781134  27.290984899999998
H    -12.3952387  23.8829137  25.5681254
H    -14.9437553  24.1224205  28.0746721
H    -20.0165623  21.6239846  25.1420475
H    -19.7455745  22.906080199999998  26.3470942
H    -19.1190786  21.2931746  26.643568000000002
H    -16.633069  22.06536  21.6088696
H    -13.9147241  22.352505  22.9518356
H    -13.9459051  19.849042599999997  22.8099189
H    -15.559807  19.914945499999998  22.0876316
H    -15.3170134  20.4253524  23.7594846
H    -13.2814006  21.2913566  20.9572887
H    -15.1073172  23.8625365  20.7254052
H    -15.2387927  24.670921  22.2957076
H    -17.714230999999998  24.8187828  22.0095575
H    -17.594952  23.948418  20.4821869
H    -16.0769689  25.7410805  19.6004625
H    -16.31324  26.6454724  21.100984
H    -17.6165603  25.8780273  17.8672697
H    -19.6751614  26.8446867  16.9196038
H    -21.2536605  28.0463374  18.3897211
H    -20.7698616  28.2656703  20.7923305
H    -18.702673  27.309546599999997  21.735016
