53

Cl    -13.492  66.721  16.241
C    -14.045113200000001  69.3772009  16.3518233
C    -14.8504795  70.46938440000001  16.6567415
C    -16.099304200000002  70.27728  17.231920499999998
C    -16.5460002  68.99287140000001  17.503652999999996
C    -15.749957  67.88386030000001  17.2002915
C    -14.4934226  68.0935419  16.6209252
N    -16.2049236  66.54941660000001  17.4751791
C    -16.5982331  65.58479040000002  16.556553799999996
N    -16.9414595  64.49375820000002  17.214504299999998
N    -16.7689248  64.69637540000001  18.523226599999997
C    -16.319415900000003  65.92029880000001  18.7204995
C    -16.030312600000002  66.51641760000001  20.026234199999998
C    -16.3899286  65.97428640000001  21.211515399999996
C    -16.2233118  66.61983780000001  22.509162699999997
N    -16.5355734  66.1326243  23.6901406
N    -16.2340611  67.05902490000001  24.6192517
C    -15.743634100000001  68.11001630000001  24.0070356
C    -15.274328200000001  69.37864630000001  24.6101188
C    -15.0816227  69.51128570000002  25.9929681
C    -14.6386812  70.70517500000001  26.5471169
C    -14.371374500000002  71.82054300000001  25.7426605
C    -14.563126500000001  71.69578690000002  24.3644361
C    -15.002653  70.49953430000001  23.814225599999997
C    -13.915203100000001  73.05404990000001  26.303663199999995
N    -13.5488537  74.04771710000001  26.749572799999996
O    -15.7195227  67.88033670000002  22.6601309
C    -16.701695  65.74276850000001  15.058167099999999
C    -17.60802  66.65825660000002  14.521226199999997
C    -17.718220000000002  66.78144950000001  13.139089199999997
C    -16.9252213  65.99410710000001  12.324859099999998
C    -16.0609727  65.09571360000001  12.932393799999998
N    -15.957522500000001  64.9782818  14.249525299999998
S    -17.089901400000002  66.11825590000001  10.525552499999998
O    -18.3875038  66.68878470000001  10.206751299999997
O    -16.952046000000003  64.7942596  9.958622699999998
C    -15.778789600000001  67.17565520000001  9.883075799999999
H    -13.073116200000001  69.51319600000001  15.909425799999998
H    -14.496446500000001  71.4645777  16.445155099999997
H    -16.7267844  71.11931460000001  17.4713833
H    -17.512470500000003  68.8296971  17.955729899999998
H    -15.554128200000001  67.48847640000001  19.9876698
H    -16.8675058  65.00896500000002  21.2557992
H    -15.282593700000001  68.66584950000001  26.630539999999996
H    -14.498895800000001  70.77208600000002  27.614876199999998
H    -14.366722200000002  72.5369775  23.717731199999996
H    -15.139217400000001  70.43332190000001  22.745249299999998
H    -18.222315000000002  67.26535280000002  15.167662399999998
H    -18.4201476  67.46810310000001  12.692120399999997
H    -15.4351268  64.43673910000001  12.349502199999998
H    -15.917008000000001  67.21597240000001  8.810456499999997
H    -14.8351947  66.71441490000001  10.139452499999997
H    -15.890886600000002  68.15365880000002  10.330333799999998
