77

N    9.863  -16.361  -8.464
N    10.731601  -14.741704400000001  -12.9633359
C    10.7053985  -15.3975342  -7.7462354000000015
C    8.943501699999999  -18.4429834  -11.369398200000001
C    10.4509537  -18.2790496  -11.805991700000002
C    10.217091499999999  -12.533824300000001  -11.9898123
C    11.311794099999998  -13.4380105  -12.649482800000001
C    9.831222499999999  -14.6289707  -14.1147466
C    12.243028299999999  -16.5230487  -11.9676997
C    13.304350999999999  -17.583387600000002  -12.3455103
C    13.7481528  -16.4263592  -14.546604700000001
C    10.5292444  -20.7375259  -8.008118500000002
C    10.8861361  -22.065226000000003  -8.185334500000002
C    12.2135556  -22.4777294  -8.053862900000002
C    12.800736999999998  -20.1878552  -7.537457300000002
C    12.1305857  -24.743914  -9.0761742
O    10.492072599999998  -11.3253195  -11.942443800000001
O    9.175325099999998  -13.0771741  -11.589317500000002
C    8.7908941  -15.787571000000002  -14.040578400000001
O    8.520328899999999  -16.2018631  -12.9022552
O    8.351726  -16.194791600000002  -15.1229486
C    11.7090293  -15.835484300000001  -13.226747500000002
C    12.8695598  -15.280230900000001  -14.0623742
C    14.376815899999999  -17.0835093  -13.3241346
N    11.1263948  -17.137194700000002  -11.1569149
O    8.431338199999999  -17.530802400000002  -10.7018368
O    8.406631099999998  -19.507304  -11.7029896
C    11.618744799999998  -17.483139400000002  -9.7967445
C    10.526017799999998  -17.665911400000002  -8.745313600000001
C    11.448245799999999  -14.462369500000001  -8.743078800000001
O    10.9947685  -14.4452757  -9.9043305
O    12.433344599999998  -13.851868900000001  -8.304841800000002
C    8.606160099999999  -16.5278281  -7.758609200000001
C    7.6401018999999994  -15.361698200000001  -7.996152800000001
O    7.932738099999999  -14.517797300000002  -8.855825800000002
O    6.618476799999999  -15.391433900000001  -7.290188600000001
C    11.102792699999998  -18.3215012  -7.473324300000002
C    11.4799852  -19.772679800000002  -7.689190100000001
C    13.162675  -21.513016200000003  -7.711616000000001
N    12.633978999999998  -23.812518500000003  -8.227965400000002
S    10.8512411  -24.4689753  -10.129835900000002
N    12.6862868  -25.959108800000003  -9.107636000000001
H    9.597579499999998  -15.8626892  -9.343587500000002
H    10.068033  -14.9343087  -12.182670000000002
H    11.406279699999999  -15.8761647  -7.069755000000001
H    10.0647761  -14.720941100000001  -7.177072700000001
H    10.384079  -18.1420979  -12.882073600000002
H    10.958902799999999  -19.216159400000002  -11.5823867
H    11.6869918  -12.932065300000001  -13.534207400000001
H    12.084971099999999  -13.5303371  -11.8875168
H    10.367156199999998  -14.6528448  -15.060895600000002
H    9.253804299999999  -13.705921400000001  -14.0361439
H    12.678243199999999  -15.7475438  -11.3280688
H    12.7897533  -18.4221688  -12.8132497
H    13.793966099999999  -17.9353018  -11.440421500000001
H    14.524023  -16.040233100000002  -15.204786600000002
H    13.1482637  -17.1461662  -15.1039113
H    9.4913172  -20.4583032  -8.123488400000001
H    10.114913099999999  -22.780077300000002  -8.419211700000002
H    13.559  -19.4656472  -7.278049600000001
H    11.1647526  -16.5701568  -13.8299494
H    12.473329699999999  -14.730875600000001  -14.914556000000001
H    13.468188199999998  -14.5997743  -13.4594748
H    14.989822  -17.9332433  -13.6170474
H    15.014252199999998  -16.3552736  -12.822077400000001
H    10.3787773  -16.430262600000002  -11.045201
H    12.289552299999999  -16.686309400000003  -9.4682995
H    12.173673399999998  -18.421555  -9.872117600000001
H    9.746715299999998  -18.314720700000002  -9.149083800000001
H    8.756362499999998  -16.6532105  -6.686696600000001
H    8.072982399999999  -17.397131  -8.155550900000001
H    10.3471804  -18.2717849  -6.689411100000001
H    11.993692499999998  -17.7881378  -7.144163700000002
H    14.195491899999999  -21.798643300000002  -7.585548900000001
H    13.5183214  -24.0318488  -7.783734300000001
H    12.293396399999999  -26.624476100000003  -9.750118
H    13.463296  -26.2165648  -8.519959900000002
