15

O    34.817  -8.591  -21.808
C    34.2609141  -7.619155599999999  -21.254983199999998
O    34.618019000000004  -7.1290461999999994  -20.1601738
C    33.064749400000004  -6.9729171999999995  -21.951425899999997
C    32.576492300000005  -5.7747309  -21.440499399999997
C    31.500230500000004  -5.170864999999999  -22.0594194
C    32.4345021  -7.515826  -23.0621023
C    31.345700200000003  -6.835923799999999  -23.609209099999998
N    30.894133100000005  -5.684366499999999  -23.11836
C    30.591990900000003  -7.414586599999999  -24.803832
O    29.573512200000003  -6.815740899999999  -25.202856099999998
O    31.040402300000004  -8.475052  -25.297166599999997
H    33.057349200000004  -5.352974799999999  -20.5698786
H    31.090375700000003  -4.235073699999999  -21.7040959
H    32.7674998  -8.4455522  -23.5003866
