105

C    18.528  28.919  14.866
C    18.1407469  28.273700400000003  13.527748499999998
C    19.8613879  28.435500500000003  15.450166799999998
C    16.978424999999998  29.0511932  12.864927999999999
S    15.3606231  29.0171044  13.741363199999999
C    14.634467399999998  27.445034900000003  13.302127599999999
N    20.1035182  29.030081700000004  16.7854477
C    21.390656  28.569566000000002  17.3252807
C    20.0737017  30.500942000000002  16.7523491
C    14.5546151  26.4477572  14.268773099999999
C    13.974140899999998  25.2299754  13.946724099999999
C    13.4623782  25.0154761  12.672594899999998
C    13.530177799999999  26.021907900000002  11.718704999999998
C    14.113147499999998  27.242129100000003  12.0305524
N    17.8172496  26.865986300000003  13.692728699999998
C    17.825681699999997  25.477102000000002  10.3118463
C    17.4576736  24.152717600000003  10.570876199999999
C    17.2186137  23.7222155  11.855101
C    17.320563999999997  24.6008032  12.948154999999998
C    17.6928737  25.969918900000003  12.711229099999999
C    17.9458707  26.349004500000003  11.358556599999998
S    17.3021667  23.0099534  9.220478799999999
O    17.5496591  21.667388900000002  9.704386399999999
O    18.0007565  23.4831426  8.051456599999998
C    3.0032183999999997  21.1505651  8.610627
C    3.1068261999999987  21.910916500000003  9.765576699999999
C    3.7478790999999987  23.1543753  9.767845999999999
C    4.2811112  23.634502400000002  8.557393999999999
C    4.181436699999999  22.8540138  7.400792899999999
C    3.548439499999999  21.620234000000004  7.421880099999999
C    3.789583799999999  23.871306500000003  11.0757883
C    3.1902919999999995  25.121880700000002  11.250839399999998
C    3.1805373999999986  25.7486068  12.491423
C    3.7731964  25.125429500000003  13.581332699999999
C    4.371398299999999  23.8799755  13.435148599999998
C    4.370976799999999  23.2591791  12.192187099999998
C    5.0215157999999995  24.9553532  8.482630499999999
N    6.459648699999999  24.726472500000003  8.203175499999999
C    7.061615999999999  23.7664179  9.1435079
C    8.4670451  23.397115000000003  8.676597899999999
N    9.326318399999998  24.5638541  8.483309799999999
C    8.6788283  25.643643200000003  7.746268699999998
C    7.275061399999999  25.9532783  8.268255499999999
C    10.6772975  24.4190611  8.4793302
C    11.5528795  25.4894463  8.1441065
C    12.631169199999999  22.974824  8.8506857
C    11.269444499999999  23.174174500000003  8.820549199999999
C    13.473864899999999  24.037093700000003  8.523745599999998
C    12.898709499999999  25.261581800000002  8.1854257
S    14.2670429  26.341668000000002  7.827307199999998
N    15.4635267  25.237043800000002  8.176918699999998
C    14.9279374  24.097137800000002  8.4960519
N    15.6485282  22.9962617  8.826252899999998
O    14.2948793  26.667467900000002  6.413419799999999
O    14.3137124  27.4665497  8.744922099999998
Cl    3.7581989999999994  25.9093154  15.1496214
N    17.0559911  24.078233400000002  14.2498875
O    17.188606399999998  24.812381900000002  15.227797299999999
O    16.684006699999998  22.9163226  14.3680144
H    17.713155099999998  28.73937  15.569772299999999
H    18.575210499999997  29.988025200000003  14.672296499999998
H    18.993898299999998  28.3533519  12.843706599999999
H    20.6828821  28.723749  14.792639499999998
H    19.856018499999998  27.3487924  15.545904099999998
H    16.7775923  28.682669100000002  11.860919899999999
H    17.2230128  30.1090081  12.811528899999999
H    19.3572679  28.712239200000003  17.4152834
H    21.536399099999997  28.947851300000004  18.3338088
H    22.2019234  28.930750900000003  16.697362899999998
H    21.4269185  27.4830615  17.353889
H    19.069565599999997  30.869996800000003  16.570592299999998
H    20.7415904  30.8641314  15.975311999999999
H    20.4099737  30.8965922  17.7077453
H    14.9437471  26.6238934  15.258982199999998
H    13.920745199999999  24.4489999  14.690099599999998
H    13.0112197  24.067291500000003  12.426948699999999
H    13.138664799999999  25.8747438  10.724335199999999
H    14.173947499999999  28.009157000000002  11.271958999999999
H    17.553551499999998  26.5526273  14.624916599999999
H    18.009475799999997  25.767210400000003  9.291688299999999
H    16.9649165  22.6893716  12.037573499999999
H    18.2666447  27.352216600000002  11.145057799999998
H    2.4986163999999995  20.197344800000003  8.6376262
H    2.6777919999999984  21.5445868  10.6855766
H    4.5757449999999995  23.2220234  6.4663426999999984
H    3.470947299999999  21.032865400000002  6.520640399999999
H    2.699710699999999  25.604025800000002  10.4193094
H    2.7060326999999997  26.7085033  12.611551299999999
H    4.824316099999999  23.3971133  14.2851842
H    4.8326614999999995  22.289515800000004  12.0898262
H    4.934441699999999  25.4808285  9.4339085
H    4.6020503999999995  25.5751235  7.689397399999999
H    6.534584599999999  24.329737  7.256693699999999
H    6.462359899999999  22.857264800000003  9.1872493
H    7.0829686999999995  24.2202084  10.134798299999998
H    8.413024499999999  22.817309700000003  7.747451199999999
H    8.882759499999999  22.7649477  9.4571341
H    8.629132499999999  25.3790957  6.682403899999999
H    9.265438199999998  26.554749800000003  7.834003599999999
H    7.3087214  26.297943000000004  9.301399499999999
H    6.834042899999999  26.7328735  7.646786199999999
H    11.2130856  26.4709411  7.868146799999999
H    13.0233463  22.0044015  9.105664099999998
H    10.6599002  22.320291800000003  9.0496413
H    15.1394483  22.173862900000003  9.118419399999999
