98

N    12.593  8.448  35.68
C    11.7066083  9.113964  34.701588
C    10.6801333  8.138607499999999  34.126046
C    12.527173399999999  9.7642858  33.5987228
C    11.046778  10.2027884  35.6380575
C    9.7300869  9.6900955  36.2411127
C    10.8010343  11.5051105  34.912307999999996
N    12.0080591  10.3456382  36.7337299
C    12.8029564  9.3446672  36.745219
C    13.8414932  9.1389199  37.778166399999996
C    13.8932059  9.9686132  33.7672661
C    14.642763  10.635682599999999  32.8121449
C    14.0211843  11.109875899999999  31.6703202
Cl    14.9408501  12.047788  30.508544299999997
C    12.6731078  10.8698051  31.453585399999998
C    11.9337713  10.2007186  32.4155456
C    9.5570324  11.776998599999999  34.3485783
C    9.3289686  12.9536136  33.6584973
C    10.3606507  13.8657682  33.5218088
Cl    10.092244299999999  15.338989399999999  32.616020999999996
C    11.6034273  13.6239917  34.0851676
C    11.8159972  12.4463172  34.7810383
C    13.079905799999999  7.1570768  35.4537683
O    13.3346365  6.7635247  34.320017899999996
N    13.245072  6.3316926  36.537275799999996
C    13.8718215  5.0288255  36.331533799999995
C    14.766091  4.6959975  37.519215599999995
N    13.9757419  4.6938005  38.7749755
C    13.3475857  6.024347499999999  38.977745
C    12.4803901  6.4041265  37.772719099999996
C    13.5669383  9.4559245  39.1090772
C    14.5121182  9.2859287  40.1047587
C    15.7813465  8.7953559  39.8099787
C    16.8188541  8.605414699999999  40.8974104
C    17.7895258  9.795085499999999  40.8745494
C    17.6074421  7.3083609  40.6795091
C    16.0774361  8.4913638  38.4869901
C    15.1325562  8.6589432  37.4760947
O    15.4284564  8.3815407  36.1762149
C    16.745656099999998  7.9203477  35.898863999999996
C    16.8698165  7.5947420999999995  34.4204825
C    16.1404834  8.5397908  42.2700056
C    14.122613099999999  4.3157206  41.2619222
C    15.0825099  3.8181341  42.3325884
S    14.4674315  4.2626921  43.971252
C    15.5782132  3.4597498  45.1220881
O    13.1315194  3.7085669999999995  44.1293304
O    14.5757864  5.7059013  44.1215268
C    14.832813999999999  4.275885  39.9080708
H    9.8900696  8.6772826  33.6181362
H    10.2540581  7.5155764  34.9052745
H    11.175257  7.4924428  33.4021476
H    9.3137697  10.475708  36.8673491
H    9.9300539  8.828965499999999  36.8762938
H    9.003917099999999  9.4098353  35.4929029
H    14.3945818  9.6135772  34.651604999999996
H    15.6959687  10.809900299999999  32.963316999999996
H    12.1987702  11.2233655  30.5520365
H    10.8827261  10.049222199999999  32.236421
H    8.739203199999999  11.083557599999999  34.4262857
H    8.3647099  13.1592026  33.2231801
H    12.3953784  14.3477132  33.978871999999996
H    12.7766365  12.2574484  35.2327522
H    14.452518099999999  5.0800985  35.4107683
H    13.0991935  4.2623913  36.198794899999996
H    15.5455784  5.4521485  37.617246099999996
H    15.2224147  3.7190497999999996  37.367534899999995
H    13.2152095  4.0081533  38.6728161
H    14.1400349  6.758385499999999  39.1217356
H    12.7107952  6.0044669  39.8591829
H    11.6402634  5.6986627  37.6983184
H    12.0716185  7.3989047999999995  37.9189731
H    12.592388  9.8522167  39.343874299999996
H    14.2382329  9.5542011  41.1082118
H    18.5282327  9.6912077  41.665094599999996
H    17.2528302  10.729322  41.0265039
H    18.3089882  9.8550226  39.9207973
H    16.930585699999998  6.4601817  40.6648699
H    18.3050465  7.170924599999999  41.5022139
H    18.1873644  7.3314071  39.7632074
H    17.069924999999998  8.164956199999999  38.2449358
H    16.9449695  7.0111231  36.4773981
H    17.4738082  8.6945848  36.1698926
H    17.8341134  7.134622  34.228699399999996
H    16.7823547  8.4958913  33.8182197
H    16.0747122  6.9180345999999995  34.1143423
H    15.733577  9.5035663  42.5601644
H    16.875643699999998  8.269728  43.0263848
H    15.350927  7.7937668  42.3044042
H    13.8491033  5.3335559  41.5421244
H    13.2236181  3.7009049999999997  41.2742064
H    16.0516427  4.303186999999999  42.2614619
H    15.1897792  2.7384082999999997  42.329826
H    15.2523689  3.709891  46.123826799999996
H    16.5759933  3.8371318  44.945276299999996
H    15.512050499999999  2.3923691  44.9616171
H    15.6938685  4.9449994  39.9360764
H    15.1828663  3.2614424999999994  39.7145463
