37

C    20.597  7.789999999999999  13.497
C    20.7124025  10.1577516  14.3480976
C    19.536094900000002  11.9606096  13.252149
C    17.8983618  3.2137192  14.7681987
C    17.3854464  2.1511825999999994  15.5070774
N    15.955241000000001  -0.6040725  16.069749299999998
S    15.370172  0.7672612999999995  16.7921934
O    15.889663500000001  0.8384130999999995  18.1429356
O    13.9263242  0.7752418999999993  16.666083699999998
C    16.0422386  2.1044203999999995  15.8376644
C    15.223896  3.1385944999999995  15.430812399999999
C    15.7335064  4.202280999999999  14.6982117
C    17.0838352  4.2698  14.3585434
C    17.6074925  5.3957251  13.4960878
N    18.726722000000002  6.208323  13.9904762
C    19.457944  6.871311499999999  13.059667099999999
O    19.217897400000002  6.7299261  11.864120499999999
C    20.2419113  9.258509799999999  13.395416099999998
C    20.3589499  11.498630599999998  14.2686049
C    19.077060200000002  11.0659439  12.2992666
C    19.4339822  9.7321192  12.3706836
H    21.4253649  7.586530699999999  12.813784199999999
H    20.9126765  7.558389699999999  14.5144509
H    21.3458677  9.8153662  15.152116
H    19.2600489  13.002500999999999  13.2054136
H    18.94675  3.2205692  14.5149636
H    18.0304851  1.3463613999999997  15.819449599999999
H    16.469404400000002  -1.1866004000000006  16.7116504
H    15.2283057  -1.1082924000000007  15.588643999999999
H    14.1757156  3.0949438  15.683473699999999
H    15.063635300000001  4.9912766  14.3930134
H    16.7724987  6.0676073  13.2628275
H    17.9522795  4.9764741  12.543712
H    18.8183732  6.3884395  14.9764065
H    20.728276100000002  12.1881507  15.0136118
H    18.440344800000002  11.4063777  11.4962675
H    19.0753828  9.041656399999999  11.620797
