42

C    11.041  57.151  -1.861
C    10.0857104  56.610381800000006  -0.8001296999999998
O    10.7278431  56.44086070000001  0.4588387000000001
C    8.9457291  57.56308020000001  -0.5657772999999999
N    7.7888494  57.2408167  0.1006144000000001
C    7.0347973999999995  58.394555100000005  0.13096590000000008
C    7.8083816  59.374886200000006  -0.5317775
N    8.984577999999999  58.807810100000005  -0.9434579999999999
C    7.3443144  60.688044600000005  -0.6711590999999999
N    6.1723696  61.07049620000001  -0.20948639999999985
C    5.4232083  60.14706590000001  0.4030814000000001
C    5.778554  58.787252300000006  0.6161853
C    4.6799362  58.19366360000001  1.2969356
C    3.7396279999999997  59.1620897  1.4662254000000001
N    4.1827033  60.336375800000006  0.9313377
C    7.4657479  55.92769500000001  0.6348995000000001
C    7.2508376  55.988364700000005  2.1527648
C    6.8428925  54.62488630000001  2.712852
C    5.6503102  54.02704250000001  1.9407948000000002
C    5.927236199999999  53.95703710000001  0.4297332000000001
C    6.256441  55.34649410000001  -0.10756029999999994
C    5.3872944  52.699438300000004  2.4485222
N    5.1988009  51.652129800000004  2.8734409000000003
H    10.5082685  57.288008000000005  -2.7961586
H    11.860140399999999  56.453265200000004  -2.0144855999999995
H    11.4290462  58.1132143  -1.5419159
H    9.6857836  55.63888010000001  -1.1391548999999999
H    11.594794499999999  56.034198100000005  0.3162579000000001
H    7.9374993  61.441439700000004  -1.1667276999999998
H    4.573987600000001  57.179568  1.6232355
H    2.7769478999999997  59.099659900000006  1.9327100000000002
H    3.6874238999999998  61.212085800000004  0.9227231
H    8.3345611  55.2910394  0.4487369000000001
H    6.4897032  56.730822100000005  2.3864826
H    8.1820138  56.30910310000001  2.6234536000000004
H    6.5876402  54.722860700000005  3.768096
H    7.6879469  53.936389600000005  2.633922
H    4.755191399999999  54.63379830000001  2.1185294
H    5.0554076  53.553156400000006  -0.08622089999999993
H    6.7689322  53.28404020000001  0.2517132000000001
H    6.4883615  55.282867700000004  -1.1725396
H    5.3986691  56.007663400000006  0.0053051000000000625
