62

O    -12.024  -30.551  9.619
C    -11.757553999999999  -31.7238603  9.487123599999999
C    -12.282876799999999  -32.8615699  10.201338
O    -10.960035099999999  -32.126745899999996  8.503201599999999
C    -10.779446199999999  -33.506843499999995  8.604179599999998
C    -11.7118469  -33.940235  9.6784769
C    -12.110773499999999  -35.304596499999995  10.0042075
C    -12.594505  -36.0108544  8.738738699999999
C    -10.9664624  -36.164032399999996  10.5897125
C    -9.810374499999998  -35.3618512  11.184979199999999
C    -11.572624099999999  -37.070264099999996  11.673765
O    -11.905230499999998  -36.3190896  12.802387999999999
C    -10.553160299999998  -37.0282042  9.397478999999999
C    -11.8816393  -37.349831699999996  8.7319265
O    -9.8617601  -36.2400351  8.4705119
C    -9.674256199999999  -38.2135263  9.7928071
C    -9.413988  -39.089595499999994  8.578934199999999
C    -10.2566367  -39.0320064  10.9350098
C    -10.5956634  -38.1385411  12.1136725
C    -9.315222899999998  -40.177927999999994  11.3303695
C    -8.0223452  -39.6578496  11.9183518
C    -8.9756641  -41.0416106  10.106896299999999
C    -8.4570753  -40.202081  8.936717
C    -10.159842  -41.8806102  9.6459706
C    -10.8280914  -42.6637512  10.769851899999999
O    -9.9510849  -43.6742462  11.229021099999999
C    -11.215677199999998  -41.7208256  11.8949953
C    -9.960451099999998  -41.0568659  12.3993816
H    -13.003478699999999  -32.7704452  10.9874324
H    -9.728167299999999  -33.7072447  8.8238291
H    -10.986296099999999  -33.9660386  7.633780399999999
H    -12.925363599999999  -35.232375999999995  10.728722999999999
H    -12.3276957  -35.455406599999996  7.845739799999999
H    -13.678037999999999  -36.1282539  8.743444
H    -10.160934999999998  -34.808525499999995  12.053661
H    -9.3867648  -34.6597678  10.4798254
H    -9.0183807  -36.0276873  11.514191
H    -12.477280799999999  -37.558132199999996  11.2827135
H    -12.617845899999999  -35.698609  12.6009563
H    -11.7238884  -37.703945999999995  7.714304799999999
H    -12.431587299999999  -38.1095939  9.280863199999999
H    -8.9347356  -36.1756239  8.736114299999999
H    -8.7181787  -37.789427499999995  10.118437499999999
H    -9.000542  -38.4865698  7.767999699999999
H    -10.353953899999999  -39.508165999999996  8.2199969
H    -11.1895472  -39.466623299999995  10.5694147
H    -11.080342499999999  -38.7022915  12.9101048
H    -9.7149085  -37.665374299999996  12.5384906
H    -7.3423574999999985  -40.4884731  12.103937199999999
H    -8.1933078  -39.1664466  12.8735393
H    -7.506835599999999  -38.9597954  11.2670778
H    -8.1907237  -41.7450663  10.40654
H    -7.483457899999999  -39.7815047  9.193598099999999
H    -8.305709499999999  -40.8555516  8.0742067
H    -9.8153761  -42.591801499999995  8.8913652
H    -10.926717799999999  -41.257486899999996  9.1880914
H    -11.7334976  -43.1452167  10.3562934
H    -10.3945175  -44.1889179  11.915469199999999
H    -11.6830854  -42.2923398  12.7038884
H    -11.955521599999999  -41.0044215  11.544436099999999
H    -10.1588195  -40.479814999999995  13.3020284
H    -9.2482639  -41.8414797  12.6681098
