20

N    -15.182  26.345  0.865
C    -15.4606866  25.264349199999998  1.8578657
C    -14.1126228  24.4944226  2.1533265
O    -14.1456874  23.2953749  2.4310706
C    -16.5796222  24.3777652  1.3629902
C    -17.8152744  25.241588399999998  1.1428197999999998
S    -19.1002519  24.408811999999998  0.15595809999999988
C    -18.416655900000002  24.5063742  -1.5335779
O    -13.090061700000001  25.199305199999998  2.0796056
H    -15.6916206  27.212401  1.0458336
H    -15.338274700000001  26.0138158  -0.09142400000000017
H    -14.156532  26.5074789  0.9967974
H    -15.736804200000002  25.7229514  2.8112844
H    -16.7736538  23.588827199999997  2.0879450999999998
H    -16.2736893  23.8863658  0.4369198999999999
H    -17.6035247  26.1636784  0.6085955999999999
H    -18.304418300000002  25.4745417  2.086741
H    -19.1749194  24.073652099999997  -2.1757965
H    -17.503865700000002  23.9232643  -1.6004645000000002
H    -18.2532301  25.545288199999998  -1.7995018000000003
