47

C    27.042  15.498  9.436
C    27.741532400000004  14.297505999999998  9.256989599999999
C    27.089914900000004  13.1576487  8.8241037
C    25.7118147  13.174765099999998  8.5532475
C    25.006316500000004  14.3713573  8.728862
C    25.6751265  15.515428499999999  9.1629077
O    25.126929600000004  12.0227054  8.1295597
C    23.6960897  11.872062999999999  8.228307
C    23.011545500000004  13.147575799999998  7.714782899999999
C    23.520783  14.430656999999998  8.3955923
C    27.7259345  16.7211413  9.8687981
C    23.3208428  10.688898599999998  7.3264372
C    23.319033400000002  11.557689399999997  9.6829561
C    23.297340000000002  15.627135899999999  7.4639009
N    22.460660100000002  16.4950856  8.123914899999999
C    22.136875500000002  15.989905599999998  9.3529652
N    22.710053900000002  14.812164899999999  9.5408315
N    21.364503600000003  16.623139799999997  10.2035143
O    23.794411200000003  15.7998009  6.3789468
C    22.026051700000004  17.772143099999997  7.5904964999999995
C    27.076342000000004  17.636249999999997  10.701265
C    27.721495200000003  18.8048032  11.072873999999999
C    29.010979600000002  19.0876329  10.6403771
C    29.657017000000003  18.1752617  9.8133734
C    29.022139100000004  17.0048495  9.4274329
Cl    26.886680600000002  19.936730599999997  12.105387799999999
H    28.7951574  14.250948  9.4783602
H    27.621421400000003  12.230149899999999  8.6867371
H    25.132448600000004  16.4415727  9.266219999999999
H    21.9335929  13.0653005  7.836967899999999
H    23.234873600000004  13.240533799999998  6.6486621999999995
H    22.251705700000002  10.5126262  7.3726625
H    23.845499000000004  9.797532299999999  7.6571332
H    23.609219200000002  10.891242599999998  6.2986396
H    22.240139600000003  11.529329099999998  9.793237099999999
H    23.7510192  12.294761199999998  10.3561341
H    23.722520000000003  10.5863664  9.956825799999999
H    22.630605000000003  14.247247499999999  10.3728906
H    20.9654412  17.5201516  9.9677258
H    21.147773  16.223694199999997  11.1051006
H    22.4703465  17.871982  6.6020810999999995
H    22.377888600000002  18.5874351  8.220249599999999
H    20.9418478  17.7966986  7.497223699999999
H    26.088945000000002  17.433948599999997  11.0795542
H    29.4992805  20.0007943  10.940491999999999
H    30.656493000000005  18.3881986  9.4693302
H    29.524301200000004  16.319154899999997  8.764173399999999
