48

C    26.947  15.325  9.186
C    27.6116906  14.104821399999999  9.007613599999999
C    26.9092857  12.9699265  8.6497639
C    25.5167925  13.0148036  8.4612159
C    24.8449497  14.2314277  8.636844799999999
C    25.5681485  15.3687261  8.9899688
O    24.8870549  11.8647906  8.115072699999999
C    23.4586786  11.745263  8.2702318
C    22.7626047  13.0314243  7.7921087
C    23.340207  14.3246273  8.3960531
C    23.0942851  15.5048247  7.443406099999999
N    22.3540277  16.4312832  8.1387223
C    22.0809857  15.969648099999999  9.3967881
N    22.6072699  14.7676195  9.5752326
C    27.6708874  16.548446  9.5481758
C    21.9580188  17.7243079  7.6129418
N    21.3679794  16.6514785  10.2629339
C    27.0929203  17.486109499999998  10.405871699999999
C    27.7727835  18.666041  10.7271485
C    29.044252200000003  18.9055638  10.1886542
C    29.6169802  17.9721771  9.3354169
C    28.9380122  16.8057192  9.0127557
O    23.514407  15.6299359  6.320014499999999
C    23.0414907  10.5658243  7.380884699999999
C    23.1149031  11.4282322  9.732206999999999
C    27.1720133  19.6253445  11.589052899999999
N    26.6712045  20.3925082  12.2851459
H    28.675142100000002  14.040994999999999  9.1709058
H    27.4079108  12.0246091  8.5121539
H    25.0551703  16.3119313  9.095218899999999
H    21.6970959  12.9692532  8.0006592
H    22.8990795  13.1012336  6.709379499999999
H    22.5571411  14.2283754  10.4264076
H    22.3480368  17.7904749  6.599007899999999
H    22.3881697  18.5255527  8.2116955
H    20.8729361  17.8065921  7.5810303999999995
H    20.9995948  17.5602436  10.022349499999999
H    21.1786638  16.2865307  11.185051399999999
H    26.1290235  17.298502  10.851816099999999
H    29.5675958  19.815845  10.4384584
H    30.593045500000002  18.1620638  8.917957999999999
H    29.3822542  16.0993845  8.3298542
H    21.9722649  10.4005705  7.4579173999999995
H    23.5663566  9.669737999999999  7.6976045
H    23.3014204  10.7638694  6.3445694999999995
H    22.038785400000002  11.391969499999998  9.862352099999999
H    23.5506457  12.170525  10.397349199999999
H    23.531509  10.4610185  10.0004976
