52

C    -52.706  0.15300000000000002  -22.087
C    -51.7687801  -0.2821277  -21.1379697
N    -53.9842612  0.6155021  -24.0097791
C    -54.7992857  1.3108786  -23.2294035
C    -52.9144887  0.01724779999999998  -23.462797899999998
C    -53.63336  0.9028137999999999  -21.372435
C    -52.1661452  0.2046209  -19.9380078
C    -52.882679800000005  -0.18907659999999998  -27.836203
C    -52.9016527  0.8155306  -28.7836365
C    -52.4579393  2.0857455  -28.4512329
C    -51.9879515  2.3390866  -27.1740717
C    -51.948592600000005  1.3267116  -26.229498
C    -52.4055107  0.061174799999999974  -26.5552325
C    -52.3969475  -1.0725867999999998  -25.5820802
C    -51.4036082  -2.1313134  -26.0595537
O    -51.6008299  -3.2814992  -25.26516
N    -52.0606815  -0.6715177999999999  -24.2313613
N    -54.6936271  1.4947119  -21.91702
O    -53.3099056  0.9331038  -20.0794932
C    -51.6287518  0.07251190000000002  -18.6237827
C    -50.724490800000005  -0.9217685  -18.2564798
C    -50.2833354  -0.9836476  -16.9476401
C    -50.739572200000005  -0.0733201  -16.0059939
C    -51.647007800000004  0.9084572  -16.3726693
C    -52.091559700000005  0.9810714  -17.6741332
C    -50.634515300000004  -1.1016035  -21.413536099999998
C    -49.3588492  -0.5911235  -21.2472339
C    -48.280651500000005  -1.410422  -21.5136168
C    -48.487774800000004  -2.7144063000000003  -21.9389738
C    -49.771110400000005  -3.2123470999999997  -22.1021366
C    -50.8569747  -2.4023244000000004  -21.840601799999998
H    -55.6455128  1.7762618000000001  -23.7096036
H    -53.265027  -1.1672091999999998  -28.0860341
H    -53.2719557  0.615326  -29.7777102
H    -52.4825715  2.8769868  -29.1850741
H    -51.6445838  3.3287799  -26.9126135
H    -51.5684911  1.529355  -25.2410623
H    -53.3978132  -1.5292461  -25.5685054
H    -50.379997200000005  -1.7492334  -25.944036099999998
H    -51.585755400000004  -2.343687  -27.115637
H    -51.1408839  -4.0306786  -25.6686582
H    -51.356514100000005  -1.2230322999999999  -23.7588769
H    -50.3861634  -1.6436838  -18.9806613
H    -49.5842514  -1.7528936  -16.6574123
H    -50.390801700000004  -0.1331861  -14.9864775
H    -52.0053817  1.6142334  -15.6384553
H    -52.7983485  1.7402284  -17.970594300000002
H    -49.226563  0.42377889999999996  -20.907239
H    -47.2742069  -1.0395976  -21.3911658
H    -47.638542  -3.3493339000000004  -22.1415309
H    -49.9205952  -4.2305379  -22.42494
H    -51.865736000000005  -2.7711205000000003  -21.9486976
