55

N    -5.581  44.277  26.772
C    -6.0564616000000004  44.5957146  28.0298689
C    -5.2670329  44.434508300000005  29.1834621
C    -5.8152705000000005  44.7765683  30.4161513
C    -7.1094106  45.26818170000001  30.5503286
C    -7.900949300000001  45.440821500000006  29.419363999999998
C    -7.384604  45.1084869  28.1693745
O    -8.136076300000001  45.230108400000006  26.9976332
C    -9.3741398  44.51041240000001  26.9455284
Cl    -4.929844900000001  44.629640800000004  31.9261496
C    -4.652643800000001  43.194162500000004  26.549905499999998
C    -5.2864447000000006  41.8142842  26.6732941
O    -4.6406779  40.7948384  26.4662246
N    -6.5811511000000005  41.8027099  26.9833872
C    -7.4073677  40.6113264  26.9688218
C    -7.850591700000001  40.2909304  28.4040195
C    -8.860045900000001  39.148681100000005  28.457171499999998
C    -8.618529  40.8674826  26.052388099999998
C    -9.6965799  39.778775  26.1461121
C    -10.0867027  39.45090810000001  27.5950041
N    -11.0413423  38.3396746  27.6472496
C    -10.9504354  37.086567300000006  27.091294299999998
O    -10.0302629  36.623553300000005  26.435103299999998
N    -12.089684  36.394937600000006  27.3738887
C    -12.9361809  37.205525300000005  28.0862655
C    -12.2694148  38.4335553  28.276429399999998
C    -12.872733700000001  39.476947  28.9666277
C    -14.1630617  39.258775500000006  29.4443676
C    -14.818963100000001  38.0418553  29.2406838
C    -14.2170387  36.9866332  28.558450099999998
H    -6.258344500000001  44.432624700000005  26.0371123
H    -4.2655057  44.0498581  29.126019499999998
H    -7.493078000000001  45.5138164  31.5255851
H    -8.9082939  45.8115809  29.5053442
H    -9.5231536  44.238432100000004  25.9021491
H    -10.197473800000001  45.149314100000005  27.2740622
H    -9.3365624  43.6240244  27.580956399999998
H    -3.8091052000000003  43.2529278  27.2377514
H    -4.2476643  43.275364700000004  25.5387952
H    -7.057413  42.669553400000005  27.1781395
H    -6.793485200000001  39.7944748  26.5784716
H    -8.3003405  41.1885138  28.8374336
H    -6.973409  40.035425700000005  28.9984991
H    -9.171526100000001  38.9759304  29.487987999999998
H    -8.3959551  38.2317557  28.0843423
H    -8.282379800000001  40.948154300000006  25.0196808
H    -9.067804  41.817677200000006  26.3435685
H    -9.322811100000001  38.859178  25.688274399999997
H    -10.5811593  40.094322000000005  25.5930035
H    -10.612329  40.3109545  28.0186758
H    -12.263356400000001  35.4564743  27.057063199999998
H    -12.3813093  40.4199799  29.132893799999998
H    -14.6676176  40.04512870000001  29.981536
H    -15.8194567  37.9167107  29.6235481
H    -14.724522  36.049572000000005  28.406162
