31

N    11.487  10.134  19.928
C    12.4140445  9.905025799999999  19.011658100000002
N    12.9836667  8.7132986  18.9164493
N    12.8026335  10.9299732  18.2373131
C    12.818045699999999  10.974080299999999  16.780781
C    12.032445  12.1985712  16.303776
C    12.5616902  12.768429999999999  14.9950624
C    12.5568866  11.8070959  13.804649900000001
C    12.4954447  12.661530899999999  12.5543478
N    11.0978094  12.870951  12.119338800000001
P    13.2990458  11.7942845  11.089545300000001
O    12.3248473  10.6338837  10.8794118
O    13.1819572  12.762739499999999  9.9179812
O    14.737131399999999  11.465443299999999  11.466135900000001
H    11.2931077  9.4583224  20.6510728
H    11.0739071  11.0466302  20.0280249
H    13.6638429  8.542725599999999  18.1938353
H    12.6431915  7.928920799999999  19.4478039
H    12.5401654  11.832109299999999  18.617210200000002
H    12.4022832  10.0542403  16.3703189
H    13.851825999999999  11.0617779  16.4276024
H    12.1125971  12.994179299999999  17.046362000000002
H    10.9785252  11.941426199999999  16.1902367
H    13.5829449  13.1280839  15.1353643
H    11.949051  13.6372854  14.7477581
H    11.7096723  11.1214459  13.816951900000001
H    13.4653708  11.205830899999999  13.747283000000001
H    12.9991493  13.6192013  12.7012418
H    10.4356332  13.1057729  12.8647109
H    10.8811867  11.963828399999999  11.6570725
H    11.0957378  13.565086099999998  11.363318
