29

O    13.656  12.409  10.434999999999999
P    13.1153957  11.626590900000002  11.6115629
O    12.0605594  10.616075400000001  11.1006366
O    14.164032500000001  11.097353300000002  12.5858473
C    12.143367600000001  12.955842600000002  12.5909132
N    10.798715000000001  12.880231700000001  11.9782378
C    12.212301  12.650313  14.0416443
C    11.2959797  11.7664199  14.6015709
C    11.3118393  11.457845500000001  15.9508904
C    12.2820075  11.9981807  16.7872567
C    13.2107806  12.879430400000002  16.2385805
C    13.1843804  13.194122000000002  14.8855871
N    12.2846492  11.655417500000002  18.1738203
C    12.480203600000001  10.417451500000002  18.6509008
N    12.991359000000001  9.484364800000002  17.8638013
N    12.166928500000001  10.1233748  19.911663400000002
H    12.6367016  13.900952900000002  12.3619214
H    10.025772100000001  12.998886300000002  12.64264
H    10.8196109  11.914682  11.547256
H    10.7232347  13.544607300000001  11.2034351
H    10.5659282  11.276552300000002  13.9747464
H    10.5808359  10.768206100000002  16.3439312
H    13.9777494  13.313207400000001  16.860936
H    13.925042300000001  13.860587900000002  14.4699848
H    12.039822000000001  12.393197700000002  18.819744
H    13.113886  8.538249  18.1832804
H    13.222460400000001  9.697341400000001  16.9071409
H    11.8010755  10.825071000000001  20.532439
H    12.3894641  9.218683700000001  20.2907348
