42

N    -6.442  0.5270000000000001  9.003
C    -6.1635445  -1.2320187999999999  10.3006702
N    -7.5236827  -0.2281076999999998  8.8030659
C    -9.083836999999999  -2.7292058  8.4879766
C    -8.452259999999999  -2.3027718  9.6545776
C    -10.569777  -4.0503169  9.7876685
C    -6.2728803  1.7893522000000002  8.3212495
C    -10.1452826  -3.6139551  8.5461497
C    -3.6560425  -2.6197163999999997  14.4404586
C    -3.0801649  -0.3697147999999999  12.4524044
C    -5.6220496  -2.2385218  11.1943333
C    -5.8900637  -3.5915768999999997  10.9838396
C    -5.3873872  -4.5302865  11.8690347
N    -4.6761617  -4.2161671  12.942658400000001
C    -7.3884295  -1.3015442999999998  9.577781
C    -9.9563044  -3.6578717999999997  10.9635561
C    -8.887861000000001  -2.784233  10.8894518
F    -11.6360048  -4.8958996  9.8599867
C    -5.6023105  -0.02810619999999986  9.8959501
C    -4.4036383  -2.9322492999999996  13.163984
C    -4.8203564  -1.9174179999999998  12.301684100000001
O    -4.4794689000000005  -0.6066664999999998  12.5353704
N    -2.3240603999999996  -2.0132063999999996  14.205731700000001
C    -2.3716079  -0.5937137999999997  13.7882574
H    -8.7453199  -2.3521905  7.5366406
H    -5.3297776  2.2321061  8.6268335
H    -7.0965234  2.4555832000000004  8.5742817
H    -6.2778446  1.6281498  7.2440453
H    -10.6506386  -3.9516118  7.655964000000001
H    -3.5457823  -3.5626629  14.9756932
H    -4.2547223  -1.928794  15.038469200000002
H    -2.9784402  0.6847646000000003  12.1869748
H    -2.6388977000000002  -0.9832121999999999  11.6594956
H    -6.4698358  -3.9049131  10.1318031
H    -5.5658271  -5.5855587  11.720569900000001
H    -10.322231  -4.0260891999999995  11.9080739
H    -8.4114672  -2.4490007  11.7974829
H    -4.6789596  0.44013490000000033  10.1616996
H    -1.8236819000000004  -2.5725472  13.5012395
H    -1.7871088000000004  -2.0719558  15.0802267
H    -2.9035975  -0.02682999999999991  14.5548456
H    -1.3541156  -0.21168209999999976  13.705284800000001
