45

O    17.967  23.636  11.343
C    17.474489  23.5432849  10.2278508
N    18.0735027  24.157401099999998  9.1479038
C    17.6154519  24.1245384  7.8659963
O    18.2134383  24.6988883  6.9714286
C    16.2707391  22.823628499999998  9.9124066
C    15.8063744  22.7814527  8.6473926
N    16.4526604  23.408021899999998  7.6295584
C    15.9291393  23.3826903  6.2485849
O    14.6417933  22.8319603  6.2135729
C    16.8174626  22.5331975  5.3031521
O    16.8316464  23.066184999999997  4.007989
C    16.0566604  21.1973487  5.2965927
O    16.3693177  20.4237698  4.1789879
C    14.6007182  21.687420999999997  5.349865299999999
C    13.5717232  20.663688699999998  5.8400072000000005
N    13.968353299999999  19.9177713  7.021937
C    14.585331199999999  18.7197395  6.9056717
O    15.015034799999999  18.3391791  5.8213678
C    14.7325059  17.8574536  8.1316747
C    14.3276492  18.250127999999997  9.4040333
C    14.5091814  17.3610533  10.4571044
C    15.0781531  16.1229157  10.2199898
C    15.4555432  15.8055341  8.911181899999999
N    15.2821669  16.6588264  7.9144783
C    16.0827268  14.462711899999999  8.603927
O    16.288895399999998  14.3310249  7.2185298
H    18.9256317  24.686058499999998  9.308574
H    15.7614009  22.332893799999997  10.7221516
H    14.8984224  22.2758424  8.3598742
H    15.904106299999999  24.4252689  5.9028035
H    17.829941899999998  22.4211556  5.7008979
H    17.518084899999998  23.744096399999997  3.9358907
H    16.3002751  20.665166399999997  6.2281058
H    16.0256319  19.5245593  4.3313246
H    14.316171899999999  22.0167586  4.341901
H    13.419913399999999  19.9466878  5.0288944
H    12.642828799999998  21.1911384  6.0513966
H    13.571138399999999  20.2000733  7.9027519999999996
H    13.8928789  19.216018199999997  9.600230400000001
H    14.2076087  17.6380348  11.4556838
H    15.2287884  15.414713799999998  11.0187349
H    15.4113207  13.677025899999999  8.9802105
H    17.0334596  14.3994565  9.1535486
H    16.7184843  13.483530599999998  7.0396298999999996
