27

O    15.628  15.227  22.048
C    15.1874393  14.3489359  22.769897799999995
C    13.7278081  14.191846700000001  23.077038099999996
N    16.0096401  13.414870500000001  23.363966099999995
C    17.3547889  13.2557915  23.167408999999996
N    18.0413293  12.3872646  23.834093199999998
S    18.2416256  14.197256000000001  21.970001899999996
C    19.6767262  13.3050011  22.430003599999996
C    19.357849299999998  12.3854412  23.455665299999996
C    20.3784201  11.5822645  23.971280899999996
C    21.6558484  11.6906511  23.460604999999997
C    20.9537725  13.4091585  21.912532299999995
C    21.9574749  12.5871146  22.422725599999996
C    23.3190609  12.613368600000001  21.828378799999996
O    24.273633099999998  11.987875  22.251475299999996
O    23.3933097  13.3903079  20.744598699999997
C    24.6236308  13.396421700000001  20.009471899999998
H    13.5265606  13.3470586  23.724742099999997
H    13.1939186  14.074793900000001  22.136791599999995
H    13.3679303  15.108798400000001  23.538139099999995
H    15.607339699999999  12.7536701  24.020015599999997
H    20.154254899999998  10.8832026  24.759402099999996
H    22.4521956  11.0700692  23.841472499999995
H    21.1701568  14.1074813  21.120653399999995
H    24.4716042  14.104849100000001  19.201808199999995
H    24.829304  12.396949000000001  19.625928899999998
H    25.4450549  13.705677  20.657281799999996
