25

C    23.869999999999997  8.759  16.097
C    23.4211925  7.3257427  16.329530600000002
N    22.5976681  6.775441600000001  15.2594723
C    21.2397301  6.8881243  15.367999900000001
O    20.744866599999998  7.5252201  16.430553800000002
C    20.4412767  6.3528126  14.4112091
C    20.987573599999997  5.681075900000001  13.2936672
O    20.2863569  5.187687200000001  12.417425300000001
N    22.374045199999998  5.596702400000001  13.228190600000001
C    22.9100978  4.8620884  12.085859000000001
C    23.1295464  5.7142834  10.8452797
C    23.1784838  6.130756900000001  14.1907985
S    24.8335845  6.0092768  14.098988
H    24.4655608  9.0808905  16.9441591
H    23.0134154  9.4204278  15.9951343
H    24.4785189  8.8263625  15.1980269
H    22.8281667  7.268770900000001  17.2432802
H    24.2966418  6.6801744  16.4293966
H    19.7731831  7.545641400000001  16.415436
H    19.368385  6.415943400000001  14.4559108
H    22.1798477  4.080236300000001  11.8654031
H    23.8525062  4.4079052  12.4007991
H    23.512978  5.083928800000001  10.050513500000001
H    23.8487238  6.505224  11.047280800000001
H    22.1904131  6.158316  10.5235611
