23

C    6.627  28.927  27.179
O    6.300226299999999  27.5940152  26.785460999999998
C    5.3369504  29.3450976  27.919111599999997
O    5.3585353  28.7367041  29.183436599999997
C    4.236489199999999  28.7358745  27.036458099999997
O    3.2530946999999997  28.1765835  27.8627516
C    5.009746099999999  27.6826765  26.207147699999997
C    5.0983395  28.1363815  24.746985199999997
O    6.0222919  27.332056  24.070667899999997
P    5.7018537  26.9130811  22.447405699999997
O    4.503286299999999  27.7789568  22.044390099999998
O    5.383274  25.4199073  22.4738312
O    6.9909345  27.2377483  21.6999994
O    7.7503332  28.9765628  27.9641761
H    6.823421499999999  29.5496324  26.296679599999997
H    5.248176099999999  30.4315509  28.0279715
H    4.5074964  28.2822991  29.311750099999998
H    3.8068400999999996  29.4877731  26.3645073
H    2.5832965999999997  27.7267896  27.3299186
H    4.5899073  26.6757762  26.246646199999997
H    5.4300605  29.1836025  24.679742599999997
H    4.1220291  28.0660478  24.2486896
H    7.5395688  28.5484962  28.8170383
