148

C    41.138000000000005  9.093  23.908
O    40.7254822  8.3454313  23.0200352
C    41.2653862  10.6110838  23.697251899999998
N    41.4718716  8.6146589  25.126393999999998
C    41.453885  7.190840700000001  25.4814141
C    40.064555500000004  6.5431426  25.5963766
O    39.895166100000004  5.3731979  25.266453
C    42.179525500000004  7.143904900000001  26.8362131
C    41.8604276  8.5033887  27.4359692
C    41.9944026  9.4198793  26.2291629
N    39.098189600000005  7.285191800000001  26.1522163
C    37.7320876  6.807686800000001  26.2852896
C    36.8563895  7.6630919  25.3704716
O    37.0609137  8.8700853  25.2778205
C    37.2343704  6.9698313  27.7287849
C    37.9890379  6.1505115  28.7815476
C    37.4845956  6.5354811  30.1716604
C    37.797836600000004  4.656108700000001  28.5417125
N    35.878531100000004  7.042592300000001  24.7080466
C    35.050965600000005  7.7641662  23.760721399999998
C    33.7398408  7.021234700000001  23.5084222
O    33.5556764  5.883137100000001  23.915789699999998
C    35.8177369  7.9290783000000005  22.4344025
C    36.3401105  6.6199397  21.9305087
N    35.513545300000004  5.5902384000000005  21.5761344
C    37.637216200000005  6.2055205  21.7865473
C    36.2780466  4.5899884  21.2376759
N    37.5827727  4.9126362  21.3436161
N    32.8047963  7.7381408  22.866240599999998
C    31.5286584  7.163921800000001  22.4907708
C    31.727203900000003  6.1551978  21.3469128
O    32.8435629  5.8918383  20.925533299999998
C    30.561286700000004  8.2852505  22.0910574
O    31.0660659  9.0475667  21.0193794
N    30.613391900000003  5.614510900000001  20.8278479
C    30.721903500000003  4.480876500000001  19.9206035
C    29.320292900000002  3.8960001  19.6368473
C    29.403231400000003  2.6978209  18.690839399999998
O    28.8034047  3.4763608  20.88343
P    27.5187467  4.2746859  21.6121296
O    26.3458159  4.2752873000000005  20.6555408
O    28.0480923  5.6798924  21.9064036
O    27.316774000000002  3.4591513000000003  22.8640334
C    31.388447600000003  4.9233978  18.614905999999998
O    31.053067000000002  5.954048800000001  18.044361
N    32.3562989  4.1359887  18.1335783
C    33.091953700000005  4.5041487  16.9345009
C    32.2935184  4.1399527  15.6737945
O    31.487945000000003  3.2189636000000004  15.678513599999999
C    34.4471829  3.7957925  16.8789783
C    35.3251767  4.1417493  18.0693394
S    37.0201689  3.5279622  17.854234299999998
C    37.8000412  5.0302264  17.2096261
N    32.5768616  4.8520276  14.5796722
C    47.630019600000004  17.8817995  21.4043769
C    47.2531905  18.5697601  20.092045
C    48.3432012  19.5169134  19.6196874
C    48.560642  20.6030458  20.6585273
C    48.9416147  19.969803900000002  21.990478799999998
C    47.8813274  18.9730418  22.4509869
C    46.5495735  16.90068  21.8974685
C    45.590196000000006  16.402731199999998  20.816983699999998
C    46.2700922  15.6558832  19.673639899999998
C    45.2465122  15.1000828  18.6900597
C    44.5226299  13.923247700000001  19.309806
O    45.1338257  12.9931128  19.8289279
C    42.3494508  12.8039611  19.5245621
N    43.1849051  13.9570447  19.2414061
C    41.304408  13.067952  20.616289
C    41.6731405  12.607050300000001  22.0359441
C    41.585149200000004  11.0769927  22.2371953
H    42.0425197  11.0078493  24.347519
H    40.3043665  11.038312900000001  23.9960353
H    41.970819  6.6140706  24.7058782
H    43.250817  7.0380351  26.67186
H    41.831034100000004  6.308046600000001  27.4391535
H    42.547288800000004  8.7749918  28.2336199
H    40.8433755  8.5201396  27.8241998
H    41.41825  10.337066100000001  26.347361199999998
H    43.0438873  9.6672347  26.0420533
H    39.1995974  8.2901033  26.2053758
H    37.7145991  5.7646204  25.9642185
H    36.178966700000004  6.688813700000001  27.7469977
H    37.2969578  8.0320288  27.9785685
H    39.0562885  6.3831908  28.710307399999998
H    38.0160409  5.973481700000001  30.934630300000002
H    36.4231355  6.315500200000001  30.257689399999997
H    37.6323397  7.5964438  30.3546332
H    38.247912400000004  4.3510819000000005  27.5993709
H    36.7391255  4.4063045  28.515663
H    38.2668133  4.082633400000001  29.3377191
H    35.6893401  6.052590200000001  24.7816581
H    34.840935800000004  8.7550867  24.1775284
H    36.664227700000005  8.597278600000001  22.604133
H    35.1536075  8.3640846  21.6870038
H    38.564530600000005  6.7105252  21.971444299999998
H    35.925251100000004  3.6229958  20.9477848
H    38.3758459  4.324231900000001  21.1414897
H    33.039717800000005  8.6002207  22.394201199999998
H    31.118827000000003  6.6010156  23.3366802
H    30.4561102  8.9842255  22.9238826
H    29.581313400000003  7.8492349  21.8692964
H    31.009940300000004  8.5338036  20.2024467
H    29.699615400000003  5.7114766  21.2907606
H    31.320517700000003  3.6965423  20.4062846
H    28.671461400000002  4.6845944  19.2264257
H    28.3969638  2.3182234  18.534024
H    29.998365300000003  1.9197199000000005  19.1605882
H    29.8380882  2.9905806000000004  17.7382872
H    32.5345474  3.2395365000000007  18.5566452
H    33.2166747  5.591749200000001  16.9811417
H    34.9492155  4.0898006  15.9552465
H    34.2843791  2.716622  16.8416314
H    34.9300179  3.6980593000000006  18.9811884
H    35.3811296  5.217561  18.2308689
H    38.841572400000004  4.788713  17.0311164
H    37.717879  5.8183362  17.9529909
H    37.3185932  5.3200272  16.281588199999998
H    32.0409999  4.673528600000001  13.744147799999999
H    33.146715  5.679083200000001  14.630623799999999
H    48.5623322  17.3301804  21.2412419
H    46.3432137  19.15484  20.2573808
H    47.0553971  17.883658099999998  19.2840964
H    48.0573071  19.9621078  18.664104599999998
H    49.2732111  18.963658600000002  19.4666905
H    47.6408635  21.180139699999998  20.7785079
H    49.3468742  21.2900553  20.3369763
H    49.069043900000004  20.7435591  22.7506497
H    49.8975426  19.4516366  21.8797557
H    48.192277000000004  18.5142031  23.3924256
H    46.9452172  19.506841100000003  22.6330888
H    45.9473036  17.3925994  22.6651541
H    47.0308814  16.0408237  22.367403799999998
H    45.017319  17.2420827  20.419886899999998
H    44.8795924  15.715255800000001  21.2841765
H    46.8047436  14.7983765  20.0992903
H    47.005170400000004  16.2364587  19.133246
H    45.7595972  14.7181879  17.805102299999998
H    44.544086400000005  15.8749784  18.3838577
H    43.0201249  11.995347500000001  19.8226224
H    41.8463532  12.5124749  18.5982837
H    42.732559200000004  14.740626800000001  18.796142
H    40.3718711  12.5761652  20.3348632
H    41.1100781  14.141625600000001  20.6488218
H    40.9760208  13.0839246  22.7278102
H    42.6794784  12.9481613  22.2822925
H    40.800677300000004  10.671502  21.5930575
H    42.5210736  10.607902  21.9291886
