150

N    6.952  -3.955  -1.3439999999999994
C    8.0413658  -2.9500164  -1.517919899999999
C    8.603044  -2.382307  -0.2061768999999991
O    9.8276741  -2.3205748  -0.07999149999999844
C    7.592394  -1.8042048000000002  -2.4236682
N    7.768614899999999  -1.9322871000000001  0.7380015000000011
C    8.3720487  -1.4237754000000002  1.963560300000001
C    8.8660646  -2.5843016  2.829098700000001
O    8.4797085  -3.7328573  2.6139011000000014
C    7.2411475  -0.6747157000000001  2.6659827000000007
C    6.0038654  -1.4354106000000002  2.2190329
C    6.3097747  -1.8096099  0.7716252000000008
N    9.7155453  -2.2785514  3.814112400000001
C    10.2072661  -3.3298129000000003  4.697959000000001
C    9.0641157  -3.9690622  5.485635300000001
O    8.0185421  -3.3505371  5.680363200000001
C    11.148014400000001  -2.6061201  5.670977500000001
C    11.5385821  -1.3339188000000002  4.934059
C    10.2808476  -0.9791457000000001  4.154054500000001
N    9.2756528  -5.1944058  5.981240000000001
C    8.2923019  -5.7887231  6.885210800000001
C    7.9386806  -4.8164488  8.0156834
O    8.7986419  -4.2434587  8.6748215
C    8.9911452  -7.039009  7.424529000000001
C    9.9623068  -7.4190103  6.317325300000001
C    10.423146299999999  -6.072491  5.771209700000001
N    6.6350029  -4.6178712  8.215195000000001
C    6.16219  -3.677756  9.216675200000001
C    6.3760338  -4.2532376  10.6212736
O    5.9613681  -5.3830580999999995  10.8911069
C    4.6733002  -3.4275770000000003  8.978160200000001
C    4.1203258  -2.2549671  9.775350200000002
C    2.6135132999999997  -2.1289647  9.539403100000001
N    2.0429059  -1.0869596000000001  10.362257600000001
C    1.78329  0.1642096999999998  9.992386300000001
N    1.9893324999999997  0.5883808999999998  8.7513635
N    1.2735256999999995  1.0032279000000002  10.889427600000001
N    7.0002566  -3.4961457  11.5271465
C    7.1120678  -4.0057207  12.888514
C    5.7718285  -3.8820854000000002  13.624988700000001
O    4.9636201  -3.0066135000000003  13.313092900000001
C    8.1520147  -3.0983111  13.547253600000001
C    8.0035461  -1.7833287000000002  12.795854400000001
C    7.6369983  -2.1910655  11.3712022
N    5.5298368  -4.7656594000000005  14.601985200000001
C    4.3207191  -4.6321729000000005  15.4053657
C    4.48199  -3.4479547000000004  16.364672300000002
O    5.6055287  -3.0344596  16.6485965
C    4.2585660999999995  -5.9382606  16.195619200000003
C    5.7303408  -6.2547698  16.4196052
C    6.4075097  -5.8087385000000005  15.125039300000001
N    3.3713349999999997  -2.8910937000000003  16.8503742
C    3.4484964  -1.7955052000000002  17.815205300000002
C    4.2739816  -2.1732818000000003  19.0529723
O    4.3755274  -3.3531855  19.395002
C    1.988187  -1.5473424000000002  18.2097085
C    1.1942630999999997  -2.04181  17.0103088
C    1.9966608  -3.2352267  16.5110561
N    4.8510854  -1.1744544000000001  19.7378721
C    5.5905806  -1.4565528  20.969102499999998
C    4.7571285  -2.2436078000000004  21.993518100000003
O    3.5409788  -2.0836575  22.075760000000002
C    5.9302510999999996  -0.07226160000000004  21.5315485
C    5.920932  0.8432523000000001  20.3179376
C    4.8421785  0.2521762999999999  19.4192043
N    5.453796  -3.0748356  22.7749409
C    4.8378369  -3.8937536  23.803955000000002
C    4.2006867  -2.9977002  24.9215441
O    3.1514672999999997  -3.3999534000000002  25.450012100000002
C    5.8587516  -4.8335113  24.4440168
C    6.4833946  -5.8239260999999996  23.464745800000003
C    5.4459447  -6.848019300000001  22.945324900000003
O    4.8229048  -7.5202138000000005  23.792158
O    5.3165411  -6.951131800000001  21.7078098
H    6.9221508  -4.568638  -2.1690185
H    6.0370558  -3.4918054  -1.2676915999999991
H    7.119633  -4.5369357  -0.5140715
H    8.901060900000001  -3.4484615  -1.9751002
H    8.4051934  -1.0927498  -2.533690199999999
H    6.7367199  -1.2805816  -2.0106455999999984
H    7.3406391  -2.1780086  -3.411879599999999
H    9.2217094  -0.7884087000000002  1.6999648
H    7.2116538  0.3598298999999998  2.3233370000000004
H    7.3613519  -0.6873927000000002  3.746607600000001
H    5.0950161  -0.8466804000000003  2.308841300000001
H    5.9047906  -2.3376578  2.8245304000000004
H    5.8102459  -2.7434206000000003  0.5316759000000015
H    5.9958487  -1.0109588  0.09512880000000123
H    10.7233685  -4.0814567  4.0934533
H    12.0063192  -3.2190578000000003  5.9336150000000005
H    10.6028455  -2.3686749000000002  6.587426200000001
H    12.3572485  -1.5404865  4.244061800000001
H    11.842159599999999  -0.5395959000000001  5.610622800000001
H    9.5771528  -0.4244193000000003  4.782634400000001
H    10.5014168  -0.4004609000000001  3.2587891000000013
H    7.3884828  -6.0331264000000004  6.316262600000001
H    8.2836008  -7.8281431  7.664781800000001
H    9.535236  -6.769792000000001  8.332538900000001
H    9.440256399999999  -7.978566000000001  5.541136000000001
H    10.7927554  -8.0169899  6.682468900000001
H    11.2834462  -5.696573600000001  6.333255000000001
H    10.6756522  -6.1227244  4.711926500000001
H    5.9510544  -5.216022000000001  7.7779189
H    6.7515425  -2.7663443  9.0916273
H    4.139797  -4.3408846  9.253318100000001
H    4.535027599999999  -3.2456433000000002  7.910603600000001
H    4.6262808  -1.3353527  9.4790268
H    4.3084332  -2.4181739  10.840308
H    2.1327537999999997  -3.0705422  9.813791600000002
H    2.4026969  -1.9427888000000002  8.487168400000002
H    1.9748529999999995  -1.3096621000000002  11.344179700000002
H    1.7418388  1.5269337000000003  8.489773300000001
H    2.4163622  -0.0030799000000003574  8.060765700000001
H    1.0924388  0.7077115999999997  11.832668300000002
H    1.050307  1.9518314999999995  10.642041200000001
H    7.4078535  -5.0572764  12.8557302
H    9.1479088  -3.5188151000000003  13.403743200000001
H    7.9668307  -2.9878754  14.615592200000002
H    8.9091421  -1.1840492000000002  12.8324057
H    7.1841735  -1.2153413000000002  13.2376179
H    6.9511994999999995  -1.4760014000000001  10.9191871
H    8.5235266  -2.3106417  10.7399974
H    3.4709315999999997  -4.4792164  14.738273000000001
H    3.7802065  -6.7154249  15.5998251
H    3.7270035999999998  -5.8257627  17.1392969
H    5.9053182  -7.3046928  16.640717300000002
H    6.0977827  -5.665407  17.2624814
H    7.4105403  -5.4227581  15.3084638
H    6.4554711  -6.6295082  14.4018536
H    3.9029175  -0.9341444000000001  17.3168028
H    1.8065030000000002  -0.5016346  18.442394
H    1.7641076  -2.1390457  19.1014357
H    1.1694537  -1.2651218000000002  16.2468964
H    0.17808729999999962  -2.3162763  17.279319700000002
H    1.7064747999999996  -4.1541225  17.0309493
H    1.8977478999999997  -3.3812873000000003  15.436580600000001
H    6.4792117  -2.0483612000000004  20.7183615
H    6.8794774  -0.08137510000000026  22.060398
H    5.1491819  0.20613599999999987  22.2430776
H    6.8879193999999995  0.7934902999999998  19.8177455
H    5.7087389  1.8739113999999994  20.5872593
H    3.8595284  0.6683534  19.6588962
H    5.0659581  0.4024608999999999  18.3637905
H    6.4603683  -3.0980221  22.7207489
H    4.0239773  -4.4771557  23.3499327
O    4.7951993  -1.9473001  25.2253924
H    5.3340679  -5.3983046  25.219414200000003
H    6.6304424  -4.222508400000001  24.923221400000003
H    7.2652719  -6.3864955000000005  23.9797923
H    6.9101568  -5.3212405  22.5952619
