55

C    -4.601  11.319  -1.949
C    -3.2727999999999993  11.6879937  -1.7463148000000002
C    -3.0034587999999998  11.350999  -0.4257761999999998
N    -4.1469355  10.8211984  0.0742404000000001
N    -5.110954799999999  10.7976286  -0.8481058000000001
C    -4.3812036999999995  10.319608500000001  1.3856458
C    -1.7664050999999996  11.5602204  0.3296821000000001
C    -5.105447399999999  11.090647  2.2939847
C    -5.347181699999999  10.6178349  3.570071
C    -4.8713117  9.3660354  3.9395029
C    -4.151503  8.584759700000001  3.0326706000000003
C    -3.9041227999999997  9.0609911  1.7560102
Cl    -3.5640093999999998  7.010452600000001  3.5152193
Cl    -5.173301199999999  8.762667500000001  5.5281368
C    -0.5443843999999995  11.2074264  -0.23690809999999995
C    0.6377398000000004  11.4402549  0.4424699000000001
C    0.6304559000000004  12.036812000000001  1.6981392
C    -0.5920981999999995  12.395348  2.2646315
C    -1.7752975999999996  12.160439400000001  1.5910967
C    1.9233928000000005  12.3641944  2.4218268
N    3.0565417000000004  11.5596691  2.0203045
C    3.6030358000000002  10.705869400000001  2.8893025999999997
C    4.700537300000001  9.792351400000001  2.4859073
C    5.9748953  9.857841800000001  3.0654204
C    6.967218600000001  8.9615369  2.7156624000000003
C    6.6941955  7.957283400000001  1.7787722
C    5.413495800000001  7.8732373  1.2131587
C    4.436763600000001  8.7741971  1.5632253
S    3.0010901000000008  10.4971099  4.4269168
C    7.680513400000001  6.9728653000000005  1.3297482
C    8.8497739  6.4731086  1.8651377
C    9.330994400000002  5.5116125  0.9465814
C    8.4300754  5.4825942  -0.09457540000000009
O    7.439138300000001  6.3561737  0.1445094
C    8.383025700000001  4.6890029  -1.3808038
O    9.2797734  3.8393152000000006  -1.5611743999999999
O    7.448118  4.9412702  -2.1729089000000004
Cl    2.8751912000000006  8.5937568  0.8416843
H    -5.2032614  11.405022800000001  -2.8305187
H    -2.5979416999999994  12.1425406  -2.4416968
H    -5.482424999999999  12.0543571  1.9910255000000001
H    -5.9023818  11.2036383  4.2829973
H    -3.3442494  8.4635767  1.0550941
H    -0.5233298999999996  10.740248000000001  -1.2102907999999999
H    1.5647898000000005  11.1389621  -0.019318399999999958
H    -0.6104898999999995  12.861835600000001  3.2370835
H    -2.7128149999999995  12.4490973  2.0397087
H    1.7858621000000006  12.2345029  3.4959433
H    2.1623249000000007  13.416337200000001  2.2264872
H    3.4162130000000004  11.6266559  1.0801705
H    6.1659205  10.6319507  3.7916340999999996
H    7.9480474  9.031240500000001  3.1542241
H    5.210981500000001  7.0925861  0.4956961
H    9.3019657  6.749375000000001  2.7948120999999997
H    10.2141217  4.911633800000001  1.0182777
