20

C    10.692  12.712  -16.718
C    10.5556664  11.761544800000001  -17.707713899999998
C    11.2909257  10.5785326  -17.6455832
O    11.1330392  9.6625844  -18.6334281
C    12.1637402  10.3639288  -16.583534399999998
C    12.3069205  11.3187745  -15.5975611
C    11.566728  12.4897573  -15.6616492
N    11.7137493  13.4568632  -14.6655283
C    12.8998217  13.9339818  -14.191199899999999
C    12.5808924  14.8687807  -13.2497498
N    11.2279118  14.9635863  -13.1378688
C    10.7358007  14.1078025  -13.9987447
H    10.1293969  13.6311988  -16.7628442
H    9.8870384  11.9128418  -18.539404
H    11.6958358  8.8880631  -18.4810314
H    12.7346874  9.449274800000001  -16.528834
H    12.9794974  11.1528199  -14.7706264
H    13.841657099999999  13.5927798  -14.5663118
H    13.2255113  15.477433000000001  -12.649124
H    9.692609000000001  13.9262155  -14.154884
