51

N    39.757  5.391  4.856
C    40.3619458  4.1172051  5.3255931
C    40.0095593  2.9625341  4.3771629
C    40.5140684  1.6498708999999998  4.9758043
C    42.039527  1.7153117999999998  5.0690114
C    42.5124031  2.9325376  5.870172
C    41.8844202  4.2401279  5.375936899999999
N    38.621249899999995  2.9854484  3.9769956
C    38.3442743  3.0752028  2.6525928
C    37.0308547  3.3844269999999996  2.1996466
C    36.8083754  3.4688065  0.8615670999999998
N    37.8554017  3.2933542  0.015661499999999773
C    39.130960699999996  3.0264672  0.5079552999999999
N    39.3549909  2.9244262  1.8116051999999998
N    37.8481411  3.3716194  -1.3218054000000001
C    39.1017447  3.1227694  -1.6943418000000001
C    39.9791813  2.9162595  -0.6126412000000001
C    41.413590899999996  2.615634  -0.6448757
C    42.117245499999996  2.5719505  -1.8734617
C    43.4476866  2.2653049  -1.9197672000000003
C    44.184346399999995  2.0011658  -0.7423137000000004
C    43.494778499999995  2.0374355  0.49900449999999985
C    42.118321699999996  2.3495451  0.5131859999999997
C    45.5732967  1.7451922  -0.7478748000000004
C    46.2508368  1.506133  0.4168905999999999
C    45.5695786  1.5185825  1.6416853999999999
C    44.2264483  1.7695056999999998  1.6789572999999998
H    39.9973878  6.158677  5.4941108
H    38.735897699999995  5.3041605999999994  4.799558299999999
H    40.1151121  5.6224516  3.9209785
H    39.974691899999996  3.9058596  6.3267568
H    40.5615716  3.1132967  3.4435873999999997
H    40.2214166  0.8182209999999999  4.3352392
H    40.0839303  1.485666  5.9653834
H    42.441904799999996  1.7674754  4.057495899999999
H    42.4247339  0.8052593999999997  5.5289664
H    43.5980506  3.0043170999999997  5.812849999999999
H    42.2493276  2.7841019  6.9198047
H    42.186649599999996  5.0444373  6.045869699999999
H    42.2666447  4.4572561  4.3773248
H    37.8881229  2.7691252  4.6321217
H    36.2189555  3.5124094  2.8938391999999995
H    35.8559051  3.692865  0.4096871999999998
H    39.3299447  3.1224163999999996  -2.7424907
H    41.5882232  2.7759445  -2.7929040000000005
H    43.962787399999996  2.2356244  -2.8702362000000003
H    41.5949384  2.3570696  1.4559033999999997
H    46.091721299999996  1.7338441999999998  -1.6969866000000002
H    47.3134486  1.3128022  0.3968295999999998
H    46.115052  1.3221554  2.5524177999999997
H    43.7082317  1.7797607  2.6240270999999997
