87

C    9.769000000000002  24.475  40.234
C    8.8184798  24.3394131  39.0194622
C    9.620026200000002  24.070524000000002  37.757758100000004
C    10.583422800000001  25.2382074  37.5251801
C    11.370309700000002  25.637386900000003  38.780054
C    11.7934894  27.099406000000002  38.6120949
O    7.957781400000001  23.2443381  39.1374732
O    8.758307400000001  23.8577662  36.6532154
O    11.5807531  24.854183600000002  36.6051919
O    10.6796307  25.533254200000002  40.046043000000004
O    12.505079400000001  27.5324154  39.7374008
C    11.746645000000001  20.659350000000003  43.3957898
C    10.543018900000002  21.4781286  43.8549694
C    9.9219591  22.176100100000003  42.6121014
C    10.954599100000001  22.953396700000003  41.7498797
C    12.226760200000001  22.1262623  41.5389799
C    13.433826300000002  22.948816  41.0648822
O    9.6227567  20.5982467  44.4677749
O    8.940999900000001  23.130017000000002  42.983450600000005
O    10.392226500000001  23.2183579  40.452851900000006
O    12.6639212  21.4750969  42.7346117
O    14.3385639  22.010597500000003  40.5380959
C    11.736083200000001  15.553208800000002  42.0020425
C    11.1456464  15.967783500000003  43.3747076
C    10.6563172  17.4148111  43.262362700000004
C    11.820520900000002  18.314403400000003  42.8017358
C    12.4783977  17.7836776  41.515885600000004
C    13.833917500000002  18.4416976  41.2016724
O    10.0854423  15.082282100000002  43.660886000000005
O    10.093970500000001  17.897967800000004  44.481523800000005
O    11.285983100000001  19.6110809  42.578067600000004
O    12.782344400000001  16.3985026  41.6174978
O    14.211438800000002  18.076019000000002  39.8744
C    8.9881746  13.138658900000003  38.144784800000004
C    9.148617000000002  12.499521300000001  39.5733052
C    9.389643200000002  13.578507600000002  40.638005400000004
C    10.510396700000001  14.521244400000002  40.187186700000005
C    10.250542200000002  15.084330300000001  38.779143100000006
C    11.4620197  15.871077000000001  38.2476021
O    7.831361600000001  13.914419400000002  38.0497365
O    7.980061000000001  11.771406900000002  39.834505300000004
O    9.766060000000001  12.990251800000003  41.8820804
O    10.6598745  15.599038100000001  41.098567200000005
O    10.064880100000002  14.000944800000003  37.880942100000006
O    11.102711500000002  16.4875183  37.0416812
H    9.2072061  24.760887200000003  41.134021600000004
H    8.263205600000001  25.283390400000002  38.9170132
H    10.2182294  23.163214200000002  37.9380285
H    10.0059751  26.091769000000003  37.1415493
H    12.258838500000001  24.9943844  38.8171679
H    10.901511000000001  27.720293  38.4589324
H    12.4570515  27.1842694  37.7519353
H    7.359715500000001  23.3596138  39.889731000000005
H    8.0884087  23.2168737  36.9354096
H    11.153964900000002  24.566638500000003  35.783464
H    11.955528600000001  27.3746687  40.518568900000005
H    12.3031181  20.2691747  44.258096900000005
H    10.880739400000001  22.261321000000002  44.5468348
H    9.478189  21.3922504  41.983450500000004
H    11.183230300000002  23.899087  42.254302300000006
H    11.999700800000001  21.367361600000002  40.778337
H    13.855104  23.4807552  41.923006900000004
H    13.104011700000001  23.659634200000003  40.299579200000004
H    9.924758400000002  20.3741166  45.356790000000004
H    8.284714800000001  22.6895783  43.5463833
H    15.168331900000002  22.453292100000002  40.3091749
H    12.175219700000001  14.551919500000002  42.0571956
H    11.930881500000002  15.885102000000002  44.140624100000004
H    9.8504301  17.473672300000004  42.5276553
H    12.581730100000001  18.3497802  43.5943539
H    11.775072600000001  17.955267000000003  40.6902257
H    14.5864483  18.0154457  41.865962100000004
H    13.7854652  19.525218100000004  41.322876400000006
H    9.486668300000002  15.509814700000003  44.2960106
H    10.759207600000002  17.8189445  45.1813293
H    13.921787400000001  18.7617316  39.258651900000004
H    9.0363085  12.346015300000001  37.3955792
H    10.028125500000002  11.840358000000002  39.532339300000004
H    8.460213300000001  14.152954400000002  40.756286
H    11.441610500000001  13.938307900000002  40.1465735
H    9.3534968  15.716239700000003  38.805545900000006
H    12.2652636  15.173835700000001  38.011008000000004
H    11.805467100000001  16.587953300000002  38.9967527
H    7.560490800000001  13.996983800000002  37.1235677
H    8.0233158  11.445919800000002  40.747032100000006
H    9.8018777  13.690557300000002  42.5588719
H    10.4057568  17.139514000000002  37.2031709
