64

C    4.896  19.793  12.762
C    4.7361241  18.4873431  12.3365874
C    5.676946099999999  17.5270303  12.6715134
C    6.7796810999999995  17.8796454  13.4327476
C    6.945067  19.1884492  13.8509772
C    6.0051041  20.1498092  13.517922100000002
C    6.2067231  21.555943  13.961795200000001
N    5.7500388  22.4782427  12.9404976
C    4.6060757  23.140911199999998  13.075703
O    3.8429762  23.0514284  14.0229718
C    4.3172738  24.1522079  11.962206400000001
N    3.1616868999999994  25.0113013  12.2963655
C    3.0828542999999993  26.2703638  11.501008800000001
C    1.6314152999999996  26.7457408  11.432051800000002
C    0.7013062999999997  25.7519614  10.7215368
C    -0.7013428000000008  26.3576724  10.7125456
C    1.1615230999999997  25.456094699999998  9.295541100000001
C    3.8992376999999996  27.4798898  11.9834916
O    4.452775399999999  28.2341861  11.179029400000001
N    3.9548399999999995  27.7899063  13.273751800000001
O    4.6723154  28.9745246  13.569027100000001
C    4.3911302999999995  23.5943576  10.589677100000001
C    3.6097306  22.5363339  10.117737100000001
C    2.5786868999999997  21.833023  10.715704800000001
C    1.9669211999999998  20.8366942  10.001221000000001
C    2.392403  20.5553626  8.697458000000001
Cl    1.5941737999999996  19.2830468  7.8046804000000005
C    3.4262021999999996  21.2370949  8.092496400000002
C    4.0405324  22.2430253  8.8137649
N    5.0536788999999995  23.0824502  8.512407200000002
C    5.2767352999999995  23.893199199999998  9.5787752
C    6.2784235  24.9024496  9.474111100000002
O    7.0489823  24.9609433  8.5181812
N    6.3377535  25.797212  10.495376100000001
O    7.312322  26.7678916  10.313154700000002
H    4.1522855  20.528859399999998  12.502552000000001
H    3.8756958999999997  18.215345499999998  11.7436968
H    5.5530456  16.5065924  12.3408349
H    7.5130712  17.131801799999998  13.696095900000001
H    7.8093753999999995  19.458372699999998  14.4391218
H    7.258443699999999  21.7484553  14.179644200000002
H    5.6154714  21.7565581  14.861408
H    6.292139199999999  22.5465671  12.093061200000001
H    5.194613799999999  24.8155865  12.062527200000002
H    3.1708301999999997  25.1509405  13.3183091
H    2.2881729999999996  24.4903215  12.106989100000002
H    3.414522  26.045357199999998  10.4836547
H    1.6071591999999995  27.688029399999998  10.882813500000001
H    1.2530528999999997  26.9429057  12.4355565
H    0.6355158999999997  24.8064178  11.270896200000001
H    -1.4133325  25.6724128  10.2591607
H    -0.7167801000000003  27.2826257  10.1407942
H    -1.0405904000000001  26.5750574  11.722229
H    2.0460975999999995  24.8259702  9.2687918
H    1.3654198999999996  26.3797104  8.7592618
H    0.3778020999999998  24.9285128  8.757784000000001
H    3.5196334999999994  27.4121654  14.101558700000002
H    4.9697412  29.3146535  12.696155800000001
H    2.2623236999999996  22.042023099999998  11.725692
H    1.1602811999999996  20.2610246  10.4230789
H    3.7334262999999996  20.9884743  7.089740900000001
H    5.5930444  23.122271599999998  7.6606886
H    5.4955643  26.294632999999997  10.764712900000001
H    7.749096399999999  26.574777599999997  9.453428200000001
