33

C    -4.98  -6.245  21.699
C    -5.946314000000001  -5.08806  19.6949858
O    -0.43051630000000074  -2.1674743999999997  20.468202400000003
O    -8.888753000000001  -1.931554  24.128146700000002
Cl    -1.6223604000000007  -3.0549336  17.972027500000003
Cl    -1.2811751000000005  -2.3833938  23.289225000000002
Cl    -8.787381700000001  -4.785705999999999  24.826998200000002
Cl    -7.435364100000001  -0.3022931  22.124155000000002
C    -3.475492300000001  -3.9495079  19.685627500000002
C    -3.3561614000000004  -3.6624002  22.075158300000002
C    -6.9619049  -4.7202155  22.8571084
C    -6.343267300000001  -2.7314659999999997  21.638231500000003
C    -1.5995032000000005  -2.8033416  20.654607100000003
C    -8.007520800000002  -2.6222731  23.384975300000004
C    -2.283173400000001  -3.2869938  19.5455788
C    -2.157297200000001  -3.0004795  21.918014600000003
C    -7.853775000000001  -3.9896692  23.604539300000003
C    -7.238374200000001  -2.0106551  22.393199700000004
C    -4.007404200000001  -4.138817599999999  20.9437901
C    -6.213687900000001  -4.0901758  21.884456300000004
C    -5.2820233000000005  -4.8926733  21.057742700000002
H    -4.1687355  -6.7213508  21.150045700000003
H    -5.839993400000001  -6.9054595  21.6494369
H    -4.6617015  -6.128123  22.729582100000002
H    -6.079674300000001  -4.1417631  19.181908900000003
H    -6.933994200000001  -5.5206785  19.8505588
H    -5.3821019  -5.7776394  19.0748515
H    -0.05699560000000048  -1.8868867999999999  21.322264500000003
H    -8.8960389  -0.9953795999999997  23.862028400000003
H    -3.9481860000000006  -4.3121684  18.794610400000003
H    -3.7803164000000007  -3.8039785999999998  23.0548518
H    -6.882565800000001  -5.7718559  23.052746900000002
H    -5.753449900000001  -2.2495753  20.877037800000004
