46

C    162.283  -3.417  341.526
C    161.44385139999997  -2.5133114  340.8952627
C    161.90357579999997  -1.6846821999999997  339.8767686
C    163.23943859999997  -1.7681701999999997  339.5049866
C    165.53661619999997  -2.7575472999999997  339.6928539
C    165.74711449999998  -4.095438499999999  338.9895151
C    166.6048928  -7.6008704  340.0188172
C    166.02509129999999  -7.7449870999999995  341.2705745
C    165.32382829999997  -6.6948716  341.8258769
C    165.17190649999998  -5.4738898  341.1431428
C    164.10481009999998  -2.6648017  340.1264709
C    163.61670859999998  -3.5303174999999998  341.1285142
C    166.35017599999998  -2.7367728  344.3216982
C    165.99973379999997  -4.313151899999999  346.2447207
C    166.48066339999997  -6.401746599999999  339.3427388
C    165.78769099999997  -5.318992  339.8786455
C    164.70013419999998  -4.2597308  343.1703524
C    165.89883259999996  -3.3365095  343.0286345
C    167.88350359999998  -4.6970336999999995  344.6083259
N    164.3993803  -4.501871899999999  341.7741168
N    166.90723709999997  -3.7733199999999996  345.22059110000004
Cl    159.75642429999996  -2.4587432  341.4480722
H    161.89112009999997  -4.0616373  342.2951173
H    161.23560739999996  -0.9917757999999997  339.3925541
H    163.61189299999998  -1.1192476999999998  338.72863140000004
H    165.75155549999997  -1.9526095999999997  338.9889182
H    166.23314369999997  -2.6737187  340.5214304
H    166.689046  -4.0623982  338.4373372
H    164.950022  -4.230378099999999  338.2500559
H    167.14732779999997  -8.4208784  339.5716471
H    166.10793389999998  -8.6812749  341.8017682
H    164.8138646  -6.8606145  342.7593028
H    165.5177685  -2.2448569  344.82425090000004
H    167.12580569999997  -1.9944556999999996  344.1250522
H    166.56867839999998  -4.8908891  346.9700619
H    165.25009999999997  -4.9669596  345.8044428
H    165.496616  -3.4982846999999997  346.7557782
H    166.93945189999997  -6.296462699999999  338.3701688
H    163.85820259999997  -3.7589897  343.6474476
H    164.92318949999998  -5.1849945  343.6852353
H    166.70355259999997  -3.8604089  342.5178917
H    165.578321  -2.5026861  342.402361
H    168.57687359999997  -4.1367587  343.9891976
H    167.38529509999998  -5.4485417  343.9986438
H    168.43747969999998  -5.2073437  345.3921111
H    167.52795249999997  -3.2069345  345.81912040000003
