27

S    -5.272  1.016  16.392
O    -4.7259158  1.3168937  17.6921686
O    -6.6263475000000005  1.40835  16.1046373
N    -4.266125000000001  1.7528493  15.3458212
C    -4.3831267  1.4358403  13.9333987
C    -4.7734734  2.6853274  13.1417855
N    -3.0766876000000005  5.6565922  14.2913642
N    -1.8676920000000004  3.1064164  12.110576
C    -2.5464654000000007  3.9172246  13.0035487
C    -2.0925103000000003  5.0977374  13.587276899999999
C    -4.1312135  4.8524988  14.1801469
C    -5.4225143000000005  5.0892064  14.8518094
N    -3.8674340000000003  3.7841614  13.3992723
O    -0.6702828000000003  3.3316114  11.9312715
O    -2.4696449000000005  2.2129268  11.5164904
N    -5.154326800000001  -0.5940696999999999  16.1027709
H    -3.3370133000000006  1.7903647  15.7262935
H    -5.175531400000001  0.6960435  13.8224306
H    -3.4541829  1.0156696  13.5446206
H    -5.7712716  3.0050673  13.4363799
H    -4.753995400000001  2.4478438000000002  12.0758372
H    -1.1225329000000004  5.543229999999999  13.4957282
H    -5.320499  5.9523772  15.5008527
H    -5.710784800000001  4.2195260999999995  15.441475
H    -6.2041181000000005  5.2891200000000005  14.120782
H    -4.5098519  -1.0313574  16.7408593
H    -6.0551244  -1.0427620000000002  16.1149995
