42

O    45.438  -2.567  23.64
C    46.649177200000004  -2.6481320000000004  24.3870866
C    44.613511700000004  -3.6414771000000004  23.608084599999998
C    43.468694  -3.5635889  22.7999019
C    42.588075  -4.6275949  22.6927073
N    42.2992356  -8.0785379  24.1669339
C    41.047243900000005  -3.3037583  21.4225651
O    41.446407400000005  -4.5587618  21.9693642
C    42.853842400000005  -5.826783300000001  23.3948774
O    44.6244007  -12.6946201  27.8989863
N    44.1768993  -6.9813222  25.0078296
C    41.9857944  -7.0082098  23.3301267
C    43.3406418  -8.054806300000001  24.9563999
O    41.010269900000004  -7.0769777000000005  22.5729194
C    43.6820864  -9.2305441  25.7863482
C    44.9525245  -9.4086509  26.3475196
C    45.2897154  -10.561704800000001  27.0311081
C    46.6918254  -10.697011700000001  27.5522045
C    44.3239955  -11.5754786  27.1866329
C    43.0531206  -11.4254818  26.6130609
C    42.0539016  -12.5364511  26.7098043
C    42.7481907  -10.2561894  25.935983399999998
C    43.9735426  -5.8580758  24.237208
C    44.854006500000004  -4.7828073  24.3445127
H    47.151395300000004  -1.7015867  24.203507
H    47.2706894  -3.4725198  24.032832499999998
H    46.443743500000004  -2.7549554  25.4536974
H    43.3064004  -2.6407208000000004  22.270570799999998
H    40.067948200000004  -3.4930339000000004  20.989983199999998
H    41.739835  -2.9789556  20.642887299999998
H    40.9730835  -2.5462634  22.2052222
H    43.8741739  -13.3064206  27.9063571
H    44.960396  -6.9802103  25.647979499999998
H    45.727603  -8.6706354  26.2155754
H    47.2718707  -9.8063144  27.3401985
H    47.1749251  -11.558580500000001  27.093974199999998
H    46.6778198  -10.8720146  28.6269475
H    41.1444151  -12.2567473  26.1856228
H    41.7894145  -12.7452401  27.7465212
H    42.438825  -13.4457101  26.248451199999998
H    41.780213700000004  -10.1255879  25.479241299999998
H    45.6981923  -4.870426  25.0058915
