48

O    19.83  10.614  -0.9910000000000001
C    18.6829559  11.1020304  -1.0112541
O    18.3390365  12.265682700000001  -0.7542198
C    17.6054174  10.0751588  -1.4585818000000002
N    16.2091754  10.3915842  -1.3949107
C    15.392576199999999  10.3052054  -2.4750091
C    15.7006813  10.063538600000001  -3.8103855
C    14.678950799999999  9.9905291  -4.7198475
C    13.335944099999999  10.155807000000001  -4.323487500000001
O    12.431234799999999  10.0064188  -5.342488100000001
C    11.096866899999998  9.6558138  -4.9929258
C    13.026914099999999  10.4226069  -3.0019575
C    14.059597799999999  10.4984343  -2.0587417
C    14.108238199999999  10.728528200000001  -0.6709366000000001
C    15.438494599999999  10.6619075  -0.2947708
C    16.0388621  10.8548057  1.0019263999999999
O    17.1395573  10.4367713  1.3306688
N    15.276715  11.575383  1.8853556999999999
S    15.832003899999998  12.0333749  3.4145383
O    15.0816798  13.2253531  3.7450156
O    17.251845499999998  12.229712600000001  3.5598815
C    15.2879703  10.7569102  4.4304802
C    16.2031401  10.136956  5.219812
C    15.742124299999999  9.1821055  6.1380657
C    16.6320399  8.49755  6.9838108000000005
C    16.1409718  7.5755404  7.864761
C    14.763548799999999  7.3038531  7.938023599999999
C    13.8769417  7.954154900000001  7.1264004
C    14.347574999999999  8.9079952  6.207003200000001
C    13.4523306  9.573725  5.3481079000000005
C    13.917851299999999  10.500936300000001  4.461876800000001
H    17.8084261  9.1974513  -0.8316043999999998
H    17.8603563  9.8145867  -2.4854133
H    16.7214456  9.9388004  -4.1371561
H    14.875549499999998  9.7980201  -5.761698900000001
H    10.619142199999999  9.3800337  -5.929777700000001
H    10.570413799999999  10.503854500000001  -4.5477165
H    11.089711099999999  8.811567100000001  -4.300804599999999
H    12.007384199999999  10.5597828  -2.679115
H    13.2759547  10.901779900000001  -0.0195898000000001
H    14.507386599999998  12.1240912  1.5312258
H    17.2449121  10.3955559  5.1265807
H    17.686100699999997  8.7146269  6.9176099
H    16.8137021  7.042592600000001  8.5194742
H    14.4154165  6.5691724  8.647508
H    12.8200785  7.7486894  7.1760752
H    12.399977699999999  9.346333900000001  5.409379100000001
H    13.275778299999999  11.058171  3.8023821
