36

N    49.294  -60.777  -92.412
C    48.202158299999994  -59.9036925  -91.93530430000001
C    46.833470199999994  -60.474457699999995  -92.47594820000002
O    46.058854399999994  -60.940913099999996  -91.62542460000002
O    46.655722399999995  -60.410848099999995  -93.70425500000002
C    48.4216236  -58.4757032  -92.4267872
C    48.572775099999994  -57.4846772  -91.27586570000001
C    48.224495899999994  -56.084118399999994  -91.75164110000001
O    49.059296399999994  -55.186183  -91.70171830000001
N    46.955775599999996  -55.9158353  -92.23763410000001
C    46.44866989999999  -54.6636214  -92.76856420000001
C    45.70137809999999  -53.734721  -91.76605340000002
O    44.86207579999999  -52.939811399999996  -92.1790976
C    45.663573799999995  -54.8626625  -94.0736712
S    46.598517099999995  -54.048285199999995  -95.40332910000001
N    46.0336485  -53.850850099999995  -90.4578419
C    45.47416679999999  -52.96959  -89.4430676
C    46.23065019999999  -51.6026988  -89.38737770000002
O    45.5851554  -50.598132799999995  -89.03627890000001
O    47.435077299999996  -51.621421299999994  -89.70296480000002
H    50.21444329999999  -60.380486399999995  -92.18273340000002
H    49.200801899999995  -60.8645831  -93.43459920000001
H    49.21364019999999  -61.7142821  -91.99943710000001
H    48.155358799999995  -59.948662399999996  -90.84563880000002
H    47.57879129999999  -58.1962683  -93.06116650000001
H    49.308043  -58.4197504  -93.05935680000002
H    49.5885183  -57.4534458  -90.88891880000001
H    47.885541999999994  -57.739604899999996  -90.46698570000001
H    46.2849429  -56.6551842  -92.09101710000002
H    47.35820399999999  -54.0730064  -92.98650800000001
H    44.68714909999999  -54.384585799999996  -93.99208420000001
H    45.56547559999999  -55.920799699999996  -94.30756750000002
H    45.7713371  -54.373725799999995  -96.39279960000002
H    46.94244019999999  -54.2357339  -90.24145740000002
H    45.55139739999999  -53.459625599999995  -88.47333750000001
H    44.43101539999999  -52.767697299999995  -89.68814070000002
