40

C    10.906  12.181  15.264000000000001
C    10.2025789  11.762927099999999  16.3614049
C    10.2460428  12.533155299999999  14.0696603
C    8.8938971  12.428892699999999  14.0260882
C    9.7341196  10.896484899999999  22.1123623
C    10.0909287  13.097240699999999  21.1624262
C    10.0424465  11.7140083  21.0006579
C    10.2968538  11.127053499999999  19.7657539
C    10.5942172  11.9423281  18.6868662
C    10.6647784  13.3214761  18.8263305
C    12.404135  12.223935599999999  15.366821600000002
C    8.7421779  11.6632743  16.307982000000003
C    5.932976  9.271128099999999  16.4610398
C    6.4962943  10.524612  14.3213006
C    6.7297033  11.8724289  14.9184427
C    6.1547368  8.3485105  14.164038900000001
C    10.4045578  13.878131799999998  20.065936800000003
F    12.9167405  11.0027467  15.593871100000001
N    9.508496599999999  10.235846299999999  23.0225631
O    10.8880157  11.353884099999998  17.475678300000002
Cl    10.4752015  15.592760299999998  20.217928200000003
N    8.173929  12.0205013  15.094222700000001
F    12.8175721  12.9954682  16.3928802
F    13.0359739  12.657472599999998  14.2632714
O    8.0561663  11.2989986  17.261534400000002
N    6.6422636  10.249443099999999  13.063027000000002
N    6.4236536  8.9148441  12.954111300000001
N    6.2025164  9.4051499  15.050824800000001
O    5.9283524  7.175354899999999  14.4203737
H    10.811157699999999  12.8619379  13.215526
H    8.332889  12.6527332  13.133286900000002
H    9.8855389  13.545525  22.1209326
H    10.25394  10.0580255  19.6347607
H    10.9083695  13.946950699999999  17.9824922
H    6.697532799999999  9.774830099999999  17.0496675
H    5.932218499999999  8.205006999999998  16.6842088
H    4.9525467  9.6862667  16.697622900000002
H    6.2561777  11.942352999999999  15.8992134
H    6.3678244  12.6497351  14.2489317
H    6.4713703  8.4596226  12.0562279
