50

C    -15.824  2.226  -26.869
N    -17.1064658  1.9840907999999997  -27.084842799999997
C    -17.9392635  3.0168307999999997  -27.0651177
C    -17.5348985  4.3110221  -26.796405399999998
C    -16.190216799999998  4.5707654  -26.523612399999998
C    -15.2901747  3.4865743  -26.5998025
C    -13.8314752  3.6361795999999997  -26.407399599999998
C    -15.8054531  5.9307788  -26.1004191
C    -13.1522743  2.8556087999999997  -25.4734558
C    -11.8138155  3.0790596999999997  -25.225278099999997
C    -11.0901254  4.0706674  -25.881932199999998
C    -11.7900748  4.8013857  -26.84067
C    -13.1190685  4.598247499999999  -27.1222581
F    -11.173665  2.3153832000000003  -24.2916241
C    -16.2340821  7.0548898  -26.802302299999997
C    -15.8521308  8.3277479  -26.427846
C    -15.031590399999999  8.551258  -25.3119078
C    -14.6215979  7.4151788  -24.598688199999998
C    -15.0070123  6.1458433999999995  -24.978249299999998
O    -9.8033739  4.4008687  -25.672218599999997
F    -11.1085268  5.7848958  -27.478698599999998
N    -14.6602255  9.840408199999999  -24.915558899999997
C    -15.35047  10.941256599999999  -25.5811219
C    -14.725819  12.2879664  -25.2485684
N    -14.7051828  12.5125995  -23.7938305
C    -13.9138407  11.4357009  -23.173265699999998
C    -14.5209728  10.07161  -23.4781728
C    -14.1636688  13.837876099999999  -23.4668267
H    -15.173098099999999  1.3634906999999998  -26.9256189
H    -18.976332499999998  2.7796952  -27.2593362
H    -18.2591441  5.1087329  -26.752658
H    -13.6675342  2.0950033  -24.9087595
H    -13.6042772  5.2121032  -27.8630699
H    -16.8534364  6.9284532  -27.6784242
H    -16.2260286  9.1367832  -27.029715
H    -13.9887753  7.4969119  -23.7314701
H    -14.6736098  5.2986468  -24.396804
H    -9.392837199999999  3.8367347  -24.9959705
H    -16.4200172  10.9443307  -25.320342699999998
H    -15.2579879  10.8096831  -26.6583002
H    -15.2980683  13.0757036  -25.738603299999998
H    -13.6973439  12.3181264  -25.611683399999997
H    -15.668725499999999  12.4521363  -23.4413478
H    -13.8792566  11.5746459  -22.0927403
H    -12.8992603  11.486716999999999  -23.5715197
H    -13.860585  9.320145199999999  -23.0527791
H    -15.5009122  9.9784588  -22.9844428
H    -14.7609095  14.6146293  -23.9374084
H    -13.140585699999999  13.9151379  -23.826583399999997
H    -14.1699302  13.9924645  -22.390817799999997
