38

C    27.34  -20.58  2.697
C    25.369910599999997  -21.457252899999997  1.6458274
C    26.4496677  -21.627641399999998  2.5136077
F    24.4735552  -22.470292299999997  1.4630368
C    25.18721  -20.270466499999998  0.9627324000000002
C    26.091023699999997  -19.2198109  1.1582012
C    27.162516  -19.3511234  2.0349542
N    28.0989877  -18.267949099999996  2.2254465999999997
C    28.007807399999997  -17.2429784  3.1332032
S    26.664934  -17.144931399999997  4.1315568
N    29.0186474  -16.319762299999997  3.2136112
C    30.1216619  -16.496271199999995  2.2865802
C    31.341741199999998  -15.573184099999997  2.375526
O    32.4713371  -16.314407399999997  2.7606669999999998
C    31.2423443  -14.380545999999997  3.3199348
O    30.7983005  -13.239565599999997  2.6321712
C    30.336029999999997  -14.605051599999998  4.5232738
O    30.1845753  -13.383544899999997  5.18111
C    28.9726191  -15.214003899999998  4.1687981
C    28.0141328  -14.120945799999998  3.6727382
O    28.0430285  -12.921729099999997  4.4087374
H    28.1668624  -20.698672199999997  3.3790493
H    26.5783617  -22.562149199999997  3.0342129
H    24.3498073  -20.154463299999996  0.2947810999999998
H    25.9337353  -18.286441599999996  0.6419266000000001
H    28.9365913  -18.364350499999997  1.6714132
H    29.713352999999998  -16.420625199999996  1.2702863
H    30.522956899999997  -17.506232499999996  2.4425472
H    31.5122091  -15.151877799999998  1.3735655
H    32.2533341  -14.211411999999997  3.7180288
H    30.850533499999997  -15.282308499999997  5.2167110999999995
H    28.5470923  -15.610302799999998  5.101939
H    27.0070515  -14.556527299999997  3.6757197
H    28.2824012  -13.899905499999997  2.6247805
H    27.2113008  -12.450333299999997  4.260533
H    30.014364999999998  -12.699175999999998  4.5143942
H    31.530394899999997  -12.826190299999997  2.1553945
H    32.76814  -16.884821999999996  2.0380537
