45

C    -29.733  33.138  -64.18
C    -30.0333362  34.0623265  -63.205545500000014
C    -30.2694512  35.40787529999999  -63.52796980000001
C    -30.2171668  35.8359933  -64.83169720000001
C    -29.9219198  34.91296319999999  -65.84096330000001
C    -29.6707747  33.564809999999994  -65.50925600000001
N    -29.4033761  32.892349599999996  -66.6690293
C    -29.4898891  33.7512293  -67.7192708
C    -29.8181791  35.0053158  -67.25779140000002
C    -30.0062159  36.233626099999995  -68.09040120000002
N    -28.774034399999998  36.3549125  -68.82131220000001
C    -27.6663148  36.6089602  -67.8672815
C    -26.6265397  37.590700299999995  -68.35832510000002
C    -28.9483464  37.094147299999996  -70.07921840000002
C    -27.9832182  38.2412539  -70.32460480000002
C    -27.2600527  38.748896599999995  -69.0887658
N    -26.2108961  39.7074838  -69.49135900000002
C    -25.1699829  39.44085629999999  -70.31384430000001
O    -24.9761043  38.3544743  -70.83539350000001
C    -24.1737356  40.571904499999995  -70.62390640000001
N    -24.5738615  41.88702549999999  -70.09930190000001
H    -29.553839  32.104306799999996  -63.921522300000014
H    -30.0905312  33.748494799999996  -62.17384690000001
H    -30.500717299999998  36.1023297  -62.73462700000001
H    -30.4189629  36.869819699999994  -65.06670100000001
H    -29.2033632  31.908267599999995  -66.73332270000002
H    -29.355891  33.3860671  -68.71947070000002
H    -30.1996655  37.1112726  -67.47503630000001
H    -30.8481085  36.0852029  -68.7713063
H    -28.5752649  35.402775299999995  -69.14510390000001
H    -27.1924214  35.6681422  -67.59825280000001
H    -28.1105634  37.019887999999995  -66.957552
H    -25.9293214  37.1022104  -69.04455750000001
H    -26.0516211  37.9377407  -67.50027080000001
H    -29.9569126  37.51206989999999  -70.06483180000001
H    -28.8958901  36.40571069999999  -70.92022480000001
H    -28.5172908  39.0604775  -70.8049361
H    -27.2065967  37.91243179999999  -71.02026740000001
H    -27.9413546  39.2941313  -68.43074410000001
H    -26.291674099999998  40.6113113  -69.05587860000001
H    -24.0739303  40.598792599999996  -71.70951200000002
H    -23.2098254  40.2646982  -70.21590840000002
H    -23.8974519  42.598164  -70.41169040000001
H    -24.5708144  41.9016482  -69.07165250000001
H    -25.4960628  42.1658559  -70.45844610000002
