24

P    24.698  -52.086  19.573
O    24.772661199999998  -50.5954854  19.8805693
O    24.3143314  -52.9609566  20.7604073
O    25.7911249  -52.7400699  18.7555292
O    23.3039388  -52.1079585  18.5809741
C    22.182715599999998  -52.1756729  19.4480401
C    20.855290399999998  -51.9456505  18.7615147
N    20.3202973  -50.5541745  18.771996
C    20.0845402  -49.8897787  20.0781304
C    20.874901299999998  -49.6650057  17.7292591
C    18.953540699999998  -50.8240518  18.2996944
H    22.3618618  -51.4610286  20.2640271
H    22.1981501  -53.166074800000004  19.9198166
H    20.136905  -52.5837951  19.271225
H    20.9778409  -52.2613494  17.725967
H    19.4507513  -49.023668900000004  19.923816600000002
H    21.0331364  -49.5679267  20.510018600000002
H    19.6217154  -50.5910302  20.7634383
H    20.7606462  -50.124681100000004  16.7534006
H    21.9428491  -49.517391  17.9086103
H    20.3715293  -48.7047833  17.7634199
H    18.388022799999998  -51.391379900000004  19.0352602
H    18.9601754  -51.385771500000004  17.3683779
H    18.4239543  -49.8884285  18.1194419
