57

O    -4.9830000000000005  16.405  9.841
P    -6.4792711  16.3497415  10.060858699999999
O    -7.2369181  15.744151000000002  8.8852659
O    -7.1645411999999995  17.550009000000003  10.6408123
C    -6.659014  15.013513900000001  11.3738634
C    -5.9697457  15.490018800000001  12.582688899999999
O    -4.7754258  15.337752700000003  12.7864691
O    -6.8107258  16.0794795  13.459545199999999
C    -6.313384  16.623214  14.676085599999999
C    -6.9237421  15.841187700000003  15.836756699999999
O    -6.3601872  14.575608400000002  15.8940024
P    -7.3135259999999995  13.229636100000002  15.517487399999998
O    -8.6757733  13.487319600000003  16.1208193
O    -7.3090462  13.164578800000001  14.0017219
O    -6.5449988  12.100286900000002  16.158395499999997
C    -6.7066995  16.504804200000002  17.1945879
O    -7.466819  15.818197700000002  18.1230808
P    -6.8111896  15.521632300000002  19.648699099999998
O    -5.3638227999999994  15.141183600000002  19.4204282
O    -7.6815815  14.413044600000003  20.184427799999998
O    -6.9902121  16.832646200000003  20.3955281
C    -6.6351962  18.1109125  14.7066845
O    -5.8573419  18.737227  13.7449274
P    -6.3925901  20.030373800000003  12.769694399999999
O    -5.5975502  21.2304199  13.219068499999999
O    -5.9749456  19.5990806  11.392894199999999
O    -7.8858483999999995  20.1511293  12.992100299999999
C    -6.3546833  18.7182433  16.076864699999998
O    -6.7599984  20.0396287  16.046025
P    -5.7300269  21.167587400000002  16.7448709
O    -4.4520379  21.1910297  15.945209799999999
O    -6.5592793  22.4255047  16.680635199999998
O    -5.5318859  20.6481043  18.1637231
C    -7.1097839  17.9664222  17.1652482
O    -8.49156  18.0486879  16.9521165
C    -9.1293259  19.019584700000003  17.7909078
C    -10.4965075  19.175384  17.2359157
C    -10.6598897  19.910531900000002  16.0676245
C    -11.924473899999999  20.0575146  15.523299499999998
C    -13.0145907  19.461216200000003  16.1393147
C    -12.8428998  18.706931800000003  17.2885642
C    -11.5808059  18.5573948  17.8377014
H    -6.17509  14.101933300000002  11.024091199999999
H    -7.713697  14.853758000000003  11.5969901
H    -5.2169839  16.501313500000002  14.6919443
H    -8.0138915  15.762463300000002  15.6654042
H    -5.6284501  16.4252076  17.442637599999998
H    -7.7086147  18.259086800000002  14.475527399999999
H    -5.2601169  18.6524296  16.2594451
H    -6.8460879  18.4109014  18.140236599999998
H    -8.5504497  19.956658500000003  17.7482188
H    -9.0961327  18.634688  18.8258764
H    -9.771004  20.325025800000002  15.5956093
H    -12.0266394  20.620293500000002  14.6079493
H    -13.9961615  19.581242600000003  15.709586799999999
H    -13.685537400000001  18.2255907  17.7583576
H    -11.3971061  17.958568500000002  18.7174878
