59

C    6.679  -9.874000000000002  -23.37
O    -1.2796323999999997  -10.892935800000002  -26.330824600000003
C    5.3319551  -9.660230300000002  -23.3440264
C    5.5874499  -11.749325400000002  -24.052387600000003
C    6.8578032  -11.2332107  -23.8187906
C    8.0369066  -12.050362500000002  -24.053920400000003
C    7.798704600000001  -13.490762300000002  -24.4860012
C    -0.8265791999999994  -11.3112261  -25.261019400000002
N    -1.5650079999999997  -12.1445675  -24.5062232
C    -1.1039142999999996  -12.799316400000002  -23.295696300000003
C    0.34946540000000015  -13.198797000000003  -23.509693700000003
C    1.1516592000000005  -12.0126608  -23.985599500000003
C    2.4887158000000005  -11.918434200000002  -23.6280593
C    0.5570287000000005  -11.009437000000002  -24.775188
C    1.2987653000000003  -9.852818500000001  -25.1223607
C    0.6599490000000001  -8.662812200000001  -25.8211361
C    1.1093410000000001  -8.404732200000002  -27.2719437
C    0.6393248000000002  -6.974256900000001  -27.583876200000002
C    0.39699510000000027  -6.292260600000001  -26.2283763
C    0.8952887000000005  -7.283152800000002  -25.1749599
C    2.6449902000000005  -9.8004957  -24.751071800000002
C    3.2573994  -10.8328105  -24.037168
N    4.6548452000000005  -10.792714800000002  -23.758250800000003
C    5.3252574  -13.119216200000002  -24.5801589
C    6.534536  -13.7325829  -25.319401600000003
C    6.307299800000001  -15.240293900000001  -25.480033600000002
C    6.6916926000000005  -13.111626300000001  -26.709237700000003
O    9.1920426  -11.654865400000002  -23.906398300000003
C    7.7256441  -8.864953300000002  -23.032084400000002
H    4.7891807  -8.783240800000002  -23.0537189
H    7.738101  -14.069374100000001  -23.558300300000003
H    8.6908247  -13.823206600000002  -25.0192869
H    -2.488563  -12.3480184  -24.858507300000003
H    -1.7296410999999994  -13.670073600000002  -23.1090106
H    -1.1849578999999997  -12.111196000000001  -22.446049600000002
H    0.40283320000000034  -13.985770600000002  -24.267397900000002
H    0.7764493000000003  -13.586068700000002  -22.5864385
H    2.9369446000000003  -12.6928309  -23.026625900000003
H    -0.4195802999999998  -8.836581100000002  -25.849506100000003
H    0.6798489000000005  -9.1407672  -27.9499973
H    2.1967297000000006  -8.474285600000002  -27.335305700000003
H    -0.2799237999999997  -6.998822300000001  -28.168207700000004
H    1.3893412000000003  -6.445408800000002  -28.1706019
H    -0.6681837999999996  -6.107087400000002  -26.086281600000003
H    0.9146074000000004  -5.337317000000001  -26.1516699
H    1.9595276000000004  -7.1317891000000015  -24.9938311
H    0.3688834000000005  -7.182083500000001  -24.2264617
H    3.2385126000000004  -8.948240000000002  -25.042781
H    4.455127200000001  -13.103374200000001  -25.2417723
H    5.080435700000001  -13.775188700000001  -23.7373203
H    7.1471425  -15.692293600000001  -26.001148
H    5.405006200000001  -15.4248577  -26.057092400000002
H    6.2055636000000005  -15.724673000000003  -24.5118316
H    6.8603764  -12.039033000000002  -26.6319446
H    5.7984653  -13.2795646  -27.3056246
H    7.540444900000001  -13.552153400000002  -27.2262203
H    7.2633086  -7.932683000000002  -22.7220063
H    8.3617944  -8.685697800000002  -23.898091800000003
H    8.368535300000001  -9.235636000000001  -22.234845200000002
