68

P    12.057  51.486  5.955
O    11.027433  50.4242926  6.0385887
O    13.3003462  51.2547287  5.1844731
O    12.5521927  51.9899477  7.4204938
C    11.5436495  52.2397692  8.363058800000001
C    12.1188346  53.1132731  9.4553314
O    13.1915719  52.493345399999995  10.1319206
C    12.584075  54.5089413  9.0563572
O    11.4755127  55.3590087  9.012629800000001
C    13.5153304  54.8288212  10.2196559
O    12.8067079  55.1940339  11.3744452
C    14.1388101  53.463068899999996  10.4993668
N    15.3731969  53.2144305  9.7880207
C    15.5598253  52.395240199999996  8.7019897
N    16.796596  52.3115544  8.3384043
C    17.4950677  53.1194077  9.197410000000001
C    18.8868624  53.412067  9.2765073
O    19.7961332  52.9875532  8.5584561
N    19.184424  54.2893767  10.3200637
C    18.2577214  54.8434332  11.1713731
N    18.697375100000002  55.6849212  12.1297869
N    16.9695245  54.5447531  11.107387500000002
C    16.6136747  53.694009199999996  10.1219631
P    11.6448522  56.7661959  8.190621700000001
O    10.373171  57.514052899999996  8.360846500000001
O    12.9420983  57.3733634  8.5722619
O    11.8034042  56.2661371  6.6496464
C    10.6224647  55.8076603  6.037581100000001
C    11.0134685  55.0573378  4.7871521
O    11.5472535  55.9236591  3.7971266000000004
C    11.9786271  53.8911224  4.980937900000001
O    11.2344635  52.7641531  5.3490079
C    12.5866998  53.805635099999996  3.5781905000000003
O    11.7517995  53.1180095  2.7029069000000003
C    12.6090445  55.2830509  3.1477241000000005
N    13.8604223  55.9236705  3.4650491000000003
C    14.1290544  56.7715373  4.5026467
N    15.351085900000001  57.1915628  4.501969000000001
C    15.9675185  56.5871395  3.4359757
C    17.3073322  56.6626866  2.9413701000000003
O    18.2588993  57.3030738  3.3891473000000003
N    17.4963021  55.8969604  1.7958623000000005
C    16.5391465  55.109130799999996  1.2112284000000004
N    16.8742633  54.4135799  0.10809280000000054
N    15.3005484  55.041902  1.6701699000000003
C    15.0401982  55.7792679  2.7718015000000005
H    11.1999003  51.2871769  8.7776108
H    10.6964002  52.7499373  7.891703400000001
H    11.3058321  53.2784136  10.188630400000001
H    13.1316219  54.517274199999996  8.105345400000001
H    14.258124800000001  55.590348399999996  9.952383000000001
H    12.2466217  55.9584283  11.169258899999999
H    14.347697  53.375360799999996  11.575496000000001
H    14.7456603  51.8885205  8.224205300000001
H    20.1633722  54.54452  10.4022659
H    17.9940942  56.1523793  12.6755115
H    19.6356088  56.0451982  12.0983038
H    9.985519  56.663382999999996  5.7984894
H    10.0825379  55.140291  6.7181438
H    10.0905266  54.6118175  4.3722347
H    12.755706  54.1121099  5.7239645
H    13.592853  53.3663318  3.5986067000000004
H    11.5865251  52.229656999999996  3.0545275000000003
H    12.4616527  55.344774  2.0602167000000007
H    13.388562  57.0532243  5.222777300000001
H    18.440084  55.9120732  1.4226696000000008
H    16.1874779  53.7696204  -0.24492959999999986
H    17.838441  54.3219634  -0.16074699999999975
