49

C    23.406  48.339  47.141
C    23.5026992  48.6041285  48.5134986
C    23.4099722  49.8879424  49.0302036
I    23.5679022  50.2095301  51.1897557
C    23.2070071  50.896738299999996  48.0905451
C    23.1001841  50.623667  46.7146223
C    23.2148734  49.327907599999996  46.1714217
C    23.0070613  48.9634894  44.670363800000004
O    22.19223  49.5833332  43.9846774
N    23.675414699999997  47.9212361  44.1258841
C    23.423349299999998  47.4547357  42.7553002
C    23.3393822  45.9261195  42.624039100000005
C    22.385603399999997  45.2435577  43.6215084
C    20.924187999999997  45.6308807  43.3854425
C    19.9078338  45.0151187  44.3682059
C    20.109744199999998  45.6215818  45.782849500000005
O    19.6106654  46.7472142  45.992032800000004
O    20.7655781  44.9319686  46.585034
N    18.5673079  45.3488147  43.9314271
C    17.893650899999997  44.5982051  43.0406324
O    18.3583808  43.5443276  42.5978159
N    16.6147792  45.007157899999996  42.737637400000004
C    16.024048399999998  44.3186274  41.5956758
C    16.9090718  44.5501766  40.318148900000004
O    16.740020599999998  43.7622499  39.3664584
O    17.7098785  45.5068397  40.3463431
C    14.5723621  44.7407493  41.3303993
C    14.4021768  46.1418463  41.001658400000004
C    14.219331599999999  47.2938788  40.7338484
H    23.4430962  47.2979027  46.8479754
H    23.636256  47.7564388  49.169804
H    23.1100489  51.925862099999996  48.4027337
H    22.9236719  51.453016399999996  46.045909
H    24.315868  47.378665999999996  44.6857745
H    24.2282036  47.8216161  42.111789
H    22.4880116  47.9214699  42.4410648
H    24.334706999999998  45.5023879  42.767125300000004
H    23.0080411  45.7003968  41.610877200000004
H    22.644664  45.502175199999996  44.6508118
H    22.476115099999998  44.1609446  43.5223838
H    20.615162599999998  45.3335584  42.376901000000004
H    20.8075793  46.7168519  43.464753200000004
H    20.010560299999998  43.9264034  44.403167700000004
H    18.2186199  46.2295711  44.2827042
H    16.4829333  46.0101165  42.7080331
H    16.0611431  43.2455395  41.8072971
H    13.968973899999998  44.5065158  42.212083
H    14.225566299999999  44.1381513  40.4858299
H    14.080667799999999  48.3041815  40.4905039
