74

C    16.366  40.783  26.032
C    15.9981802  39.5997803  26.9137203
C    14.6605001  40.0816347  27.483823700000002
C    13.9760261  40.8055464  26.324834900000003
N    15.079885  41.1845098  25.397164200000002
C    15.024407700000001  42.6122803  25.0480984
C    16.1601005  43.0028617  24.0988052
O    16.264861  41.9694592  23.1237244
C    17.4083177  41.876948999999996  22.3686972
C    18.3729404  42.870046099999996  22.2465201
C    19.4898818  42.6712194  21.4554809
C    17.5985728  40.6770794  21.685852
C    18.7047473  40.4962687  20.8729936
C    19.6860399  41.4792796  20.764981900000002
N    20.810158  41.3828083  19.954386300000003
C    21.407693000000002  40.2725631  19.4561601
N    21.1227832  39.0624427  19.9499508
N    22.319516  40.507681  18.504725200000003
C    22.9470398  39.4393447  18.006067100000003
C    22.731945  38.1402806  18.429439900000002
C    23.4793461  36.9911151  17.8284245
C    21.7716298  38.004993  19.4585976
N    21.5045796  36.7558763  19.9250362
C    20.715736500000002  36.3676969  20.9913397
C    20.1347822  37.2229761  21.935957900000002
C    20.5314327  34.988272  21.1352178
C    19.791293500000002  34.462372  22.172818600000003
C    19.2415302  35.308752  23.1228903
C    19.4302142  36.6682885  22.9904167
S    18.6172773  37.7249143  24.1712428
O    18.7452613  37.1484394  25.504019300000003
O    17.281052  37.9912744  23.642798000000003
N    19.342227700000002  39.1703578  24.1312812
C    20.575272000000002  39.4847979  24.8514073
C    21.6322655  38.3766471  24.721004100000002
C    20.2546632  39.7281816  26.3295055
C    21.0648194  40.7862219  24.2262314
H    17.105746500000002  40.524584  25.275501300000002
H    16.7208682  41.6092361  26.6486121
H    16.7408678  39.407860299999996  27.681115400000003
H    15.8870658  38.6954538  26.3148696
H    14.8484378  40.7699819  28.3069987
H    14.0547403  39.2637826  27.8646062
H    13.4462706  41.6928752  26.661823400000003
H    13.2756457  40.1497457  25.811536500000003
H    15.0060806  40.6589735  24.5205258
H    15.0945727  43.2096307  25.9575849
H    14.067160900000001  42.8027052  24.5600044
H    17.1088433  43.0941075  24.6378914
H    15.9288994  43.9624054  23.624385500000002
H    18.2586489  43.818234  22.7471609
H    20.2203382  43.4608554  21.3719529
H    16.8667421  39.8906422  21.780307200000003
H    18.8183233  39.5729835  20.328559000000002
H    21.2109977  42.246128999999996  19.6166644
H    23.6694359  39.6579894  17.2298531
H    24.1738382  37.362416599999996  17.079551600000002
H    22.7987133  36.293234  17.340528300000003
H    24.050385300000002  36.4557965  18.5862537
H    21.950196000000002  36.001858  19.4218677
H    20.2501323  38.2862591  21.825662100000002
H    20.971456  34.3190898  20.4112322
H    19.6531233  33.396372  22.2534694
H    18.6754291  34.938021  23.961645500000003
H    19.2187761  39.6227792  23.2383563
H    22.5160992  38.648201  25.2899303
H    21.9165232  38.2304053  23.682367300000003
H    21.2350346  37.4434278  25.113565400000002
H    21.167420200000002  39.9535282  26.870978700000002
H    19.7983596  38.8394073  26.7569598
H    19.5656189  40.5602492  26.4305782
H    21.9564817  41.1372918  24.738196600000002
H    20.2971534  41.5506678  24.2983982
H    21.3101864  40.6393445  23.1764073
