16

O    -20.283  -34.049  18.742
C    -19.3077854  -34.818013799999996  18.533055800000003
O    -19.047040000000003  -35.8089394  19.248043000000003
C    -18.426388600000003  -34.529665  17.362910700000004
C    -17.593536200000003  -35.512552  16.851501600000002
C    -16.7850715  -35.2371261  15.761961500000002
C    -16.7971518  -33.9706357  15.178838100000002
C    -17.626093  -32.9982076  15.686951700000002
F    -17.6821619  -31.706372299999998  15.152061800000002
C    -18.460686600000002  -33.2486706  16.777423000000002
N    -19.2296869  -32.2432027  17.254096800000003
H    -17.599526200000003  -36.4797028  17.331012
H    -16.1371904  -35.997079  15.356955300000003
H    -16.165570000000002  -33.7495928  14.332511600000002
H    -19.941842  -32.5389519  17.913729500000002
H    -19.3826958  -31.446401599999998  16.660034200000002
