17

O    16.822  30.492  -2.286
O    15.287598799999998  28.8766234  -2.416109
C    19.964295  25.748058399999998  1.2442119999999999
C    18.922991699999997  24.8636293  0.9600453999999998
C    19.944832199999997  27.0487502  0.7859706
C    17.8351245  25.2658661  0.21147059999999995
C    18.467723999999997  28.6902954  -0.6221722000000001
O    16.855977399999997  27.163444  -1.0009027000000001
C    16.3835405  29.3459546  -2.0427741
C    17.268814799999998  28.4461057  -1.2197758
C    18.858812699999998  27.4802049  0.021530099999999885
C    17.818676699999997  26.5727054  -0.2504622000000001
H    20.800531799999998  25.4064168  1.8336232999999997
H    18.9653289  23.8524814  1.3315378999999998
H    20.751273299999998  27.7308056  1.0068853999999998
H    17.0191694  24.5994898  -0.018786200000000086
H    18.990901299999997  29.6241448  -0.6543924000000001
