55

N    21.011  -2.436  20.340000000000003
C    20.6615777  -1.1957942  20.6061522
N    20.605031999999998  -0.31646350000000023  19.6011303
N    20.368499399999997  -0.7541339000000002  21.863678200000003
C    20.4150973  -1.5800603999999998  22.9853008
O    20.113091999999998  -1.1136141  24.095382
C    20.842365799999996  -2.9079083  22.674085
N    20.818075399999998  -3.9499549  23.619436500000003
C    20.148816999999998  -5.1013912999999995  23.022023800000003
C    21.1787396  -5.6729658  22.0506284
N    21.436986299999997  -4.6031963  21.0903558
C    21.0883039  -3.3187156  21.3574805
C    19.463346199999997  -5.9977991  24.0256478
N    18.483977099999997  -5.1438323  24.650963200000003
C    14.334852899999998  -5.2130904  24.3621884
C    15.093883099999998  -5.2469412  23.186814000000002
C    16.4782415  -5.2416703  23.2245929
C    17.133214999999996  -5.1888278  24.462667000000003
C    16.364264499999997  -5.1205184  25.6283347
C    14.999364599999998  -5.1430292  25.5851827
C    12.854032399999998  -5.2583779999999996  24.3473025
O    12.208680999999999  -4.9939325  23.3286225
N    12.269517799999997  -5.5677943  25.5311683
C    10.941252999999998  -6.1098335  25.6895151
C    10.846715599999998  -7.5099931  25.0639985
C    9.498374399999998  -7.7652943  24.4172383
C    9.628147599999998  -8.7742434  23.252873800000003
O    10.675263799999998  -9.4472108  23.173046300000003
O    8.667511799999998  -8.8396676  22.4578919
C    10.617837199999997  -6.2535847  27.203005100000002
O    11.583369499999998  -6.4536709  27.967769800000003
O    9.422352299999998  -6.1830101  27.53706
C    21.378000099999998  -3.7214019  24.807931200000002
O    20.9237081  -3.9682044  25.9107781
H    20.7762581  -0.6586378000000002  18.6713278
H    20.268877399999997  0.6188260999999997  19.7446425
H    20.0598064  0.19719830000000016  22.0236604
H    19.331228  -4.6914236  22.4125529
H    20.781624599999997  -6.5425041  21.5271666
H    22.098063999999997  -5.9498538  22.5740936
H    21.5381164  -4.8364975  20.11524
H    20.155159299999998  -6.3798758  24.777118
H    18.9762216  -6.8304959  23.5133088
H    18.7577026  -4.8435017  25.5761608
H    14.562527999999999  -5.2864121  22.2471563
H    17.038979499999996  -5.3005731  22.306316000000002
H    16.867461099999996  -5.0525406  26.581754500000002
H    14.453899099999997  -5.0713643  26.5134756
H    12.849432599999998  -5.9008892  26.294267400000003
H    10.213607599999998  -5.4394357  25.219230800000002
H    11.063480599999998  -8.2753115  25.8141393
H    11.608948299999998  -7.5982538  24.281611700000003
H    9.094578599999998  -6.8462194  23.9856476
H    8.768590599999998  -8.139823100000001  25.1380231
H    22.222536499999997  -3.0057298  24.7180545
