43

C    23.787  44.194  44.249
C    24.6811602  44.004631100000005  45.2900633
C    25.6738707  44.942881500000006  45.5261867
C    25.7719255  46.077746700000006  44.7342606
C    24.8737018  46.270069500000005  43.6986133
C    23.884116499999998  45.3256329  43.4443881
C    22.928404099999998  45.55888890000001  42.3097133
C    21.7116433  46.3136701  42.8291361
C    20.9019706  45.452687000000005  43.7936141
C    19.4380152  45.842437700000005  43.699106
O    18.6893656  45.036485400000004  44.5911331
P    17.572143399999998  44.025618800000004  43.9858415
O    16.911716  43.43121190000001  45.1838354
O    18.1965014  43.037247900000004  43.0364129
N    16.4863148  45.0837779  43.1897256
C    15.980525399999998  44.567394500000006  41.9203807
C    17.0223262  44.693409900000006  40.769729
O    17.875501999999997  45.60547030000001  40.863475
O    16.919701399999997  43.901326000000005  39.8113234
C    14.695393  45.29505700000001  41.4742518
C    14.915301999999999  46.79977530000001  41.3955396
C    13.8024314  47.588919000000004  40.649921
O    13.063614699999999  46.975374  39.8554319
O    13.758639499999997  48.81983700000001  40.8676599
H    23.0204168  43.4600306  44.0467009
H    24.601662599999997  43.12467720000001  45.9103527
H    26.373834  44.78795600000001  46.3332831
H    26.5444981  46.80631890000001  44.9246996
H    24.937308599999998  47.14677270000001  43.0721932
H    22.5942786  44.6144856  41.8760286
H    23.4115768  46.146244300000006  41.5268691
H    21.0643547  46.572726100000004  41.9859752
H    22.0164163  47.2381152  43.3206827
H    21.236751499999997  45.550256700000006  44.8262017
H    20.946976399999997  44.39837430000001  43.5124862
H    19.0820318  45.71131080000001  42.6708394
H    19.2800901  46.8875541  43.9967586
H    16.9504707  45.964657800000005  42.9885031
H    15.778683299999999  43.497944000000004  42.0612863
H    13.8883698  45.07583580000001  42.1768905
H    14.416446999999998  44.918022500000006  40.4872026
H    15.845631399999998  47.001126000000006  40.851341
H    15.019381199999998  47.229071000000005  42.3945116
