22

O    -8.264  4.171  -34.727
P    -8.316531699999999  3.1081028  -33.64463609999999
O    -6.9659774  2.629417  -33.14219309999999
O    -9.3173234  1.9994611999999998  -33.901417099999996
O    -8.9659708  3.8834786  -32.3015803
C    -9.0923609  5.2760259000000005  -32.227113599999996
C    -9.946257399999999  5.5983698  -30.982138899999995
O    -11.1909651  6.1469716000000005  -31.318142599999995
C    -10.1081173  4.3061084  -30.150063499999995
O    -8.958335  4.0670803  -29.380491999999997
C    -11.3149385  4.4376733  -29.264031299999996
O    -12.4506184  4.2316256  -29.688724599999997
N    -11.0557976  4.8050333  -28.020164599999994
O    -12.0804677  4.9255323  -27.089339399999997
H    -9.5619769  5.6575542  -33.1424926
H    -8.0919785  5.7269056  -32.163199799999994
H    -9.4515341  6.3552827  -30.367549699999994
H    -11.707644199999999  5.4970256  -31.816066199999995
H    -10.3232676  3.4737708  -30.830582999999997
H    -8.2688767  3.7383501  -29.973294499999994
H    -10.126689899999999  4.8706187  -27.629986299999995
H    -12.909578499999999  4.7813297  -27.593091499999996
