131

C    15.199999999999998  -9.856  -6.181
C    16.525983099999998  -7.0632886  -4.555155100000001
C    18.191019999999998  -5.2152018  -4.886314000000001
C    18.729787299999998  -2.8271224999999998  -4.1890195000000015
C    20.633808799999997  -4.327961500000001  -0.5703407000000009
C    20.240515699999996  -4.7035412  0.8701999999999992
C    20.745975899999998  -6.773569  2.1614633999999993
C    21.798479999999998  -7.7494519  2.6905095999999995
P    26.4126375  -14.125069  6.6743980999999994
P    26.4856697  -13.9611189  9.5650829
P    30.253074899999998  -18.028779200000002  12.511647499999999
C    20.169037099999997  -18.5268987  -5.9450636
C    19.0571098  -17.4831207  -5.872480700000001
C    19.5630453  -16.0843122  -6.2343052000000005
C    18.5296034  -14.9757246  -5.995384700000002
C    19.129184699999996  -13.5756365  -6.216863000000001
C    18.0957585  -12.4415593  -6.114471300000001
C    18.687763099999998  -11.063667500000001  -6.461240600000001
C    17.6961436  -9.9153566  -6.2128089000000015
C    16.329956699999997  -10.1658364  -6.803275400000001
C    15.145167699999998  -9.2035304  -4.824451300000001
C    15.168122699999998  -7.660395  -4.9309286000000006
C    16.708478699999997  -5.5935085  -4.9457543
C    18.5074659  -3.7915386  -5.370205900000001
C    19.7543863  -3.3756807  -3.215962300000001
O    20.921810299999997  -3.5119948  -3.4863653
S    19.1531912  -3.8394820000000003  -1.5711707000000006
N    21.158898299999997  -5.6948452000000005  1.4386043999999991
O    19.5651402  -6.9711821  2.413355099999999
C    21.4322919  -9.2211561  2.3966295999999994
N    22.0357074  -10.1246956  3.3745822999999993
C    23.344279299999997  -10.4439775  3.298638099999999
O    24.045434399999998  -10.030019900000001  2.383047999999999
C    23.953716699999998  -11.3678733  4.3685597
O    22.9345467  -11.7402938  5.2638663999999995
C    25.1188045  -10.6906753  5.145511299999999
C    24.630813999999997  -9.363587800000001  5.7299066
C    26.3534114  -10.4753966  4.267506099999999
C    25.513177499999998  -11.6325997  6.296726699999999
O    26.007344699999997  -12.8462198  5.739664899999999
O    25.183701399999997  -14.9015878  6.958014199999999
O    27.517271799999996  -14.8470134  5.988998499999999
O    27.007765999999997  -13.4245107  8.083770399999999
O    25.486295799999997  -15.0415876  9.431661799999999
O    26.053283299999997  -12.7797714  10.3644612
O    27.8385632  -14.5849498  10.294065999999999
C    29.094032499999997  -14.6583781  9.667504099999999
C    30.180756499999998  -15.125894  10.6613993
O    31.098110799999997  -14.0915298  10.849013499999998
C    30.9260262  -13.5583744  12.167923599999998
C    29.68949  -14.2182552  12.831660499999998
O    29.835257799999997  -14.433036000000001  14.2139117
C    29.637312299999998  -15.496886  12.0719684
O    30.482450099999998  -16.3551887  12.802308099999998
O    31.176336399999997  -18.7144414  13.4897681
O    30.6518499  -18.2296154  11.0651035
O    28.788622599999997  -18.3023397  12.782794899999999
N    30.73726  -12.1739718  12.0853976
C    29.5977565  -11.5428499  11.6851266
N    29.711593599999997  -10.2509782  11.7187734
C    30.991114399999997  -10.0007788  12.1490802
C    31.713187299999998  -8.808064  12.374306999999998
N    31.165495999999997  -7.5962721  12.182343
N    32.9870204  -8.918480500000001  12.796116599999998
C    33.5031792  -10.1227807  12.981124399999999
N    32.9178262  -11.296586  12.799010799999998
C    31.652211899999998  -11.206978600000001  12.376803599999999
H    14.247771399999998  -10.0271461  -6.6613479
H    17.302481399999998  -7.6313376  -5.063853200000001
H    16.688029899999997  -7.1768013  -3.4805226000000014
H    18.737200299999998  -5.9248274  -5.513226800000001
H    18.5511116  -5.3558697  -3.8670331000000013
H    17.7929514  -2.6668918999999995  -3.654975300000001
H    19.116593799999997  -1.8757348999999994  -4.5533472
H    21.0708545  -5.1845426  -1.0843295000000008
H    21.325366  -3.4890201000000003  -0.6054834000000007
H    19.247733399999998  -5.1614485000000005  0.893975699999999
H    20.225403899999996  -3.8089611000000003  1.4974569999999994
H    21.8141753  -7.6183146  3.774875699999999
H    22.7930292  -7.535127  2.3023870999999994
H    19.7842791  -19.5115574  -5.6919441000000015
H    20.9662838  -18.2807652  -5.246915100000002
H    20.591093899999997  -18.5657517  -6.9465949
H    18.652285399999997  -17.4637205  -4.8577389
H    18.2461417  -17.7627939  -6.5478700000000005
H    19.872330899999998  -16.070464700000002  -7.2815441000000005
H    20.448006099999997  -15.8684451  -5.628744100000001
H    18.155026699999997  -15.0455385  -4.9717037
H    17.682542599999998  -15.1174555  -6.6697373
H    19.586596699999998  -13.5450633  -7.209346000000001
H    19.922553699999998  -13.4077347  -5.4850325
H    17.6972067  -12.4140119  -5.097265200000002
H    17.2636105  -12.6548089  -6.7866279
H    18.987940599999998  -11.0719712  -7.512165200000001
H    19.5841945  -10.893324  -5.8618768
H    18.112464  -9.0071719  -6.656789600000001
H    17.619992999999997  -9.7687888  -5.1383824
H    16.3178706  -10.600408  -7.792455100000001
H    15.957501999999998  -9.5407727  -4.1838419
H    14.212768499999997  -9.5076894  -4.342419400000002
H    14.923465899999998  -7.3751573  -5.9560532
H    14.402339299999998  -7.2344751  -4.2800155
H    16.128706299999997  -4.950112300000001  -4.282470900000001
H    16.3457819  -5.4478244  -5.965394300000001
H    17.697909  -3.4077096000000004  -5.9874371
H    19.4200055  -3.8104986  -5.967510000000002
H    22.146745999999997  -5.550836400000001  1.297996499999999
H    21.8013177  -9.504877  1.4108566999999992
H    20.350949299999996  -9.3418068  2.451958699999999
H    21.5196707  -10.4374559  4.1825339999999995
H    24.3663088  -12.242600900000001  3.8465913999999994
H    23.180992399999997  -12.5509026  5.720490399999999
H    25.378703599999998  -8.9605409  6.406786599999999
H    23.7104695  -9.525165300000001  6.285646699999999
H    24.45527  -8.6585845  4.922036799999999
H    26.779374599999997  -11.440202600000001  4.000372199999999
H    27.098555599999997  -9.9126597  4.822643199999999
H    26.0773743  -9.941490400000001  3.3620947999999995
H    24.6897022  -11.850397000000001  6.9876103999999994
H    26.308142599999996  -11.1783727  6.902595699999999
H    29.382227999999998  -13.6705516  9.2852772
H    29.031394399999996  -15.3461502  8.8138338
H    30.700111699999997  -16.0037796  10.260681299999998
H    31.8338592  -13.7641563  12.752327900000001
H    28.7851385  -13.6268157  12.6760311
H    30.2042851  -15.330117000000001  14.3187179
H    28.647497599999998  -15.9644726  11.980167599999998
H    28.720571399999997  -12.0583208  11.342860299999998
H    31.725998299999997  -6.7761025  12.3400085
H    30.2175959  -7.5555336  11.8540043
H    34.5264914  -10.1606862  13.320692399999999
