28

O    18.477  21.132  -8.312
C    18.2787995  20.4612258  -7.2968839999999995
C    19.3436865  19.5049838  -6.7788604999999995
C    19.1602989  18.1602797  -7.4785943999999995
S    20.0776547  16.8309233  -6.641314199999999
C    20.7228077  20.0904198  -7.0461998999999995
N    17.1222683  20.4796597  -6.6324912
C    16.0403765  21.3321149  -7.077937899999999
C    16.5423513  22.7749595  -7.3813097999999995
O    15.920926600000001  23.3963834  -8.2623313
O    17.486891500000002  23.230427  -6.701849299999999
C    16.809166400000002  19.7465125  -5.4179395999999995
C    15.518372300000001  20.3631147  -4.8783482
C    15.030633400000001  21.3659259  -5.9302706999999995
H    19.2282504  19.3678557  -5.7025586
H    19.5523712  18.2013159  -8.494306499999999
H    18.1108578  17.8678195  -7.519519699999999
H    19.4143647  16.8757201  -5.492432699999999
H    20.8444115  21.0164637  -6.488945899999999
H    20.8253592  20.3250321  -8.104297899999999
H    21.4980225  19.3852087  -6.752393
H    15.613446600000001  20.9465337  -8.013060399999999
H    17.6145169  19.8541722  -4.689928699999999
H    16.6757364  18.6868053  -5.656547199999999
H    15.7091861  20.8743753  -3.9373250999999994
H    14.767774600000001  19.5947066  -4.704837399999999
H    14.0358932  21.1235129  -6.299690399999999
H    14.995718400000001  22.3772412  -5.521027999999999
