174

N    -13.05  -14.693  36.615
C    -12.0399457  -14.137014999999998  37.548244200000006
C    -10.647386200000001  -14.4735754  36.9801299
O    -10.424092100000001  -15.6138388  36.578373500000005
C    -12.187083900000001  -14.808234899999999  38.925239100000006
C    -11.4169423  -14.110561999999998  40.007152700000006
N    -10.051084600000001  -14.1156961  40.045934200000005
C    -11.879943700000002  -13.414807699999999  41.0911516
C    -9.6958365  -13.447200099999998  41.1065674
N    -10.7752171  -12.998318199999998  41.7828102
N    -9.768352900000002  -13.4822844  36.885183700000006
C    -8.4515831  -13.737506499999999  36.314983100000006
C    -7.5833172000000015  -14.568457299999999  37.265276400000005
O    -7.856743000000002  -14.686511399999999  38.444472700000006
C    -7.849877600000001  -12.3384901  36.1491837
C    -8.5073605  -11.549868299999998  37.2731033
C    -9.9291277  -12.094840499999998  37.305773900000005
N    -6.520326800000001  -15.1642482  36.685933000000006
C    -5.539168900000001  -15.875717499999999  37.4879078
C    -4.651407100000001  -14.862585099999999  38.2110667
O    -4.383650300000001  -13.777039799999999  37.707694100000005
C    -4.705623600000001  -16.8388888  36.6144656
C    -3.786599800000001  -16.0890094  35.644633000000006
C    -3.9073372000000006  -17.8175511  37.482938100000005
N    -4.269964100000001  -15.203848099999998  39.451156600000004
C    -3.3611584000000008  -14.3649969  40.2096062
C    -1.928968100000001  -14.8387696  39.958915600000005
O    -1.634885500000001  -16.0286166  40.020891400000004
C    -3.6808139000000013  -14.436231699999999  41.6985284
N    -1.048518500000001  -13.891002899999998  39.632394600000005
C    0.339282399999999  -14.2302363  39.4144159
C    1.045806799999999  -14.327461199999998  40.771576800000005
O    0.650816799999999  -13.6843384  41.737634
C    1.042841799999999  -13.1809017  38.5505482
C    0.3584477999999991  -12.9331959  37.211420000000004
C    0.2642144999999989  -14.193855699999999  36.310891600000005
O    1.0733111999999991  -15.122933999999999  36.497064200000004
O    -0.6338025000000012  -14.182048899999998  35.4439896
N    2.077758599999999  -15.177320199999999  40.82111930000001
C    2.9492404999999993  -15.2521203  41.98085450000001
C    3.8027558999999993  -13.9823747  42.0390144
O    4.011712099999999  -13.314198099999999  41.029589
C    3.8434283999999987  -16.4811776  41.886957200000005
N    4.3131653  -13.6612239  43.228512900000005
C    5.158848099999998  -12.488564299999998  43.3630517
C    6.351891599999999  -12.625461499999998  42.4138643
O    6.893832199999999  -13.7016435  42.209121700000004
C    5.642162899999999  -12.332469199999998  44.7986911
C    4.460124199999999  -12.024244499999998  45.772178600000004
O    3.425092499999999  -11.5415757  45.2801265
O    4.6465765999999995  -12.282604499999998  46.974654300000005
N    6.748264799999999  -11.4799651  41.8359335
C    7.949321899999999  -11.404428099999999  41.024939100000005
C    7.839007499999999  -12.199063899999999  39.711581200000005
O    8.845367699999999  -12.549903099999998  39.103772400000004
C    9.1771205  -11.8825563  41.827764900000005
C    9.121649099999999  -11.471568499999998  43.2766644
C    8.7355285  -10.1899281  43.647803200000006
C    9.445798499999999  -12.374123099999998  44.283387100000006
C    8.675014  -9.816837999999999  44.976489900000004
C    9.3983055  -12.011624999999999  45.615814300000004
C    9.007729399999999  -10.725227199999999  45.9722689
O    8.968123499999999  -10.384724199999999  47.2874786
N    6.599618599999999  -12.443539  39.266277
C    6.363836499999999  -13.0960121  37.9851534
C    6.932396099999999  -12.1992228  36.8773344
O    6.705521799999999  -10.9953235  36.8536574
C    4.852734099999999  -13.3239293  37.7871947
C    4.461165199999999  -13.7215894  36.3837106
C    3.762881899999999  -12.832942899999999  35.5745785
C    4.7635128999999985  -14.978378699999999  35.8737104
C    3.386235899999999  -13.1827037  34.289391800000004
C    4.395671199999999  -15.329116899999999  34.5856202
C    3.7065868999999987  -14.4310447  33.788078000000006
N    7.664809499999999  -12.819528499999999  35.948794500000005
C    8.247781699999999  -12.101827899999998  34.8374778
C    8.5446298  -13.076088299999999  33.702145200000004
O    8.7209677  -14.2742639  33.90625060000001
C    9.5401932  -11.3702481  35.240823000000006
C    10.734863899999999  -12.2900049  35.4513425
C    12.0371656  -11.486759  35.7046646
O    11.932355399999999  -10.271095099999998  35.9643059
O    13.117628199999999  -12.109167499999998  35.631916200000006
N    8.5104096  -12.522058  32.486795
C    8.982567399999999  -13.2307347  31.325193900000002
C    10.557286799999998  -13.223538499999998  31.325171700000002
O    11.0960004  -13.9750684  30.501284000000002
C    8.4250939  -12.641779999999999  30.019258100000002
C    6.940216899999999  -12.8216369  29.794459300000003
C    6.440398499999999  -13.3882558  28.629319100000004
C    6.022771399999999  -12.3795217  30.733997000000002
C    5.082959899999999  -13.5335437  28.411852700000004
C    4.669036999999999  -12.5171119  30.531033100000002
C    4.184663299999999  -13.097789699999998  29.370273000000005
O    2.843516999999999  -13.205463199999999  29.2193071
O    11.146466799999999  -12.482925199999999  32.129856800000006
H    -13.971656600000001  -14.763888099999999  37.0646847
H    -12.723544500000001  -15.638608499999998  36.3500463
H    -13.126145900000001  -14.1292181  35.7605516
H    -12.1853668  -13.061801899999999  37.6401248
H    -11.8176436  -15.833078999999998  38.854951
H    -13.235187000000002  -14.8126644  39.2248876
H    -12.8706589  -13.1920831  41.427401200000006
H    -8.680237000000002  -13.278413399999998  41.4000695
H    -10.7772304  -12.4707519  42.640941700000006
H    -8.5562871  -14.284659399999999  35.373670800000006
H    -8.120193  -11.926072399999999  35.176764500000004
H    -6.763567800000001  -12.351181099999998  36.232949100000006
H    -8.4710227  -10.476407599999998  37.106481
H    -8.002093100000002  -11.7787127  38.2126711
H    -10.345919100000001  -12.038349799999999  38.3097943
H    -10.5600663  -11.5621809  36.5886057
H    -6.208872700000001  -14.853840599999998  35.7788393
H    -6.102858600000001  -16.4422078  38.236919900000004
H    -5.424110300000001  -17.416698  36.022856700000006
H    -3.285953900000001  -16.793392599999997  34.9849053
H    -3.005541600000001  -15.535502099999999  36.166803800000004
H    -4.329351800000001  -15.3785703  35.0280324
H    -4.558231500000001  -18.3357706  38.181621500000006
H    -3.1234502000000006  -17.3007551  38.0356286
H    -3.4216345000000006  -18.552984199999997  36.847605900000005
H    -4.354429700000001  -16.1607293  39.7611239
H    -3.4811485000000006  -13.3487186  39.82327170000001
H    -3.016811100000001  -13.771636999999998  42.2444891
H    -3.5180228000000007  -15.450075599999998  42.0555892
H    -4.712922900000001  -14.147046699999999  41.8689297
H    -1.2767931000000008  -12.913055599999998  39.7195167
H    0.368945099999999  -15.197507499999999  38.9007044
H    2.055713499999999  -13.535492699999999  38.3540603
H    1.112853199999999  -12.2461747  39.115025
H    0.931654299999999  -12.1969585  36.644176200000004
H    -0.658184700000001  -12.554547  37.3332812
H    2.424742899999999  -15.5601515  39.9535488
H    2.306711399999999  -15.282691699999999  42.8669451
H    4.471807999999999  -16.5497758  42.769408000000006
H    4.4898788  -16.3979242  41.0158483
H    3.233905199999999  -17.375445199999998  41.801078100000005
H    4.074296699999999  -14.1703897  44.064081900000005
H    4.5612968999999985  -11.606114999999999  43.095579
H    6.345823699999999  -11.500676499999999  44.8622139
H    6.157523899999999  -13.231828299999998  45.1381923
H    6.239612799999999  -10.6324735  42.02822260000001
H    8.082373399999998  -10.361832999999999  40.7233779
H    10.071390599999999  -11.4880243  41.3396308
H    9.225258  -12.970519399999999  41.7623441
H    8.490795299999998  -9.4635948  42.8878065
H    9.7318486  -13.379586499999998  44.013355100000005
H    8.364100999999998  -8.8156757  45.2371538
H    9.647698899999998  -12.714756  46.3937948
H    8.644713499999998  -9.477073899999999  47.3939456
H    5.791690599999999  -12.265024899999998  39.848178100000005
H    6.906046499999999  -14.049345899999999  37.9664167
H    4.347601599999999  -12.3894971  38.040752100000006
H    4.534406599999999  -14.083438  38.504265000000004
H    3.520167699999999  -11.851790399999999  35.9591294
H    5.292903999999999  -15.6880993  36.49324
H    2.8315208999999992  -12.480082499999998  33.6853306
H    4.6450038  -16.3087815  34.2080439
H    3.415156999999999  -14.703944  32.78552500000001
H    7.908161099999999  -13.798791399999999  36.003120300000006
H    7.511658399999999  -11.353683599999998  34.5191305
H    9.356327999999998  -10.807964899999998  36.1583072
H    9.8116114  -10.6553709  34.4607454
H    10.9230954  -12.9032565  34.565952700000004
H    10.5788882  -12.952499199999998  36.306657400000006
H    8.6198403  -11.5170274  32.4460429
H    8.683894899999999  -14.278987699999998  31.436698500000002
H    8.9890219  -13.1134867  29.211253600000003
H    8.6683807  -11.5738417  30.016842600000004
H    7.136727999999999  -13.736693099999998  27.880180700000004
H    6.367265199999999  -11.9342765  31.654575200000004
H    4.7353703  -13.9881953  27.496881300000005
H    3.967167199999999  -12.182401899999999  31.279820600000004
H    2.630036299999999  -13.625580399999999  28.370203700000005
