94

N    7.255  -8.353  4.122
C    6.2133142999999995  -7.9182456  3.1812746999999995
C    6.5987542  -7.2931816  1.8378438999999998
C    7.9448965  -7.7471891  1.2726187999999996
C    7.7967688  -8.3846096  -0.10398070000000015
C    8.8532802  -6.5271155  1.1796716999999992
C    5.0477434  -7.1187474  3.7870739999999996
O    4.5076905  -6.1970562  3.1909459999999994
N    4.600794  -7.6477006  4.9267245
C    3.2562596999999993  -7.4843998  5.434493399999999
C    2.4367142  -8.761002999999999  5.1917984
C    3.2626649  -10.024562  5.4440623
C    2.4172671999999995  -11.2846792  5.3072867
N    2.1548147999999996  -11.5027579  3.8920655999999996
C    1.2494565999999994  -12.3221667  3.3707810999999994
N    0.48874629999999897  -13.0479804  4.171541599999999
N    1.1153499999999994  -12.4334916  2.0409406999999997
C    8.3081622  -7.828856699999999  4.7686395
O    8.6954475  -6.6700674  4.7739103
C    9.048847199999999  -8.898789  5.604398499999999
O    8.1408858  -9.8722463  6.0914687
C    10.1378541  -9.611641  4.7814711999999995
C    10.7171153  -10.7221663  5.6489120999999995
O    11.209809  -10.5093758  6.7520964999999995
N    10.5706776  -11.9599592  5.161606099999999
C    11.0043057  -13.119111499999999  5.9116712
C    12.5210018  -13.2561362  5.8720459
O    13.1607561  -12.6504694  5.0143219
C    10.31033  -14.3618623  5.363324599999999
C    8.9596626  -14.550343999999999  6.052164599999999
C    8.5885298  -16.0290199  6.106951799999999
N    9.4547356  -16.684311  7.066446399999999
C    9.3123691  -16.637115299999998  8.389127499999999
N    8.2989173  -15.9932755  8.973622899999999
N    10.2163835  -17.2553628  9.1351909
N    13.1114399  -14.0242004  6.7920662
C    14.570227599999999  -14.165436  6.823041999999999
C    15.198307  -14.5064637  5.4685431
O    14.8907148  -15.5232492  4.8595445999999995
C    14.7972833  -15.2765318  7.8495759
C    13.651030800000001  -15.0763034  8.8353176
C    12.482729899999999  -14.6790754  7.9349305
N    16.1476847  -13.6691605  5.0366288
H    7.177891799999999  -9.3415237  4.3480225
H    5.7341649  -8.873681  2.9234457999999997
H    6.6072465  -6.2074364  1.9608509999999995
H    5.7898352  -7.5146467999999995  1.1428762999999993
H    8.4122602  -8.4699089  1.9477144999999996
H    8.768840299999999  -8.6846198  -0.48845470000000013
H    7.3627575  -7.6729786  -0.8025182000000006
H    7.1578298  -9.2628725  -0.06131580000000003
H    8.9937484  -6.0802068  2.1634597999999996
H    8.4211121  -5.7784949999999995  0.5195479999999995
H    9.835204  -6.7946471  0.7906353999999993
H    5.1837807  -8.322278  5.398293499999999
H    2.8095001999999996  -6.6286932  4.926862799999999
H    3.3102804  -7.2646047  6.503831099999999
H    2.076238  -8.751104699999999  4.1621827
H    1.5701856999999997  -8.7367709  5.850820799999999
H    3.6622323999999997  -9.9843848  6.457953
H    4.0958419  -10.083178799999999  4.7459755999999995
H    1.4776536  -11.1528167  5.8480798
H    2.9575616  -12.1422807  5.7190867999999995
H    2.7352869999999996  -10.9781018  3.2552360999999994
H    -0.22041470000000096  -13.656007299999999  3.7991410999999995
H    0.5873382999999999  -12.9960552  5.1701717
H    1.6412480999999994  -11.8505791  1.4143338999999995
H    0.4018114999999991  -13.0235287  1.6510721999999998
H    9.5464845  -8.3708177  6.4240385
H    7.9986057  -9.755561199999999  7.0394407
H    10.9187406  -8.8954146  4.5276926
H    9.7106761  -10.022365  3.8679141999999995
H    10.3841625  -12.0865546  4.1786622
H    10.7244168  -12.9203577  6.9518664999999995
H    10.9558653  -15.2204975  5.544909199999999
H    10.2024048  -14.2720777  4.2837453
H    8.1942694  -13.9875447  5.5199045
H    9.012614899999999  -14.1603609  7.066544199999999
H    8.7367892  -16.4960453  5.1351252999999994
H    7.5436707  -16.165784  6.3914548
H    10.225321  -17.2208057  6.7012801
H    8.2009707  -16.0069811  9.973641
H    7.5929321  -15.5328272  8.4269883
H    10.9553765  -17.7970619  8.7223908
H    10.135955599999999  -17.2728086  10.1377039
H    14.9994696  -13.215802  7.1710864
H    15.7788489  -15.2039676  8.309811199999999
H    14.717711  -16.2388719  7.340282499999999
H    13.895074099999999  -14.2634158  9.5186539
H    13.4476115  -15.971468  9.4150135
H    11.9429362  -15.5623052  7.5902356
H    11.796943299999999  -13.9945589  8.4335294
H    16.5529269  -13.8400821  4.1296452
H    16.2856268  -12.7666462  5.4576047999999995
