35

P    28.923  -36.016  20.327
O    28.7280524  -36.7075422  21.659769100000002
O    27.788302899999998  -35.0789817  19.9468333
O    29.3566424  -36.9506496  19.211663400000003
O    30.2760414  -35.0327615  20.636591700000004
C    30.4942964  -33.7648242  20.078619000000003
C    30.8818803  -32.7769711  21.188835700000002
O    29.834813099999998  -32.718814099999996  22.159315300000003
C    32.1856747  -33.131306699999996  21.933015100000002
O    33.014909  -32.0082351  22.106182200000003
C    31.674895799999998  -33.634255599999996  23.301595700000004
O    32.5792732  -33.4864153  24.346204900000004
C    30.3774488  -32.8104455  23.461742400000002
N    29.4101541  -33.3411768  24.3814914
C    28.871273  -34.602187099999995  24.442747100000002
N    28.0379757  -34.770982  25.425393500000002
C    27.9887495  -33.550258299999996  26.064932000000002
C    27.2885103  -33.0773267  27.196305100000004
N    26.5003317  -33.8438941  27.952520500000002
N    27.45562  -31.784864199999998  27.536295600000003
C    28.269583  -31.030448399999997  26.8170396
N    28.9976896  -31.3595324  25.760005800000002
C    28.8284386  -32.6405971  25.4094808
H    29.5619689  -33.4324903  19.600079700000002
H    31.2895543  -33.8347227  19.324683900000004
H    30.9704773  -31.775714999999998  20.7414929
H    32.7048865  -33.9412295  21.413069900000004
H    33.5917823  -31.8945761  21.335922600000004
H    31.4042104  -34.6916878  23.212441700000003
H    33.0709334  -32.6544777  24.201080700000002
H    30.615786  -31.799549999999996  23.838258300000003
H    29.093951099999998  -35.353294899999995  23.706066800000002
H    25.9980858  -33.4179045  28.7130991
H    26.3313785  -34.7916805  27.6644028
H    28.3592252  -30.002116599999997  27.1372633
