67

C    -3.783  -2.327  17.362
O    -0.12048149999999991  4.8442891  20.8746814
C    -8.729533199999999  -1.1099129999999997  12.0290842
N    0.6247578999999996  4.9567579  16.425297399999998
Cl    2.7179729999999998  4.4715402  21.1516609
Cl    2.1471023999999996  0.8220543000000002  17.2522211
C    -0.2560275999999999  4.2539146  16.1998332
C    -2.2415298  3.9939416000000003  14.922135599999999
C    2.2569881  2.6619539000000003  19.201413499999997
C    -0.4719283999999999  3.2138128000000004  19.1151347
C    -4.7180949  1.4558411000000002  14.546826799999998
C    -3.1129021  0.20172250000000025  16.427240299999998
C    -7.382767299999999  -1.4277618999999997  12.705670499999998
C    -6.5911048999999995  -0.19130829999999976  13.184583199999999
C    -13.0964316  -3.3863502999999997  15.079760499999999
C    -10.721957100000001  -2.6354072  12.194590199999999
C    -9.7757925  -1.7242598999999998  14.243664399999998
C    -12.0533285  -2.8469681999999996  12.920961899999998
C    -11.1044132  -1.9407278  14.967922799999998
N    -3.2969836999999997  3.3559732  14.5086453
N    -0.7623753999999998  1.5908695000000002  17.3529149
O    -4.6178562  -1.6861235999999997  16.404035399999998
O    -6.1704992  -0.4451845999999997  14.538920099999999
C    0.3336545000000002  3.8997689  20.0202811
C    1.7079876  3.6086403000000002  20.0468074
C    1.4352616999999999  1.9904634000000003  18.310566599999998
C    -1.3469204000000001  3.4578566000000004  15.878141799999998
C    0.0668738000000002  2.2659042000000005  18.242313799999998
C    -4.2439924  -0.44806409999999985  15.976361099999998
C    -5.0696501000000005  0.2014231000000002  14.9977776
C    -1.5827855  2.1831193000000004  16.4189163
C    -3.5656908  2.1218254000000005  15.004996799999999
C    -2.7372984  1.4817137000000002  15.961612299999999
N    -9.9808087  -1.4870572999999996  12.7904901
N    -11.8354993  -3.0876220999999995  14.370414799999999
C    -1.4900932  5.219519099999999  20.7771008
H    -4.2588346  -3.2862936999999994  17.552193
H    -3.7329052  -1.7531261999999996  18.2892132
H    -2.7791585  -2.4907310999999996  16.9649508
H    -8.770603000000001  -1.6276091  11.0728596
H    -8.7654573  -0.041370899999999766  11.823978499999999
H    -2.0542844999999996  4.9707089  14.500014499999999
H    3.3145195999999997  2.4605294000000004  19.237228599999998
H    -1.5279623999999998  3.4132461000000003  19.0525061
H    -5.314454  1.9795515000000004  13.8195661
H    -2.4843935999999998  -0.26443269999999974  17.1653704
H    -6.7603507  -1.9584917999999996  11.986370899999999
H    -7.4661219  -2.0807995999999997  13.566760299999999
H    -7.212572  0.7117393000000003  13.177145799999998
H    -5.7140797  -0.007387099999999869  12.560421999999999
H    -13.5749811  -4.2588551  14.644111099999998
H    -13.7766517  -2.5412066999999996  15.0067682
H    -12.8982122  -3.5846293  16.1294011
H    -10.9259845  -2.4333099999999996  11.143434499999998
H    -10.0888523  -3.5224492999999995  12.2592675
H    -9.160879600000001  -2.6159567999999997  14.3696367
H    -9.2504345  -0.8778804999999998  14.686295099999999
H    -12.5643536  -3.7034086999999993  12.480593399999998
H    -12.701907  -1.9751397999999996  12.812457299999998
H    -11.7447869  -1.0578619999999996  14.907124999999999
H    -10.9037188  -2.1397190999999998  16.020574099999997
H    -0.5064992999999998  0.6272090000000002  17.1775871
H    -10.602813000000001  -0.6721272999999999  12.714078099999998
H    -11.239847600000001  -3.9221213  14.4635813
H    -1.6123751  6.0216888  21.501000299999998
H    -2.1409450999999997  4.3840908  21.040349
H    -1.7212397  5.5884182  19.7761808
