139

N    45.526  12.128  -10.563
C    46.8014201  12.755787600000001  -10.1083705
C    47.939840600000004  11.8134277  -10.525973800000001
O    48.059593400000004  10.7258435  -9.9848334
C    46.7830099  12.8953983  -8.58137
C    48.0591371  13.494916700000001  -7.9899258
C    48.1841608  15.0320085  -8.1480622
O    47.137315400000006  15.6965596  -8.2935149
O    49.34124550000001  15.498188  -8.0917313
N    48.6834387  12.2310154  -11.5583106
C    49.817862500000004  11.474905  -12.0716783
C    51.0566578  11.5566248  -11.1459571
O    51.1543361  12.399400700000001  -10.2610793
C    50.15344700000001  12.0133829  -13.459270700000001
N    52.0216003  10.6474838  -11.338757000000001
C    53.2029726  10.67116  -10.4882388
C    53.967393400000006  11.973120000000002  -10.721035800000001
O    54.33130560000001  12.303450300000002  -11.8398396
C    54.1205689  9.4990969  -10.796057000000001
N    54.229550100000004  12.6868432  -9.617717200000001
C    55.025784400000006  13.887427800000001  -9.6571361
C    56.4863482  13.634071200000001  -9.3063473
O    57.319025  14.5227438  -9.4229875
N    56.780073200000004  12.4127711  -8.8440868
C    58.1268663  12.0249165  -8.4768519
C    58.385622600000005  10.576622  -8.8737763
O    57.515951400000006  9.851297500000001  -9.3354665
C    58.404391600000004  12.2117865  -6.9620372
C    57.4106085  11.411553900000001  -6.119614
C    58.377561500000006  13.6887416  -6.5841311000000005
C    57.6793161  11.5539026  -4.6267652
N    59.635315000000006  10.141647200000001  -8.6727205
C    59.9829651  8.7794057  -8.9994111
C    59.905495800000004  8.410929300000001  -10.4824438
O    59.69672680000001  7.249954300000001  -10.8097812
N    60.124443600000006  9.3825936  -11.3756492
C    60.0955079  9.1217512  -12.800453300000001
C    61.4100217  9.5756444  -13.4114763
O    61.635178200000006  10.7504241  -13.6858392
C    58.958650000000006  9.8573039  -13.5148575
C    57.603711600000004  9.5072495  -12.8988817
C    59.0149673  9.543654700000001  -15.0101601
C    57.2199554  8.0433477  -13.0279296
N    62.3023571  8.6104512  -13.594652100000001
C    63.607137400000006  8.9030921  -14.1191374
C    63.80160430000001  8.1745477  -15.422457600000001
O    63.0221224  7.306992000000001  -15.7960825
C    64.6722431  8.421817  -13.1464357
C    64.5163114  9.0068867  -11.7442788
C    65.8517015  8.8115819  -11.0394296
C    64.1769692  10.4931977  -11.7742856
N    64.8667171  8.552710300000001  -16.123730600000002
C    65.2124239  7.860108100000001  -17.3353908
C    65.8814583  6.536376300000001  -16.9847034
O    66.48472240000001  6.4121413  -15.9211505
C    66.23504870000001  8.7001931  -18.1071862
O    67.2188064  9.148443  -17.1996499
C    65.5641145  9.9082092  -18.7235917
N    65.757962  5.580683100000001  -17.9018186
C    66.3035162  4.2422677  -17.7464283
C    67.8782698  4.2231825  -17.9069205
O    68.51633410000001  3.2691475000000008  -17.4261646
C    65.6346681  3.2689001000000006  -18.7367905
C    64.1114632  3.2610562000000005  -18.599929799999998
C    66.01179350000001  3.6076995000000007  -20.1754179
O    68.4136175  5.1673062000000005  -18.5126126
H    44.72540970000001  12.649892000000001  -10.1820666
H    45.4952291  11.1633821  -10.2020702
H    45.459169200000005  12.1082055  -11.5882812
H    46.91567020000001  13.7442656  -10.5562549
H    46.64155220000001  11.9054351  -8.1434324
H    45.9678571  13.5602344  -8.2872263
H    48.96352400000001  13.0497799  -8.4135592
H    48.08108320000001  13.3158331  -6.9127386
H    48.6999215  13.2187155  -11.7721576
H    49.50859270000001  10.4247856  -12.1131454
H    50.962969900000004  11.4439969  -13.905213400000001
H    50.475620400000004  13.0499445  -13.385307000000001
H    49.282264600000005  11.951486200000002  -14.1039268
H    52.01088730000001  10.0120882  -12.1218029
H    52.8546545  10.636049  -9.449109400000001
H    54.9939972  9.5154896  -10.1484966
H    54.469471000000006  9.572101700000001  -11.8238211
H    53.596557100000005  8.558939800000001  -10.6524714
H    53.75901270000001  12.4592201  -8.755675100000001
H    54.62499220000001  14.6406378  -8.9772044
H    55.000998  14.293416400000002  -10.6732075
H    56.1000153  11.6667035  -8.8951143
H    58.807056300000006  12.6822925  -9.034024500000001
H    59.409830400000004  11.831269  -6.7635548000000005
H    57.47039780000001  10.3573737  -6.4019391
H    56.3976066  11.756259700000001  -6.3338852
H    58.94292170000001  14.279384700000001  -7.3011334
H    58.80988670000001  13.839289  -5.600414300000001
H    57.358892000000004  14.0693272  -6.5807083
H    57.05209730000001  10.8624265  -4.069169800000001
H    57.457144500000005  12.5593036  -4.2839188
H    58.7186444  11.3280586  -4.4013014
H    60.3622699  10.7766515  -8.3831825
H    59.298467800000005  8.093095  -8.491175
H    60.998007900000005  8.5736118  -8.6590642
H    60.26031510000001  10.339405600000001  -11.0862272
H    59.9829372  8.0411935  -12.914135
H    59.129733300000005  10.932452900000001  -13.3860799
H    56.843044400000004  10.1268895  -13.380842000000001
H    57.6076867  9.7731849  -11.8387254
H    59.903821300000004  9.9844419  -15.4552449
H    58.14230740000001  9.9569861  -15.5084733
H    59.048098700000004  8.471469800000001  -15.1847524
H    56.23041370000001  7.887372000000001  -12.6052458
H    57.9099926  7.4069486  -12.4795288
H    57.200550400000004  7.7294141000000005  -14.067368
H    62.0619882  7.636884  -13.484667700000001
H    63.659354900000004  9.9826323  -14.2792478
H    65.6520239  8.694963300000001  -13.541634
H    64.64405310000001  7.329845800000001  -13.101351600000001
H    63.7299275  8.4668905  -11.2087544
H    65.79278980000001  9.118189600000001  -9.9973635
H    66.6226761  9.4029261  -11.5266222
H    66.1537186  7.7668508  -11.071143600000001
H    63.19455610000001  10.7015109  -12.173490600000001
H    64.9115774  11.0298186  -12.371284300000001
H    64.2193604  10.8925978  -10.7628254
H    65.5696187  9.1847745  -15.7644167
H    64.3024153  7.68117  -17.9138147
H    66.6996113  8.0755519  -18.8850758
H    67.710578  8.3929019  -16.8517327
H    66.3138325  10.5379137  -19.1939549
H    65.05945170000001  10.4833651  -17.9529662
H    64.8425728  9.5915608  -19.4692572
H    65.39439490000001  5.8132665  -18.8128493
H    66.1121097  3.9261258000000003  -16.713476
H    66.0356581  2.280127200000001  -18.4909064
H    63.690613600000006  2.5187302000000003  -19.2718812
H    63.69402900000001  4.2333337  -18.8445526
H    63.822295600000004  3.015129000000001  -17.5807068
H    67.0910387  3.7194936000000007  -20.2669928
H    65.546853  4.5366653  -20.4975774
H    65.68707880000001  2.8135507000000004  -20.8428872
