71

C    22.178  9.98  23.851
C    21.448513000000002  11.8844051  22.878870499999998
C    21.0474201  10.7252793  21.988224999999996
C    26.083050200000002  12.717685900000001  20.425271
N    22.095956400000002  11.340435300000001  23.975175399999998
C    21.578483300000002  10.845972200000002  20.550075299999996
C    27.388262400000002  12.494325900000002  19.6950789
C    23.859983  11.875426100000002  20.8899564
C    19.5103712  10.652739200000001  21.931482799999998
C    15.047559800000002  11.0678671  22.467498399999997
C    29.5089787  10.854341400000001  22.4133167
C    28.7181541  9.646257900000002  21.8941502
C    14.4945321  10.740399300000002  23.853656899999997
C    15.340537900000001  9.703766300000002  24.590534599999998
C    16.808739000000003  10.109240000000002  24.623089399999998
C    16.5232838  11.457446100000002  22.5292082
C    29.014999600000003  12.0764025  21.639187399999997
C    27.812108900000002  10.154164100000001  20.769146
C    24.8897915  11.1538093  18.839440699999997
C    23.085243900000002  10.6560357  20.399875599999998
C    22.6054271  12.151678200000001  25.064467599999997
C    23.496876800000003  10.528803700000001  18.9296202
C    18.8290331  10.7004826  23.2962043
C    28.3722831  11.5202676  20.370898299999997
C    17.3407682  10.3577556  23.211714899999997
N    21.619233100000002  9.5995196  22.7043796
N    25.027865400000003  11.971893500000002  20.0394291
N    22.7245911  9.188300000000002  24.7406579
O    21.2114093  13.051264900000001  22.687725699999998
O    25.9974138  13.542328800000002  21.341259599999997
H    21.294501200000003  11.828125100000001  20.172771199999996
H    21.0717265  10.092083400000002  19.945332399999998
H    27.887890900000002  13.464891100000001  19.636228799999998
H    27.1941986  12.152922400000001  18.6790912
H    24.195096  11.8084447  21.928269399999998
H    23.2603487  12.790933  20.803344999999997
H    19.2293995  9.731903800000001  21.418985999999997
H    19.1705712  11.494101100000002  21.3292236
H    14.4649149  11.877574200000002  22.024674599999997
H    14.937462600000002  10.190600600000002  21.824194199999997
H    30.574869900000003  10.708503  22.231305399999997
H    29.381626100000002  10.991875700000001  23.486150799999997
H    28.1329699  9.1868481  22.6887479
H    29.404064400000003  8.8879488  21.515605799999996
H    13.466421300000002  10.3834674  23.764980499999997
H    14.4707042  11.659674700000002  24.446848099999997
H    15.245899300000001  8.7414281  24.080012299999996
H    14.960089400000001  9.578652700000001  25.605846099999997
H    17.386716300000003  9.322062200000001  25.1100255
H    16.9161891  11.022625600000001  25.213457499999997
H    16.628248300000003  12.387769200000001  23.092909499999998
H    16.8873986  11.633593600000001  21.5169896
H    29.816216500000003  12.7784393  21.4150529
H    28.256477500000003  12.6136671  22.215076299999996
H    26.796152900000003  10.281858900000001  21.1469377
H    27.784572100000002  9.4672692  19.925569999999997
H    24.9999863  11.773847100000001  17.947122399999998
H    25.6642876  10.381734900000001  18.823368799999997
H    23.4192307  9.769515100000001  20.942003099999997
H    23.070695500000003  11.536974800000001  25.8256375
H    21.7838207  12.716843  25.503213799999997
H    23.334636200000002  12.861712400000002  24.673033999999998
H    23.5026316  9.496225700000002  18.592317799999996
H    22.8012704  11.090342500000002  18.305965899999997
H    18.9419824  11.6938162  23.7355849
H    19.298834  9.977640400000002  23.966554399999996
H    29.1757213  11.3539325  19.6415242
H    17.2204465  9.4342243  22.634689499999997
H    21.4940454  8.6435457  22.404648499999997
H    23.140937100000002  9.552914000000001  25.5837582
H    22.752315600000003  8.189974600000001  24.5917823
