32

N    -17.478  40.551  26.994
C    -16.456240500000003  39.6757123  27.3142707
N    -16.468179400000004  38.4932223  26.6240135
C    -17.3556056  38.1036315  25.6289231
C    -18.389064400000002  39.073896  25.3695333
C    -18.400884100000003  40.2370516  26.0431716
O    -15.613463900000003  39.9097315  28.160668
O    -17.2192995  37.0259628  25.0715808
P    -15.825224100000002  45.6728913  25.8687678
O    -15.635045400000003  44.9209195  24.5688681
O    -14.786831100000002  45.2744444  26.9130127
O    -16.039155500000003  47.1579881  25.7486003
O    -21.4124997  43.4513311  26.6459032
C    -20.155233100000004  43.7034785  26.0775707
C    -18.9899339  43.5761825  27.0650336
O    -18.931767200000003  42.2645953  27.6408418
C    -17.6197337  43.8063081  26.4157743
O    -17.314851  45.1616005  26.4753348
C    -16.679064900000004  42.9236135  27.2666559
O    -16.201066700000002  43.5916056  28.3995133
C    -17.612298000000003  41.8003137  27.745757
H    -15.712487000000003  37.8514475  26.8487254
H    -19.1272108  38.8454049  24.6222274
H    -19.154717500000004  40.9893853  25.8816001
H    -21.364901500000002  42.623835  27.1511764
H    -19.9760376  43.0278583  25.2281047
H    -20.158102600000003  44.730185399999996  25.7067916
H    -19.0993746  44.3101688  27.8740396
H    -17.580726700000003  43.4687101  25.3677351
H    -15.845196900000001  42.552443  26.6547024
H    -15.613610900000001  44.3123177  28.0544806
H    -17.3657223  41.5780136  28.7935592
