40

C    -4.655  -0.492  -13.011
C    -4.9982993  -0.9190396999999999  -14.259578
C    -5.6118006000000005  -0.04155019999999965  -15.1828103
N    -4.5057988  1.1794906000000003  -11.3065804
C    -6.0337033  -0.4216941999999997  -16.4765457
C    -6.811088600000001  1.6599987000000003  -16.9611352
N    -6.6183578  0.3805343000000003  -17.3309923
C    -6.4484038  2.1595776000000004  -15.7399586
C    -5.843559900000001  1.3023825000000002  -14.7902272
C    -5.4802444  1.7191143000000002  -13.4924284
C    -3.3078644000000006  6.2606552  -7.591904799999999
N    -4.5708115000000005  5.5443533  -7.638902999999999
C    -3.7096868  7.6631313  -7.147924999999999
C    -4.9388934  7.420097800000001  -6.293018099999999
C    -5.6558063  6.3140122000000005  -7.0438157
O    -4.4718811  3.4778326  -11.3670599
C    -4.3929339  2.4276025000000003  -10.7415668
N    -4.0728957  2.3939275  -9.4244256
C    -3.633675  3.5960954000000003  -8.7617192
C    -4.8137074  4.3496197  -8.1684919
O    -5.9414495  3.8566874  -8.1792073
C    -4.8950225000000005  0.8421678000000001  -12.6046458
H    -4.192577200000001  -1.1763647000000002  -12.3157895
H    -4.8143329  -1.9391935999999999  -14.560799399999999
H    -4.2666518  0.3907432000000002  -10.721309399999999
H    -5.8864209  -1.4405685  -16.812451199999998
H    -7.284471  2.2802494  -17.709521199999998
H    -6.629110900000001  3.1920015  -15.483360399999999
H    -5.6545747  2.7429536000000003  -13.200837
H    -2.8194119000000004  6.254640200000001  -8.567283399999999
H    -2.6427977000000005  5.7881654000000005  -6.8616939
H    -3.9741982  8.2647479  -8.017688
H    -2.9101640000000004  8.1650617  -6.6082152999999995
H    -5.5584175  8.306386  -6.1816968999999995
H    -4.6481961  7.070959500000001  -5.301529599999999
H    -6.2627165  5.6608818  -6.4141967
H    -6.2994518  6.7069915  -7.838027299999999
H    -4.3159374  1.6026114000000002  -8.8516604
H    -3.1526857  4.2242706000000005  -9.516502
H    -2.9143853  3.3414143000000003  -7.981109099999999
