80

N    24.958999999999996  100.339  17.519
C    24.839277499999998  100.6031895  16.1832085
C    25.891881599999998  99.4528005  18.007316999999997
O    25.92918  99.064139  19.1620903
N    26.788705599999997  99.0110565  17.0707833
C    26.754706  99.2370204  15.704037899999998
O    27.5977683  98.75221739999999  14.965968299999998
C    25.669674899999997  100.0865636  15.260652099999998
C    25.571871599999998  100.3598186  13.793395999999998
C    20.580629099999996  101.7886299  17.617973499999998
C    21.752387499999998  101.4457099  18.540650999999997
O    22.664711599999997  100.5522781  17.909923099999997
C    23.964841599999996  100.89364259999999  18.3909907
C    23.9351745  102.4241223  18.4137986
C    22.552887499999997  102.6971181  18.998196099999998
O    22.6317061  102.7612968  20.4035837
P    20.1539768  103.5912751  15.632792999999998
O    19.3804271  102.79772369999999  14.644442699999999
O    21.0361779  104.7000941  15.218245899999998
O    21.068594599999997  102.59699309999999  16.556262999999998
O    19.1008851  104.2357902  16.679555899999997
P    18.377803699999998  105.6629956  16.346827599999997
O    17.186549  105.6651229  17.2395081
O    18.2075212  105.87619049999999  14.896501899999997
O    19.458712999999996  106.7285493  16.9346905
P    20.556973799999998  107.6038326  16.1280008
O    21.872377299999997  107.1184999  16.611418599999997
O    20.247477599999996  107.71422249999999  14.694240499999998
O    20.2332881  109.09378819999999  16.8184063
P    20.520146099999998  110.6710051  16.4031538
O    21.5633824  110.8312527  15.360167799999997
O    20.6468146  111.37604929999999  17.709663999999997
O    19.134878399999998  111.06597169999999  15.676118099999998
P    18.3658683  112.4704241  15.354920099999998
O    19.230966099999996  113.5000915  14.729691799999998
O    17.121095699999998  112.0562326  14.654956599999998
O    18.008193699999996  112.964428  16.861331399999997
C    17.488011999999998  112.01687129999999  17.782776499999997
C    16.555794799999997  112.7184351  18.7630964
O    17.2754986  113.6647515  19.550552699999997
C    16.819934899999996  114.9935029  19.324236399999997
C    15.914530199999998  114.93882529999999  18.078540299999997
O    14.958148799999996  115.9469663  18.145439699999997
C    15.373707399999997  113.4879691  18.138851
O    14.244807799999997  113.3929701  18.971475199999997
N    17.8829446  115.9550466  19.1737443
C    18.014687699999996  117.1343151  19.8751559
N    17.233808399999997  117.6288553  20.846032199999996
C    17.634204399999998  118.8236995  21.2591692
N    18.6729386  119.53429  20.852712699999998
C    19.498018499999997  119.0277919  19.916389699999996
N    20.539695599999998  119.7778074  19.5532525
C    19.171213899999998  117.7547126  19.3784279
N    19.706474599999996  116.9737523  18.373381799999997
C    18.918083399999997  115.945037  18.274476399999998
H    24.005074899999997  101.2343629  15.911356499999998
H    27.5104588  98.3807537  17.4141943
H    24.742313599999996  101.0303203  13.585882599999998
H    25.430619599999996  99.426278  13.253564699999998
H    26.499271999999998  100.8085375  13.444576999999999
H    19.802489799999996  102.3310798  18.1640341
H    20.154732699999997  100.8749164  17.188120499999997
H    21.3442533  100.9432334  19.431639999999998
H    24.122978599999996  100.4823061  19.3982356
H    23.9779411  102.83420339999999  17.406841599999996
H    24.7143557  102.8584319  19.0353304
H    22.114650299999997  103.6061986  18.570670699999997
H    21.900518599999998  103.28150769999999  20.757439499999997
H    18.330496599999996  111.55625669999999  18.3123737
H    16.964013299999998  111.2256825  17.231137099999998
H    16.194089899999998  111.9370295  19.4440447
H    16.2536055  115.3444233  20.2021031
H    16.5237907  115.0507817  17.174450599999997
H    14.121529699999996  115.5552225  18.466071099999997
H    15.111449499999997  113.097523  17.1561599
H    14.506890499999997  113.4511618  19.903705699999996
H    17.024555699999997  119.2748946  22.027832699999998
H    21.175413699999996  119.4267113  18.8591262
H    20.6714566  120.6627606  20.012439999999998
H    19.062715999999998  115.128254  17.588696799999997
