68

C    50.429  20.387  -8.574
O    49.8693019  21.2140028  -7.8759713
O    50.796483  20.5514919  -9.8615481
C    50.955595800000005  21.8467299  -10.434581999999999
C    50.4591799  21.7481677  -11.8494068
C    50.4042465  20.5740915  -12.5960566
C    49.962498100000005  22.8898858  -12.4380579
C    49.8679764  20.534800999999998  -13.8798891
C    49.4349888  22.830385  -13.716187699999999
C    49.3568684  21.672943099999998  -14.4614024
N    50.7242875  19.1206136  -8.235544599999999
C    50.6035042  18.6157665  -6.8887835
P    52.0793058  19.1699397  -5.9926046
O    53.2748112  18.5390135  -6.6638404
O    52.104738600000005  20.6769554  -5.937537399999999
C    50.6077438  17.1106257  -6.985933599999999
C    49.3336966  16.7508647  -7.6677988
C    48.1733001  16.7516988  -6.902553899999999
C    49.268318  16.5200428  -9.0311707
C    46.9501598  16.4675481  -7.478687699999999
C    48.043818900000005  16.229478  -9.6111769
C    46.8916265  16.1949719  -8.8365909
N    51.755465900000004  18.5012407  -4.4060764
C    52.8912296  18.314672899999998  -3.5282602999999995
C    53.6107171  16.9668073  -3.6913837999999997
O    54.8380485  16.8977136  -3.6175238999999997
C    52.5570545  18.463057199999998  -2.0423446999999992
C    53.7732558  18.3734812  -1.1190610999999997
C    54.6545476  19.6174508  -1.2445990999999994
C    53.1954699  18.1939639  0.2789981000000008
N    52.8253848  15.888092  -3.7768686999999996
C    53.3073949  14.5176391  -3.8953893999999996
C    52.6366851  13.806441  -5.134095499999999
O    51.6110028  14.3372915  -5.599281899999999
C    52.987191100000004  13.7797539  -2.594850599999999
O    53.1470813  12.7736854  -5.6116461
H    52.0207809  22.1077579  -10.3887673
H    50.3819504  22.5775667  -9.8555408
H    50.7815207  19.6656844  -12.1483665
H    49.9758026  23.8277823  -11.904637999999998
H    49.8508061  19.5880543  -14.398939599999999
H    49.0483004  23.7477987  -14.1422695
H    48.9253702  21.6655353  -15.447292099999999
H    51.4392122  18.667660299999998  -8.7886139
H    49.686553100000005  19.022005  -6.456423999999999
H    50.6754237  16.655558199999998  -5.997452399999999
H    51.4967442  16.7931855  -7.5341298
H    48.2497279  16.9501093  -5.8429356
H    50.1732324  16.532066  -9.619418099999999
H    46.0548468  16.453176499999998  -6.877189899999999
H    47.9866181  16.0299408  -10.6701836
H    45.9450205  15.9616759  -9.2990455
H    50.8309358  18.324568199999998  -4.0610683
H    53.6295336  19.0708693  -3.8360840999999994
H    51.848021800000005  17.6682937  -1.7957025999999994
H    52.059960000000004  19.4263986  -1.9042873999999994
H    54.3696452  17.4976794  -1.3858039999999994
H    55.4720052  19.57074  -0.5300042999999999
H    54.0712601  20.5169472  -1.0628054999999996
H    55.0752548  19.6705221  -2.2455248999999995
H    52.6275104  17.2698662  0.33443560000000083
H    52.538595900000004  19.026004099999998  0.5194740000000007
H    53.989161700000004  18.1544727  1.0222714000000002
H    51.873571600000005  16.0111943  -4.1030283999999995
H    54.387993  14.5497966  -4.0692018
H    53.3203491  12.7488797  -2.679884199999999
H    51.9127211  13.7940075  -2.4278587
H    53.493909900000006  14.2653937  -1.7646862999999993
