18

C    14.111  27.488  7.897
C    15.2151531  27.8587723  6.883193500000001
C    15.5295099  26.8994884  5.733369400000001
C    14.2963445  26.600155899999997  4.8270429
C    16.600191600000002  27.597593399999997  4.886465800000001
C    17.3755943  26.642286799999997  3.9614223000000006
O    13.2672716  28.380617299999997  8.1439728
O    14.1385172  26.3839908  8.474504600000001
O    14.1429896  25.4211295  4.447495100000001
O    13.540219200000001  27.5427069  4.5001426
O    18.369833  27.1345252  3.3880044000000007
O    17.0060781  25.456194399999998  3.8217253000000007
O    16.052278700000002  25.676278999999997  6.2273151
H    16.1365482  27.977708399999997  7.4649248
H    14.9292318  28.818243  6.445251900000001
H    17.335755  28.0953022  5.524511100000001
H    16.122107800000002  28.3524648  4.254358000000001
H    16.1727751  25.1253671  5.426151600000001
