56

C    -45.259  15.079  28.284
C    -46.0841226  13.966604900000002  28.381423799999997
C    -47.4782381  14.127968500000001  28.1361286
N    -47.9835307  15.295970400000002  27.8101809
C    -47.2048742  16.396687500000002  27.688262499999997
C    -45.8079446  16.3446775  27.921495699999998
C    -43.7958096  14.922038100000002  28.496972
C    -42.9534268  14.883315300000001  27.3853135
C    -41.5976931  14.668173600000001  27.547676499999998
C    -41.0584985  14.504269500000001  28.8257296
C    -41.8825275  14.563497000000002  29.953242999999997
C    -43.2506013  14.7569879  29.769828999999998
C    -45.0550176  17.5312171  27.784684
C    -45.662169  18.708653  27.4252954
C    -47.0459853  18.7527342  27.190699199999997
C    -47.8088872  17.621225000000003  27.322575899999997
C    -48.463411300000004  12.9902768  28.2487249
C    -45.519320900000004  12.608473100000001  28.7140234
C    -45.9388114  12.1976449  30.1745207
O    -45.9273949  13.108378100000001  31.0254582
O    -46.2321746  11.011681500000002  30.389822499999998
O    -45.9376413  11.5864527  27.827735699999998
C    -45.3108466  11.4652265  26.5364793
C    -43.7815693  11.4164922  26.6528159
C    -45.737408200000004  12.6014566  25.6012882
C    -45.825968  10.131509000000001  25.971342099999998
O    -39.7044376  14.310986000000002  28.9164073
C    -39.1822629  13.796305400000001  30.1412537
C    -39.7582035  14.5612042  31.3246516
C    -41.2842178  14.389801700000001  31.3336793
H    -43.3656856  15.0177431  26.396270199999996
H    -40.9338165  14.6214565  26.6994507
H    -43.9142415  14.7559097  30.6246096
H    -43.9912427  17.4899516  27.9713452
H    -45.0743987  19.607474  27.3236733
H    -47.5074063  19.6870087  26.911011799999997
H    -48.873148900000004  17.627059900000003  27.154206499999997
H    -49.4657484  13.368159  28.0783085
H    -48.3859208  12.552422100000001  29.244577
H    -48.2192821  12.204824900000002  27.5389271
H    -44.4221979  12.659506100000002  28.760333
H    -43.3585595  11.0701452  25.7146993
H    -43.5009236  10.7260649  27.446309799999998
H    -43.3673451  12.396691  26.878453699999998
H    -45.3403027  12.421665400000002  24.606359599999998
H    -45.3664264  13.558066100000001  25.9606197
H    -46.8216642  12.656933100000002  25.548477799999997
H    -45.4005153  9.955570900000001  24.9895256
H    -46.909506300000004  10.1602362  25.901880199999997
H    -45.5512362  9.3247405  26.645041999999997
H    -38.1029046  13.919572  30.053742999999997
H    -39.4297586  12.730078  30.2175701
H    -39.512102  15.6181899  31.2109843
H    -39.3320084  14.1945475  32.256172899999996
H    -41.5456996  13.3886607  31.692825199999998
H    -41.7477377  15.103968600000002  32.0161483
