176

N    -7.844000000000001  64.49  235.554
C    -9.045036800000002  64.320947  234.682917
C    -9.3233837  65.5858854  233.8516033
O    -9.1582243  65.5734551  232.64224
C    -10.2567502  63.921822399999996  235.5131573
N    -9.6874148  66.6758754  234.5523954
C    -9.843694900000001  67.9814883  233.9308957
C    -9.1650527  69.0972858  234.7547504
O    -9.817557800000001  69.7415645  235.5778451
C    -11.3127299  68.341887  233.7948316
S    -11.5032484  69.9096917  232.8842
N    -7.864487500000001  69.2967091  234.5562365
C    -7.099904400000002  70.2080885  235.3953521
C    -7.427063600000001  71.6542416  235.0983062
O    -8.140814500000001  71.9734612  234.1470899
C    -5.630245500000001  69.9530856  235.0242957
C    -5.664466500000001  68.683215  234.1913589
C    -7.0179341000000015  68.7526148  233.5078786
N    -6.864394700000002  72.5518588  235.9069499
C    -7.165036000000001  73.9399761  235.6241077
C    -6.418681800000002  74.34933219999999  234.3515065
O    -5.2908335000000015  73.9182091  234.1259231
C    -6.671158300000002  74.6775722  236.8674861
C    -5.520329900000001  73.8154414  237.3659811
C    -5.948442400000001  72.3890788  237.0303883
N    -7.069415500000002  75.1867395  233.5371084
C    -6.473627400000002  75.8090565  232.3739762
C    -7.0926227000000015  77.2026997  232.1393682
O    -8.153063200000002  77.5362317  232.653656
C    -6.633389700000001  74.9375034  231.124512
S    -8.388598100000001  74.7925843  230.6059123
N    -6.417627600000001  77.9933958  231.2943332
C    -6.757144300000001  79.3904888  231.0650624
C    -8.165060400000002  79.6024186  230.4556642
O    -8.771005800000001  80.6489204  230.6580575
C    -5.690205200000001  80.0783919  230.1866088
C    -4.205396300000001  79.89818939999999  230.5824003
C    -3.3151340000000014  80.5509065  229.5223897
C    -3.847809500000001  80.4611378  231.9545391
N    -8.6959706  78.6123423  229.72184479999999
C    -9.9675173  78.7868149  229.0397935
C    -11.189998200000002  78.1907623  229.7603569
O    -12.3253964  78.3785414  229.3223187
C    -9.882176300000001  78.22869  227.5984738
C    -8.590339300000002  78.6010527  226.9456212
C    -8.2655413  79.7931703  226.3635358
C    -7.4171979000000015  77.7841272  226.863273
N    -6.969315900000002  79.7732612  225.9283799
C    -6.423712000000001  78.5572933  226.2134469
C    -7.104733100000001  76.4858942  227.2698705
C    -5.149003000000001  78.0621492  225.9676444
C    -5.840265800000001  75.9989609  227.0194246
C    -4.872239600000001  76.7772318  226.3768755
N    -10.976361200000001  77.4849391  230.8758962
C    -12.025239700000002  76.6407725  231.4355126
C    -13.326521200000002  77.3982032  231.720779
O    -14.4232565  76.8561117  231.5998166
C    -11.517735600000002  75.9313769  232.6881141
C    -11.220863000000001  76.8982714  233.83384949999999
C    -10.113283000000001  76.3967516  234.7328283
O    -9.556669900000001  75.3213612  234.5289845
N    -9.752933  77.2033525  235.7318333
N    -13.1996537  78.6752292  232.0869666
C    -14.346151200000001  79.5254678  232.3331191
C    -15.379155  79.4843728  231.1995376
O    -16.5641107  79.6895536  231.45764259999999
C    -13.894025200000002  80.9671111  232.6687742
C    -13.051968600000002  81.59311  231.5597388
C    -15.096970500000001  81.8554871  232.9657877
N    -14.958847200000001  79.2462146  229.9538684
C    -15.887729100000001  79.2222105  228.8400056
C    -16.6005812  77.9033757  228.5934394
O    -17.4548698  77.8182504  227.7166568
C    -15.167227200000001  79.572312  227.5422166
C    -14.772174300000001  81.0411178  227.4758733
C    -13.786665600000001  81.2294294  226.3295429
C    -16.0050385  81.92254319999999  227.302713
N    -16.2084781  76.8574361  229.32114669999999
C    -16.8269902  75.56731189999999  229.1616103
C    -17.4501251  75.0471438  230.458173
O    -17.752396400000002  73.8617177  230.5564772
C    -15.859417700000002  74.55270829999999  228.5585727
S    -14.4461218  74.1441723  229.6576581
N    -17.690720900000002  75.9471204  231.414757
C    -18.528065  75.6556387  232.5580702
C    -17.850986600000002  75.6769172  233.9660684
O    -18.612467700000003  75.54149029999999  234.9421648
O    -16.6228711  75.818473  234.0528979
H    -7.686257700000001  63.6194534  236.0806691
H    -7.978077200000001  65.2517497  236.2303652
H    -7.008441600000001  64.6842371  234.9898605
H    -8.8278744  63.5386957  233.949462
H    -11.1411422  63.8914302  234.8841737
H    -10.4451388  64.6223587  236.321313
H    -10.120494  62.9307199  235.935846
H    -9.997737500000001  66.6054139  235.510931
H    -9.419868200000002  67.9263873  232.9254459
H    -11.788581400000002  68.4619423  234.7679713
H    -11.8438376  67.5977669  233.2033083
H    -11.049021800000002  70.70069409999999  233.8467178
H    -7.334988300000001  70.00073019999999  236.4440843
H    -5.003461700000002  69.8314955  235.9037005
H    -5.253262200000001  70.7917524  234.4364678
H    -5.618761400000001  67.8126384  234.8431336
H    -4.846085100000002  68.6344252  233.4779317
H    -7.001442900000001  69.4557943  232.6684469
H    -7.369357400000001  67.7862194  233.1566786
H    -8.2366278  74.0539393  235.4521283
H    -7.475623500000001  74.7079876  237.6028839
H    -6.359436800000001  75.6947913  236.6385531
H    -5.330361800000001  73.9488249  238.4275412
H    -4.617051800000001  74.062131  236.807428
H    -5.093935900000001  71.7781975  236.7518801
H    -6.481929600000001  71.9236281  237.8652125
H    -8.0448348  75.3960979  233.7312708
H    -5.398227200000001  75.9051198  232.5736743
H    -6.2751724000000015  73.9355238  231.3591356
H    -6.073348500000002  75.3526392  230.2871227
H    -8.165979400000001  73.8372911  229.7109892
H    -5.560471800000001  77.6645013  230.8745714
H    -6.806905000000001  79.8953326  232.0393048
H    -5.931722400000001  81.1419631  230.1730227
H    -5.806878500000002  79.6987238  229.1673837
H    -3.969096900000001  78.8280294  230.5859556
H    -2.268216800000001  80.3882308  229.7615051
H    -3.496630200000001  81.6220582  229.4820027
H    -3.513754500000001  80.1302577  228.5395348
H    -4.410376400000001  79.96477  232.7419541
H    -4.067136800000001  81.5254396  231.9978374
H    -2.789051100000001  80.31987889999999  232.1502294
H    -8.189357700000002  77.7547759  229.5523254
H    -10.140377400000002  79.870458  228.993966
H    -10.7337444  78.6134198  227.0378635
H    -9.967511100000001  77.1409001  227.6398322
H    -8.877106800000002  80.6638255  226.2279424
H    -6.510801500000001  80.5258205  225.4434071
H    -7.843304100000001  75.8735779  227.7669463
H    -4.405096300000001  78.6642666  225.4683546
H    -5.584496500000001  74.9940584  227.3216875
H    -3.8936704000000013  76.3577663  226.1981677
H    -10.036296600000002  77.3398707  231.2259957
H    -12.304304600000002  75.874843  230.69654979999999
H    -10.608891900000001  75.3815878  232.434763
H    -12.266755900000001  75.1993265  232.9945683
H    -12.119737700000002  77.084174  234.4232977
H    -10.868116800000001  77.850601  233.4302385
H    -9.016255500000002  76.9217888  236.3580682
H    -10.220333300000002  78.0797154  235.8877155
H    -12.284229600000002  79.0975905  232.135148
H    -14.899278300000002  79.1236031  233.1967375
H    -13.286905800000001  80.892842  233.5775664
H    -12.762625600000002  82.5982145  231.8523289
H    -13.632082200000001  81.6559726  230.6419138
H    -12.145261900000001  81.02955  231.3531377
H    -15.7327594  81.4025117  233.72347489999999
H    -15.702839800000001  81.9967504  232.0745666
H    -14.763942  82.8266144  233.320892
H    -13.994956400000001  78.9847031  229.7578218
H    -16.6818545  79.9458902  229.060475
H    -15.826694700000001  79.3259844  226.7089575
H    -14.277633100000001  78.9411583  227.4820248
H    -14.273003300000001  81.3100599  228.412898
H    -13.4817516  82.2699868  226.2525407
H    -14.244359300000001  80.93232  225.3891425
H    -12.9024353  80.6194443  226.4938132
H    -16.6608744  81.8580486  228.1670445
H    -16.568093700000002  81.615109  226.4247765
H    -15.712938000000001  82.9627742  227.1805305
H    -15.5084105  76.9502786  230.0533248
H    -17.654207300000003  75.7045722  228.4492865
H    -15.451612700000002  74.9525073  227.6322818
H    -16.4013529  73.6240278  228.3814501
H    -13.845962800000002  73.3806018  228.7451305
H    -17.3089661  76.8791937  231.3558241
H    -18.9322182  74.6490124  232.4208964
H    -19.355352500000002  76.3708541  232.5947834
