27

C    28.412  -45.584  148.48
C    24.6452548  -45.389892700000004  148.6761434
C    25.0746446  -46.43699780000001  147.90154280000002
N    24.1121529  -46.9491037  147.0666223
S    22.9615612  -45.0171946  148.345023
C    22.9614683  -46.344263500000004  147.1725792
C    25.2911359  -44.5285506  149.6574481
N    26.3052835  -45.024923900000005  150.38344030000002
C    26.4466991  -47.0616691  147.85945420000002
C    27.5012927  -46.7245538  148.9518121
O    24.896062  -43.366279600000006  149.84078
N    21.8537819  -46.653119000000004  146.4867606
C    26.8567021  -46.3605201  150.3105962
C    28.3748729  -47.96970880000001  149.183863
H    28.9592051  -45.88368010000001  147.5904879
H    29.1292754  -45.32571980000001  149.2550042
H    27.8283469  -44.696034700000006  148.2414188
H    26.7574741  -44.35505930000001  150.9879401
H    26.870644  -46.82798940000001  146.8803961
H    26.2646806  -48.139434900000005  147.8644414
H    21.8843424  -47.4194584  145.83689470000002
H    21.0111271  -46.1300705  146.6379339
H    26.0579511  -47.08223  150.5160424
H    27.6075989  -46.438850200000005  151.0943311
H    28.7904585  -48.3153312  148.2414898
H    27.7886266  -48.77400600000001  149.6211067
H    29.1957325  -47.73384300000001  149.85505220000002
