35

C    -13.535  -1.072  28.719
C    -14.0577973  -0.6070038000000002  27.5110957
C    -13.5681061  0.5524844  26.9392066
C    -14.01427  -2.3057990000000004  29.3356883
C    -15.0268334  -3.1620255000000004  28.8724787
C    -15.1129832  -4.219018500000001  29.7616642
C    -15.897837299999999  -5.396966600000001  29.8707021
C    -14.7545679  -5.9186025  31.7877868
C    -12.5097834  -0.3430021000000001  29.3284791
C    -12.5518036  1.2645891999999996  27.555206
C    -12.0242711  0.8146468999999996  28.7540728
N    -15.6979376  -6.2247959  30.8886763
N    -13.9855268  -4.8711673  31.7887007
N    -14.1636622  -4.0130288  30.7596603
C    -13.5084369  -2.8709153  30.507604699999998
N    -16.8308826  -5.6573054  28.9114661
C    -17.670565  -6.7612586  28.7895219
C    -17.9515337  -7.6274327  29.8476714
C    -18.7986885  -8.697248  29.6240993
N    -19.3669195  -8.948644999999999  28.4545423
C    -19.1119825  -8.123576  27.4489042
C    -18.2831444  -7.0217663  27.5585461
H    -14.8464319  -1.1514697000000003  27.0171042
H    -13.9795218  0.9028567999999995  26.0042271
H    -15.627040599999999  -3.0244229000000002  27.9966266
H    -14.61968  -6.6133961  32.6008012
H    -12.0915727  -0.6822537000000004  30.261818599999998
H    -12.1741292  2.1685061999999995  27.101321
H    -11.2333948  1.3664071999999994  29.2393683
H    -12.7319914  -2.5450384  31.1679211
H    -16.829814  -5.0221137  28.1244256
H    -17.5009376  -7.467437  30.8109157
H    -19.0390524  -9.3889346  30.4186208
H    -19.596744  -8.363858700000002  26.5133803
H    -18.1101254  -6.3809116  26.7082733
