30

C    -0.19499999999999995  124.266  -12.083
C    -4.3208897  129.91973130000002  -13.8603379
N    -3.6397919  129.18989850000003  -12.779881
C    -2.3503758  128.6274768  -13.235039
C    -1.7024219999999999  127.73542180000001  -12.1994943
C    -1.2597734999999999  126.47152320000001  -12.5700229
C    -0.6350761999999999  125.61941700000001  -11.6581492
C    -0.4657840999999999  126.06867460000001  -10.347435
C    -0.9051822999999999  127.3283571  -9.9702008
C    -1.5187  128.1659438  -10.8878853
C    0.9885475000000001  123.67728640000001  -11.6279407
N    1.3935716  122.46931390000002  -11.9863006
C    0.6509285  121.76202650000002  -12.8248829
C    -0.5423412  122.24106270000001  -13.3435991
C    -0.9672968  123.50423870000002  -12.9654577
H    -5.2602212  130.33469200000002  -13.505077
H    -4.5268228  129.2504451  -14.691499799999999
H    -3.6914819  130.73200350000002  -14.215115
H    -4.2410489  128.4255952  -12.4476475
H    -3.4807878  129.8187445  -11.9842568
H    -1.6760698  129.45328460000002  -13.4757667
H    -2.521992  128.05231030000002  -14.1456339
H    -1.3765261  126.14374640000001  -13.5918818
H    -0.0003954999999999931  125.42153880000001  -9.6190327
H    -0.7613433  127.65533530000002  -8.9519329
H    -1.8222269999999998  129.15051060000002  -10.5699426
H    1.6533914000000003  124.20405990000002  -10.956074
H    1.0336058000000001  120.7832338  -13.0780917
H    -1.1264611  121.63825450000002  -14.020627
H    -1.907422  123.88618880000001  -13.3343705
