55

C    -2.776  11.773  8.311
C    -1.7485703  10.9759207  9.103045
N    -0.9934036999999999  11.8698206  9.9761992
C    0.2091879000000001  12.339778899999999  9.5629699
C    0.9834748000000002  13.2085314  10.2829535
C    2.2915777  13.649667599999999  9.7501576
C    3.1384728  12.7423516  9.1073802
C    4.3617026  13.1449026  8.6019083
C    4.7688585  14.462996799999999  8.716287600000001
C    3.9315071  15.372729  9.3459584
C    2.7030562000000002  14.9759973  9.8607989
C    4.3363699  16.8093906  9.4605564
F    5.6020649  17.041651299999998  9.0706383
F    4.2207375  17.299597  10.7120275
F    3.5623134000000003  17.6183727  8.7110911
C    0.4303994000000001  13.6313784  11.5252205
S    1.1452254000000002  14.7161078  12.6734208
C    -0.2328090999999999  14.5837945  13.7345134
C    -1.1676472999999998  13.7348414  13.2276579
C    -0.8087992999999999  13.1694462  11.9769106
C    -1.5846737999999998  12.2434336  11.1784711
O    -2.6865284  11.7980824  11.505812
C    -0.3853757999999999  15.3888894  14.954215600000001
N    0.7314349000000001  15.6554555  15.67438
N    -1.5782148999999999  15.7843409  15.1787869
C    -1.9967565999999999  16.6180563  16.2824087
C    -2.7923818  17.7894418  15.69406
C    -3.2479451999999998  18.7617355  16.7624059
S    -4.4334834  17.9277382  17.8143041
O    -5.5642619  17.4824447  17.021660699999998
O    -4.7587113  18.7881259  18.944526
C    -3.4900751999999997  16.518648  18.3979144
C    -2.8821404  15.7764921  17.2166414
H    -3.3320833  11.1102124  7.6551137
H    -2.2878667  12.5372504  7.7109467
H    -3.4748797  12.2521255  8.9924177
H    -1.0521097999999998  10.461717499999999  8.4426284
H    -2.2588121  10.2518786  9.7421829
H    0.5323902000000001  11.992746  8.5939935
H    2.8440695000000003  11.7080166  9.0290485
H    5.0052543  12.4291905  8.1172872
H    5.7217089  14.7816052  8.3250799
H    2.0673536  15.709026099999999  10.3335777
H    -2.0945811  13.5197617  13.725015
H    0.7000556000000001  16.3229555  16.4230841
H    1.6340488000000002  15.403615199999999  15.3108933
H    -1.1571965  17.0300353  16.8703067
H    -3.6657471999999998  17.3920401  15.175783
H    -2.171734  18.3061953  14.9598116
H    -3.7486067  19.6279819  16.338187
H    -2.4453535  19.085069999999998  17.418619800000002
H    -4.1615895  15.8791897  18.9626942
H    -2.7402512  16.9428818  19.0604112
H    -2.295443  14.9342202  17.5897979
H    -3.6932595999999998  15.3685686  16.6091961
