42

C    28.458  9.476000000000003  -2.432
C    29.8315597  9.677097900000001  -2.3930043
N    30.540508099999997  9.584984600000002  -1.2190135
C    31.8719117  9.789274900000002  -1.2333952
N    32.5748848  10.060262100000001  -2.2801424
C    31.9651012  10.172965600000001  -3.5174256
O    32.620001099999996  10.422257300000002  -4.5264762
C    30.5231766  9.976678900000001  -3.5715776999999997
C    29.832062899999997  10.077815300000001  -4.7796873
C    28.4720074  9.885504900000003  -4.8081133
C    27.781740799999998  9.594568700000002  -3.6298075999999995
C    26.3370617  9.265117000000002  -3.7134976999999996
C    26.2045359  7.731066500000002  -3.7620217
N    24.964132999999997  7.411366100000002  -3.0028423
C    24.286048899999997  8.701890400000002  -2.7561324999999997
C    25.006364599999998  11.100873200000002  -2.6243717
C    25.458638299999997  9.656371400000001  -2.5258977
O    25.245026099999997  11.7706361  -3.6073845999999996
C    24.198195799999997  11.620364700000001  -1.5199173999999998
C    23.688876399999998  12.916079700000001  -1.6180408
C    22.905564899999998  13.43288  -0.6038990999999999
C    22.613142699999997  12.660437600000002  0.5120309000000001
C    23.1183764  11.374257800000002  0.5962791000000001
C    23.9110415  10.845619400000002  -0.4013853999999999
I    22.678516799999997  10.150376900000001  2.2701247
H    27.955903399999997  9.228871600000002  -1.511839
H    30.0569657  9.378765200000002  -0.3529267999999999
H    32.3959767  9.715266300000001  -0.2908605999999999
H    30.4025729  10.305532300000001  -5.666958299999999
H    27.9361192  9.970036400000001  -5.739264899999999
H    25.921228999999997  9.725673400000002  -4.6122301
H    27.0656845  7.259524500000001  -3.2925778999999995
H    26.135981599999997  7.377907000000002  -4.7887987999999995
H    25.202236499999998  6.9673237000000015  -2.109142
H    24.358614699999997  6.758388700000001  -3.5122166999999997
H    23.584860999999997  8.629732300000002  -1.9273387
H    23.7410288  9.009260700000002  -3.6495081999999996
H    25.9422616  9.484500900000002  -1.5678025999999998
H    23.920932399999998  13.498180200000002  -2.496289
H    22.514625499999998  14.435099200000002  -0.6714832999999999
H    21.9983677  13.061788400000001  1.3023701000000003
H    24.313397499999997  9.857982300000002  -0.2646500999999999
