42

P    22.547  -11.577  69.738
O    22.2611417  -11.275310000000001  71.1690042
O    23.2826067  -12.7965041  69.3456198
O    23.1556986  -10.271063400000001  68.9585136
P    24.6977728  -9.782748600000001  69.277722
O    24.5595557  -8.295182  69.37011129999999
O    25.6415477  -10.3332888  68.269348
O    24.8966432  -10.415821900000001  70.7182263
P    26.2046398  -11.475695900000002  71.0084583
O    27.4256957  -10.764440500000001  70.46174479999999
O    25.8294007  -12.756513700000001  70.3121979
O    26.202624  -11.557305000000001  72.5213836
O    21.106412199999998  -11.645169800000001  68.92421449999999
C    20.012978  -10.744074600000001  69.141571
C    19.0848184  -10.731181000000001  67.90214019999999
O    17.7072475  -10.7518509  68.26437489999999
C    19.2814945  -9.5228368  66.9650832
O    19.4886816  -9.9503549  65.6412962
C    17.963338099999998  -8.7389323  67.0158576
C    16.9642186  -9.656403200000002  67.7320349
N    16.2360804  -8.951947700000002  68.793447
C    14.849853  -8.935364400000001  68.84586949999999
O    14.137276  -9.46507  68.0131536
N    14.2726961  -8.264715  69.88612239999999
C    14.936889299999999  -7.620486400000001  70.9029899
O    14.3117126  -7.0635905  71.79413579999999
C    16.3914721  -7.682738800000001  70.80418209999999
C    17.2123258  -6.997372400000001  71.8485741
C    16.9630355  -8.3482217  69.7795964
H    20.4218457  -9.755040300000001  69.3787791
H    19.4526088  -11.1052461  70.0127072
H    19.2979677  -11.6648665  67.3664697
H    20.137883  -8.9271466  67.3088768
H    20.3524746  -10.3720233  65.5649366
H    17.6511841  -8.5362722  65.9934318
H    18.0924437  -7.802848900000001  67.55139249999999
H    16.191692699999997  -10.0624675  67.0672479
H    13.2560656  -8.271359100000002  69.9050082
H    18.1956034  -7.452951700000001  71.9276615
H    16.702596  -7.052717200000001  72.8071702
H    17.3357267  -5.945696400000001  71.5963191
H    18.0347395  -8.4625257  69.710348
