45

C    21.697  3.036  -6.963
C    21.5833856  2.0743478  -8.1467963
C    22.3881996  2.5785798  -9.353768200000001
C    21.996918  4.0330501  -9.6749019
C    22.1547822  4.8871117  -8.4127207
C    21.7306255  6.3303722  -8.6927031
O    20.2264641  1.9685418000000001  -8.4979737
O    22.159906  1.7468837  -10.466712000000001
O    22.785853  4.5731673  -10.706861
O    21.3441674  4.3435959  -7.3736539
O    22.0152206  7.1380958  -7.576294000000001
O    24.06937  1.3518078  -4.2433406
C    24.2869442  2.7443721  -4.3689093
C    23.0617504  3.3914997  -5.0525172000000005
O    22.9648577  2.897084  -6.389703900000001
C    23.1664057  4.9194815  -5.0715693
N    23.3419046  5.4205161  -3.7015223
C    24.552499  4.8822373  -3.0522948000000003
C    24.4801978  3.3575256  -2.9661438
C    25.7392017  2.8174473  -2.2717549000000004
O    26.8907388  3.0654575  -3.0616854
H    20.9178339  2.7796351  -6.2270426
H    21.9178308  1.0722493000000002  -7.869695800000001
H    23.4607107  2.5346456  -9.1381724
H    20.9378257  4.0542068  -9.9841907
H    23.2074497  4.8751278  -8.1042982
H    20.654791  6.3401602  -8.9100945
H    22.2833268  6.6553325  -9.5799152
H    19.8050201  2.8381534999999998  -8.4258466
H    21.2306565  1.4651372999999999  -10.4501328
H    22.8800201  3.9015771  -11.399755299999999
H    21.8202527  8.0599832  -7.787061100000001
H    24.0834784  0.9547242000000002  -5.1218313
H    25.1834228  2.9342086  -4.9725547
H    22.1643094  3.069635  -4.5025587
H    22.2777526  5.3544889  -5.5322323
H    24.0341883  5.1983177000000005  -5.6725344
H    22.5189837  5.166169200000001  -3.1395308
H    23.3940338  6.4471832  -3.7277532000000004
H    24.645948  5.2955167  -2.0485481000000005
H    25.43503  5.1566937  -3.6323866000000002
H    23.6316236  3.0438408  -2.3517210000000004
H    25.6062318  1.7405803  -2.1229735000000005
H    25.8430589  3.3002555  -1.2921871000000005
H    27.6274334  2.5457317  -2.7240085
