67

C    15.998999999999999  -9.823  -20.586
O    16.781741  -10.7134359  -19.808211899999996
C    16.3503133  -12.0025724  -19.701957599999997
C    15.131105  -12.4410795  -20.180056999999998
C    17.2213475  -12.9113781  -19.068522799999997
O    18.4121459  -12.4027971  -18.617831499999998
C    19.266361  -13.2781  -17.9016852
C    16.8252979  -14.2304285  -18.953200699999996
C    15.599055100000001  -14.6687227  -19.4397144
C    14.742052600000001  -13.7744213  -20.055320299999998
O    13.5165922  -14.0775379  -20.586053
C    13.1386781  -15.4399128  -20.6791356
C    12.601137399999999  -15.9939225  -19.354823999999997
N    11.3187152  -15.403104  -18.9775523
C    11.3134335  -14.5285222  -17.961970199999996
O    12.3598297  -14.2283247  -17.387962599999998
C    10.1567547  -15.8188838  -19.749534099999998
C    9.0854005  -16.5456429  -18.9142333
C    8.1336155  -17.2721201  -19.8437888
C    8.4598994  -18.3441918  -20.550851599999998
C    8.312186  -15.5613286  -18.007478199999998
C    8.272499400000001  -16.0265976  -16.5458164
C    9.5955462  -15.7623765  -15.837649899999999
C    9.9183292  -14.2757472  -15.933855799999998
C    10.0411205  -13.8849871  -17.415390499999997
N    8.8421482  -14.2037835  -18.1586778
S    7.6981874  -13.0280922  -18.2693478
O    8.2848987  -11.7207744  -18.083320699999998
O    6.4458233  -13.356406400000001  -17.619451599999998
C    7.3079807  -13.083749000000001  -19.979006299999998
C    8.2530579  -12.6172747  -20.8664228
C    7.9392963  -12.628444  -22.215132299999997
Cl    9.0925305  -12.0501243  -23.3511793
C    6.7118991999999995  -13.1028354  -22.6579627
C    5.7849845  -13.561864  -21.7332127
Cl    4.2660857  -14.1564249  -22.284944799999998
C    6.0737073  -13.5488648  -20.3767383
H    16.5576374  -8.8895693  -20.590847299999997
H    15.0178278  -9.6597686  -20.1330268
H    15.8829248  -10.192666  -21.607405899999996
H    14.439696  -11.772142500000001  -20.663144
H    20.1172976  -12.6658551  -17.6119502
H    19.605562  -14.1030175  -18.5335403
H    18.7710639  -13.669008100000001  -17.009347899999998
H    17.467938  -14.9513215  -18.476575099999998
H    15.3581019  -15.7114217  -19.328293
H    13.9817803  -16.0488079  -21.019936499999996
H    12.3568654  -15.4488932  -21.4418877
H    13.2959047  -15.7703359  -18.5448612
H    12.4695708  -17.0741001  -19.445231999999997
H    10.5147344  -16.5093063  -20.512420099999996
H    9.7057876  -14.9570871  -20.2484728
H    9.6013207  -17.2810078  -18.2913462
H    7.1530442  -16.8330664  -19.9527665
H    7.7578472000000005  -18.8121785  -21.216493299999996
H    9.428418  -18.808059800000002  -20.4714532
H    7.2815464  -15.4808624  -18.363108599999997
H    8.0155302  -17.0849754  -16.5233611
H    7.4820969  -15.4707743  -16.0348653
H    10.4045645  -16.3354401  -16.293986399999998
H    9.5199079  -16.0589286  -14.791208299999997
H    10.8614328  -14.041935800000001  -15.439308099999998
H    9.1212157  -13.6815732  -15.480389899999999
H    10.1794782  -12.8019218  -17.4988811
H    9.1940005  -12.2455517  -20.497194099999998
H    6.4814865  -13.112172300000001  -23.7111624
H    5.367105899999999  -13.8808673  -19.634994999999996
