45

C    15.594999999999999  -7.6930000000000005  20.969
S    23.0412313  -10.4521494  17.752854600000003
O    19.0458239  -5.4303557  19.170179100000002
O    18.1530956  -9.9178485  18.403431
O    18.4574044  -10.3213963  21.956138100000004
N    16.1525557  -5.4209114  20.112073900000002
N    18.5419419  -8.1336719  19.758928800000003
N    19.6306026  -10.5699401  21.288523400000003
N    22.0894437  -11.1115084  20.065210200000003
N    24.278859699999998  -11.8499293  19.722110500000003
S    16.0308092  -4.3527749  21.3779654
C    16.669926  -6.7222930000000005  20.511253000000004
C    17.4944063  -7.2459997000000005  19.310820500000002
C    18.0411688  -5.9435338  18.751985700000002
C    18.7567735  -9.3871628  19.327176500000004
C    19.8073984  -10.14199  20.0939902
C    18.3795854  -10.8648663  23.312755000000003
C    21.0911428  -10.4153605  19.4339879
C    21.436837  -9.9802978  18.176652
C    23.157468899999998  -11.2306874  19.345306100000002
C    19.439359  -10.2510995  24.220868300000003
C    16.9777961  -10.5055779  23.807507800000003
C    18.5057394  -12.4376124  23.260884700000002
O    17.5392059  -13.0511146  22.769203400000002
O    19.5371743  -12.958292199999999  23.715255600000003
O    15.163760199999999  -3.295529  20.869264800000003
O    15.4486311  -5.0597282  22.5388075
O    17.376328  -3.8711979000000003  21.6568876
H    16.0520022  -8.6373254  21.258789200000002
H    14.8854088  -7.8726679  20.165986300000004
H    15.0801741  -7.2627577  21.8249506
H    15.2244451  -5.4704669  19.7171187
H    19.1136748  -7.7761912  20.511687700000003
H    24.266447  -12.347469  20.595938500000003
H    25.016964299999998  -11.9886369  19.054167900000003
H    17.3537259  -6.4909693  21.3359042
H    16.8781142  -7.7848091  18.589231400000003
H    17.4623431  -5.4993617  17.931443400000003
H    20.8321896  -9.4276145  17.4862962
H    19.3739122  -10.7173661  25.198145800000002
H    19.2841719  -9.177301400000001  24.3016536
H    20.4235994  -10.454694100000001  23.805360800000003
H    16.8904229  -10.7974105  24.848459400000003
H    16.244730099999998  -11.0544264  23.2205635
H    16.8048087  -9.4364127  23.702449400000003
