26

C    -10.675  19.315  10.195
C    -9.2988251  19.915144800000004  10.1647143
C    -8.5629274  20.090672200000004  9.0091648
C    -8.8919893  19.7628148  7.530185600000001
O    -8.156104200000001  20.2847402  6.666336300000001
O    -9.8567107  19.005770300000002  7.3038613
S    -7.0384229000000005  20.812166200000004  9.451969600000002
C    -7.4963806  20.821676600000004  11.1726416
C    -6.598594800000001  21.3459329  12.239130000000001
C    -5.1964758  21.4001808  12.1349351
C    -4.381057200000001  21.886570400000004  13.154686600000002
C    -4.938366800000001  22.357348500000004  14.3406146
C    -4.1232104000000005  22.894060800000002  15.4935083
F    -2.8617033000000003  22.4416672  15.5379535
F    -4.660261800000001  22.5848711  16.6867936
F    -4.022765400000001  24.241409700000002  15.5078651
C    -6.3224213  22.322282200000004  14.464282200000001
C    -7.1205943000000005  21.827805400000003  13.4464863
N    -8.6968175  20.329579300000002  11.3281693
H    -11.0321967  19.277890000000003  11.2186123
H    -10.6415842  18.317549400000004  9.7627974
H    -11.3451265  19.909907500000003  9.578628
H    -4.734503  21.045673800000003  11.2253433
H    -3.3111854000000003  21.8895179  13.0182605
H    -6.7900317  22.677215200000003  15.369939
H    -8.1907131  21.809076700000002  13.5836389
