189

N    33.759  44.177  -47.284
C    32.3008108  44.2571623  -47.0276592
C    31.529266000000003  44.833649  -48.2355298
O    30.468052000000004  44.3235847  -48.5591024
C    32.00713760000001  45.0511036  -45.7324354
C    31.413083600000004  44.1970002  -44.5999925
C    31.078057500000003  45.0120991  -43.3485666
O    31.386848500000003  46.1916143  -43.2121062
N    30.424112800000003  44.3439458  -42.389201
N    32.0867294  45.869367  -48.8897605
C    31.446397000000005  46.4714336  -50.0492226
C    31.627640400000004  45.6087129  -51.3156744
O    30.7139455  45.4778055  -52.119039
C    32.0145141  47.8653721  -50.3550455
C    31.680116400000003  48.9970856  -49.3682889
C    32.366678500000006  50.278761700000004  -49.8341872
C    30.1811584  49.2457224  -49.2526576
N    32.850878200000004  45.0857407  -51.4877181
C    33.284015700000005  44.2860275  -52.6226907
C    34.200634400000006  43.1913946  -52.055743
O    34.925319900000005  43.4226985  -51.0928421
C    34.0700853  45.1462523  -53.6744987
C    33.1686289  46.2255001  -54.3127889
C    34.698742900000006  44.2784602  -54.7724135
C    33.939941100000006  47.4259942  -54.881345
N    34.1462274  42.0038896  -52.6681654
C    35.0256095  40.8774334  -52.3679149
C    36.35371850000001  41.114365  -53.1251765
O    36.6048416  40.5833685  -54.2022744
C    34.3421697  39.59027  -52.822369200000004
C    35.025761200000005  38.3168419  -52.372333600000005
O    35.6609181  38.2243238  -51.333780600000004
N    34.839988500000004  37.2770453  -53.190114300000005
N    37.159841300000004  41.9963235  -52.5287481
C    38.419102800000005  42.4438453  -53.0885467
C    39.424786700000006  41.2866267  -53.2418947
O    40.283823500000004  41.3131326  -54.1133773
C    38.97195120000001  43.6026954  -52.2328031
O    39.1898908  43.1030732  -50.925837800000004
C    37.9895359  44.778689299999996  -52.1973125
N    39.246501900000005  40.2467777  -52.408097500000004
C    40.082707600000006  39.0653003  -52.4317687
C    39.45536430000001  37.8934808  -53.2108063
O    39.9602395  36.7771327  -53.1738945
C    40.4603174  38.6524701  -50.997338400000004
C    41.708817800000006  37.7782374  -50.9471052
O    42.7502895  38.1056976  -51.5064093
N    41.616158600000006  36.6702587  -50.2018493
N    38.3484142  38.1608333  -53.9135629
C    37.656015100000005  37.1420787  -54.681142200000004
C    38.5706483  36.3606515  -55.617842
O    39.4414072  36.9159369  -56.2848277
N    38.2972994  35.0522936  -55.7310344
C    39.08710670000001  34.1684638  -56.5655732
C    38.846010400000004  34.3240408  -58.0792977
O    39.488182  33.6408858  -58.8665698
C    38.900843900000005  32.7139258  -56.1288191
O    39.568369800000006  32.5421748  -54.8980095
N    37.9177824  35.2129877  -58.4613875
C    37.6256957  35.5216543  -59.8452961
C    38.641008500000005  36.4839966  -60.493765100000005
O    38.638221300000005  36.6324992  -61.711336200000005
C    36.162243800000006  36.0183927  -60.0024023
C    35.6931846  36.9248097  -58.906997000000004
C    35.0888725  36.5420988  -57.7391114
C    35.7864653  38.3541491  -58.856309
N    34.779850100000004  37.639908  -56.9819656
C    35.194749400000006  38.7653185  -57.6361128
C    36.288788000000004  39.3255044  -59.7249134
C    35.1246779  40.104237  -57.2624431
C    36.175790500000005  40.6526372  -59.368778500000005
C    35.6083331  41.0389744  -58.1496032
N    39.494313500000004  37.1256443  -59.6775666
C    40.5337526  38.0273737  -60.1544581
C    41.694504  37.2962341  -60.8612989
O    42.055468700000006  36.1825993  -60.502948700000005
C    41.152922600000004  38.8075116  -58.9831504
C    40.238187200000006  39.815565  -58.388260700000004
N    39.515945900000006  39.5791252  -57.2508032
C    39.966226000000006  41.1062184  -58.7489336
C    38.8610234  40.7179106  -56.968867100000004
N    39.1099821  41.6588363  -57.8475437
N    42.2663767  37.9953762  -61.8585469
C    43.419878600000004  37.5727819  -62.6428541
C    44.6184121  38.4673169  -62.2659216
O    44.454806100000006  39.4336333  -61.5227322
C    43.176016600000004  37.6183469  -64.1869832
C    43.311877200000005  36.2325739  -64.8174952
C    41.831112700000006  38.2465737  -64.5471297
N    45.806483300000004  38.1525718  -62.799785400000005
C    47.026215900000004  38.8795987  -62.4942647
C    47.9818957  39.0906877  -63.7286662
O    47.7323299  38.4870638  -64.7828165
C    47.800201400000006  38.2145878  -61.3374775
C    47.870159300000005  36.7077721  -61.4781397
O    46.8667711  36.0005647  -61.419937000000004
N    49.095900300000004  36.1890885  -61.6174904
H    34.2121781  43.6294197  -46.538679900000005
H    34.198885000000004  45.1058032  -47.2920103
H    33.9591665  43.7135563  -48.1810433
H    31.909349900000002  43.2416538  -46.917835000000004
H    31.299082300000002  45.8556094  -45.9387268
H    32.914145000000005  45.5268517  -45.3599516
H    32.1104641  43.4148383  -44.2969744
H    30.491626600000004  43.72325  -44.9417995
H    30.174254200000004  44.8325617  -41.5454901
H    30.150888900000005  43.3824137  -42.4959235
H    32.8410214  46.4018757  -48.4799596
H    30.364494300000004  46.5189291  -49.884553100000005
H    31.629387100000002  48.1552198  -51.3361417
H    33.10011900000001  47.7879618  -50.445693500000004
H    32.060705000000006  48.7419575  -48.3737249
H    32.171589700000006  51.0882105  -49.1355355
H    31.990564600000003  50.5767188  -50.810401
H    33.4434752  50.1463633  -49.9096304
H    29.660408500000003  48.3840887  -48.8412481
H    29.754043900000003  49.4666696  -50.2289912
H    29.990383400000002  50.0936115  -48.5994217
H    33.585294100000006  45.272182799999996  -50.816244600000005
H    32.3926955  43.8658923  -53.095686900000004
H    34.8755801  45.6514464  -53.130676900000005
H    32.462805  46.5978389  -53.569692100000005
H    32.579846700000004  45.7675708  -55.1095141
H    35.44876120000001  43.5983175  -54.3767085
H    35.188424100000006  44.9163822  -55.5020663
H    33.936498900000004  43.7045062  -55.2946048
H    33.239876900000006  48.1436567  -55.2993633
H    34.620692000000005  47.1186477  -55.6708677
H    34.5152793  47.9176206  -54.1012232
H    33.5925103  41.9211744  -53.5086935
H    35.2215379  40.8569251  -51.2924669
H    34.291648300000006  39.5975059  -53.912737400000005
H    33.328367300000004  39.5716805  -52.4160101
H    35.143486200000005  36.366828  -52.8811202
H    34.1879251  37.3236645  -53.9531909
H    36.9109349  42.3741033  -51.6213283
H    38.2646291  42.812037  -54.111154
H    39.921896800000006  43.9092085  -52.6933263
H    39.606037400000005  43.7872391  -50.3855519
H    38.440979600000006  45.6130057  -51.6679622
H    37.0713224  44.4920285  -51.6922431
H    37.7606953  45.0984786  -53.209631800000004
H    38.5714454  40.3183053  -51.6595025
H    41.0041067  39.3214465  -52.9766232
H    39.6197205  38.1450714  -50.5256601
H    40.6989486  39.5644532  -50.446407300000004
H    42.4016609  36.0387548  -50.2000927
H    40.7248249  36.3291549  -49.8856338
H    38.0208462  39.1145251  -54.014846500000004
H    36.905875  37.6522338  -55.2877816
H    37.18028940000001  36.4447243  -53.9888277
H    37.707247200000005  34.602001200000004  -55.046891200000005
H    40.1517143  34.4149117  -56.430602900000004
H    39.331316  32.0795427  -56.911852
H    37.831062700000004  32.4890878  -56.0296929
H    39.6172856  31.6007489  -54.6824686
H    37.42560700000001  35.7742468  -57.776178800000004
H    37.74677560000001  34.5971943  -60.4239798
H    35.5166325  35.140129  -60.030951800000004
H    36.099209  36.5240623  -60.9665778
H    34.819967600000005  35.5555859  -57.4170846
H    34.237661900000006  37.6240972  -56.1359652
H    36.7584335  39.0386216  -60.6561553
H    34.7073516  40.4012494  -56.3144346
H    36.559004300000005  41.4144345  -60.0314654
H    35.5716941  42.0886038  -57.905119
H    39.5503732  36.8589345  -58.7026574
H    40.065679800000005  38.7125945  -60.8707851
H    42.0508144  39.3092818  -59.353226500000005
H    41.4624801  38.0880964  -58.2207208
H    39.5155498  38.6999977  -56.7413983
H    40.3435677  41.6679329  -59.579402800000004
H    38.1986915  40.8317598  -56.1354662
H    42.012865700000006  38.9660669  -61.9709085
H    43.653987300000004  36.5518217  -62.3223486
H    43.9627974  38.2524047  -64.6145939
H    43.2069534  36.3045855  -65.8959804
H    42.54317  35.5674531  -64.4294718
H    44.285748700000006  35.8030519  -64.5938769
H    41.7934624  39.2855303  -64.2322192
H    41.0137938  37.701003  -64.0804237
H    41.7010032  38.2139117  -65.6250406
H    45.9043037  37.3626079  -63.4196475
H    46.72757490000001  39.883432  -62.1683848
O    48.9424344  39.8637836  -63.555213
H    47.26264930000001  38.4254717  -60.4094003
H    48.7910327  38.6662519  -61.2993019
H    49.183251000000006  35.1968378  -61.7766467
H    49.887045  36.7845689  -61.7926771
