62

C    -3.169  -1.801  13.034
C    -4.5084648000000005  0.1677398  15.961470600000002
C    -4.1115609  -1.2601925  14.061620800000002
C    -5.4172376  -1.685084  14.132825200000001
C    -6.2806417  -1.1918205  15.117110400000001
C    -5.8314614  -0.2728935  16.0326938
N    -3.6855076  -0.34525469999999997  14.9779066
N    -3.8245825  1.0444719  16.695289900000002
N    -2.4859033000000004  0.21664860000000002  15.1020117
O    8.577358400000001  0.9133163  14.8713616
C    -2.5922678  1.0458961  16.149064000000003
C    -0.27846110000000013  1.7489066  16.1263188
C    0.6338355999999998  2.7769111000000004  16.4642154
C    1.9031671  2.7687825999999998  15.9557301
C    2.2941702999999998  1.7305973000000001  15.109486
C    1.4007097999999998  0.6851475  14.773589500000002
C    0.10739589999999982  0.7080935  15.3099523
C    3.4736711999999996  1.4138346  14.434185200000002
C    5.879186499999999  1.5445276000000001  14.0498857
O    -1.1979461000000002  -5.586073600000001  13.5458969
C    -3.1946886  -4.2068939  13.8249931
C    -2.307103  -5.3105559  14.3933756
C    -0.3787674000000002  -4.4470482  13.3469004
C    -1.1726556000000001  -3.3154024  12.7021662
C    -2.344347  -2.95911  13.615061100000002
N    -1.5740284000000002  1.8048403000000002  16.631818300000003
N    1.9907251  -0.1948971  13.953289900000001
N    3.2429973999999997  0.2713643  13.771146100000001
N    4.6141099  2.1472388999999996  14.417403600000002
C    6.9762561  2.611276  14.141789000000001
C    8.3545298  1.9712615999999998  13.9451043
C    7.6412338  -0.1339458  14.681912
C    6.2240464  0.3601928  14.9725657
H    -2.4806134  -1.0072326  12.736092600000001
H    -3.7290457000000004  -2.1402019  12.164868900000002
H    -5.7708824000000005  -2.3990802  13.409469900000001
H    -7.3007761  -1.5365555  15.1580229
H    -6.4666365  0.1303088  16.8029945
H    0.3097477999999998  3.5716411  17.1190195
H    2.5942773  3.5603708000000003  16.2088495
H    -0.5608560000000001  -0.0925424  15.064821400000001
H    5.8040163  1.1912149  13.014472900000001
H    -4.0138616  -4.0138543  14.517888800000001
H    -3.6063953  -4.5362161  12.8697078
H    -1.9394591  -5.0176931  15.388537900000001
H    -2.8446055  -6.2566582  14.475146400000002
H    0.4341183999999998  -4.7852864  12.702930100000001
H    0.03647909999999982  -4.1142908  14.3091442
H    -1.5439737000000002  -3.6429139  11.7303058
H    -0.5202711000000002  -2.4528663999999996  12.5650977
H    -1.9371055000000004  -2.635433  14.580833300000002
H    -1.8089247000000004  2.4807886999999997  17.3407065
H    3.8527484  -0.22414689999999998  13.141714400000001
H    4.6702872  2.8100325  15.176489400000001
H    6.9470159  3.0657984999999996  15.133848400000002
H    6.8175267999999996  3.3848402  13.3931856
H    8.449093300000001  1.5826603  12.9213745
H    9.1495015  2.6936731  14.1309617
H    7.9339104  -0.9219893  15.377001900000002
H    7.7121214  -0.5129657999999999  13.652416500000001
H    5.5151699  -0.45630079999999995  14.846325400000001
H    6.180187399999999  0.6976776  16.0104569
