25

C    14.117  36.904  18.066
C    14.3206907  36.033952500000005  19.1213955
O    14.226586600000001  37.74118510000001  21.113208699999998
S    15.0794666  36.663366200000006  20.634082099999997
O    15.2338026  35.55058660000001  21.5667302
N    16.6002967  37.309200000000004  20.336027599999998
C    13.8516774  34.728661800000005  19.074967899999997
C    13.194957  34.270942100000006  17.935578399999997
C    12.9820243  35.13989800000001  16.866922
C    13.452655700000001  36.449583800000006  16.9331587
S    12.158512400000001  34.56668580000001  15.364392699999998
C    10.511779800000001  35.389160600000004  15.416468199999999
C    10.045007700000001  35.76321980000001  14.009390299999998
O    8.6342784  35.71975940000001  14.001771599999998
H    14.4785894  37.91608730000001  18.130831899999997
H    16.7038055  38.198601800000006  20.798421499999996
H    17.315267900000002  36.649726400000006  20.6010675
H    14.019733  34.084348600000006  19.9225398
H    12.8390768  33.255164900000004  17.881510199999997
H    13.295716200000001  37.11380690000001  16.0976029
H    10.5846757  36.25545  16.0693363
H    9.806786200000001  34.67185200000001  15.836474099999998
H    10.452402300000001  35.032675600000005  13.2963025
H    10.410143300000001  36.76058390000001  13.738074999999998
H    8.3119337  35.95201470000001  13.120500199999999
