67

C    -6.497  8.476  27.106
C    -1.8267508999999997  11.121985500000001  30.1035391
C    -6.593883999999999  8.153968200000001  28.4471007
C    -5.3968437  8.0519978  26.3821373
C    -2.0388632999999996  10.6000741  28.8408681
C    -1.7433150999999998  10.268524800000002  31.1895221
C    -5.598553  7.418897300000001  29.0653353
C    -4.406054299999999  7.315648  27.0004742
C    -2.1671417999999996  9.234486200000001  28.665265599999998
C    -1.8805542999999998  8.9045091  31.014046999999998
C    -2.5617935999999997  -0.12980729999999951  38.2858439
C    -1.0368395999999998  1.5925684000000007  38.9175223
C    -2.4907985  0.27509900000000087  36.9688347
C    -0.9556645999999995  2.0039557000000006  37.6064862
C    -4.4901648  6.994025000000001  28.3502199
C    -2.0974161  8.373799300000002  29.7492162
C    -1.8332186999999998  0.5159403000000005  39.2695596
C    -1.6797879999999996  1.3493802000000006  36.6167512
C    -3.2537372999999996  -0.02111549999999962  42.6976919
C    -3.5915513  4.196949600000001  31.8279657
C    -3.5439765  1.3090092000000007  34.0872368
C    -1.3274228999999997  1.4007302000000004  32.9985248
C    -3.7615866999999996  2.7704772000000006  33.7488906
C    -1.6522086999999996  2.8066595000000003  32.490293199999996
C    -3.3916486  6.208371700000001  28.9563417
C    -2.2057018999999998  6.9017257  29.5893797
C    -3.1742470999999997  6.1532923  30.4459665
C    -2.0515801999999996  1.0486515000000005  34.2906498
C    -1.9225476999999997  0.08099090000000064  40.6864096
C    -3.3579118999999995  0.18838450000000062  41.1821636
N    -3.0662868  3.1389807000000003  32.529069
N    -2.7378188999999997  4.958729000000001  31.093920400000002
O    -2.7496471  -1.1010703999999993  43.0762701
O    -3.6502488  0.9241142000000004  43.4127398
O    -4.799345199999999  4.447760400000001  31.854292
O    -1.5140414999999998  1.8328519000000005  35.3482065
H    -7.2758775  9.0499793  26.6279902
H    -1.7236786999999998  12.1876425  30.2426108
H    -7.4542526  8.469851  29.0183522
H    -5.3144083  8.292263  25.3328219
H    -2.1025387999999996  11.258028200000002  27.9873533
H    -1.5739135999999998  10.667116400000001  32.1789402
H    -5.707582  7.1501546000000005  30.105649800000002
H    -3.555655  6.9725467000000005  26.4280524
H    -2.3256777  8.834202600000001  27.67616
H    -1.8205760999999998  8.2427277  31.8656006
H    -3.1812216999999996  -0.9734847999999996  38.5508753
H    -0.47010919999999956  2.1055661000000008  39.6802
H    -3.0644039999999997  -0.27091949999999976  36.2392607
H    -0.33295499999999967  2.8365145000000007  37.3198246
H    -3.9054284999999997  0.6772201000000004  33.2758479
H    -4.113050299999999  1.0825373000000007  34.9880976
H    -0.25077769999999955  1.3347410000000006  33.1507961
H    -1.6235013999999997  0.6641547000000005  32.2511209
H    -3.3914036  3.386448100000001  34.5826428
H    -4.820423699999999  2.989237900000001  33.5983135
H    -1.3059117999999996  2.8674786000000005  31.4573797
H    -1.0894086999999997  3.5247567000000006  33.1067717
H    -3.1453971999999997  5.309500900000001  28.401452499999998
H    -1.2466972999999997  6.419313800000001  29.423389
H    -3.8544121  6.7257769000000005  31.0649894
H    -1.8721773999999998  -0.012491299999999761  34.5105346
H    -1.2878230999999998  0.7057156000000004  41.3217152
H    -1.5986169999999997  -0.955027799999999  40.820243500000004
H    -3.7810965999999997  1.1744450000000004  40.9855963
H    -3.9908411  -0.5835959999999991  40.7441087
H    -1.7517627999999996  4.7550243000000005  31.0724502
