63

C    12.903999999999998  11.467  5.744
C    11.747908799999998  12.208504099999999  5.4921029
C    11.884856199999998  13.3883075  4.7868773
N    13.056539399999998  13.816859299999999  4.3616354
N    14.078891199999997  11.9172779  5.305384699999999
C    21.976403299999998  10.3001759  5.6003359999999995
S    21.563124199999997  11.550962199999999  4.3954816999999995
O    22.5703586  11.5764201  3.3574704
O    21.3042844  12.8276209  5.0270446
O    20.245795599999997  11.023551  3.7199739999999997
C    19.0427827  11.7150576  3.8771818
C    18.8073427  12.9220243  3.2084707999999997
C    19.854796699999998  13.583396  2.3564184999999997
C    17.560403299999997  13.519811  3.3393390999999997
C    18.051905899999998  11.121426099999999  4.660541
C    18.267410599999998  9.8255644  5.3951679
C    16.8202103  11.748752399999999  4.7681629999999995
C    16.551858  12.9399572  4.1066611
N    15.314234599999999  13.5657245  4.1724013
C    14.142436899999998  13.066192  4.624221
F    10.516982799999997  11.820805199999999  5.9183656
N    12.908461999999998  10.3053419  6.4657373
C    14.051117799999998  9.6367587  6.793582499999999
C    11.840648199999999  9.6430291  7.0224086
C    12.305767799999998  8.560014299999999  7.696614
C    11.492781299999999  7.5549687  8.4365322
C    13.724507999999998  8.5552891  7.5483115
C    14.670427499999999  7.5432849  8.098068099999999
N    15.207430899999999  7.958101599999999  9.4147907
C    16.1072547  9.130286  9.3294173
C    15.976424499999998  6.8446184  10.0499026
C    17.4022021  7.3540653  10.1986129
C    17.2176728  8.8636158  10.35671
O    18.3976036  9.537018999999999  10.0049789
H    11.0282539  14.007729399999999  4.564251
H    22.982707299999998  10.515942899999999  5.9290235
H    21.927125699999998  9.3461422  5.0959874
H    21.269070199999998  10.379527  6.4129642
H    19.4170269  14.363375399999999  1.7417521999999996
H    20.349696299999998  12.8496642  1.7200324
H    20.6228129  14.0188105  2.9969292999999997
H    17.3740907  14.4474477  2.8208499
H    17.357764999999997  9.2345465  5.356952
H    18.521068699999997  10.0297039  6.4335119999999995
H    19.076826599999997  9.2652424  4.9389406
H    16.045372999999998  11.306701799999999  5.3626088
H    15.214263999999998  14.4379665  3.6688796999999997
H    14.997667299999998  9.9877626  6.4430148
H    10.826789199999999  9.9576425  6.9046947
H    10.435163999999999  7.767638  8.308605199999999
H    11.7134887  7.5713763  9.5020191
H    11.686195499999998  6.5523196  8.0600577
H    15.509996399999999  7.3944161  7.4190347
H    14.136067899999999  6.6010953  8.2274462
H    14.408183099999999  8.1961264  10.0071814
H    15.562129699999998  10.056429399999999  9.4952541
H    16.574105999999997  9.1621237  8.3445913
H    15.9310596  5.9504874  9.4335846
H    15.550424699999999  6.6181503  11.026332
H    17.999015399999998  7.179006299999999  9.3048378
H    17.9184187  6.9089081  11.044132900000001
H    16.901878999999997  9.1170651  11.375074999999999
H    18.3794695  10.4494393  10.3183683
