66

C    -5.738  -0.30799999999999983  11.399
N    -6.1739099  -1.0741607999999996  14.9191711
C    -5.3643203  -0.5551407999999998  12.7195778
N    -4.576086800000001  -0.06349219999999978  10.7161721
C    -3.5657548000000006  -0.20710279999999948  11.6316422
C    -2.1112932000000004  -9.925252  13.7304698
N    -0.8912516000000004  -9.198683599999999  13.4807152
C    0.03883869999999945  -9.366357399999998  14.447623199999999
O    1.1261749999999995  -8.8067907  14.5094026
N    -0.42627460000000017  -10.2942237  15.316638099999999
C    -1.8009574000000004  -10.6489821  15.0691544
C    -2.7194886  -10.1266752  16.1773763
S    -3.2396261  -8.4757009  15.6555138
C    -3.3333867  -9.0131793  13.9184858
C    -3.4130337  -7.827168599999999  12.9675184
C    -3.6170853000000003  -8.2994069  11.5287094
C    -3.8974525000000004  -7.129336799999999  10.5899636
C    -4.053991900000001  -7.5922301  9.135155
C    -4.4353328  -6.416522  8.274179199999999
O    -5.4935665  -5.825512999999999  8.3851591
N    -3.5053569  -5.991331  7.3787213000000005
S    -3.9566548000000004  -4.856336499999999  6.2252965
O    -5.1720024  -5.269404399999999  5.5923061
O    -2.8239061000000003  -4.7230995  5.3559091
N    -4.2272197  -3.4754529999999995  7.009794599999999
C    -3.1371591000000003  -2.7451529999999993  7.616180099999999
C    -3.5407961000000006  -1.2806254999999998  7.740225499999999
O    -4.6277931  -1.1006680999999996  8.6411519
C    -2.4115901000000006  -0.38750329999999966  8.2747057
O    -1.4841997000000005  -0.04972269999999934  7.2967103
C    -3.2229360000000002  0.7960233000000008  8.8199753
C    -4.5263613000000005  0.15570710000000076  9.2987121
N    -3.9966336000000005  -0.4819936999999994  12.8269368
N    -6.9998834  -0.30250799999999956  10.9536988
C    -7.8970527  -0.5714871999999995  11.8893524
N    -7.6731071  -0.8238748999999994  13.1691561
C    -6.408022300000001  -0.8233489999999994  13.6313674
F    -3.5282281  1.5954979000000007  7.7323012
H    -6.9472466  -1.2670156999999995  15.532245
H    -5.225050100000001  -1.0765709999999995  15.2503972
H    -2.5314031000000004  -0.08767569999999925  11.3863128
H    -2.3051027000000004  -10.6359587  12.9195987
H    -0.7676781000000004  -8.5628545  12.7152949
H    0.02907639999999967  -10.4758487  16.1929183
H    -1.9000271000000004  -11.7363264  14.9862718
H    -2.2074036  -10.0420172  17.1316923
H    -3.6068799000000005  -10.7499402  16.2900699
H    -4.2408847000000005  -9.6182831  13.8289032
H    -2.5165133000000006  -7.213852899999999  13.0593444
H    -4.2610498  -7.2093875999999995  13.2699716
H    -4.4601755  -8.9914071  11.4965431
H    -2.7318319000000004  -8.8341077  11.1825556
H    -3.0802037  -6.408295799999999  10.652642
H    -4.813020900000001  -6.6198405  10.894905
H    -4.8689258  -8.3158205  9.0816674
H    -3.1356660000000005  -8.0556078  8.780993200000001
H    -2.6544393000000004  -6.507949  7.2132998
H    -5.0847371  -3.4963203999999997  7.5425716000000005
H    -2.2836200000000004  -2.8288383999999995  6.9429652
H    -2.8824587000000004  -3.1430933999999997  8.6051184
H    -3.8474675000000005  -0.9220341999999997  6.7468197
H    -1.8618471000000003  -0.8853517999999996  9.0765663
H    -1.8920690000000004  0.5094493000000009  6.6173741999999995
H    -2.7268786000000005  1.4375601000000007  9.5471845
H    -5.3982774000000004  0.7664803000000004  9.0288957
H    -8.9287971  -0.5818274999999997  11.5716506
