58

C    33.888  62.738  50.565
C    34.893109599999995  63.325288900000004  49.815768399999996
C    35.7672476  62.541516  49.077741499999995
C    33.77451249999999  61.358864000000004  50.565278
C    34.65049509999999  60.5784566  49.827486799999996
C    35.6631593  61.154332600000004  49.067583799999994
C    36.641263599999995  60.282586  48.30559889999999
C    36.396581499999996  61.6573632  42.7850803
C    36.4554036  61.162524700000006  44.0765173
C    37.6685684  61.0975783  44.751354299999996
C    38.8226654  61.5545731  44.123582899999995
C    38.764461399999995  62.0564636  42.836800499999995
C    37.557032899999996  62.1029221  42.166778199999996
C    37.803288099999996  60.582154200000005  46.140960899999996
N    32.2161828  60.169777700000004  43.569534399999995
C    32.632591399999995  58.7705098  43.667065799999996
C    33.3701118  58.455753  42.365476599999994
C    34.372800399999996  59.477839200000005  41.9278432
N    34.112264999999994  60.7776623  42.350633699999996
C    32.8945734  61.0983408  42.912121
N    32.4032997  62.3145545  42.78395569999999
O    35.310801  59.2064826  41.2115041
C    35.1050214  61.7929274  42.018098699999996
C    33.551319899999996  58.5625261  44.90452809999999
C    31.362520399999994  57.929312700000004  43.684064199999995
C    32.950895599999996  59.0685303  46.216435399999995
C    34.003457299999994  57.1129215  45.0847615
O    38.9116138  60.2625122  46.5714408
N    36.664575  60.5185169  46.86914349999999
H    33.2106624  63.3447197  51.145343399999994
H    35.006866699999996  64.3988763  49.807441399999995
H    36.553141  63.0158993  48.5058954
H    33.0014317  60.8810889  51.1482234
H    34.54685489999999  59.503176100000005  49.8515447
H    36.3960521  59.2295042  48.4878096
H    37.6605503  60.448051500000005  48.674443399999994
H    35.55009389999999  60.809661500000004  44.544015599999994
H    39.7574749  61.4975593  44.660973199999994
H    39.6655903  62.4050266  42.356599499999994
H    37.52074579999999  62.4855528  41.1587208
H    31.312334399999997  60.401046300000004  43.9617082
H    32.643543599999994  58.3773706  41.548758899999996
H    33.87442899999999  57.4928661  42.410260799999996
H    31.523012499999997  62.5542177  43.2164941
H    32.836930499999994  63.0153483  42.20447849999999
H    35.3290988  61.7184569  40.950214499999994
H    34.7115635  62.786867900000004  42.227489
H    34.4595206  59.142786900000004  44.705309099999994
H    31.610664099999994  56.8755484  43.6101038
H    30.726510499999996  58.1859947  42.841782099999996
H    30.803800499999994  58.0802154  44.6039762
H    33.6831232  58.958386000000004  47.0117244
H    32.07359159999999  58.490464100000004  46.493108299999996
H    32.67772599999999  60.118571700000004  46.157013899999995
H    34.5017691  56.7205031  44.2032757
H    33.165241099999996  56.4667277  45.3314853
H    34.715009599999995  57.0625913  45.9055446
H    35.8275673  60.936155500000005  46.4906206
