29

C    -16.845  -11.419  72.396
C    -17.147504599999998  -12.3736173  71.44319039999999
C    -16.7520374  -10.1039683  71.9651949
C    -17.3621329  -11.9765788  70.1292409
C    -17.2740191  -10.6132873  69.7844999
C    -18.810719199999998  -10.3557908  66.4590149
C    -16.7894807  -8.9496267  66.5098088
C    -18.8677808  -10.2620365  67.9782708
C    -16.882645399999998  -8.9510731  68.0376522
C    -17.678328099999998  -13.0456097  69.1365038
N    -16.9509951  -9.7141538  70.7157287
N    -18.117648499999998  -9.1727667  65.8924523
N    -17.4954776  -10.200305499999999  68.4744511
F    -17.2089416  -14.2366535  69.5420987
F    -19.009143899999998  -13.227683899999999  68.9416289
F    -17.1967268  -12.8484193  67.8978595
H    -16.680118099999998  -11.6837987  73.42525169999999
H    -17.210734  -13.4177548  71.7085306
H    -16.5067345  -9.3067571  72.6530642
H    -19.817982999999998  -10.4237056  66.05085799999999
H    -18.2500726  -11.2512482  66.186069
H    -16.131182  -9.7643039  66.2040215
H    -16.375294099999998  -8.0021788  66.17126879999999
H    -19.393149899999997  -11.124634799999999  68.3773653
H    -19.4180755  -9.3645772  68.29375
H    -17.4564012  -8.086474599999999  68.3947976
H    -15.883329699999999  -8.8859798  68.4635638
H    -18.701987799999998  -8.3425589  66.0604046
H    -18.013215199999998  -9.2845871  64.8778398
