55

O    18.207  24.372  7.030000000000001
C    17.6942407  23.6832514  7.896964800000001
N    18.216302300000002  23.6442991  9.1647472
C    17.725617900000003  22.9035566  10.2324649
O    18.2725991  22.9461951  11.324014600000002
C    16.5633157  22.122682  9.918059300000001
C    16.0396955  22.1533863  8.6742457
N    16.581990400000002  22.8963222  7.660540400000001
C    15.970157200000003  22.930306  6.299801
O    14.746229800000002  22.2439749  6.240777700000001
C    16.8958456  22.2807011  5.240909100000001
O    16.7096483  22.8546631  3.9777478000000013
C    16.3646013  20.8438901  5.230219600000001
O    16.6656829  20.194019400000002  4.034154100000001
C    14.857277000000002  21.0518413  5.4416384
C    14.277556800000001  19.7807378  6.0782936
N    12.859466200000002  19.8206597  6.368144600000001
C    12.400477000000002  20.1513385  7.582093100000001
O    13.122343300000002  20.4425086  8.5246794
C    10.874854300000003  20.0569841  7.7598099000000005
C    10.531625500000002  18.6330386  8.2625331
O    9.224701900000003  18.5480929  8.767555100000001
N    10.425385100000002  21.0407794  8.711043600000002
C    10.530936600000002  21.052802200000002  10.0507249
N    9.810434700000002  22.1302197  8.292746300000001
N    9.515891900000002  22.8606202  9.299478200000001
C    9.937721100000001  22.2358489  10.4118697
C    9.764615900000003  22.766920900000002  11.725861400000001
C    10.157012000000002  24.0704475  11.9840297
C    9.993611100000003  24.5803984  13.256180100000002
C    9.433918300000002  23.7920689  14.250308100000002
C    9.038667600000002  22.490550300000002  13.980547900000001
C    9.207869800000001  21.9690559  12.713446000000001
H    19.031582800000002  24.2274006  9.326820000000001
H    16.1160044  21.5335083  10.697498300000001
H    15.138216800000002  21.6128861  8.4189082
H    15.796450700000001  23.9880588  6.0677631000000005
H    17.9436763  22.3264635  5.549651600000001
H    17.2844602  23.6243212  3.871989900000001
H    16.790115  20.3217761  6.097784100000001
H    16.6046404  19.235009  4.144496800000001
H    14.381199400000002  21.2567145  4.475508000000001
H    14.784157900000002  19.591217  7.028777000000001
H    14.459876800000002  18.9592019  5.3861588000000005
H    12.220221700000002  19.7183934  5.594145000000001
H    10.353043300000001  20.2879317  6.827348800000001
H    11.190908400000001  18.380744  9.0968914
H    10.701480000000002  17.917778600000002  7.452585500000001
H    8.584833800000002  18.5700694  8.042463000000001
H    11.005963000000001  20.2849355  10.619316000000001
H    10.581135100000001  24.6646688  11.189996800000001
H    10.297772300000002  25.5921355  13.4789445
H    9.302593800000002  24.1960818  15.2428766
H    8.599712300000002  21.888388900000002  14.761785900000001
H    8.904577900000001  20.959489700000002  12.480742900000001
