75

C    46.25800000000001  -21.483  30.472
C    44.526131500000005  -21.920865300000003  32.0717661
C    45.463202100000004  -22.2654737  33.0141987
C    46.830086400000006  -22.2337603  32.7085116
C    48.654937800000006  -21.7329909  31.1798198
C    49.55200490000001  -22.0415876  32.1655998
C    49.133387000000006  -22.4303013  33.4850455
C    44.90766000000001  -21.5358786  30.773663000000003
C    38.94585380000001  -15.021261  25.092458800000003
C    35.815279600000004  -13.792697800000001  27.884089200000002
N    39.83990250000001  -24.59421  28.0916374
C    39.440613000000006  -24.6672151  26.6935049
C    40.357936300000006  -25.6108167  25.9110201
N    40.416306600000006  -26.936025200000003  26.5571768
C    40.911348200000006  -26.7835684  27.936266200000002
C    39.96071990000001  -25.904003000000003  28.722250000000003
C    41.81776070000001  -21.0061737  29.1562237
N    42.576298400000006  -20.8033396  28.044288700000003
C    43.87552360000001  -20.9426145  28.444536
C    43.86195670000001  -21.2349591  29.7987678
N    42.552867500000005  -21.2612968  30.1981447
C    47.233165500000005  -21.8227316  31.423461800000002
Cl    45.13145240000001  -20.732515900000003  27.2949391
N    47.773498200000006  -22.549109400000003  33.6523938
O    49.88909410000001  -22.6182629  34.4474188
O    49.09183060000001  -21.3047547  29.985101800000002
C    40.32770250000001  -21.0320432  29.1692834
C    36.95407590000001  -13.981744500000001  27.1207046
C    35.470733700000004  -14.743188100000001  28.8331381
C    36.27044680000001  -15.853276800000002  29.0428256
C    37.42456500000001  -16.053878  28.286911800000002
C    37.74561750000001  -15.114337200000001  27.2918996
N    38.82548640000001  -15.330354700000001  26.40822
Cl    34.01856600000001  -14.5361559  29.7694015
N    40.17005770000001  -15.281403400000002  24.7118107
N    40.798343700000004  -15.750376500000002  25.7906586
N    40.023422800000006  -15.792569  26.7943979
C    38.228490400000005  -17.2608933  28.4929917
C    38.65524510000001  -17.6954889  29.6784062
C    39.47605670000001  -18.9060674  29.9398078
O    39.84040540000001  -19.176276700000003  31.0824055
N    39.771103200000006  -19.7176268  28.897251
C    39.800684800000006  -22.1222962  28.226508900000002
C    39.967782400000004  -23.4978312  28.8744667
O    40.18386600000001  -23.620357600000002  30.074100700000002
C    41.269415200000005  -27.8629271  25.8116007
H    46.55071660000001  -21.1769764  29.4795573
H    43.47355040000001  -21.9425399  32.3012645
H    45.152522000000005  -22.561085600000002  34.0039935
H    50.60960060000001  -21.946056300000002  31.9850724
H    38.16356110000001  -14.6410215  24.4734969
H    35.20245310000001  -12.919694100000001  27.736617000000003
H    39.4681149  -23.683000500000002  26.234831500000002
H    38.40722420000001  -25.030999400000002  26.647983500000002
H    41.37099380000001  -25.206568400000002  25.8769113
H    39.9817164  -25.7131565  24.893053700000003
H    39.46374680000001  -27.3209674  26.5970766
H    41.90463390000001  -26.333209800000002  27.905212900000002
H    40.98334800000001  -27.759673900000003  28.4158522
H    38.96887530000001  -26.365324700000002  28.788485100000003
H    40.32820100000001  -25.747024600000003  29.7373429
H    42.28599440000001  -20.516908  27.1212348
H    47.45723890000001  -22.804773500000003  34.5809275
H    48.358524900000006  -21.1035122  29.383985900000003
H    40.056205500000004  -21.2842582  30.2037592
H    37.224536300000004  -13.2463893  26.3792733
H    36.0003639  -16.5835514  29.787673700000003
H    38.5367863  -17.7525294  27.5800142
H    38.40529780000001  -17.1615381  30.583868900000002
H    39.44602030000001  -19.5013674  27.969765000000002
H    40.32675290000001  -22.077764700000003  27.2745268
H    38.73292120000001  -21.9638637  28.0602823
H    40.904394100000005  -27.9823084  24.7940817
H    41.28060860000001  -28.8370588  26.2936956
H    42.287047900000005  -27.481605100000003  25.774693300000003
