29

C    9.8  9.91  24.254
C    10.774345700000001  9.6020044  23.3014084
C    9.665658400000002  9.2337339  25.475763
N    7.921143600000001  11.2882182  24.9081426
C    8.697667800000001  9.6057056  26.4138565
C    8.875807600000002  8.714852800000001  27.530052700000002
C    8.2347742  8.5714403  28.7525354
C    8.6529518  7.5773645  29.616763300000002
C    9.7046217  6.7230983  29.289723600000002
C    10.3444607  6.861810200000001  28.0777037
C    9.9456705  7.8467901  27.190988700000002
C    7.828487800000001  10.6681559  26.059797
C    6.736783400000001  11.241883900000001  26.9418456
I    11.947564300000002  5.585617600000001  27.587347100000002
N    10.400438900000001  8.1830365  25.945977
O    5.831051200000001  11.8750164  26.354612200000002
O    6.842240600000001  11.094094  28.178790900000003
C    8.871499600000002  10.9505321  24.011944
C    10.8289863  10.3078379  22.1315755
C    9.9192771  11.3418992  21.883787400000003
C    8.954557300000001  11.6601015  22.802059200000002
H    11.481417700000002  8.8084761  23.4890353
H    7.434340000000001  9.2474314  29.0091846
H    8.162975600000001  7.4577633  30.569797
H    10.0158745  5.9583202  29.982746600000002
H    11.1609385  7.7361733  25.459095700000002
H    11.580151100000002  10.075167500000001  21.392743600000003
H    9.979620100000002  11.8898603  20.9564148
H    8.240543  12.4505275  22.6382549
