91

N    53.244  -2.914  -22.433
C    54.2841253  -2.2120010000000003  -21.6287768
C    54.7323972  -3.139396  -20.4834907
O    54.144530700000004  -4.1965685  -20.2727772
C    53.7324369  -0.9029341000000004  -21.0550471
C    52.5833122  -1.1239407000000003  -20.0813027
C    52.2670399  0.1514023  -19.2576489
O    51.084425  0.29225879999999993  -18.8836857
O    53.2068602  0.9298972999999995  -19.0093929
N    55.8106049  -2.7657259  -19.7987247
C    56.2899766  -3.6382045  -18.744063099999998
C    55.4499602  -3.3748147  -17.5000184
O    55.333427900000004  -2.2389471000000003  -17.0541451
C    57.7681253  -3.3915263  -18.4382178
C    58.3249073  -4.3671059  -17.3986812
C    58.480268  -5.816726  -17.8813995
N    58.991831000000005  -6.6351759  -16.7993311
C    58.2590501  -7.2888811  -15.9004824
N    56.939830900000004  -7.3882183  -15.9949795
N    58.8862674  -7.9198075  -14.9161738
N    54.8994116  -4.4526383  -16.9222657
C    54.1948276  -4.320945200000001  -15.6631894
C    53.9841801  -5.6750468000000005  -14.992428
O    54.101772600000004  -6.7326647  -15.6027041
N    53.671135  -5.598222  -13.6950979
C    53.528209700000005  -6.7631749  -12.834577399999999
C    52.3090878  -6.5245342  -11.9594569
O    52.1371534  -5.4289747  -11.4408359
C    54.7515463  -6.9385299  -11.9067905
O    55.943559900000004  -7.201882100000001  -12.6024767
N    51.4539507  -7.5379674  -11.839368499999999
C    50.319238  -7.4634611  -10.9512319
C    50.394340400000004  -8.628561900000001  -9.9706865
O    50.8015388  -9.7330725  -10.3434852
N    50.073677100000005  -8.3358266  -8.713977199999999
C    49.956064500000004  -9.338465  -7.67144
C    48.6296983  -9.114414400000001  -6.8877823
O    48.5200759  -9.7353096  -5.818945099999999
C    51.0803364  -9.2765138  -6.637699199999999
C    52.4813198  -9.5014221  -7.183469
C    52.6849164  -10.9254633  -7.7107566
N    54.0369839  -11.1530144  -8.1898784
C    54.414324400000005  -11.0291544  -9.4606539
N    53.566735800000004  -10.6189841  -10.3924135
N    55.675538100000004  -11.2682809  -9.8100342
O    47.8211737  -8.3226479  -7.4054085999999995
H    52.3976515  -2.3416207  -22.516654799999998
H    53.0142992  -3.7741937  -21.8879274
H    53.5744494  -3.1856  -23.3656815
H    55.1492878  -1.9853861999999998  -22.256137
H    53.4020269  -0.24768780000000046  -21.8625042
H    54.5047323  -0.35694289999999995  -20.5100272
H    52.845303900000005  -1.8768994  -19.331887899999998
H    51.646492800000004  -1.4200593000000001  -20.5535769
H    56.1671355  -1.8231720999999999  -19.8439873
H    56.123801400000005  -4.6594633000000005  -19.0997473
H    57.8649308  -2.3743326000000002  -18.0535793
H    58.337518200000005  -3.4668762  -19.3650156
H    57.6819085  -4.3435166  -16.5165341
H    59.306130100000004  -3.9987373  -17.096110499999998
H    59.193760600000005  -5.8561102  -18.7051729
H    57.5347586  -6.2226099  -18.2362409
H    59.9832441  -6.5645142000000005  -16.6281438
H    56.401849  -7.8356352000000005  -15.274347299999999
H    56.4078892  -6.8569295  -16.6606972
H    59.8845876  -7.8655353  -14.813614
H    58.3631514  -8.357798500000001  -14.1781075
H    54.7613107  -5.3232543  -17.418794899999998
H    53.210970200000006  -3.8529437  -15.8099604
H    54.7717565  -3.6508116000000004  -15.0207347
H    53.5413652  -4.7066141  -13.2378798
H    53.403128  -7.6301939  -13.4897647
H    54.528192600000004  -7.7349926  -11.1875317
H    54.912298400000005  -6.0086919000000005  -11.3569193
H    55.836462600000004  -8.060072  -13.04009
H    51.628916100000005  -8.4495968  -12.240152799999999
H    49.3827584  -7.5439776  -11.5134091
H    50.343955900000005  -6.5034301  -10.4351944
H    49.5622582  -7.4855284  -8.510812399999999
H    49.9023611  -10.3262538  -8.1400659
H    50.8316016  -10.013187  -5.8718588
H    51.0319402  -8.2936463  -6.1600738999999995
H    53.1928385  -9.3075998  -6.379935799999999
H    52.6678214  -8.781924400000001  -7.9836768
H    51.968437800000004  -11.1342061  -8.5040905
H    52.4899483  -11.630524000000001  -6.899449799999999
H    54.7384883  -11.328716100000001  -7.4872989
H    53.8238051  -10.7132528  -11.3604465
H    52.5911589  -10.4232424  -10.2075675
H    56.3347362  -11.6230738  -9.1383107
H    55.9373692  -11.2926942  -10.7801681
