198

N    -14.895  -3.5809999999999995  76.438
C    -16.055726399999998  -2.8117094  76.9131625
C    -15.8035648  -1.3479741999999995  77.2637478
C    -16.7269402  -3.557067299999999  78.1001184
O    -16.592026699999998  -3.1767518  79.25537220000001
N    -17.446359  -4.648474299999999  77.7647711
C    -17.9752627  -4.855367299999999  76.4287176
C    -17.893912999999998  -5.5906082  78.7885864
C    -19.4159005  -5.564563799999999  78.9811152
C    -19.9542853  -5.287189199999999  80.4001928
C    -21.1531426  -6.1996445  80.6689159
C    -18.9311541  -5.4029921  81.5287686
C    -17.494258199999997  -7.025551699999999  78.3809064
O    -18.3029257  -7.767532299999999  77.79438350000001
N    -16.2508581  -7.4157324  78.71448240000001
C    -15.2811366  -6.54306  79.3473206
C    -15.7852634  -8.7542403  78.349894
C    -14.6319354  -8.7047701  77.3501461
C    -14.952967  -7.957991399999999  76.0631041
C    -13.687143599999999  -7.861986099999999  75.2145218
C    -16.089367499999998  -8.6270613  75.29365630000001
C    -15.282395  -9.5547846  79.5599423
O    -14.0685098  -9.8338971  79.66557780000001
N    -16.2050447  -9.941175999999999  80.4541955
C    -17.6339385  -9.943725299999999  80.1830249
C    -15.767624999999999  -10.522112499999999  81.7254678
C    -16.4108986  -9.8003126  82.9221737
C    -15.8545026  -10.3393032  84.2394324
C    -16.1580075  -8.2979547  82.83587820000001
C    -16.0748349  -12.0274499  81.7670513
O    -17.2384642  -12.4271123  81.9734246
N    -15.046831399999999  -12.8777344  81.5681098
C    -15.370653599999999  -14.297515099999998  81.55105400000001
C    -13.6553715  -12.4882841  81.32646
C    -13.0645075  -13.188372  80.1034198
O    -12.7429892  -14.3716251  80.12593580000001
C    -12.7741396  -12.811888  82.562098
O    -13.333938  -12.242853799999999  83.7214574
C    -11.319796499999999  -12.32204  82.404601
C    -10.4416043  -13.0034502  83.4628059
C    -11.2000324  -10.79632  82.52446160000001
C    -9.7279393  -10.3875335  82.4503692
C    -9.3555855  -9.0110086  82.9610854
C    -7.8679692999999995  -8.6839061  82.87886540000001
N    -12.8975104  -12.419058499999998  79.0236599
C    -12.295098099999999  -12.9685461  77.820424
C    -11.290605399999999  -11.9702543  77.2343802
O    -11.566279399999999  -10.7751278  77.18825120000001
C    -13.3731525  -13.3293421  76.78242350000001
C    -14.375625099999999  -12.2074637  76.56678480000001
N    -10.102293099999999  -12.4532739  76.8128344
C    -9.132031399999999  -11.5602092  76.16070760000001
C    -8.0360294  -10.6653892  76.8417604
O    -7.213609299999999  -10.0999739  76.0915887
C    -9.7800081  -13.869386899999999  76.9281593
N    -8.036361  -10.489529  78.17455720000001
C    -8.9540714  -11.184236899999998  79.0636288
C    -7.0385845  -9.6544185  78.86373900000001
C    -5.5917406  -10.1455092  78.6886144
C    -5.362722099999999  -11.5438793  79.27652900000001
C    -3.8781122999999997  -11.9042791  79.2089697
C    -5.858879399999999  -11.6609382  80.7203999
C    -7.0737035  -8.1149852  78.73924310000001
O    -6.1568041  -7.4566947  79.25951570000001
N    -8.142013899999998  -7.5509078999999995  78.15476220000001
C    -8.4164754  -6.121339599999999  78.2643394
C    -9.8964409  -5.919351799999999  78.66817300000001
O    -10.7429115  -6.747308199999999  78.3328444
C    -8.0844741  -5.357304599999999  76.9528129
C    -6.575914099999999  -5.2977893  76.7280101
C    -8.7775807  -5.9851261  75.74633730000001
N    -10.228993899999999  -4.8278723999999995  79.3928586
C    -9.2971159  -3.7744786999999995  79.755168
C    -11.590245699999999  -4.7077705  79.92803880000001
C    -11.6327723  -4.657146099999999  81.44708820000001
C    -11.1569599  -5.972455  82.0398923
C    -10.7936611  -5.760090099999999  83.50574370000001
C    -12.225503199999999  -7.048845  81.837823
C    -12.397545099999999  -3.5228165999999996  79.41303500000001
O    -13.363928099999999  -3.0489160999999996  80.0266562
N    -11.941583099999999  -3.0489311  78.242157
C    -12.878138499999999  -2.3868460999999996  77.36188460000001
C    -13.5693139  -3.5490858999999997  76.6495328
O    -12.8668304  -4.4933358  76.2837126
C    -12.1475919  -1.4810326999999992  76.3853888
H    -15.1649189  -4.4390491999999995  75.96636140000001
H    -16.7489433  -2.8197528  76.0676384
H    -16.755412999999997  -0.8239814999999995  77.2241309
H    -15.1244739  -0.8924541999999995  76.5524814
H    -15.426348599999999  -1.2508210999999996  78.27900340000001
H    -17.1879544  -5.0538975  75.7001142
H    -18.5703727  -4.0030781  76.1037719
H    -18.6164985  -5.733948399999999  76.45242710000001
H    -17.3807708  -5.296631999999999  79.699759
H    -19.8011613  -6.531251899999999  78.6492138
H    -19.8394464  -4.814013599999999  78.31387050000001
H    -20.3151621  -4.251993099999999  80.4238273
H    -21.6209909  -5.946319899999999  81.6167235
H    -20.8355967  -7.239602799999999  80.7080596
H    -21.8944583  -6.0947057  79.88131080000001
H    -18.1668414  -4.6324977  81.45387170000001
H    -18.4597264  -6.384443699999999  81.5327424
H    -19.4366314  -5.270674  82.48248980000001
H    -15.6452811  -6.1505206999999995  80.2974087
H    -15.0111837  -5.701300799999999  78.7074103
H    -14.3829783  -7.120572699999999  79.54841300000001
H    -16.639342799999998  -9.2599836  77.8950492
H    -14.3459842  -9.7234523  77.1151925
H    -13.7571579  -8.2435222  77.81463360000001
H    -15.2626314  -6.936766499999999  76.3192028
H    -13.894084399999999  -7.3831568999999995  74.2605202
H    -13.2794949  -8.8522933  75.02565700000001
H    -12.929261799999999  -7.2766931999999995  75.7319099
H    -17.029744899999997  -8.5493574  75.8333253
H    -15.8655032  -9.6780642  75.12877060000001
H    -16.2189539  -8.150731799999999  74.3247437
H    -17.8397049  -10.220806399999999  79.1522709
H    -18.0810542  -8.9675285  80.3742149
H    -18.0958872  -10.6841106  80.832723
H    -14.7024981  -10.319973  81.8024597
H    -17.489448  -9.9857722  82.9078549
H    -16.240607699999998  -9.752899  85.06758140000001
H    -14.7686756  -10.2939001  84.2499141
H    -16.1619717  -11.372548499999999  84.3814431
H    -16.5577898  -7.8788145  81.9166168
H    -15.089099899999999  -8.0965697  82.8670252
H    -16.6287232  -7.793454499999999  83.6746719
H    -16.2447934  -14.458905099999999  82.1790981
H    -14.525611  -14.878078599999998  81.909599
H    -15.6036438  -14.620114599999999  80.5343505
H    -13.5957574  -11.4253657  81.1211979
H    -12.7353337  -13.9065219  82.6510889
H    -14.048369899999999  -12.802527099999999  84.0471926
H    -10.9840064  -12.6356235  81.41041270000001
H    -9.3978822  -13.0176905  83.1724803
H    -10.7489054  -14.040418599999999  83.58752870000001
H    -10.551654599999999  -12.5017085  84.41949310000001
H    -11.6294952  -10.4976162  83.48293910000001
H    -11.7597838  -10.3016519  81.72940630000001
H    -9.4363108  -10.433471399999998  81.4083207
H    -9.1187857  -11.0973639  83.0038304
H    -9.6718937  -8.9255853  84.0053209
H    -9.8976172  -8.2633978  82.3857181
H    -7.672672799999999  -7.727715399999999  83.3563103
H    -7.5364775999999996  -8.6127817  81.84423770000001
H    -7.2743039  -9.445715499999999  83.3801629
H    -13.133953199999999  -11.4316667  79.0274878
H    -11.8093164  -13.8897154  78.14512160000001
H    -13.8942485  -14.219011299999998  77.14194140000001
H    -12.886540199999999  -13.5768235  75.8380721
H    -15.1199967  -12.5081965  75.8331603
H    -13.8562084  -11.3306447  76.18927380000001
H    -14.8873815  -11.9582638  77.49263350000001
H    -9.727644  -10.809613299999999  75.6233531
H    -8.590088999999999  -12.136956  75.40947030000001
H    -10.4810457  -14.4733488  76.35388590000001
H    -9.7814512  -14.2032567  77.9660894
H    -8.782351299999998  -14.0269587  76.5254163
H    -8.9979944  -12.2405756  78.8172833
H    -9.9530102  -10.748123999999999  79.011374
H    -8.585307499999999  -11.1095885  80.0750853
H    -7.2575039  -9.7588929  79.9314075
H    -4.949523899999999  -9.421824099999998  79.19271280000001
H    -5.3400039999999995  -10.141998899999999  77.6267725
H    -5.911673599999999  -12.2652866  78.65965
H    -3.7208448999999995  -12.931642199999999  79.5257993
H    -3.3026048999999986  -11.2471646  79.85678080000001
H    -3.5050361  -11.7949013  78.1932221
H    -6.9245315  -11.8376783  80.7863208
H    -5.606253799999999  -10.763843  81.2822909
H    -5.3656795  -12.5023923  81.20296880000001
H    -8.896709999999999  -8.115597399999999  77.7896381
H    -7.757539599999999  -5.7546390999999995  79.0587021
H    -8.461015  -4.3353915999999995  77.0612136
H    -6.356932  -4.729492799999999  75.82869380000001
H    -6.1732735  -6.3013908999999995  76.6098734
H    -6.073810699999999  -4.8320118999999995  77.5720749
H    -9.8494853  -6.0781952  75.916375
H    -8.373285  -6.9761790999999995  75.54849200000001
H    -8.620911199999998  -5.370095599999999  74.8646914
H    -8.6351868  -3.5356660999999994  78.92887610000001
H    -8.693743699999999  -4.0667135  80.6170874
H    -9.86946  -2.8859576999999996  80.0079347
H    -12.1278329  -5.595514  79.57102520000001
H    -12.6587015  -4.4445365  81.74707790000001
H    -11.0098398  -3.833652399999999  81.79785360000001
H    -10.248847999999999  -6.2830455999999995  81.5087263
H    -10.481468  -6.686975199999999  83.9756994
H    -11.6530489  -5.3741468999999995  84.04999120000001
H    -9.982778399999999  -5.041806299999999  83.5913225
H    -12.2241875  -7.414451099999999  80.81253840000001
H    -13.210949099999999  -6.644994199999999  82.0626002
H    -12.053389099999999  -7.8991359999999995  82.49249
H    -11.2704214  -3.6307020999999997  77.75343980000001
H    -13.560946999999999  -1.8324165999999993  78.0002858
H    -12.8550919  -0.9654338999999998  75.7432342
H    -11.4819386  -2.0745667999999995  75.7622054
H    -11.565677099999998  -0.7474769999999991  76.9343388
