20

C    -1.112  4.697  84.602
C    -0.2897033000000002  3.6576750000000002  85.0291308
C    -2.1608671000000004  2.5235323  85.97438910000001
C    -2.4750103  4.6200802  84.87761400000001
O    -4.2752883  1.1734821  86.72494560000001
S    -2.836889  1.1882445  86.91642230000001
O    -2.3653181  1.3039304999999999  88.28344990000001
N    -2.2090523  -0.20482749999999994  86.301545
C    -0.8054337000000003  2.5725681  85.7178298
C    -3.0028813000000003  3.5387172  85.56168860000001
C    -0.5449698000000001  5.8787942  83.87812120000001
H    0.7686769999999998  3.6981611  84.8226252
H    -3.1307349  5.4136004  84.55402000000001
H    -1.8932597000000002  -0.8309213  87.0251877
H    -2.8471409000000003  -0.6489199000000001  85.6618918
H    -0.17472070000000017  1.7675147  86.0558845
H    -4.0555319  3.4579718  85.78023700000001
H    0.38773670000000005  5.6201435  83.38688690000001
H    -0.34524480000000013  6.6779352  84.58976050000001
H    -1.2501862000000001  6.2529766  83.142064
