39

C    -14.123  -11.486  6.435
C    -13.484829099999999  -10.1041691  6.291502599999999
C    -14.5660043  -9.005617500000001  6.294104
C    -12.561750799999999  -8.154271600000001  7.2983123
Br    -17.673697999999998  -14.432738400000002  3.0854700999999998
C    -16.001408899999998  -12.055439600000001  3.2432890999999997
C    -15.115554099999999  -11.355727700000001  4.0709785
C    -14.932642699999999  -11.9350514  5.3054673999999995
C    -16.4840606  -13.1782251  3.8532276999999997
O    -13.9833404  -12.1609817  7.437487
N    -13.9341841  -7.7888558  6.874897499999999
O    -6.263170599999999  -11.058371900000001  8.5488189
C    -6.933447799999999  -10.8627271  7.539582299999999
N    -6.330526299999999  -10.7769144  6.2955372999999994
C    -7.041448199999999  -10.5588917  5.153791099999999
N    -8.309445099999998  -10.382351900000002  5.1020705
C    -9.018199199999998  -10.4358622  6.2858455
C    -10.396535199999999  -10.1955132  6.2666065
C    -8.382345399999998  -10.697945  7.5144722999999995
C    -9.154771199999999  -10.7999778  8.6758557
C    -10.5130062  -10.575941  8.6311152
C    -11.1437788  -10.2156587  7.4320791999999996
C    -12.5636526  -9.689529700000001  7.457584
S    -15.872446199999999  -13.4036676  5.450519
H    -12.9258335  -10.0973346  5.3553459
H    -15.401093399999999  -9.324597100000002  6.9179904
H    -14.946476899999999  -8.8098729  5.2947701
H    -12.277775799999999  -7.652361800000001  8.2209261
H    -11.845758799999999  -7.885659400000001  6.521372599999999
H    -16.268359699999998  -11.763436700000002  2.2448462
H    -14.6162307  -10.4685232  3.7316743999999997
H    -14.4788179  -7.462683600000001  7.6797403
H    -13.905534399999999  -7.020409700000001  6.1966985
H    -5.324604899999999  -10.8950686  6.267202
H    -6.480521799999999  -10.5250544  4.2312503
H    -10.8243531  -9.956379100000001  5.3068439
H    -8.654108299999999  -11.0421235  9.6009309
H    -11.089792799999998  -10.6430354  9.5401562
H    -13.030223799999998  -9.9915417  8.3978065
