55

C    18.048  -1.394  25.49
C    17.104910699999998  -0.8140655000000001  24.4695707
C    17.4531791  -0.7671021  23.1238189
C    16.5979715  -0.2374187000000001  22.1771438
C    15.3649461  0.24956840000000002  22.576287999999998
C    14.9865903  0.21456839999999988  23.9090915
C    15.859217099999999  -0.32206160000000006  24.844136
Cl    14.276752599999998  0.8538136  21.3456497
C    19.103705299999998  -0.38349469999999997  25.973869099999998
C    18.497272799999998  0.9188561  26.476937799999998
C    19.047144799999998  1.9804670999999998  25.848857199999998
C    19.9871405  1.4400262  24.848225199999998
N    19.9800422  0.08470479999999991  24.9066561
C    20.8346297  -0.7882081999999999  24.1207512
O    20.6680836  2.084285  24.054025
O    19.853939  -0.9762184000000003  27.004234
C    18.8063704  3.4459845  26.0529905
C    17.764564099999998  3.9962608  25.114596499999998
C    17.152227  5.1957064  25.442061199999998
C    16.233868299999997  5.7908611  24.6042314
C    15.8826583  5.1618575  23.4299014
C    16.4536537  3.9474745999999996  23.0936989
C    17.398577799999998  3.3753433  23.9295926
Cl    14.678595399999999  5.9498638  22.424622199999998
C    17.556437199999998  1.0335386999999998  27.5684145
C    17.5566459  0.34734489999999996  28.8366635
C    16.465445799999998  0.9054606999999999  29.553083
C    16.4958924  1.9136023999999998  27.5834999
N    15.845416499999999  1.8285528  28.771666099999997
C    16.164797099999998  0.5025628  30.843034799999998
C    16.946501599999998  -0.4765615000000001  31.4083963
C    18.0111572  -1.0654531000000003  30.7252834
C    18.3164698  -0.6630004  29.440503399999997
Cl    16.547200399999998  -0.9311038  33.0598729
H    18.576748799999997  -2.256518  25.0854767
H    17.49925  -1.709364  26.3774914
H    18.3984174  -1.1611212  22.790507299999998
H    16.8790814  -0.21287650000000014  21.1366122
H    14.0214696  0.5888812999999999  24.2082882
H    15.562782299999999  -0.35644560000000003  25.8805712
H    21.4180127  -0.14915260000000008  23.460313199999998
H    20.245055999999998  -1.4876973  23.5331105
H    21.4995868  -1.3479529  24.7799013
H    20.5377486  -0.3570171  27.298485
H    19.746547  3.9670613  25.8456994
H    18.513553599999998  3.6296920000000004  27.0863642
H    17.4160656  5.6911311  26.3646685
H    15.7812685  6.7332301  24.8689383
H    16.1695888  3.4485590000000004  22.1800435
H    17.8441899  2.4349477999999998  23.64387
H    16.163675299999998  2.5626659  26.7979834
H    15.0281372  2.3578127  29.0295001
H    15.342643399999998  0.9353073999999999  31.390402599999998
H    18.5866105  -1.8401134000000001  31.2047175
H    19.118808899999998  -1.1457727  28.9148037
