150

N    9.932  -25.495  -26.711
C    8.7714639  -26.344423499999998  -27.0815329
C    9.196858500000001  -27.5694204  -27.9312249
O    9.3343101  -27.4676339  -29.1472345
C    7.7528405  -25.5407932  -27.888257199999998
S    6.6131952  -24.5465182  -26.8317437
N    9.3833221  -28.706796699999998  -27.2569664
C    9.6083477  -29.9805804  -27.9370087
C    8.4986401  -30.2758567  -28.9387619
O    7.3583373000000005  -29.8564899  -28.7663974
C    9.569827100000001  -31.0178354  -26.8051188
C    10.0321555  -30.2314288  -25.5901718
C    9.42013  -28.8529466  -25.8023342
N    8.8320525  -31.0869473  -29.9533
C    7.8906277  -31.3582736  -31.0266842
C    6.6505592  -32.1221576  -30.5436731
O    5.5886601  -32.016650999999996  -31.1481578
C    8.567994200000001  -32.1278624  -32.156196
N    6.8055527  -32.9015221  -29.4625476
C    5.7454095  -33.7316643  -28.9218004
C    5.1614794  -33.222859299999996  -27.58626
O    4.5255053  -33.9687957  -26.854006
C    6.2175591  -35.1844958  -28.7426362
C    6.7330325  -35.8833104  -29.9814041
C    6.3865094  -35.4813865  -31.265033799999998
C    7.5580183000000005  -37.0008961  -29.8496758
C    6.8605747  -36.15086  -32.3792931
C    8.0323093  -37.6828377  -30.9550903
C    7.685616700000001  -37.2578592  -32.235833
O    8.1611187  -37.9380951  -33.3174938
N    5.4093253  -31.9415454  -27.2603162
C    4.7689227  -31.3431955  -26.0991128
C    3.2463954  -31.540576899999998  -26.1503926
O    2.6458781  -31.5929853  -27.2161385
C    5.0554072  -29.828663  -26.0557908
O    4.5534436  -29.231891  -24.888078999999998
N    2.633278  -31.623723599999998  -24.961898899999998
C    1.1880617  -31.6159954  -24.8363247
C    0.7401053000000002  -30.410536399999998  -23.9956389
O    -0.2906962999999996  -30.4192237  -23.3350278
C    0.6691476999999999  -32.9471193  -24.2763243
C    0.7635002000000002  -34.0601508  -25.3217499
C    0.22272550000000013  -35.3966035  -24.8148123
N    0.22679779999999994  -36.3701624  -25.8969403
C    -0.23181660000000015  -37.6154625  -25.813859
N    -0.7344030999999998  -38.0847586  -24.677236
N    -0.1841860999999998  -38.4030848  -26.885622599999998
N    1.5931351999999999  -29.3769918  -24.0184961
C    1.3720468000000001  -28.1571834  -23.2700898
C    0.5635791000000001  -27.171744  -24.1107156
O    0.849831  -26.9644855  -25.2879951
C    2.7363771000000003  -27.5347049  -22.922819
C    2.6896212  -26.214582  -22.1906996
C    1.8766137999999999  -26.023083  -21.0780978
C    3.5148095  -25.1625604  -22.5845843
C    1.8621974  -24.8170975  -20.3999755
C    3.5218754  -23.9580107  -21.9047716
C    2.6830798  -23.7712418  -20.809127
O    2.7004878000000003  -22.5698643  -20.175934599999998
N    -0.4241130999999996  -26.5423156  -23.4593217
C    -1.2086078999999996  -25.4728127  -24.0543521
C    -0.32359630000000017  -24.417998400000002  -24.7190536
O    -0.6378741999999997  -23.9085964  -25.7871739
C    -2.1050914  -24.7846785  -22.999433099999997
C    -3.3815656  -25.6052622  -22.8089905
C    -2.4632718000000002  -23.3580191  -23.4136192
C    -4.245148800000001  -25.1197041  -21.6527642
N    0.7542612000000002  -24.0277036  -24.014629199999998
C    1.62704  -22.9862528  -24.504432299999998
C    2.3542975999999998  -23.2869642  -25.8133372
O    2.8662501000000002  -22.371741  -26.4507633
N    2.482499  -24.581805199999998  -26.151065199999998
C    3.0783326  -24.975846699999998  -27.4114756
C    1.9576442  -25.3984655  -28.4343094
O    2.1283054999999997  -25.0739592  -29.620938
C    4.0150288  -26.1569952  -27.217294199999998
S    5.344715  -25.8991089  -26.0093694
O    0.9914543999999998  -26.0337734  -27.9937636
H    9.560581599999999  -24.6457998  -26.2577907
H    10.4474204  -25.2102725  -27.554116
H    10.5719455  -25.968382599999998  -26.0631077
H    8.2688919  -26.6774241  -26.1695974
H    7.1439331  -26.2026456  -28.501838499999998
H    8.224931699999999  -24.8184081  -28.5490688
H    10.5763851  -29.9553872  -28.4475352
H    10.201932  -31.8742865  -27.0205634
H    8.541631899999999  -31.3591743  -26.670197299999998
H    11.1197603  -30.163477399999998  -25.5877761
H    9.7114266  -30.6849788  -24.6567099
H    8.403401299999999  -28.8137456  -25.4006367
H    10.023755600000001  -28.0774826  -25.3385745
H    9.7985765  -31.3247618  -30.1235249
H    7.5004932  -30.4053261  -31.4121996
H    7.843583499999999  -32.3109126  -32.9446757
H    8.936577400000001  -33.0859213  -31.7972495
H    9.3875687  -31.546269  -32.5674489
H    7.721611  -32.9950129  -29.0477019
H    4.9112757  -33.6775248  -29.633388699999998
H    5.3702575  -35.7441362  -28.3392273
H    6.9996212  -35.200013999999996  -27.9800255
H    5.7446804  -34.6277979  -31.4230551
H    7.8362763  -37.3429096  -28.8646235
H    6.5780636999999995  -35.8090549  -33.3650185
H    8.669123500000001  -38.5461885  -30.848217899999998
H    7.8399009  -37.537228999999996  -34.1379558
H    5.7701682000000005  -31.3102256  -27.965868099999998
H    5.1633075999999996  -31.8366781  -25.2023203
H    4.5486726  -29.3537787  -26.903119099999998
H    6.129898900000001  -29.6552296  -26.1687081
H    5.1290189  -29.4680246  -24.143249
H    3.1678046  -31.6100403  -24.1062565
H    0.7869269000000001  -31.4617819  -25.8470552
H    -0.36708059999999954  -32.7889052  -23.9736935
H    1.246867  -33.205604  -23.3885808
H    1.8060581999999998  -34.1732733  -25.6300024
H    0.19319350000000002  -33.750806  -26.20072
H    -0.8000011999999996  -35.2484999  -24.4535791
H    0.8487249000000001  -35.750177199999996  -23.9897624
H    0.6303347000000001  -36.0587986  -26.7669727
H    -1.1050592999999997  -39.0180721  -24.6281102
H    -0.8000740999999998  -37.5004134  -23.8628081
H    0.1975935999999998  -38.0732877  -27.7544976
H    -0.5275696999999999  -39.3471706  -26.84547
H    2.3597636  -29.35802  -24.6789252
H    0.8054863000000001  -28.4342918  -22.3763233
H    3.2888817  -27.402638  -23.8544853
H    3.2743811000000003  -28.2578147  -22.3069612
H    1.2530657  -26.8276675  -20.7214217
H    4.1684146  -25.2879119  -23.4348277
H    1.2193122  -24.6942056  -19.5414595
H    4.1806222  -23.1566834  -22.2003221
H    2.0820543000000002  -22.5616428  -19.4300097
H    -0.6483034999999999  -26.8023652  -22.5094135
H    -1.8275517  -25.8744851  -24.8679158
H    -1.5463798000000004  -24.7419073  -22.0588984
H    -3.111833  -26.649388899999998  -22.6348257
H    -3.9594885  -25.5698948  -23.734821099999998
H    -1.5831783999999995  -22.7210119  -23.4523188
H    -3.1598287000000003  -22.9248997  -22.7039805
H    -2.9171277  -23.3527627  -24.4025704
H    -5.0608039  -25.8186076  -21.4858601
H    -4.6801213  -24.147202399999998  -21.8610024
H    -3.6595864000000002  -25.0512517  -20.7394347
H    1.0625372  -24.5683628  -23.2184509
H    2.3756779000000003  -22.7686665  -23.7415806
H    1.0423567999999999  -22.08086  -24.697571099999998
H    1.8095826000000002  -25.265339  -25.8094468
H    3.599001  -24.106185699999997  -27.832662499999998
H    4.4520806  -26.444869  -28.175708399999998
H    3.4415116  -26.9970631  -26.8177545
