32

C    -17.568  10.089  24.544
Cl    -18.543596800000003  9.872911400000001  23.0978222
Cl    -15.843816900000002  9.758128000000001  24.195002799999997
C    -17.735377800000002  11.4909268  25.169424799999998
O    -17.0032129  11.794872000000002  26.099141499999998
N    -18.6949359  12.291484700000002  24.696862499999998
C    -18.949426100000004  13.589232500000001  25.2970489
C    -20.3715617  13.5906997  25.8523651
O    -21.256432500000003  13.157805600000001  24.8417705
C    -18.7791998  14.741082200000001  24.2578982
O    -18.694257500000003  14.2351696  22.9522248
C    -17.551805  15.546984  24.615077099999997
C    -16.5617018  15.778168200000001  23.669465499999998
C    -15.437686300000001  16.5115385  24.0064508
C    -15.290575200000003  17.013330500000002  25.3050161
N    -14.135623900000002  17.763666800000003  25.6638636
O    -13.918159200000002  17.9801673  26.8602529
O    -13.394451200000002  18.168288500000003  24.7630628
C    -16.2806259  16.7845093  26.2616783
C    -17.403398300000003  16.0647734  25.911042499999997
H    -17.8826278  9.3403334  25.276476
H    -19.3260733  11.977808300000001  23.9702697
H    -18.2254478  13.691965900000001  26.1089354
H    -20.6310514  14.574870700000002  26.245047
H    -20.4410394  12.8617454  26.6669229
H    -21.743616900000003  13.912101300000002  24.466275699999997
H    -19.6369867  15.421606400000002  24.3490786
H    -19.5732277  13.984673800000001  22.6418316
H    -16.674833900000003  15.376841200000001  22.676200899999998
H    -14.656596800000003  16.702013100000002  23.286703499999998
H    -16.156692200000002  17.1846184  27.2550894
H    -18.1789862  15.9128018  26.6440347
