33

C    -13.329  17.8  21.654
C    -12.397734600000001  20.0402971  22.1901735
C    -12.699668200000001  20.1465183  23.5474224
C    -12.106790100000001  21.1358426  24.3146967
C    -11.221644700000002  22.0529322  23.7455473
C    -10.921844700000001  21.942541300000002  22.3912816
C    -13.950332200000002  17.006535  20.5664878
C    -13.835600200000002  17.1559077  19.2020809
C    -14.604851900000002  16.148072600000003  18.605214
C    -15.175096000000002  15.4046192  19.6173727
O    -13.1630496  17.2978515  22.7577849
N    -12.985388900000002  19.0765506  21.340539
C    -11.5068189  20.9532327  21.6240739
C    -10.574275900000002  23.0873928  24.6060226
O    -10.138755600000001  22.7779273  25.7165568
N    -10.492999900000001  24.349278  24.1552096
C    -9.882488600000002  25.393210200000002  24.9478811
C    -9.575556700000002  26.6608932  24.0950375
O    -8.8897939  27.534989500000002  24.6496579
O    -10.035762100000001  26.7159973  22.9338303
Br    -14.783590000000002  15.923256400000001  16.744581699999998
Br    -16.3341821  13.929958200000002  19.4705466
N    -14.763738300000002  15.927022500000001  20.8022612
H    -13.377026700000002  19.443065100000002  24.003111699999998
H    -12.326699500000002  21.2148922  25.367937599999998
H    -10.224950800000002  22.631785800000003  21.9392501
H    -13.258578700000001  17.8789716  18.6622551
H    -13.030683200000002  19.3459383  20.3668412
H    -11.262481600000001  20.8847048  20.5751939
H    -10.7988285  24.6484588  23.236417
H    -8.950420900000001  25.0344291  25.3931237
H    -10.546803100000002  25.696657700000003  25.7645539
H    -14.9895864  15.589848900000002  21.7282742
