62

C    7.991  35.766  25.706
C    4.4884208  34.397962899999996  25.085217099999998
C    5.837112899999999  34.665437499999996  24.9361712
C    8.1144916  36.550061299999996  24.3845809
C    3.7743459999999995  34.8902603  26.1729606
C    4.469329499999999  35.6137149  27.1332289
C    5.8167791  35.8860009  26.985958399999998
C    2.297538199999999  34.6451116  26.3315233
C    7.5292392999999995  38.603722499999996  23.1934209
C    5.102376099999999  37.9172195  20.3531915
C    1.2338386999999997  36.4225881  24.7685341
C    10.199444999999999  33.1084864  31.3648284
N    10.776855399999999  31.918204499999998  31.138148899999997
C    10.8466385  31.465255499999998  29.885893799999998
C    10.3403367  32.205704399999995  28.758900099999998
C    9.7141904  33.4503969  29.039875
C    9.658669699999999  33.8903264  30.3875797
C    10.432537  31.816785399999997  27.403265599999997
C    9.9382592  32.6007306  26.3976831
C    9.287949099999999  33.829376599999996  26.6717147
C    9.1859465  34.22336  27.994332999999997
N    8.811280799999999  34.5778131  25.630342
N    11.4155723  30.2477359  29.7391132
C    6.5158396  35.4315648  25.8778926
O    8.5444079  36.001045999999995  23.378969599999998
N    7.7253338  37.8355454  24.415162
C    6.2962435999999995  38.1761816  22.4267649
C    6.2275746  38.3308016  21.0471505
C    4.0287533  37.3558467  21.021819299999997
C    4.079135299999999  37.214491699999996  22.4051009
C    5.217381  37.613507  23.0943972
N    2.9701739999999996  36.6879324  23.1008466
C    2.4628707  37.1542397  24.2699991
O    2.9137818999999996  38.121829899999994  24.8683561
C    1.4370109999999992  34.9401016  25.0958535
H    8.327606  36.3983695  26.5336697
H    3.9909844999999997  33.8018383  24.3355693
H    6.367310099999999  34.2985775  24.0691585
H    3.9454026999999994  35.995454599999995  27.9974322
H    6.3244599  36.4671756  27.7429155
H    1.9294341  35.2351159  27.1727318
H    2.158829999999999  33.589305499999995  26.5832513
H    8.409696199999999  38.456395  22.5626799
H    7.456983299999999  39.6571542  23.4670014
H    5.061700399999999  38.0324995  19.28132
H    0.45837589999999917  36.5082051  24.0044178
H    0.8925808999999996  36.9530089  25.6592795
H    10.1896731  33.4100873  32.4050101
H    9.1940721  34.835888399999995  30.6231711
H    10.9109325  30.884492199999997  27.1425943
H    10.0337888  32.2851608  25.3689717
H    8.6953935  35.1475593  28.258666299999998
H    8.9554644  34.2362568  24.6907393
H    11.5305758  29.8288984  28.836806499999998
H    11.7648297  29.794943099999998  30.5633855
H    7.2825279  38.1845469  25.251525
H    7.059470999999999  38.7667716  20.5160001
H    3.1545156999999997  37.0357311  20.476168
H    5.2331112  37.4905164  24.166030799999998
H    2.4099715999999995  36.0203822  22.5889229
H    0.44860399999999956  34.514369099999996  25.279665299999998
H    1.8583687999999992  34.4256125  24.231288499999998
