23

C    40.373  -31.683  9.76
O    39.4665873  -33.2337846  8.2087103
O    36.865  -26.018435099999998  14.1693216
O    35.384846100000004  -24.939923099999998  12.988377700000001
C    35.1337759  -27.1080223  11.2986125
C    35.1676884  -28.1251127  10.3708842
C    37.275564700000004  -27.7966393  12.1964956
N    36.4594739  -30.030472699999997  9.4750072
N    38.013302  -31.7040296  8.966454800000001
S    38.5147162  -29.9659485  11.0013418
C    39.275579  -32.271937  8.9284725
C    36.180216  -26.9397254  12.214500600000001
C    37.5875121  -30.6356772  9.6822019
C    36.2563145  -28.991983299999998  10.3242178
C    37.2940378  -28.792666399999998  11.2560427
N    36.1385235  -25.9028659  13.1782072
H    40.4947303  -30.6219824  9.567592900000001
H    41.2922994  -32.203182999999996  9.4965562
H    40.1794516  -31.837431  10.8184252
H    34.2963175  -26.4297333  11.3427719
H    34.3550999  -28.2593987  9.676216700000001
H    38.0804342  -27.663189799999998  12.9026413
H    37.3379421  -32.096893099999996  8.3150758
