46

C    27.512  52.968  249.311
N    27.9141197  51.840049300000004  248.4296068
C    29.3905958  51.65827740000001  248.2691957
C    29.6348619  50.151603400000006  248.2312909
C    28.4914302  49.63963100000001  249.1275334
C    27.3071984  50.496934200000005  248.6734483
C    28.561245  53.55482640000001  250.2477738
C    27.8701441  54.55689670000001  251.184697
C    28.3909107  55.98492280000001  251.0556938
C    28.041671700000002  56.785322900000004  252.3037616
C    29.9288358  52.40030170000001  247.0469595
C    28.996881600000002  52.38864430000001  245.8523085
O    27.787542300000002  52.64587960000001  245.9955007
N    29.5450144  52.19229570000001  244.6640817
C    28.8390257  52.46209540000001  243.4294435
C    26.1113632  50.39478890000001  249.6246536
O    26.4813893  50.669182600000006  250.9630979
O    28.2144199  48.2802738  248.9367027
O    29.5741062  49.62938770000001  246.92448100000001
H    26.6916152  52.62765970000001  249.93540430000002
H    27.1455566  53.77189270000001  248.66903630000002
H    27.5985542  52.1548111  247.4583721
H    29.8930113  52.03115640000001  249.1596544
H    30.6193999  49.914770700000005  248.6582199
H    28.7105581  49.86506330000001  250.177102
H    26.9692535  50.107553300000006  247.707699
H    29.3450528  54.068814100000004  249.6935476
H    29.0044612  52.767212900000004  250.8561158
H    28.0225262  54.238716200000006  252.217255
H    26.7934977  54.565242000000005  251.0163186
H    27.9691783  56.468014700000005  250.1732635
H    29.4776963  55.97688720000001  250.9472335
H    28.3741212  57.816875700000004  252.2092694
H    28.5191073  56.354023700000006  253.1803451
H    26.9661483  56.79125810000001  252.4685639
H    30.8949161  51.974955900000005  246.7839245
H    30.0681863  53.45472550000001  247.2982336
H    30.5297117  51.984914200000006  244.5923305
H    28.9599  51.6286527  242.7398149
H    29.2264954  53.3694916  242.96557620000002
H    27.7827042  52.59604040000001  243.6553749
H    25.7562422  49.362299400000005  249.5294929
H    25.3099648  51.06649530000001  249.2909184
H    25.7928818  50.360319700000005  251.5638105
H    28.7499971  47.73681320000001  249.5297795
H    29.1719219  48.748408100000006  246.9698934
