26

C    -34.586  6.844  7.28
C    -36.6307067  11.3932504  7.131966
C    -36.44553  10.1139467  6.6412170999999995
C    -34.5440635  9.8127225  8.0765568
C    -34.7178586  11.092954  8.5769981
C    -35.7621079  11.8636154  8.0999498
C    -34.1272128  5.7808893  9.4063619
C    -33.3841503  4.8028889  8.7651773
C    -33.2612859  4.830219100000001  7.3867983
C    -33.858042  5.832787100000001  6.6300397
C    -34.7237231  6.7857813  8.6694963
C    -33.6593814  5.7731133  5.1110316
F    -35.9399358  13.1186611  8.5868716
O    -34.3912132  4.9893725  4.4720122
O    -32.7414751  6.4669455000000005  4.621407
C    -35.2600215  7.9294127  6.5154574
C    -35.411088  9.299789500000001  7.1127009
O    -35.7244731  7.7232382  5.3999155
H    -37.4306895  12.0186961  6.7714308
H    -37.1015503  9.7154203  5.8820926
H    -33.7139959  9.2152817  8.4194884
H    -34.047908899999996  11.4929734  9.3203377
H    -34.2484874  5.756457  10.477670100000001
H    -32.9083032  4.0165504  9.3297188
H    -32.7015992  4.0657023  6.8659808
H    -35.329566899999996  7.528927  9.166085299999999
