254

N    0.21799999999999997  28.616  -34.845
C    -0.0824934000000006  30.0719013  -34.843443
C    -0.6123880000000002  30.473988300000002  -33.4504768
O    -1.5576876999999998  29.8798011  -32.9517728
C    -1.1411702999999997  30.363996200000003  -35.9190805
C    -1.6110619000000002  31.8077985  -35.8693459
O    -2.2593269000000005  32.226055200000005  -34.911361899999996
N    -1.2686833000000002  32.583497200000004  -36.8890035
N    0.05247089999999943  31.451286600000003  -32.8339816
C    -0.2758402000000002  31.8016593  -31.465037
C    -1.6791280999999998  32.4017803  -31.315906299999998
O    -2.3024952  32.223313000000005  -30.2723606
C    0.7985350000000002  32.7176108  -30.829640599999998
C    0.6778415999999998  32.671461900000004  -29.2987029
C    0.6889194999999999  34.1466147  -31.352490799999998
C    1.7083202999999996  33.5238401  -28.5655239
N    -2.1794892  33.109982  -32.3278683
C    -3.5050409  33.6964729  -32.2396971
C    -4.6099195  32.6354599  -32.3803542
O    -5.6446238  32.7200043  -31.720388
C    -3.699859  34.8159026  -33.2662458
C    -2.8682030000000003  36.0644954  -32.9676638
C    -3.4779515  36.9594419  -31.8601592
O    -4.7157456  36.9934174  -31.7367803
O    -2.6800278  37.6104489  -31.1428715
N    -4.359620400000001  31.616746300000003  -33.2039429
C    -5.2576288  30.4731828  -33.278304399999996
C    -5.2627872  29.724428600000003  -31.9354978
O    -6.3173843000000005  29.416790300000002  -31.387031399999998
C    -4.8288414  29.5160588  -34.4001042
C    -5.4726328  28.1564719  -34.279927
C    -6.7548946  27.9216237  -34.7586921
C    -4.7865901  27.110519800000002  -33.6745557
C    -7.3341726000000005  26.6691062  -34.6422647
C    -5.359325800000001  25.8564928  -33.562392599999995
C    -6.6361129000000005  25.6319778  -34.0475014
N    -4.062539  29.413901600000003  -31.4403427
C    -3.9108718000000002  28.6878737  -30.1862159
C    -4.5340584  29.451960900000003  -29.0176043
O    -5.2239694  28.885137500000003  -28.173319799999998
C    -2.4367182000000005  28.419684500000002  -29.8870754
C    -1.8240584000000002  27.4111811  -30.8552546
C    -0.34484510000000057  27.1968198  -30.5513901
N    0.2753578000000001  26.410610400000003  -31.6056571
C    1.3569715999999996  25.6504587  -31.447453199999998
N    1.9968452  25.6008782  -30.288601
N    1.8307452999999994  24.974464  -32.4928007
N    -4.2748031  30.757644600000003  -28.9821296
C    -4.8639804  31.6141358  -27.974635099999997
C    -6.3942443  31.5943924  -28.0601769
O    -7.0814279  31.5383041  -27.040433999999998
C    -4.2980544  33.023761  -28.1396008
C    -4.6980942  33.9894228  -27.0301042
C    -3.7192312000000003  35.1624569  -26.9370852
C    -3.5828519  35.8940466  -28.271071799999998
N    -3.0083522  37.2540014  -28.1192273
N    -6.9297906000000005  31.6273212  -29.2827508
C    -8.3709006  31.6841243  -29.458963599999997
C    -9.055512  30.4665742  -28.8424122
O    -10.0733733  30.5946423  -28.1639497
C    -8.7354232  31.803553700000002  -30.933149399999998
N    -8.510177  29.269227  -29.076116
C    -9.211749900000001  28.105671400000002  -28.573946399999997
C    -8.9709087  27.888657900000002  -27.074878499999997
O    -9.8685629  27.4294637  -26.368989199999998
C    -8.9787281  26.857210600000002  -29.438930199999998
C    -7.7884284  26.0172683  -29.073316
C    -7.8484750000000005  25.1525891  -27.986096
C    -6.6666575  25.9906353  -29.8880479
C    -6.7847796  24.320249500000003  -27.686357899999997
C    -5.6054375  25.1516029  -29.5939943
C    -5.6570712  24.3200143  -28.4898629
N    -7.7973187  28.278858200000002  -26.573473
C    -7.5596946  28.2281744  -25.142143899999997
C    -8.499228200000001  29.1853069  -24.3931142
O    -8.945549100000001  28.8743018  -23.2881312
C    -6.1022534  28.551813600000003  -24.8000477
C    -5.089339000000001  27.4521164  -25.148415699999997
C    -3.6769965  27.9320027  -24.815392799999998
C    -5.3819360000000005  26.1576901  -24.3993178
N    -8.7976948  30.331332  -25.0031674
C    -9.711686  31.294283500000002  -24.4169506
C    -11.1123926  30.7086104  -24.2593055
O    -11.7730201  30.912049800000002  -23.2400551
C    -9.7953116  32.5712566  -25.256521399999997
C    -8.6576974  33.5353184  -24.934027899999997
C    -8.6829169  34.7829407  -25.816057699999998
C    -9.572286  35.8786689  -25.243283299999998
N    -9.473172  37.1020336  -26.0812688
N    -11.5740204  29.997709800000003  -25.290319099999998
C    -12.850091899999999  29.3115276  -25.211637699999997
C    -12.8710853  28.3583339  -24.0098555
O    -13.8749641  28.2375918  -23.314786499999997
C    -13.165258399999999  28.5667146  -26.5223008
C    -13.5407422  29.5843257  -27.607813999999998
C    -14.2803376  27.5476682  -26.3009831
C    -13.810894300000001  28.9602521  -28.9716225
N    -11.7513515  27.6667054  -23.7769203
C    -11.6852473  26.7171832  -22.6861259
C    -11.5372646  27.379941900000002  -21.304033099999998
O    -12.1030456  26.888038700000003  -20.3313
C    -10.5216449  25.740593  -22.889662599999998
C    -10.590995  24.893462200000002  -24.169995699999998
C    -9.3202243  24.054618  -24.297348
C    -11.8141508  23.981896300000002  -24.1793405
N    -10.7455556  28.457334200000002  -21.226542199999997
C    -10.2438497  28.939579300000002  -19.9526476
C    -10.465992700000001  30.4158599  -19.6386197
O    -10.097904100000001  30.8618464  -18.5507245
C    -8.7182217  28.7173364  -19.8638896
C    -8.3447567  27.279646800000002  -19.992686
N    -8.6969387  26.3418867  -19.0602516
C    -7.6518978  26.6573338  -20.9942754
C    -8.2403718  25.195082  -19.48933
N    -7.5886316  25.332628300000003  -20.6599813
N    -10.9485153  31.190704  -20.604723999999997
C    -11.048502500000001  32.620857900000004  -20.4272171
C    -12.5157863  33.1147328  -20.5941846
O    -12.721967  33.9784628  -21.4676296
C    -10.1301713  33.3498909  -21.413097399999998
O    -10.030102  34.7217901  -21.121397899999998
O    -13.383129199999999  32.6591541  -19.833472899999997
H    0.4330077999999995  28.2869208  -35.7963072
H    -0.6109179999999999  28.1090674  -34.5020431
H    1.0191483999999997  28.403963400000002  -34.2362125
H    0.8313299000000001  30.6265362  -35.0688325
H    -2.0245308  29.746631100000002  -35.7381399
H    -0.7435836  30.141651900000003  -36.9072338
H    -1.5979596000000003  33.536122500000005  -36.9188121
H    -0.7754063000000002  32.2370532  -37.6956329
H    0.7865155999999995  31.9754861  -33.287460599999996
H    -0.3121299000000004  30.871181200000002  -30.8822606
H    1.7790583999999994  32.3160386  -31.104404
H    0.7936076999999999  31.638103  -28.9666553
H    -0.32370440000000045  32.9959257  -29.0115229
H    0.6320329999999998  34.1767616  -32.4383286
H    1.5574626  34.727197000000004  -31.0561953
H    -0.19639810000000057  34.6408866  -30.957109799999998
H    1.6326811  33.3539333  -27.494789599999997
H    1.5551228999999998  34.5838545  -28.7470641
H    2.718375599999999  33.2664862  -28.8770107
H    -1.7306691  33.1584477  -33.2319995
H    -3.6315307000000003  34.1223906  -31.2366437
H    -4.751977800000001  35.113078800000004  -33.2528032
H    -3.4613022  34.4280813  -34.2577304
H    -2.8281361  36.6978521  -33.8576116
H    -1.8445733000000004  35.8224796  -32.678223599999995
H    -3.5534901000000003  31.665083300000003  -33.8266785
H    -6.2863204  30.8217363  -33.4325408
H    -3.7475140000000002  29.400860400000003  -34.317456199999995
H    -5.0807282  29.9662624  -35.360672
H    -7.3106298  28.7224095  -35.2267784
H    -3.7991888  27.282824400000003  -33.2788357
H    -8.3346585  26.503841700000002  -35.0165482
H    -4.8238335  25.047074600000002  -33.0913951
H    -7.0932521  24.6576271  -33.957231199999995
H    -3.2190152000000003  29.7337494  -31.9094113
H    -4.4712959  27.7471392  -30.252025399999997
H    -2.3722977  28.0463187  -28.8635998
H    -1.9035650000000004  29.3706791  -29.932424599999997
H    -1.9351308000000005  27.809545800000002  -31.8636183
H    -2.3653015  26.4682676  -30.7827204
H    -0.2618746000000005  26.6905207  -29.587212599999997
H    0.15841839999999952  28.165802900000003  -30.477836699999997
H    -0.2934106999999999  26.2497311  -32.4239368
H    2.835656599999999  25.055436  -30.1887507
H    1.7180387000000001  26.1659508  -29.50567
H    1.2651183000000001  24.8267516  -33.3119514
H    2.6100848  24.349661500000003  -32.3717391
H    -3.6433975000000003  31.2035872  -29.642312099999998
H    -4.6211795  31.2226725  -26.9764648
H    -4.6190308  33.4057429  -29.110197499999998
H    -3.2125656  32.9211876  -28.1546022
H    -4.7111488  33.463560900000004  -26.074529899999998
H    -5.7095229000000005  34.3524716  -27.2143883
H    -2.7481217  34.7889217  -26.614205899999998
H    -4.086065  35.8503678  -26.175318299999997
H    -4.5559003  35.992681000000005  -28.755366199999997
H    -2.9400238  35.3338102  -28.9490235
H    -2.8657975  37.6399293  -29.076956099999997
H    -2.1021229999999997  37.222935  -27.641319099999997
H    -3.6426296000000002  37.8733731  -27.606164099999997
H    -6.3684731  31.809154  -30.109077199999998
H    -8.7650979  32.5498944  -28.9077861
H    -9.8131501  31.8746729  -31.044052999999998
H    -8.3768676  30.9272223  -31.468579199999997
H    -8.2666994  32.688659900000005  -31.3549829
H    -7.6960122  29.167909  -29.671444299999997
H    -10.2833014  28.3531361  -28.6302262
H    -8.8979815  27.1894101  -30.475588199999997
H    -9.8718866  26.2344836  -29.3500451
H    -8.732734  25.1426078  -27.3635661
H    -6.6317971  26.6352567  -30.755741999999998
H    -6.8466057000000005  23.6626678  -26.8317293
H    -4.7418257  25.133362400000003  -30.239829999999998
H    -4.8353352  23.6608452  -28.258027
H    -7.0407162  28.595937000000003  -27.172637499999997
H    -7.8324599  27.230289600000003  -24.7774391
H    -6.0539553  28.757485000000003  -23.7271644
H    -5.8381875  29.4689511  -25.3301773
H    -5.1552648  27.261053500000003  -26.2244177
H    -2.9535425  27.158760200000003  -25.0544309
H    -3.5976482  28.1632776  -23.755516899999996
H    -3.43974  28.8266074  -25.384115899999998
H    -6.3316439  25.726033200000003  -24.705668699999997
H    -5.4113264  26.3381733  -23.3260972
H    -4.6061075  25.423277600000002  -24.5995653
H    -8.31256  30.609984800000003  -25.853928999999997
H    -9.3795643  31.5248785  -23.396385
H    -10.7598564  33.0388558  -25.0431292
H    -9.780561800000001  32.283320100000005  -26.3094289
H    -7.7236025  32.998281  -25.1047473
H    -8.7029844  33.8145998  -23.881641799999997
H    -9.0162159  34.497413  -26.8136925
H    -7.6627832  35.162325700000004  -25.884210099999997
H    -9.2609321  36.1086345  -24.2240893
H    -10.608540600000001  35.5445415  -25.203979599999997
H    -10.0684638  37.8450961  -25.698774299999997
H    -9.776651000000001  36.8964409  -27.0402414
H    -8.5016366  37.4342546  -26.102416499999997
H    -11.0243593  29.905056300000002  -26.1371297
H    -13.6396236  30.0453876  -24.997585299999997
H    -12.2560331  28.0293946  -26.8161365
H    -12.7196371  30.2977981  -27.706146999999998
H    -14.4245537  30.134353700000002  -27.2781412
H    -13.9877356  26.807123  -25.5603874
H    -14.5116878  27.0286401  -27.2254282
H    -15.177646800000002  28.041281700000003  -25.9334104
H    -13.9239897  29.743413  -29.716392199999998
H    -14.7217172  28.369150100000002  -28.962381299999997
H    -12.9824462  28.3196003  -29.264882
H    -10.9577365  27.7446354  -24.400713399999997
H    -12.6449146  26.1875535  -22.6381506
H    -10.4922514  25.0872113  -22.014178599999997
H    -9.6057916  26.337266500000002  -22.8952849
H    -10.651530300000001  25.5715192  -25.0274762
H    -9.3457987  23.473564000000003  -25.2152468
H    -9.2390701  23.3710613  -23.455742299999997
H    -8.442956200000001  24.696337500000002  -24.3124805
H    -12.7344085  24.5616497  -24.1821633
H    -11.819510900000001  23.3451945  -23.297044999999997
H    -11.8100205  23.351185800000003  -25.0646362
H    -10.2158359  28.735269000000002  -22.0493778
H    -10.740029400000001  28.3514474  -19.171434299999998
H    -8.3964807  29.112188200000002  -18.8990765
H    -8.243029  29.282560800000002  -20.6679124
H    -7.2320659  27.048446400000003  -21.8959823
H    -8.3603792  24.2678432  -18.9693014
H    -7.1565415  24.6032867  -21.2047705
H    -11.327566000000001  30.810604700000003  -21.4661609
H    -10.747271600000001  32.8356041  -19.393924
H    -10.5485212  33.2027062  -22.415683299999998
H    -9.1188619  32.941364  -21.343336899999997
H    -10.9416781  35.0585335  -21.126621299999996
