48

C    10.765999999999998  6.109  21.879
C    10.2152953  7.475001499999999  21.5166909
C    11.1156192  8.2222142  20.5228994
N    11.3757659  9.612686  20.9010782
C    10.281579099999998  10.3384424  21.5284452
C    9.4575722  11.146902  20.5420787
C    8.3714012  11.8750281  21.319100600000002
S    12.920774199999999  9.9663382  21.4671123
O    12.854399399999998  11.0037521  22.4846718
O    13.598102099999998  8.7392554  21.8527539
C    13.793785699999999  10.6339709  20.0633835
C    13.8923242  12.017154999999999  19.929962200000002
C    14.5609416  12.5765145  18.8603568
C    15.1153564  11.6909582  17.9480995
C    15.0202528  10.2828613  18.078481500000002
C    14.3431839  9.7435441  19.167084600000003
N    15.6705697  9.6825387  17.0348089
C    16.1469922  10.6547822  16.2882977
N    15.829567099999998  11.884815  16.806335
C    16.9566972  10.5004416  15.086813200000002
C    17.4883286  11.6056107  14.418582
C    18.3006398  11.4428445  13.3124549
C    18.5942367  10.1741064  12.843520400000001
C    18.0639844  9.0693904  13.489911200000002
C    17.257959  9.2277966  14.6016309
H    10.1202778  5.6199107  22.6040747
H    11.7584182  6.2144607999999995  22.3138997
H    10.8440012  5.4683718  21.002768500000002
H    10.1776603  8.022057199999999  22.457854100000002
H    9.2036123  7.3865236  21.122586000000002
H    10.673707  8.2313236  19.5233233
H    12.091543  7.7415989  20.4703992
H    10.742811  11.019199799999999  22.24868
H    9.6119931  9.6842878  22.0808836
H    9.0116537  10.4829462  19.8011263
H    10.097896299999999  11.8585955  20.0197455
H    7.766601699999999  12.485926599999999  20.6541408
H    8.815640499999999  12.5214881  22.0720975
H    7.719312499999999  11.163948  21.8195199
H    13.4394309  12.6260934  20.695063700000002
H    14.6499169  13.6436806  18.7480275
H    14.2595739  8.6826327  19.3262585
H    16.0793048  12.7803593  16.4186607
H    17.2822884  12.609033199999999  14.7572206
H    18.705424999999998  12.311037599999999  12.8156222
H    19.2297993  10.0459697  11.981170600000002
H    18.2853986  8.076031799999999  13.1309777
H    16.8495954  8.3736602  15.117447100000001
