66

O    -3.065  39.522  129.351
C    -2.3018281  40.479086099999996  129.3631983
N    -1.9169276  41.1757808  130.4845304
C    -2.3637382  40.8723533  131.8277267
C    -1.0618539999999999  42.195402699999995  130.1056498
C    -0.3724669  43.2004294  130.7590811
N    0.3667623  44.061925599999995  130.0679868
N    -1.6760485999999999  41.0625145  128.2578418
C    -1.8156836  40.6099879  126.8732688
C    -0.45901329999999996  40.258392799999996  126.2406268
C    -0.5601626  40.61081059999999  124.7502954
C    -1.8460376  41.4305373  124.5670006
C    -2.3835381  41.712738099999996  125.9703181
C    -0.9175736999999999  42.124321699999996  128.6968529
N    -0.17906699999999998  42.9750625  127.9934066
C    0.4319394  43.936508599999996  128.7260033
N    1.1589206  44.912923799999994  128.1064007
C    1.4113552  45.0535857  126.7363816
C    1.5373626  46.3122505  126.1219782
O    1.4120827  47.4510734  126.8872429
C    0.42554800000000004  48.3546116  126.4116806
C    1.7744124000000001  46.412492699999994  124.7566958
C    1.8996629  45.260186499999996  123.9981744
C    1.7768193  44.0136943  124.59418959999999
C    1.5485028  43.9169007  125.94716509999999
O    2.1760933000000002  45.310912599999995  122.65318309999999
C    1.0282453  45.247338299999996  121.814072
C    1.3667625  44.4692046  120.5417459
C    0.15276510000000004  44.4614986  119.6150382
N    -0.32067579999999996  45.8270201  119.2730109
C    -1.5424164  45.768922399999994  118.4435721
C    -0.5570986  46.643892799999996  120.4884513
C    0.6445619  46.6743862  121.422023
H    -3.0367256  40.01989519999999  131.7577648
H    -2.8911475  41.7280532  132.2480659
H    -1.5111739  40.620198599999995  132.4577694
H    -0.3960743  43.343318599999996  131.8292668
H    -2.4791528  39.7415057  126.9181172
H    -0.20762129999999998  39.211331599999994  126.40302129999999
H    0.30528710000000003  40.86765389999999  126.7213679
H    -0.5953039  39.7052549  124.1469653
H    0.3145423  41.181701999999994  124.447487
H    -2.5781791  40.8539908  124.0017538
H    -1.6591489  42.3597336  124.0355857
H    -1.9917539  42.665376099999996  126.3297747
H    -3.4709378  41.745640599999994  126.0066365
H    1.3979938  45.6969626  128.6987708
H    0.27073640000000004  49.0715576  127.215572
H    -0.5097172999999999  47.8316695  126.200877
H    0.7626456  48.88855409999999  125.52081
H    1.9010171000000002  47.3801211  124.3005673
H    1.8891452000000002  43.1272538  123.9902793
H    1.4624717  42.952465  126.4149401
H    0.20835190000000003  44.756172  122.3542858
H    1.6355439  43.444017099999996  120.7895317
H    2.233015  44.9334825  120.07066329999999
H    -0.6704874  43.9401022  120.10766269999999
H    0.3955398  43.9338578  118.6927076
H    0.4233819  46.2842625  118.7326094
H    -1.8486297999999999  46.7720042  118.1600745
H    -2.3441927  45.2994734  119.0070011
H    -1.3552667999999999  45.188400699999995  117.5443654
H    -1.4084724  46.209742  121.0172729
H    -0.8207354  47.6567284  120.18194079999999
H    1.5089091000000001  47.148235  120.9560159
H    0.38493370000000005  47.2479204  122.3107942
