42

P    67.027  56.462  38.88
O    66.6783175  56.727176500000006  37.4635377
O    65.9047231  56.091449700000005  39.7848162
O    68.2452108  55.364510800000005  39.0955736
P    68.6329309  54.146522100000006  38.051594900000005
O    67.6263299  54.0429691  36.9648576
O    68.838975  52.9002039  38.852498100000005
O    70.0883865  54.617082800000006  37.58323360000001
P    70.423704  55.527541500000005  36.157117400000004
O    71.07299019999999  54.521321900000004  35.23155800000001
O    71.383062  56.597198000000006  36.637733600000004
O    69.1281912  56.105684000000004  35.6587936
O    67.7715622  57.7847559  39.5093078
C    68.6799718  58.492535600000004  38.678642200000006
C    68.8692327  59.925245800000006  39.2024818
O    68.7985396  60.0099206  40.6205184
C    70.2508843  60.4732805  38.794707
O    70.1554135  61.819486600000005  38.4203132
C    71.0713446  60.3737737  40.0834594
C    70.0109382  60.474183000000004  41.18240540000001
N    70.3657838  59.7265352  42.4009019
C    71.2785294  60.310918  43.2675515
O    71.7867772  61.3981288  43.047212
N    71.58232269999999  59.61764410000001  44.405174900000006
C    71.0711585  58.3851182  44.7566903
O    71.4192685  57.859309100000004  45.805691800000005
C    70.1250323  57.8177011  43.799472800000004
C    69.5195532  56.4808031  44.1075997
C    69.8221115  58.503642500000005  42.6716479
H    68.3079109  58.4831791  37.64715760000001
H    69.63199589999999  57.937095500000005  38.65802970000001
H    68.0486889  60.541552900000006  38.819786900000004
H    70.6753065  59.855693  37.99422320000001
H    69.8059875  61.8946399  37.5209218
H    71.8021387  61.175333  40.1464702
H    71.561478  59.400974600000005  40.121634900000004
H    69.8803757  61.5202431  41.500572000000005
H    72.2548369  60.0534076  45.031314300000005
H    68.9212536  56.1350312  43.26676930000001
H    68.8948742  56.549638  44.995965500000004
H    70.3076302  55.756794500000005  44.3066789
H    69.1302335  58.127003900000005  41.930495400000005
