42

C    -38.917  25.735  28.76
C    -38.934762  24.4503187  29.2722282
C    -38.2959978  24.2169837  30.4846967
C    -37.627646500000004  25.2378404  31.1961598
C    -37.6367063  26.5129963  30.6302264
C    -37.0934935  24.5846182  32.3788916
C    -38.6164083  21.7889538  30.9609963
C    -37.3870214  18.4965608  33.448595600000004
C    -36.496190600000006  19.0707465  32.5599579
F    -37.7634149  26.9665975  33.7769075
C    -36.5839359  26.3563835  34.083945
C    -35.7709909  26.9557604  35.0201785
C    -34.577967300000005  26.3423674  35.3778662
C    -33.6674178  27.0240547  36.404811
O    -34.0585864  28.1214093  36.8565721
O    -32.608324100000004  26.4400404  36.7151379
C    -34.2512703  25.1179308  34.8035112
C    -35.082747100000006  24.5294822  33.8674121
C    -36.266442500000004  25.1526261  33.4565432
F    -37.008928000000004  27.535561  31.255768000000003
C    -38.2722982  26.7695702  29.4338689
N    -37.4134036  23.3165185  32.3675662
N    -38.141395200000005  23.0554202  31.2427163
O    -39.3146676  21.5638941  29.993621400000002
C    -38.1862678  20.6803677  31.887994000000003
C    -36.8970117  20.1574758  31.795507100000002
Cl    -35.7641134  20.8962773  30.7163362
C    -38.6738153  18.9962525  33.566328500000004
C    -39.0743525  20.072253  32.783508600000005
C    -40.486708400000005  20.5713286  32.903620700000005
F    -41.272823700000004  20.1524511  31.893663600000004
F    -40.5848509  21.9152822  32.907938300000005
F    -41.0936016  20.158419600000002  34.026591700000004
H    -39.409416500000006  25.9400206  27.8246308
H    -39.4331623  23.6437555  28.760446
H    -37.0807786  17.6581627  34.0514566
H    -35.4919725  18.6947152  32.4559062
H    -36.0458331  27.8929126  35.478864800000004
H    -33.3291332  24.6469084  35.108539
H    -34.8158116  23.5869969  33.4158817
H    -38.255238500000004  27.7720062  29.0409417
H    -39.3709231  18.5554108  34.260485100000004
