72

C    9.639  -19.958  -26.083
O    8.9354714  -19.555547699999998  -24.905833599999998
C    9.4777581  -18.429229999999997  -24.3057663
C    9.1813694  -17.1686992  -24.7926082
C    10.3129166  -18.586100799999997  -23.1981024
O    10.5929879  -19.846247899999998  -22.7000411
C    9.4621141  -20.6094089  -22.1893569
C    10.8908279  -17.446654799999997  -22.6464499
C    10.6164726  -16.190967299999997  -23.1663082
C    9.7283467  -16.0241904  -24.225646599999997
C    9.3579381  -14.677512099999998  -24.809201299999998
C    8.6796124  -13.764294199999998  -23.726770199999997
C    8.4458969  -12.317774599999998  -24.1922376
C    9.3287198  -13.774555399999999  -22.3376037
C    8.3122447  -14.959009299999998  -25.7871225
N    7.4987624  -15.168844799999999  -26.5700956
C    10.54039  -14.123757399999999  -25.6734245
C    11.301704  -12.888667199999999  -25.1710703
C    11.1044432  -11.650136299999998  -26.048392
N    11.9724787  -11.575433199999999  -27.2683617
C    13.065761  -12.558259299999998  -27.330965199999998
C    11.1505438  -11.611810299999998  -28.495487599999997
C    10.589810700000001  -10.216928999999999  -28.8033517
C    9.1326934  -10.285993099999999  -29.0365941
C    8.6546126  -10.9170308  -30.1758949
C    8.2766538  -9.734140399999998  -28.1058229
C    6.918370100000001  -9.810571999999997  -28.3240199
C    6.423546  -10.434507399999998  -29.459158499999997
O    5.0665998  -10.537970599999998  -29.6487402
C    4.4006733  -10.992114599999997  -28.477397699999997
C    7.2923624  -11.000736699999997  -30.4124649
O    6.759225300000001  -11.598137399999999  -31.5231603
C    7.6273927  -11.745553399999999  -32.64516
H    9.1048883  -20.8250687  -26.4625357
H    10.6686567  -20.2309219  -25.835669499999998
H    9.6346864  -19.1593603  -26.828571099999998
H    8.5158633  -17.1342656  -25.638675199999998
H    9.8830493  -21.5706439  -21.912224
H    8.6981234  -20.7283726  -22.9561749
H    9.0479039  -20.105279  -21.3146895
H    11.5717323  -17.562233199999998  -21.8184832
H    11.1686745  -15.357765499999998  -22.7721712
H    7.6881397  -14.218903999999998  -23.5924081
H    7.5648659  -11.932014799999997  -23.681573099999998
H    8.23518  -12.283356299999998  -25.2578255
H    9.2683911  -11.6592022  -23.947790599999998
H    9.2559157  -14.749689399999998  -21.869143899999997
H    8.7690573  -13.076576399999999  -21.7147068
H    10.362462  -13.446565699999999  -22.348728299999998
H    10.1321205  -13.914454399999999  -26.663689899999998
H    11.2307634  -14.961022199999999  -25.7917933
H    12.3551342  -13.131779799999999  -25.0712399
H    10.9704194  -12.6386224  -24.170482399999997
H    11.32794  -10.777469799999999  -25.432568
H    10.0656708  -11.577186099999999  -26.360314499999998
H    12.4311074  -10.658772999999998  -27.2565588
H    13.6562466  -12.376048999999998  -28.226253999999997
H    12.6709344  -13.569042299999998  -27.375939499999998
H    13.7247038  -12.455217699999999  -26.4736393
H    10.3445457  -12.334595099999998  -28.375685599999997
H    11.7725488  -11.950508099999999  -29.3244308
H    11.0841561  -9.801585099999997  -29.682467799999998
H    10.775469600000001  -9.5369222  -27.9725541
H    9.3559511  -11.337825699999998  -30.8760092
H    8.6506624  -9.231936799999998  -27.2288967
H    6.2283711  -9.374246399999997  -27.6213856
H    3.4368157000000004  -11.375908299999999  -28.8131131
H    4.2233592  -10.175081599999999  -27.7723437
H    4.962227  -11.792125499999997  -27.991702
H    6.9729351  -11.979927699999998  -33.4818437
H    8.3258812  -12.571309599999998  -32.4925062
H    8.1656  -10.818111199999999  -32.8467784
