59

C    -49.529  -0.933  -21.937
C    -52.659986100000005  1.2043671  -19.6480316
C    -53.6570497  2.1586876999999998  -19.8266982
C    -53.891180600000006  1.5747892  -22.0543076
C    -52.883749300000005  0.6107988  -21.9902781
C    -52.26998090000001  0.4128446  -20.7589912
C    -50.5638087  -1.4921339  -20.952215600000002
C    -51.474637400000006  -2.5562202000000003  -21.5684741
C    -51.1114959  -0.09750010000000003  -18.937260900000002
C    -49.997599900000004  -0.1210754  -16.6597234
C    -50.135296000000004  -0.8034115  -18.0180268
N    -51.9174827  0.8426996  -18.5522367
N    -54.255447200000006  2.3157521  -20.992178
N    -51.2771461  -0.42468300000000003  -20.277858300000002
F    -48.6966826  -0.06908220000000004  -21.3060031
F    -48.761320500000004  -1.9288296  -22.4353944
F    -50.06317670000001  -0.2748606  -22.9791655
N    -54.5997574  1.8676158999999999  -23.2167778
C    -54.766361200000006  1.1278425  -24.369967
C    -55.9406431  1.2996345  -25.1321814
C    -56.0579978  0.5081100999999999  -26.255645100000002
N    -55.1258532  -0.36518360000000005  -26.630452000000002
C    -54.023924  -0.4663469  -25.8694363
N    -53.8303638  0.2634913  -24.7553704
N    -53.028529400000004  -1.3241398  -26.2429798
C    -52.0309188  -1.800731  -25.292392500000002
C    -50.6273229  -1.8057863  -25.9029613
C    -50.600252000000005  -2.6046739  -27.2132025
C    -51.691486700000006  -2.0839583  -28.1659988
C    -53.073075  -2.0546686000000003  -27.5009936
F    -51.3707251  -0.7865111  -28.551631
O    -49.33760290000001  -2.4814931  -27.8552723
C    -48.4968823  -3.6148103000000003  -27.7341763
O    -50.5457576  -2.1537414999999998  -17.8609893
H    -53.992112000000006  2.7972925  -19.0241505
H    -52.61958980000001  0.07867879999999994  -22.8860177
H    -49.9607231  -1.9906104  -20.1813949
H    -52.05898740000001  -3.0099317  -20.7744846
H    -50.8655186  -3.3200285999999997  -22.0418241
H    -52.147649300000005  -2.1242847  -22.302929
H    -49.3628531  -0.7303594  -16.0232654
H    -50.9764813  0.004160700000000017  -16.2055387
H    -49.551357900000006  0.8607293  -16.78014
H    -49.154200800000005  -0.8440377  -18.5082308
H    -55.32520340000001  2.5544510000000002  -23.0447512
H    -56.708133200000006  1.9950989000000001  -24.841980500000002
H    -56.9300683  0.5464616  -26.8931607
H    -52.3009022  -2.8182942000000004  -24.9827059
H    -52.052981  -1.1303893  -24.4384746
H    -49.9184289  -2.2336029  -25.195238
H    -50.3167581  -0.7843619000000001  -26.127024600000002
H    -50.822045900000006  -3.6618899000000003  -27.0170438
H    -51.711533700000004  -2.6636664999999997  -29.0936399
H    -53.790208500000006  -1.5537414  -28.1510811
H    -53.3969383  -3.0880373  -27.3319146
H    -47.592505700000004  -3.3688947999999996  -28.2845095
H    -48.9666348  -4.5004784  -28.172579300000002
H    -48.246565000000004  -3.8117029000000002  -26.6877634
H    -51.2455214  -2.1928465  -17.1930395
