41

N    4.74  -9.145  -7.667000000000001
C    4.0908963  -8.1115728  -8.492142000000001
C    5.0162567  -7.5806641  -9.583504600000001
C    4.7186231  -6.1360733  -10.006612700000002
C    5.0636592  -5.0614282  -8.946773100000001
N    4.9212491  -3.681192  -9.397248700000002
C    5.2905058  -3.1396572  -10.578893100000002
C    4.9610628  -1.7851166999999997  -10.508570800000001
C    5.1788324  -0.6969797  -11.556818400000001
C    4.248956  -0.6669842999999998  -12.792702100000001
N    4.5669752  -1.5925078999999998  -13.8917824
N    4.6437463  -1.1997917999999999  -15.138258700000002
C    4.9168584  -2.3144047  -15.8645577
C    5.1278026  -2.5722578  -17.2494708
Br    5.0356189  -1.1702029999999999  -18.510833
C    5.4028883  -3.8597656  -17.6797818
Br    5.6944239  -4.2391105  -19.555446500000002
C    5.4731703  -4.9191264  -16.738411
Br    5.857521  -6.6719827  -17.395216
C    5.2696721  -4.6963243  -15.375276300000001
Br    5.359912899999999  -6.0953319  -14.098525100000002
C    4.9902269  -3.3944435  -14.925723300000001
N    4.7562983999999995  -2.8725721  -13.7067039
N    4.4298603  -1.5945866999999998  -9.261930300000001
N    4.4116713999999995  -2.7122495  -8.622556900000001
H    4.0951808  -9.4872442  -6.945078800000001
H    5.5742899999999995  -8.7607805  -7.207366600000001
H    5.031268799999999  -9.9397957  -8.2491351
H    3.7916568  -7.2914972  -7.838728700000001
H    3.1882428999999997  -8.5242586  -8.942484400000001
H    4.9505973999999995  -8.196387699999999  -10.478815200000001
H    6.0505302  -7.612615399999999  -9.235396600000001
H    3.6667489  -6.0401734  -10.278250100000001
H    5.3002046  -5.9361274  -10.906972600000001
H    6.103711  -5.1916528  -8.629589000000001
H    4.4181839  -5.1341738  -8.070429
H    5.7181257  -3.7055474999999998  -11.377716000000001
H    6.215636  -0.7590531  -11.890713700000001
H    5.0342326  0.25562100000000054  -11.050009600000001
H    4.2839922999999995  0.3207392000000002  -13.250090100000001
H    3.2261524  -0.8873487999999998  -12.477571000000001
