37

C    -17.366  20.734  -13.023
C    -17.9774974  19.275847000000002  -15.339265099999999
C    -18.9277825  19.3961639  -14.318947699999999
C    -20.4822801  21.7978212  -8.824864299999998
N    -20.9394527  15.955998700000002  -12.054415699999998
C    -20.484035900000002  16.7574454  -10.912212299999998
C    -19.6854054  17.9496797  -11.377596699999998
C    -20.5318833  19.1649616  -11.618719699999998
C    -21.1129414  19.687284700000003  -10.286546799999998
C    -20.1218984  20.742742  -9.927650599999998
N    -19.770719500000002  21.323149100000002  -11.2472585
N    -19.6313999  20.2246235  -12.1175822
C    -18.6382641  20.120411800000003  -13.132508699999999
C    -16.4187202  20.608801  -14.052845499999998
C    -16.7121959  19.8698498  -15.206124899999999
O    -19.732945  22.7895356  -8.805218499999999
O    -21.4217337  21.5434781  -8.063309799999999
C    -19.4501598  15.960180100000002  -10.0444582
O    -19.2130304  14.787631500000002  -10.3705232
O    -18.9287873  16.6202763  -9.134034699999999
H    -17.0996494  21.2957147  -12.140440799999999
H    -18.2211804  18.7206598  -16.229668099999998
H    -19.8971094  18.9454059  -14.4396533
H    -21.6504963  16.438076000000002  -12.614246999999999
H    -21.3118976  15.0612633  -11.7056575
H    -20.1288855  15.710574100000002  -12.637619099999998
H    -21.3253165  17.0283516  -10.2771616
H    -19.1192123  17.686891900000003  -12.2731398
H    -18.9559812  18.1860874  -10.599333599999998
H    -21.3245671  18.983891800000002  -12.351107099999998
H    -21.1487582  18.9258005  -9.5148538
H    -22.110977000000002  20.112077300000003  -10.3989696
H    -19.2106319  20.2695185  -9.5354061
H    -18.9247095  21.9066276  -11.168096299999998
H    -20.5341911  21.9528398  -11.554038899999998
H    -15.4556634  21.0789049  -13.938160299999998
H    -15.9782562  19.7723254  -15.988654999999998
