93

O    -2.933  3.917  10.888
C    -2.8211950999999997  3.0501006  10.0365802
O    -2.6419433  1.7275031999999997  10.2932621
C    -2.0841155000000002  1.2760724999999997  11.5720671
C    -0.9327052  2.1856728  11.9941988
C    -1.5417245  -0.13759220000000028  11.3416496
C    -3.201004  1.2689871999999998  12.610746599999999
O    -4.3050904  3.7122256  6.3704903999999996
C    -4.2202367  4.6158945  7.1954253999999995
N    -1.4110473  3.3316656  1.5844953999999998
C    -0.4146492999999998  4.1953306  2.1731837
C    0.9787923000000003  3.5905964999999997  1.9565677
C    1.7745617000000005  3.4398431  3.2495318999999996
C    2.6210663  4.679425999999999  3.5011979999999996
C    3.1739523  4.6730534  4.9290873
C    -3.0674773  4.6512945  8.1933951
C    -1.8414373  5.1714318  7.4324394
C    -0.5346913999999998  5.0449128  8.220386399999999
C    0.5800859999999997  5.417154099999999  7.3000443
N    0.985144  6.6187366  7.0260221
N    1.9949018  6.5149881999999995  6.1195648
C    2.1690584  5.2522639  5.8675824
O    1.2870606000000002  4.5000801  6.5822899999999995
N    -2.8531724  3.3148014999999997  8.7129926
N    -6.2044451  5.4815999  3.9433157999999997
C    -5.7851798  5.7288532  2.5758599999999996
C    -4.9963733  4.5373376  1.9863969
C    -3.46704  4.6063358999999995  2.2047580999999994
C    -2.7460922  3.4254379  1.5624111999999997
O    -3.3590454  2.5176605999999997  1.0016007
C    -7.0577856  6.1377244  1.7990107999999996
O    -7.6271441  7.3114954999999995  2.3482126
N    -5.1063116  5.6057749  7.2899882
C    -6.206807599999999  5.686829299999999  6.353722299999999
C    -5.6243649  6.0673518  4.9936796999999995
O    -4.6974933  6.85957  4.9052486
C    -7.2566969  6.7086663  6.7873385
C    -8.134624800000001  6.3132029  7.9851908
C    -9.2209246  7.3868887  8.1177045
C    -10.3153332  7.0186101  9.1125714
C    -10.921587299999999  5.6663932  8.7674023
C    -9.815682299999999  4.6252246  8.8364637
C    -8.7579326  4.9314595  7.7835868999999995
H    -0.46444909999999995  1.7790494  12.8856179
H    -1.2854481999999998  3.1895407999999996  12.2139283
H    -0.18920009999999987  2.2407513999999997  11.2009611
H    -1.1354266000000002  -0.5173762000000002  12.2719507
H    -0.7613089999999998  -0.12156120000000037  10.5860828
H    -2.3386894  -0.7938695999999998  11.0026054
H    -2.8222344  0.9077910999999999  13.5614734
H    -4.0115334  0.6248114999999999  12.2791722
H    -3.586413  2.2777184  12.7429888
H    -1.0742447999999998  2.4966651  1.1226510999999997
H    -0.6253796999999999  4.3085334  3.2428611
H    -0.486761  5.1907694  1.7224164999999996
H    1.5477632999999997  4.1921042  1.2499997999999994
H    0.8563393000000001  2.6030645  1.5098156999999999
H    2.4359136  2.5749491  3.1790546999999996
H    1.0967108000000003  3.2653312999999997  4.0868227
H    2.0317980999999996  5.5845898  3.3511618
H    3.4522139999999997  4.6978053  2.7972639999999998
H    4.0582687  5.3052145  4.993404099999999
H    3.4205044000000004  3.659644  5.2416911
H    -3.2870314  5.2875977  9.0550217
H    -2.0079883  6.2119944  7.1554322
H    -1.7569251  4.5871051  6.5109711
H    -0.39274180000000003  4.0187523  8.5571696
H    -0.5331443  5.7207085  9.0724684
H    -2.8661015  2.5512447999999996  8.0510622
H    -6.8589882  4.7266127  4.087801799999999
H    -5.13074  6.6073132999999995  2.6219889
H    -5.1782617  4.4897557  0.9118202999999996
H    -5.363965  3.6044704  2.414917
H    -3.2449526  4.6070978  3.2755568999999998
H    -3.0675957  5.5305765  1.7835853999999998
H    -7.783108  5.3152186  1.8050496999999996
H    -6.8067287  6.3848707  0.7679175999999996
H    -7.8316839  7.1558396  3.2796309999999997
H    -4.9353713  6.3945521  7.8955076
H    -6.6386077  4.6844523  6.2764725
H    -7.9161828  6.8695694  5.9320426
H    -6.7545375  7.6560725000000005  6.991291299999999
H    -7.5342318  6.2928939999999995  8.8993713
H    -9.6888753  7.531152499999999  7.1406339
H    -8.762708100000001  8.3343224  8.4060805
H    -11.0829116  7.7951044  9.1040818
H    -9.8991371  6.9751466  10.1218097
H    -11.3513923  5.6903812  7.7650967
H    -11.718337  5.422325  9.4724598
H    -10.2209827  3.6259667999999996  8.6619673
H    -9.3653698  4.6333825  9.830862
H    -7.9826339  4.164434  7.8315892
H    -9.2248692  4.8871116  6.7969748
