153

N    11.759  -67.879  8.762
C    13.0749983  -67.4399872  8.2479399
C    13.527883  -66.0916432  8.8357477
O    14.5044896  -65.52268240000001  8.3815266
C    13.0205284  -67.3423195  6.718751800000001
C    12.866542299999999  -68.6930373  6.0328086
C    12.6729625  -68.5411169  4.4969099
O    12.930954  -69.5462856  3.8028828000000003
O    12.252471  -67.4487041  4.0698781
N    12.7648317  -65.6098018  9.8365166
C    13.0794376  -64.3583167  10.5194784
C    13.155227  -63.1963737  9.5126813
O    14.2114269  -62.6835997  9.1918279
C    14.4013843  -64.4704635  11.280384900000001
C    14.7117035  -63.1794927  12.085845599999999
O    14.2280943  -63.1052176  13.2364879
O    15.4274827  -62.3152807  11.5513031
N    11.970676300000001  -62.7923588  9.00789
C    11.8891638  -61.6514475  8.1095697
C    10.4589708  -61.124649  8.0911784
O    9.5077111  -61.8332842  8.4081176
C    12.3523385  -62.044205  6.6955995
C    12.384545800000001  -60.8819016  5.7105654
C    13.2590489  -59.6993521  6.198553400000001
O    14.2028733  -59.9409354  6.9742488
O    12.9542239  -58.5585882  5.780426
N    10.3207939  -59.847935  7.7288725000000005
C    9.0763902  -59.123461400000004  7.893137
C    8.0379961  -59.4340617  6.8123244000000005
O    8.3442306  -59.6917598  5.656389600000001
C    9.3676902  -57.6140174  7.8483173
C    10.361699300000002  -57.2170414  8.885434700000001
C    11.7150508  -57.1148617  8.7224653
C    10.0888374  -56.8883437  10.248082400000001
N    12.300485  -56.7267776  9.8942858
C    11.3349315  -56.5885269  10.84937
C    8.9258387  -56.814158400000004  11.0153322
C    11.4325465  -56.2136293  12.1840524
C    9.0298973  -56.446191  12.337887
C    10.2676536  -56.148301000000004  12.915502400000001
N    6.7674953  -59.3526996  7.237129400000001
C    5.629944200000001  -59.3301694  6.3327231
C    5.0842404000000005  -57.9001563  6.3467446
O    4.5334396  -57.4394525  7.3387558
C    4.5273834  -60.3123511  6.7668017
C    3.2804486  -60.1377578  5.9007626
C    5.0408938  -61.7430445  6.6813019
N    5.277604  -57.1895791  5.229748000000001
C    4.8729071  -55.7977081  5.1318763
C    3.4643439000000003  -55.6760181  4.5272887
O    3.2593335000000003  -55.9505514  3.3491479
C    5.8668315  -55.0324362  4.2521925000000005
C    5.4302964000000005  -53.5861443  4.0657053
O    5.7242225  -52.7102805  4.8682216
N    4.7279554  -53.3432007  2.953628
N    2.5091168  -55.2612984  5.3604023000000005
C    1.1393254000000006  -55.0549721  4.924318400000001
C    0.8975905000000006  -53.5417681  4.844275700000001
O    1.5580008000000003  -52.7716859  5.531607
C    0.10007240000000017  -55.727281  5.8671904
C    0.6405962000000001  -57.017191600000004  6.4885846
C    -0.3692181999999997  -54.7755558  6.9640595
N    -0.04283020000000004  -53.1158847  3.9903675
C    -0.29437140000000017  -51.695308600000004  3.8149926
C    -1.7677360000000002  -51.4559286  3.4470208
O    -2.338030699999999  -52.2552559  2.7172391000000005
C    0.5875918000000002  -51.1298328  2.6761934000000003
C    1.3057248000000001  -49.8386064  3.0631361000000004
C    0.34251520000000024  -48.744305600000004  3.4861231000000004
O    -0.7622213999999996  -48.603630100000004  2.9759583000000003
N    0.7834270999999999  -47.9325767  4.4560621000000005
N    -2.3124760999999996  -50.3399848  3.9349419
C    -3.6202462000000004  -49.839378  3.5385497000000004
C    -4.728086899999999  -50.9017402  3.8509299
O    -5.5568255  -50.596129  4.7327152
C    -3.6293383000000006  -49.4415774  2.0454892000000005
C    -4.8790005  -49.8449067  1.3149007
C    -4.960835299999999  -51.091115  0.7040823000000005
C    -5.970154599999999  -48.9934231  1.2243663000000007
C    -6.1006009  -51.4791793  0.030820600000000198
C    -7.1136514  -49.3653635  0.5408153000000002
C    -7.1842416  -50.6166146  -0.05709969999999931
O    -8.3181405  -50.9716678  -0.7297782999999995
O    -4.7440137  -51.9702338  3.2333675000000004
H    11.4649024  -68.6898719  8.1950379
H    11.056522600000001  -67.1404842  8.6270015
H    11.792811700000001  -68.1741328  9.7452544
H    13.8381173  -68.177682  8.5147503
H    13.9380814  -66.8659358  6.3706837
H    12.205980199999999  -66.6893852  6.3986791
H    11.976933200000001  -69.2354527  6.360304800000001
H    13.737656300000001  -69.3306871  6.1812587
H    12.144513  -66.2107968  10.356933600000001
H    12.2714184  -64.142648  11.224282200000001
H    15.211885800000001  -64.60635260000001  10.563554
H    14.3530841  -65.3020436  11.9849408
H    11.0760135  -63.1652268  9.3015788
H    12.5806491  -60.8793108  8.471750700000001
H    11.703058500000001  -62.8345851  6.3104167
H    13.3666834  -62.4366301  6.8035506
H    11.3842954  -60.5101839  5.4770408
H    12.8351773  -61.2260061  4.775769700000001
H    11.1268733  -59.323711  7.4219592
H    8.6696662  -59.4069959  8.8723356
H    8.4330037  -57.0690905  7.9922565
H    9.7656686  -57.382338  6.8568353
H    12.306181500000001  -57.2931144  7.8404933
H    13.2925316  -56.6495277  10.0385369
H    7.9653183  -57.035519  10.5751556
H    12.3914138  -55.9922092  12.627131
H    8.1404108  -56.3845491  12.9461048
H    10.3084335  -55.8650456  13.9559546
H    6.5712326  -59.1136577  8.1982981
H    6.0154553  -59.5977745  5.3450082000000005
H    4.269414  -60.071910700000004  7.802933
H    2.515238  -60.8414279  6.2134812
H    3.5157065000000003  -60.3204943  4.854835400000001
H    2.8838875  -59.1305098  5.9977555
H    5.961647800000001  -61.8589071  7.2495571000000005
H    5.2510763  -62.0057871  5.6470354
H    4.2994556  -62.433206  7.0726775
H    5.6973117  -57.6138201  4.416399500000001
H    4.8692359000000005  -55.3929819  6.1493747
H    5.9219465  -55.5233525  3.2801779000000004
H    6.8471001000000005  -55.0413199  4.728391200000001
H    4.3546792  -52.4172867  2.8152107
H    4.3697123  -54.1017704  2.3948361000000005
H    2.7432044  -54.9443851  6.2892402
H    1.0755372000000003  -55.4938829  3.9241147
H    -0.7659354  -55.9772834  5.2465576
H    -0.15623260000000005  -57.5209904  7.0266257
H    1.4532471999999999  -56.8143259  7.1809757
H    1.0079953000000001  -57.6838538  5.7114148
H    -0.9461098999999997  -53.9506496  6.5505575
H    0.47586890000000004  -54.3603225  7.5079678
H    -1.0030443999999994  -55.308650300000004  7.6672975
H    -0.6268120999999995  -53.7362306  3.4471738000000003
H    -0.03982639999999993  -51.2102505  4.763180200000001
H    -0.04222999999999999  -50.9534838  1.8010831999999999
H    1.3296579  -51.8835953  2.4124841000000004
H    1.8655037  -49.4711291  2.2013532000000002
H    2.0041163  -50.0474558  3.8748985000000005
H    0.20556710000000056  -47.160004900000004  4.7459347
H    1.6928166999999998  -48.0491207  4.8687994
H    -1.7721991  -49.7528874  4.5467193
H    -3.8426621  -48.977457900000005  4.171248
H    -2.7795863  -49.939271500000004  1.5759823000000006
H    -3.4717353000000006  -48.364523500000004  1.9704128
H    -4.123908  -51.768302  0.7846202
H    -5.9282292000000005  -48.025028500000005  1.7017228000000006
H    -6.146825399999999  -52.4606956  -0.41899579999999936
H    -7.9624135  -48.7033079  0.4725572000000007
H    -8.2264796  -51.8722875  -1.0760629999999995
