66

C    2.3089999999999997  2.526  24.162
C    1.8917284999999997  -0.19807300000000017  24.718201399999998
C    1.5497726999999997  -2.2729397000000002  25.5651293
C    7.62368  0.6186610999999997  22.424495699999998
C    8.4223283  0.7798065999999997  19.0987765
C    8.1047185  -0.7797039000000003  16.790789699999998
C    5.4395012  0.1733933999999997  14.755398999999999
C    6.8317112  3.7793804999999994  12.437733399999999
C    7.169120899999999  0.5510113999999998  18.567259399999998
O    3.740703  3.5414189  22.5227641
C    3.5765518  2.6394281  23.3323279
S    1.1441799000000001  1.1411517999999998  23.8690669
N    1.0882610999999995  -1.2389233000000004  24.858426
C    0.6307359999999997  -3.4262373000000004  25.7754569
C    2.8363341999999996  -2.2448362  26.0946492
C    3.6223210999999997  -1.1219860000000004  25.863435199999998
C    5.0286288  -1.0366844000000002  26.3467631
N    3.1348797999999998  -0.0823771000000002  25.1770222
N    4.5294631  1.7213887999999997  23.6277952
C    5.7011388  1.5375670999999997  22.9317826
S    6.1186644  2.4397952999999997  21.491592999999998
C    7.585806  1.4918977999999998  21.384412599999997
N    6.5699236  0.6460489999999998  23.2815456
C    8.5951451  1.6871138999999997  20.298875
C    6.9978751  -0.2214425000000002  17.4199086
C    9.363839899999999  -0.5570662000000002  17.3308034
C    9.526625899999999  0.21081979999999978  18.469113999999998
O    5.6822997  -0.32433310000000026  17.0649381
C    5.2860502  -0.8637911  15.8140521
N    4.4483061  1.0311437999999997  14.4212235
N    4.8824434  1.8505727999999997  13.5295375
N    6.1512218999999995  1.5633695999999997  13.2648672
C    6.5511896  0.5163133999999998  14.0146187
C    6.9148494  2.2809695999999997  12.263277299999999
C    6.281007  4.5794842  11.445414399999999
C    6.2041642  5.9524213  11.6086777
C    6.6764252  6.5423283  12.7679239
C    7.2298995999999995  5.7522536  13.7610494
C    7.3100457  4.380255  13.5957069
H    1.7062364999999997  3.4130975  23.9683659
H    2.5755963  2.4778404  25.218034
H    8.4130783  -0.08367310000000017  22.6185857
H    7.9986426  -1.3848575  15.904513999999999
H    6.2839395  0.9775474999999998  19.0145862
H    1.1141911000000002  -4.2037349  26.3575667
H    0.3182242999999998  -3.8244521000000002  24.812942399999997
H    -0.26497860000000006  -3.0836484000000004  26.2881115
H    3.221355  -3.0728228  26.665412699999997
H    5.4784146  -0.09170180000000028  26.058096
H    5.6084403  -1.8490069000000002  25.9148213
H    5.0552389  -1.1425658  27.4288084
H    4.2563182  0.9870125999999998  24.3148682
H    8.531573  2.7214491  19.950235499999998
H    9.5899705  1.5297290999999997  20.719992299999998
H    10.2260133  -0.9918057000000002  16.8492335
H    10.516125899999999  0.3781429999999998  18.865783
H    5.852508  -1.7680828000000004  15.569262299999998
H    4.2296452  -1.1072174000000004  15.9378713
H    7.5405231  0.1147564999999997  13.966191799999999
H    7.9514029  1.9462906999999998  12.347461
H    6.5279210999999995  2.0085173999999997  11.2772533
H    5.9033643  4.1268414  10.541133599999998
H    5.7711405  6.5606639  10.829681099999998
H    6.6133717  7.6114843  12.8997831
H    7.6007134999999995  6.2027647  14.669464399999999
H    7.7397502  3.7704201999999993  14.378504799999998
