65

C    -7.177999999999999  8.878  -13.198
C    -6.4615576  6.3092614  -12.0336444
C    -6.4599785  4.141588099999999  -13.138508700000001
C    -8.3810428  4.849342599999999  -11.885602200000001
C    -3.2185583999999996  13.4589564  -14.252794100000001
C    -2.5891898999999996  12.0941341  -16.1824922
C    -1.9519477999999997  10.7379597  -18.09799
C    -5.1614816999999995  14.165941199999999  -7.4825713
O    -4.9046316999999995  15.1146395  -8.5017633
C    -5.6965698  15.007017399999999  -9.6701452
C    -4.9303659  14.667034999999998  -10.9665724
N    -5.0838073999999995  13.328007  -11.557810400000001
C    -6.1702898  12.5045288  -11.0253769
C    -6.3504153  11.2394126  -11.8667493
C    -7.4440158  11.441131799999999  -12.8809664
C    -7.4970753  10.2487506  -13.8117602
N    -6.7906946999999995  8.7595846  -11.763167300000001
C    -5.7886435999999994  7.639665099999999  -11.6571657
C    -5.831149399999999  5.343064599999999  -12.8224845
C    -7.74332  3.898837199999999  -12.6747149
C    -7.7471058  6.0356909  -11.5560483
C    -6.6400653  10.0297351  -10.9852851
S    -3.5973090999999995  12.4925011  -11.6858418
O    -3.6160378999999994  11.177832299999999  -11.058716
O    -2.5698742999999995  13.322280899999999  -11.086791400000001
C    -3.2416029999999996  12.308614799999999  -13.4450989
C    -2.9038391999999997  13.345727799999999  -15.590227800000001
C    -2.2584039  11.9607873  -17.5587098
C    -1.9669525999999995  9.5921051  -17.2813088
C    -2.2806547999999998  9.6902157  -15.9473053
C    -2.6011627999999996  10.9397991  -15.357266
C    -2.9369321  11.080914799999999  -13.9740711
H    -6.356558499999999  8.4602069  -13.7799672
H    -8.0309276  8.2173676  -13.3555273
H    -5.947708899999999  3.4112950999999994  -13.7436205
H    -9.3750164  4.6522182999999995  -11.5144673
H    -3.4467112999999996  14.412649  -13.8070655
H    -1.7002260999999996  10.6482675  -19.1424493
H    -4.5259952  14.4508823  -6.6480874000000005
H    -4.8968979  13.1529688  -7.8070445
H    -6.2107819  14.197861799999998  -7.1744269
H    -6.1146331  16.0111927  -9.8175592
H    -6.5311965999999995  14.331859399999999  -9.4844363
H    -3.8700785999999994  14.832761099999999  -10.7762665
H    -5.253958  15.370195299999999  -11.7397666
H    -7.0783699  13.1054694  -11.0691854
H    -5.9564062  12.231797499999999  -9.983783200000001
H    -5.4142924  11.0579986  -12.400313500000001
H    -7.2639026  12.347453699999999  -13.4550312
H    -8.3974835  11.563431999999999  -12.3598099
H    -8.479481499999999  10.2051254  -14.2807034
H    -6.777496899999999  10.4240213  -14.6129966
H    -7.6122331999999995  8.3366744  -11.3141089
H    -4.9277894  7.847197699999999  -12.289593
H    -5.4482323  7.5822392  -10.6204939
H    -4.834025  5.5291814  -13.1919923
H    -8.2453845  2.9759104999999995  -12.919827
H    -8.2689595  6.707780499999999  -10.8899127
H    -7.5617185  10.2117081  -10.4329292
H    -5.8116546  9.9091963  -10.2842993
H    -2.8873106999999996  14.2290758  -16.2097437
H    -2.2507025999999994  12.8497132  -18.1706179
H    -1.7247326999999997  8.632283999999999  -17.7093936
H    -2.2815744999999996  8.809065  -15.324474
H    -2.9357048  10.2128939  -13.3329367
