95

C    59.668  -53.636  23.984
O    60.1440621  -54.6408949  24.4808705
O    59.2740417  -52.5691279  24.738094500000003
C    59.408621999999994  -52.6430504  26.189745100000003
C    60.117865599999995  -51.413363000000004  26.750440800000003
C    61.364132399999995  -51.5286532  27.3698134
C    62.011404899999995  -50.4076396  27.875055500000002
C    61.420877399999995  -49.1537573  27.7699676
C    60.176976399999994  -49.0267693  27.163630200000004
C    59.5296622  -50.1480411  26.661159200000004
N    57.312288599999995  -50.2039266  15.743284100000004
C    56.215349399999994  -49.27047  15.496805300000002
C    55.186040999999996  -49.3226618  16.650380100000003
C    54.4358905  -50.6614302  16.719486300000003
C    53.93881  -51.0183636  18.139696500000003
C    55.0266168  -51.6384759  19.0159647
C    55.44719189999999  -53.0241329  18.514867700000003
N    56.27166509999999  -53.719151600000004  19.495400600000004
C    57.5410762  -54.1751077  19.370954100000002
C    57.876707599999996  -54.7720191  20.584350600000004
C    59.1563762  -55.448928  21.036617400000004
C    60.1569212  -54.4579508  21.6895759
N    59.504148699999995  -53.5254848  22.623519
C    60.890054899999996  -53.6928867  20.574696300000003
O    60.577972599999995  -52.553863  20.251808200000003
N    56.7776791  -54.6373191  21.366127600000002
N    55.845696399999994  -54.0195041  20.719198400000003
N    61.904608399999994  -54.3619992  19.9769308
C    62.7264656  -53.7193588  18.957600600000003
C    61.914076599999994  -53.3727244  17.712718000000002
O    61.0362418  -54.103484800000004  17.2902318
C    63.898305199999996  -54.6055395  18.507564200000004
C    64.9703244  -54.863876  19.5879274
C    65.5294498  -53.5551  20.145916100000004
C    66.68685839999999  -53.8012621  21.112864000000002
C    67.8074267  -54.5972891  20.4486516
C    67.2611661  -55.9251264  19.940210800000003
C    66.1043622  -55.695107900000004  18.9681108
N    62.31015669999999  -52.2342667  17.0955292
C    61.761243699999994  -51.7517406  15.836304800000002
C    60.863704299999995  -50.5310371  16.022858700000004
C    59.49460379999999  -50.9331012  16.5820338
C    58.484114999999996  -49.8328019  16.307634000000004
O    58.7414132  -48.662335  16.562071100000004
C    62.9286099  -51.4207431  14.901588300000004
O    63.709938599999994  -52.5266839  14.567166700000003
H    59.9562514  -53.557024  26.4324727
H    58.3895876  -52.703833  26.581183600000003
H    61.8296679  -52.4999939  27.448441800000005
H    62.974432099999994  -50.5155656  28.349125300000004
H    61.924714599999994  -48.2836095  28.161054200000002
H    59.709194399999994  -48.0580513  27.0820389
H    58.567723599999994  -50.0508314  26.180970800000004
H    57.136475999999995  -51.181172600000004  15.576166400000002
H    55.746586799999996  -49.5277126  14.547273800000003
H    56.6539393  -48.273733  15.440526000000002
H    54.4792043  -48.503475  16.527922900000004
H    55.733400599999996  -49.152633  17.579686000000002
H    55.074367699999996  -51.4653378  16.360689000000004
H    53.5750191  -50.6117227  16.051270000000002
H    53.1104813  -51.723006  18.059675400000003
H    53.5643076  -50.1155835  18.6219472
H    54.647418099999996  -51.7537058  20.032314000000003
H    55.9006519  -50.9849431  19.054941700000004
H    56.0354446  -52.9679125  17.6004876
H    54.555361399999995  -53.6322441  18.344018400000003
H    58.1219877  -54.054285  18.478677700000002
H    59.6273293  -55.9252112  20.178796100000003
H    58.8807919  -56.1965271  21.779761900000004
H    60.876082399999994  -55.0346415  22.279882300000004
H    59.1996536  -52.6443812  22.2338224
H    62.07920549999999  -55.3306511  20.194133100000002
H    63.095683799999996  -52.7834237  19.390755800000004
H    64.379269  -54.1082629  17.664693500000002
H    63.4970863  -55.5552203  18.149779800000005
H    64.5302947  -55.432077  20.413222
H    64.7511183  -53.0042936  20.675732500000002
H    65.8869113  -52.9370138  19.318898200000003
H    66.31974439999999  -54.3563096  21.979728800000004
H    67.0702834  -52.8438469  21.470582500000003
H    68.6139374  -54.7710794  21.1625362
H    68.21487069999999  -54.0251296  19.612445700000002
H    66.9112555  -56.5181382  20.788656300000003
H    68.0483481  -56.490578  19.439320000000002
H    66.48644809999999  -55.1681262  18.0906781
H    65.7105081  -56.6562489  18.633116800000003
H    62.93699599999999  -51.6075836  17.577384200000004
H    61.191200499999994  -52.5853734  15.413424700000004
H    60.7174634  -50.0578729  15.050869500000003
H    61.3333978  -49.7997473  16.6787449
H    59.559646699999995  -51.0853989  17.6624024
H    59.169002199999994  -51.8691462  16.126842700000005
H    63.544473599999996  -50.6326196  15.358282700000004
H    62.5383657  -51.043775600000004  13.954357200000004
H    64.0642929  -52.9290593  15.371528200000004
