42

C    -25.735  -11.246  0.478
C    -26.236832500000002  -9.8527503  0.7626093
O    -25.511104200000002  -9.0506231  1.3265704
N    -27.5240847  -9.4973321  0.37209380000000003
C    -28.4453359  -10.2905213  -0.2987531
C    -29.5933284  -9.5968646  -0.5462389999999999
N    -30.751495300000002  -10.0815763  -1.2296832000000002
C    -31.1622338  -9.4870097  -2.4022262
C    -32.4027439  -10.0040639  -3.1039597
O    -30.551704100000002  -8.5367852  -2.8808835
C    -31.4127921  -11.2300791  -0.6583167999999999
C    -31.1977905  -12.4939044  -1.2199486999999998
C    -30.2776416  -12.682406  -2.3927935
C    -31.8544571  -13.5849058  -0.6603893999999999
C    -32.6969577  -13.441699999999999  0.42699070000000006
C    -32.9017585  -12.1868309  0.9942763
C    -32.2485304  -11.0788113  0.4452918
O    -33.72844  -12.019005499999999  2.0691735
C    -29.4153637  -8.2719629  0.009211500000000011
C    -28.1208702  -8.2413579  0.5669193
C    -27.6419102  -7.0896193  1.1870794
C    -28.4617587  -5.9740001  1.2518015999999998
C    -29.7453215  -5.9980141  0.7078685
C    -30.226949700000002  -7.137897  0.088202
H    -26.4467199  -11.893761099999999  -0.013294299999999981
H    -25.4339772  -11.6843045  1.4270976000000002
H    -24.8401232  -11.1522094  -0.1333376
H    -28.2338399  -11.3097456  -0.5422834999999999
H    -32.555373700000004  -9.390303  -3.9855234999999998
H    -33.2602116  -9.9167855  -2.4392421
H    -32.3081518  -11.045668599999999  -3.3890502
H    -30.2301056  -13.7335352  -2.6639625
H    -29.2729296  -12.3415634  -2.1539981
H    -30.599857  -12.118360299999999  -3.2634939
H    -31.7013256  -14.565365799999999  -1.0832763
H    -33.1941529  -14.307825399999999  0.8362776
H    -32.4031316  -10.1047081  0.8822719
H    -34.1059872  -12.8693048  2.3398052000000003
H    -26.649628800000002  -7.0707512999999995  1.6076937999999998
H    -28.0969609  -5.078986  1.7291751999999998
H    -30.369046400000002  -5.1202882999999995  0.7678641
H    -31.2158391  -7.1551203  -0.34504619999999997
