34

C    -24.385  -6.827  77.243
C    -23.506997900000002  -5.9242921  77.82760599999999
C    -22.201610300000002  -5.723795  77.31653839999998
C    -25.390894600000003  -5.9637746  78.89383969999999
N    -21.9592399  -6.4924076  76.18781169999998
N    -24.0316541  -7.5631629  76.1536295
C    -23.819047800000003  -3.0002200999999995  79.16729039999998
C    -23.6636211  -4.3824244  79.79020599999998
N    -24.177704000000002  -5.3926137999999995  78.89653859999999
N    -25.553378900000002  -6.8417772999999995  77.91942319999998
O    -21.3313828  -4.977087099999999  77.7485694
C    -22.808645900000002  -7.3861136  75.57740299999999
O    -22.438866500000003  -7.9910692  74.58504789999999
C    -25.0085942  -8.4493253  75.53648919999999
C    -25.832386900000003  -7.6585763  74.5700823
C    -26.999423  -7.0351041  74.98610459999999
C    -27.7426612  -6.2807607999999995  74.09256459999999
C    -27.3268962  -6.1257871999999995  72.77989109999999
Cl    -28.317806  -5.1835621  71.6596209
C    -26.145800100000002  -6.719291699999999  72.36171709999999
C    -25.403161200000003  -7.476597999999999  73.261276
H    -26.1487215  -5.7446196  79.6179318
H    -21.046449900000002  -6.3915235  75.75589109999999
H    -23.447527400000002  -2.2464104999999996  79.85424629999999
H    -24.8630928  -2.7933213999999995  78.94561199999998
H    -23.241558  -2.9402627999999997  78.24761109999999
H    -24.214964100000003  -4.4475044  80.72913849999999
H    -22.6064736  -4.591159299999999  79.96374619999999
H    -25.6254825  -8.8559638  76.33722959999999
H    -24.455537800000002  -9.2396136  75.02620599999999
H    -27.332289300000003  -7.1436677  76.0057265
H    -28.656988000000002  -5.809378  74.41850319999999
H    -25.8049013  -6.5979173  71.3459171
H    -24.481703800000002  -7.9330878  72.93303319999998
