44

C    -0.774  9.465  15.239
C    -1.5651621  10.0123023  16.207644000000002
C    -2.3229747  9.1947324  17.0726611
C    -2.241801  7.812805999999999  16.9042734
N    -1.3315541  5.869488  15.7799617
C    -0.5676855000000001  5.3045446  14.854280600000001
C    0.9914258  5.440383799999999  12.9625948
C    1.7558924999999999  6.195135799999999  12.0803233
C    1.7046709  7.6058845999999996  12.2038213
C    0.9365128  8.223882099999999  13.1523705
C    0.20095929999999995  6.0636046  13.9450716
C    0.1549646  7.482076899999999  14.0550253
C    -0.6659320000000001  8.0702812  15.0631562
C    -1.4202209  7.239076399999999  15.9293111
C    -0.5218219000000001  3.8410835999999993  14.7181379
C    0.48743629999999993  3.1017670999999996  15.3251703
C    0.5239331  1.7282032999999997  15.1525453
C    -0.43404640000000005  1.0968884999999995  14.3745332
C    -1.4301513  1.8377500999999992  13.7574461
C    -1.4734861000000001  3.2111602999999995  13.9217087
C    -2.1051581  5.0389763  16.6908934
C    -1.5725643  5.1137730999999995  18.1180273
N    -3.0986508  9.7465163  18.0435547
N    2.5297461  5.6224875999999995  11.119561000000001
H    -0.22276440000000003  10.1253742  14.5921233
H    -1.6225877  11.0847218  16.3141177
H    -2.8781002  7.217136  17.5316279
H    1.0060852  4.3650934999999995  12.8939362
H    2.2941811  8.202758  11.5239321
H    0.9415563  9.2997699  13.1936172
H    1.2316445999999999  3.5993861999999996  15.9269934
H    1.3022303  1.1492395999999996  15.6249722
H    -0.4014131000000001  0.026056799999999214  14.245452
H    -2.1699904  1.3458034999999997  13.1454961
H    -2.2427691000000003  3.7950314999999994  13.4406729
H    -2.0680149  4.006945699999999  16.3463417
H    -3.1449542  5.3697989999999995  16.646222
H    -2.2948948  4.6651573  18.7953609
H    -1.3679027000000001  6.1286767  18.4400459
H    -0.6446862  4.5479606  18.1954223
H    -3.2153141  10.7422574  18.0772975
H    -3.7199537  9.1684166  18.579253
H    2.5649976  4.624838499999999  11.029500800000001
H    3.0661869999999998  6.195213699999999  10.4963589
