132

N    23.553  -2.438  19.357
C    23.4184092  -2.4993570000000003  20.8300356
C    23.6064333  -1.0781549000000004  21.3923557
O    24.6463101  -0.4708859000000003  21.1823836
C    24.503641100000003  -3.4149859000000005  21.4076201
C    24.3229713  -3.6075794  22.9071516
C    23.003867300000003  -4.3075259  23.2310375
N    23.0926006  -5.7425614000000005  23.0508212
C    22.8821374  -6.4168970000000005  21.92914
N    22.562911  -5.7923629000000005  20.791908499999998
N    22.996954900000002  -7.738933  21.9397926
N    22.5731307  -0.5725135000000001  22.0767365
C    22.5442269  0.8395742999999998  22.4154293
C    23.3491335  1.2100133  23.6725443
O    24.2922051  1.9981836  23.5680394
C    21.1064861  1.3495602  22.4929849
N    22.9843476  0.7272101999999996  24.8633849
C    23.6500026  1.2219560999999999  26.0684823
C    25.0830898  0.6806667999999996  26.1690581
O    25.38924  -0.41965090000000016  25.7308253
C    22.788229400000002  0.7049762999999998  27.234690399999998
C    21.5812034  0.018310999999999744  26.5803185
C    22.0740683  -0.3600747000000002  25.1901018
N    25.959263500000002  1.4855780999999997  26.7903949
C    27.3882537  1.2351458999999996  26.7179216
C    27.907509700000002  0.1333882999999998  27.6493221
O    27.7570234  0.2036397999999997  28.8634751
N    28.5340938  -0.8899225000000002  27.0517584
C    29.2374498  -1.9119496000000002  27.814679599999998
C    30.4344337  -1.3007748000000001  28.5600655
O    31.128943800000002  -0.42452860000000014  28.0586114
C    29.7634016  -3.0173555000000003  26.8877385
C    28.9778671  -4.3358849  26.8602324
C    27.4718036  -4.1092906  26.7399698
C    29.5061788  -5.1759913  25.693914499999998
N    30.6536142  -1.7919080000000003  29.7904439
C    31.7258645  -1.2858427000000003  30.6289888
C    33.0742236  -1.9000592000000003  30.241397
O    33.1728374  -3.0890174000000004  29.9507276
C    31.460811800000002  -1.6074947000000002  32.100755
C    30.0988429  -1.1203962000000003  32.5667024
C    29.874514100000003  -1.4550440000000002  34.033596
C    28.550419700000003  -0.8601594000000002  34.4933659
N    28.275827200000002  -1.2226521000000004  35.8999588
N    34.1127212  -1.0608070000000003  30.258915899999998
C    35.4527182  -1.4626540000000001  29.8781243
C    36.3883747  -1.2349036000000002  31.074643
O    36.1914752  -0.2758312000000003  31.8282299
C    35.9150275  -0.6500366000000002  28.6496054
C    34.8647158  -0.7046751000000002  27.5259942
C    37.2860769  -1.1135876000000002  28.1678309
C    34.535249300000004  -2.1065261  27.0308839
N    37.366962  -2.1197374  31.2773386
C    38.3520522  -1.9490221  32.33955
C    39.5695459  -1.0454111000000004  31.9223784
O    39.3448942  -0.0795507000000002  31.1740082
C    38.8003779  -3.3573349  32.7090507
C    38.412565  -4.2353381  31.5197639
C    37.3812227  -3.4576821000000004  30.711371
O    40.6855433  -1.3412245000000003  32.3868604
H    23.655170400000003  -3.3805110000000003  18.9563547
H    24.4078168  -1.9056501000000003  19.1307824
H    22.760443000000002  -1.9625275000000002  18.9076149
H    22.4111286  -2.8409136000000004  21.0639702
H    25.4720614  -2.9412324000000005  21.2353714
H    24.4966115  -4.3798435  20.9052841
H    24.3604804  -2.6390271000000003  23.4095583
H    25.148768  -4.1975633000000006  23.301828999999998
H    22.163814600000002  -3.9170798000000002  22.6638334
H    22.7742406  -4.142374  24.285611199999998
H    23.431328  -6.2634739  23.8455808
H    22.275265400000002  -6.3620558  20.0107329
H    22.1302847  -4.886048300000001  20.852971
H    23.3335686  -8.2279218  22.751336
H    22.8777674  -8.2772228  21.0982101
H    21.7308212  -1.1026161  22.2477778
H    23.078613100000002  1.3734257999999997  21.6174539
H    21.1179371  2.4107431999999998  22.7283589
H    20.518447300000002  0.8452685  23.250602
H    20.621723000000003  1.2290194999999997  21.5275103
H    23.6890123  2.3133012999999996  26.0097306
H    22.4882287  1.5155021999999998  27.8932322
H    23.366146800000003  -0.012698500000000168  27.8181598
H    20.7554933  0.7257179999999996  26.501347199999998
H    21.2473269  -0.8432643000000002  27.150975
H    22.6536255  -1.2886284000000003  25.2318099
H    21.2680063  -0.44970390000000027  24.4730523
H    25.6565327  2.3661537999999998  27.172994499999998
H    27.911098600000003  2.1506223999999996  26.9962555
H    27.6344524  0.9787866999999997  25.68288
H    28.747677  -0.8271685000000002  26.067893299999998
H    28.539629100000003  -2.3010497  28.5614422
H    30.7965352  -3.2417588000000004  27.1699356
H    29.8076747  -2.6132059000000005  25.8742166
H    29.1753883  -4.8770515  27.7914661
H    26.966467  -5.0667715  26.651008
H    27.2492853  -3.5052362  25.8636759
H    27.0768561  -3.5950379000000003  27.6103101
H    30.5815588  -5.3115857  25.781896
H    29.2991202  -4.6832807  24.7475761
H    29.039540300000002  -6.157267200000001  25.6888336
H    30.2321758  -2.6663991000000005  30.065785299999998
H    31.7674272  -0.20467740000000023  30.4615285
H    32.2564197  -1.1468426000000003  32.6895305
H    31.5428584  -2.6903737000000003  32.2284114
H    29.3156378  -1.5678155000000003  31.9557695
H    30.0459999  -0.0399031000000003  32.4179437
H    30.700452000000002  -1.0493147000000003  34.6191755
H    29.8719718  -2.5388333000000003  34.153452099999996
H    27.743617800000003  -1.2327434000000002  33.8623796
H    28.5859892  0.22498439999999986  34.4000435
H    27.387672900000002  -0.8173201000000002  36.217421
H    29.0293013  -0.8773358000000002  36.5061867
H    28.2284449  -2.2436052  36.0004865
H    34.0245132  -0.11296960000000023  30.5941419
H    35.3980939  -2.5204823000000003  29.621494
H    36.0139413  0.3935818999999998  28.974555
H    35.2473819  -0.11153090000000021  26.6933397
H    33.9421  -0.23117120000000013  27.8687912
H    38.032316  -0.9646776000000002  28.9482539
H    37.5902522  -0.5250622000000003  27.3055912
H    37.2728314  -2.1610935000000002  27.882445699999998
H    33.8119624  -2.0356969  26.222112499999998
H    34.0999805  -2.7144105000000005  27.8184637
H    35.4218671  -2.6071763  26.6525367
H    37.882602  -1.4044280000000002  33.1682543
H    38.2973327  -3.685017  33.619535299999995
H    39.874735  -3.3467816  32.8915656
H    38.02045  -5.1942828  31.8500344
H    39.296106  -4.4227013  30.9089659
H    37.6519944  -3.4306027  29.6551972
H    36.3868705  -3.900742  30.8184553
