44

P    -7.395  -0.2620000000000001  -21.116
O    -7.524230199999999  1.1619579  -21.6044732
O    -8.7084726  -0.9947612000000001  -20.996988400000003
O    -6.5096867  -0.39359140000000015  -19.8950874
O    -6.496010399999999  -1.0637657000000003  -22.3333219
P    -7.210020899999999  -2.0803476  -23.3332057
O    -8.119427299999998  -1.4145665000000003  -24.3061469
O    -7.7466756  -3.2950991000000003  -22.658653
O    -5.8226523  -2.5785773  -24.0924148
P    -4.841182  -1.5664687000000002  -24.9206721
O    -4.5411629  -2.2089815  -26.228883200000002
O    -5.3490671999999995  -0.1685869000000002  -24.932071
O    -3.4462854999999992  -1.6341953000000002  -24.0588635
C    -3.227100799999999  -0.7636150000000002  -22.9617717
C    -2.0478440999999994  0.16410859999999983  -23.256101
O    -0.8303518999999993  -0.5607455000000001  -23.3475614
C    -2.1973327999999994  0.9309727999999997  -24.5729894
O    -1.6817427999999994  2.2294897  -24.4318962
C    -1.2655673999999992  0.17969809999999975  -25.5435321
O    -0.7831614999999994  0.9798263999999999  -26.5681076
C    -0.16021809999999936  -0.2827094000000002  -24.570603600000002
N    0.5962875000000007  -1.4443063  -24.939126
C    0.13090900000000083  -2.7141476000000004  -25.201757800000003
N    1.0838749000000005  -3.5784567000000003  -25.3859332
C    2.256662200000001  -2.8749712  -25.2276026
C    3.6177115000000004  -3.2950215000000003  -25.3035964
O    4.038035100000001  -4.4234707  -25.5397621
N    4.5273437  -2.2626263  -25.075903800000003
C    4.157716300000001  -0.9737298000000002  -24.791755700000003
N    5.119083400000001  -0.06953950000000009  -24.587794300000002
N    2.891842200000001  -0.5924334000000002  -24.717531400000002
C    1.965786500000001  -1.5449650000000001  -24.934331800000002
H    -3.012904899999999  -1.3888029000000002  -22.087701600000003
H    -4.1344394  -0.18340480000000015  -22.7539705
H    -1.9654056999999994  0.8598499999999998  -22.409844300000003
H    -3.2365046999999993  0.9137416999999997  -24.914598
H    -2.3563732999999996  2.8207340999999997  -24.071755300000003
H    -1.7988282999999994  -0.6786047000000002  -25.9651935
H    -0.7179373999999994  1.8927920999999999  -26.2231315
H    0.5692186000000006  0.5300984999999998  -24.424736900000003
H    -0.9210805999999994  -2.9276410000000004  -25.236649900000003
H    5.506315300000001  -2.5255812000000004  -25.121047
H    4.8322330000000004  0.8681167999999997  -24.3664573
H    6.089994800000001  -0.3267869000000002  -24.6107514
