60

C    118.656  157.646  42.396
N    119.60722310000001  159.5386213  43.324187
C    118.13603000000002  159.7329996  43.4420529
C    121.9804732  162.1011307  45.003869099999996
C    124.56144400000001  164.4381063  46.6509393
C    124.30921850000001  165.9273886  46.5054539
C    123.18671470000001  166.4899328  47.1034674
C    123.79718610000002  168.6539917  46.2650674
C    125.17593920000002  166.744571  45.787763399999996
C    112.38208490000001  165.088039  39.782489
C    113.12969920000002  164.1038647  40.6800391
N    113.74397060000001  163.0055971  40.0801182
C    114.48099230000001  162.0368946  40.7665161
N    114.64844130000002  161.8937941  42.0368697
N    115.42644770000001  160.86898349999998  42.4266856
C    115.93322530000002  160.1347016  41.4763134
N    116.73343530000001  159.0363378  41.5423606
C    117.46707180000001  158.5702266  42.7255239
C    119.76502270000002  158.1038922  43.3681497
C    120.49731520000002  160.4774056  43.7860717
N    120.99628790000001  161.45651039999998  43.1039857
N    121.78014340000001  162.3283674  43.7398924
N    122.74893990000001  162.8560904  45.8934423
C    123.84622730000001  163.6582503  45.552972
C    122.93084660000001  167.8452523  46.9828235
C    124.92073750000002  168.1021001  45.6702976
O    124.23779370000001  163.7278086  44.409698399999996
S    121.1087274  160.6428352  45.5002987
S    115.38425780000001  160.7686161  39.8998726
O    113.20321670000001  164.2815718  41.8773465
C    110.99907470000001  165.4150492  40.3202705
C    109.98054940000002  164.4725618  40.2068088
C    108.7031572  164.7429163  40.668558499999996
C    108.4266187  165.9680778  41.2529385
C    109.43211100000002  166.914688  41.369608
C    110.71141810000002  166.6426417  40.9073245
H    118.99121600000001  157.8207354  41.375410099999996
H    118.41548890000001  156.5948646  42.523213999999996
H    117.86634240000001  160.6991425  43.0155852
H    117.85492690000001  159.7532549  44.5032148
H    124.24397410000002  164.1065559  47.639192
H    125.62418790000001  164.2374772  46.5165147
H    122.5077334  165.8669978  47.666489999999996
H    123.59908570000002  169.7106941  46.1710902
H    126.04458100000001  166.314319  45.312760499999996
H    112.29757690000001  164.6954499  38.7687794
H    112.98439580000002  165.99800199999999  39.7643986
H    113.70950820000002  162.8934332  39.0755178
H    117.07611370000001  158.71478009999998  40.6484125
H    116.74710680000001  158.0841328  43.3882299
H    120.75862640000001  157.8118146  43.029655399999996
H    119.59156550000002  157.7022198  44.3765396
H    122.56276050000001  162.6792268  46.8722735
H    122.05525830000002  168.270138  47.4498283
H    125.60021070000002  168.7274484  45.1119088
H    110.1912898  163.5145456  39.7534541
H    107.9279546  163.9982944  40.5723992
H    107.43352050000001  166.1860068  41.614514
H    109.2224582  167.8713283  41.8234912
H    111.4891637  167.3845134  41.0096511
