261

N    30.423  6.242  40.775
C    29.6845195  6.9330876  39.6873443
C    29.9907665  6.3387347  38.312560500000004
O    29.1510261  6.3852606  37.4274478
C    29.9818684  8.4412283  39.7528675
C    29.246112  9.3216529  38.7194442
C    27.9135329  9.8695744  39.2295316
C    30.137397999999997  10.4948221  38.3237586
N    31.1909296  5.7508393  38.1456288
C    31.4519503  4.9585928  36.9682844
C    30.789169  3.5780243  37.00856
O    30.8484884  2.8264061  36.0449019
N    30.2032664  3.2265986  38.1709948
C    29.582546699999998  1.9280159999999995  38.3647213
C    28.415961499999998  2.0824811  39.3544582
O    28.1938526  3.1740938  39.868277400000004
C    30.6275236  0.9118452999999995  38.889895700000004
O    30.0659118  -0.3877658999999998  38.8019738
C    31.039664  1.2366535999999995  40.3239271
N    27.6976713  0.9803553000000003  39.5863462
C    26.5434301  0.9590037000000002  40.4752183
C    26.942555  1.3292548000000002  41.906382
O    28.0296299  1.0224738999999996  42.375574
C    25.886569299999998  -0.4356252999999999  40.5350751
C    25.2222421  -0.8234436  39.2397356
C    23.945734299999998  -0.3631858000000001  38.940207
C    25.8713446  -1.6340921000000002  38.3181521
C    23.3472698  -0.6797775000000001  37.7370028
C    25.2739291  -1.9491071000000009  37.1091325
C    24.011857499999998  -1.4679082999999995  36.813865
N    25.9943031  1.9848280000000003  42.5917294
C    26.0904094  2.2079500000000003  44.0199384
C    24.6997529  2.1080425  44.6364516
O    23.6826899  2.3242855000000002  43.9868801
C    26.746193299999998  3.5610901999999998  44.3399867
C    25.942  4.7718549  43.9035253
S    26.8573704  6.3031815  44.225774
C    27.1684606  6.1458425  45.9857196
N    24.663463399999998  1.7503580999999997  45.923336
C    23.3925871  1.6172163  46.6130907
C    22.7189398  2.9853788  46.7030763
O    23.3800189  4.0013541  46.9055792
C    23.635021  1.0399346999999999  48.0056095
C    22.528360499999998  0.10161670000000012  48.454948
C    22.9469472  -0.6673431000000001  49.701912300000004
N    23.020383199999998  0.19857730000000018  50.8634079
C    23.3124952  -0.2305501000000003  52.080511200000004
N    23.557392  -1.5279102000000009  52.2979775
N    23.3238022  0.6181163999999999  53.100233
N    21.3912452  3.0193168999999997  46.5790543
C    20.701750699999998  4.2838042000000005  46.3943998
C    20.7670201  5.1811818  47.6281388
O    20.6945814  6.4016103  47.5017817
C    19.258135  4.0487964000000005  45.9711498
N    20.8966145  4.590961699999999  48.8175942
C    21.0671006  5.3969261  50.0120363
C    22.4159461  6.1339785  49.999546800000005
O    22.5092189  7.2823188  50.4207328
C    20.8769392  4.5663031  51.2857881
C    21.8963494  3.4311084  51.4405604
O    22.146808  2.7518212999999996  50.416732100000004
O    22.401292899999998  3.2365592  52.5593493
N    23.4566499  5.4730197  49.4906215
C    24.7645897  6.0905352  49.3583599
C    24.7456291  7.147217299999999  48.2449953
O    25.3896631  8.1880738  48.3429928
C    25.826220799999998  5.0220258  49.0887596
C    25.9042413  3.9530268  50.1719241
C    26.9540737  2.8563504999999996  49.8283908
O    27.9326595  3.1937451  49.1326198
O    26.7407178  1.7098199999999997  50.2714625
N    23.9843898  6.8701859  47.1867487
C    23.8436429  7.8237748  46.0961982
C    23.1849156  9.1228351  46.5823403
O    23.6442078  10.2146322  46.2682596
C    23.0383612  7.2027342  44.9535726
C    22.8595  8.1309338  43.7797
C    23.937060199999998  8.5401738  43.002151500000004
C    21.5911927  8.5836454  43.445012500000004
C    23.7540822  9.3856315  41.923324300000004
C    21.3958303  9.419782099999999  42.3636449
C    22.4764357  9.8298033  41.5950387
O    22.3048583  10.6666289  40.5350964
N    22.1124754  8.9910514  47.3626063
C    21.4447997  10.1536285  47.9354877
C    22.4496516  11.029204700000001  48.6941909
O    22.5013041  12.243537400000001  48.5242023
C    20.307164  9.673584  48.8432102
C    19.397627  10.748581999999999  49.464165300000005
C    18.1201878  10.051931100000001  49.937151400000005
C    20.0324563  11.4929399  50.637367
N    23.2556249  10.3792977  49.5377419
C    24.2579276  11.0678166  50.3313104
C    25.3327603  11.7397736  49.4636962
O    25.7450825  12.8656458  49.7377869
C    24.9231843  10.085073099999999  51.2893199
C    23.9528375  9.5839635  52.3507903
C    24.6230914  8.6051417  53.3127584
C    23.570879899999998  7.9511664  54.202465700000005
N    24.1796123  7.0437887  55.2064706
N    25.7840855  11.024673199999999  48.434806
C    26.7864163  11.5375085  47.5108558
C    26.2781995  12.8145784  46.8422524
O    26.999484  13.807680600000001  46.7465523
C    27.103301  10.4573408  46.4670238
C    27.8542993  10.9368207  45.220246
C    27.8443654  9.8337403  44.1559652
C    28.2328486  10.329481099999999  42.772549500000004
N    29.674505699999997  10.6814952  42.7007719
N    25.0471739  12.7725769  46.3310593
C    24.5077951  13.916669500000001  45.6269627
C    24.2516279  15.1293234  46.5315286
O    24.2023768  16.257191900000002  46.0448704
C    23.241342  13.5495208  44.8456387
C    23.5138073  12.7732731  43.5536486
C    24.539375  13.4917927  42.663056
N    24.587806699999998  12.9745487  41.3114427
C    23.7934426  13.3604722  40.3159719
N    22.876386099999998  14.3035476  40.4963618
N    23.9501166  12.8184378  39.1130401
N    24.1201226  14.8941256  47.839111100000004
C    24.0086437  15.9697464  48.8023602
C    25.3747678  16.5027383  49.2774378
O    25.4387498  17.4034111  50.1139391
C    23.187710499999998  15.5183629  50.0024218
N    26.4572878  15.9644671  48.7256361
H    30.0007216  6.4981641  41.6797436
H    31.4148803  6.5078881  40.8051853
H    30.334968699999997  5.222148499999999  40.6983309
H    28.6115378  6.7652962  39.827593300000004
H    31.0525492  8.5822624  39.5985624
H    29.713860099999998  8.7764316  40.7525325
H    29.054575399999997  8.7233322  37.823887400000004
H    27.3600792  10.2824065  38.3907825
H    28.0770781  10.6654932  39.9472416
H    27.307893  9.0809688  39.6668852
H    31.0585071  10.1553468  37.8532322
H    30.3967676  11.1092966  39.1816228
H    29.628529999999998  11.1293878  37.6015595
H    31.9111777  5.753869  38.84984
H    32.5219555  4.807249499999999  36.831178300000005
H    31.0622123  5.4624582  36.0780556
H    29.802218099999997  3.9231670999999997  38.791893
H    29.200674199999998  1.5459568  37.409390200000004
H    31.4988191  0.9767254000000003  38.2196771
H    30.7124028  -1.0337302  39.113638800000004
H    31.7947681  0.5315228999999997  40.6630078
H    30.1837369  1.1703640000000002  40.993264100000005
H    31.462836499999998  2.2336979  40.3647603
H    28.0439996  0.1027395999999996  39.2200266
H    25.8212385  1.6943941000000002  40.1010088
H    25.1411157  -0.4194608000000004  41.3320521
H    26.6543568  -1.1650060999999994  40.7995028
H    23.4176227  0.2515307  39.6543012
H    26.8565812  -2.0201332999999995  38.5381171
H    22.3554818  -0.3144169999999997  37.5154738
H    25.794747  -2.5751419999999996  36.3999722
H    23.5447178  -1.7129472999999997  35.871773000000005
H    25.0838531  2.1673482999999996  42.1888005
H    26.7354082  1.4238792  44.4355618
H    27.7189093  3.5624796  43.8424176
H    26.9189971  3.5869438  45.4198223
H    24.9956534  4.8171119000000004  44.447538200000004
H    25.745905399999998  4.7524183  42.8332429
H    27.3797197  7.1331909  46.3845707
H    28.008622  5.484392  46.1822557
H    26.272399  5.7567707  46.4583115
H    25.5097015  1.6729726999999999  46.467705
H    22.7648316  0.9483376999999997  46.0130076
H    23.7633585  1.8454461000000002  48.7306969
H    24.5758221  0.4841850999999995  47.9914621
H    22.3191482  -0.6232677000000004  47.667951
H    21.6185376  0.6625209999999999  48.6704437
H    23.9286363  -1.1227147999999998  49.5236606
H    22.2151779  -1.4614393999999997  49.8905377
H    22.7780874  1.1860624  50.7295541
H    23.8809987  -1.8229086999999993  53.2033137
H    23.721052999999998  -2.1485138  51.526004300000004
H    23.0629113  1.5957293999999997  52.961766
H    23.5407342  0.3000233999999997  54.027643
H    20.8783522  2.1767722999999997  46.365295700000004
H    21.218366  4.840173999999999  45.5991815
H    18.7578772  5.0044597  45.8422508
H    18.725316799999998  3.4807789  46.729471000000004
H    19.2297767  3.5098868  45.028826
H    21.097051999999998  3.6009643  48.927145700000004
H    20.3046214  6.1885176  49.9919274
H    19.8867202  4.1057486  51.262719000000004
H    20.933269199999998  5.2151891  52.1595928
H    23.3455778  4.529662999999999  49.147429
H    24.9932463  6.6179017  50.2924162
H    26.8075701  5.4851277  48.9864926
H    25.5808353  4.521901  48.147341
H    24.948403  3.4530236  50.3399092
H    26.2237856  4.390141099999999  51.1209111
H    23.5230107  5.9712194  47.113872
H    24.845173499999998  8.1047778  45.7451733
H    22.056755199999998  6.9264814  45.3458824
H    23.543654099999998  6.2906205  44.629649900000004
H    24.9239679  8.1685192  43.230609
H    20.7387247  8.2773643  44.0360383
H    24.587441  9.6824354  41.310247000000004
H    20.3953015  9.7492878  42.1192525
H    21.3637935  10.7723321  40.3451434
H    21.699826899999998  8.0827074  47.542045800000004
H    21.0418694  10.7803907  47.1284054
H    20.7403674  9.0696722  49.6460019
H    19.6845829  9.0116145  48.236356
H    19.1362739  11.4780579  48.6905685
H    17.4369588  10.7696609  50.384417400000004
H    18.3581676  9.2981225  50.6839411
H    17.607917399999998  9.5690806  49.1086583
H    20.876246899999998  12.0951083  50.3148435
H    20.3714416  10.7889572  51.3941692
H    19.302658899999997  12.1592707  51.089738600000004
H    23.1545903  9.3810575  49.6694698
H    23.7732495  11.879884  50.8900271
H    25.7658487  10.591830999999999  51.7644905
H    25.3140615  9.2489852  50.7048878
H    23.1197002  9.076980299999999  51.8619105
H    23.5530753  10.4346058  52.9044952
H    25.359032499999998  9.1392399  53.914326200000005
H    25.1435615  7.8420754  52.7314857
H    22.8835781  7.3799917  53.577219
H    23.0038657  8.7232233  54.7222661
H    23.453214  6.5977326  55.778205
H    24.8094508  7.5711198  55.8234664
H    24.7248448  6.3095334  54.7414693
H    25.4834991  10.0635484  48.3107912
H    27.680812799999998  11.832762899999999  48.0752528
H    26.1358502  10.0570643  46.1535182
H    27.6524905  9.6575957  46.9656979
H    28.8647351  11.222743099999999  45.5132395
H    27.3492769  11.8267438  44.8428019
H    26.8335439  9.4349706  44.089384700000004
H    28.482549499999998  9.0092435  44.4689932
H    27.6443253  11.2101541  42.5218326
H    28.021324399999997  9.5380065  42.0555778
H    29.9590064  10.9079601  41.7417215
H    30.247844  9.910590899999999  43.060443400000004
H    29.8592496  11.4996106  43.2914732
H    24.458994  11.954428400000001  46.4491126
H    25.2870685  14.290153799999999  44.9520669
H    22.7280749  14.4863954  44.617699200000004
H    22.5938798  12.968522700000001  45.5039352
H    22.5699861  12.665307  43.0206967
H    23.8684396  11.7738428  43.8072001
H    25.5368311  13.3618381  43.081445
H    24.330872499999998  14.5629338  42.6475484
H    25.0874546  12.1068694  41.184202
H    22.372503599999998  14.6812609  39.7128655
H    22.7854919  14.7777774  41.3776509
H    24.522080199999998  12.0003377  38.9934768
H    23.3268306  13.0576008  38.3619492
H    24.0873405  13.951033599999999  48.2021986
H    23.5204426  16.8161505  48.3006123
H    23.1221697  16.3297449  50.7213503
H    23.6842017  14.6717891  50.4733215
H    22.1909046  15.220336  49.690963
H    27.3588478  16.293384099999997  49.0327877
H    26.432164999999998  15.202678  48.061089100000004
