51

C    8.003  -3.3010000000000006  54.476
C    8.9123546  -3.4379279000000005  53.3132576
C    10.201593500000001  -2.9799258  53.1244771
C    10.5714883  -3.3987578000000003  51.832973
N    9.578812200000002  -4.0655691  51.271521500000006
N    8.5926062  -4.0826773  52.17273
C    7.337245200000001  -4.7407022  51.928993000000006
C    6.4529221  -3.8898738000000006  51.0194819
C    5.155425900000001  -4.634352600000001  50.7691231
N    5.504075200000001  -5.888705700000001  50.0650512
C    6.283395400000001  -6.793664700000001  50.939424100000004
C    7.5901607  -6.120709100000001  51.3276753
N    10.9268214  -2.2606960000000003  54.061243700000006
C    12.2573059  -2.3460548000000006  54.1889963
N    12.8192912  -1.4586562000000005  55.027825
C    14.127694700000001  -1.5320763000000004  55.1484387
C    14.8861643  -2.4623777000000002  54.462396500000004
C    14.225407200000001  -3.3782144000000005  53.620134900000004
N    12.902309200000001  -3.2930425000000003  53.502855600000004
C    14.8898094  -4.410573800000001  52.8588193
C    16.2327123  -4.544386800000001  52.525398800000005
N    16.4335449  -5.6266292  51.761648900000004
C    15.2436059  -6.211776200000001  51.584326000000004
N    14.270163700000001  -5.4892746  52.2459645
C    12.9746421  -5.880116900000001  52.2259114
C    12.6197864  -6.9942101  51.5299147
C    13.5792803  -7.757092  50.8265656
C    14.8912344  -7.372308200000001  50.851590200000004
Cl    16.594696  -2.4209880000000004  54.734632700000006
H    8.502326400000001  -2.7412120000000004  55.2615227
H    7.738301900000001  -4.2756641  54.8827438
H    7.0909868000000005  -2.7717216000000002  54.2055487
H    11.494075  -3.2335003  51.3173959
H    6.8452273  -4.851937400000001  52.8991592
H    6.978625  -3.6912274000000007  50.0852257
H    6.2533196  -2.9294826000000005  51.4931464
H    4.4844989  -4.0389954  50.150465600000004
H    4.654725200000001  -4.8752034  51.7062158
H    6.0685139  -5.656631900000001  49.2377224
H    4.6545975  -6.3670428  49.745051200000006
H    6.4877970000000005  -7.7272774  50.4166551
H    5.689362900000001  -7.012052000000001  51.827681000000005
H    8.123947000000001  -6.741417800000001  52.0454023
H    8.2380644  -5.997650800000001  50.4585406
H    10.462474700000001  -1.5746635000000007  54.6384666
H    14.5936486  -0.8222522000000003  55.8176853
H    17.0610372  -3.9122797000000005  52.764931700000005
H    12.2802673  -5.2565888  52.7642157
H    11.585801  -7.292788600000001  51.5146341
H    13.275181400000001  -8.631355200000002  50.2768679
H    15.6766528  -7.9049762  50.3451806
