52

O    -30.795  10.949  23.559
C    -31.479141900000002  11.2443201  22.5652018
O    -31.6510891  12.389654499999999  22.078321600000002
C    -32.1614608  10.060954599999999  21.811951500000003
C    -31.4034239  9.8926297  20.4947631
O    -30.0534362  9.5351339  20.7656241
C    -32.0322529  8.8028729  19.619913500000003
O    -31.3511616  8.681894799999998  18.382488900000002
C    -33.5147186  9.1206619  19.374714400000002
O    -34.0971696  8.2004062  18.494930800000002
C    -34.240449500000004  9.1471983  20.7222857
C    -33.6729197  10.2434282  21.614005000000002
N    -34.0343761  11.609371399999999  21.1090655
C    -35.050169000000004  12.308123799999999  21.9433884
C    -35.2267166  13.7626366  21.5343495
C    -36.195498900000004  14.4939485  22.4662945
C    -36.3248565  15.985477  22.123323000000003
C    -37.3130014  16.6412852  23.0899825
C    -37.9544576  17.9557098  22.6284801
C    -39.348428  18.129620199999998  23.2578603
C    -39.4013889  18.0147953  24.7993703
N    -39.7899739  16.6853345  25.260520300000003
N    -39.2763521  16.003101  26.0833108
N    -38.8593806  15.2784284  26.848533500000002
H    -31.9951394  9.1642788  22.4160174
H    -31.4073061  10.843313  19.9343559
H    -29.7353235  10.0255616  21.533442800000003
H    -31.951238  7.8462993999999995  20.1634278
H    -30.4023136  8.6683026  18.5671241
H    -33.5794202  10.0749781  18.843569900000002
H    -33.9016259  7.297544899999999  18.7791584
H    -34.1139379  8.1843526  21.215615500000002
H    -35.306125800000004  9.302412799999999  20.550450700000003
H    -34.1272766  10.1553361  22.6064583
H    -34.3162232  11.5910105  20.126434500000002
H    -33.1349387  12.166901099999999  21.2176395
H    -34.7041512  12.2734092  22.9774122
H    -35.9969238  11.770938  21.8662962
H    -35.6019955  13.828154999999999  20.512214800000002
H    -34.254931  14.2604012  21.5736491
H    -35.8469727  14.3984516  23.496534800000003
H    -37.1804828  14.0294549  22.402193200000003
H    -36.6926155  16.0869356  21.1005381
H    -35.3501649  16.470961199999998  22.1802168
H    -36.8230098  16.7844008  24.0550335
H    -38.1257047  15.9263008  23.246846700000003
H    -38.0740379  17.949340199999998  21.544801
H    -37.3181539  18.802218699999997  22.890298100000003
H    -40.025903  17.3829305  22.8418958
H    -39.729907600000004  19.1134871  22.984898400000002
H    -40.1711634  18.6942408  25.1756327
H    -38.4400408  18.2987587  25.236711500000002
