42

C    -0.03699999999999998  16.127  76.374
C    -1.2253275  16.027735  77.34803319999999
C    -0.9289692999999999  16.8327371  78.6209964
C    0.44322150000000005  16.418969099999998  79.20198169999999
C    1.5253114  16.5496037  78.12403079999999
C    2.9000253000000003  16.0485057  78.5877331
N    -2.4568719000000003  16.4286961  76.7026035
O    0.0020300000000000318  17.428248099999998  75.81951629999999
O    0.7589795  17.2775672  80.27892279999999
O    1.1744276  15.779398899999999  76.98049239999999
O    2.8957093  14.670949599999998  78.8708056
O    -3.0393790000000003  14.335945999999998  76.0925386
O    1.5211072  17.501022199999998  69.8353396
N    2.2784009000000003  17.6914514  70.7876726
O    3.4962182000000004  17.8628049  70.7120078
C    1.6933194  17.6677587  72.08790889999999
C    0.661934  18.537063699999997  72.42291949999999
C    0.11566900000000002  18.4697684  73.68865319999999
C    2.179992  16.726119899999997  72.98050219999999
C    1.6128662  16.640979599999998  74.22961269999999
C    0.586226  17.5115877  74.58592949999999
C    -3.2894132000000003  15.535318899999998  76.12511719999999
C    -4.5439344  16.106854499999997  75.5190147
O    -1.9579918  16.5814108  79.54833489999999
H    -0.17815299999999995  15.386741699999998  75.57420789999999
H    -1.3405335999999999  14.969892999999999  77.61522219999999
H    -0.8869011  17.9043021  78.3720247
H    0.3506842  15.375410999999998  79.52977999999999
H    1.606736  17.611811099999997  77.8496893
H    3.2335801  16.640290999999998  79.4470272
H    3.6119003999999997  16.1740389  77.7708569
H    -2.6909232000000003  17.409238199999997  76.70574289999999
H    1.4232237  16.874  80.85573249999999
H    2.3177342000000003  14.4774772  79.6204413
H    0.304738  19.2517109  71.69951089999999
H    -0.6686059999999999  19.141329799999998  73.9928592
H    2.9879635999999996  16.0739116  72.69034249999999
H    1.9777962  15.911577799999998  74.9337563
H    -5.1265161  15.297241399999999  75.091382
H    -4.290540200000001  16.8220247  74.7413175
H    -5.1285212  16.610725799999997  76.28384129999999
H    -1.7473726  17.044623299999998  80.3733716
