56

C    3.099  13.411  10.624
C    1.819096  13.2582089  11.165082700000001
C    4.2895611  13.602883499999999  11.5479695
C    0.9078331  12.929707299999999  8.9486277
C    5.180975  13.974292799999999  13.920485900000001
C    4.8762409  14.1202651  7.497933300000001
C    4.8505581  14.6945523  15.2361161
C    3.5998849  14.0631352  15.8553119
C    1.1600864  14.1315724  15.579614300000001
C    6.0532907  14.9194284  16.1894831
C    6.3410606000000005  16.404809699999998  16.0597491
C    7.2249469  16.8472018  15.0796259
C    5.5721443  17.342780599999998  16.7485736
C    7.4110947  18.2016579  14.8129925
C    5.7157575000000005  18.6965079  16.470542000000002
C    6.6367426  19.1329  15.525756300000001
C    9.2495297  17.7782818  13.2339383
C    3.2803765  13.320916299999999  9.2164175
C    1.5190812  13.4182239  12.658014900000001
C    0.7287196000000002  13.0279794  10.3173721
C    3.973406  14.137035099999999  12.964069400000001
C    2.1781898  13.067848199999998  8.4005264
O    4.5753009  13.4344472  8.713536000000001
C    2.7296163  13.483393  13.616711800000001
N    2.4693381  14.262344299999999  14.899603
O    8.3160129  18.6553604  13.8689982
H    5.0014924  14.2727615  11.065007600000001
H    4.7867221  12.631036499999999  11.629543100000001
H    0.06779129999999967  12.7390446  8.2996506
H    5.3914157  12.9189511  14.089623900000001
H    6.0605049  14.42606  13.464540900000001
H    5.9611064  14.1716903  7.471809200000001
H    4.4463521  15.1248317  7.501777700000001
H    4.5133671  13.570959199999999  6.624807700000001
H    4.5452972  15.708238399999999  14.941422600000001
H    3.3562097  14.560939  16.793066
H    3.7299039  12.997188399999999  16.040938
H    0.35010969999999997  14.3686624  14.8977447
H    1.1283446000000001  14.8156219  16.4212537
H    1.0315391000000003  13.113167299999999  15.9395152
H    6.9113848  14.3241613  15.8904976
H    5.7895492  14.6708512  17.2150374
H    7.805227  16.114807  14.5391744
H    4.8718054  17.0223644  17.5033676
H    5.1275565  19.4270306  17.003004400000002
H    6.765635  20.1828572  15.314711
H    9.9003221  18.4375856  12.666724400000001
H    8.738715299999999  17.0886928  12.5583401
H    9.8318795  17.224058799999998  13.972933900000001
H    0.8586320000000001  12.604364799999999  12.954085500000001
H    0.9519959  14.3509946  12.730232
H    -0.2605379999999995  12.922470099999998  10.7349171
H    3.7658848000000003  15.2064443  12.8434281
H    2.3133953000000003  12.997461699999999  7.3319004
H    2.9832013  12.461901899999999  13.911869600000001
H    2.5176983  15.249170999999999  14.6108522
