50

N    -20.338  29.172  28.776
C    -21.137675700000003  28.1416159  28.083177799999998
C    -22.6645456  28.504823000000002  28.257113699999998
O    -23.4418718  28.0295402  27.4233412
O    -22.9302649  29.250216299999998  29.2175474
C    -20.837577800000002  26.7660164  28.6708328
C    -19.5065959  26.2726336  28.1046896
S    -18.9845381  24.7564558  28.921809
C    -17.4367455  25.3145766  29.593605999999998
C    -18.4322497  23.7383879  27.551975199999998
C    -19.533129900000002  22.8481867  26.978177799999997
O    -19.827688100000003  21.7438016  27.8442765
C    -20.886749400000003  23.5359516  26.7085911
O    -20.9368012  24.1794415  25.474066
C    -21.887489000000002  22.377547800000002  26.8497603
O    -21.9682092  21.7158768  25.6143482
C    -21.207001700000003  21.4871728  27.9052596
N    -21.7106129  21.7708119  29.2439401
C    -21.03618  22.3523119  30.2805702
N    -21.73103  22.4444107  31.3788828
C    -22.954727600000002  21.8866358  31.0928996
C    -24.155397100000002  21.6592545  31.8355392
N    -24.3101185  22.0073223  33.1177913
N    -25.1815409  21.0611341  31.197582699999998
C    -25.043880100000003  20.7017105  29.930665299999998
N    -23.987804200000003  20.8597113  29.147262599999998
C    -22.945399300000002  21.4550105  29.748176
H    -19.642438600000002  28.7889075  29.4217563
H    -21.0733499  29.6648076  29.3459438
H    -19.906461800000002  29.849025400000002  28.1422323
H    -20.9511004  28.1374177  27.00836
H    -21.6564735  26.1008149  28.392639
H    -20.825427800000003  26.8249831  29.759568899999998
H    -18.7227058  27.0134329  28.2453492
H    -19.6234436  26.072740500000002  27.0396423
H    -16.934157000000003  24.4695268  30.055676
H    -17.6571445  26.0401578  30.3699752
H    -16.8013586  25.7441853  28.8258741
H    -17.6457148  23.0859121  27.9318447
H    -18.0379088  24.3728411  26.7603175
H    -19.1667734  22.4339269  26.027307
H    -21.119066800000002  24.2731689  27.4811491
H    -21.2144817  23.543346200000002  24.7976697
H    -22.869744500000003  22.7134311  27.1943733
H    -22.759143  21.1653601  25.5667409
H    -21.390058300000003  20.4252219  27.697908299999998
H    -20.013817300000003  22.6512119  30.200714299999998
H    -25.183516  21.8041648  33.5715854
H    -23.5511309  22.448304  33.6070826
H    -25.9003918  20.2230054  29.4777681
