75

C    24.094  -26.675  36.075
C    24.8542029  -27.4834715  35.01099620000001
C    24.9621499  -28.9471686  35.4223653
C    25.5270434  -29.070677800000002  36.8330296
C    24.6853352  -28.234103400000002  37.81116130000001
C    25.3410173  -28.2648268  39.18846250000001
N    27.2811242  -30.081623800000003  33.000753200000005
C    21.506865400000002  -17.2326678  35.524214900000004
C    22.661320600000003  -16.9005876  34.808680300000006
C    22.859782600000003  -15.587453900000002  34.410531000000006
C    22.692910500000004  -24.2621977  36.113340900000004
S    24.315139400000003  -24.929054400000002  35.642910500000006
O    24.5051841  -26.873508800000003  37.41428940000001
O    21.697671500000002  -24.911713900000002  35.34757210000001
C    20.3805523  -24.429702900000002  35.642897000000005
C    19.393519500000004  -25.1733146  34.746541900000004
O    24.946807600000003  -29.464511700000003  39.8063257
O    19.4449849  -26.549300900000002  35.01067700000001
C    20.2946841  -22.918657800000002  35.40066300000001
O    26.8604194  -28.6398967  36.88255730000001
O    20.5847415  -22.627433200000002  34.046966100000006
C    21.325633200000002  -22.2337759  36.30734830000001
C    22.720456700000003  -22.735379400000003  35.93449640000001
O    23.6489146  -22.144878300000002  36.809862300000006
O    24.235884300000002  -27.387247900000002  33.759286800000005
N    21.186616  -20.7877055  36.28989370000001
C    21.770120000000002  -19.837505900000004  35.52359030000001
C    21.249230800000003  -18.6222594  35.9722142
N    20.383868800000002  -18.9344214  36.97770620000001
N    20.360316500000003  -20.203975600000003  37.154820900000004
N    25.7705106  -29.676773600000004  34.45837170000001
N    26.8093295  -29.1766359  33.7776812
C    26.570446500000003  -31.234114100000003  33.149031400000005
C    25.5877957  -30.9636572  34.10191830000001
C    21.958704500000003  -14.570859800000003  34.68803630000001
C    20.8171888  -14.897154800000003  35.39908640000001
C    20.5965117  -16.2062914  35.811688700000005
C    26.823282600000002  -32.501829300000004  32.432140000000004
C    26.4184403  -33.7272662  32.978361400000004
C    26.6426468  -34.9211322  32.30887450000001
C    27.2740402  -34.9302074  31.074958300000006
C    27.6725546  -33.717767200000004  30.541631600000006
C    27.461796200000002  -32.5117708  31.192755800000008
F    23.993985700000003  -15.275687800000002  33.711286400000006
F    28.2963989  -33.7133127  29.324851700000007
H    23.0161851  -26.8857405  35.979272800000004
H    25.8577587  -27.064972700000002  34.881885600000004
H    23.963355600000003  -29.4018967  35.40164910000001
H    25.4627166  -30.118065  37.17315610000001
H    23.695177800000003  -28.711242100000003  37.896589500000005
H    24.984279800000003  -27.392029800000003  39.75015930000001
H    26.426347300000003  -28.1977772  39.072537600000004
H    23.405158800000002  -17.643218100000002  34.56741280000001
H    22.5473369  -24.4858933  37.18378450000001
H    20.15483  -24.644736  36.698078900000006
H    19.633361400000002  -24.9664414  33.6982787
H    18.3771543  -24.8523797  34.97473240000001
H    25.371705900000002  -29.5287767  40.673348100000005
H    20.332086500000003  -26.8631834  34.79571490000001
H    19.2958907  -22.573035500000003  35.683938500000004
H    27.3384049  -28.903829400000003  36.082567000000004
H    19.7967596  -22.313540200000002  33.586168900000004
H    21.120523900000002  -22.511496  37.34776360000001
H    22.9379044  -22.506597900000003  34.88287940000001
H    24.544860600000003  -22.449860400000002  36.60303160000001
H    23.311878500000002  -27.671594300000002  33.811772100000006
H    22.465644800000003  -20.072228000000003  34.747728300000006
H    24.8042832  -31.5691008  34.504117300000004
H    22.160955100000002  -13.566818100000003  34.354109400000006
H    20.0945584  -14.134104200000001  35.63655930000001
H    19.7091432  -16.4565993  36.3711825
H    25.9348145  -33.744959  33.942186500000005
H    26.3242954  -35.8504908  32.752008700000005
H    27.4581558  -35.844301400000006  30.535278900000005
H    27.792795700000003  -31.589072700000003  30.743745100000005
