15

C    11.804  5.633000000000001  -1.304
N    12.8809911  4.669345700000001  -1.1508539
C    12.6944234  3.3442993000000003  -1.7260397
C    14.0345184  4.9611996000000005  -0.5024856
C    14.2083662  6.345035200000001  0.08831859999999991
O    14.9264102  4.118295700000001  -0.3902186000000001
H    10.995840300000001  5.1595788  -1.8531591
H    12.1430108  6.5083751  -1.8584833
H    11.430124  5.953589000000001  -0.3312874
H    13.588386  2.7602292000000004  -1.5205768000000002
H    12.5492369  3.4233272000000006  -2.8035087
H    11.8294352  2.8603966000000005  -1.2726569
H    15.1853769  6.387618700000001  0.5587707999999999
H    13.4371525  6.539567300000001  0.8288870999999999
H    14.1442324  7.1004275  -0.6905615
