140

N    40.866  43.276  25.79
C    40.0159654  42.5823362  24.7953762
C    38.6087234  43.183399800000004  24.969976399999997
O    38.1832367  43.4211418  26.088123699999997
C    39.9668161  41.074235300000005  25.062431399999998
C    39.3681844  40.31230860000001  23.8785721
C    40.4320133  39.970454200000006  22.830568
C    41.007602999999996  38.5797925  23.061976899999998
N    40.0197995  37.544712700000005  22.6638916
N    37.956904699999996  43.4549664  23.8322644
C    36.780265899999996  44.30365880000001  23.8214205
C    37.172969099999996  45.7211173  24.2766971
O    36.3463795  46.5274251  24.6775037
C    35.6667923  43.750954400000005  24.7188712
C    35.369577  42.28890870000001  24.4314425
O    35.286753499999996  41.45839110000001  25.327159899999998
N    35.247411  41.960823100000006  23.1353461
N    38.485673  45.973983800000006  24.190668499999997
C    39.0560727  47.24754610000001  24.5732935
C    38.8199733  48.268761500000004  23.4556984
O    38.847639199999996  47.934806  22.2787078
C    40.5620606  47.047918100000004  24.838205199999997
C    41.4139707  48.179056  24.334782399999998
C    41.781270899999996  48.2144088  22.996527399999998
C    41.8603568  49.1801267  25.185224199999997
C    42.5651495  49.234305600000006  22.5124337
C    42.6568211  50.2062025  24.7147835
C    43.0101963  50.22222190000001  23.371188999999998
O    43.8069404  51.2092595  22.8802812
N    38.541379  49.508686700000005  23.8636746
C    38.3182744  50.58108120000001  22.916723899999997
C    38.9716055  51.843527400000006  23.4541665
O    39.0184828  52.044979000000005  24.662330599999997
C    36.8157296  50.85820340000001  22.737820799999998
C    36.0332155  49.57411810000001  22.4872433
C    34.5434906  49.8571583  22.2854672
C    33.6678097  48.8026053  22.9562632
N    34.0241214  47.419056600000005  22.539025199999998
N    39.4483299  52.68855440000001  22.532750399999998
C    40.0630939  53.9614077  22.8728977
C    39.5765047  55.026375400000006  21.883201
O    39.3995976  54.745040700000004  20.7054488
C    41.5924451  53.796169600000006  22.8301196
C    42.3614048  55.026438600000006  23.295565999999997
C    43.689164399999996  54.7372992  23.9867788
O    44.3476977  55.66069530000001  24.468552399999997
N    44.0902586  53.475227800000006  24.092613999999998
N    39.3278737  56.241821800000004  22.3967642
C    38.813096  57.34059440000001  21.5971044
C    39.356882399999996  58.66851450000001  22.112326399999997
O    39.4538802  58.874509100000004  23.317487399999997
C    37.2569479  57.412560000000006  21.692950699999997
O    36.6811736  56.2036974  21.2484191
C    36.702067  58.54716990000001  20.8404492
N    39.6991489  59.5675261  21.1827254
C    40.0754178  60.924312500000006  21.537680299999998
C    38.8283728  61.80128800000001  21.672434199999998
O    37.9232475  61.707651600000005  20.84666
C    40.9693393  61.53154730000001  20.447105299999997
O    42.0923522  60.735446  20.1861315
N    38.8009683  62.6154591  22.725931
C    37.7088017  63.5319057  22.9603282
C    38.2532553  64.97907090000001  23.170881199999997
O    37.4070647  65.8876412  23.223247299999997
C    36.8443745  63.098118400000004  24.162505699999997
C    36.1783066  61.7550868  23.894691799999997
C    37.6725108  63.00986760000001  25.436514699999996
O    39.4843938  65.13991100000001  23.274098799999997
H    41.7360001  42.76277760000001  25.980577299999997
H    40.316962  43.337027600000006  26.666070599999998
H    41.1039232  44.2338134  25.507064099999997
H    40.4059488  42.769989900000006  23.792310599999997
H    39.3618741  40.90250350000001  25.9552111
H    40.9711738  40.69985440000001  25.2594316
H    38.5605806  40.897629800000004  23.4425982
H    38.9064229  39.4066424  24.268489099999996
H    41.2446623  40.69236790000001  22.861994
H    40.0071029  40.0132831  21.8278218
H    41.2567859  38.440800200000005  24.113915799999997
H    41.9133278  38.4406812  22.472458
H    40.373681  36.603485600000006  22.8652195
H    39.8227004  37.607857100000004  21.6583503
H    39.1376091  37.676211800000004  23.172859399999997
H    38.3497664  43.1822731  22.943427399999997
H    36.4341394  44.3755254  22.787344299999997
H    34.7557556  44.33262680000001  24.584346099999998
H    35.9523453  43.82890020000001  25.7676864
H    34.9431784  41.02305320000001  22.922963099999997
H    35.1111248  42.66082250000001  22.426145199999997
H    39.0304907  45.451697800000005  23.518235699999998
H    38.536438499999996  47.59040110000001  25.471583799999998
H    40.8791882  46.1532969  24.3000792
H    40.7244423  46.9174086  25.9066294
H    41.4426825  47.447509200000006  22.317520599999998
H    41.5889241  49.1694971  26.229893599999997
H    42.8473809  49.258967500000004  21.4702891
H    43.009897099999996  50.987393100000006  25.368508
H    44.0788819  51.01400400000001  21.970532799999997
H    38.5904297  49.794825800000005  24.832046199999997
H    38.7600472  50.273965200000006  21.963594299999997
H    36.6900371  51.553502  21.907163599999997
H    36.4438667  51.3439248  23.643635099999997
H    36.1683884  48.937565400000004  23.3642829
H    36.4647341  49.0685743  21.6236747
H    34.3126002  49.925719400000006  21.222500299999997
H    34.2883278  50.820839500000005  22.7246694
H    32.6254158  48.9952826  22.703499299999997
H    33.7800118  48.86996560000001  24.038441099999996
H    33.2702223  46.77459580000001  22.796166
H    34.8838711  47.133133  23.028391799999998
H    34.1735903  47.384750200000006  21.524350499999997
H    39.338242199999996  52.51999910000001  21.5415462
H    39.7561331  54.2152912  23.892821199999997
H    41.8868394  53.5285548  21.8154604
H    41.7940968  52.959705500000005  23.4997287
H    41.7817316  55.594642900000004  24.0278714
H    42.5664911  55.7114192  22.471392299999998
H    44.9889805  53.33465950000001  24.528132699999997
H    43.7119518  52.7127156  23.5513488
H    39.5047358  56.4670155  23.3664231
H    39.0880474  57.153506900000004  20.5551462
H    36.9980544  57.595324000000005  22.7465828
H    36.8239061  55.512568800000004  21.9070112
H    35.6169758  58.52285690000001  20.891050699999997
H    36.9938687  58.410517000000006  19.802798099999997
H    37.040431999999996  59.51842500000001  21.185528599999998
H    39.5012348  59.399472900000006  20.2073103
H    40.5991043  60.8742182  22.4975432
H    41.241321299999996  62.552418200000005  20.7398015
H    40.4030194  61.58040940000001  19.5133391
H    42.7089928  60.7783747  20.9305335
H    39.6365391  62.822224500000004  23.2565733
H    37.0847348  63.5534272  22.0594896
H    36.0871952  63.881742800000005  24.274913299999998
H    35.5161187  61.49832550000001  24.716720799999997
H    36.9350184  60.97835500000001  23.796996299999996
H    35.6022578  61.7895922  22.9727671
H    38.2364396  63.930582900000005  25.584061
H    38.372004499999996  62.1789757  25.3770581
H    37.0243482  62.86136090000001  26.296055099999997
