41

O    7.539  -25.167  -20.924
C    7.0323578  -25.350599900000002  -19.8160257
C    7.1984836  -26.590002400000003  -19.0668488
C    6.6522064  -26.7246276  -17.777652
C    6.8157164  -27.909698900000002  -17.085708
C    7.5206386  -28.988635600000002  -17.6477893
O    7.6951263  -30.1564289  -16.9754043
C    8.0589043  -28.857962800000003  -18.9265774
C    7.9071662  -27.672249400000002  -19.6439456
O    8.437899  -27.588015200000005  -20.8724702
O    6.2799907  -24.368915500000004  -19.2945775
C    6.2412593  -24.243613000000003  -17.8651285
C    5.8753797  -25.561107500000002  -17.1897517
C    5.235957  -23.148993900000004  -17.5480341
C    5.7636404  -21.8055945  -18.055343099999998
O    6.9650168  -21.435430700000005  -17.3834975
C    6.7805269  -21.055260000000004  -16.0170203
C    8.1053258  -20.5524045  -15.4692901
C    5.7397149  -19.954817500000004  -15.8784819
C    4.4306877  -20.370050100000004  -16.5100147
C    4.6753239  -20.745136300000002  -17.9527968
H    6.3984825  -28.001019900000003  -16.0944377
H    7.2544813  -30.1282111  -16.1104903
H    8.5997497  -29.675327000000003  -19.3724572
H    8.2692585  -26.688261300000004  -21.2407423
H    7.2434678  -23.921619400000004  -17.5463277
H    6.0646062  -25.487052600000002  -16.1204314
H    4.8095957  -25.758899000000003  -17.3387187
H    5.0622065  -23.126437100000004  -16.4756103
H    4.2994357999999995  -23.376123800000002  -18.056957699999998
H    6.0746522  -21.929117000000005  -19.0984738
H    6.4656706  -21.936253400000002  -15.4364004
H    7.990094  -20.277839300000004  -14.4258592
H    8.4339104  -19.685825400000002  -16.0366508
H    8.8690431  -21.321789200000005  -15.554116
H    6.1152428  -19.059097200000004  -16.3794567
H    5.6041795  -19.7236295  -14.8212805
H    3.7104761  -19.550578800000004  -16.456315
H    4.0044541  -21.214152900000002  -15.9637862
H    3.7682817  -21.116643000000003  -18.4287979
H    5.0018976  -19.856361800000002  -18.4998238
