46

C    10.624  16.783  -60.626
C    9.1404894  18.332578  -59.6011711
C    6.110479600000001  16.3875965  -62.8110248
N    6.636911800000001  19.4952313  -61.069668
C    3.5975956000000004  16.1528111  -62.2578828
N    4.619285100000001  18.1001522  -63.3100743
C    8.550241  19.697245  -59.5851886
C    5.839034300000001  15.5466959  -64.0434794
C    7.876801200000001  19.9351947  -60.9189484
C    10.033448400000001  18.0252115  -60.6138137
C    10.324563000000001  15.8728743  -59.6287301
C    9.437675200000001  16.1960163  -58.6189138
C    8.838005  17.4368029  -58.6006685
C    4.8548356  17.0669006  -62.3083089
C    5.805835200000001  18.949029799999998  -63.3780294
C    5.856614500000001  19.9426116  -62.1864689
C    4.4605269000000005  20.256456  -61.7000451
C    6.822576400000001  15.5965568  -61.7425956
N    9.6607365  20.6600068  -59.5688834
O    3.3800974000000004  15.59103  -61.185106
O    2.9408367000000006  16.1381352  -63.3072068
O    8.5050448  20.5424471  -61.7674917
O    4.0228796  19.904136  -60.6336921
S    7.188325300000001  17.7802274  -63.3136496
H    11.3161476  16.5146795  -61.4089752
H    6.1372670000000005  19.067183  -60.299124
H    3.7540068000000004  18.6211959  -63.1141986
H    4.4106883  17.5880615  -64.1863279
H    7.8682873  19.8352398  -58.7452704
H    6.7594031  15.0680438  -64.3734764
H    5.453240600000001  16.1196014  -64.8840814
H    5.1157567  14.764125400000001  -63.814189400000004
H    10.2421792  18.7228627  -61.4084626
H    10.7883712  14.8974195  -59.6366379
H    9.2179529  15.4735193  -57.8473362
H    8.144905000000001  17.6936445  -57.8151898
H    4.987805400000001  17.489545  -61.3114048
H    5.8424073000000005  19.4985535  -64.3201297
H    6.331860300000001  20.860098999999998  -62.5620727
H    3.8476835000000005  20.8317919  -62.4112034
H    7.6973127  15.095998699999999  -62.1494589
H    6.1476575  14.8421697  -61.3381081
H    7.142722300000001  16.2391768  -60.9252651
H    10.531435  20.2474382  -59.2139962
H    9.454653500000001  21.507019  -59.0259739
H    9.7848232  20.9396677  -60.5750126
