32

C    14.872  -9.303  -7.614
C    14.3610909  -9.327546  -8.941394299999999
C    14.6485181  -8.3789996  -9.925778
C    14.0949763  -8.4710039  -11.1866513
C    13.2174271  -9.5082554  -11.500333999999999
C    12.9191111  -10.4507334  -10.5404432
C    13.4773344  -10.3811709  -9.2579484
C    13.136240500000001  -11.40071  -8.2866531
O    12.3907652  -12.3439683  -8.4888498
O    13.6564835  -11.319409199999999  -7.0315161999999996
C    14.474218200000001  -10.2996234  -6.7386377
N    15.0747839  -10.1026077  -5.5612989
N    15.836806300000001  -9.0049886  -5.6222587
C    15.738636900000001  -8.5061577  -6.8379446999999995
C    16.492982  -7.2880003  -7.2219978
C    17.1891836  -6.7319192  -5.986407
C    18.1009946  -5.5684244  -6.341234999999999
C    18.7023735  -4.967958  -5.0771465
H    15.323543800000001  -7.5728123  -9.6915268
H    14.336736400000001  -7.7294637  -11.9315456
H    12.779526200000001  -9.5767618  -12.4823706
H    12.2463391  -11.2703223  -10.7464489
H    15.004955200000001  -10.6376833  -4.7080189
H    15.811050100000001  -6.5447235  -7.6403285
H    17.2289044  -7.5441925  -7.9884335
H    17.770219100000002  -7.5245254  -5.517815
H    16.4359376  -6.4089555  -5.2682948
H    17.5337177  -4.8009225  -6.8727208
H    18.8997904  -5.9113309  -7.001465
H    19.3655875  -4.1397039  -5.3169287
H    19.273195100000002  -5.7187245  -4.5360461
H    17.916860500000002  -4.5991217  -4.4219504999999995
