42

C    -53.13  4.293  -10.247
C    -53.995195100000004  5.3523796  -10.4003005
C    -55.345055200000004  5.0921956999999995  -10.576967699999999
C    -55.832432100000005  3.7965445  -10.514365699999999
N    -57.1926104  3.5888831  -10.8148902
C    -58.0501443  2.7546508  -10.1985057
O    -59.1896653  2.5908877  -10.6256155
C    -57.5316476  2.1053213  -8.9535409
C    -56.5450669  0.9810379  -9.2767422
C    -57.282821500000004  -0.22451130000000008  -9.8535637
N    -55.4674652  1.4173858  -10.1785014
C    -54.9800431  2.7037146  -10.2576623
C    -53.5942  2.9802492999999997  -10.2067845
C    -52.611577700000005  1.894076  -10.2069065
O    -52.868554800000005  0.7457265  -9.833029
N    -51.4092955  2.2256279  -10.712996
C    -50.3564378  1.2529369  -10.853144
C    -50.476603700000005  0.3811418  -12.0616476
C    -49.6212297  -0.7092263000000001  -12.1378526
C    -49.648982100000005  -1.5532324000000002  -13.229494899999999
C    -50.579189500000005  -1.3436211999999998  -14.2344174
C    -51.4286589  -0.2531938  -14.1673701
C    -51.3864922  0.6064162  -13.0805551
H    -52.0823011  4.499954499999999  -10.1029281
H    -53.6315356  6.366327200000001  -10.4084642
H    -56.0357939  5.8971555  -10.7748785
H    -57.571062000000005  4.1256722  -11.5858257
H    -58.3703562  1.6927373  -8.3951937
H    -57.032419700000005  2.8659480999999998  -8.3479287
H    -56.079718400000004  0.6651206000000001  -8.3267165
H    -56.575856200000004  -1.0039199  -10.1247145
H    -57.8448817  0.0624422  -10.7394387
H    -57.9740052  -0.6174987999999999  -9.114715799999999
H    -54.7010104  0.7486839999999999  -10.1301843
H    -51.300976500000004  3.0977262  -11.2031407
H    -50.3813351  0.6149959  -9.9624356
H    -49.400083800000004  1.7825492  -10.8707527
H    -48.913059100000005  -0.8820968000000002  -11.3407255
H    -48.9742333  -2.3942808  -13.282082599999999
H    -50.6230497  -2.0109278  -15.081838399999999
H    -52.1459077  -0.07978210000000008  -14.9559029
H    -52.0663799  1.4440604  -13.0343461
