46

C    -10.83  -6.411  11.931
C    -12.485009100000001  -7.1548088  10.3258405
C    -12.623988200000001  -4.923842699999999  11.216334699999999
C    -13.714952700000001  -4.590296799999999  10.4754119
C    -14.246336300000001  -5.585127099999999  9.5908255
C    -15.3264022  -5.643835199999999  8.6797916
C    -15.312875600000002  -6.892646899999999  8.1183342
C    -13.623701700000002  -6.8364696999999985  9.536797499999999
C    -11.0700804  -6.3773664  13.406274699999999
C    -10.733084700000001  -5.313549299999999  15.6283911
C    -10.557329800000002  -5.414698399999999  14.1532909
N    -12.036418600000001  -6.150956299999999  11.1507489
N    -14.284846600000002  -7.614010899999999  8.630806
O    -11.9067202  -8.252512  10.2850164
C    -14.2498603  -3.2259829999999994  10.5378033
C    -14.4227197  -2.558478299999999  11.7479079
C    -14.899920400000001  -1.2600772999999994  11.764803
C    -15.185289000000001  -0.6073828999999993  10.5786125
C    -14.976055200000001  -1.2532297999999993  9.3615853
C    -14.5291309  -2.565343099999999  9.346839899999999
C    -15.330124900000001  -0.5313679999999992  8.106846599999999
O    -16.432339300000002  0.02285530000000069  8.039715999999999
N    -14.4704464  -0.47645419999999916  7.077508
C    -14.866800900000001  0.2448572000000011  5.8785827
C    -13.146883800000001  -1.0634036999999994  7.0664582
H    -10.4868138  -7.403416299999999  11.6214085
H    -10.075560200000002  -5.668344299999999  11.6575086
H    -12.1558714  -4.224957099999999  11.890123599999999
H    -16.0373297  -4.867701199999999  8.477889399999999
H    -15.9725921  -7.3115326  7.385019699999999
H    -11.6870315  -7.160081399999999  13.8206473
H    -11.315741300000001  -4.428255999999999  15.8764335
H    -9.7661099  -5.214302399999999  16.1159268
H    -11.240343600000001  -6.188711999999999  16.0218869
H    -9.9502634  -4.642357199999999  13.6996976
H    -14.037039400000001  -8.5643931  8.4094337
H    -14.207727100000001  -3.070425099999999  12.673148399999999
H    -15.053098100000001  -0.7528133999999991  12.704801199999999
H    -15.5649555  0.40325570000000077  10.575385899999999
H    -14.3954898  -3.085368699999999  8.4123063
H    -14.662825100000001  -0.369657399999999  5.002555999999999
H    -14.3109365  1.1804818000000008  5.8025294999999995
H    -15.930645900000002  0.45967730000000095  5.9412556
H    -12.812461800000001  -1.2643509999999991  8.0798886
H    -12.4587762  -0.3588567999999994  6.5983532
H    -13.1427536  -1.9898901999999992  6.4887459
