50

O    -85.207  -10.652  5.105999999999999
C    -86.21477449999999  -11.0339859  5.685881799999999
N    -87.4126361  -11.1487886  5.015352899999999
C    -88.63955659999999  -11.5593826  5.5388867999999984
O    -89.6616157  -11.615691499999999  4.837171899999999
N    -86.2098097  -11.362113899999999  7.019461899999999
C    -84.9669218  -11.256151799999998  7.776592599999999
C    -87.3607718  -11.787272499999998  7.636857599999999
C    -88.56576129999999  -11.889903599999998  6.914949699999999
N    -87.5294009  -12.150307799999998  8.930245999999999
C    -88.83248069999999  -12.471196899999999  9.025861399999998
N    -89.50443969999999  -12.3365508  7.840601199999998
C    -90.8174009  -12.698877199999998  8.043810899999999
N    -89.694941  -12.928253299999998  9.9702489
C    -90.9480605  -13.0595954  9.3673729
C    -92.11391289999999  -13.542722099999999  10.172168099999999
C    -92.6906332  -14.799042999999998  9.913612099999998
C    -92.18545809999999  -15.666951199999998  8.7885339
C    -93.74336249999999  -15.2255598  10.7151895
C    -94.22549439999999  -14.443540599999999  11.756992699999998
C    -92.5915148  -12.7635189  11.228790599999998
C    -93.651113  -13.203560999999999  12.019951199999998
O    -94.0858768  -12.404552399999998  13.028448399999998
C    -89.38358369999999  -13.162139499999999  11.357314299999999
C    -89.3232079  -14.436179099999999  11.909435799999999
C    -88.99195019999999  -14.608989999999999  13.246340299999998
C    -88.72819949999999  -13.506734599999998  14.039922699999998
C    -88.7953883  -12.233525299999998  13.506596499999999
C    -89.1205602  -12.045859799999999  12.1637785
O    -89.2085056  -10.822782799999999  11.5679065
C    -88.85453509999999  -9.686843499999998  12.343990999999999
H    -87.39465059999999  -10.900445999999999  4.032421899999999
H    -84.2005538  -10.884509799999998  7.101877099999999
H    -84.6965302  -12.236718699999999  8.162092699999999
H    -85.1133122  -10.5718176  8.609014299999998
H    -91.54826539999999  -12.661603499999998  7.264007799999999
H    -92.5489808  -16.6843999  8.9031726
H    -91.0975569  -15.676237399999998  8.7653574
H    -92.5352542  -15.280642799999999  7.831831599999999
H    -94.1936654  -16.1875638  10.526751099999998
H    -95.0444538  -14.802481499999999  12.361846799999999
H    -92.1495362  -11.801629499999999  11.437854899999998
H    -94.812525  -12.829824599999998  13.5085047
H    -89.5347233  -15.288443399999998  11.282826499999999
H    -88.94452419999999  -15.604276399999998  13.656127699999999
H    -88.4711201  -13.634450099999999  15.079051399999999
H    -88.5948126  -11.3874836  14.141303999999998
H    -88.9302338  -8.843799399999998  11.6605709
H    -87.83055619999999  -9.768264599999998  12.712862
H    -89.5493537  -9.547284099999999  13.175132499999998
