182

N    -3.738  54.364  4.635
C    -3.2744602  53.009954799999996  5.0626337
C    -3.45647  51.9400526  3.9663836
O    -4.1107445  50.931159  4.1738954
C    -4.0801472  52.519998199999996  6.261412399999999
C    -3.7714588  53.2778637  7.5351028
O    -2.6533582  53.2650546  8.0331181
N    -4.8002544  53.9586106  8.0478004
N    -2.8570337  52.1774785  2.7989403999999998
C    -3.1481772  51.333277599999995  1.6557074999999999
C    -2.8519936  49.8392784  1.8896028999999999
O    -3.60319  49.0003549  1.4060892999999999
C    -2.4081881000000003  51.8609151  0.4377119999999999
N    -1.7957783000000003  49.5152892  2.6502732
C    -1.2924686999999997  48.148714  2.7966423
C    -2.1782609  47.2396618  3.6576134
O    -2.4996738  46.125942599999995  3.2489916
C    0.1291393000000003  48.154801199999994  3.3847137
C    1.2856110999999997  47.9606962  2.3896799
C    1.2118237  48.902279899999996  1.1964804
C    2.6181347000000006  48.190202899999996  3.1007409999999997
N    -2.5506099  47.6871985  4.862122299999999
C    -3.4981646  46.9165955  5.6521589
C    -4.8271798  46.790501899999995  4.9148536
O    -5.5706856  45.831808599999995  5.0952392
C    -3.7838285000000003  47.564763  7.0066072
C    -2.5862499  47.556992799999996  7.9693013
C    -2.5996741  48.801544899999996  8.8533543
C    -2.5928181  46.295183699999995  8.8270418
N    -5.1639293  47.8084449  4.1196899
C    -6.4355058  47.7618601  3.4239059999999997
C    -6.3914137  46.63234  2.3783675
O    -7.3247056  45.845262999999996  2.2086126
C    -6.7534399  49.1577626  2.8885141
C    -8.037495700000001  49.249747  2.0649360999999997
C    -9.2476332  48.505497899999995  2.6311961
N    -9.8115577  49.0678072  3.8494741
C    -10.6348672  48.4044819  4.664714099999999
N    -11.138567  49.0424838  5.7224385
N    -10.942970299999999  47.126487499999996  4.4924701
N    -5.2252271  46.4998268  1.7422361999999998
C    -5.0383252  45.4197954  0.8012523999999999
C    -5.0850047  44.0689572  1.5039633
O    -5.7675086  43.166191399999995  1.0245615
C    -3.7183873  45.5919969  0.05110379999999992
C    -3.3621874000000003  44.4100776  -0.8232743999999999
C    -4.0085892  44.167564399999996  -2.0313573
C    -2.3415301  43.541702699999995  -0.44416959999999994
C    -3.6470157  43.0980372  -2.8304803000000005
C    -1.9776427  42.468474099999995  -1.2313119000000001
C    -2.6297526  42.2378217  -2.4347844
O    -2.2241298  41.1820206  -3.1992889
N    -4.3936124  43.919584099999994  2.634352
C    -4.4045627  42.644621699999995  3.3305297
C    -5.7721308  42.286287  3.9545968
O    -6.0598116  41.1063338  4.143057
C    -3.3204262  42.595509  4.4055841000000004
C    -1.8767166  42.6700379  3.8936195
C    -0.9286947000000003  42.884389999999996  5.076037400000001
C    -1.5171207  41.4031252  3.1260979
N    -6.6140885  43.2699779  4.2856192
C    -7.9801562  42.973759099999995  4.6915468
C    -8.9481742  42.5497777  3.5834698
O    -9.8995646  41.827853  3.8678238
C    -8.6410139  44.1864936  5.3234667
C    -8.1778154  44.4465011  6.7453204
C    -8.6388409  45.844091399999996  7.1316128
C    -8.7321801  43.392641  7.6957984999999995
N    -8.7465478  43.0399929  2.3562764
C    -9.7098435  42.8313376  1.2979692999999999
C    -9.254038  41.804835499999996  0.26112730000000006
O    -10.12053  41.2833665  -0.43508119999999995
C    -10.060422899999999  44.1377282  0.6008629999999999
C    -10.5571324  45.232946  1.5733222
O    -10.986351500000001  44.9167847  2.7019826
O    -10.490282  46.4014174  1.154235
N    -7.9425975  41.5712657  0.13024900000000006
C    -7.4060293999999995  40.2387356  -0.14355330000000022
C    -5.9311175  40.265636  -0.6931725000000002
O    -5.0319141  39.8339054  0.05834660000000014
C    -8.288297  39.4402857  -1.1003709000000002
C    -8.6243572  38.0285673  -0.6382296000000003
C    -9.2927654  37.266407799999996  -1.7886465000000005
C    -10.412092699999999  38.1338151  -2.3738096000000004
N    -11.3070249  37.4448344  -3.3399599
O    -5.7462748  40.655148499999996  -1.8607762
H    -3.6285207  55.0201764  5.419409
H    -4.7333275  54.3423022  4.3726655
H    -3.1989785  54.7295436  3.8404719
H    -2.2173964  53.0687377  5.3435976
H    -3.815255  51.4777154  6.4436792
H    -5.1438225  52.5466737  6.0315519
H    -4.6796139  54.4043096  8.9443631
H    -5.7412905  53.8291672  7.7155777
H    -2.2108212000000003  52.9394862  2.6517968
H    -4.2289626  51.3599867  1.4621849
H    -2.6269518  51.236332  -0.42482940000000013
H    -1.3322938999999998  51.845499  0.5964684999999998
H    -2.7295556  52.8724801  0.20919299999999996
H    -1.1620949999999999  50.2461518  2.9448702
H    -1.2945789000000003  47.6674869  1.8097314999999998
H    0.2034488999999997  47.3507187  4.1200715
H    0.2870121000000001  49.0925953  3.9217699
H    1.2503881000000003  46.929533  2.0212038999999997
H    2.0433959  48.7095463  0.5234795000000001
H    1.2781235999999998  49.9374398  1.5234687
H    0.2943123999999999  48.7662705  0.6287487
H    2.7176869000000003  47.537022799999995  3.9650767
H    2.7022270000000006  49.221233  3.4345042
H    3.4440212999999993  47.9808405  2.4262995
H    -2.3081458  48.616707899999994  5.1724111
H    -3.1090534  45.900554  5.7859922
H    -4.6222229  47.0353965  7.4599787
H    -4.1012356  48.592724399999994  6.8200438
H    -1.6617621000000002  47.5607896  7.3822033
H    -1.7724459000000001  48.7690736  9.5575188
H    -3.5247146000000003  48.8489559  9.4226198
H    -2.5037949  49.7085404  8.262715
H    -2.6192977  45.402266399999995  8.2052791
H    -3.4645403  46.279168399999996  9.4775495
H    -1.7024759  46.2461202  9.4492543
H    -4.5891164  48.6335713  4.0101935
H    -7.2016699  47.4450193  4.1436501
H    -5.9184857  49.471888299999996  2.2602935
H    -6.8104244000000005  49.8171562  3.7542736999999997
H    -7.8658166000000005  48.8004866  1.0854055
H    -8.2911167  50.2986666  1.9113639
H    -8.9796911  47.4630054  2.8039183
H    -10.0150389  48.477542299999996  1.8493686
H    -9.7539096  50.0716448  3.9448419
H    -11.743672400000001  48.5583096  6.3614587
H    -10.8888802  49.9950893  5.9240695
H    -10.7480648  46.5766385  3.6618575
H    -11.5612082  46.6732285  5.1434487
H    -4.5410071  47.2536868  1.7434118
H    -5.8798446  45.3918374  0.09243519999999972
H    -2.9319863  45.724508  0.7974199
H    -3.7896393  46.4943026  -0.5597648
H    -4.8134351  44.8138229  -2.3500627000000005
H    -1.8318642  43.6965849  0.49600259999999974
H    -4.1833715  42.9082252  -3.7485828000000003
H    -1.2008549000000004  41.786322  -0.9228529999999999
H    -2.8274648  41.0630673  -3.9472775
H    -3.7904022  44.6640994  2.9763509
H    -4.2525553  41.8494969  2.5855954
H    -3.4596982  41.665351799999996  4.9608273
H    -3.5113312  43.4273837  5.0897463
H    -1.7910397000000002  43.5272498  3.2175614
H    0.09969789999999978  42.9212621  4.7285757
H    -1.0256363999999998  42.0670599  5.7860418
H    -1.1614643000000004  43.8167864  5.5827729
H    -2.1707797  41.2602744  2.2668207
H    -1.615444  40.5295724  3.7673069
H    -0.49285650000000025  41.4512879  2.763363
H    -6.3430383  44.244076899999996  4.2045474
H    -7.9436025  42.122614999999996  5.3805077
H    -9.722317  44.0324302  5.301288899999999
H    -8.4218371  45.0398928  4.6764159
H    -7.0839231  44.409996299999996  6.7615995
H    -8.3502034  46.0731286  8.1542657
H    -9.7199074  45.9060311  7.0494779
H    -8.188660500000001  46.5737451  6.4654104
H    -8.3735172  42.400380299999995  7.434628
H    -9.818874600000001  43.3777147  7.6498752
H    -8.427218400000001  43.6029398  8.718179899999999
H    -8.0314972  43.741017299999996  2.2069533999999997
H    -10.607669399999999  42.419500899999996  1.7765236
H    -10.8368932  43.953708  -0.14368610000000004
H    -9.1808616  44.537799899999996  0.08899959999999973
H    -7.3106539999999995  42.1324316  0.6890982000000001
H    -7.3275646000000005  39.727165799999995  0.8336177999999999
H    -7.7293227  39.385864  -2.044599
H    -9.1905197  39.998194299999994  -1.2752261000000003
H    -9.2911386  38.0877803  0.2248445000000001
H    -7.7130695  37.5160449  -0.32179670000000016
H    -9.689147  36.3260802  -1.4059191000000002
H    -8.5390189  37.0508616  -2.5455202999999997
H    -9.9673071  38.982194199999995  -2.8884606
H    -11.0142253  38.521207399999994  -1.5510086000000003
H    -12.0156718  38.1053669  -3.6759725999999997
H    -11.774606200000001  36.6484631  -2.8899412
H    -10.7625425  37.0967863  -4.138005
