120

N    9.941  -11.611  51.28
C    10.101662800000001  -12.088089700000001  49.8845392
C    10.6595309  -10.9278434  49.0379085
O    10.285902100000001  -9.781126700000002  49.247191699999995
C    8.739588300000001  -12.5066415  49.3413568
N    11.5569932  -11.251821000000001  48.106443299999995
C    12.089028800000001  -10.254979700000002  47.187841
C    11.3656704  -10.4242323  45.841302
O    11.485665700000002  -11.451657700000002  45.1833941
C    13.5955966  -10.4254821  47.0185283
N    10.5349315  -9.432668600000001  45.4940399
C    9.674911000000002  -9.550630300000002  44.3314634
C    10.207654900000001  -8.743488500000002  43.153675799999995
O    10.8094426  -7.690511000000001  43.326343599999994
C    8.2649884  -9.0439483  44.6626591
C    7.6679884000000005  -9.822221  45.825486999999995
C    6.223052800000001  -9.413651400000001  46.138504
N    5.5796267  -10.455288900000001  46.9209326
C    5.721399300000001  -10.5898854  48.2340509
N    6.470332800000001  -9.724593800000001  48.911888499999996
N    5.154088800000001  -11.608916  48.8748222
N    9.912171500000001  -9.229104900000001  41.9460104
C    10.350032  -8.569099900000001  40.734897499999995
C    11.715752900000002  -9.1454392  40.3679017
C    12.248553600000001  -8.679647000000001  39.0225126
C    13.697038000000001  -9.1383936  38.9144704
C    14.3319538  -8.865636400000001  37.5651562
N    15.560042600000001  -9.6329147  37.4421494
C    16.3173964  -9.524088500000001  36.327028399999996
O    15.9649894  -8.7500222  35.4308184
C    17.558183800000002  -10.339580600000001  36.218768399999995
C    18.349107600000004  -10.262465  35.1425522
C    19.6059565  -11.056059000000001  34.95284839999999
C    9.364389500000001  -8.906844600000001  39.6312078
O    8.926751300000001  -10.051129500000002  39.5502603
N    9.0312438  -7.9394369000000005  38.767479099999996
C    8.0306949  -8.218121900000002  37.7555998
C    8.282929900000001  -7.454637000000001  36.4552785
O    8.766246700000002  -6.3255300000000005  36.442666599999995
C    6.620257500000001  -7.8594458000000005  38.280779499999994
O    6.4600407  -6.481503300000001  38.5024763
N    7.934743200000001  -8.118184200000002  35.342560899999995
C    8.119293800000001  -7.508848900000001  34.033821399999994
C    6.976305100000001  -6.5197109000000015  33.774319899999995
O    5.808321300000001  -6.859197000000001  33.954453599999994
C    8.134704000000001  -8.5656315  32.9329761
N    7.300451200000001  -5.287037400000001  33.372845
C    6.255250500000001  -4.309272300000001  33.0843918
C    5.1863809000000005  -4.800529900000001  32.1071369
O    4.028779400000001  -4.4014215000000005  32.205323199999995
C    7.039360900000001  -3.124314000000001  32.5784886
C    8.341330200000002  -3.3187123000000005  32.767587
C    8.633488600000002  -4.7375582000000005  33.1539874
N    5.5989650000000015  -5.596956200000001  31.124249199999998
C    4.689902700000001  -6.069074200000001  30.1061712
C    4.555080000000001  -7.620236200000001  30.158311999999995
O    4.250532100000001  -8.184920900000002  29.0943616
C    5.131938100000001  -5.595577800000001  28.7251566
O    4.752297000000001  -8.203158400000001  31.238635599999995
H    9.233524800000001  -12.159703  51.781575399999994
H    9.642336  -10.6216851  51.226423499999996
H    10.8226002  -11.6421384  51.8038667
H    10.7927738  -12.9323695  49.8591012
H    8.8339888  -12.828983100000002  48.30855819999999
H    8.0551077  -11.6651006  49.370968399999995
H    8.342644600000002  -13.338533600000002  49.913764099999995
H    11.7956961  -12.212010600000001  47.901857899999996
H    11.859159900000002  -9.275964600000002  47.6178755
H    13.9929441  -9.611633600000001  46.419112899999995
H    13.8079076  -11.360023900000002  46.5039048
H    14.0902971  -10.422209500000001  47.9848486
H    10.60092  -8.5198692  45.9202939
H    9.6578587  -10.612908500000001  44.0682714
H    7.645416400000001  -9.1521653  43.7717667
H    8.3248414  -7.978770900000001  44.8961019
H    8.300879300000002  -9.698069100000001  46.704346199999996
H    7.673287200000001  -10.880996600000001  45.5578514
H    5.666822700000001  -9.313157700000001  45.2056524
H    6.1724681000000015  -8.4521609  46.649237199999995
H    5.099046300000001  -11.176593500000001  46.4063363
H    6.398394400000001  -9.6859826  49.916129
H    6.877494400000002  -8.925975800000002  48.4582512
H    4.548699200000001  -12.248675700000001  48.389618899999995
H    5.165901300000001  -11.6529322  49.8795806
H    9.455933100000001  -10.1205957  41.805842
H    10.413158300000001  -7.494331700000001  40.921691499999994
H    11.6291805  -10.2339879  40.3585855
H    12.4154695  -8.862353400000002  41.156938
H    12.194481600000001  -7.592855300000001  38.942189299999995
H    11.658124500000001  -9.1064906  38.210460899999994
H    13.7207848  -10.2172657  39.0881859
H    14.2880103  -8.6562099  39.694561199999995
H    14.564302000000001  -7.805035900000001  37.426647499999994
H    13.658224800000001  -9.153532100000001  36.7487394
H    15.811860500000002  -10.268667800000001  38.1815347
H    17.7900248  -10.994692100000002  37.0452558
H    18.0521563  -9.5844982  34.3531127
H    20.0950081  -10.7887812  34.0221787
H    19.3745903  -12.119445500000001  34.937458199999995
H    20.290426600000004  -10.878362800000001  35.779758799999996
H    9.357316200000001  -6.987904500000001  38.847370299999994
H    8.058502400000002  -9.2971388  37.5724819
H    6.464818300000001  -8.3378221  39.2486477
H    5.871680400000001  -8.2290635  37.567140099999996
H    6.592051200000001  -5.989776900000001  37.682847599999995
H    7.377059100000001  -8.9572002  35.383807399999995
H    9.0757528  -6.982458900000001  34.080225899999995
H    8.5458344  -8.1446707  32.020596299999994
H    7.118869900000001  -8.896609600000001  32.7179095
H    8.741519700000001  -9.414143600000001  33.231132099999996
H    5.704194200000001  -4.048094500000001  33.999460899999995
H    6.538665300000001  -2.228849200000001  32.269025899999995
H    9.1312131  -2.627769800000001  32.5435634
H    9.166472100000002  -5.260226900000001  32.3537642
H    9.221395500000002  -4.792016700000001  34.076789
H    6.515421000000001  -6.014980900000001  31.150667299999995
H    3.701384600000001  -5.664847100000001  30.353652699999998
H    4.496782200000001  -6.0695253000000005  27.982608
H    6.158928100000001  -5.901235400000001  28.540186499999997
H    5.0504823000000005  -4.514799200000001  28.649216799999998
