59

C    75.361  69.105  9.286
C    75.2575027  67.2672952  7.6436128
C    75.8694453  65.9403598  7.2490827
C    77.1575411  65.5523067  7.6664116
N    69.7459351  74.2660189  11.196135
C    71.5870401  72.8464026  11.8469871
C    70.7835119  73.4286221  10.8441911
C    71.1014871  73.1408624  9.4815907
C    72.1750543  72.2898325  9.1841141
C    72.98182299999999  71.721986  10.1949591
C    72.6575822  72.0181737  11.5277616
C    74.09192639999999  70.7931622  9.9501922
C    74.1219684  69.714551  9.092025099999999
N    76.04874269999999  69.7517437  10.2255036
N    75.2664226  70.76471910000001  10.6192862
N    75.83657409999999  67.93905000000001  8.6861835
O    74.2713354  67.6965996  7.0579927
C    77.6893371  64.31274020000001  7.309115299999999
C    76.9530692  63.4110826  6.5242004
C    75.67131429999999  63.7870544  6.0896970999999995
C    75.1353176  65.0318673  6.4488138
C    77.6230214  62.1461336  6.045074099999999
N    77.3837676  60.9402586  6.813913899999999
C    78.182198  59.864716900000005  6.2297177999999995
C    78.0748494  58.5763647  7.042246499999999
N    77.1567558  58.7409125  8.133417
C    77.4088688  59.856092100000005  9.005280599999999
C    77.64958349999999  61.143245400000005  8.2230774
C    77.0558935  57.5493377  8.8999927
C    70.28686929999999  73.7483737  8.3659762
H    77.7753081  66.22306760000001  8.241122599999999
H    69.438773  74.2143243  12.1521106
H    69.0264502  74.41613240000001  10.511584599999999
H    71.3554415  73.0446932  12.8824408
H    72.4025374  72.0725017  8.1512773
H    73.2370245  71.58278010000001  12.3280049
H    73.3583982  69.4127265  8.4056224
H    75.60416479999999  71.4077821  11.3165282
H    76.67088869999999  67.5705508  9.1211367
H    78.6879987  64.0679468  7.6307658
H    75.0880763  63.1335861  5.462337099999999
H    74.153429  65.32864000000001  6.1153528999999995
H    78.7003872  62.3330211  6.0420555
H    77.3114324  61.9701189  5.0116914999999995
H    76.3956161  60.659206000000005  6.7418287999999995
H    79.2229586  60.1935285  6.198246299999999
H    77.8497435  59.6982109  5.2053240999999995
H    79.0764623  58.271257500000004  7.3982458
H    77.6964363  57.76032480000001  6.4227498999999995
H    78.27310969999999  59.662046200000006  9.667425399999999
H    76.5330146  59.955720400000004  9.6515387
H    77.0165038  61.9476796  8.5974244
H    78.6917703  61.456413600000005  8.326786499999999
H    70.2730595  74.83323250000001  8.4510908
H    69.2608107  73.3865143  8.397663999999999
H    70.7120418  73.4818364  7.404205999999999
H    76.7807272  56.7128365  8.257460199999999
H    76.28013849999999  57.6572821  9.6578252
H    77.9976285  57.287795100000004  9.412362
