21

C    6.056  -17.457  15.777
C    4.7891028  -18.0687971  15.8357871
C    3.9876601999999997  -17.7174938  14.8018188
S    4.7778808999999995  -16.623592  13.7377656
C    6.2037542  -16.6401908  14.6983292
C    7.4010036  -15.851694199999999  14.268016
N    7.0954713  -14.426588599999999  14.1269986
C    8.023295  -13.4696951  14.3597347
S    9.7360775  -13.6954534  14.0044395
N    7.7671618  -12.298544699999999  14.8422696
N    8.8373052  -11.4936858  14.9770259
C    9.9498332  -12.0286326  14.6115208
N    11.136903799999999  -11.4106924  14.6439793
H    6.8284994999999995  -17.6167436  16.5076634
H    4.490545  -18.744638899999998  16.616421
H    2.9816601999999994  -18.019135  14.5937945
H    7.7581413999999995  -16.2175863  13.296305499999999
H    8.2066769  -15.9949473  14.9984939
H    6.170636999999999  -14.149887699999999  14.4299973
H    11.1768721  -10.5431406  15.15148
H    11.977419300000001  -11.9532662  14.545941
