122

C    -3.4480000000000004  52.72  -1.044
C    -3.5975368000000003  51.59411  -0.17896050000000008
C    -2.4275385000000007  50.7989668  0.026448100000000085
N    -6.696493500000001  55.3225432  -1.9183017
C    -4.6327268  51.0162539  0.6174645000000001
C    -4.0781794  49.9382229  1.2429866
N    -2.2429623000000003  52.9564351  -1.5959648
C    -1.230534200000001  52.1331711  -1.3398371
N    -4.492470700000001  53.5770022  -1.3336238999999999
C    -5.751125300000001  53.0654741  -1.8527612
C    -4.358399500000001  55.0252646  -1.2491541
C    -5.314629300000001  55.688225800000005  -2.2340003
C    -6.895675100000001  53.969801000000004  -1.4055066999999999
N    -1.2432248000000001  51.0639334  -0.5587059000000001
N    -2.7575616000000007  49.8047358  0.8906928999999999
C    -13.7963295  57.3819978  3.4382851
C    -12.6334759  56.7731724  4.1901146
C    -11.510584300000001  56.2298495  3.3067678000000003
C    -10.6268872  57.317141  2.6883356000000003
C    -10.846464600000001  57.4707941  1.1803028000000002
C    -9.5465254  57.4070024  0.37231369999999986
C    -9.260458100000001  55.9889178  -0.14066639999999975
C    -9.0959274  55.915472900000005  -1.6659335
C    -7.6816697000000005  56.224746700000004  -2.1182661
O    -14.1331457  58.5429225  3.6461517
O    -7.461478100000001  57.305207100000004  -2.67063
N    -14.4319415  56.5736709  2.5692233
C    -15.5787788  56.9931075  1.7824459
C    -16.2879006  55.7701498  1.1903879000000002
C    -17.619114  56.147002  0.5375171000000001
C    -18.5155713  54.9259644  0.30453209999999986
N    -17.9827139  53.9929708  -0.6708012000000001
C    -18.2785027  53.954977400000004  -1.970609
N    -19.1153263  54.824538700000005  -2.5245771
N    -17.7150043  53.0200369  -2.7329754
C    -15.181881500000001  57.9788859  0.6771560999999999
O    -15.8239333  59.0060664  0.5000646
C    -18.0862025  57.4270598  -5.9641509
O    -18.8778535  56.5167372  -5.750741
C    -17.477216300000002  58.2008323  -4.8176774
C    -16.2039522  57.5100849  -4.3264783
C    -15.7694039  58.0581596  -2.9708521
C    -14.4366836  57.4571546  -2.5321016
C    -13.813013600000001  58.219355900000004  -1.3529584
N    -14.1435308  57.611197600000004  -0.07979329999999996
N    -17.6696549  57.7878598  -7.1925567
C    -18.3477111  57.399557900000005  -8.4101696
C    -17.4045019  57.5149358  -9.618089000000001
C    -17.4893268  56.268139600000005  -10.494242100000001
C    -16.3675037  56.2291812  -11.5442204
N    -15.5339106  55.051952400000005  -11.3942259
C    -15.4862432  53.9984479  -12.2057327
N    -14.6460078  53.0050855  -11.923575
N    -16.2479285  53.9084473  -13.2901161
C    -19.6191038  58.2229236  -8.6456972
O    -20.5458582  57.7357849  -9.2805874
N    -19.6624367  59.4757483  -8.1541471
H    -5.6379023  51.3663303  0.7244799
H    -4.523696500000001  49.2484609  1.9314548
H    -0.2923115000000003  52.361480900000004  -1.8245501
H    -5.906157  52.0516754  -1.4869774
H    -5.7112864000000005  53.0338476  -2.9498692
H    -3.3295150000000007  55.304543  -1.4815607
H    -4.589256700000001  55.350349900000005  -0.22625930000000016
H    -5.2405413  56.7760947  -2.17748
H    -5.068486500000001  55.3842664  -3.256249
H    -7.8366677000000005  53.5694168  -1.7814855
H    -6.927148400000001  53.9824897  -0.31067920000000004
H    -2.129028700000001  49.0913506  1.2207579000000002
H    -13.032117300000001  55.960988  4.8045049
H    -12.247446400000001  57.5385476  4.8633377
H    -11.9190182  55.5857016  2.5301915
H    -10.8905578  55.598703400000005  3.9478006
H    -9.582343700000001  57.0619654  2.8697871
H    -10.8112083  58.2672972  3.1896886
H    -11.338380800000001  58.428757600000004  0.9949875000000001
H    -11.5191637  56.696861500000004  0.8164139000000001
H    -8.716826900000001  57.7775667  0.9739699000000002
H    -9.620437  58.0817922  -0.4833789999999998
H    -10.0825358  55.3322652  0.14214269999999996
H    -8.3635265  55.5974641  0.33822110000000016
H    -9.7416903  56.6480927  -2.148654
H    -9.3767039  54.9224722  -2.0188321
H    -14.1411193  55.609082  2.5099381000000003
H    -16.258239800000002  57.5505737  2.4407715999999997
H    -16.4783669  55.0760778  2.0113969000000003
H    -15.6317536  55.291935200000005  0.4627367000000002
H    -17.4331673  56.6706799  -0.40084739999999996
H    -18.151689400000002  56.8384647  1.1911797000000002
H    -19.508619  55.254384  -0.00239049999999974
H    -18.6310878  54.389026900000005  1.2479482000000002
H    -17.326903700000003  53.3113024  -0.32166499999999987
H    -19.2704942  54.8383381  -3.5201853
H    -19.489008000000002  55.5938256  -1.9972039
H    -17.1582553  52.2854644  -2.3301786
H    -17.9775904  52.9378223  -3.7006097000000002
H    -18.2106541  58.216960400000005  -4.0106484
H    -17.256584500000002  59.2293577  -5.1017494
H    -15.4024704  57.6600854  -5.050069000000001
H    -16.3891506  56.4378648  -4.243182
H    -16.5351473  57.8736723  -2.2163985
H    -15.6572596  59.142112000000004  -3.0470151
H    -13.741067600000001  57.5122045  -3.3706161
H    -14.559376100000001  56.4076851  -2.2672407999999997
H    -14.1723909  59.2491845  -1.3241355
H    -12.724306  58.233787  -1.4368760999999999
H    -13.6770464  56.7424406  0.13689010000000001
H    -17.0442172  58.5784138  -7.2596896
H    -18.6881359  56.367237100000004  -8.2780331
H    -16.3868246  57.6205245  -9.2395711
H    -17.647784  58.4017241  -10.2036682
H    -18.4722811  56.235630300000004  -10.9640664
H    -17.4045455  55.386369800000004  -9.858411
H    -15.7250691  57.1049822  -11.423511
H    -16.7746563  56.2748743  -12.5511691
H    -14.951174100000001  55.0351993  -10.5704236
H    -14.571236  52.2086406  -12.5321652
H    -14.012082600000001  53.0631609  -11.1454301
H    -16.946546400000003  54.5975467  -13.5038111
H    -16.1832061  53.1056455  -13.8916313
H    -20.4968538  60.019324000000005  -8.3009394
H    -18.9081135  59.8754099  -7.624362
