101

C    29.123  -13.549  86.83000000000001
C    29.2155902  -14.9669992  86.911032
C    29.215913399999998  -15.6674708  85.665867
N    29.209322  -11.1356641  90.2863738
C    29.3536812  -15.9471274  87.9391086
C    29.421039699999998  -17.1543451  87.30780700000001
N    29.0480148  -12.968336299999999  85.6191524
C    29.0436348  -13.729811799999998  84.52886330000001
N    29.130546199999998  -12.746645099999999  87.9547012
C    28.1528494  -12.9260334  89.01484620000001
C    30.068204599999998  -11.6428111  88.0802754
C    29.4601923  -10.5657819  88.96750060000001
C    28.7743979  -12.527404099999998  90.3499702
N    29.1253007  -15.050487099999998  84.47218980000001
N    29.3400168  -16.989611099999998  85.9472113
C    32.8331935  -12.227718999999999  99.1261654
C    33.1834457  -13.283576799999999  98.10526390000001
C    32.4665827  -12.986848499999999  96.7807952
C    33.2739902  -12.068663999999998  95.8726097
C    32.6692479  -11.995238099999998  94.4705399
C    31.7043105  -10.8279658  94.3170255
C    31.2599193  -10.650687499999998  92.86078810000001
C    29.7713472  -10.977497099999999  92.6775094
C    29.317914299999998  -10.3508085  91.3779628
O    33.6114789  -11.319827499999999  99.3896412
O    29.1369061  -9.135319399999998  91.31939410000001
N    31.6233957  -12.3817419  99.71233330000001
C    30.9212871  -11.301984299999999  100.38953140000001
C    29.6920493  -11.815215799999999  101.1597306
C    28.6100037  -12.4754607  100.2993811
C    27.5061514  -13.1126136  101.1603355
N    26.4857956  -12.172987099999999  101.58043160000001
C    25.3917795  -11.849791199999999  100.8902053
N    24.5337308  -10.977123599999999  101.4138528
N    25.1000059  -12.4232894  99.7271432
C    30.5320789  -10.214922099999999  99.37718360000001
O    30.2573099  -10.4988622  98.21311940000001
N    30.5743576  -8.9642086  99.8470333
C    30.200084399999998  -7.8256467999999995  99.0298958
C    30.8982202  -6.553694299999999  99.5159146
C    31.2086868  -5.633107099999999  98.339776
C    32.0078279  -4.389511799999999  98.7504746
N    33.4210497  -4.519012599999999  98.4542582
C    34.423563  -4.556220099999999  99.32817890000001
N    34.2162179  -4.484963799999999  100.638416
N    35.672521599999996  -4.648301899999999  98.87744950000001
C    28.6567468  -7.6367183999999995  99.046351
O    28.115732899999998  -7.236793499999999  98.0043436
O    28.064425  -7.896068  100.1079381
H    29.4071075  -15.7715529  88.99295740000001
H    29.5334403  -18.1343977  87.72612120000001
H    28.9642776  -13.213404299999999  83.5835946
H    27.834414799999998  -13.9675984  89.040923
H    27.271875  -12.3001031  88.8177795
H    30.279336  -11.2400177  87.0886547
H    31.003549  -12.0077152  88.5248219
H    30.1397634  -9.7224797  89.0963668
H    28.5364495  -10.187227499999999  88.5150315
H    28.0349261  -12.6348147  91.1437746
H    29.626869799999998  -13.1865457  90.55438170000001
H    29.3702352  -17.7283719  85.2634108
H    32.8806726  -14.261671999999999  98.4812945
H    34.2628497  -13.2806953  97.9588787
H    31.4917588  -12.5319606  96.9727737
H    32.3041583  -13.931158799999999  96.25724290000001
H    34.2913261  -12.461624299999999  95.8038379
H    33.3356296  -11.0731653  96.31488060000001
H    32.1642345  -12.9314833  94.23195100000001
H    33.4767503  -11.861094999999999  93.7465524
H    32.2083535  -9.919521799999998  94.652519
H    30.8426445  -10.9667927  94.9708937
H    31.8552593  -11.280434999999999  92.1995552
H    31.4101164  -9.612975599999999  92.55417170000001
H    29.2095899  -10.501066499999999  93.4833411
H    29.6128252  -12.051596799999999  92.7122191
H    31.0235681  -13.0719254  99.28090830000001
H    31.633523  -10.862309999999999  101.0963474
H    29.2632337  -10.9580857  101.6811017
H    30.0496428  -12.532432  101.90087170000001
H    29.0571368  -13.2623462  99.69196500000001
H    28.187331099999998  -11.733160499999999  99.6189545
H    27.9513726  -13.539413799999998  102.0596003
H    27.0296551  -13.925243799999999  100.61121870000001
H    26.6969697  -11.617802  102.3950674
H    23.7386325  -10.6640065  100.8842063
H    24.7509431  -10.4845852  102.2627365
H    25.7631638  -13.015119799999999  99.2591335
H    24.270511  -12.155708599999999  99.2263763
H    30.6096867  -8.8082736  100.8433701
H    30.480781399999998  -8.0673386  97.9991914
H    31.8299517  -6.847780599999999  100.0066498
H    30.2542366  -6.050830099999999  100.24064560000001
H    30.2606099  -5.341061199999999  97.8838429
H    31.7626143  -6.195378999999999  97.58733000000001
H    31.8466731  -4.179899699999999  99.8046686
H    31.6351971  -3.5293851999999992  98.18687580000001
H    33.641924  -4.616368999999999  97.47456980000001
H    34.9924317  -4.504422699999999  101.27719090000001
H    33.2893019  -4.446724199999999  101.02255770000001
H    35.865775  -4.713989699999999  97.893394
H    36.4475447  -4.694100699999999  99.51614380000001
