27

C    -18.676  -0.926  -26.06
C    -18.3741116  0.11421749999999997  -26.9388568
C    -18.018283699999998  -0.14010870000000003  -28.247207500000002
C    -17.9221264  -1.4608353  -28.7096968
C    -18.198180999999998  -2.5015374  -27.829535
C    -18.5684309  -2.2377137  -26.5183487
O    -17.5740348  -1.7041667999999999  -30.0048775
O    -17.749644299999996  0.8747173  -29.127244400000002
C    -18.950992399999997  -0.6065251  -24.6581073
N    -19.7486465  -1.3349727  -23.8299636
C    -19.64521  -0.7763636  -22.6308128
N    -18.7810033  0.31739569999999995  -22.6719154
C    -18.349324499999998  0.415921  -23.9514164
C    -20.2278283  -1.0857127000000002  -21.3925484
C    -19.9177765  -0.32578190000000007  -20.2958933
C    -19.0300171  0.7634167  -20.3868897
C    -18.474260599999997  1.067654  -21.5884394
H    -18.4537515  1.1369878999999998  -26.6006907
H    -18.116790299999998  -3.5138190000000002  -28.1904105
H    -18.7859721  -3.0490268  -25.8432112
H    -17.4288715  -0.8539780000000001  -30.4515777
H    -17.859679399999997  1.7318075999999998  -28.6929903
H    -17.6458852  1.1606461000000001  -24.2612172
H    -20.902796199999997  -1.9228222000000001  -21.3362352
H    -20.360212599999997  -0.5642852  -19.3418764
H    -18.7950816  1.3490818999999998  -19.5153082
H    -17.7872851  1.8847763999999998  -21.7434485
