28

N    -5.406  -3.648  11.801000000000002
O    -4.419541199999999  -4.642942  11.7139319
C    -5.1358152  -2.4792317000000006  12.420465100000001
O    -4.0388398  -2.1718554  12.8506538
C    -6.308589  -1.5164048000000003  12.458672900000002
C    -6.410399699999999  -0.7778357000000004  11.1231916
C    -6.8993182  -1.6171375000000003  9.980168
C    -7.380653799999999  0.2956011999999997  11.4013731
O    -8.695676299999999  0.18693809999999966  11.2312501
N    -7.021090899999999  1.5063040999999995  11.7080224
N    -9.208725999999999  1.4359709999999999  11.404946800000001
C    -8.1859919  2.1885293  11.686063100000002
C    -6.932231999999999  -1.1230493000000004  8.741439800000002
C    -7.414725799999999  -1.7962927000000004  7.561102600000001
C    -6.487798999999999  0.18551569999999962  8.3152203
C    -6.694712699999999  0.2814133999999997  6.993638400000001
C    -7.271300599999999  -0.9554034000000003  6.524301000000001
H    -6.3423519  -4.0330285  11.798104100000002
H    -4.3073082  -4.862700500000001  10.769941600000001
H    -6.097691299999999  -0.7983463000000003  13.251367400000001
H    -7.245051699999999  -2.0313465000000006  12.6727611
H    -5.453648299999999  -0.3030693000000003  10.896036800000001
H    -7.283303599999999  -2.6007478000000006  10.1940725
H    -8.2731398  3.2348648  11.884602600000001
H    -7.8094092999999996  -2.7934807000000004  7.5497510000000005
H    -6.0756292  0.9379747999999997  8.961204100000002
H    -6.4818617  1.1262899999999996  6.363611900000001
H    -7.5325307  -1.1420908000000003  5.498026500000001
