26

N    32.987  8.442  18.424
C    36.6218735  9.0243991  20.7571298
C    37.0175112  10.324712  20.3483252
C    38.2894044  10.81267  20.5560222
C    39.2185275  9.9914331  21.1796427
C    41.1838682  11.3183244  20.6300122
O    32.7968441  10.997010600000001  18.7103769
O    32.2980863  9.4905567  20.5501346
S    33.0984326  9.752301300000001  19.3825391
C    34.7746775  9.7670966  19.8586651
N    35.3211313  8.763047700000001  20.4429566
S    35.7232107  11.195389  19.5941367
C    38.8407158  8.697969200000001  21.5994418
C    37.5698628  8.2140091  21.3973132
O    40.4931273  10.3557024  21.4365204
C    42.5684718  10.7676089  20.3073891
H    32.8959417  8.6306185  17.4378195
H    32.3239666  7.7688136000000005  18.7751877
H    38.5354052  11.8144566  20.2462026
H    41.259560900000004  12.2500294  21.2001282
H    40.6295586  11.503238300000001  19.7063167
H    39.586593900000004  8.0935679  22.0885102
H    37.2903137  7.224358400000001  21.715683900000002
H    43.1057551  10.554379500000001  21.2265464
H    42.4807136  9.849702500000001  19.7332249
H    43.1226793  11.5004133  19.729740200000002
