37

C    40.826  22.828000000000003  40.916
P    40.6750909  30.2256047  39.73052139999999
O    42.838105799999994  21.4945083  46.404501999999994
C    42.0203323  21.5461475  45.48886019999999
N    40.758197499999994  20.992552600000003  45.701914499999994
C    39.747585799999996  20.9824927  44.76542619999999
N    38.5926827  20.3902199  45.13947339999999
N    39.9089994  21.4887362  43.54831349999999
C    41.131715199999995  22.038787000000003  43.26853379999999
C    42.1961119  22.1071136  44.17298279999999
N    43.266344399999994  22.7430273  43.5765226
C    42.864349499999996  23.0360708  42.371737599999996
N    41.590907099999995  22.6224785  42.118022599999996
C    39.8354395  23.9939766  41.11308199999999
C    39.9776026  25.057155  40.02485769999999
C    39.2159708  26.3525615  40.3404664
C    40.087682  27.557901  39.999884699999996
C    39.4313983  28.904193600000003  40.20145099999999
O    41.802938  30.1504768  40.75626989999999
O    41.1575232  29.8865675  38.32400129999999
O    39.9622703  31.5745244  39.760293499999996
H    40.294555499999994  21.9027071  40.69110839999999
H    41.5232223  23.055933500000002  40.10911649999999
H    40.6169559  20.589094000000003  46.620885099999995
H    37.8135275  20.4725921  44.509510899999995
H    38.425711899999996  20.198640700000002  46.1113824
H    43.460508499999996  23.544294700000002  41.64218799999999
H    40.041871099999994  24.4659678  42.075828699999995
H    38.8116537  23.625698200000002  41.13892229999999
H    39.6498664  24.6590291  39.06460369999999
H    41.0349021  25.316334700000002  39.927603899999994
H    38.967910499999995  26.4043843  41.40274269999999
H    38.285597599999996  26.4165633  39.77512949999999
H    40.410577599999996  27.5255183  38.95345519999999
H    41.001774  27.565655500000002  40.604157099999995
H    38.5503739  29.0353462  39.56507499999999
H    39.1418451  29.075420800000003  41.243127199999996
