47

C    3.445  68.479  29.844
C    4.6885685  68.6686555  30.4009158
F    5.5917066  67.6678919  30.269292
C    5.052091  69.8172923  31.0781314
C    4.1130244  70.8287615  31.1986977
C    2.8532642999999998  70.6624705  30.652470700000002
C    2.5139845  69.4933275  29.977086200000002
C    1.1952122999999997  69.3611047  29.3386547
C    1.2380189999999998  69.9757618  27.9293134
P    -0.5618902000000001  70.0892869  27.3255597
O    -1.3893086000000001  70.4172379  28.5805784
O    -0.6091721000000003  71.2022443  26.2813124
O    -0.8706755000000004  68.7133589  26.7545159
N    1.8744084999999997  71.2655981  27.895242800000002
C    3.1632806999999996  71.4552809  27.5657892
N    3.9752025999999994  70.4130681  27.3214986
C    5.251994399999999  70.6585265  27.0363043
N    5.836332  71.845272  26.9597544
C    5.0313719  72.8888496  27.2055052
S    5.475494899999999  74.5608859  27.1913798
C    3.6811500999999995  72.7690464  27.523614600000002
C    3.0413920999999995  74.0002972  27.754294700000003
C    3.8628278  75.074491  27.6194072
C    3.5239578  76.465874  27.729927500000002
C    2.1857765999999996  76.8714102  27.7129952
C    1.8697240999999998  78.2106246  27.7749594
C    2.8685392999999997  79.1754558  27.858561
C    2.5029763999999997  80.6105318  27.9255485
C    4.196877  78.7739769  27.8698133
C    4.523401099999999  77.4356987  27.8019058
H    3.2073287999999995  67.5729642  29.3116098
H    6.0441815  69.90878000000001  31.4878396
H    4.364999699999999  71.7409708  31.714728400000002
H    2.1085537999999997  71.440454  30.7370293
H    0.4122425999999999  69.8961147  29.884513300000002
H    0.8637657999999995  68.3298958  29.2109837
H    1.7773364999999997  69.3009229  27.2516743
H    1.2210040999999996  72.0315068  27.8146874
H    5.8706675  69.7952074  26.8493049
H    2.0008503999999996  74.0644542  28.020618900000002
H    1.4002862999999997  76.134923  27.6310234
H    0.8333450999999998  78.5138955  27.755095100000002
H    3.3870498999999996  81.2378259  27.993102800000003
H    1.8712526999999997  80.8001672  28.7920792
H    1.9369170999999996  80.89785499999999  27.040460200000002
H    4.9802865  79.5134715  27.9288524
H    5.5539103999999995  77.1133927  27.8027357
