84

C    25.055  134.046  -31.303
C    25.851397000000002  132.8657682  -31.2175842
N    27.1682231  132.97360569999998  -31.0623545
C    27.7379962  134.1888986  -30.992360400000003
N    27.0349907  135.33669709999998  -31.0744723
C    25.7189372  135.25762139999998  -31.2252653
N    29.0798473  134.3004303  -30.8495665
C    30.0213594  133.25979039999999  -30.7736561
C    29.7312295  132.06696739999998  -30.1203709
C    30.654889100000002  131.0470188  -30.0583432
C    31.9172185  131.16620289999997  -30.644980500000003
C    32.2279533  132.3725791  -31.278017000000002
C    31.3074564  133.40611589999997  -31.346635600000003
O    31.625811300000002  134.60027019999998  -31.9741447
C    32.242929600000004  134.54557379999997  -33.2549866
N    32.820772500000004  130.10428969999998  -30.5805089
C    32.233359300000004  128.80437249999997  -30.8964788
C    33.1580264  127.68248549999998  -30.4514031
C    34.5324564  127.82553279999999  -31.1010487
C    35.064155  129.2475653  -30.934606600000002
C    34.0416259  130.2896126  -31.347384700000003
N    35.503097600000004  126.92368489999998  -30.4341121
C    36.7832166  126.88425369999999  -31.1704204
C    37.812515000000005  126.15725389999999  -30.328922300000002
N    37.3606503  124.78745189999998  -30.005357800000002
C    36.017955  124.79609029999999  -29.3854523
C    35.0183464  125.54055239999998  -30.2518122
C    38.326427800000005  124.15212979999998  -29.0991752
N    25.258099700000002  131.63860749999998  -31.2724501
C    25.8447859  130.3843622  -31.1766997
C    25.1608861  129.29514229999998  -30.6046261
C    25.7265842  128.03383989999998  -30.5077521
C    27.0069686  127.82321529999999  -30.9818128
C    27.6964252  128.88096359999997  -31.5601577
C    27.1307407  130.1386126  -31.661948600000002
S    23.536746700000002  129.43574729999997  -30.001517500000002
C    23.566933300000002  129.75271439999997  -28.2432979
C    24.3492557  131.01958069999998  -27.9690377
C    24.1203046  128.5414693  -27.5246211
O    22.8546346  128.18109139999999  -30.2496408
O    22.8943398  130.57345949999998  -30.643963300000003
Cl    23.3003116  133.9539179  -31.5128378
H    25.1903285  136.19707179999997  -31.2857957
H    29.4455757  135.23362909999997  -30.981564600000002
H    28.760035000000002  131.94865109999998  -29.6733532
H    30.3782371  130.16349419999997  -29.5096168
H    33.172103  132.54612809999998  -31.7604858
H    32.1246295  135.5425958  -33.676804000000004
H    31.7463834  133.81100439999997  -33.8948516
H    33.3095401  134.31436509999997  -33.1763333
H    32.0496341  128.7353244  -31.9802809
H    31.2789173  128.6932368  -30.392509500000003
H    32.674840700000004  126.74953109999998  -30.732046800000003
H    33.246337600000004  127.74831159999998  -29.3663853
H    34.4685282  127.56272879999999  -32.1600556
H    35.9502216  129.4309587  -31.537537
H    35.2956493  129.43213469999998  -29.884301
H    34.464877200000004  131.2641914  -31.1105395
H    33.843108900000004  130.2429028  -32.4285385
H    35.6703357  127.32638199999998  -29.5003069
H    37.150445500000004  127.88890199999999  -31.3642597
H    36.6178152  126.38907529999999  -32.1286225
H    37.986328  126.69001129999998  -29.390913100000002
H    38.761497500000004  126.10989409999999  -30.864367
H    37.3212432  124.23671189999999  -30.8723633
H    36.0991545  125.26714249999998  -28.403069000000002
H    35.682661100000004  123.76917509999998  -29.2347563
H    34.8913544  125.07592619999998  -31.2303892
H    34.0602907  125.53399739999999  -29.7373239
H    39.3133117  124.11840869999999  -29.5539507
H    38.0234144  123.13369089999999  -28.868804
H    38.3937429  124.71069109999999  -28.1689467
H    24.2444025  131.6390085  -31.1936874
H    25.1275997  127.24346109999999  -30.089041400000003
H    27.453945100000002  126.84622799999998  -30.9093544
H    28.6900944  128.72772439999997  -31.9488743
H    27.6775901  130.9560061  -32.0993058
H    22.5079557  129.89212439999997  -28.014463300000003
H    24.2922168  131.2738116  -26.9146486
H    23.939343  131.8455722  -28.5475237
H    25.3933044  130.8864907  -28.243601
H    23.9574005  128.63349229999997  -26.454720100000003
H    25.1864105  128.4475363  -27.7114425
H    23.6148031  127.64677989999998  -27.8791295
