47

C    27.53  9.968  9.010000000000002
O    28.2268549  11.0109449  9.6781757
C    28.0299646  10.9976771  11.046918400000001
C    29.0138109  10.4810595  11.876763500000001
C    26.845803500000002  11.4945883  11.595476000000001
C    26.6640134  11.466649199999999  12.968245900000001
Cl    25.1746625  12.0977379  13.617497700000001
C    27.643095000000002  10.951358599999999  13.8095777
C    28.8250667  10.46901  13.259037500000002
C    29.9029554  9.885686  14.1388166
N    29.562313  8.4819295  14.4831344
C    30.6937772  7.5410425  14.422072700000001
C    30.8385795  6.8965054  13.0260417
C    30.9975633  5.35515  13.070942200000001
N    29.7455977  4.6499331  12.8345164
C    29.449256000000002  4.0439828  11.6379876
O    30.2299863  4.0839365999999995  10.687959000000001
N    28.2088043  3.4008437  11.549660600000001
C    27.680581  2.7472294  10.3965533
C    26.3154779  2.8520488999999998  10.1139352
C    25.763513200000002  2.2459591999999997  8.9886429
C    26.557184200000002  1.5103254999999995  8.1198543
C    27.911564900000002  1.3846981999999999  8.3966815
C    28.468167400000002  1.9896786999999998  9.5198949
H    27.722461900000003  10.1097118  7.949159400000001
H    26.4545409  10.0245393  9.1976118
H    27.9055624  8.989854  9.322901700000001
H    29.9231848  10.1105099  11.4313842
H    26.0881079  11.904022000000001  10.9466283
H    27.477584  10.9545375  14.8736004
H    30.0204694  10.475783  15.045879200000002
H    30.8422025  9.8956738  13.5875062
H    28.829809400000002  8.1550902  13.83924
H    29.152477400000002  8.4645561  15.423354100000001
H    30.5204521  6.7477365  15.1505048
H    31.6079492  8.0564579  14.7089633
H    31.7088001  7.3024774  12.514836200000001
H    29.971820400000002  7.1184259  12.4042584
H    31.4204081  5.0277528  14.0198166
H    31.6674624  5.0424982  12.2670925
H    29.1214297  4.511172  13.6131208
H    27.5217427  3.6027983999999997  12.2627565
H    25.6733479  3.4178739  10.7731034
H    24.7069111  2.3546829999999996  8.796928000000001
H    26.13028  1.0444569999999995  7.245697400000001
H    28.549643200000002  0.8123005999999995  7.740765900000001
H    29.526773300000002  1.8983388999999997  9.7079964
