33

P    19.46  -18.076  -18.142
O    19.295395700000004  -16.84662  -18.9540029
O    20.808266900000003  -18.5569677  -17.7293815
O    18.698204800000003  -19.3201537  -18.9025623
C    18.477250500000004  -20.5202286  -18.1765845
C    17.664015600000003  -20.157785399999998  -16.9525497
O    17.430478100000002  -21.1999335  -16.0286188
C    18.386796600000004  -19.113772  -16.108902699999998
O    18.5082753  -17.8869543  -16.7826247
C    17.478414700000002  -19.0975856  -14.872659299999999
O    16.348636900000002  -18.2893271  -15.0652572
C    17.007729800000003  -20.5779804  -14.815717999999999
N    17.4882026  -21.31576  -13.684459599999999
C    16.730846800000002  -22.1295096  -12.874821299999999
N    17.407201600000004  -22.6886453  -11.919699399999999
C    18.6960447  -22.2463087  -12.0815308
C    19.882694100000002  -22.4895554  -11.3585722
N    19.9877284  -23.2741549  -10.280235
N    21.007695100000003  -21.884399  -11.7858036
C    20.955365500000003  -21.0979287  -12.848430599999999
N    19.898942200000004  -20.793082  -13.593578899999999
C    18.768584000000004  -21.3891533  -13.187268399999999
H    19.4370529  -20.9527079  -17.870748199999998
H    17.947399600000004  -21.196828  -18.8491846
H    16.706318900000003  -19.7242135  -17.2876446
H    19.3811655  -19.4953032  -15.8375749
H    18.0193441  -18.811185299999998  -13.963276899999999
H    16.6313424  -17.4577301  -15.4793732
H    15.908067100000002  -20.580493999999998  -14.771459799999999
H    15.681386300000003  -22.2644563  -13.036145999999999
H    20.891146600000003  -23.3760191  -9.851657499999998
H    19.171632400000004  -23.7438795  -9.928645499999998
H    21.883413600000004  -20.6349083  -13.1516852
