29

C    -20.269  63.35499999999999  4.117
C    -18.054474199999998  63.10187889999999  5.3224281
C    -17.3230428  64.42094809999999  5.0907474
C    -19.5627188  63.26338929999999  5.4713996
O    -25.8430097  65.06905719999999  5.4575316
C    -24.923783699999998  64.26283299999999  5.5176581
N    -25.068368  63.05689519999999  6.2305595
C    -24.0986206  62.20168319999999  6.2954494
N    -22.867063799999997  62.34788879999999  5.7025233
C    -22.6341951  63.50574569999999  4.9847257
C    -23.6273061  64.47339249999999  4.869286
N    -23.148598699999997  65.5123357  4.1092749
C    -21.9324446  65.18175579999999  3.785457
N    -21.563859599999997  63.96506359999999  4.2728282
P    -16.1623922  64.84990859999999  6.5285576
O    -15.033645  65.6940762  5.9451103
O    -15.648072599999999  63.53136689999999  7.0996313
O    -16.979506  65.62782779999999  7.5558951
H    -20.373376  62.36120319999999  3.6739707
H    -19.6826992  63.98400369999999  3.4457263
H    -17.6369457  62.68902899999999  6.2471681
H    -17.8245023  62.40034489999999  4.5170809
H    -17.9983744  65.274649  4.9888048000000005
H    -16.682541999999998  64.39399979999999  4.2043106
H    -19.947723699999997  62.41872879999999  6.0449699
H    -19.746071399999998  64.16958249999999  6.0549578
H    -24.255067999999998  61.29238629999999  6.8531498
H    -22.144066  61.64855839999999  5.8142835
H    -21.275707999999998  65.7850733  3.1939199
