45

P    -15.829  -13.126  -8.458
C    -14.540784500000001  -12.312187299999998  -9.4397601
C    -13.4728325  -11.666731599999999  -8.8277732
C    -12.5074778  -11.052007799999998  -9.6080773
C    -12.6059605  -11.0742342  -10.9903174
C    -13.675157500000001  -11.713595399999999  -11.6001065
C    -14.6424989  -12.3348667  -10.8302565
C    -17.3240602  -12.095881599999998  -8.507272200000001
C    -17.258858  -10.805829499999998  -9.0277302
C    -18.393986  -10.0120279  -9.0554225
C    -19.5946636  -10.4953212  -8.5608048
C    -19.6601726  -11.7776281  -8.0346891
C    -18.5320188  -12.580044999999998  -8.0052467
C    -16.112371200000002  -14.749232099999999  -9.2279713
C    -15.2670447  -15.819197199999998  -8.9463372
C    -15.4692422  -17.0461663  -9.5524658
C    -16.5112288  -17.2145512  -10.4491961
C    -17.3445497  -16.1472321  -10.7431017
C    -17.1505831  -14.916305199999998  -10.138853000000001
C    -16.0675767  -12.788396999999998  -5.701874800000001
C    -15.6738291  -12.950211099999999  -4.3838041
C    -14.5290479  -13.668456899999999  -4.0797292
C    -13.7650156  -14.211771899999999  -5.1007447
C    -14.1396458  -14.037369599999998  -6.4213565
C    -15.3053059  -13.336412699999999  -6.7305314
H    -13.3966615  -11.643477699999998  -7.7503251
H    -11.6765175  -10.5533995  -9.1341256
H    -11.8501778  -10.594630899999999  -11.5923248
H    -13.754218400000001  -11.7307832  -12.6756756
H    -15.4724564  -12.841445499999999  -11.3019553
H    -16.3251131  -10.4241538  -9.4140236
H    -18.3378012  -9.015281199999999  -9.4636225
H    -20.4779466  -9.876761799999999  -8.5840586
H    -20.5932397  -12.1559096  -7.647531600000001
H    -18.5856401  -13.582765199999999  -7.6040462
H    -14.4613866  -15.718588099999998  -8.2409088
H    -14.8136106  -17.8706167  -9.3209083
H    -16.674112700000002  -18.1718275  -10.9190139
H    -18.1551511  -16.2728878  -11.4440685
H    -17.8136096  -14.0929603  -10.3647836
H    -16.963109  -12.228769  -5.9268555
H    -16.2645255  -12.512661399999999  -3.5944698000000006
H    -14.2283285  -13.798016599999999  -3.0519648000000004
H    -12.862540800000001  -14.755798599999999  -4.8701571
H    -13.4836766  -14.387978399999998  -7.203613300000001
