30

N    -18.661  0.821  -35.635
C    -19.165906200000002  -0.7906254000000001  -33.5596904
C    -17.2620296  -1.0612921000000002  -30.3513057
C    -17.2958913  -2.4694868000000003  -29.7529889
C    -18.6005131  -0.35734940000000015  -30.1628162
O    -17.676530800000002  -2.3725185  -28.3746516
O    -19.181068  -1.2601151000000002  -26.5651758
P    -19.0969564  -1.6177694000000002  -28.0003788
O    -17.1819303  1.9553038999999999  -34.3912219
C    -17.987610800000002  1.0503380999999998  -34.4719543
C    -19.5879422  -0.17017300000000013  -35.8626426
O    -20.125400600000003  -0.28101360000000014  -36.9527146
N    -18.2625911  0.21695889999999984  -33.397346
C    -19.8225555  -1.0044913000000002  -34.7168069
C    -17.511255300000002  0.36699709999999985  -32.1511438
C    -18.3543528  0.9287436999999998  -30.9727932
O    -17.609055100000003  1.8863110999999997  -30.2653216
O    -17.0200013  -0.9157870000000001  -31.746426500000002
O    -18.8812834  -0.17166840000000017  -28.8056217
O    -20.1968612  -2.3804279  -28.6599778
H    -18.435377900000002  1.4522206999999998  -36.3997531
H    -19.3070951  -1.4272521  -32.7005673
H    -16.5072274  -0.48652500000000015  -29.7888891
H    -16.3136894  -2.9425293999999997  -29.7592812
H    -18.027000400000002  -3.0887291  -30.2850435
H    -19.4056946  -0.9574702000000002  -30.6086052
H    -20.5307931  -1.8081866000000002  -34.8138664
H    -16.6788485  1.0501926  -32.3647003
H    -19.2904544  1.3714627  -31.3384655
H    -17.9639148  1.9487759999999998  -29.3646344
