40

C    35.768  -16.316  16.368
C    36.015646600000004  -17.767108699999998  14.460889499999999
C    34.6438361  -17.761691199999998  14.278152099999998
C    33.8246355  -17.029486  15.1433583
O    37.875037500000005  -14.826298699999999  18.6773673
C    37.569686000000004  -15.504531  17.7046386
O    36.240802200000005  -15.5876181  17.416553399999998
C    38.5128052  -16.2361581  16.8490634
C    39.9667285  -16.1379651  17.2820313
C    40.8180337  -15.1535019  16.5100713
C    40.5929139  -13.7859514  16.626577299999997
C    41.3935802  -12.891074099999999  15.936903499999998
C    42.4262419  -13.3476451  15.130448499999998
C    42.6659529  -14.7066053  15.021589599999999
C    41.8667432  -15.600954999999999  15.7138716
C    38.0643041  -16.988842899999998  15.781508699999998
C    38.9995726  -17.7584747  14.890798399999998
C    36.625090900000004  -17.0420908  15.506880499999998
C    34.3842312  -16.3146158  16.190199099999997
O    32.445453900000004  -17.079705  15.032348799999998
S    31.5927857  -15.9922803  14.231111999999998
O    30.227162  -16.4373291  14.295482799999998
O    32.1086818  -15.886244699999999  12.8886659
C    31.865445400000002  -14.5471445  15.191340699999998
H    36.6315659  -18.3382363  13.7875208
H    34.189768300000004  -18.3144439  13.473235199999998
H    40.422268200000005  -17.1268661  17.238753799999998
H    39.948300100000004  -15.814186399999999  18.3266524
H    39.7928146  -13.431802699999999  17.2607997
H    41.2145427  -11.8302296  16.032319599999997
H    43.044666400000004  -12.6413972  14.597344999999999
H    43.475582100000004  -15.068974299999999  14.407039099999999
H    42.0745493  -16.658511  15.640145299999999
H    40.0289501  -17.621468399999998  15.1899714
H    38.8855384  -17.4116662  13.866560799999998
H    38.7446263  -18.815112  14.923976999999999
H    33.7798025  -15.7789127  16.902182699999997
H    31.2830358  -13.749742999999999  14.7481216
H    32.9202034  -14.315088699999999  15.1548039
H    31.5157546  -14.7678394  16.1892896
