32

C    -10.391  23.852000000000004  28.151
C    -10.889934  23.009451000000002  26.939435600000003
C    -10.8580088  22.578356000000003  24.4802308
C    -10.5579423  23.1414459  23.2249336
C    -12.5889638  19.4541034  21.4260685
N    -13.121843400000001  18.5283407  20.5709399
C    -14.0785614  16.449229700000004  19.9317084
C    -13.9777398  16.571931300000003  18.5647395
C    -14.733773600000001  15.533699600000002  18.017607400000003
N    -14.8667019  15.371673800000003  20.2228146
C    -11.877706  20.741371200000003  23.344637000000002
O    -11.1883807  24.720124000000002  28.5437762
O    -9.3120865  23.527672600000002  28.6864749
O    -11.6985612  22.128714300000002  27.2318107
N    -10.4729934  23.247953900000002  25.6652987
C    -10.9115984  22.5193899  22.0449846
C    -11.588887  21.297809800000003  22.0838925
N    -12.0193486  20.5369296  21.0320123
C    -13.488122800000001  17.275210100000002  20.969266100000002
O    -13.363550700000001  16.859732100000002  22.1130232
Br    -14.917816  15.257972900000002  16.1737093
C    -15.2776447  14.811193000000003  19.0619951
Br    -16.3969422  13.314981600000003  18.991069200000002
S    -12.6965404  19.214852300000004  23.1686078
C    -11.5192338  21.3578031  24.5257529
H    -10.0366338  24.0853731  23.190682600000002
H    -13.1698602  18.796010700000004  19.5956585
H    -13.417680500000001  17.2865758  17.997822300000003
H    -15.0741396  15.067892200000003  21.164950400000002
H    -9.850620200000002  24.0357425  25.537974900000002
H    -10.675478600000002  22.9647298  21.0934779
H    -11.7576955  20.903578900000003  25.4726001
