43

O    77.194  28.699  -4.997
C    78.0838093  29.3087379  -4.1113588
C    79.2388061  28.3350383  -3.8609685
O    80.3981873  28.800700300000003  -4.5037141
C    79.36978930000001  28.195292300000002  -2.3396263999999998
O    78.198346  27.5966735  -1.8557048999999997
C    80.6178752  27.502802600000003  -1.7980809999999998
O    81.7362755  28.1298369  -2.3272117999999997
C    80.60107550000001  25.979556600000002  -1.9922007999999998
O    80.7610561  25.6760129  -3.3396934999999996
C    81.60594300000001  25.2154785  -1.1158410999999997
N    83.0050495  25.6610769  -1.1985718999999997
C    83.7772473  25.2799225  -0.00016599999999966641
C    84.11021620000001  26.5694117  0.8200054000000003
O    83.7574945  27.638806300000002  0.2993751000000002
C    85.0607693  24.540840900000003  -0.3286364999999998
C    86.1420605  25.402178900000003  -0.9733171999999998
C    87.1389592  24.445727  -1.5877558999999997
O    88.1385731  24.0915937  -0.9839985999999997
N    86.8268022  23.9493706  -2.8042526999999997
O    84.6926775  26.4203672  1.8977627000000004
H    76.6813553  28.0297875  -4.5240737
H    77.58153010000001  29.600632400000002  -3.1853929999999995
H    78.462034  30.2089196  -4.6012883
H    78.9622867  27.349108400000002  -4.2598123999999995
H    80.2538052  28.7681767  -5.4599881
H    79.4532725  29.232459000000002  -1.9635921999999997
H    78.123811  27.748627900000002  -0.9034973999999997
H    80.6561385  27.6798076  -0.7116763999999998
H    81.59913920000001  28.2951829  -3.2779226999999995
H    79.6018892  25.656518300000002  -1.6530674999999997
H    80.53514080000001  24.7497079  -3.5044296
H    81.56466970000001  24.153512300000003  -1.3675207999999996
H    81.28142580000001  25.3422135  -0.08148129999999965
H    83.0357686  26.7218041  -1.1646462999999998
H    83.4415745  25.3615833  -2.0728747999999997
H    83.1746717  24.638682900000003  0.6456947000000004
H    84.82710320000001  23.6946455  -0.9814124999999997
H    85.4591252  24.135916  0.6031242000000003
H    86.6386928  26.009715800000002  -0.21765929999999978
H    85.72701860000001  26.0662597  -1.7326430999999998
H    87.4830518  23.322467600000003  -3.2407809999999997
H    86.0908314  24.346779700000003  -3.3605074999999998
