40

C    35.924  -62.331  51.42
C    37.7686427  -63.425216600000006  52.2722159
C    36.7342425  -65.4934166  51.3596818
C    35.767878700000004  -63.0647728  53.8019252
C    34.5450591  -63.378604200000005  56.297663
C    33.7734468  -63.396930100000006  55.1357108
C    34.385241  -63.2466814  53.8924156
C    31.560092400000002  -63.095110000000005  54.290279
C    35.9105975  -63.198574  56.2072942
C    37.9718804  -62.0893346  48.2121037
C    39.1085635  -62.726800000000004  48.6898879
C    39.1643606  -63.1915702  50.0017716
C    38.0698547  -63.007920500000004  50.8371352
C    36.935153  -62.3716881  50.3505877
C    36.8745154  -61.8961599  49.0452248
C    35.5770858  -61.2767604  48.5525891
O    35.3377806  -60.0791112  48.8028576
O    34.8370213  -62.062479100000004  47.9177847
O    34.8053657  -61.842013800000004  51.3377519
N    36.4311208  -62.9009872  52.5495022
C    37.7029986  -64.9471121  52.3704805
C    35.4882094  -65.8053393  51.6596654
C    36.5216595  -63.041786900000005  54.9747154
O    32.4230596  -63.576207600000004  55.3018033
H    38.5058498  -63.01856  52.9698647
H    37.0869754  -65.5567169  50.3397745
H    34.0505076  -63.500751400000006  57.2469605
H    33.805980500000004  -63.2440094  52.9825146
H    30.5694066  -63.068033500000006  54.7400796
H    31.549426500000003  -63.761787700000006  53.4217392
H    31.852885  -62.093711000000006  53.962888
H    36.5081516  -63.1729155  57.103887
H    37.918514200000004  -61.735524700000006  47.1932297
H    39.9553255  -62.869829200000005  48.038113100000004
H    40.053119  -63.6881196  50.3605057
H    37.3781843  -65.2217428  53.3752651
H    38.6983557  -65.3550347  52.1903062
H    34.7921981  -66.15216000000001  50.9144955
H    35.1115616  -65.72975290000001  52.6667539
H    37.5866011  -62.8858254  54.9296753
