69

C    26.277  52.284  -2.818
N    25.0909359  52.4447518  -3.3999088
C    24.0370671  51.7500306  -2.9815145999999997
C    20.5185141  52.0669263  -5.6701058
C    22.4824772  50.9370314  -6.5377117
C    24.6024996  48.014325299999996  1.3100037000000002
C    24.4884981  49.0005836  0.19522779999999962
C    25.5507932  49.7109032  -0.24061999999999983
C    25.43681  50.660863  -1.2999242
C    26.5371065  51.4232188  -1.7672586
N    22.862742100000002  51.9415835  -3.6410802
C    22.7820576  52.7865406  -4.8169109
C    21.3495849  53.2229798  -5.1296721
N    21.1685697  51.5117669  -6.8747226
C    23.379591  52.0759472  -6.055449
O    23.457418  52.9910741  -7.137784
C    24.6655416  53.7152784  -7.263241600000001
C    24.7767366  54.1997605  -8.7152467
C    25.3641359  55.6098364  -8.7667135
C    25.3259212  56.2044839  -10.1638684
S    26.3297479  55.2006167  -11.2567479
O    27.7092461  55.211861999999996  -10.8007055
O    26.1088896  55.6235372  -12.6324154
C    25.629944000000002  53.5674914  -11.0227155
C    25.6305248  53.2329536  -9.540518800000001
C    24.1795318  50.8249651  -1.9074795999999998
N    23.1220129  50.0748812  -1.4544187000000002
C    23.184641900000003  49.1733292  -0.4316740000000001
O    22.163324  48.5610983  -0.10828539999999975
C    27.8978051  51.311195  -1.2000091999999998
C    29.000684  51.1031  -2.0334331
N    30.2468304  51.0138835  -1.5932799000000002
C    30.473724500000003  51.128321299999996  -0.29724349999999955
C    29.461709  51.3495652  0.6494073
N    29.7287131  51.4439689  1.9863374
C    28.1538543  51.4404542  0.1612309999999999
H    27.0668773  52.9026139  -3.2238765000000003
H    19.520197200000002  52.4231317  -5.9248232000000005
H    20.4226234  51.2689617  -4.9324942
H    22.9274584  50.4831611  -7.4221223
H    22.376864700000002  50.1836576  -5.7570158
H    25.6254086  47.9431734  1.6648265999999996
H    24.262313300000002  47.0352927  0.9744067000000003
H    23.9500196  48.3078097  2.1313949
H    26.5217813  49.5515786  0.2017604000000004
H    22.002795  51.6364039  -3.2181249999999997
H    23.405143600000002  53.6682423  -4.6278006
H    20.8815308  53.6332739  -4.236526
H    21.4023774  54.0163797  -5.8733459
H    21.349989  52.2756834  -7.5414164
H    20.5684642  50.8127287  -7.3235693
H    24.372347100000002  51.6931037  -5.7957426000000005
H    25.5185727  53.0821641  -6.9983392
H    24.6586448  54.5698093  -6.5754484
H    23.7633707  54.2258797  -9.1249353
H    26.4045808  55.5839664  -8.436408499999999
H    24.8111366  56.2692845  -8.095527
H    25.7339834  57.211318  -10.192160900000001
H    24.3316431  56.2008319  -10.6002843
H    26.2381779  52.8754155  -11.5989964
H    24.632165  53.6208669  -11.447586699999999
H    25.261695500000002  52.2143166  -9.4117691
H    26.6626109  53.2722089  -9.1862505
H    22.2086702  50.1624718  -1.8832904999999998
H    28.8766594  50.9943525  -3.1021094
H    31.5090868  51.0528322  0.008964299999999703
H    29.020400300000002  51.8405164  2.5762869000000004
H    30.6833248  51.589194  2.2600073
H    27.3472702  51.6517088  0.8504056000000002
