49

N    13.902  42.057  18.256
C    14.4659442  40.7043832  18.0109882
C    13.5366129  39.5505415  18.4247858
O    12.8550812  39.5753843  19.442604799999998
C    15.7578139  40.5136071  18.7984081
N    13.568181599999999  38.5172721  17.5867884
C    12.764532299999999  37.336069  17.839058599999998
C    13.6278721  36.1351846  17.4760967
O    14.5284822  36.319943800000004  16.6539577
C    11.5161266  37.3634111  16.9599008
N    13.3583402  34.9880183  18.0876074
C    14.1150155  33.771021600000005  17.7801689
C    13.835806  33.35789200000001  16.3220983
O    12.6904131  33.512685600000005  15.8983864
C    13.510023799999999  32.725438200000006  18.7319514
C    12.6789548  33.510035  19.746646499999997
C    12.2369521  34.7549384  18.9932458
N    14.8111676  32.7831844  15.610256699999999
C    14.6334815  32.3541505  14.213020199999999
C    15.4715783  33.223305  13.2743033
B    14.721544399999999  30.7531351  14.0022676
O    14.9238667  30.252073700000004  12.751778199999999
O    14.0522549  29.972775000000002  14.921231899999999
H    14.6415038  42.7665385  18.184799299999998
H    13.507208199999999  42.079050800000005  19.208782499999998
H    13.1477975  42.2765627  17.5947054
H    14.6770165  40.613865100000005  16.9425553
H    16.1974475  39.549362  18.563419
H    15.560187299999999  40.537295  19.867233
H    16.4853029  41.2810161  18.550570399999998
H    14.2058611  38.430489200000004  16.804735599999997
H    12.4908554  37.3588066  18.895865999999998
H    10.9231384  36.46654830000001  17.1082128
H    11.8040756  37.407698800000006  15.9119973
H    10.9090048  38.2301073  17.2057285
H    15.178588099999999  33.9590453  17.9455273
H    14.2786351  32.1226824  19.208451999999998
H    12.854601  32.0670549  18.159613
H    13.3019404  33.795495800000005  20.594997799999998
H    11.836941  32.930406700000006  20.1146094
H    11.334025  34.5573162  18.4079883
H    12.0719096  35.5989902  19.656
H    15.7495519  32.749104800000005  15.9783888
H    13.5766458  32.5686423  13.9983711
H    15.2082099  34.2723032  13.389667099999999
H    15.2837298  32.9134091  12.2518195
H    16.5319557  33.099819800000006  13.480318699999998
H    14.7449952  29.312807600000003  12.6528201
H    13.8222851  30.380324700000003  15.756191499999998
