42

Cl    -12.307  -20.508  -1.3860000000000001
C    -13.193602700000001  -21.4198103  -0.19481030000000032
C    -14.2138389  -20.7651456  0.4985417999999999
C    -14.9430554  -21.4451509  1.4476448
C    -14.6424146  -22.7824061  1.6983077
C    -15.171189700000001  -23.752619  2.5990313
S    -16.513736  -23.4982537  3.7212787
C    -15.8803362  -22.3816831  4.9475625
C    -14.6592046  -21.727518  4.8690615
C    -14.2770243  -20.868446  5.886302799999999
C    -15.0961307  -20.6598067  6.9806739
C    -16.3190041  -21.3142382  7.0619616999999995
C    -17.2496556  -21.1172632  8.246461499999999
O    -18.337151  -21.7459165  8.2164647
O    -16.8881453  -20.3521339  9.1669601
C    -16.7051242  -22.1692605  6.0428295
C    -14.487836000000001  -24.929054  2.4031035
C    -14.6747005  -26.2341623  3.0862857
N    -13.5312602  -24.7316414  1.4311342999999999
C    -12.6207612  -25.7275702  0.9712630999999998
C    -11.310125000000001  -25.740729  1.4304031
C    -10.4341304  -26.717988599999998  0.9867790999999999
C    -10.8593519  -27.6833125  0.0901263000000001
C    -12.167419200000001  -27.6714543  -0.3630610000000001
C    -13.0501518  -26.6991217  0.07654460000000007
C    -13.6019017  -23.4291975  0.9879384999999998
C    -12.863854100000001  -22.7438174  0.02554489999999987
H    -14.424372  -19.7302188  0.2836860999999997
H    -15.7356159  -20.956223  1.9935144999999999
H    -14.0074626  -21.8897089  4.0242211999999995
H    -13.326768600000001  -20.360753  5.8197838
H    -14.8158676  -19.9971371  7.7868712
H    -17.6628924  -22.6668393  6.1252863
H    -15.4780686  -26.1378184  3.8108050999999996
H    -13.759729400000001  -26.5301514  3.5974445
H    -14.9294229  -27.011847500000002  2.3691127
H    -10.984624  -24.9837681  2.1279727999999998
H    -9.416780000000001  -26.7218129  1.3463234999999998
H    -10.1735775  -28.4412455  -0.25407080000000004
H    -12.505855700000001  -28.4202784  -1.0621124000000002
H    -14.070324300000001  -26.6812796  -0.2755461000000001
H    -12.069429900000001  -23.2219426  -0.5246900999999999
