34

C    22.22  3.905  55.927
N    21.712846799999998  2.5480348999999998  55.9725816
C    21.6894821  1.8434681999999998  57.1114469
C    21.1081878  0.45712149999999974  57.0800739
C    21.206388999999998  -0.25751820000000025  58.2740603
C    20.822046399999998  -1.5813737000000003  58.3713794
C    20.330612799999997  -2.2343842  57.2545092
C    20.1788347  -1.5460004000000003  56.0666614
C    20.5261979  -0.19598410000000022  55.9704747
O    20.252287799999998  0.5609591999999998  54.8643144
C    20.0589841  -0.07339760000000023  53.5955122
C    21.4096104  -0.1589752000000002  52.8893737
C    21.217641  -0.7150882000000003  51.4834799
O    20.308348199999998  0.07611639999999975  50.7443102
C    19.0326931  0.12791699999999978  51.3626246
C    19.073173299999997  0.7385343999999998  52.7648882
O    22.1534949  2.3113246999999997  58.1567046
H    22.125725799999998  4.2827482  54.9151917
H    23.266804899999997  3.9181831999999996  56.2344117
H    21.662191399999998  4.5400639  56.6176629
H    21.2496166  2.1645269  55.1609682
H    21.6272138  0.2612446999999998  59.1229204
H    20.9183253  -2.1009282000000002  59.3113672
H    20.0522358  -3.2748983000000003  57.3081339
H    19.7600879  -2.0768556  55.2299025
H    19.644709  -1.0771222000000003  53.7123245
H    22.0897504  -0.7952350000000001  53.457057999999996
H    21.8392746  0.8422259999999997  52.8239119
H    20.8488786  -1.7507939000000001  51.5337582
H    22.1517038  -0.6950613000000003  50.9210927
H    18.6151879  -0.8888888000000001  51.4147899
H    18.414795899999998  0.7312466999999998  50.6965397
H    19.412170999999997  1.7732476999999998  52.704481799999996
H    18.081914299999998  0.7170573999999998  53.2132949
