51

O    175.82  75.753  56.394
O    175.43330039999998  78.1319795  56.2538303
O    176.3465288  77.48989900000001  50.406171799999996
C    168.04310429999998  77.1382476  56.3251895
C    168.8737569  75.8738183  56.5599706
C    168.35593469999998  74.8012197  55.5933298
C    168.57696579999998  75.3890544  57.9850655
C    170.38798719999997  76.119016  56.3758993
C    171.32370809999998  75.0799848  56.4194001
C    172.6964028  75.2881644  56.251710599999996
C    173.22500049999996  76.5529068  56.0288694
C    172.31454609999997  77.6006538  55.9967939
C    170.94153409999998  77.38622430000001  56.1650346
C    175.4870801  75.6655886  53.2255262
C    175.61752599999997  74.3692724  53.7515492
C    175.71734999999998  73.2315353  52.9653763
C    175.7116476  73.3644526  51.584147
C    175.6067881  74.6376481  51.0287851
C    175.4645325  75.80304410000001  51.8147845
C    175.39246319999998  77.1662696  51.0967852
C    174.1951485  78.10066330000001  51.2032936
C    174.05162819999998  79.29062470000001  50.4539505
C    172.94923329999997  80.1239627  50.5667738
C    172.02938919999997  78.7270798  52.1513567
C    173.10944959999998  77.8676215  52.057643
N    175.39591829999998  76.7657865  54.107644799999996
N    171.91971999999998  79.86336610000001  51.4168351
O    170.91875069999998  80.6254734  51.5210557
S    175.05238569999997  76.81437770000001  55.790960999999996
Cl    175.83578379999997  71.91239660000001  50.5858799
H    166.9879772  76.89740570000001  56.4200777
H    168.20750389999998  77.5383826  55.327566
H    168.2764331  77.9059847  57.0588233
H    168.85215219999998  73.848062  55.753188
H    168.52030849999997  75.1023124  54.5609254
H    167.2903241  74.6593663  55.7451901
H    168.90412059999997  76.1241076  58.7178039
H    169.08671539999997  74.45214  58.1953823
H    167.50883409999997  75.2351222  58.1037111
H    170.99706199999997  74.0665232  56.5915191
H    173.3667894  74.4436635  56.301869599999996
H    172.67744659999997  78.6059704  55.8447755
H    170.30843359999997  78.2571361  56.1268751
H    175.65561079999998  74.2728376  54.8243193
H    175.8057366  72.2636193  53.4279023
H    175.61455589999997  74.7549838  49.9556027
H    174.83142059999997  79.5648382  49.7586273
H    172.8591703  81.0244654  49.9803142
H    171.2069173  78.5260793  52.8201384
H    173.08357469999999  76.9804412  52.6732936
H    175.3174426  77.6755167  53.6822627
