40

P    -5.934  38.809  7.847000000000001
O    -5.9485805  38.644164599999996  6.347041400000001
O    -5.7216664999999995  37.532280099999994  8.633815100000001
O    -7.0411212  39.69112739999999  8.371614800000001
O    -4.5335955  39.70892129999999  8.2167796
P    -3.6173329  40.50597139999999  7.168285800000001
O    -2.8144937  39.670766099999994  6.230298300000001
O    -4.368370799999999  41.691888999999996  6.6527964000000015
O    -2.4996077  41.0534335  8.230848400000001
C    -2.9718166999999998  41.95588479999999  9.211858300000001
C    -1.9146516999999998  43.01550879999999  9.488978000000001
O    -0.8099656999999998  42.42506639999999  10.165661700000001
C    -1.3683180999999998  43.691123999999995  8.226742300000002
O    -1.0754175999999998  45.0460107  8.4482294
C    -0.02586299999999986  42.97776879999999  7.994385100000001
O    0.9166601000000001  43.7561323  7.327475900000001
C    0.38653360000000014  42.563846299999994  9.427639200000002
N    1.1581203000000002  41.342911699999995  9.4424884
C    0.8529893000000002  40.11669919999999  8.898683
N    1.7946069000000002  39.23183149999999  9.050455500000002
C    2.7963303  39.87861159999999  9.7417516
C    4.079894  39.45141689999999  10.2169977
O    4.6339042  38.357498699999994  10.103180100000001
N    4.7560118000000005  40.4745321  10.8831822
C    4.2854224  41.744898299999996  11.0795515
N    5.046217700000001  42.6224126  11.7396474
N    3.1021720000000004  42.136787399999996  10.648956700000001
C    2.39332  41.201327899999995  9.9968014
H    -3.1950277  41.393547399999996  10.1257
H    -3.9023436  42.407799399999995  8.846028500000001
H    -2.3494852  43.7537695  10.1753233
H    -2.0527251  43.53455889999999  7.386386100000001
H    -1.8821002  45.579458599999995  8.398797100000001
H    -0.20987849999999986  42.071111499999994  7.406341300000001
H    0.7599588000000002  44.68767919999999  7.579003000000001
H    1.0268208000000003  43.32554259999999  9.8973709
H    -0.08802719999999986  39.926831099999994  8.4139145
H    5.6725092  40.2133608  11.2336135
H    4.6759529  43.54831779999999  11.8666817
H    5.9571304000000005  42.373841199999994  12.0829017
