144

N    -34.728  -35.899  -16.087
C    -35.7956542  -35.1471325  -15.763709500000001
O    -36.1035768  -34.7559611  -14.640171400000002
C    -36.6461686  -34.8276422  -16.970126
C    -37.5277888  -36.022771399999996  -17.3337019
C    -38.5511837  -35.6797883  -18.4089601
C    -39.497836  -36.860931199999996  -18.6456878
C    -37.802506  -35.2780812  -19.7218918
C    -38.7770363  -34.2953355  -20.363508600000003
C    -37.2648107  -36.4018708  -20.612058700000002
C    -35.997164  -37.0055138  -20.014745
N    -35.9615599  -38.3409606  -19.9948805
O    -35.0840314  -36.3249108  -19.5550472
C    -39.3979842  -34.4131405  -18.122663000000003
N    -39.3867479  -33.6426925  -19.182322600000003
C    -40.1205281  -34.0550799  -16.9276336
C    -39.985872300000004  -34.9207381  -15.685436900000001
C    -41.0045249  -32.9817697  -16.9107522
C    -41.7949292  -32.5393679  -15.684863000000002
C    -40.9579064  -31.5284869  -14.907319200000002
C    -39.848623  -32.07016  -14.017817700000002
C    -39.101272  -30.8390344  -13.5465969
N    -39.7954618  -29.9488588  -12.8217073
O    -37.939211  -30.642182  -13.877796400000001
C    -43.0084496  -31.866381399999998  -16.3555426
C    -43.646499  -30.7515158  -15.538209100000001
C    -44.0375649  -32.9452457  -16.709467500000002
C    -42.3962454  -31.4209154  -17.6732151
N    -41.3810687  -32.2299336  -18.0077566
C    -42.9248394  -30.4269949  -18.4650411
C    -42.4866933  -30.075204199999998  -19.744710700000002
C    -43.081844000000004  -28.9385814  -20.551331
C    -42.661061600000004  -27.5670607  -19.9947847
C    -43.2254008  -27.2824122  -18.595513200000003
C    -43.2478646  -25.7966605  -18.2414703
N    -43.2905678  -25.5109174  -16.9299818
O    -43.2885265  -24.897288  -19.072390000000002
C    -42.6105459  -29.2737988  -21.9907828
C    -42.3478939  -28.0414282  -22.871774300000002
C    -43.6967927  -30.1731372  -22.6182307
C    -45.020689000000004  -29.5565188  -23.0406505
N    -45.6373376  -30.2904466  -23.9743158
O    -45.5307486  -28.533051  -22.6036571
C    -41.4581724  -30.2561264  -21.7342406
N    -41.5029323  -30.688195999999998  -20.417206800000002
C    -40.6015194  -30.691626799999998  -22.725024100000002
C    -40.634683  -30.1336975  -24.1285069
C    -39.580536  -31.6716248  -22.4815143
C    -38.5154596  -32.0885378  -23.489361000000002
C    -37.5113714  -30.9324091  -23.699566700000002
C    -36.8553896  -30.9441938  -25.083807500000002
C    -35.8143506  -29.8628948  -25.294239700000002
N    -35.9599376  -28.712487799999998  -24.631629800000002
O    -34.879673600000004  -30.0355116  -26.0721043
C    -37.9754608  -33.3899406  -22.823310900000003
C    -36.5131986  -33.671985  -23.151785800000003
C    -38.2664707  -33.1479579  -21.2922182
C    -37.0969263  -32.4691321  -20.5730906
N    -39.3776826  -32.183664  -21.3080317
C    -38.8464952  -34.5474021  -23.3532935
C    -38.887129  -34.5822715  -24.8642596
O    -39.7960774  -34.0609694  -25.501039600000002
N    -37.8656074  -35.1754264  -25.4813414
C    -33.6851602  -36.373576  -15.2003892
C    -32.3257384  -35.6971759  -15.510702900000002
C    -32.123936  -34.4527912  -14.648756500000001
O    -31.2323415  -36.579487  -15.304897200000001
Co    -40.4252254  -32.1539572  -19.707833700000002
H    -34.5863049  -36.0796908  -17.072451
H    -35.9795279  -34.5693668  -17.792068800000003
H    -37.2631917  -33.9575824  -16.7361186
H    -38.0211499  -36.3920058  -16.4374383
H    -36.8954043  -36.8283854  -17.708656
H    -40.140796200000004  -36.6721977  -19.5024677
H    -38.9305478  -37.7717925  -18.8073915
H    -40.1378893  -37.0134311  -17.7815394
H    -36.9287195  -34.6983414  -19.4223161
H    -39.5784599  -34.8347066  -20.8819459
H    -36.969353  -35.9576752  -21.5610643
H    -38.0130188  -37.1677777  -20.800249400000002
H    -35.1308548  -38.8056561  -19.662429
H    -36.6872804  -38.8959612  -20.4146055
H    -40.16455  -35.9625626  -15.941110700000001
H    -38.989201  -34.8390325  -15.254437800000002
H    -40.6982704  -34.6389923  -14.923679400000001
H    -42.1107775  -33.3589316  -15.043186500000001
H    -41.625287  -30.954209  -14.2680194
H    -40.5096263  -30.8366225  -15.6297049
H    -39.1385462  -32.6822659  -14.567624100000002
H    -40.2497226  -32.6353717  -13.177310400000001
H    -39.3121608  -29.1316243  -12.485523100000002
H    -40.6929643  -30.1764717  -12.430371700000002
H    -43.847795000000005  -31.097915399999998  -14.528237800000001
H    -43.0116625  -29.871848  -15.508891600000002
H    -44.597514700000005  -30.4694777  -15.984913500000001
H    -43.565463  -33.7544997  -17.2629777
H    -44.4822356  -33.3509783  -15.803766000000001
H    -44.8284183  -32.5268603  -17.3279196
H    -43.7780794  -29.8918528  -18.0851255
H    -44.1752611  -28.9667795  -20.512138200000003
H    -43.0352449  -26.7847821  -20.656020400000003
H    -41.5713725  -27.4958924  -19.9655078
H    -42.6634874  -27.8231426  -17.835351000000003
H    -44.2695427  -27.6050958  -18.562502300000002
H    -43.3352556  -24.5439602  -16.6528767
H    -43.2405794  -26.2254689  -16.225273100000003
H    -43.1633054  -27.3387232  -22.716182500000002
H    -41.415327500000004  -27.5611498  -22.594816
H    -42.339262  -28.2842855  -23.9246045
H    -43.9457149  -30.9590364  -21.895333100000002
H    -43.28213  -30.6786603  -23.490386
H    -46.5512007  -30.0035141  -24.2879206
H    -45.2581736  -31.1581847  -24.311431000000002
H    -41.6466359  -30.0772436  -24.5140987
H    -40.2000961  -29.1374968  -24.1624166
H    -40.0841895  -30.773312999999998  -24.807295600000003
H    -38.9687567  -32.327431  -24.44849
H    -36.739178700000004  -30.9533774  -22.9344103
H    -38.068978  -30.0042879  -23.574159400000003
H    -37.615264700000004  -30.8057849  -25.857661200000003
H    -36.3622311  -31.8934169  -25.2842749
H    -35.2795863  -27.9854151  -24.7831963
H    -36.7134774  -28.5489382  -23.9886541
H    -36.3979352  -33.7929778  -24.2229102
H    -35.862847  -32.8629487  -22.8401928
H    -36.166752200000005  -34.5749026  -22.657490300000003
H    -37.3538105  -32.3070654  -19.528158400000002
H    -36.1941463  -33.0700164  -20.6201034
H    -36.894514900000004  -31.491851999999998  -20.999671600000003
H    -39.877413600000004  -34.4013635  -23.0191564
H    -38.4846719  -35.5020682  -22.9774937
H    -37.881754  -35.2342831  -26.487862800000002
H    -37.1775001  -35.708407199999996  -24.977501
H    -33.5880808  -37.456762  -15.316289300000001
H    -33.9955395  -36.156245999999996  -14.177004100000001
H    -32.3388046  -35.3889654  -16.5685311
H    -32.9785004  -33.7910278  -14.758741200000001
H    -32.0291919  -34.7439126  -13.606218100000001
H    -31.2185956  -33.932139  -14.9473263
H    -31.2644802  -37.2920879  -15.957013000000002
C    -39.3214653  -30.8841864  -18.768743500000003
C    -41.5514563  -33.4274452  -20.659058100000003
N    -42.1625789  -34.2026018  -21.2653789
N    -38.7326513  -30.0982112  -18.157668100000002
