66

O    4.105  -32.809  -4.992
C    3.2317894000000003  -32.088375299999996  -5.8329626
C    2.4553572000000004  -31.076245899999996  -4.9735404
O    1.6896625000000003  -31.690890699999997  -3.9697239
C    3.4555899  -30.130606099999998  -4.2963609
O    2.7765675  -29.038580399999997  -3.6996165999999997
C    4.4295224  -29.514843599999995  -5.3278175
C    5.6270988  -28.8091515  -4.6866945
O    4.9692423  -30.448553799999996  -6.2552614
C    4.058802200000001  -31.3169576  -6.8659924
S    2.900504  -30.512730299999998  -8.032363
C    4.0646754000000005  -29.967170999999997  -9.326273
C    4.1250071  -30.883658099999998  -10.542617400000001
C    2.823229  -30.765797099999997  -11.344668299999999
N    2.858069  -31.612278699999997  -12.5619789
C    4.0086018  -31.297639499999995  -13.4360149
C    5.3390943  -31.3983717  -12.6847218
O    6.380736300000001  -30.964844199999998  -13.5438385
C    5.312874  -30.490257099999997  -11.443124099999999
O    6.512892900000001  -30.6107709  -10.7191128
C    7.42818  -29.029626399999998  -2.57346
C    5.7576788  -29.249802599999995  -0.8659495000000001
C    8.4341846  -29.820799599999997  -1.7411921999999995
C    4.8425968  -28.347395399999996  -0.031223400000000012
O    9.2126514  -28.908909699999995  -0.9869724999999994
C    7.707808  -30.838520499999998  -0.8380614999999993
O    8.6497045  -31.446204099999996  0.012841200000000441
C    6.6614681000000004  -30.115836199999997  0.03187780000000018
O    5.8504058  -31.006086999999997  0.7697372000000007
O    5.6056163  -27.493843199999997  0.8033410000000005
O    6.498274  -28.397914099999998  -1.7389575999999995
S    6.6465296  -30.071905299999997  -3.8606147999999996
H    4.5189187  -33.535263099999995  -5.4809008
H    2.5226561000000003  -32.7545643  -6.3442118
H    1.8045876  -30.482253399999998  -5.6374515999999995
H    1.1140048  -32.3659609  -4.3560096
H    4.0123228  -30.711403299999997  -3.548653
H    2.0474833  -29.398020099999997  -3.1727434
H    3.8411803000000004  -28.759769499999997  -5.8797372
H    5.2861904  -28.1024753  -3.9328652999999996
H    6.2288995  -28.323796999999995  -5.4518347
H    4.6861682  -31.992817999999996  -7.4536156
H    5.0425718  -29.903643499999998  -8.8493769
H    3.7494974  -28.964947199999997  -9.6129409
H    4.2813851000000005  -31.908537299999995  -10.1972771
H    2.6862837  -29.7263444  -11.6446668
H    1.9918544000000002  -31.058724399999996  -10.703057399999999
H    1.9834548  -31.485543599999996  -13.085969200000001
H    2.9103233  -32.598720099999994  -12.276005399999999
H    3.9159067  -30.274049899999998  -13.805236399999998
H    4.0153875  -31.974379899999995  -14.2911487
H    5.5316032  -32.4248595  -12.3454046
H    6.6148343  -31.661984099999998  -14.1692887
H    5.1918035  -29.447529999999997  -11.7755063
H    7.2506547999999995  -30.413491399999998  -11.3122087
H    7.9390768000000005  -28.212867099999997  -3.0931494999999996
H    5.1261350000000006  -29.925834499999997  -1.4610297
H    9.1386733  -30.341662999999997  -2.3959414999999997
H    4.2009714  -29.003897699999996  0.5666352000000003
H    4.233405100000001  -27.756965899999997  -0.7253511999999995
H    8.6268613  -28.291584099999998  -0.5253828
H    7.1987612  -31.582315099999995  -1.4701152999999998
H    9.3699124  -31.825371699999998  -0.5089679
H    7.1977873  -29.452388799999998  0.7276300000000004
H    6.4357002  -31.587996999999998  1.2763955999999999
H    5.0001602  -26.937026599999996  1.3111981000000004
