25

C    23.916  18.761  48.219
O    22.982872200000003  18.376137299999996  47.2223866
C    24.8581928  17.5838382  48.5831612
O    25.7379941  18.0083614  49.6052806
C    25.6382739  17.093302299999998  47.3231926
O    26.8013289  16.4168329  47.7803383
C    26.0092006  18.2707481  46.3889565
N    26.074683500000003  19.509055999999998  47.2004553
C    24.7473973  19.9724868  47.7201297
C    25.0236331  20.999016599999997  48.833726399999996
O    25.8902247  21.999173  48.3200379
H    23.3979532  19.061720799999996  49.1360423
H    22.239716400000002  17.9066226  47.6182472
H    24.2488803  16.7463338  48.9487669
H    26.3824708  17.299198999999998  49.752083
H    24.9859127  16.404993299999997  46.7783024
H    27.106497700000002  15.786961199999997  47.1185645
H    25.244886  18.39106  45.6223908
H    26.9795486  18.0867202  45.9322205
H    26.5058779  20.294168799999998  46.6997698
H    26.6567803  19.308394099999997  48.030335199999996
H    24.201232100000002  20.4390789  46.8965148
H    25.483929500000002  20.4851085  49.686559
H    24.071442400000002  21.433822399999997  49.1535958
H    26.002158700000003  22.701151  48.9695817
