35

O    18.194  -33.248  13.439
C    17.096091899999998  -32.5365698  13.9508441
C    16.829928  -32.9765856  15.3977551
O    17.8818633  -32.5856204  16.2385567
C    15.867176399999998  -32.8576226  13.106198899999999
O    14.746022699999997  -32.167596  13.5950241
C    14.395922999999998  -32.6289536  14.8801178
C    13.084403699999998  -31.9904358  15.3237541
O    12.127614799999998  -31.624991100000003  14.373716
C    12.809939899999998  -30.587201200000003  15.0385385
C    15.514589199999998  -32.342126900000004  15.900716899999999
O    15.718491799999999  -30.9657155  16.094948
O    16.1445917  -32.4731143  11.7988347
C    15.500037299999999  -33.0428425  10.7244592
C    14.577173899999998  -34.077532500000004  10.79907
C    13.972743399999999  -34.540567  9.6375794
C    14.278615899999998  -33.9882966  8.404861
C    15.208183999999997  -32.960697700000004  8.332284999999999
C    15.816394899999999  -32.4949286  9.4848448
H    18.374905499999997  -32.9460964  12.5375398
H    17.2663749  -31.4518567  13.9268054
H    16.727976199999997  -34.073939700000004  15.4033059
H    18.7157594  -32.896331  15.8557603
H    15.690247299999998  -33.9505902  13.1664491
H    14.259750299999999  -33.7245587  14.8428384
H    12.683964999999997  -32.433866800000004  16.230638
H    13.519227899999999  -30.0427422  14.4308246
H    12.209313099999997  -30.0085723  15.7278543
H    15.240216599999998  -32.8178731  16.8551022
H    16.5427386  -30.867356  16.5967139
H    14.285364199999998  -34.5018381  11.7464031
H    13.249070199999998  -35.3378637  9.7083196
H    13.794994999999998  -34.3517231  7.5125053
H    15.458285999999998  -32.5167864  7.3819925
H    16.530735999999997  -31.6881257  9.4485425
