29

Cl    6.459999999999999  23.641  -17.395
C    5.4631031  22.5429001  -18.2202384
N    5.9862478999999995  21.369017499999998  -18.4678287
C    5.238661499999999  20.4916493  -19.1083119
C    4.1636296999999995  22.9002494  -18.5929234
C    3.4088969999999996  21.9603131  -19.268317099999997
O    2.1832095999999996  22.2083305  -19.656512199999998
N    3.9618347  20.763606799999998  -19.523291699999998
N    3.3948129  19.7333343  -20.1495747
C    4.2959502  18.7743404  -20.1563125
C    5.465015899999999  19.187375799999998  -19.522918899999997
C    6.6192233  18.4661416  -19.3451484
N    7.573273199999999  17.855857  -19.2091171
C    3.5300385999999997  24.175593199999998  -18.200525
C    3.6916440999999995  25.253596599999998  -19.2068296
C    3.2552654  25.1084255  -20.5099813
C    3.3551921999999994  26.1757891  -21.3791767
C    3.8774957  27.3843046  -20.957763699999997
C    4.3130858  27.5256111  -19.6547815
C    4.2183195  26.4584677  -18.787797599999998
H    4.0861494  17.8261948  -20.6074079
H    3.9484056999999995  24.5012859  -17.2472376
H    2.4594107  23.991140599999998  -18.0631906
H    2.821687  24.1806475  -20.8442285
H    3.0143470999999997  26.0690901  -22.3991337
H    3.9439269999999995  28.2134993  -21.6462054
H    4.7227412  28.4659145  -19.3176658
H    4.5569637  26.5677923  -17.7680683
H    1.7597405999999998  21.4259985  -20.0655529
