23

O    -19.295  -8.295  -11.288
C    -20.9154992  -6.5331858  -11.5192285
C    -21.3011254  -5.3503243  -12.421069800000001
O    -22.002681  -7.4211369  -11.3766982
C    -22.481734799999998  -4.5500063  -11.872430300000001
O    -20.1951402  -4.4774506  -12.537251300000001
O    -22.2048416  -4.0935543  -10.566781
C    -19.735535  -7.2767111  -12.162869800000001
C    -18.5771629  -6.2998776  -12.433016
O    -17.9884157  -5.8853615  -11.2204715
C    -19.0983013  -5.0793763  -13.189363
H    -18.954431  -9.0462862  -11.7906998
H    -20.590952  -6.1311104  -10.554216
H    -21.5833077  -5.7401404  -13.414087100000001
H    -22.4389676  -7.2675969  -10.528381300000001
H    -23.3682387  -5.197681  -11.8759783
H    -22.6442941  -3.7090856  -12.553505300000001
H    -22.7453747  -3.3167725999999997  -10.3759306
H    -20.0924239  -7.7008961  -13.1092306
H    -17.8153917  -6.8022273  -13.0526858
H    -17.9895146  -6.6490580999999995  -10.619951700000001
H    -18.3256744  -4.3108492  -13.223476600000001
H    -19.3818826  -5.3789225  -14.208270200000001
