23

C    -34.827  13.829  51.083
C    -35.4494798  13.145469400000001  49.919896200000004
C    -36.8058894  13.473765100000001  49.6771848
C    -37.4513758  12.9044141  48.5545595
C    -36.729053300000004  12.045124600000001  47.7038036
C    -35.4164842  11.756569200000001  47.9576786
C    -34.7702082  12.3115053  49.0725164
C    -38.8031457  13.218820000000001  48.3234342
C    -39.4847121  14.055820100000002  49.1643385
C    -38.843027  14.6187389  50.2759225
C    -37.530624  14.331088900000001  50.5270116
O    -34.6322558  15.0417319  51.0715176
N    -34.5268566  13.088989900000001  52.169364800000004
O    -34.5060121  13.746380400000001  53.4120474
H    -37.2307355  11.6213172  46.8471019
H    -34.8629901  11.102912  47.3018038
H    -33.731892200000004  12.0818998  49.2566107
H    -39.2960933  12.783966200000002  47.466423
H    -40.5217177  14.2893837  48.9764928
H    -39.3900194  15.2785817  50.9315918
H    -37.044468800000004  14.7737698  51.3822446
H    -34.8719732  12.145593100000001  52.2907114
H    -34.2746627  14.675243700000001  53.2137722
