107

N    -9.066  14.823  3.463
C    -7.8470347  15.3100962  4.145755
C    -6.6559493  14.3944749  3.8091172999999996
O    -6.8499205  13.335066600000001  3.2247814
N    -5.4677326  14.828045  4.2365856
C    -4.2268052  14.1111693  3.9915086000000004
C    -3.4921569  13.8527828  5.3155823
C    -4.2845651  12.965895  6.2854101
C    -4.054017  11.4855251  5.9947447
C    -3.9063888  13.2861273  7.7291908
C    -3.2910085000000002  14.9468988  3.1180342
O    -3.1087419  16.1397473  3.334819
N    -2.6486672  14.2678705  2.1640961
C    -1.7538815  14.919937000000001  1.2247005
C    -2.5343159  15.4004432  -0.0033352999999999855
C    -0.7534268000000001  13.8632385  0.7801399
O    -1.1281954  12.7322852  0.48668560000000005
N    0.5281193  14.2497628  0.6718746
C    1.5886738999999999  13.2663491  0.474654
C    1.4138199999999999  12.4896507  -0.8341033999999999
O    1.7448668  11.3096741  -0.8899026
C    2.9936966  13.888436200000001  0.5471467
C    3.2100759  14.6032572  1.8700118
O    3.9225554000000002  14.207948  2.7711233
N    2.5072643  15.719612699999999  2.0919451000000002
N    0.8801786999999999  13.140399  -1.8741707
C    0.6061719999999999  12.4558702  -3.1218934
C    0.054549599999999976  13.4040748  -4.2021675
C    -1.2635697000000001  14.0654194  -3.7922621
C    1.1179938999999999  14.4297939  -4.5919231
C    -0.31083750000000004  11.2371883  -2.9618847
O    -0.3083676000000001  10.363959600000001  -3.8300105
N    -1.0826971  11.1684661  -1.8715484
C    -1.8939724  9.9973244  -1.5996667
C    -1.0773715  8.708596700000001  -1.5530519
O    -1.6099951  7.6309935  -1.8041006
C    -2.6589211  10.130288  -0.2863213
C    -3.7106355  11.276527100000001  -0.3191951
O    -4.0945633  11.7030166  -1.4215723
O    -4.0968184  11.6949852  0.7903981
N    0.19905229999999996  8.8171847  -1.1555062999999999
C    1.0978535999999999  7.6793161  -1.0812278
C    1.3178404000000001  6.940149  -2.4036891
O    1.7667747  5.7923387  -2.38511
C    2.4703187  8.1328821  -0.5601933
C    3.3161239  8.7800157  -1.6511155
C    4.446619  9.6806967  -1.1005001
O    4.9553934  10.4877643  -1.9079296
O    4.7853128  9.5425997  0.09046170000000003
N    1.0819014  7.6166267  -3.5236944
C    1.3360623999999999  7.0738846  -4.8350175
C    0.13215639999999995  7.3559144000000005  -5.7891304
O    0.31211539999999993  7.1538734  -7.0022231
C    2.6367596  7.6635998  -5.3880875
O    2.4907748  9.0400097  -5.6773144
O    -0.9288385  7.7413501  -5.2779917
H    -9.8790499  14.7775181  4.084235
H    -8.8167503  13.8626838  3.1414009
H    -9.2894818  15.3762949  2.6295791
H    -7.9794332  15.2801175  5.2283324
H    -7.6122557  16.3321619  3.8518403
H    -5.3541868  15.753281300000001  4.6290177
H    -4.4730871  13.176523  3.4789612
H    -3.2951829  14.8247105  5.7738079
H    -2.5303478000000004  13.389099700000001  5.0924828
H    -5.3507791000000005  13.173781  6.1526952
H    -4.6648081999999995  10.865707200000001  6.6460524
H    -3.0096147  11.2215637  6.1509961
H    -4.3073145  11.246298  4.9625647
H    -4.1222699  14.3242363  7.9653151
H    -2.8444911  13.1097945  7.885404299999999
H    -4.4610345  12.6495337  8.4131195
H    -2.9577766  13.341189700000001  1.8840857
H    -1.2840219  15.7592397  1.7433095
H    -1.8698228000000001  15.8828696  -0.7134144
H    -3.2977275  16.1058417  0.31092240000000004
H    -3.0124513  14.5480888  -0.48606689999999997
H    0.8118801  15.0898423  1.1675143000000001
H    1.5186859999999998  12.4927374  1.2546992
H    3.1261723  14.5862022  -0.2810281
H    3.7219245  13.0824754  0.4454844
H    2.709067  16.1761418  2.97205
H    2.2413146  16.3270081  1.3285944
H    0.5085502  14.0720924  -1.7553878
H    1.5494105999999999  12.0197306  -3.4832880999999998
H    -0.1420597  12.7517163  -5.0611638
H    -1.7022388  14.5577939  -4.6541906
H    -1.1082738  14.8070794  -3.0129776
H    -1.9676449  13.319517900000001  -3.4266929
H    2.0224037999999998  13.9218353  -4.9149766
H    1.3621275000000002  15.0719999  -3.7511044
H    0.7503465  15.0427508  -5.4093094
H    -1.0433696000000001  11.8576327  -1.1253416
H    -2.6133603  9.872641100000001  -2.4221423
H    -1.9694303  10.3183087  0.5382308
H    -3.1871473  9.194002300000001  -0.0963057
H    0.642018  9.7281685  -1.0838621
H    0.656914  6.945762  -0.3931599
H    3.0043824  7.2719164  -0.1594399
H    2.3305402  8.8543249  0.24634920000000005
H    2.7057474  9.4085631  -2.3038173
H    3.7832378  8.0163031  -2.279779
H    0.5790791  8.4966354  -3.5221947
H    1.4577078  5.9893809000000005  -4.7325545
H    2.8755279  7.1129145000000005  -6.3066269
H    3.4322627  7.5148995  -4.6434
H    3.2942419999999997  9.3400165  -6.1295995
