165

N    -2.586  17.188  13.55
C    -2.3523165999999995  15.899319499999999  12.846199700000001
C    -3.011391299999999  14.7355738  13.605718600000001
C    -4.541467599999999  14.515849  13.448804200000001
C    -5.2793572  15.508160499999999  12.548869300000002
C    -4.828069299999999  13.0948704  12.953501600000001
C    -0.8439657999999994  15.592290199999999  12.813405500000002
O    -0.21470039999999946  15.431391999999999  13.854998100000001
N    -0.2984460999999996  15.4489738  11.599328300000002
C    1.0856061000000004  15.022405  11.4539419
C    1.5588626000000003  15.025312399999999  9.9839765
C    0.9298497000000003  14.0202359  9.054901800000001
C    0.00421280000000035  14.3098254  8.0811627
N    -0.3130259999999998  13.1860735  7.369895100000001
C    0.3996108000000005  12.128775899999999  7.858890000000001
C    0.4138356000000005  10.784496399999998  7.492526700000001
C    1.2494021000000004  9.915766999999999  8.1668813
C    2.0739427000000004  10.3740087  9.1977373
C    2.0597860000000003  11.700847499999998  9.581362900000002
C    1.2112995000000004  12.6070289  8.928550400000002
C    1.3340212000000005  13.654219  12.087878500000002
O    2.4297251000000006  13.377416499999999  12.567756200000002
N    0.2765405000000003  12.8237268  12.129322100000001
C    0.41895660000000046  11.469202  12.6307118
C    0.6096636000000004  11.448525299999998  14.157824900000001
O    1.1998712000000005  10.501168499999999  14.673909300000002
C    -0.6794570999999996  10.478978199999998  12.1651938
C    -2.0507664999999995  11.0152083  11.731042200000001
C    -2.1500402  11.57172  10.312509900000002
O    -2.1738489  10.888305699999998  9.301398200000001
N    -2.2548635999999997  12.9168238  10.2610478
N    0.10796000000000028  12.470078399999998  14.867423300000002
C    0.3684937000000006  12.6002604  16.2958032
C    1.8480939000000003  12.9126123  16.567475100000003
O    2.4115253000000005  12.426971899999998  17.5429682
C    -0.5514622999999994  13.632772699999999  16.966656500000003
C    -2.0027591999999994  13.2153274  16.978354600000003
N    -3.0156023999999992  14.033318499999998  17.405480400000002
C    -2.5551516  12.022545  16.580402900000003
C    -4.1318494  13.352741899999998  17.275578600000003
N    -3.9033865999999997  12.123283099999998  16.7715283
N    2.4912879000000006  13.674738  15.669721000000001
C    3.9263280000000007  13.8836681  15.771246600000001
C    4.6738891  12.5942648  15.4293264
O    5.6604144000000005  12.241302699999999  16.0703321
C    4.4571688  14.9843251  14.8509363
C    3.8757587000000004  16.3588022  15.154134200000001
C    4.207197300000001  16.852836099999998  16.5824
O    5.3554181000000005  16.651949199999997  17.025804800000003
O    3.2869592000000005  17.4429432  17.187765300000002
N    4.1794187  11.8893005  14.4040429
C    4.801563600000001  10.6613122  13.931822200000001
C    4.180687900000001  10.216629099999999  12.6122057
C    4.7170189  9.4799604  14.9020261
O    5.382514200000001  8.4738826  14.683578100000002
N    3.8835214000000002  9.5924369  15.940665400000002
C    3.7698502000000005  8.5759587  16.963046300000002
C    2.3799937000000004  7.899289199999999  16.8609532
C    2.2593544000000003  7.154219799999999  15.533651200000001
O    1.3450105000000003  8.851906699999999  16.994318200000002
C    4.0141290000000005  9.1423709  18.365701
O    3.5986925000000003  8.549968199999999  19.3539129
N    4.7244569  10.275190499999999  18.423124700000002
C    5.029246800000001  10.966430999999998  19.669289300000003
C    5.8319327  12.250538599999999  19.3868966
C    6.2090505  12.984260099999998  20.6484428
C    5.420989800000001  13.8933588  21.3019488
N    6.0542642  14.376602299999998  22.414137800000002
C    7.2814061  13.7880177  22.523461100000002
C    8.2904067  13.9395262  23.473439300000003
C    9.447333200000001  13.200859499999998  23.32261
C    9.6056997  12.320672899999998  22.2479808
C    8.6128547  12.161456199999998  21.3018979
C    7.4278478  12.8958845  21.4209566
C    5.9001125000000005  10.072554599999998  20.5522555
O    6.879108800000001  9.510425699999999  20.068383500000003
N    5.529302100000001  9.9537658  21.832144900000003
C    6.3022071  9.2298412  22.833125900000002
C    6.3355031  10.077358299999998  24.142544700000002
O    7.412562300000001  10.6064814  24.4544723
C    5.7282782  7.847357299999999  23.187124500000003
C    5.3400067  7.028588599999999  21.9518105
C    5.9690406000000005  5.636558399999999  21.8531196
C    5.8071424  5.119007899999999  20.416424900000003
N    5.2216328  3.7616740999999987  20.380365400000002
O    5.277356600000001  10.158801799999999  24.7981779
H    -3.5909126  17.3056889  13.737387100000001
H    -2.2441842  17.9922953  13.0096263
H    -2.0932466999999995  17.1730411  14.454977500000002
H    -2.7467551999999995  15.985332499999998  11.832247900000002
H    -2.7728454999999994  14.8519431  14.664477300000001
H    -2.5029526  13.819772099999998  13.30117
H    -4.9780698999999995  14.5980876  14.449196
H    -6.3243031  15.212131199999998  12.496216
H    -4.895005399999999  15.5008199  11.533175
H    -5.263489  16.5208719  12.939652500000001
H    -4.311958299999999  12.360351699999999  13.5662701
H    -4.5393484  12.967521999999999  11.913904700000002
H    -5.893232099999999  12.886273999999998  13.0228888
H    -0.8299623999999994  15.561679299999998  10.746623000000001
H    1.7286370000000004  15.7177242  12.010601600000001
H    2.6364239000000005  14.8480353  10.0084713
H    1.3955762000000005  16.0249736  9.580634200000002
H    -0.4291991999999998  15.256090799999999  7.824016300000002
H    -0.9443377999999996  13.142501099999999  6.588109200000002
H    -0.21870299999999965  10.427459899999999  6.693818300000002
H    1.2706493000000003  8.8722891  7.892633600000002
H    2.7306279000000004  9.680965899999999  9.703304900000001
H    2.7153606000000003  12.044947599999999  10.369115400000002
H    -0.4735990999999995  12.983218699999998  11.464197600000002
H    1.3740337000000005  11.071183399999999  12.258868800000002
H    -0.8250220999999995  9.774014099999999  12.984044100000002
H    -0.2753215999999994  9.9099776  11.323865300000001
H    -2.3960218999999996  11.752289399999999  12.4538285
H    -2.7320191999999994  10.162967799999999  11.759690200000001
H    -2.4319507999999996  13.3271629  9.356090100000001
H    -2.5480074  13.434816799999998  11.075231000000002
H    -0.20541649999999967  13.312491799999998  14.397127500000002
H    0.21037400000000028  11.620028799999998  16.7636366
H    -0.4407245999999998  14.5952904  16.4614665
H    -0.2082560999999994  13.769322099999998  17.9946039
H    -2.1020603999999996  11.1318457  16.1988045
H    -5.097751499999999  13.7309264  17.535964200000002
H    -4.578925  11.392695  16.613281800000003
H    2.0028587000000004  14.122164399999999  14.9070975
H    4.177803600000001  14.138691299999998  16.8094682
H    4.2465938  14.708282399999998  13.8140452
H    5.5380545  15.027791599999999  14.999789000000002
H    2.7890732000000003  16.371897099999998  15.054539100000001
H    4.3044563  17.0901285  14.465784300000001
H    3.4509725000000007  12.297741799999999  13.823340700000001
H    5.8775051000000005  10.8447301  13.801793000000002
H    4.706539600000001  9.336520299999998  12.254698300000001
H    4.259856300000001  11.010089299999999  11.8749303
H    3.1364527000000004  9.961106399999998  12.776384400000001
H    3.3407762000000005  10.434289399999999  16.069663000000002
H    4.5505911  7.834415499999999  16.7564764
H    2.2671188000000004  7.231311299999999  17.7193732
H    1.3049229000000004  6.6373517999999985  15.492777700000001
H    3.0676385  6.439466399999999  15.420806500000001
H    2.3092768000000006  7.869087199999999  14.715706800000001
H    1.3274484000000004  9.390429899999999  16.180720100000002
H    5.0898991  10.705004399999998  17.582929500000002
H    4.0886762  11.2076529  20.1783588
H    5.2312453  12.9046402  18.7510245
H    6.7345492  11.9726685  18.838795100000002
H    4.442786400000001  14.243204299999999  21.0318405
H    5.6661286  15.043858899999998  23.0584232
H    8.1603861  14.605979099999999  24.312692900000002
H    10.236208  13.292358299999998  24.052847200000002
H    10.5159523  11.746292599999999  22.16599
H    8.730730000000001  11.459437099999999  20.487808
H    4.714183500000001  10.438878399999998  22.1749566
H    7.321472100000001  9.1498332  22.4412981
H    4.8666100000000005  8.022798799999999  23.835686900000002
H    6.4891319  7.341032899999999  23.7833942
H    5.6562418  7.598698099999999  21.0763956
H    4.253970300000001  6.956604999999999  21.891961900000002
H    5.483639  4.974694999999999  22.569549900000002
H    7.021516700000001  5.710893399999999  22.1219223
H    6.7706205  5.110463399999999  19.909993200000002
H    5.1507503  5.798439599999999  19.8714796
H    5.1152946  3.444800299999999  19.4097262
H    4.297568500000001  3.7733184999999985  20.828275
H    5.8250023  3.1010954999999996  20.885285600000003
