61

C    59.873999999999995  -43.348  86.722
C    59.3932432  -42.3543844  85.8827115
C    59.9575947  -41.0893301  85.9083419
F    59.4694911  -40.1118302  85.07333609999999
C    61.010137  -40.812559  86.7649375
C    61.494901299999995  -41.818149  87.5890242
C    60.9331226  -43.0891284  87.5756725
N    61.4674841  -44.1144312  88.3796338
N    60.7239912  -44.880073100000004  89.20732199999999
C    61.5209268  -45.749581  89.7838127
C    62.8206123  -45.5683834  89.319746
C    64.0217373  -46.2423744  89.6079046
O    64.0930277  -47.1765098  90.39650379999999
C    62.7588552  -44.513111200000004  88.415876
N    63.8588192  -44.0840967  87.74778359999999
C    64.96525439999999  -44.709017100000004  88.0248944
N    65.1185648  -45.7402595  88.8991023
C    66.4362411  -46.2832425  89.1638193
C    67.1699581  -45.4295185  90.2303311
C    68.5903986  -45.9519712  90.3964684
C    69.2947734  -45.0504793  91.4088791
O    67.3031771  -44.0688503  89.8248713
C    66.4636692  -45.5490998  91.58788539999999
C    67.2427649  -44.8221684  92.6883473
N    68.6508035  -45.1985868  92.7144235
C    69.3703039  -45.6060515  93.7755998
O    70.5752718  -45.8568862  93.7038304
C    68.6936714  -45.768720200000004  95.1491416
C    68.8225269  -47.2332772  95.5804405
C    67.9856811  -47.5834645  96.8346131
F    68.3075078  -48.8328087  97.27791119999999
F    68.2343886  -46.7354961  97.8759452
N    68.4124277  -48.090988100000004  94.5001462
N    67.226206  -48.0101399  93.8840433
C    67.2722079  -48.9845594  92.9956691
F    66.2854371  -49.2641822  92.16509239999999
C    68.4573561  -49.7017618  93.014939
C    69.1673979  -49.085936000000004  94.0095953
H    59.423267499999994  -44.3269878  86.7081628
H    58.575255  -42.558866200000004  85.2105057
H    61.4478395  -39.828070100000005  86.7851673
H    62.3252143  -41.6090337  88.24389889999999
H    61.1458264  -46.458432  90.49239779999999
H    65.8538605  -44.3812632  87.5071924
H    67.0124167  -46.2904256  88.2387513
H    66.306037  -47.2985332  89.5403889
H    69.1195958  -45.8949242  89.44636369999999
H    68.5801327  -46.9840924  90.7420787
H    69.2237638  -44.0111427  91.08641949999999
H    70.341708  -45.3317992  91.5265069
H    66.4536494  -43.6145972  89.9006843
H    66.3526293  -46.6019059  91.8420914
H    65.46151  -45.1182813  91.5457031
H    66.757368  -45.0295145  93.63490089999999
H    67.2030274  -43.7436791  92.4973022
H    67.64706029999999  -45.4848342  95.1517476
H    69.2360281  -45.138783000000004  95.8547327
H    69.87285849999999  -47.4618561  95.7892027
H    66.9055858  -47.5647443  96.6372279
H    68.7297404  -50.5279779  92.3953216
H    70.1491952  -49.2841922  94.3874639
