56

C    -24.363  -0.7999999999999998  -16.877
C    -24.2449283  -2.2722293999999996  -16.5546455
O    -26.7130131  -3.0303875  -17.295527
O    -25.6292288  -4.195602  -15.3963051
C    -26.0533916  -1.7053192999999993  -13.7158104
C    -26.6509207  -0.8629581999999996  -12.8008309
C    -27.7995433  -0.1721351999999996  -13.1549675
C    -28.3104084  -0.2543460999999998  -14.4439466
C    -27.69837  -1.0757637999999998  -15.3689538
C    -28.4642392  0.7004580000000002  -12.1382731
C    -28.0141783  2.0883736000000006  -12.4833587
C    -28.6407947  3.9873454  -13.8109761
C    -27.7469392  6.1167316000000005  -14.3824594
C    -26.8869178  7.273677900000001  -14.4264396
C    -26.0768638  6.5976506  -16.615434
C    -25.911357300000002  9.244102000000002  -17.4575168
C    -29.3809766  6.429802800000001  -16.2697312
C    -29.556749500000002  7.8065952  -16.3210622
C    -30.0287004  8.38704  -17.4835393
C    -30.3382422  7.6076078  -18.5880473
C    -30.1856254  6.2331576  -18.5106418
C    -29.704552  5.641533600000001  -17.3646168
S    -25.8596589  -2.9506078999999996  -16.1188664
C    -26.5961871  -1.8076226999999996  -14.9803526
O    -26.9423424  2.533131  -12.1209541
N    -28.9042764  2.7681389000000003  -13.2659545
N    -29.3277307  4.5084466  -14.7770432
C    -28.8278588  5.7203192000000005  -15.1304331
S    -27.316394900000002  4.929501  -13.2028082
O    -26.474583600000003  7.809248200000001  -13.408780499999999
C    -26.4466608  7.6414907  -15.7707033
C    -25.6263235  6.8804985  -17.8833685
C    -25.5513188  8.2017813  -18.2935795
C    -26.35481  8.9649031  -16.1808461
Cl    -26.8149296  10.2731678  -15.1350683
Cl    -30.5992967  5.183019300000001  -19.8300431
H    -23.3976688  -0.4058041999999995  -17.183298399999998
H    -24.709103900000002  -0.24311939999999943  -16.0099115
H    -25.0725805  -0.6596602999999996  -17.6893765
H    -23.6133502  -2.4678025999999997  -15.6937601
H    -23.903287300000002  -2.8581651  -17.4035699
H    -25.1926256  -2.3019153999999995  -13.4619894
H    -26.2465061  -0.7665336999999992  -11.806430299999999
H    -29.1961689  0.29272730000000013  -14.7220624
H    -28.068921200000002  -1.1930753999999997  -16.3741532
H    -28.109589800000002  0.45299480000000036  -11.1389246
H    -29.5471984  0.6060466000000004  -12.1816734
H    -26.1351871  5.5818374  -16.2596225
H    -25.849282000000002  10.2657615  -17.7936341
H    -29.3277264  8.4124599  -15.4575848
H    -30.159949100000002  9.455611300000001  -17.5353479
H    -30.7080133  8.062514700000001  -19.4925077
H    -29.5823059  4.5732197  -17.30484
H    -29.750979400000002  2.3121738  -13.5867457
H    -25.3318349  6.0864171  -18.5495017
H    -25.204510300000003  8.431407100000001  -19.2890997
