18

C    -10.144  -4.8149999999999995  102.056
C    -7.8757903  -5.9688041  102.303747
C    -7.9795946  -3.9904908  104.95211599999999
C    -8.7105454  -4.7549025  102.6896517
N    -8.8059661  -4.6458905  104.1255676
O    -11.0442181  -4.239146  102.69128029999999
O    -10.2807882  -5.4178706  100.9779283
O    -8.149001  -4.0145883  106.1696576
C    -6.8406316  -3.2227240999999998  104.33631779999999
S    -8.6410127  -7.505902799999999  102.93233479999999
H    -6.8796602  -5.9053834  102.7357364
H    -7.8352582  -6.042822  101.2167217
H    -8.2427258  -3.8559189  102.27279089999999
H    -9.6250789  -5.0699555  104.54378729999999
H    -6.2423104  -2.8030205  105.1393423
H    -7.2402068  -2.417583  103.7237328
H    -6.225126899999999  -3.8657458  103.7151073
H    -7.5440179  -8.2538369  102.7810253
