66

C    19.411  12.831  23.694
C    20.7516138  12.161787299999999  23.3871356
C    25.9159025  13.445139799999998  23.7684075
C    22.618656  13.166824299999998  22.071492199999998
C    20.232765200000003  11.351167099999998  20.2929563
C    14.954392500000003  11.973136499999999  19.9455301
C    14.320396400000002  13.163955499999998  19.5904022
C    14.621757100000002  14.326935699999998  20.2884988
C    15.544828600000002  14.319558999999998  21.318156899999998
C    16.1806552  13.136128499999998  21.6791603
C    15.884374100000002  11.942210999999999  21.0021336
C    16.543777100000003  10.6296194  21.3572985
C    17.159265800000004  13.222072099999998  22.8350078
C    14.424867000000003  6.711849399999998  16.289759099999998
C    14.979756900000002  8.083327899999999  18.0333567
C    14.577015700000002  9.222170899999998  17.3369908
C    14.119011100000002  8.972204299999998  16.0317865
N    18.5247135  12.736922499999999  22.5131603
N    21.344431900000004  12.6988884  22.1693481
C    20.4714655  12.7122792  20.9770732
C    19.150432300000002  13.409477099999998  21.350403999999997
C    24.9383252  12.6024523  22.9493833
C    23.546563400000004  13.185484699999998  23.2875317
C    23.825710200000003  14.632519199999999  23.7854416
C    25.335023500000002  14.848685099999999  23.610546499999998
O    23.050870900000003  13.5913954  21.0019389
Cl    13.852056400000002  15.846776899999998  19.8954172
N    14.701789200000002  10.756387799999999  19.2493891
N    14.896790100000002  6.861975199999999  17.526774099999997
N    14.043444900000003  7.748059499999998  15.531017599999998
C    14.335179200000002  5.324432499999999  15.7285951
C    14.733214900000002  10.6058297  17.9011955
O    14.931600100000002  11.546717199999998  17.1435284
H    19.561439200000002  13.885401799999999  23.9298081
H    18.9485147  12.3344481  24.5460356
H    20.6106404  11.0824366  23.2609426
H    21.4049477  12.317609299999999  24.237164099999998
H    26.9379388  13.366239299999998  23.4026404
H    25.8951816  13.142738599999998  24.8162687
H    19.5583871  11.493711499999998  19.4556056
H    19.830561600000003  10.6052045  20.9724671
H    21.175233700000003  10.972142199999999  19.9074658
H    13.620443800000002  13.1750704  18.7716057
H    15.757435900000003  15.241845699999999  21.830375699999998
H    15.833364700000002  9.811729499999998  21.27851
H    16.8918816  10.623856499999999  22.385651799999998
H    17.3567888  10.4145487  20.6678313
H    16.7795786  12.631369499999998  23.6719872
H    17.2319381  14.2614232  23.1520662
H    15.414328300000001  8.1229804  19.022906
H    13.803520800000001  9.781327399999999  15.387490399999999
H    18.446856200000003  11.744255099999998  22.2504287
H    20.993889700000004  13.348642299999998  20.2542355
H    19.341199600000003  14.450836299999999  21.612637799999998
H    18.464971000000002  13.379630899999999  20.5043258
H    24.9993933  11.539217099999998  23.1741892
H    25.138207800000004  12.746494499999999  21.8851813
H    23.1536009  12.6013501  24.115492
H    23.551760800000004  14.721023999999998  24.8353206
H    23.2594175  15.3679168  23.2144196
H    25.545199500000003  15.217745599999999  22.60598
H    25.7346083  15.559312599999998  24.3321166
H    14.528593300000002  9.939229199999998  19.8181606
H    14.696687800000003  4.614076999999999  16.4628393
H    14.925912000000002  5.265464499999998  14.818454599999999
H    13.302971900000003  5.107042599999999  15.4669627
