36

C    -3.891  4.228  15.695
C    -2.3588756  8.6683965  12.3483013
C    -6.158921299999999  4.931220100000001  15.3708143
C    -5.7230476  6.060662300000001  14.702249
C    -4.3570139999999995  6.2926906  14.5290158
C    -2.6528891999999997  7.8008316  13.6057865
N    -5.2458542999999995  1.2748534000000005  15.9864813
C    -2.0444039  10.9114018  13.3673365
N    -3.0982301  10.8045106  11.405999399999999
N    -3.9427741999999997  7.4319603  13.8168886
Cl    -2.0405140999999998  13.5942892  13.9355343
C    -2.3840031999999995  12.203161399999999  13.0032284
C    -3.0406646  12.0993455  11.754768200000001
N    -3.5765566  13.182271100000001  10.9930281
O    -3.7172814  13.0624073  9.7892877
O    -3.868194  14.2138202  11.5877564
N    -2.5185544  10.1113747  12.3888284
C    -1.3370215  10.4708728  14.5886754
O    -1.7163445  7.3722955  14.2527172
C    -3.4488506  5.359075600000001  15.0324511
C    -5.2446432  4.0188585  15.8595484
S    -5.8741119  2.6133937000000005  16.7214999
O    -7.3137349  2.6274764  16.5491634
O    -5.3785814  2.6479167000000006  18.0802092
H    -3.1909003  3.5084436000000006  16.0836817
H    -2.9769145  8.3165503  11.5186449
H    -1.3091033999999997  8.456674  12.118014
H    -7.2088365  4.7350544  15.5133305
H    -6.4463884  6.7622948  14.3179122
H    -4.8492153  0.6256846999999999  16.6470882
H    -5.904598699999999  0.8391257000000003  15.3621575
H    -4.6741335  7.9153564  13.3092615
H    -0.7470838999999998  11.2983894  14.9697288
H    -0.6933493999999998  9.6189926  14.3881278
H    -2.0505136  10.179694900000001  15.3573022
H    -2.3904737  5.5159135  14.9156823
