17

C    -4.482999999999999  6.374  14.779000000000002
C    -5.837655699999999  6.2202231  15.039550200000003
C    -6.2976521  5.052184899999999  15.628194100000002
C    -5.393516099999999  4.0554384  15.942479900000002
C    -4.0386074999999995  4.195980499999999  15.700788600000001
C    -3.586154099999999  5.368632799999999  15.112803900000001
S    -5.985062899999999  2.5823925999999995  16.7215653
O    -5.470568999999999  2.5678617999999993  18.080418100000003
O    -7.428401099999999  2.5490071  16.559252200000003
N    -5.315907999999999  1.3127115999999996  15.901281500000001
H    -4.125040299999999  7.281065099999999  14.318822
H    -6.533536799999999  7.0037101999999996  14.786409700000002
H    -7.341421799999999  4.886251099999999  15.840440100000002
H    -3.369312699999999  3.3975588999999995  15.971325600000002
H    -2.534203699999999  5.494942  14.912874000000002
H    -4.894479  0.6382566999999995  16.521427000000003
H    -5.972906899999999  0.8954550999999995  15.261651900000002
