36

C    91.098  89.12  -48.316
C    92.50915  89.64289600000001  -41.6460411
C    89.98993  89.6733458  -49.2022791
C    91.00364139999999  93.7403611  -45.4652148
C    91.4759188  92.579558  -44.867845
C    91.8195185  92.63666210000001  -43.4983925
C    91.6681084  93.83178980000001  -42.8029816
C    91.188515  94.9943307  -43.4045465
C    90.8559199  94.9272791  -44.7614276
C    90.335805  96.15104170000001  -45.4912461
C    90.9752946  91.0868116  -46.7234499
C    91.8771206  90.23438680000001  -47.6220475
C    93.6550028  91.36794760000001  -42.4765933
C    93.7927834  90.2138023  -41.756794299999996
C    91.6380726  90.46698570000001  -42.3051027
I    92.1463858  93.9330939  -40.7455243
N    92.34091839999999  91.51674220000001  -42.8176528
O    91.0560669  96.12411440000001  -42.690391
O    90.2891572  97.23115510000001  -44.8372259
O    89.9955834  96.00543780000001  -46.680281199999996
O    91.6636158  91.38435030000001  -45.5038181
H    91.7897385  88.5341475  -48.921716599999996
H    90.6681258  88.4610523  -47.5599515
H    92.252573  88.73719460000001  -41.1344327
H    89.4640697  88.86170750000001  -49.6988869
H    90.4042582  90.329025  -49.9650557
H    89.2672364  90.24117600000001  -48.6230213
H    90.7312122  93.790116  -46.5076014
H    90.0772851  90.52133070000001  -46.4415577
H    90.6624809  91.99695100000001  -47.2341557
H    92.3674465  90.869868  -48.3597883
H    92.6494376  89.7968094  -46.9864889
H    94.3857408  92.0901406  -42.7853475
H    94.7053687  89.8248951  -41.3529067
H    90.5775046  90.3981314  -42.4479949
H    90.733038  96.8237014  -43.3316809
