62

N    4.651  20.531  25.473
C    5.2758666  21.708517299999997  25.471361499999997
N    6.0451817  22.0160849  24.379608499999996
N    5.1288262  22.520541599999998  26.499754499999998
C    5.803773099999999  23.676986499999998  26.388837799999997
C    6.6130227999999995  24.072320799999996  25.320153499999996
C    6.767203299999999  23.195540299999998  24.2023415
O    7.4168699  23.354194999999997  23.173126399999997
N    7.132438499999999  25.323386099999997  25.572135499999998
C    6.659731299999999  25.658993  26.732651399999998
N    5.842306499999999  24.7050669  27.2922168
C    5.1423369999999995  24.7613368  28.5461206
C    6.035380699999999  24.82067  29.8007583
O    6.505806199999999  23.551443499999998  30.148041799999998
C    5.041313499999999  25.3928275  30.834694999999996
O    4.264172899999999  24.3780969  31.4096424
C    4.1497948  26.306453599999998  29.978449499999996
O    4.3588656  25.937824799999998  28.611572499999998
C    4.4429479999999995  27.797934499999997  30.176578999999997
O    5.8322945  27.995778499999997  30.390440199999997
P    6.546858199999999  28.545830099999996  31.761972299999996
O    6.6438282  30.027620399999996  31.665623899999996
O    7.7907399999999996  27.7540524  31.915253399999997
O    5.4667432  28.1905683  32.951670799999995
P    5.7504221  27.40927  34.3736404
O    5.1381711999999995  26.058884399999997  34.2511436
O    7.1618816999999995  27.540359099999996  34.7885363
O    4.871050899999999  28.281901199999997  35.4634618
C    3.464301399999999  28.393067099999996  35.543980499999996
O    3.0139608999999994  28.266174099999997  36.8580233
C    3.593662299999999  29.210960299999996  37.7728438
C    3.0193145999999995  28.8958266  39.1549401
O    3.3720733999999997  27.6094987  39.5968191
C    3.0602775999999996  29.7660225  34.9843336
O    1.6681260999999994  29.9399272  34.9884081
C    3.6851382999999993  30.853105299999996  35.870256999999995
O    3.3142427999999997  32.1383144  35.442806
C    3.2903424999999995  30.648962299999997  37.3423118
O    4.006333999999999  31.527571499999997  38.1747043
H    4.743357199999999  19.8846061  24.709768599999997
H    4.096277199999999  20.300234999999997  26.279311699999997
H    6.1195644  21.351755499999996  23.6156372
H    6.860170699999999  26.585960899999996  27.233555199999998
H    4.5134988  23.8585082  28.5942735
H    6.8388734  25.551221499999997  29.648746799999998
H    7.287348  23.632029  30.711042699999997
H    5.559094699999999  25.957611099999998  31.622227
H    4.8195505999999995  23.580319399999997  31.4915156
H    3.0988123999999995  26.1088073  30.225952399999997
H    3.8839354999999998  28.176421899999998  31.0357465
H    4.174005599999999  28.3463064  29.2695765
H    3.0082435999999997  27.563542599999998  34.9866289
H    4.683765599999999  29.070996599999997  37.776057099999996
H    1.9274555999999996  28.994279499999998  39.1041148
H    3.4281531999999997  29.606284199999997  39.87377
H    3.1806274999999995  26.985416999999998  38.8832845
H    3.4805015999999993  29.8516074  33.9683855
H    1.2349733999999994  29.2731015  34.4371587
H    4.774517499999999  30.780176499999996  35.7728183
H    2.3556589999999993  32.1343651  35.275121999999996
H    2.2067915999999994  30.828001399999998  37.4366318
H    4.025725499999999  32.3994399  37.747504199999995
