56

N    10.580000000000002  -21.592  54.382
C    10.572006000000002  -21.1605225  55.779565899999994
C    11.9358649  -20.5369401  56.0036432
C    13.193211000000002  -21.3319849  55.7449757
C    14.4510652  -20.898979699999998  56.4857794
C    8.650449700000001  -22.883039  50.43848499999999
C    8.4258633  -21.9738385  47.7938743
C    8.329754300000001  -23.768307399999998  49.411132699999996
C    16.814459  -20.774994  55.7941216
C    18.0012684  -21.4865914  55.2024067
C    17.9735014  -22.8627787  54.892308899999996
C    19.1523106  -20.7488977  54.9504988
C    20.2086077  -22.7816305  54.1122392
C    12.624382200000001  -20.4414955  54.6727947
C    9.6105198  -22.358196399999997  53.86896419999999
C    8.7942979  -23.3744498  51.857351799999996
C    8.220928800000001  -23.3105327  48.102802399999995
C    8.725624  -21.0950353  48.82365899999999
C    8.8454317  -21.540326699999998  50.133594599999995
C    11.728036900000001  -21.0869733  53.6335242
C    19.0548198  -23.5155575  54.351340099999994
C    20.264548400000002  -21.395635799999997  54.39405059999999
C    7.907162200000001  -24.2782049  46.994677499999995
C    8.983742800000002  -19.650369299999998  48.505044
F    6.816714300000001  -25.0209767  47.25104089999999
F    8.907097100000001  -25.154535799999998  46.77490159999999
F    7.686539200000001  -23.682457799999998  45.81438369999999
F    8.692262900000001  -19.327104499999997  47.238820399999994
F    10.2766348  -19.3147473  48.678553799999996
F    8.2804759  -18.805348  49.27777939999999
N    15.6760438  -21.477395899999998  55.95454409999999
N    21.4281034  -23.082065  53.594707699999994
N    22.1768147  -21.977681699999998  53.56953909999999
N    21.5218481  -20.9839546  54.028048299999995
O    8.6476629  -22.772134899999998  54.4962179
O    9.811391  -22.634843399999998  52.549505599999996
O    16.8782772  -19.581526399999998  56.091206199999995
H    10.3674473  -22.0223424  56.4208873
H    9.782398  -20.420868  55.941062499999994
H    11.978180100000001  -19.7296878  56.717706299999996
H    13.088527500000001  -22.401698099999997  55.616568099999995
H    14.356215  -21.1886989  57.539981899999994
H    14.5702762  -19.813769399999998  56.44211729999999
H    8.347506300000001  -21.624415799999998  46.77656689999999
H    8.1720441  -24.814281299999998  49.6250139
H    17.090513  -23.4505482  55.08039479999999
H    19.1754365  -19.695681399999998  55.1820417
H    13.1735714  -19.564292  54.3697976
H    9.0720401  -24.432526  51.865682199999995
H    7.849902700000001  -23.2616923  52.406309699999994
H    9.096930200000001  -20.8441829  50.918664199999995
H    11.402696800000001  -20.3498266  52.8933183
H    12.2110389  -21.9122499  53.103475499999995
H    19.0096917  -24.569105399999998  54.1259672
H    15.6410573  -22.456657699999997  55.72418449999999
H    21.7944968  -23.9644229  53.2704209
