35

O    5.788  19.349  -12.232
C    5.845006100000001  20.4352599  -11.6335708
C    4.499626300000001  21.0521083  -11.130427000000001
C    3.9722644000000007  22.054551  -12.1542937
N    3.4825233000000004  20.0025169  -10.8891926
C    3.8083123000000003  18.8837732  -9.9635116
C    2.4981418000000004  18.0505425  -9.6965982
O    1.4143324000000006  18.6230301  -9.919527500000001
O    2.6488029000000006  16.893455  -9.2756189
C    4.4319752  19.315089399999998  -8.6355725
C    3.6208221000000007  20.3953476  -7.9202707
C    3.8817140000000006  20.4134721  -6.423565
N    3.2545142000000005  21.6072261  -5.9098512
C    3.5983490000000007  22.1792126  -4.7586681
N    2.9947034000000006  23.2945468  -4.3750988
N    4.5410279000000005  21.641755  -4.0009315
O    6.878788  21.081215699999998  -11.394496
H    4.725216400000001  21.5708057  -10.198076499999999
H    3.0420792000000008  22.5035419  -11.8156318
H    3.8124527000000006  21.566283  -13.1135544
H    4.715885900000001  22.8340256  -12.2941812
H    3.3236778000000005  19.5600032  -11.8030671
H    2.5683658000000005  20.375387  -10.5824679
H    4.5119746  18.217336799999998  -10.4718767
H    5.458601300000001  19.6471013  -8.8087695
H    4.4700864000000005  18.4076736  -8.0287554
H    2.5596254000000007  20.196436  -8.0959067
H    3.8692089000000003  21.375061799999997  -8.3277884
H    4.9618194  20.4593266  -6.2643096
H    3.4809102000000003  19.507031299999998  -5.9584465
H    2.4591802000000005  21.957206799999998  -6.4206121
H    3.2447857000000004  23.7431897  -3.5102827999999997
H    2.2940849000000005  23.729099899999998  -4.950192899999999
H    4.974419800000001  20.768781699999998  -4.2423064
H    4.830963700000001  22.096349099999998  -3.1516010000000003
