30

N    20.949  15.052999999999999  -2.3089999999999997
C    22.3497342  15.491649899999999  -2.1051442
C    22.967577300000002  15.8200893  -3.4810969
O    22.470856100000002  15.3576112  -4.5048033
C    23.1467816  14.382888099999999  -1.4306756999999997
N    24.0024808  16.6553845  -3.4500862
C    24.622065600000003  17.1878098  -4.648941799999999
C    25.934903700000003  16.442316599999998  -5.0453497
O    26.642592  15.975594099999999  -4.1374471
C    24.890967000000003  18.6803339  -4.4234352
C    25.6634248  19.3532777  -5.5537469999999995
C    25.398617100000003  20.8420505  -5.6733784
O    25.8069512  21.4908479  -6.6333122
N    24.670690200000003  21.4116672  -4.7038538999999995
O    26.197751500000003  16.3690143  -6.2568598
H    20.6953281  14.291530899999998  -1.6700142999999996
H    20.9121738  14.709065099999998  -3.2902725999999998
H    20.2780361  15.8229242  -2.2201514999999996
H    22.3744294  16.3916145  -1.4872329999999998
H    24.1945358  14.659574799999998  -1.3548093999999997
H    23.101004800000002  13.469263999999999  -2.0182734
H    22.7726609  14.194260199999999  -0.4287177999999998
H    24.499186400000003  16.8287689  -2.5884905
H    23.927985200000002  17.0405506  -5.4823287
H    25.4507879  18.7818739  -3.4904615999999997
H    23.908411400000002  19.145454299999997  -4.322812
H    25.4089707  18.8973612  -6.5143061
H    26.7390909  19.2027625  -5.4396596
H    24.5389476  22.410555799999997  -4.7587871999999996
H    24.506335900000003  20.9555358  -3.8243188
