66

O    31.966999999999995  28.689  29.662
S    32.520674299999996  29.4915017  30.7296535
O    33.807574499999994  29.0853356  31.2621528
C    31.349970599999995  29.5651658  32.062212099999996
C    30.077260999999996  29.0552591  31.8829684
C    29.158797599999996  29.149024  32.9136248
C    29.494078799999997  29.7569667  34.1223179
C    28.491098099999995  29.8554513  35.2290139
C    30.781272299999998  30.263442  34.2738309
C    31.711943099999996  30.1665598  33.2536496
N    32.695191799999996  31.0561729  30.1660499
C    33.55479759999999  31.9422463  30.9347203
C    34.8976007  32.4699824  30.3976102
N    35.509201399999995  31.8289184  29.4011307
C    36.8112747  32.2664072  28.8997838
C    37.83625239999999  31.1072448  28.9280818
C    37.849452299999996  30.4147155  30.2953265
C    39.24747549999999  31.6042897  28.5973186
C    36.721792199999996  33.0164557  27.5358942
C    36.1188605  32.1855078  26.4049374
C    35.9756261  34.343599499999996  27.6748261
O    35.377405399999994  33.455266  30.9518611
C    31.847887399999998  31.5886298  29.1392751
C    30.745398899999998  32.364338599999996  29.4699446
C    29.932998899999994  32.9031825  28.4837969
C    32.1271053  31.3418105  27.7903049
C    31.319876699999995  31.8779532  26.7923607
O    31.504278399999997  31.7113205  25.4431297
C    31.860890899999998  30.4227781  24.9634155
C    30.207048699999994  32.6761239  27.1436709
O    29.463368199999998  33.1467635  26.107554399999998
C    28.125166199999995  33.5524139  26.3708444
H    29.835677299999997  28.5945665  30.9388559
H    28.167535099999995  28.7448166  32.7787297
H    28.908374099999996  30.3725692  36.0866811
H    28.176921399999998  28.8598734  35.5349262
H    27.608156199999996  30.3899274  34.8863832
H    31.065607399999998  30.7333684  35.2025095
H    32.7170187  30.5276884  33.3909063
H    33.845053699999994  31.3785358  31.8246826
H    32.9963656  32.826988  31.2597778
H    35.0756416  31.0130988  28.996373
H    37.1407421  33.0101061  29.6370058
H    37.5423397  30.3630242  28.179634
H    38.5733281  29.6046528  30.2942825
H    36.873649199999996  29.9995422  30.5427371
H    38.12261839999999  31.1250031  31.0730579
H    39.33215009999999  31.9080211  27.5590134
H    39.9632656  30.8055597  28.7721414
H    39.5090782  32.4452888  29.2343737
H    37.75280599999999  33.2582511  27.267038200000002
H    36.1826387  32.7375693  25.4712895
H    35.068139699999996  31.9790015  26.6021556
H    36.647354099999994  31.2439396  26.2831065
H    36.417629899999994  34.9534093  28.4586261
H    34.93099719999999  34.1730215  27.9323013
H    36.0136712  34.8922596  26.7380202
H    30.516126399999997  32.5443652  30.5087397
H    29.077718699999995  33.4900577  28.7732551
H    32.95336029999999  30.6986695  27.5315025
H    31.635910899999995  30.4410967  23.898937
H    31.277308499999997  29.6441462  25.4617121
H    32.92786769999999  30.2251958  25.1092472
H    27.671892499999995  33.6788697  25.3908073
H    28.101106899999998  34.5022707  26.9098676
H    27.590341499999994  32.7872179  26.9361276
