69

N    28.524  16.979  6.418
C    31.769882000000003  19.2137395  4.2273463
C    26.499220800000003  16.8990981  0.15216509999999994
C    30.178664  18.4834479  6.8727812
C    27.050058800000002  17.1173095  1.4808137000000001
C    28.644807500000002  16.5125621  3.1856135
C    28.1006736  16.3163944  1.9311520999999998
C    30.0057593  21.0186695  4.8207885
C    33.353355300000004  17.3456071  3.8377675
C    29.5177999  17.0681309  8.7340231
C    30.171445100000003  21.8696636  3.556878
C    33.898337  16.6253594  5.075779900000001
O    32.6104657  20.089949400000002  4.0831911
N    32.037407200000004  17.9066741  4.1151723
C    35.254209  15.974403800000001  4.7848158000000005
C    35.1625561  15.0035122  3.6067839
C    34.6264058  15.7200791  2.3701334000000003
C    33.2674974  16.3759654  2.6558475
C    30.284252400000003  19.5229611  4.5235161
C    29.932750400000003  23.3528826  3.8549039
C    28.5338068  23.585717  4.4229622
C    28.292208300000002  22.7002138  5.6490719
C    28.580365200000003  21.2243873  5.3501614
N    29.7857281  18.6178938  5.5504867
C    31.1293013  19.12817  7.6556864000000004
C    31.2541449  18.7372591  8.975901799999999
C    30.458029000000003  17.7207571  9.5068897
C    29.3716551  17.4511197  7.4013548
C    28.7902498  17.6868983  5.3538717
C    28.1561328  17.5061089  4.0311771
C    27.107412  18.3058734  3.5827578
C    26.5612408  18.1163125  2.3250330999999997
N    26.8863078  15.9838644  -0.7278589000000002
N    26.134860200000002  16.1357459  -1.8104322999999996
N    25.308417000000002  17.0899388  -1.6532090999999998
N    25.4993279  17.6039718  -0.4324424999999996
H    29.4459422  15.8716456  3.5206792
H    28.478339700000003  15.5439652  1.2810424999999999
H    30.725512000000002  21.3636954  5.5698627
H    34.000271500000004  18.1925144  3.5872861
H    28.9040673  16.2801873  9.1400325
H    29.457484500000003  21.5319893  2.8013459000000003
H    31.178338200000002  21.7372714  3.1589672
H    33.1850637  15.8545599  5.3785614
H    33.9931907  17.3374346  5.8978959
H    31.298096800000003  17.237408000000002  4.2743967
H    35.599335100000005  15.4494388  5.6762411
H    35.9805608  16.7557775  4.5514149
H    34.494997600000005  14.179905000000002  3.8682622
H    36.147342300000005  14.5860704  3.395739
H    34.5174867  15.0153279  1.5453337
H    35.3360262  16.4914922  2.0642047999999997
H    32.9193982  16.9078598  1.7694126
H    32.540661400000005  15.5957408  2.8944657
H    29.7374832  19.2637983  3.6057965
H    30.0635629  23.930513  2.9389341
H    30.6797834  23.693494  4.5751255
H    27.792950100000002  23.347051399999998  3.6563993
H    28.4109027  24.6342794  4.6956269
H    27.2601884  22.805035  5.9864545
H    28.945169900000003  23.0295043  6.4609157
H    28.4208979  20.6413951  6.2598924
H    27.877893500000003  20.8774321  4.5900773
H    31.755570900000002  19.9038157  7.2399983
H    31.983488400000002  19.2246427  9.6036332
H    30.5825746  17.4393314  10.5408007
H    26.699442500000004  19.0633192  4.2331607
H    25.7467687  18.7517576  2.0154821
H    24.9379823  18.3750967  -0.10450569999999981
