31

C    90.722  233.178  -4.13
C    96.35919519999999  233.88037350000002  -6.485095599999999
C    91.879206  232.8497266  -4.8088296
C    95.1278722  234.27740540000002  -5.9941783
N    91.4002932  236.6786317  -3.2140942
C    96.24827739999999  230.1439252  -5.8836588
O    97.38026679999999  229.8515012  -6.3426409
C    95.8429912  231.60318030000002  -5.9469509
C    96.7209336  232.5463264  -6.4654311
C    94.61179299999999  232.00672600000001  -5.4576781
C    94.229878  233.3475359  -5.4685513
C    92.94085849999999  233.7530096  -4.8791871
C    92.77219679999999  235.0169509  -4.3144335
C    91.59300099999999  235.35914440000002  -3.6577
C    90.3161696  237.17016370000002  -2.5504102
C    90.05048479999999  238.6304813  -2.8110885
C    90.5780281  234.41672250000002  -3.5372190999999997
O    89.59834289999999  236.4959585  -1.8253800999999998
O    95.4440178  229.3281403  -5.3776133
H    89.91918829999999  232.4595684  -4.0639233
H    97.04007109999999  234.6149509  -6.8887482
H    91.96592159999999  231.8844746  -5.2833293
H    94.8554861  235.3201079  -6.0448849
H    92.00253599999999  237.3587587  -3.6616254
H    97.6770385  232.2030272  -6.8345933
H    93.98424639999999  231.23726580000002  -5.030254
H    93.57487019999999  235.7363306  -4.3600452
H    89.20081819999999  238.9488542  -2.2150497999999996
H    89.8258869  238.7665605  -3.8658808999999996
H    90.91772789999999  239.2341316  -2.5556826
H    89.6749866  234.6582616  -3.0022183
