39

C    26.028  -3.091  22.409
C    25.7420165  -3.3149446000000005  21.060025699999997
C    26.6771991  -2.9949145  20.101235499999998
C    27.9176088  -2.4739227  20.4030839
C    28.2101594  -2.2656795000000005  21.740426499999998
C    24.136563499999998  -2.9868474000000003  25.672359699999998
C    23.0011668  -3.7104921000000006  25.350737499999997
F    26.3422694  -3.1724909000000006  18.7887061
O    20.6160639  -4.9025015000000005  23.297579499999998
Cl    21.7412857  -3.8444367000000006  26.536390599999997
C    19.5629729  -7.0460751  23.724927899999997
N    17.150558999999998  -7.221968400000001  23.7930662
C    18.3623388  -7.7739662  23.932226899999996
N    17.815364199999998  -3.9388633000000004  22.635586299999996
C    17.14229  -5.965614800000001  23.350271999999997
N    16.5418462  -3.9465564000000004  22.6498444
C    18.2677212  -5.1582802  23.064114099999998
N    16.0877295  -5.1468153  23.082910299999998
C    19.542333499999998  -5.721876  23.336264299999996
N    18.4110103  -9.078253400000001  24.266063499999998
C    21.8370873  -5.392858  23.8516886
C    22.863774799999998  -4.3149332000000005  24.103133699999997
C    23.845201499999998  -4.061685000000001  23.1544322
C    25.0003714  -3.3301299  23.4408799
C    25.1374538  -2.8241191000000008  24.735981199999998
C    27.284924099999998  -2.5654674  22.724094599999997
H    24.7862506  -3.6816775000000006  20.7271221
H    28.6143368  -2.2328566000000003  19.617727699999996
H    29.170686  -1.8605911000000006  22.0160165
H    24.231087  -2.5564593  26.655696199999998
H    20.493089299999998  -7.551996300000001  23.9185642
H    19.2855936  -9.5016042  24.5152543
H    17.548499  -9.5348513  24.5032197
H    22.2674167  -6.1279819  23.160061799999998
H    21.6185838  -5.8828782  24.8088481
H    23.7263144  -4.5344541000000005  22.193623
H    26.0105268  -2.2625678000000002  25.0201404
H    27.5620028  -2.3985574000000005  23.750905699999997
H    15.0991165  -5.3357464000000006  23.1403385
