206

N    15.103999999999997  -32.335  -27.47
C    16.499621299999998  -32.5949767  -27.875625399999997
C    16.914705899999998  -34.0256481  -27.455485899999996
O    16.3280899  -34.620590299999996  -26.563312399999997
C    17.4572583  -31.6075524  -27.211968799999998
S    17.247822699999997  -29.8246073  -27.746679299999997
N    17.963110299999997  -34.502760699999996  -28.127081799999996
C    18.6519305  -35.7152947  -27.719784899999997
C    20.053473999999998  -35.7442834  -28.328124499999998
O    20.320963199999998  -35.1350775  -29.360096499999997
C    17.8575876  -36.981372199999996  -28.081709699999998
C    17.5676702  -37.137019  -29.569066299999996
C    16.732860099999996  -38.374084599999996  -29.8646203
O    16.930000099999997  -39.0548643  -30.868602499999998
N    15.771390399999998  -38.673560699999996  -28.984522999999996
N    20.971442699999997  -36.4229947  -27.632081499999998
C    22.349006999999997  -36.5259591  -28.0909642
C    22.4117902  -37.3153585  -29.399740299999998
O    21.7771595  -38.3560035  -29.545484799999997
C    23.198031099999998  -37.2188994  -27.017941199999996
C    24.684836699999998  -37.1423828  -27.263797799999995
C    25.3851634  -35.9538274  -27.082207599999997
C    25.4016538  -38.2771658  -27.623809299999998
C    26.7550164  -35.896508499999996  -27.271942199999998
C    26.7703231  -38.2341505  -27.813275499999996
C    27.456599599999997  -37.0382745  -27.640824199999997
O    28.8014443  -37.0266644  -27.8380454
N    23.207344499999998  -36.7963914  -30.333641699999998
C    23.372920399999998  -37.4128221  -31.634881799999995
C    24.770723399999998  -38.0250766  -31.691490999999996
O    25.771416199999997  -37.3425937  -31.496248699999995
C    23.2049031  -36.3365354  -32.7053826
C    23.116684099999997  -36.9234511  -34.125808199999994
O    24.170209  -37.4139121  -34.603606799999994
O    22.029285199999997  -36.8553993  -34.717345699999996
N    24.8443889  -39.3393598  -31.916604099999997
C    26.1177304  -40.0297133  -31.934783599999996
C    26.996375999999998  -39.7266189  -33.1596421
O    28.177301099999998  -40.0605671  -33.1454664
C    25.9223413  -41.5447202  -31.841515699999995
C    25.218785299999997  -42.0422733  -30.573410199999998
C    25.083844499999998  -43.562078299999996  -30.648238499999998
C    25.987405199999998  -41.6362036  -29.321612699999996
N    26.4280384  -39.1207524  -34.203626
C    27.193932599999997  -38.7720164  -35.3842832
C    27.776347199999996  -37.363892  -35.2953431
O    28.9100133  -37.1203138  -35.6900364
C    26.337981399999997  -38.862557699999996  -36.657171299999995
O    26.064961099999998  -40.1890154  -37.0248024
N    26.9585944  -36.4455401  -34.7756258
C    27.3797073  -35.0737257  -34.62404119999999
C    28.120399399999997  -34.8509629  -33.301838399999994
O    28.860218099999997  -33.8841124  -33.166457099999995
C    26.199437699999997  -34.0867207  -34.663045499999996
O    25.433522399999998  -34.2531229  -33.477311199999995
C    25.340201299999997  -34.2848847  -35.9079457
N    27.8741921  -35.7468753  -32.348139399999994
C    28.4321368  -35.6606257  -31.008808699999996
C    28.072055799999998  -34.3429734  -30.311710999999995
O    28.8947199  -33.6888139  -29.683633899999997
C    29.952378699999997  -35.8060397  -31.033217099999998
C    30.4164182  -37.0969212  -31.683841199999996
C    30.1024583  -38.3159528  -30.8195201
N    30.7941543  -39.488935  -31.312094599999998
C    32.0419601  -39.8230304  -30.999035199999998
N    32.7484795  -39.099489399999996  -30.136919099999997
N    32.580540299999996  -40.9188441  -31.530427599999996
N    26.7907631  -33.9983918  -30.410003399999997
C    26.204687899999996  -32.8300773  -29.795354999999997
C    24.731178099999997  -33.1570087  -29.622738899999998
O    24.221504699999997  -34.0979932  -30.227782799999996
C    26.3018389  -31.5886986  -30.702576599999997
C    27.6223754  -30.832259099999998  -30.608091399999996
C    27.855231999999997  -30.157147  -29.252059299999996
N    26.9102066  -29.0958222  -28.942918999999996
C    26.939943999999997  -27.8666642  -29.454990099999996
N    27.857052399999997  -27.518932799999998  -30.348495599999996
N    26.037448599999998  -26.971784800000002  -29.061401999999998
N    24.0359055  -32.3751107  -28.793309199999996
C    22.5877649  -32.4477684  -28.804605399999996
C    22.104442799999998  -32.0490621  -30.207422499999996
O    22.716444399999997  -31.229099899999998  -30.8850724
C    21.9758875  -31.5305557  -27.744987099999996
C    22.165015699999998  -31.9988696  -26.2942415
C    21.730472999999996  -30.8854679  -25.342833099999996
C    21.375764399999998  -33.2739376  -26.003873
N    20.986555399999997  -32.6441885  -30.619176399999997
C    20.327847  -32.2477274  -31.847425499999996
C    18.893555  -31.8895242  -31.466899399999996
O    18.2246833  -32.6420972  -30.764659999999996
C    20.3480547  -33.3841246  -32.8730632
C    19.5760789  -33.067547  -34.154494699999994
C    19.5526703  -34.2905405  -35.0758668
C    18.4585109  -34.1941025  -36.138297099999996
N    18.110527299999998  -35.5393751  -36.667701799999996
N    18.4503798  -30.6948403  -31.8719415
C    17.1297398  -30.224969899999998  -31.513208399999996
C    16.1708625  -30.1383147  -32.760469
O    16.636113799999997  -29.6679653  -33.807748399999994
C    17.213425299999997  -28.8860088  -30.807771399999996
S    18.2483482  -28.9696008  -29.293221799999998
O    15.018516899999998  -30.5652106  -32.6039508
H    14.979920899999998  -31.3348251  -27.264784199999998
H    14.926147499999997  -32.8920609  -26.615075299999997
H    14.431892499999998  -32.6192922  -28.1883195
H    16.604836199999998  -32.515578399999995  -28.9626298
H    18.489261999999997  -31.8992252  -27.382901999999998
H    17.268453299999997  -31.5137042  -26.145819499999995
H    18.3158891  -34.0375539  -28.958238499999997
H    18.7376582  -35.6900745  -26.626371199999998
H    16.929288999999997  -36.9109234  -27.514609799999995
H    18.4092414  -37.8555741  -27.7339006
H    18.493813799999998  -37.2253573  -30.140831
H    17.022461399999997  -36.2704458  -29.950291899999996
H    15.193666599999998  -39.4780429  -29.168301399999997
H    15.555053299999997  -38.0908209  -28.195536699999998
H    20.689770799999998  -37.028342  -26.874802799999998
H    22.7288352  -35.5180784  -28.287794199999997
H    22.892278899999997  -38.2658376  -26.966939599999996
H    22.977461599999998  -36.741581599999996  -26.059930899999998
H    24.853733199999997  -35.0620148  -26.786049099999996
H    24.8750978  -39.2115421  -27.753318699999998
H    27.285962499999997  -34.9660772  -27.133766299999998
H    27.328032699999998  -39.1184456  -28.0762111
H    29.162753499999997  -36.1567307  -27.611038899999997
H    23.663072099999997  -35.896926  -30.212330699999995
H    22.604750999999997  -38.1885888  -31.732856699999996
H    24.062800199999998  -35.6653473  -32.651965399999995
H    22.2849616  -35.7852418  -32.5045133
H    24.0164914  -39.8681684  -32.144885099999996
H    26.693383899999997  -39.6705687  -31.072639999999996
H    26.910898699999997  -42.0032543  -31.902517599999996
H    25.355336299999998  -41.869383  -32.7181742
H    24.214703299999996  -41.6059115  -30.522628799999996
H    24.547337499999998  -43.9389041  -29.781262399999996
H    26.065358099999997  -44.028492799999995  -30.6746137
H    24.5383142  -43.8593082  -31.540840799999998
H    25.9835258  -40.5584364  -29.206006999999996
H    27.0148497  -41.9860379  -29.379488999999996
H    25.525784899999998  -42.0750187  -28.440492799999998
H    25.468633899999997  -38.786920699999996  -34.1809094
H    28.040007699999997  -39.4668665  -35.445802199999996
H    26.846026799999997  -38.3234675  -37.4656342
H    25.3701105  -38.3911842  -36.465371299999994
H    26.8791901  -40.6204977  -37.3216687
H    25.991566  -36.6872746  -34.564026899999995
H    28.078909099999997  -34.8312727  -35.432238399999996
H    26.642365599999998  -33.0789458  -34.665825899999994
H    24.679019299999997  -33.651597699999996  -33.5304966
H    24.636673199999997  -33.4637496  -36.015019599999995
H    24.7800646  -35.2145915  -35.830726999999996
H    25.9659044  -34.3270415  -36.7933385
H    27.146379399999997  -36.4362073  -32.485357799999996
H    27.966701899999997  -36.467951  -30.436769999999996
H    30.315079299999997  -35.738014899999996  -30.0085964
H    30.3507677  -34.9525245  -31.5846879
H    31.4946687  -37.0337472  -31.839610899999997
H    29.9547113  -37.208573799999996  -32.66712759999999
H    29.034962699999998  -38.5339587  -30.868292299999997
H    30.353893399999997  -38.1308465  -29.773831499999996
H    30.3100532  -39.9925323  -32.0432548
H    33.6725681  -39.387777299999996  -29.866478299999997
H    32.3689652  -38.2623704  -29.732376699999996
H    32.065066699999996  -41.4693672  -32.194469999999995
H    33.5228058  -41.1901426  -31.310849199999996
H    26.1553106  -34.5568586  -30.969059899999998
H    26.697596599999997  -32.665776199999996  -28.834351299999998
H    25.4677443  -30.9154043  -30.492112399999996
H    26.1723787  -31.9387121  -31.728976899999996
H    27.634615699999998  -30.0942448  -31.409331099999996
H    28.443284499999997  -31.5284016  -30.7829867
H    28.871598  -29.7570057  -29.229176099999997
H    27.7936174  -30.8994052  -28.458933599999998
H    26.171227599999998  -29.308704  -28.293403699999995
H    27.8988849  -26.5784402  -30.701307999999997
H    28.566694199999997  -28.1669961  -30.642244999999996
H    25.325727299999997  -27.203198999999998  -28.391402199999998
H    26.042806499999998  -26.0402609  -29.439495499999996
H    24.4584868  -31.5410269  -28.414182399999998
H    22.2895644  -33.4867793  -28.6433032
H    20.907308299999997  -31.4450884  -27.955109999999998
H    22.4007668  -30.5329714  -27.868998299999998
H    23.226579299999997  -32.207688499999996  -26.128769
H    21.8376973  -31.2065209  -24.310637199999995
H    20.689347199999997  -30.6229184  -25.513928299999996
H    22.332718999999997  -29.9923001  -25.4849981
H    21.7024975  -34.0937623  -26.634435999999997
H    20.313837799999998  -33.110126  -26.170271099999997
H    21.5166588  -33.5674664  -24.967298199999995
H    20.5983964  -33.4470443  -30.133345699999996
H    20.854874499999998  -31.3697371  -32.232923
H    19.9077283  -34.263846  -32.395941199999996
H    21.386367699999997  -33.621373999999996  -33.111244
H    20.024852799999998  -32.2132644  -34.663298899999994
H    18.551532499999997  -32.790283  -33.8903116
H    19.3654022  -35.1687268  -34.453401099999994
H    20.5336853  -34.4361418  -35.5275591
H    18.7846221  -33.5583068  -36.960445899999996
H    17.564348099999997  -33.750627  -35.698163699999995
H    17.4092788  -35.4690327  -37.4136648
H    17.742383399999998  -36.1296221  -35.9123539
H    18.9539354  -35.9955731  -37.037194299999996
H    18.943987999999997  -30.1588721  -32.570498699999995
H    16.6903035  -30.9767833  -30.848499199999996
H    16.221301699999998  -28.5185137  -30.545691499999997
H    17.728294599999998  -28.1451919  -31.419476999999997
