53

C    -10.791  9.967  21.457
C    -11.1592531  8.620057800000001  21.572861200000002
C    -10.098938500000001  10.6162493  22.4498256
C    -10.1643282  8.5192355  23.6908
C    -10.5480972  4.752673100000001  25.4902184
C    -9.615998300000001  6.825949400000001  25.4026178
C    -8.4693962  6.372081900000001  26.1184717
C    -11.6314208  3.8786754000000006  25.0998263
C    -13.3252442  3.171249500000001  24.0505906
C    -15.0069675  0.9807328000000011  21.9525174
C    -12.945889600000001  2.206924800000001  21.465206600000002
C    -14.8101332  0.2730669000000008  20.608949000000003
C    -12.8869571  1.4691905000000007  20.1304294
C    -14.500591400000001  3.199424900000001  23.1222198
N    -12.5759303  4.247258500000001  24.2024477
N    -9.0536926  9.181026600000001  25.4824027
N    -9.6748334  8.1319327  24.9077373
N    -7.4208797  7.161529300000001  26.4002358
C    -10.8548959  7.866103800000001  22.682809300000002
C    -9.4339129  4.295350000000001  26.1848681
C    -9.782652  9.873394000000001  23.5863121
C    -15.8077886  3.0080712000000007  23.8798289
C    -13.2834693  0.8278192000000004  25.0453424
N    -8.4185394  5.085717500000001  26.4901612
N    -9.1120764  10.2058082  24.7257456
N    -10.6183999  6.034135600000001  25.1010231
N    -11.777150800000001  2.6253464000000006  25.5078131
N    -12.8556153  2.1871194000000007  24.8514431
N    -14.3579689  2.3148832000000006  21.9053292
O    -13.4331012  0.17850960000000082  20.2996927
H    -11.0583807  10.503774  20.5601322
H    -11.6996033  8.164873  20.757795700000003
H    -9.8078379  11.650526900000001  22.3727466
H    -14.5404474  0.38457270000000054  22.7348486
H    -16.0699241  1.0926435000000008  22.1538318
H    -12.5135173  3.204056600000001  21.382747600000002
H    -12.3855205  1.632552800000001  22.2033625
H    -15.3396537  0.8007874000000008  19.8043529
H    -15.1831735  -0.7489473999999996  20.668428600000002
H    -11.8516975  1.3328053000000009  19.818530000000003
H    -13.42834  2.0160539000000006  19.347248800000003
H    -14.4748716  4.228473200000001  22.7458382
H    -6.6874512  6.777506600000001  26.971465300000002
H    -7.5173331  8.1607569  26.2888026
H    -11.1440948  6.834632900000001  22.794868
H    -9.351941  3.266122300000001  26.4991638
H    -15.8492271  3.748351300000001  24.6740538
H    -15.897217600000001  2.026720300000001  24.331280500000002
H    -16.6596511  3.180499700000001  23.2280775
H    -12.8359638  0.4783540000000004  25.9732715
H    -12.9220335  0.18955250000000046  24.2377358
H    -14.3652831  0.7731885000000007  25.1298265
H    -14.8525356  2.818433700000001  21.1559956
