27

C    28.719  55.248  -4.44
C    29.1444587  54.2018521  -5.228141300000001
C    28.6326749  53.5853715  1.2157590999999996
C    29.3631606  52.4455523  1.1142468999999995
C    28.401855  54.2197198  -0.02956010000000031
C    28.6330139  55.0675745  -3.0678227000000002
C    28.989761100000003  53.8262722  -2.5001557000000005
C    28.967857600000002  53.5406006  -1.0820692000000003
C    29.478297100000002  53.0159425  -4.5882671
C    29.9366154  51.8554554  -5.3925125000000005
C    27.613389700000003  55.4815299  -0.10250320000000057
C    27.0921625  55.7908806  -1.4914704000000003
N    29.4125325  52.8321322  -3.2772604000000003
N    30.415134100000003  50.84972  -4.655332400000001
O    29.859221400000003  51.8620132  -6.6202718
O    28.1717148  56.1289381  -2.3521350000000005
S    29.784185400000002  52.1097842  -0.5164750000000005
H    28.4448374  56.2069003  -4.8507251
H    29.2195511  54.2634124  -6.3011222
H    28.260806400000003  53.9775808  2.1446705999999995
H    29.681504  51.7787797  1.8886939999999992
H    28.2443826  56.3167703  0.2170905999999997
H    26.7756334  55.4158476  0.5952163999999995
H    26.452883200000002  56.6768638  -1.4670512000000002
H    26.5263145  54.9482836  -1.9012938000000004
H    30.730911400000004  49.999563  -5.0924192
H    30.380182500000004  50.9465722  -3.6518855000000006
