36

C    1.5989999999999998  14.609  22.594
C    0.2566755999999999  14.716174599999999  23.3015868
C    0.34766629999999976  14.553553699999998  24.8190788
O    1.397793  14.7492383  25.434576
N    -0.7834209000000001  14.1811724  25.44819
C    -0.8122997000000001  13.9877658  26.9040329
C    -1.0776075  12.516884699999999  27.2607513
C    -2.0443466  13.9178704  24.757477599999998
C    -2.5622292  12.5822316  25.1772219
C    -2.1228844000000002  11.9502645  26.3485106
N    -2.7538721  10.790732199999999  26.4964682
N    -3.5771564  10.669230299999999  25.4665919
C    -3.5007967  11.7199083  24.6242694
C    -4.3007549  11.8282355  23.429307299999998
C    -4.5771636  10.7021333  22.6596045
C    -5.3505918  10.8374946  21.5234097
C    -5.8592471  12.072365699999999  21.1493652
C    -5.5919796  13.1946456  21.9146778
C    -4.814288400000001  13.0654498  23.0492723
H    1.4695393  14.766601699999999  21.5272662
H    2.0327377  13.6253417  22.7577484
H    2.2994949  15.3475621  22.9791571
H    -0.37150680000000014  13.936265899999999  22.877523099999998
H    -0.19831350000000025  15.688712599999999  23.1023861
H    -1.6087398  14.6193716  27.307804
H    0.1508465000000001  14.317504199999998  27.2909976
H    -1.3916873  12.4333479  28.3002938
H    -0.15808979999999995  11.937452899999998  27.1421055
H    -1.9576252  13.972919999999998  23.6801842
H    -2.7560044  14.6982587  25.0704861
H    -4.1686533  9.856707499999999  25.3927121
H    -4.1728112  9.740239299999999  22.9330647
H    -5.5640821  9.969562699999999  20.9167591
H    -6.4638422  12.154459399999999  20.2588111
H    -5.9880034  14.1575765  21.6329556
H    -4.6122255  13.928725499999999  23.6640311
