55

C    -1.634  -12.372  37.433
C    -1.8364713  -12.3894886  33.9888325
N    3.2367043  -8.9090852  41.4676493
C    4.1977496  -8.5782148  40.6274767
C    4.1556879  -8.845633  39.265118
C    0.5739673999999999  -9.7604736  36.6454043
C    -0.6730308  -10.324746699999999  36.3415257
C    -2.7820241  -11.1535774  41.4067013
C    5.2307229  -8.4144581  38.3398215
C    -0.3870878000000001  -7.593625599999999  36.2533699
C    -0.8972466000000001  -10.0328106  40.4880708
C    -1.5755655000000002  -8.247981799999998  35.970001100000005
O    0.7398867999999998  -12.0924027  34.3992648
S    -0.4293882000000001  -12.661246899999998  35.047262700000005
O    -0.3641072000000001  -14.068982799999999  35.3958068
N    -0.8341666000000001  -11.7464067  36.3842768
C    0.7031483999999999  -8.374911999999998  36.5958694
N    -1.7180391  -9.5702302  36.0099425
C    1.7411155999999999  -10.6248113  37.0285121
N    2.855946  -9.841625599999999  37.499948700000004
C    2.9906695  -9.5131172  38.7967788
F    4.7571576  -7.629004299999999  37.3324134
F    6.1877547  -7.6706642999999985  38.9198995
F    5.8735114  -9.438663499999999  37.7156436
N    2.013658  -9.832878599999999  39.6505052
C    2.1456247  -9.5207549  40.9441518
N    1.1674484  -9.8230738  41.8315428
C    -0.15831770000000012  -10.266517799999999  41.6509349
C    -0.7584542000000001  -10.952320299999998  42.7169994
C    -2.0537487000000003  -11.390479999999998  42.5786976
C    -2.9173473000000003  -12.148535299999999  43.5289626
C    -2.2135252000000003  -10.466729999999998  40.350463
N    -4.0529108  -11.709326699999998  41.5453063
C    -4.2136799  -12.3164722  42.7560866
O    -5.2156451  -12.8931115  43.1521353
H    -1.2450153000000002  -12.0899714  38.4109155
H    -1.5314937  -13.4427585  37.2889148
H    -2.681359  -12.0780736  37.3490545
H    -2.0003072  -11.320772  33.949494
H    -2.6796923  -12.9025261  34.4300522
H    -1.6126747  -12.786359099999999  33.0074783
H    5.0506077  -8.076030399999999  41.0643788
H    -0.3186538000000001  -6.5202608999999985  36.2072588
H    -0.4227559000000001  -9.5108181  39.672332600000004
H    -2.4693767  -7.7063929999999985  35.6964826
H    1.6503063  -7.912884499999999  36.8273006
H    2.0444706999999998  -11.2193495  36.163542
H    1.4316076  -11.302574499999999  37.8289746
H    3.5741392  -9.6027984  36.8385806
H    1.4448675999999998  -9.6606081  42.7916207
H    -0.20901530000000013  -11.137384299999999  43.6259997
H    -3.1061270000000003  -11.6130053  44.4599609
H    -2.5122177  -13.125547599999999  43.7938311
H    -2.7585602000000002  -10.258208  39.4454422
H    -4.7729798  -11.672116899999999  40.840354500000004
