122

N    2.6210000000000004  6.006  30.104999999999997
C    2.357501000000001  7.2158979  29.299387499999998
C    2.0744553000000003  6.8866577  27.826192199999998
O    2.2318637  7.7312393  26.9589109
C    3.5760556  8.1586753  29.3882938
O    4.7275811  7.5664326  28.838573699999998
N    1.6917430000000007  5.6260806  27.5688255
C    1.2633693  5.2567807  26.2349589
C    -0.08433149999999934  5.9293552  25.9422976
O    -0.98536  5.9146403  26.773715699999997
C    1.0968488  3.7377358999999997  26.1223979
O    2.3576411000000004  3.1193048  26.074170199999998
N    -0.16287969999999952  6.5813734  24.780664499999997
C    -1.3773720999999997  7.2668751  24.379113699999998
C    -2.1952543999999996  6.3481777  23.4735877
O    -1.7124253999999999  5.8551651  22.459196199999997
C    -1.0333657999999994  8.590681  23.6709903
C    -2.2826386999999997  9.2200302  23.0596091
C    -0.38365910000000003  9.5487355  24.6649377
N    -3.4529764999999997  6.1235039  23.867524999999997
C    -4.3707817  5.3329170999999995  23.082914099999996
C    -5.5762297  6.1916577  22.6824268
O    -5.8527787  7.226426399999999  23.2750153
C    -4.8777325  4.1224187  23.8874401
C    -3.7949499999999996  3.1344776  24.234364199999998
C    -3.1558270999999998  3.1951983  25.465652799999997
C    -3.4327718999999997  2.1254831999999997  23.349476199999998
C    -2.1843576  2.278574  25.805611999999996
C    -2.4605745999999997  1.1999958999999998  23.677176399999997
C    -1.8242075999999994  1.2804658  24.908155899999997
O    -0.9144478999999999  0.37190049999999975  25.302836
P    0.5731594000000007  0.08825349999999954  24.5597134
O    0.5988736000000001  0.8307427000000001  23.2375753
O    1.5759164000000006  0.6124004000000003  25.5873805
O    0.607653  -1.4118630000000003  24.443101799999997
N    -6.265063  5.743802  21.624214199999997
C    -7.5202189  6.3724104  21.237770599999998
C    -8.4607964  6.3025947  22.445401699999998
O    -8.5133687  5.267454799999999  23.116814299999998
C    -8.1197677  5.6726998  20.011757099999997
C    -9.5355971  6.1705729  19.7291298
C    -7.229150499999999  5.9078424  18.7953235
N    -9.1568215  7.3961541  22.756715099999997
C    -9.9698554  7.4185775  23.9688168
C    -11.0208736  6.3084886  23.9725647
O    -11.5977939  5.9693545  22.946895499999997
C    -10.6435316  8.7945372  23.947124
C    -9.6982777  9.6489727  23.119035399999998
C    -9.1712025  8.682774  22.069485099999998
N    -11.2662427  5.7719249  25.1759778
C    -12.3131965  4.7933511  25.3841024
C    -13.6578711  5.3685761  24.920746299999998
O    -13.7963104  6.562112  24.677668299999997
C    -12.4054354  4.4307757  26.862588699999996
C    -11.2999389  3.4259858999999997  27.294886899999998
O    -10.9778683  2.5475987  26.475577599999998
O    -10.8308477  3.5660502999999997  28.439404999999997
N    -14.6502454  4.4772712  24.8771603
C    -16.032353999999998  4.8673034  24.674690299999998
C    -16.2711028  5.2752616  23.1740674
O    -15.507592299999999  4.8040099  22.3169291
C    -16.4426484  6.0263299  25.591368
C    -15.9480068  5.9179896  27.031211399999997
C    -16.6925029  4.8335251999999995  27.8374565
O    -17.9378513  4.8222137  27.769947
O    -16.0057334  4.0481449  28.527429299999998
O    -17.223361699999998  6.0314716  22.926145199999997
H    2.931466800000001  6.2849151  31.047846299999996
H    3.390526900000001  5.4712105  29.6752698
H    1.7979897999999999  5.4036907  30.207206099999997
H    1.4777721000000001  7.740884299999999  29.6839597
H    3.8123062  8.3702687  30.432050999999998
H    3.3258068000000005  9.094066999999999  28.8811289
H    4.6908615000000005  7.6092472  27.876241999999998
H    1.3698462999999999  4.9867582  28.2792313
H    2.0218533  5.5820826  25.517545799999997
H    0.5142347000000003  3.5003463999999997  25.2172123
H    0.5092135000000004  3.3589551  26.972562599999996
H    2.2081485999999995  2.169972  25.8463753
H    0.5253395000000003  6.4216894  24.0598884
H    -1.9378053999999993  7.4614662  25.2985433
H    -0.3320414999999999  8.3527693  22.8647462
H    -2.0303598999999997  10.1721509  22.602655
H    -3.0429364  9.385555700000001  23.8194034
H    -2.7086881  8.571314600000001  22.2968494
H    0.46569070000000057  9.077851299999999  25.154361199999997
H    -1.1058481999999996  9.836612299999999  25.4241812
H    -0.04238689999999945  10.4414321  24.150086599999998
H    -3.8503041999999996  6.6023107  24.662096499999997
H    -3.8226516  4.9953104999999995  22.1972892
H    -5.6585966999999995  3.6191945  23.314225399999998
H    -5.3428464  4.4918268  24.804297599999998
H    -3.4193809999999996  3.9695887  26.170950499999996
H    -3.9227241999999998  2.0521924  22.389577099999997
H    -1.6871877999999993  2.3109242  26.7627584
H    -2.1537091999999998  0.4191064999999998  22.996468299999997
H    -6.1152472  4.7940011  21.318192999999997
H    -7.2901599  7.412547099999999  20.9992955
H    -8.175656199999999  4.602753  20.244478199999996
H    -9.9615645  5.6075913  18.902581599999998
H    -9.5231575  7.2221396  19.458284199999998
H    -10.187129599999999  6.0299425  20.5915027
H    -6.2094058  5.5887718  18.9905059
H    -7.2222913  6.9643549  18.5432433
H    -7.6125235  5.3489591  17.946736799999996
H    -9.3090191  7.2802334  24.833200299999998
H    -10.8050481  9.1697432  24.95413
H    -11.6172402  8.6889544  23.4625737
H    -8.8764145  9.9953013  23.7454969
H    -10.2022669  10.502189699999999  22.674315299999996
H    -9.8506852  8.6258951  21.2160117
H    -8.169238799999999  8.9556031  21.7436795
H    -10.7554289  6.0705516  25.9914459
H    -12.083819  3.8845349  24.8082866
H    -13.3585457  3.9421275  27.0832491
H    -12.3419385  5.3226123  27.490133299999997
H    -14.438775699999999  3.5060336999999997  25.0359563
H    -16.6501448  3.989192  24.8919017
H    -17.5340089  6.0649245  25.596557699999998
H    -16.0677567  6.9513375  25.1484182
H    -16.145679700000002  6.8701807  27.5317564
H    -14.876931299999999  5.7241569  27.081180099999997
