44

C    25.882  47.678  3.278
C    26.376987900000003  48.94995479999999  3.5270191
C    25.6343114  47.3053914  1.965913
C    26.183888800000002  49.402613599999995  -0.8469239000000004
C    25.7645322  48.17906479999999  -0.38991770000000026
C    25.893492900000002  48.224550199999996  0.9754863999999999
C    26.392030000000002  49.487876199999995  1.3327056999999995
C    25.142067800000003  46.058991799999994  1.5818417999999999
C    26.165758500000003  49.69022749999999  -2.2211480000000003
C    26.545710600000003  50.922996299999994  -2.718659
C    26.519285000000004  51.16617159999999  -4.0580895
C    26.0944736  50.18150609999999  -4.9523517
C    25.696246000000002  48.9369222  -4.447081600000001
C    25.7374781  48.694689399999994  -3.1045427000000005
C    26.4455172  51.75622129999999  -6.7905202
C    25.551144100000002  52.1560339  -7.955694300000001
C    25.163246200000003  49.85697699999999  -8.4647287
C    26.061509500000003  49.440627899999996  -7.3043165000000005
C    27.084509500000003  51.550233799999994  0.37603459999999966
N    26.6330902  49.853890699999994  2.5785196999999997
N    26.5668478  50.208241099999995  0.1999818999999996
N    24.733629900000004  45.03604369999999  1.2649345999999997
N    26.0434574  50.461779299999996  -6.2805768
N    25.6209431  51.14452479999999  -9.027193
H    25.6956686  46.995608499999996  4.092726899999999
H    26.583504400000002  49.2778977  4.534533699999999
H    25.402315  47.3313832  -0.9293421000000004
H    26.876877200000003  51.716505999999995  -2.0852001000000002
H    26.876794200000003  52.125672599999994  -4.3819603
H    25.341190800000003  48.15155299999999  -5.091398400000001
H    25.433750000000003  47.7256982  -2.7582819000000005
H    26.3202582  52.52530639999999  -6.037065200000001
H    27.4992236  51.73936019999999  -7.100132
H    25.866115100000002  53.12853489999999  -8.3354155
H    24.518591200000003  52.22910029999999  -7.6126442999999995
H    24.138801200000003  49.97451519999999  -8.1108933
H    25.184657800000004  49.08305609999999  -9.2325131
H    27.090754200000003  49.292964999999995  -7.6623549
H    25.7103469  48.491637399999995  -6.9147940000000006
H    27.248111  52.09159459999999  -0.5409559000000004
H    28.029947300000003  51.478641399999994  0.9155671999999995
H    26.3851802  52.105390099999994  1.0021255999999998
H    26.590351100000003  51.0539072  -9.3585442
H    25.033702  51.4174417  -9.8231318
