43

N    4.699  3.2330000000000005  7.307
C    5.8915326  3.8028515000000005  7.323552
C    6.2058037  3.4878607000000006  4.966019
C    7.7129055  4.747279400000001  7.7494169
C    2.9016943  2.1581791000000003  6.142428300000001
C    7.9396428  3.0096442000000003  1.5940129000000005
C    9.1213414  6.274792400000001  2.3513089000000003
C    9.6645718  6.447200100000001  4.7897493
C    9.8926583  7.2389355  5.8952438
C    9.4951674  9.2313257  4.6057741000000005
C    9.8027727  8.618003700000001  5.803767000000001
C    9.2663345  8.447326100000002  3.492998
C    9.3303023  7.064822  3.5926052000000004
C    4.9722693  2.9076380000000004  4.9383051
C    4.2430366  2.7976492000000004  6.1513879000000005
C    6.899549299999999  2.7375498000000005  2.6624689000000004
C    7.154571799999999  5.148194  3.3799604000000003
C    8.0037159  4.481276500000001  1.1928896000000004
C    7.1534265999999995  3.6791986000000003  3.8328648000000003
N    6.5826025  4.324406000000001  8.3294305
N    7.8000659  4.536500500000001  6.4482784
N    6.6422683  3.9338247000000006  6.162421800000001
N    8.1507025  5.3367252  2.3497783000000005
O    9.8244684  6.5116101  1.3747162000000004
F    10.0241765  9.373309200000001  6.903089100000001
F    10.2027852  6.674661800000001  7.0822324000000005
F    9.1742975  2.5777918000000004  2.0081841000000002
F    7.6592534  2.2535979000000004  0.4858816000000008
H    8.4973438  5.2236346000000005  8.3010305
H    2.6248435  1.8369029000000006  5.1448521000000005
H    2.1612609999999997  2.8582679000000004  6.5224645
H    2.900384  1.3049259000000006  6.8167352
H    9.7453068  5.377966000000001  4.888832300000001
H    9.4438721  10.306731  4.564150000000001
H    9.035137599999999  8.8998262  2.5427985000000004
H    4.5538536999999994  2.5244943000000006  4.0264238
H    6.969996  1.6953512000000006  2.9754918000000004
H    5.9220048  2.9116405000000007  2.2118019
H    7.3644742  5.8015620000000006  4.2237476
H    6.1711773999999995  5.3989539  2.9636299000000004
H    7.0823206999999995  4.7152525  0.6480926000000005
H    8.8585207  4.6523579  0.5327613000000007
H    8.156241999999999  3.4697868000000005  4.2294659
