22

C    9.002  0.05400000000000005  24.34
C    9.312428800000001  -0.3615229  25.6332395
C    9.842591500000001  0.9831356000000001  23.6693285
C    11.142543100000001  0.9240514000000001  25.7329073
C    7.4955121  -1.3328541999999999  24.9374922
C    5.774727800000001  -3.1090495000000002  22.2423467
C    5.3122931  -2.1238242  23.364057
N    10.3641579  0.05831890000000006  26.3488533
N    8.3469383  -1.2454762  26.0089966
N    10.9206975  1.3752795999999998  24.4582057
N    7.8468083  -0.5745571999999999  23.9332069
N    12.2083272  1.3909612  26.3937497
O    5.0599584  -3.0506334  21.223361399999998
O    6.766657800000001  -3.8296471  22.4347066
O    9.7071659  1.4489261999999998  22.5307507
S    6.085712600000001  -2.3545983  24.9810442
H    4.2401137  -2.2418223  23.5150808
H    5.536412  -1.1077177999999999  23.040364699999998
H    8.2710305  -1.7409159  26.8829666
H    11.5628298  2.0370127  24.0357746
H    12.3670501  1.0499627999999999  27.3256316
H    12.842053700000001  2.0467616  25.9738895
