63

C    8.742  -30.206  -10.978
C    11.0691811  -30.7357039  -10.5809766
C    11.620117  -24.0249844  -8.4102408
C    14.061646  -21.8738049  -8.2650095
C    10.8277774  -24.9962629  -7.871317100000001
C    8.5618968  -31.4459249  -11.5550592
C    10.8882008  -31.9755104  -11.1535057
C    15.1009368  -21.6196738  -7.3902107
C    12.0722506  -25.3930326  -10.3277419
C    15.4381726  -23.5232128  -9.2956055
C    10.9982623  -21.6117756  -10.4216824
C    11.9333264  -19.8804866  -11.2161101
C    11.2572946  -26.3910527  -9.7984718
C    9.9963205  -29.8594602  -10.4984409
C    10.2214741  -28.555729  -9.887481
C    12.2443932  -24.220827200000002  -9.646995500000001
C    14.2266301  -22.8429557  -9.244317
C    10.624154  -26.2021067  -8.5525821
C    9.6375424  -32.3064007  -11.627515
C    11.0320479  -27.6134619  -10.447555
C    16.2677905  -22.3521824  -7.5439286
C    12.3327045  -21.9050016  -10.521057
C    9.6433354  -28.2598266  -8.6265427
C    14.3165337  -20.5888609  -11.3394582
C    8.8249277  -29.0607159  -6.636522
C    9.3631375  -33.540750700000004  -14.1357929
C    13.1246584  -23.1419471  -10.2344557
C    17.4101922  -22.081765  -6.604133
N    10.7638435  -20.3447034  -10.8536719
N    16.4407819  -23.2850651  -8.4685408
N    9.8442113  -27.1398454  -7.9916705
N    12.9217043  -20.7815387  -11.0427269
O    10.592457  -34.6922604  -12.0945658
O    8.1205767  -34.41272  -11.9675038
O    13.7227667  -23.593230600000002  -11.4359111
O    8.900036499999999  -29.2133572  -8.0504832
F    17.6470934  -20.7579193  -6.4594246
F    17.1569248  -22.537401  -5.3551496
F    18.566238900000002  -22.6331931  -6.9852615
S    9.4139486  -33.8890314  -12.3817904
Cl    11.7835  -27.9078381  -11.9704649
H    7.9241345  -29.5087792  -10.8945702
H    12.0326662  -30.445323899999998  -10.1918501
H    11.7637786  -23.0987562  -7.8787827
H    13.1490609  -21.301409800000002  -8.1963381
H    10.3436797  -24.8624507  -6.9181083
H    7.6027569  -31.7698887  -11.924513300000001
H    11.6826888  -32.6997112  -11.2324178
H    15.0207537  -20.8700874  -6.6195236
H    12.5763484  -25.577349  -11.2613354
H    15.6161959  -24.2792831  -10.044792600000001
H    10.1983217  -22.2303207  -10.067764500000001
H    12.096930799999999  -18.8996445  -11.6138289
H    14.4100713  -19.8365038  -12.1200762
H    14.7545892  -21.5251114  -11.680496
H    14.854701200000001  -20.247296300000002  -10.4529288
H    8.3421381  -29.9637911  -6.2711462000000004
H    8.2343151  -28.1823605  -6.3773398
H    9.823106  -28.959866  -6.212884300000001
H    9.2318338  -34.4755324  -14.666487400000001
H    10.306232699999999  -33.0800776  -14.3968439
H    8.5279696  -32.8773131  -14.3141323
H    13.045585899999999  -23.6487268  -12.1248443
