47

N    44.369  1.736  115.889
C    44.0976329  3.0558106  115.9087047
O    43.7315623  3.5928354999999996  116.9438542
N    44.236078899999995  3.7744105  114.725696
C    44.6595028  3.1954403000000005  113.5632184
O    44.7893277  3.8413867  112.537917
C    44.963860499999996  1.7367777  113.6119757
N    45.365975899999995  1.1612331  112.5168085
C    45.6499521  -0.14813399999999996  112.5824505
C    46.093424399999996  -0.7269802  111.3879904
C    46.4203488  -2.0583865  111.325568
C    46.9380952  -2.5419323  110.0116865
C    46.2949096  -2.8821072  112.4983492
C    46.6252262  -4.3477231000000005  112.4973385
C    45.858802999999995  -2.3083679000000004  113.6898458
C    45.5250604  -0.9475604999999999  113.7863391
N    45.0799358  -0.3241027999999999  114.965582
C    44.8058791  1.0236361  114.8678424
C    45.0254871  -1.2018356  116.1974642
C    44.4476308  -0.7829659999999999  117.6030733
O    44.6030051  0.5487381  117.9904931
C    45.1693977  -1.5630382  118.7534536
O    45.2465244  -2.9434101999999998  118.4937
C    44.5031325  -1.3101821  120.1397183
O    44.1677992  0.030136400000000063  120.4397304
C    45.402222099999996  -1.8379893  121.2750662
O    44.5758957  -2.2624955  122.3425511
H    44.0316817  4.7679427  114.7291671
H    46.1717892  -0.07741099999999995  110.5339955
H    46.866782699999995  -1.76264  109.2628907
H    46.3834184  -3.4148633000000004  109.6712253
H    47.980684499999995  -2.8425111999999997  110.1088457
H    46.5019091  -4.7738153  113.4856907
H    47.6496247  -4.4965189  112.1623209
H    45.977603099999996  -4.8694877000000005  111.79526010000001
H    45.7967303  -2.9449186000000003  114.5549356
H    46.0651557  -1.4964667999999999  116.3684006
H    44.4531468  -2.0788148  115.8994407
H    43.374761799999995  -1.0422577999999998  117.6077634
H    44.3248769  1.1607991  117.257355
H    46.200708899999995  -1.1961226  118.7864917
H    44.3838314  -3.3519843  118.6565475
H    43.569592199999995  -1.9001854  120.1711771
H    44.2450981  0.5611627  119.6228327
H    46.062941699999996  -1.0226391  121.58402
H    45.999443799999995  -2.6826925  120.9055051
H    45.108716099999995  -2.3490789999999997  123.1433307
