41

C    3.292  9.393  20.895
C    2.9859234  7.573000700000001  22.0038107
C    3.212403  5.2696833000000005  22.9495408
C    1.3956722  5.9644326  24.862372399999998
C    -0.9159546999999999  7.9926937  26.850604099999998
C    -2.3623548  7.8076021  29.186075799999998
C    -1.6116061  6.7153695  28.7806596
C    -0.8898404000000002  6.8147187  27.5970017
C    3.1845782  10.9200383  23.422969
C    2.2298047  9.7671982  23.1153753
C    0.8637961000000001  10.3119202  22.708903799999998
N    2.7849144  8.9329498  22.0625033
N    3.7614841  8.413555800000001  20.174255799999997
N    3.5753708  7.2853452  20.8607258
C    2.6365610999999998  6.543419  22.9960247
C    2.8462986  4.3354230000000005  23.910742499999998
C    1.926126  4.6699249  24.8910653
N    1.7503233  6.8583301  23.9397615
N    0.48033590000000004  6.4512929  25.7964684
C    -0.02821169999999995  7.8134588  25.6648337
C    -1.6696227000000001  9.0794993  27.2542139
C    -2.3957979  8.9750026  28.431656099999998
C    -0.01362299999999994  5.8361281  26.9217145
O    0.22911579999999998  4.690767900000001  27.2822162
H    3.3039097  10.418837400000001  20.5964455
H    3.9233657  5.040481  22.1741183
H    -2.929944  7.748211100000001  30.1014872
H    -1.5820723  5.8034828  29.3571492
H    2.8421551000000003  11.442454600000001  24.3112264
H    3.2195016  11.629259300000001  22.6010292
H    4.1909756  10.5497414  23.6069458
H    2.1270484  9.1131803  23.9848292
H    0.18320329999999996  9.496609  22.4753662
H    0.9522207  10.9502885  21.8333286
H    0.4487145  10.8929297  23.5257658
H    3.2803058  3.3482824000000004  23.8953321
H    1.6225407  3.9735185000000004  25.653890099999998
H    0.8037943000000001  8.522575  25.6720821
H    -0.5550953999999999  7.9239208  24.7139322
H    -1.6897506  9.985488100000001  26.6701363
H    -2.9908805999999997  9.8086941  28.768801099999997
