41

C    81.747  8.221  19.896
C    80.2814428  8.3934924  20.116139399999998
C    81.2606064  9.0631712  21.0511883
C    81.4337316  10.5371916  21.0778444
C    81.38337659999999  11.342054599999999  19.9402771
C    81.6603946  11.150509399999999  22.3239642
C    81.719343  10.357239199999999  23.4855208
N    81.765716  9.7048583  24.4295767
C    81.82070449999999  12.5331175  22.4173284
C    81.76618859999999  13.305705699999999  21.2783116
C    81.5584408  12.723844499999998  20.0232362
N    81.4943996  13.5690271  18.8992283
S    82.2377795  13.279144299999999  17.437345
O    81.6757956  14.210493699999999  16.4831373
O    82.1004677  11.8800347  17.1316268
C    83.9986747  13.6724135  17.5916449
C    84.64023999999999  12.7146572  18.5318501
C    85.12877  11.496894099999999  18.0701849
C    85.7287125  10.6096238  18.9423633
C    85.8527062  10.9045934  20.296964
C    86.511956  9.920834099999999  21.2182897
C    85.3547387  12.117847699999999  20.756265199999998
C    84.7608276  13.014050899999999  19.884099199999998
H    82.2022242  8.7338157  19.0619522
H    82.200118  7.271145699999999  20.1310286
H    79.7106861  7.565077799999999  20.504487
H    79.7345967  9.023177  19.4316164
H    81.35289709999999  8.6124336  22.0310927
H    81.2284318  10.902763799999999  18.968572899999998
H    81.98814349999999  12.987655499999999  23.3810868
H    81.8826978  14.375571399999998  21.3573893
H    81.47568369999999  14.5524132  19.1171152
H    84.0504516  14.7059255  17.9184002
H    84.362381  13.576216899999999  16.5731891
H    85.0332604  11.248989199999999  17.0240115
H    86.1088687  9.6703698  18.5695114
H    86.5321313  10.295429899999998  22.2374123
H    87.53207499999999  9.7280003  20.8927244
H    85.9722397  8.9759468  21.2037539
H    85.4369861  12.3678794  21.8031129
H    84.4045434  13.96159  20.2581646
