300

N    9.013  -8.195  110.333
C    8.0143165  -7.6694171  111.29922239999999
C    8.3876869  -6.211195900000001  111.6298845
O    9.5462428  -5.828581200000001  111.5060513
C    8.0593297  -8.512504500000002  112.5703284
N    7.3650728999999995  -5.436300000000001  112.0129254
C    7.5545209  -4.063317200000001  112.47136859999999
C    8.3668027  -4.023325500000001  113.7863967
O    8.3054996  -4.995858200000001  114.5473598
C    6.1796567  -3.425894800000001  112.7524749
O    5.6296257999999995  -3.9024889000000007  113.9611178
N    9.0500594  -2.910972300000001  114.0818559
C    9.7915324  -2.7616498000000007  115.3419625
C    8.975244799999999  -3.132098900000001  116.5725291
O    9.4788871  -3.7990840000000015  117.47546369999999
C    10.2032321  -1.2864133000000013  115.3734181
C    10.336951899999999  -0.939126400000001  113.8934026
C    9.2073315  -1.7245079000000008  113.23660459999999
N    7.7115939  -2.6938007000000006  116.63007689999999
C    6.8852872  -3.0295843000000007  117.7754234
C    6.552339399999999  -4.537589800000001  117.8523805
O    6.5067870999999995  -5.109407700000001  118.9430242
C    5.659078599999999  -2.116130300000002  117.87664389999999
C    5.970743499999999  -0.6341039000000013  118.2407312
C    4.8247002  -0.08244140000000044  119.087441
C    7.2775017  -0.38176760000000165  119.00128079999999
N    6.3477101  -5.194780900000001  116.7089039
C    6.162009299999999  -6.632753300000001  116.6929711
C    7.437567  -7.3836615000000005  117.07137499999999
O    7.3615772999999995  -8.411304000000001  117.74753079999999
C    5.6925859999999995  -7.090145100000001  115.3157864
C    4.2827364999999995  -6.595731800000001  115.0379451
C    3.8043896999999998  -6.876154100000001  113.5893334
O    4.6479953  -6.826455400000001  112.6600383
O    2.5914927999999993  -7.125612700000001  113.4771978
N    8.586031499999999  -6.881110600000001  116.6095369
C    9.8752165  -7.442156300000001  116.9840297
C    10.106998899999999  -7.280245100000001  118.495701
O    10.5954812  -8.213503000000001  119.1329287
C    11.0650084  -6.841396600000001  116.2119472
C    11.2450134  -7.435464100000001  114.817624
C    12.4672697  -6.879667100000001  114.0098494
O    13.1911411  -6.022114400000001  114.54762149999999
O    12.6207206  -7.342173800000001  112.8609257
N    9.7289456  -6.124850000000001  119.05392619999999
C    9.8902179  -5.866527400000001  120.48463129999999
C    9.0815923  -6.890954300000001  121.2384989
O    9.5327241  -7.593849200000001  122.13591
C    9.3600392  -4.504388700000001  120.90176509999999
C    10.3673529  -3.356813400000001  120.6383603
O    11.5397004  -3.658394600000001  120.35289
O    9.9102149  -2.2049196  120.7617008
N    7.8136451  -6.955159000000001  120.8537738
C    6.8964538  -7.8510411000000015  121.512475
C    7.3596622  -9.308104400000001  121.45286759999999
O    7.368081  -9.994988500000002  122.473085
C    5.5124124  -7.588130700000001  120.9386931
C    4.376451299999999  -8.3962876  121.5504454
C    4.2451886  -8.188826500000001  123.0569743
C    3.1036142  -7.967287000000001  120.8311884
N    7.766718699999999  -9.7983501  120.2825429
C    8.2866184  -11.151077800000001  120.2133339
C    9.5094209  -11.394597000000001  121.1373153
O    9.5757601  -12.4246788  121.8078525
C    8.5931454  -11.4608997  118.76013739999999
S    9.330338  -13.099866900000002  118.52061909999999
N    10.4677344  -10.466865700000001  121.1252069
C    11.654250399999999  -10.562502700000001  121.97198
C    11.281714299999999  -10.684592100000001  123.4580457
O    11.7935901  -11.5384185  124.1791958
N    10.3607601  -9.8316069  123.9084965
C    9.9347691  -9.8461428  125.2992721
C    9.121661  -11.094558500000002  125.6669967
O    9.2846759  -11.6315506  126.7640705
C    9.1756744  -8.567626500000001  125.6531432
C    10.0800965  -7.364697000000001  125.7070189
C    11.1608048  -7.309449000000001  126.5791064
C    9.8175181  -6.248353200000001  124.93188359999999
C    11.963489299999999  -6.188557400000001  126.6464345
C    10.6025218  -5.113716700000001  125.0003661
C    11.690936  -5.072788600000001  125.8638077
O    12.431095299999999  -3.9334570000000006  125.9493404
N    8.275277899999999  -11.5704323  124.75129989999999
C    7.540515299999999  -12.799888900000001  124.9945697
C    8.5294134  -13.968352800000002  125.12182709999999
O    8.371606  -14.860087600000002  125.9566466
C    6.5170841  -13.084567000000002  123.8915291
C    5.2956562  -12.149262  123.9005559
C    4.4783574999999995  -12.3264475  122.6182793
C    4.4056982  -12.423225500000001  125.10140349999999
N    9.5765615  -13.943657100000001  124.2948462
C    10.574252999999999  -14.9970443  124.3688968
C    11.3333055  -14.961733200000001  125.70601219999999
O    11.539275199999999  -15.9945508  126.34386459999999
C    11.5518226  -14.951469800000002  123.2015069
S    12.2500567  -16.613271100000002  122.98708719999999
N    11.7240583  -13.7595588  126.11119029999999
C    12.3434768  -13.496318700000002  127.4117473
C    11.5007869  -14.106742800000001  128.5564221
O    12.0218114  -14.857286700000001  129.3831668
C    12.5205214  -11.986192  127.5060906
C    13.187669399999999  -11.4040207  128.7147694
C    13.1867251  -11.833539000000002  130.013331
C    13.8758285  -10.1491067  128.7073995
N    13.8148303  -10.916756500000002  130.817778
C    14.2460759  -9.875213500000001  130.0511754
C    14.2078716  -9.229396500000002  127.7079794
C    14.9185833  -8.709152200000002  130.3985263
C    14.8760377  -8.076748300000002  128.06219389999998
C    15.217084199999999  -7.811848400000001  129.3935942
N    10.199169999999999  -13.797796100000001  128.5718765
C    9.2806581  -14.354595900000001  129.5627999
C    9.2595706  -15.899251300000001  129.58041989999998
O    9.2658538  -16.5058057  130.6544068
C    7.871086399999999  -13.730520100000001  129.4001054
C    7.9422299999999995  -12.262222200000002  129.83574339999998
C    6.8057368  -14.484487300000001  130.1987759
C    6.6846476  -11.4630392  129.50766579999998
N    9.3015717  -16.5370217  128.3995859
C    9.290198499999999  -17.990234700000002  128.35477609999998
C    10.5414122  -18.5702684  129.0267491
O    10.4947682  -19.6400624  129.6313034
C    9.1722886  -18.590730800000003  126.93248179999999
O    10.3379526  -18.405868400000003  126.16449639999999
C    7.926264399999999  -18.084099100000003  126.18969949999999
N    11.6544581  -17.846624000000002  128.9314291
C    12.9262768  -18.297656  129.4670941
C    12.9588584  -18.250206600000002  130.97306179999998
O    13.8499665  -18.813693200000003  131.5973696
C    14.0451723  -17.4290023  128.9058083
C    13.9194096  -17.366855800000003  127.38431969999999
C    15.0217086  -18.1397096  126.74274589999999
O    15.0361844  -19.3651372  126.7715901
N    15.9965721  -17.3971866  126.2010042
N    12.0089092  -17.5241563  131.56547419999998
C    11.9095605  -17.5464112  132.9964743
C    11.2760487  -18.8280392  133.5637937
O    11.4319841  -19.0719632  134.76041089999998
C    11.150701399999999  -16.3109171  133.4693704
N    10.529439799999999  -19.600692600000002  132.7747243
C    9.7210232  -20.6872113  133.315437
C    10.5428222  -21.9584403  133.6655235
O    11.6475943  -22.0998267  133.1212567
C    8.6165155  -21.053187  132.3298166
C    7.633545  -19.898969200000003  132.16569529999998
C    6.7267785  -19.9990799  130.9140224
O    6.699070799999999  -21.0736759  130.2834748
O    6.0664508999999995  -18.9786435  130.6099816
O    10.0192512  -22.755534700000002  134.4656856
C    8.906061  -15.651375000000002  119.5125578
C    9.2513937  -16.0447403  120.8130394
C    10.1112656  -17.133898100000003  121.061931
C    10.5414777  -17.879271600000003  119.96344309999999
C    10.191279699999999  -17.5092678  118.67355669999999
C    9.3953179  -16.3990747  118.44430919999999
C    8.1194989  -14.4027577  119.185086
C    10.6775263  -17.500682  122.4218089
H    9.1024542  -9.213721300000001  110.40852179999999
H    9.9182927  -7.758789300000001  110.58873799999999
H    8.7939317  -7.929554900000001  109.36694779999999
H    7.0075655  -7.705653800000001  110.8764869
H    7.306140599999999  -8.171996400000001  113.2726734
H    9.0328527  -8.437843500000001  113.050102
H    7.8480213999999995  -9.553062700000002  112.3429768
H    6.4652709999999995  -5.881065100000001  112.20374659999999
H    8.083902199999999  -3.520217100000001  111.6851236
H    5.5099903  -3.629047400000001  111.91244089999999
H    6.2917333  -2.347788900000001  112.873142
H    5.2765669  -4.786966800000001  113.7908994
H    10.669776599999999  -3.4213897000000006  115.33545649999999
H    11.1216513  -1.151329800000001  115.9380544
H    9.4162714  -0.6956430000000005  115.8443267
H    11.300315999999999  -1.290693000000001  113.5254937
H    10.2532126  0.1284137999999988  113.7131781
H    8.2786111  -1.148636100000001  113.2384581
H    9.4587997  -2.0130553000000013  112.21692639999999
H    7.276948599999999  -2.2388162000000005  115.8402883
H    7.5111887  -2.873626400000001  118.66610019999999
H    5.0327508  -2.5421606000000008  118.6628738
H    5.1014075  -2.1600828000000014  116.9408479
H    6.0243318  -0.06318730000000095  117.3089792
H    4.9637417  0.9799726999999994  119.264949
H    4.7977636  -0.5899812000000004  120.04862109999999
H    3.869910999999999  -0.23049930000000174  118.5886123
H    8.1584605  -0.6771470000000015  118.4340308
H    7.311050699999999  -0.9256741000000019  119.94403419999999
H    7.364812199999999  0.6775672999999998  119.22404159999999
H    6.4673022  -4.7290895000000015  115.81570289999999
H    5.4164365  -6.892176600000001  117.45466429999999
H    5.7158301  -8.180122700000002  115.27590769999999
H    6.3932343  -6.699145800000001  114.5755155
H    4.190432899999999  -5.526999300000001  115.2377908
H    3.5690713  -7.1011399000000015  115.6926745
H    8.5831406  -6.065047000000001  116.00547979999999
H    9.8455432  -8.527030000000002  116.810797
H    11.974896099999999  -7.018448700000001  116.7907762
H    10.9408804  -5.758310200000001  116.14896189999999
H    10.3612785  -7.213170300000002  114.2144648
H    11.3672886  -8.518507600000001  114.8763853
H    9.5562779  -5.314055100000001  118.467709
H    10.9508423  -5.941134300000001  120.76092279999999
H    9.1742341  -4.504650500000001  121.97894559999999
H    8.4230848  -4.274229000000001  120.3930896
H    7.4573538  -6.358034400000001  120.11581129999999
H    6.9033033999999995  -7.611103100000001  122.5868325
H    5.560426099999999  -7.793536900000001  119.8652639
H    5.3116797  -6.521575200000001  121.0591862
H    4.5587871  -9.459585500000001  121.36231409999999
H    3.3542761999999993  -8.690754100000001  123.42418889999999
H    4.1701783  -7.129502400000002  123.2898941
H    5.104717099999999  -8.603241700000002  123.5769681
H    3.1920788999999994  -8.139043100000002  119.7612645
H    2.9210436999999994  -6.908419300000001  120.99555389999999
H    2.2461449999999994  -8.526332900000002  121.1975145
H    7.756639099999999  -9.235479000000002  119.4376846
H    7.5097225  -11.831896  120.5928168
H    9.3547488  -10.7764789  118.3838315
H    7.690535199999999  -11.365153900000001  118.1560987
H    10.3820824  -9.645498900000002  120.5371529
H    12.2467094  -9.662684800000001  121.8175179
H    12.2349412  -11.449726600000002  121.7044483
H    9.995017599999999  -9.103165500000001  123.3042002
H    10.8390495  -9.9113717  125.9203581
H    8.7106589  -8.714935100000002  126.6310862
H    8.3898999  -8.4113634  124.9125803
H    11.3878188  -8.150001900000001  127.21831329999999
H    8.9823823  -6.258436900000001  124.24648429999999
H    12.7996033  -6.179470900000001  127.33114649999999
H    10.3921625  -4.252557700000001  124.3820126
H    13.139254099999999  -4.046593600000001  126.60337009999999
H    8.1066909  -11.0702999  123.88433119999999
H    7.042590199999999  -12.7311829  125.9698425
H    6.1809240999999995  -14.1179535  124.00249269999999
H    7.037354  -12.994221800000002  122.93460879999999
H    5.658096  -11.117697000000001  123.9367347
H    3.6063773999999995  -11.679763200000002  122.6398621
H    4.1487839  -13.357773600000002  122.5190949
H    5.077223099999999  -12.066536500000002  121.7476124
H    4.9315966  -12.251669800000002  126.0372939
H    4.0634482  -13.455928400000001  125.0914997
H    3.5366279999999994  -11.770943200000001  125.0830166
H    9.6586036  -13.2494229  123.5582144
H    10.033925499999999  -15.951220600000001  124.3845377
H    12.3747232  -14.2666277  123.39405599999999
H    11.046119299999999  -14.6646467  122.2791316
H    11.587249499999999  -12.9564441  125.50121659999999
H    13.3133523  -14.006958700000002  127.468554
H    11.518344599999999  -11.545367200000001  127.43003069999999
H    13.0803225  -11.672792500000002  126.6206356
H    12.7851289  -12.7389205  130.4246595
H    13.956854499999999  -11.0239276  131.8072751
H    13.9417055  -9.415726800000002  126.67726499999999
H    15.1903387  -8.510472  131.4234906
H    15.1449995  -7.365204500000001  127.2954735
H    15.7358485  -6.896102100000001  129.63182989999999
H    9.8087459  -13.184112200000001  127.8630214
H    9.663203  -14.099517500000001  130.5620281
H    7.617609999999999  -13.792397500000002  128.3356686
H    8.786758899999999  -11.789930700000001  129.3319016
H    8.124623699999999  -12.229646700000002  130.911134
H    6.763739299999999  -15.5364137  129.9164702
H    5.827069399999999  -14.0518645  130.0229172
H    7.0291751  -14.4459184  131.262606
H    6.827894499999999  -10.4239326  129.7898252
H    5.8202768  -11.849267000000001  130.0384057
H    6.486668  -11.504229100000002  128.4389672
H    9.1452027  -16.017733300000003  127.54162679999999
H    8.4383598  -18.3651705  128.9447539
H    9.086819199999999  -19.6756919  127.079624
H    10.655658899999999  -17.4780558  126.2328043
H    7.8571016  -18.6001214  125.2367598
H    7.985179899999999  -17.0126291  126.0191882
H    7.0445054  -18.303280700000002  126.7854548
H    11.6342286  -16.9303902  128.49925819999999
H    13.071228999999999  -19.346199  129.1751129
H    14.9968761  -17.8530307  129.22231209999998
H    13.934416299999999  -16.4321537  129.3350331
H    13.9230531  -16.3333437  127.042743
H    12.9833717  -17.817766300000002  127.0593323
H    16.7714444  -17.855366500000002  125.7477753
H    15.9288126  -16.395914700000002  126.17659019999999
H    11.209723199999999  -17.173645  131.0532532
H    12.932626899999999  -17.5409516  133.3949383
H    11.035052799999999  -16.3476456  134.5480814
H    10.1681995  -16.2963506  133.0006956
H    11.6997839  -15.420961700000001  133.17894379999998
H    10.543141199999999  -19.5112971  131.7667209
H    9.2856156  -20.3298852  134.2585743
H    8.1036198  -21.9493898  132.6813168
H    9.0682707  -21.2842342  131.3601163
H    8.1745556  -18.9528068  132.0655458
H    6.9850346  -19.8172272  133.04146409999998
H    8.8872653  -15.459090500000002  121.647521
H    11.1961701  -18.7219111  120.1230655
H    10.5539714  -18.0887758  117.8390692
H    9.1664812  -16.091900000000003  117.4362246
H    7.3923553  -14.575043200000001  118.3978214
H    7.658123799999999  -13.977781700000001  120.0721514
H    9.948748  -17.3719531  123.2181385
H    11.001597  -18.5391528  122.42317
