61

C    46.852  57.264  -37.745
C    48.1825499  56.9222525  -37.9211039
C    48.5671366  55.6070613  -38.1798836
C    45.8571582  56.3064759  -37.8133062
C    46.2399336  55.0001114  -38.0739115
C    47.5672284  54.6421653  -38.2587165
N    46.2597016  52.7543691  -38.4435926
N    46.7626445  49.1739644  -37.9444219
N    52.162891  56.388389600000004  -31.6507664
O    44.2092866  53.7198196  -38.0803699
C    47.6525571  53.1656788  -38.5084221
C    45.4279997  53.7930816  -38.1886406
C    45.8200784  51.3811985  -38.6125671
C    46.0750144  50.887396  -40.0363538
C    45.7042157  49.4162486  -40.154854
C    46.424605  48.5657561  -39.1426127
C    46.5139335  50.4811587  -37.5897806
C    50.8853132  56.1178987  -38.0127014
C    51.360479  56.0154542  -36.6068951
O    46.8561296  50.9071791  -36.505612299999996
C    52.245250999999996  55.743633  -30.3211002
C    51.333021  56.4856272  -29.3385703
O    51.6396259  57.8679692  -29.264789
C    51.5541616  58.4820558  -30.539007899999998
C    52.5411669  57.8089923  -31.484985899999998
C    53.0079636  55.6964829  -32.655317
C    52.428877299999996  55.8173289  -34.0452899
C    52.2799817  54.6813981  -34.8345754
C    51.7569101  54.781399  -36.1094113
C    52.0377368  57.0477795  -34.5625387
C    51.5010506  57.1505919  -35.8291877
O    49.8500773  55.2065463  -38.3637519
O    46.695722  47.3995564  -39.3412029
H    46.59343  58.291885300000004  -37.5467244
H    48.9059387  57.7133168  -37.835888499999996
H    44.8155108  56.5460279  -37.6710398
H    47.2313192  48.5953287  -37.2515541
H    51.186253  56.3468705  -31.9728848
H    48.240893  52.6591482  -37.7369322
H    48.0913541  52.9496945  -39.4864048
H    44.7447151  51.3848974  -38.3856928
H    47.1311217  51.0131331  -40.2798675
H    45.4881831  51.48108  -40.7367635
H    45.9281005  49.0223159  -41.1456507
H    44.6330796  49.2798517  -39.980305
H    51.7139498  55.8151615  -38.6703982
H    50.6333972  57.1435882  -38.2832904
H    53.2797541  55.7904012  -29.9787449
H    51.9280224  54.7035748  -30.387419299999998
H    51.4658945  56.0966302  -28.3296328
H    50.2808776  56.3582052  -29.6317601
H    51.8145099  59.5283378  -30.3836947
H    50.5275172  58.4191241  -30.9250948
H    52.5637384  58.3407419  -32.4270096
H    53.5363303  57.8436505  -31.0361706
H    53.0759745  54.6397273  -32.3953363
H    54.0125621  56.122442  -32.6214821
H    52.5829113  53.716443  -34.459189699999996
H    51.6479158  53.9052099  -36.729366999999996
H    52.1630898  57.9700161  -34.0296999
H    51.2100947  58.114261  -36.216488999999996
