58

O    -1.8990000000000005  -29.981  -41.996
C    -3.0996555000000003  -29.9150911  -41.749057900000004
C    -4.000691400000001  -31.170627  -41.9430745
N    -5.3331087  -31.0170417  -41.8622049
C    -6.1689524  -32.0556287  -42.0222914
C    -7.680815900000001  -31.8492232  -41.9149781
C    -8.534318200000001  -31.6969852  -43.2279454
C    -7.6787539  -31.2877734  -44.4291337
C    -8.4670245  -30.9651898  -45.7179032
C    -9.983137500000002  -30.9463145  -45.539632600000004
C    -10.410917900000001  -30.2126656  -44.276551500000004
C    -9.6436734  -30.6508137  -43.0099925
C    -5.6618968  -33.3408269  -42.2414044
C    -4.2924094  -33.525027  -42.323555
C    -3.4367190000000005  -32.4333329  -42.1819082
N    -3.6790781000000004  -28.7558292  -41.2897399
C    -3.0923397000000006  -27.480757  -40.9678872
C    -1.8288272000000005  -27.0587662  -41.4025599
C    -1.2704740000000005  -25.8280287  -41.0599792
C    -1.9429001000000006  -24.928112900000002  -40.235477200000005
C    -1.3812441000000004  -23.5410249  -39.8099665
O    -2.1585180000000004  -22.8250442  -39.1376584
O    -0.22203050000000069  -23.229119400000002  -40.1513866
C    -3.2032515000000004  -25.3369911  -39.7972942
C    -3.7987018000000004  -26.5590402  -40.146145000000004
N    -5.082830700000001  -26.887829  -39.6367587
C    -6.2486294000000004  -27.046894  -40.3995601
C    -6.2702442000000005  -26.8742475  -41.7881972
C    -7.4157397000000005  -27.0194032  -42.560109700000005
C    -8.621796  -27.3539736  -41.9738695
C    -8.5858336  -27.5329961  -40.602969
C    -7.471774  -27.3942703  -39.803150900000006
H    -7.8109877  -30.9342303  -41.3338301
H    -8.081312  -32.6813354  -41.3392032
H    -8.9929942  -32.6654199  -43.4497324
H    -6.9515656  -32.076917  -44.633617
H    -7.106160300000001  -30.404679  -44.1313685
H    -8.2179442  -31.691148  -46.4935986
H    -8.145374100000002  -29.9869124  -46.080510000000004
H    -10.3433304  -31.97757  -45.4855589
H    -10.446212300000001  -30.4833313  -46.410962600000005
H    -11.4821499  -30.3545053  -44.1309107
H    -10.243181400000001  -29.1444814  -44.4311805
H    -9.173049200000001  -29.771148  -42.5686417
H    -10.3448516  -31.0458571  -42.272491800000005
H    -6.3358946000000005  -34.1754344  -42.3512153
H    -3.8783713000000004  -34.5066307  -42.495051000000004
H    -2.3646270000000005  -32.5293778  -42.2449073
H    -4.669566700000001  -28.8255002  -41.0788023
H    -1.2550075000000005  -27.7310246  -42.0228404
H    -0.29223600000000083  -25.560797700000002  -41.433341000000006
H    -3.7503143000000003  -24.6534391  -39.1593054
H    -5.256003400000001  -26.500941400000002  -38.720207800000004
H    -5.3485716000000005  -26.5883223  -42.279707900000005
H    -7.3409426  -26.8537031  -43.625093500000006
H    -9.5352314  -27.4450741  -42.5345014
H    -9.5122389  -27.7977397  -40.1045352
H    -7.5400993000000005  -27.536936  -38.7365538
