70

C    24.6  5.73  -14.342
N    24.4747935  5.293275700000001  -12.935769100000002
C    23.1433579  4.7002884  -12.6673479
C    22.9954649  4.1519342  -11.238497800000001
N    24.1208163  3.3362587  -10.8012783
C    25.4118274  3.9515301000000003  -11.0798529
C    25.5365209  4.329801  -12.557151000000001
C    23.9683871  2.5899772000000003  -9.6234427
C    22.8865115  2.7741616000000002  -8.7495254
C    22.7304447  2.0109454  -7.6029652
C    23.650573700000002  1.0184146000000003  -7.2681911
N    23.548307700000002  0.19868730000000046  -6.1333536
C    22.7936726  0.3514540000000004  -5.0256134
N    22.7974503  -0.6906341999999999  -4.1537256000000005
C    22.0733406  -0.6148813999999998  -3.0535853000000004
C    21.3214237  0.5164786000000001  -2.7715845000000003
C    20.431208  0.9430923000000004  -1.7264589000000008
O    20.0631585  0.3965900000000002  -0.6821705000000007
N    19.991361100000002  2.1689359  -2.1271814000000004
C    19.2037975  2.9888875  -1.2452887000000006
C    20.1914264  3.8413314000000005  -0.5167636
C    20.9669434  3.3706376000000002  0.44382449999999984
N    20.638185500000002  2.6033357  -3.2754814000000003
C    21.3980132  1.5642414000000002  -3.7092414000000002
N    22.1092574  1.4917830000000003  -4.8255585000000005
C    20.3022031  3.7252742000000003  -4.0352175
N    19.073548600000002  4.1937424000000005  -3.8468146000000005
C    18.5911267  5.2210272  -4.5485312
C    19.3745873  5.8150017  -5.533106200000001
C    20.658879300000002  5.3208843  -5.7528704
C    21.1540906  4.2594045000000005  -5.007912500000001
C    17.1573455  5.6460989  -4.2067558
C    16.592918  6.7082645  -5.1599032000000005
C    17.0979163  6.1593059  -2.7560438000000005
O    16.290853600000002  4.5218607  -4.328195600000001
C    24.7272162  0.8145908000000004  -8.1364918
C    24.8828059  1.5806808000000003  -9.277636600000001
H    23.804826900000002  6.428795600000001  -14.5871587
H    24.529503300000002  4.8678378  -15.000122600000001
H    25.5602003  6.2148684  -14.4951956
H    24.5799942  6.1194656  -12.3328298
H    23.0091582  3.8813982000000005  -13.377494
H    22.366473900000003  5.443524  -12.837027299999999
H    22.0936084  3.5415010000000002  -11.207107
H    22.855336700000002  5.0064742  -10.554838100000001
H    26.205692000000003  3.2529645000000005  -10.825624900000001
H    25.547659000000003  4.8516494  -10.4580759
H    26.514411600000003  4.7730488  -12.739070600000002
H    25.422093200000003  3.4378171  -13.1746811
H    22.136455700000003  3.5224976000000003  -8.9429524
H    21.885089100000002  2.1846787  -6.9594816
H    24.0960648  -0.6521088999999995  -6.1409665
H    22.097362800000003  -1.4719970999999994  -2.3952211000000005
H    18.702417800000003  2.2889665000000003  -0.5731441000000004
H    18.488362100000003  3.5671812000000003  -1.8249671000000003
H    20.304271200000002  4.8587255  -0.8671278000000004
H    21.7214162  3.9743677  0.9172572999999993
H    20.869045900000003  2.3563312000000005  0.7961048999999996
H    19.0042233  6.6360456  -6.120589300000001
H    21.280463700000002  5.7663956  -6.5129163000000005
H    22.138743100000003  3.8558539000000005  -5.1593679
H    15.561720600000001  6.8992545  -4.8777923
H    16.6021366  6.334435900000001  -6.179588900000001
H    17.1587712  7.630986200000001  -5.0885786
H    17.496389800000003  5.4164786000000005  -2.0707606000000003
H    16.062397  6.358433  -2.4947002000000005
H    17.6749951  7.0743928  -2.6529581
H    16.6365538  3.8046993000000002  -3.7802909000000002
H    25.449231500000003  0.042501300000000075  -7.9176507
H    25.723837000000003  1.3704174000000002  -9.9191894
