49

N    2.611  15.858  74.669
C    0.9590833000000003  15.181739700000001  73.489805
N    2.0281079  14.777527500000001  74.1295595
C    3.5012067000000004  18.608123  75.1924347
C    2.1990225000000003  18.278686200000003  74.8049269
C    2.7110068000000003  20.8155162  75.7096246
C    -1.1889337999999996  24.502655100000002  75.6640909
C    3.7440858000000006  19.8926075  75.6558151
N    0.3171675000000004  21.227925600000003  75.2531027
C    -2.8575080999999996  21.038103800000002  72.8108374
C    -3.2849009999999996  23.4430214  74.1828659
C    -0.5743384999999996  16.806600500000002  71.5792555
C    -0.22643439999999965  17.347626400000003  72.9659618
C    -1.4635424999999997  17.391639400000003  73.8619578
N    0.8124058000000003  16.529365900000002  73.5897319
C    1.8869911000000004  16.9199594  74.3568029
C    1.4460285000000004  20.403484300000002  75.2793833
N    1.1975177000000004  19.1626033  74.8511131
C    0.28822210000000037  22.5895555  75.3101012
O    1.2714380000000003  23.2711441  75.5697924
C    -1.0359080999999997  23.2475761  75.0864177
C    -2.3645026  25.196275800000002  75.51108500000001
C    -3.4197492999999994  24.6728639  74.7904603
C    -2.0916191  22.7246278  74.3106519
O    -1.8875557999999997  21.5347905  73.7209045
S    -2.5641500999999995  26.8000408  76.1554048
O    -2.2137300999999994  27.7551358  75.1280191
O    -3.9007738999999995  26.879120200000003  76.7064356
N    -1.4480758999999996  26.9065234  77.3503865
H    0.2995646000000003  14.5315378  72.9578771
H    4.2729021000000005  17.860013300000002  75.1370751
H    2.8665319000000005  21.8217344  76.0564573
H    -0.37348079999999967  24.9231737  76.2287577
H    4.735244300000001  20.1758117  75.973134
H    -0.5223606999999997  20.7484226  74.9431548
H    -2.3915879999999996  20.167996000000002  72.3544024
H    -3.0883784  21.771618  72.0381878
H    -3.7673788999999998  20.7395527  73.3334567
H    -4.1069816999999995  23.0424578  73.6155933
H    -1.1899033999999995  17.5324917  71.057232
H    -1.1300283999999996  15.8759554  71.6518594
H    0.3262601000000004  16.6341714  70.994369
H    0.1966203000000003  18.3532146  72.8863576
H    -1.2120027999999996  17.8456398  74.8164612
H    -1.8376894999999998  16.385537  74.0382534
H    -2.2419122  17.9749452  73.3825781
H    -4.329963899999999  25.2446311  74.7165037
H    -0.8555963999999996  27.7187859  77.274092
H    -1.8385239999999996  26.7872847  78.2710832
