103

C    -13.649  -15.582000000000003  15.595
C    -12.8895085  -18.431406600000003  16.7349451
C    -15.6168971  -24.6792252  15.9464559
C    -14.5345867  -25.552660900000003  15.360349800000002
C    -12.279212999999999  -22.718950400000004  14.3467439
C    -13.1179451  -20.834191  15.676994400000002
C    -11.048110699999999  -23.327651300000003  14.9572812
C    -15.1615453  -18.4959808  17.2676376
C    -17.278642599999998  -20.4627817  16.246191500000002
C    -16.6283496  -22.3605115  17.8160975
C    -15.5980773  -24.672898000000004  17.4841556
C    -13.5490028  -25.148693200000004  14.5520119
C    -13.4200429  -23.7360086  14.0744421
C    -12.5592987  -23.2278808  12.953419100000001
C    -14.923028299999999  -15.431639500000003  13.346185300000002
C    -13.9073957  -14.864443800000002  14.327846300000001
C    -14.0113162  -17.4979906  17.0424838
C    -13.596807799999999  -19.379584100000002  15.7174557
C    -15.8499086  -20.3830114  15.659700800000001
C    -17.5604081  -21.904290500000002  16.6866173
C    -16.7670307  -23.8719855  18.0774695
C    -8.277780799999999  -22.168575200000003  17.676185
C    -7.1789859  -21.288577300000004  17.1650721
C    -6.847738499999999  -22.466873200000002  18.0334377
C    -18.5119519  -18.7946661  14.8676606
C    -19.807938  -17.3874725  13.3184848
C    -20.7142177  -17.700548100000002  12.120425500000001
C    -18.6086036  -16.556786700000004  12.849321900000001
C    -20.6071171  -16.6658827  14.409403800000002
C    -12.0635619  -13.925554700000003  16.209639
C    -11.098060799999999  -13.405607500000002  17.1602746
C    -10.3637942  -12.220455000000001  16.940033200000002
C    -9.0358802  -12.491890700000003  18.968166500000002
C    -10.615127099999999  -11.508557000000003  15.702020200000002
C    -11.5421439  -11.986758700000003  14.765617200000001
C    -12.306697699999999  -13.214545000000001  14.9746635
C    -9.256117799999998  -21.672514200000002  18.7128276
N    -14.9701609  -19.4823832  16.185939
N    -12.5846953  -21.312964  14.522945400000001
N    -10.311316399999999  -22.577578400000004  15.8064522
N    -18.2584267  -20.089313800000003  15.2262357
N    -12.7604566  -15.113185000000001  16.46979
N    -13.245415399999999  -13.737015100000002  14.069692600000002
O    -14.3399939  -16.735421700000003  15.851750500000001
O    -15.5634415  -21.1330637  14.724878200000001
O    -13.2442985  -21.538413900000002  16.6664779
O    -10.679192  -24.4673556  14.6662186
O    -8.0008479  -23.764010000000003  15.4920071
O    -9.4600926  -24.505173900000003  17.2592948
O    -18.0380877  -17.8391406  15.4598952
O    -19.3570142  -18.696316900000003  13.817085800000001
O    -9.4336166  -11.711982000000003  17.8350791
S    -8.9555367  -23.382853  16.5077927
H    -12.5933084  -18.9903225  17.620646
H    -12.0266272  -17.9453275  16.2868959
H    -16.5830461  -25.073417300000003  15.616749500000001
H    -15.5160303  -23.657306600000002  15.594671700000001
H    -14.581667  -26.5947956  15.643251800000002
H    -16.1324322  -18.008623500000002  17.1614486
H    -15.066253399999999  -18.9715215  18.244196000000002
H    -17.3940675  -19.767921400000002  17.0796806
H    -16.873004599999998  -21.7991728  18.7185853
H    -15.5929882  -22.133101900000003  17.5547918
H    -14.6519873  -24.247485  17.8238545
H    -15.650803999999999  -25.703245100000004  17.8434564
H    -12.7873932  -25.8350405  14.2147705
H    -14.3686018  -23.2090022  14.124535400000001
H    -11.8286023  -23.9059466  12.536582300000001
H    -13.0010397  -22.537921400000002  12.2531364
H    -15.1382101  -14.698954100000002  12.5771753
H    -15.821473699999999  -15.700161900000001  13.8950475
H    -14.5152571  -16.333647300000003  12.8960744
H    -13.842635399999999  -16.8161321  17.8757253
H    -13.5752926  -18.940063700000003  14.713424600000002
H    -17.4242213  -22.5480856  15.817418400000001
H    -18.597516  -21.9725785  17.0148569
H    -17.7072066  -24.238685000000004  17.666222
H    -16.7811831  -24.0524221  19.152967500000003
H    -7.1100902999999995  -20.2964249  17.581980700000003
H    -6.9318845  -21.363760700000004  16.1176211
H    -6.3996606  -23.325735200000004  17.5582977
H    -6.541301799999999  -22.306655400000004  19.0548161
H    -21.0959961  -16.773021500000002  11.7096578
H    -21.545534099999998  -18.3248874  12.434954300000001
H    -20.152276999999998  -18.2300174  11.3566008
H    -17.9824239  -16.294892400000002  13.6975184
H    -18.9629498  -15.646973700000002  12.3766312
H    -18.0183083  -17.126105400000004  12.135728400000001
H    -21.4298535  -17.293971000000003  14.7415073
H    -21.0032157  -15.737408900000002  14.0117042
H    -19.9679103  -16.4431331  15.2599914
H    -10.9661019  -13.982443000000004  18.0603619
H    -8.2234315  -11.926444700000001  19.415426
H    -8.685818099999999  -13.476619300000003  18.6555618
H    -9.8593198  -12.591195400000002  19.6775176
H    -10.0722738  -10.599958100000002  15.5103094
H    -11.7090928  -11.442467100000002  13.8521367
H    -8.7147468  -21.2310264  19.544240900000002
H    -9.8458039  -22.5112817  19.077962900000003
H    -9.9296286  -20.927606700000002  18.294243700000003
H    -12.595664  -20.749496800000003  13.686239200000001
H    -10.693039899999999  -21.7470898  16.2305891
H    -18.5546835  -20.810492000000004  14.5841936
