66

C    -0.524  2.1960000000000006  -7.151
C    5.5266736000000005  0.9250809000000002  -4.437099
C    4.4918616  1.7447010000000003  -5.2062869
C    3.252523  1.7831957000000003  -4.3865181
C    3.1821487  1.4878056000000004  -3.0396506999999997
C    1.8246680999999998  1.7030030000000003  -2.6961985
C    1.6454372  2.5255266  -6.1443294999999996
C    0.7676068999999999  1.4393694000000004  -6.8029465
C    6.8106155  2.1740609000000006  -1.0833770999999999
C    0.7332183999999999  3.7698101000000004  -6.146864
C    1.4727848  0.36547200000000046  -0.6578130999999998
C    0.2036830999999999  -0.045376099999999475  0.08710420000000019
C    6.711728  1.8663646000000003  -2.5598039999999997
C    -0.24383120000000003  1.0829886000000002  1.0122592000000004
C    -0.32966150000000005  2.3844109  0.26236210000000026
C    0.41044369999999986  2.5642531  -0.9198844999999998
C    0.3207498999999999  3.8051293000000004  -1.5493048999999997
C    -0.4722795000000002  4.827480100000001  -1.0663252999999997
C    -1.2106962  4.6615907000000005  0.10786110000000004
C    -1.1207297000000003  3.4177473000000003  0.7390905000000001
C    -2.1066424  5.6958001000000005  0.6310548000000002
C    -1.9862900000000001  7.0999417000000005  0.7282543000000001
C    -3.374854  5.4479356  1.1287757000000003
C    -5.2388284  6.796347300000001  2.0499179000000005
C    -0.5024669000000002  6.1145827  -1.8351701999999999
C    4.3816765  1.0517647  -2.2433615999999996
F    0.036406099999999886  5.9503484  -3.0815966999999995
F    0.29124379999999994  7.0707342  -1.2301441999999998
N    1.1421172999999998  2.0813938000000003  -3.7762333
N    2.0205634  2.1464337  -4.795565099999999
N    1.220192  1.5704327000000002  -1.4426990999999998
N    -3.0813755999999994  7.635782300000001  1.2399264000000003
N    -3.9222463999999997  6.6221047  1.4820498000000004
N    5.5808215  1.3101743000000003  -3.0330588
O    -0.5866644000000001  3.2786164  -6.2330122999999995
O    7.6629606  2.1068568  -3.3067952
H    -1.4281627  1.6052735000000002  -7.0193367
H    -0.4805188  2.5856583000000004  -8.1773822
H    6.5252647  1.0640964000000004  -4.8502977
H    5.2562581  -0.13468719999999967  -4.4824228999999995
H    4.3199201  1.2863567000000002  -6.1802559
H    4.8650367999999995  2.7614979  -5.362437399999999
H    2.5698157  2.7144674  -6.6874971
H    1.2350344  1.0087120000000005  -7.6837924
H    0.5608935999999999  0.6544243000000005  -6.0785522
H    7.8141531  2.5421056  -0.8895963999999998
H    6.6323668  1.2794715  -0.49267349999999976
H    6.0947585  2.9432294000000003  -0.8018695999999998
H    0.9611420999999999  4.397148400000001  -7.0192372999999995
H    0.808692  4.3616652  -5.235606499999999
H    1.7872476  -0.4234861999999997  -1.3416016999999998
H    2.2782099  0.5519761000000005  0.06379040000000025
H    0.3953112999999999  -0.9531323  0.6576797000000001
H    -0.5823085000000001  -0.2499500999999995  -0.6413841999999998
H    0.4750990999999999  1.1940061000000002  1.8294278000000004
H    -1.2110623000000003  0.8476228000000003  1.4570325000000004
H    0.8778409999999999  3.9663185000000003  -2.4567875
H    -1.6790400000000003  3.2607458000000005  1.6498632000000004
H    -1.1543245000000002  7.7271662  0.4810508000000002
H    -3.9059285  4.5238635  1.2356623
H    -5.3872114  7.8564328  2.2364622
H    -5.3138765999999995  6.2447628  2.9861433
H    -5.9948543  6.4368862  1.3529631000000002
H    -1.4981078000000003  6.5607384  -1.9511748999999998
H    4.3217915  -0.022117299999999673  -2.020961
H    4.4254948  1.5993538000000003  -1.3042696999999999
