35

C    20.036  -18.244  -42.044
C    20.247425300000003  -19.2105831  -43.1639548
C    20.609947100000003  -21.072871199999998  -44.3787777
C    20.458663400000002  -20.6254435  -43.0477649
C    20.525546300000002  -21.5444306  -41.990899
C    20.752075700000002  -22.8853017  -42.2531032
C    21.183868800000003  -22.396300099999998  -38.736024
C    22.2836438  -23.0748323  -37.939096799999994
C    23.291155200000002  -22.0646374  -37.374724799999996
C    24.368156600000002  -22.7485878  -36.538279599999996
C    20.9068691  -23.3107048  -43.5939141
C    20.834057400000003  -22.4255834  -44.649140499999994
N    20.269466  -18.8657028  -44.4338973
N    20.4853266  -19.9742971  -45.1669743
N    20.857777000000002  -23.8221366  -41.1893822
O    20.185245600000002  -24.889607599999998  -38.9715737
O    18.8064286  -23.1255649  -39.771409299999995
S    20.170402900000003  -23.6101729  -39.652724899999996
H    19.1796323  -18.5540737  -41.448388599999994
H    20.9136831  -18.2244346  -41.401230999999996
H    19.8602278  -17.2515835  -42.445755299999995
H    20.3307083  -21.208633499999998  -40.986379
H    21.605780900000003  -21.7353673  -39.4857398
H    20.4677708  -21.867435399999998  -38.115019999999994
H    22.8027163  -23.7781463  -38.592414999999995
H    21.8387838  -23.654752  -37.129494099999995
H    22.761528100000003  -21.337915799999998  -36.756944499999996
H    23.7594743  -21.527383  -38.200253999999994
H    23.921771  -23.273403599999998  -35.6975342
H    24.917103500000003  -23.4692673  -37.1387797
H    25.0690056  -22.013215199999998  -36.153507299999994
H    21.0776608  -24.3572246  -43.7912903
H    20.944290700000003  -22.777533  -45.662242299999996
H    20.8905542  -24.790870899999998  -41.4632702
H    20.535028  -19.9026768  -46.1694689
