28

C    45.681  22.665  48.62
C    44.438440199999995  23.1051832  49.041774399999994
C    43.3004573  22.362480299999998  48.8148796
C    43.40549909999999  21.1352173  48.157998799999994
C    44.6606391  20.686476199999998  47.7447241
C    40.0820033  19.7373102  47.7051051
C    40.8772939  20.8270734  47.956038299999996
C    40.571059399999996  17.3746652  47.2851268
O    36.95584099999999  15.8358382  46.518437
F    46.754708799999996  23.460706599999998  48.863382099999995
C    45.79797119999999  21.445667399999998  47.9729519
F    44.3591316  24.2908181  49.6921671
C    42.203345  20.3428271  47.9374605
N    42.217360799999994  19.0385335  47.702244099999994
N    40.928785  18.666560099999998  47.5626865
O    38.745386599999996  19.6386552  47.6337197
S    41.76028469999999  16.0928081  47.2219337
C    40.4683577  15.014804899999998  46.836876499999995
C    39.2766531  15.670846099999999  46.7857736
N    39.363760299999996  17.0052552  47.0414205
C    37.917668899999995  15.0495431  46.493285099999994
O    37.8556774  13.8219593  46.261946699999996
H    42.3560326  22.7340681  49.1731518
H    44.728948499999994  19.7320286  47.250957199999995
H    40.5506939  21.8349415  48.0982753
H    46.7693148  21.1069594  47.653030199999996
H    38.3371772  20.5123991  47.7518111
H    40.637277899999994  13.971224099999999  46.6711789
