66

N    -12.438  -79.54  -34.338
C    -11.882863  -80.0558214  -33.0657699
C    -10.4204222  -80.5084022  -33.346382899999995
O    -9.957074800000001  -80.3606236  -34.4648202
C    -12.748235000000001  -81.1989688  -32.5138166
C    -12.9673642  -81.1126112  -31.024662399999997
C    -11.9177683  -80.96647730000001  -30.1239048
C    -14.261529  -81.1653613  -30.5218405
C    -12.141149200000001  -80.9165513  -28.763624699999998
C    -14.491594200000002  -81.0851832  -29.1601602
C    -13.432038200000001  -80.9714075  -28.276662299999998
N    -9.7673851  -80.9940957  -32.2812774
C    -8.421012000000001  -81.550757  -32.2316585
C    -8.4273994  -83.0515146  -32.7123682
C    -9.7646171  -83.5695995  -33.2640625
O    -7.383594700000001  -83.3617161  -33.6182236
P    -6.8224159  -84.9573532  -33.3823678
O    -7.324976800000001  -85.7820148  -34.5722728
O    -7.5067244  -85.3827151  -32.089163299999996
O    -5.302230700000001  -84.8918995  -33.2661297
C    -7.310487500000001  -80.7123434  -32.9019391
O    -7.050373500000001  -80.7849547  -34.087126399999995
N    -6.6805858  -79.8180296  -32.079564
C    -5.6467125000000005  -78.9256151  -32.600037
C    -5.671876800000001  -77.5827064  -31.8242381
O    -4.5050908000000005  -76.8169147  -31.9541589
C    -4.2467329000000005  -79.5773003  -32.621027399999996
O    -4.134688800000001  -80.8000838  -32.519912
P    -4.564636500000001  -75.3872528  -32.9064343
O    -5.5819936000000006  -75.6942365  -34.0084077
O    -3.1436286000000004  -75.1646791  -33.4046774
O    -5.034285000000001  -74.300044  -31.9393826
N    -3.2146533000000006  -78.7478699  -32.774906699999995
C    -1.8287707000000006  -79.1646032  -32.827424799999996
C    -0.8709575000000003  -77.9130727  -32.7902074
O    -0.7289275000000002  -77.3212074  -31.7058602
C    -1.591486100000001  -79.9839566  -34.0862592
C    -0.4752154000000006  -81.01574360000001  -33.8751645
O    0.5482968999999995  -80.6595268  -33.257643
O    -0.6650954000000002  -82.15831730000001  -34.3425394
O    -0.28591360000000066  -77.5919253  -33.8355342
H    -12.8432666  -78.6025891  -34.2506438
H    -13.1161065  -80.1917632  -34.7495251
H    -11.612842100000002  -79.50333380000001  -34.9808585
H    -11.817143100000001  -79.2477897  -32.3325603
H    -12.299808800000001  -82.1629301  -32.763482599999996
H    -13.7316039  -81.1646941  -32.982910499999996
H    -10.901996800000001  -80.7861183  -30.4072447
H    -15.0968564  -81.2697188  -31.195931799999997
H    -11.3024095  -80.8087876  -28.091945499999998
H    -15.5022672  -81.1122572  -28.7840259
H    -13.6127768  -80.9189413  -27.213805299999997
H    -10.347825  -81.4799627  -31.6102615
H    -8.1628764  -81.5662616  -31.167061299999997
H    -8.226986400000001  -83.6370717  -31.8045592
H    -9.550145500000001  -84.5915746  -33.5720317
H    -10.0563604  -83.0006736  -34.1433092
H    -10.5216677  -83.5810914  -32.4863654
H    -6.588949400000001  -80.0379774  -31.0982447
H    -5.8852856000000004  -78.73007750000001  -33.6533359
H    -5.7792678  -77.7940794  -30.7521663
H    -6.518548600000001  -76.9811612  -32.1768207
H    -3.3786858000000004  -77.7578606  -32.883994099999995
H    -1.6122360000000002  -79.7753429  -31.9366785
H    -1.2970022000000005  -79.2987037  -34.8884137
H    -2.4987905  -80.52268720000001  -34.374167799999995
