49

O    -30.926  3.732  -22.638
P    -31.604258899999998  3.8235263  -23.959417900000002
O    -32.3464267  2.6531343000000005  -24.5216303
O    -30.3760902  4.1966063  -25.011964700000004
C    -30.5598029  3.9575963000000005  -26.383611100000003
C    -29.5847595  4.858373800000001  -27.126614300000004
C    -29.9899852  6.3448903  -27.147965300000003
O    -29.0560167  7.1790041  -26.5175416
C    -30.112918099999998  6.6635062000000005  -28.6604704
O    -29.6903756  7.9383292  -29.026926500000002
C    -29.235727699999998  5.5521072  -29.269933700000003
O    -29.4861728  4.415034  -28.466910400000003
N    -29.5282436  5.229576000000001  -30.625941500000003
C    -28.5959298  5.023145  -31.604501000000003
C    -29.3200943  4.6849051  -32.7605884
N    -30.663849499999998  4.6780254  -32.462583200000005
C    -30.7446821  4.988600900000001  -31.2013281
N    -27.260545099999998  5.1215867  -31.5404525
C    -26.6579148  4.8604674  -32.690961900000005
N    -27.2169532  4.5335619000000005  -33.8463779
C    -28.5588629  4.4351495000000005  -33.935656800000004
N    -29.1184659  4.117921300000001  -35.106882
N    -32.6652688  5.1481411  -23.991253900000004
C    -32.4171715  6.3477937  -23.219617200000002
C    -33.4417415  7.395023800000001  -23.619494900000003
C    -31.0177335  6.9367226  -23.4288586
O    -34.0562432  7.3311747  -24.6646974
O    -33.5828039  8.4033298  -22.761319600000004
C    -34.4590173  9.488610600000001  -23.134341300000003
H    -31.5960248  4.1529699  -26.680279000000002
H    -30.3417991  2.9087920000000005  -26.614939600000003
H    -28.608641  4.751705  -26.628849100000004
H    -30.9411464  6.5025345  -26.6338867
H    -28.1602095  6.819331  -26.593283300000003
H    -31.148388699999998  6.529070000000001  -28.988917600000004
H    -29.2307742  8.338331100000001  -28.2634262
H    -28.1717941  5.8366872  -29.238127000000002
H    -31.6642749  5.0444342  -30.657093200000002
H    -25.580033999999998  4.9227941  -32.6845871
H    -28.524027399999998  3.9418437000000006  -35.8986357
H    -30.1177915  4.0306027  -35.1610664
H    -33.0808789  5.3327179000000005  -24.893838000000002
H    -32.5306026  6.090091800000001  -22.1614521
H    -30.8607882  7.773050700000001  -22.753303700000004
H    -30.8843012  7.2665929  -24.456649700000003
H    -30.2967594  6.1506016  -23.2191557
H    -34.4622468  10.1506625  -22.275160900000003
H    -35.4551499  9.101552  -23.346811300000002
H    -34.0672401  9.9855497  -24.021115700000003
