35

C    -19.126  -8.663  -39.021
S    -21.669350200000004  -7.856509100000001  -39.4365053
B    -17.758476800000004  -8.3271443  -39.8500605
O    -17.276039200000003  -7.0617926  -39.7003407
O    -17.374882600000003  -9.1241362  -40.890521699999994
N    -20.092821400000002  -7.905434800000001  -39.807576
O    -22.048374300000003  -8.884872300000001  -38.483037599999996
O    -22.3945347  -7.891431000000001  -40.684726899999994
C    -21.938198500000002  -6.324946200000001  -38.504273299999994
C    -22.1421175  -5.052667800000001  -39.040697599999994
C    -22.3619784  -3.943000800000001  -38.228836699999995
C    -22.3726528  -4.053500700000001  -36.8446661
C    -22.1430937  -5.320217200000001  -36.296203299999995
C    -21.9339826  -6.424111000000001  -37.117376099999994
C    -22.616118800000002  -2.862698300000001  -36.014807499999996
N    -22.597951300000002  -1.5419763000000009  -36.3552093
N    -22.8583758  -0.8710768000000009  -35.281523299999996
N    -23.044019000000002  -1.735579500000001  -34.3041987
N    -22.8996242  -2.9754159000000007  -34.7174518
C    -22.1453881  -4.787300500000001  -40.5057391
F    -21.284584100000004  -5.536085900000001  -41.195034
F    -21.797173800000003  -3.508512500000001  -40.754831499999995
F    -23.372335200000002  -4.950327700000001  -41.035838
P    -17.7328687  -8.752688000000001  -42.532716099999995
O    -16.5853982  -7.913814600000001  -43.0449554
O    -17.843629500000002  -10.043317000000002  -43.3144018
O    -19.0670639  -8.0186945  -42.3660043
H    -19.167630000000003  -8.282004800000001  -37.9991632
H    -19.3960657  -9.725354800000002  -39.0086338
H    -17.581578800000003  -6.5581190000000005  -38.9367964
H    -19.887815600000003  -7.9166103  -40.8143963
H    -22.521574  -2.975670800000001  -38.6801007
H    -22.1353095  -5.444388600000001  -35.2251431
H    -21.7848006  -7.404683800000001  -36.6966676
H    -23.2657978  -1.4852161000000006  -33.348234
