41

O    6.951  -13.186  23.887999999999998
C    7.141137799999999  -14.308324200000001  24.292462
C    6.3658968  -15.502722200000001  23.8338474
C    7.3050887  -16.6265004  23.358356399999998
C    8.6518082  -16.5832181  24.0908123
N    8.480539499999999  -16.0234064  25.4500145
C    8.2049254  -14.577914700000001  25.3548358
C    7.7569338  -13.9821507  26.6968425
C    8.869477  -13.1361763  27.3148984
C    8.3008361  -11.9854365  28.1412937
N    7.7428472  -12.4378604  29.4135199
C    8.6040069  -13.0296857  30.3254163
O    9.7874898  -13.199359000000001  30.0686854
C    7.987048799999999  -13.4342276  31.5841882
C    8.7633289  -14.048069  32.5694353
C    8.1802277  -14.4225145  33.7554374
F    8.9242745  -15.0183891  34.7159474
C    6.8181430999999995  -14.1898877  33.9737493
F    6.2638253  -14.5661293  35.1484105
C    6.0415133999999995  -13.5862086  33.0119585
C    6.6179405  -13.195700200000001  31.7935189
N    5.8582231  -12.5932438  30.8219291
C    6.435578199999999  -12.2543544  29.7245569
H    5.679298299999999  -15.2055333  23.043196899999998
H    5.7639425  -15.8416294  24.680455000000002
H    7.4837767  -16.524159700000002  22.290152
H    6.813510399999999  -17.5856669  23.5136046
H    9.3585513  -15.9520666  23.550943699999998
H    9.0707772  -17.5870148  24.1532729
H    9.324828499999999  -16.1783895  26.0142331
H    7.7058238999999995  -16.5132781  25.9172929
H    9.115099899999999  -14.0730626  25.0175726
H    7.437902899999999  -14.7657105  27.3820212
H    6.894323399999999  -13.337843300000001  26.5155819
H    9.4548771  -12.662026000000001  26.5271752
H    9.5456253  -13.7266005  27.9289069
H    7.5239109  -11.454348600000001  27.593845299999998
H    9.1108  -11.289779900000001  28.3799928
H    9.8136727  -14.2203953  32.3933535
H    4.9942858999999995  -13.409433700000001  33.1927202
H    5.820390699999999  -11.7797594  28.9726867
