44

C    4.423  -13.152000000000001  3.447
C    3.0754338  -13.4516389  3.1877108
C    2.2095509  -12.479036700000002  2.6846359
C    2.6778933  -11.205916600000002  2.4423679000000003
O    1.4109657999999998  -15.104511200000001  3.2392134
C    2.5700535999999996  -14.782614800000001  3.4464960000000002
C    4.0144405  -10.897343000000001  2.7013034
C    4.8825731  -11.8549816  3.1908425
N    5.2635803999999995  -14.126353100000001  3.9416169
C    4.784474899999999  -15.2924517  4.1606165
N    3.4954864  -15.692482100000001  3.9426234000000004
C    3.0464227999999998  -17.0512048  4.2393331
C    3.4189971  -18.0243577  3.1000492
O    3.2845744  -17.338898  1.8613714000000003
C    2.4722907999999997  -19.2355019  3.1281152000000003
C    2.5583386  -20.1483877  1.8967652000000002
N    3.2681573999999998  -19.4902898  0.7778404000000001
C    3.0923735  -20.1753165  -0.5116092999999999
C    3.2622068  -21.4852941  2.2143282
O    4.3040724  -21.249724  3.1498235
C    3.8242383999999996  -22.097015  0.9194605000000002
C    2.982811  -21.6848828  -0.28573429999999966
H    1.1824667  -12.7534046  2.4980822000000003
H    2.0154968999999996  -10.447378100000002  2.0569012000000004
H    4.3770343  -9.898951700000001  2.5129807000000004
H    5.9161204  -11.6225554  3.3895647
H    5.4536767  -16.043697  4.5571445
H    1.9591761999999997  -16.986008  4.3259875
H    3.4743088999999996  -17.375143100000003  5.1871029
H    4.4594514  -18.3539626  3.2250389000000004
H    3.82639  -16.5424447  1.8506080000000003
H    1.4562190999999998  -18.847568600000002  3.2039715
H    2.6908336999999998  -19.805678  4.0270980000000005
H    1.5464928999999998  -20.369924700000002  1.5546374000000003
H    4.261883  -19.4839772  1.0274382000000002
H    2.9727924999999997  -18.5001582  0.7303947000000002
H    3.9449626999999996  -19.9460245  -1.149349
H    2.1888416  -19.8067396  -0.9971668
H    2.5149495999999996  -22.1549315  2.6601414
H    4.677516  -22.0893553  3.4391389
H    3.8471075  -23.1831833  1.0013714000000002
H    4.8541177  -21.759965  0.7859012000000001
H    3.3274041  -22.2126772  -1.1735588
H    1.9480020999999998  -21.9821792  -0.11765409999999976
