94

O    7.039999999999999  -1.0990000000000002  32.331
C    7.621127999999999  -1.1361991000000007  31.091978500000003
C    8.523499999999999  -2.1472412000000007  30.737287000000006
C    9.096477799999999  -2.160316700000001  29.472548600000003
C    7.338252899999999  -0.14469270000000067  30.160391900000004
C    7.950057799999999  -0.14051600000000075  28.918162700000003
C    8.821098699999999  -1.1576860000000009  28.538971900000004
C    9.459703699999999  -1.1790100000000008  27.163497300000003
O    8.486400799999998  -1.3285197000000002  26.130382500000003
C    7.686721899999999  -0.20383900000000077  25.823948200000004
C    10.404316199999998  0.00842449999999939  26.932358500000007
C    11.5363952  -0.039202600000000754  27.955581100000003
C    12.660641899999998  0.9657264999999993  27.692927500000003
C    13.630012399999998  1.0378402999999996  28.881310500000005
C    14.194635499999999  -0.3369342000000004  29.223636900000006
C    15.6114518  -0.25618590000000063  29.782746600000003
C    16.331262199999998  -1.5843576000000006  29.615475900000003
C    12.133595099999999  2.3651593999999996  27.344611000000004
C    11.318834699999998  2.9464293999999995  28.508467500000005
C    13.309625399999998  3.2716038999999992  26.944355200000004
C    14.256453299999999  2.607432899999999  25.912680700000006
C    12.981055199999998  4.6588183999999995  26.358931600000005
C    11.8366893  4.636000699999999  25.342019100000005
C    12.7289395  5.778363199999999  27.371222800000005
C    12.669564799999998  7.122797799999999  26.639541800000003
C    13.944675199999999  7.402038699999999  25.829340400000007
C    14.340086499999998  4.9854362  25.702023800000006
C    14.790942099999999  3.7140921999999996  25.001615500000003
C    14.2486249  6.245462  24.927147200000004
C    14.3734577  6.2912143  23.601067500000006
C    14.2468317  7.494245199999999  22.831879700000005
C    14.068290099999999  7.536065399999999  21.510068100000005
C    13.845671  8.879472499999999  20.885211000000005
C    13.9732533  6.310380499999999  20.655884500000006
C    14.4724893  6.499979699999999  19.215678200000006
O    14.061125699999998  5.373669  18.458895500000004
C    14.0497091  7.843341199999999  18.662348900000005
C    13.391212  8.046737199999999  17.533263100000006
C    14.459494199999998  9.0265648  19.496158400000006
O    15.8708818  9.155326899999999  19.582450700000006
H    6.446595799999999  -0.3365942000000004  32.396967700000005
H    8.7569567  -2.9153672000000004  31.457321100000005
H    9.775414499999998  -2.9579807000000002  29.213285100000004
H    6.658319399999999  0.6554212999999995  30.416502700000006
H    7.7607694999999985  0.6946372999999992  28.265205400000006
H    10.037951999999999  -2.106841900000001  27.069836800000004
H    7.247588099999999  -0.43012330000000043  24.850897300000003
H    8.267653699999999  0.7139169999999995  25.739593600000006
H    6.874746699999999  -0.07974300000000056  26.545444000000003
H    9.8557239  0.9408008999999993  27.046551600000004
H    10.7993429  -0.0565225000000007  25.916842600000006
H    11.963109799999998  -1.0437628000000005  27.947002800000003
H    11.1158165  0.11185489999999954  28.952057500000006
H    13.218177699999998  0.5851400999999994  26.834169300000006
H    13.125185799999999  1.4550262999999994  29.751748800000005
H    14.458957599999998  1.6929655999999995  28.625515100000005
H    14.2424112  -0.9289156000000007  28.305458600000005
H    13.546483199999999  -0.8654808000000003  29.922060700000003
H    15.5882203  0.028262799999999366  30.836407600000005
H    16.1722462  0.5126518999999994  29.246201400000004
H    17.3316309  -1.5409011000000001  30.041006800000005
H    16.4192648  -1.837848600000001  28.561454200000004
H    15.783705699999999  -2.381700200000001  30.113914300000005
H    11.4815224  2.2692114999999995  26.474221200000006
H    10.673903499999998  3.747561299999999  28.156872100000005
H    11.97215  3.3533092999999994  29.274869100000004
H    10.687769099999999  2.1883338999999995  28.959575800000003
H    13.888868299999999  3.4754749999999994  27.851342000000006
H    13.711584599999998  1.8768548999999994  25.314758100000006
H    15.066558099999998  2.0838862999999996  26.417598800000004
H    11.900639499999999  5.4813746  24.663829000000003
H    10.8758351  4.660431999999999  25.849916500000006
H    11.8833112  3.7323919999999995  24.737548500000006
H    13.531189  5.799718599999999  28.112044800000007
H    11.789281899999999  5.6265239  27.902485400000003
H    12.5406129  7.9219243  27.374725400000006
H    11.805229699999998  7.151096599999999  25.978304600000005
H    14.780255099999998  7.5289985999999995  26.524873600000006
H    13.8186769  8.3349078  25.284372800000003
H    15.042727799999998  5.1571709  26.529277700000005
H    14.3376366  3.6272558999999993  24.015509000000005
H    15.872516099999999  3.6804132999999997  24.883379800000004
H    14.571183999999999  5.382178  23.059914600000006
H    14.2736767  8.4296201  23.369677800000005
H    14.242659  9.6615145  21.532867000000003
H    12.768788699999998  9.0446277  20.770815500000005
H    12.915704799999999  6.0223933999999995  20.596247300000005
H    14.5151455  5.4756792  21.094320000000003
H    15.568676799999999  6.4675601  19.206669700000006
H    13.0942932  5.352533599999999  18.438972100000004
H    13.135171  9.0366369  17.199107200000007
H    13.089020099999999  7.232399599999999  16.895758400000005
H    14.054394199999999  9.9431672  19.037967400000007
H    16.2264523  9.3175496  18.699724600000003
