46

C    77.994  25.531  193.53
C    77.07888410000001  25.7635348  194.5827399
C    76.8998263  27.1348904  194.9769745
N    77.5654535  28.112418199999997  194.3543701
N    78.6425382  26.5719964  192.93246000000002
C    78.42307650000001  27.8056839  193.35241720000002
C    76.42110140000001  24.6938973  195.2047612
C    76.6622384  23.4076286  194.7867668
C    77.56324190000001  23.144110299999998  193.7492824
C    78.2158127  24.1895857  193.1329038
C    75.87124530000001  28.579463399999998  196.7138265
C    76.6241287  29.723148899999998  196.5810621
C    75.0944357  30.0298299  198.1016717
C    76.6074432  31.9798865  197.6512063
C    80.2895546  29.551101499999998  193.04005180000001
C    81.2199087  29.858778899999997  191.8387117
C    80.4832224  30.273562599999998  190.55429560000002
C    79.02470170000001  30.5761446  190.82953980000002
C    78.36097710000001  29.368324899999998  191.4851338
N    76.03406720000001  27.3807136  196.0049116
N    76.11766800000001  30.6379108  197.4621089
N    74.91723630000001  28.7859271  197.6832352
N    79.06652960000001  28.8744157  192.65798460000002
N    81.08784560000001  31.4904846  189.9559867
Cl    75.8100311  22.1012785  195.5691497
H    75.724636  24.8383501  196.0137228
H    77.7404585  22.128754299999997  193.4359475
H    78.91175870000001  24.003741299999998  192.33158740000002
H    77.4392306  29.9318422  195.92360530000002
H    74.49823860000001  30.487893  198.86204890000002
H    77.43999710000001  32.1467515  196.9742524
H    76.94311300000001  32.1163607  198.67949140000002
H    75.81698050000001  32.700544799999996  197.44200550000002
H    80.0456839  30.4958286  193.5547013
H    80.8193904  28.9210769  193.75544920000002
H    81.8183123  28.971286099999997  191.63885820000002
H    81.89377680000001  30.647844499999998  192.1695565
H    80.5445358  29.462697799999997  189.8247825
H    78.47712940000001  30.790267399999998  189.91363420000002
H    78.9366504  31.4289204  191.5034794
H    78.29109120000001  28.551002599999997  190.74947010000002
H    77.3294786  29.6311726  191.76564340000002
H    75.46433130000001  26.622101699999998  196.343734
H    82.08496170000001  31.3463377  189.7522582
H    80.9988885  32.2833734  190.6041161
H    80.6083428  31.732672899999997  189.0807383
