43

P    1.9550000000000003  -4.01  -6.687999999999999
O    0.44685860000000055  -3.9799732  -6.546438099999999
O    2.5894614000000002  -2.6417166  -6.565486899999999
O    2.6541674000000004  -5.067065299999999  -5.867179599999998
P    2.1501863000000005  -5.9688811  -8.844206499999999
O    0.7466425000000005  -6.3403832  -9.198794199999998
O    2.8919530000000004  -6.8979725  -7.957431299999999
O    2.2200931000000006  -4.449288  -8.3444121
P    3.5141451000000004  -6.9176741  -11.2879528
O    2.6350159000000004  -8.1169028  -11.306021499999998
O    4.9760122  -7.1657414  -11.138264699999999
O    3.0063790000000004  -5.7708414999999995  -10.234796
O    3.3042361000000002  -6.0473433  -12.662944099999999
C    2.0169518  -5.7291964  -13.190085199999999
C    1.9901375000000003  -6.0507611  -14.687533599999998
O    3.1193658000000006  -5.4742537  -15.337100499999998
C    2.0432234000000005  -7.550172  -15.008973199999998
O    0.7800967000000005  -8.135584  -14.936466999999999
C    2.6896886  -7.5519887  -16.4208915
O    1.7448962000000003  -7.3430985  -17.429122
C    3.6475868000000005  -6.3434424  -16.3134473
N    5.013804800000001  -6.720621  -16.0111031
C    5.667014200000001  -6.7121594  -14.805062999999999
N    6.9017125  -7.1089044  -14.8771478
C    7.103966100000001  -7.410761  -16.2052619
C    8.2185631  -7.8935922000000005  -16.9249011
N    9.4122128  -8.1170172  -16.3736204
N    8.0587052  -8.1094406  -18.2439537
C    6.890452600000001  -7.8426458  -18.8033051
N    5.7833375  -7.3723211  -18.245823299999998
C    5.9290395  -7.1717106  -16.9294731
H    1.8500620000000003  -4.6612717  -13.0197779
H    1.2501670000000003  -6.3023859  -12.657257999999999
H    1.0699829000000003  -5.6260816  -15.112991799999998
H    2.7479084000000005  -8.0061269  -14.2940882
H    0.8632295000000005  -9.0996454  -14.885258099999998
H    3.2551730000000005  -8.4766647  -16.5839777
H    2.1266601000000005  -7.571991  -18.291965299999998
H    3.6835789000000005  -5.8025621  -17.271568199999997
H    5.181704  -6.4181712  -13.893633799999998
H    9.5051982  -8.01254  -15.378587799999998
H    10.136351600000001  -8.5281577  -16.9379259
H    6.827890200000001  -8.0324881  -19.865011099999997
