105

N    -8.157  -0.6109999999999998  -1.813
C    -8.9853291  0.46648520000000016  -1.2209254
C    -8.178377300000001  1.1319768000000003  -0.09228199999999998
O    -7.6039072  0.4499493000000001  0.7480459999999998
C    -10.2827676  -0.12844869999999986  -0.6409519
C    -11.313848700000001  0.9174190000000002  -0.2748360000000001
C    -12.322056499999999  1.2564362000000004  -1.1691536
C    -11.3030884  1.5489500000000005  0.9653371999999998
C    -13.2858816  2.1928474000000002  -0.8442987000000001
C    -12.261855699999998  2.4887203  1.3024565000000001
C    -13.266717199999999  2.8187085000000005  0.3949461000000001
O    -14.2105663  3.7435963  0.7312524
N    -8.187893599999999  2.4642703000000004  -0.10227730000000013
C    -7.4172671  3.2406303000000003  0.8385901
C    -6.3944181  4.1025166  0.10558859999999992
O    -6.4491987  4.253056300000001  -1.114754
N    -5.4614768  4.6911486  0.8555439999999999
C    -4.4722741  5.567819500000001  0.2406900999999999
C    -3.3497696  4.7531549  -0.417266
O    -2.9495438999999997  3.7016448000000004  0.05803019999999992
C    -3.9299025  6.3753143  1.4231258999999998
C    -4.0250777  5.384591  2.5757573000000002
C    -5.3328269  4.6467165  2.3058281000000003
N    -2.8837127  5.2827269  -1.5647294
C    -1.8108370999999999  4.6711615  -2.3324303
C    -0.46580529999999976  5.2902698  -1.9370295
O    -0.4044798999999999  6.443068200000001  -1.5212498
C    -2.0497775999999996  4.8558  -3.8441688999999997
C    -1.8685070999999998  6.292782300000001  -4.3509143
C    -3.0546938  7.2122583  -4.0472335
C    -2.6850107  8.674405400000001  -4.2503918
N    -3.8844117999999996  9.5277773  -4.0570367
N    0.6094810000000002  4.4969109000000005  -2.0417469
C    1.9411342999999999  5.014232000000001  -1.7703748
C    2.5784058000000005  5.5137241  -3.0776616
O    2.7278515  4.7513461  -4.0269461
C    2.8560725  3.9424860000000006  -1.1459627000000001
C    4.286020300000001  4.4077966  -1.0753002
C    5.2095283000000006  4.3410817  -2.0832161
C    4.9540911  5.0349934  0.02734039999999993
N    6.407159900000001  4.858999000000001  -1.6788807000000001
C    6.278656000000001  5.3147718  -0.39904150000000005
C    4.5786968  5.3877246  1.3250859000000001
C    7.2092131  5.9230704  0.4387638999999999
C    5.5043555  5.9936932  2.1494384999999996
C    6.805300400000001  6.2607577  1.7127203000000002
N    2.9264915  6.8072949000000005  -3.094566
C    3.7156444000000004  7.4073038  -4.158501
C    5.0927981  7.8878734  -3.5716381000000004
O    5.203552  9.0901848  -3.2782367
C    3.0136553  8.5954864  -4.8220539
C    1.6740897000000001  8.222233300000001  -5.4266081
O    1.0963279000000004  7.1778162000000005  -5.1615879
N    1.1361455  9.1371778  -6.2508151
O    5.985085799999999  7.0367833  -3.4317561999999997
H    -8.7172331  -1.2162332999999999  -2.4268625999999998
H    -7.7726375  -1.1780435999999996  -1.0396595
H    -7.3674849  -0.22555829999999943  -2.3460962
H    -9.2358202  1.1974439000000001  -1.9926691
H    -10.035697299999999  -0.7076260999999997  0.25062779999999996
H    -10.729566899999998  -0.7925278999999996  -1.3808311
H    -12.369848000000001  0.7801108000000001  -2.1368296
H    -10.539409  1.3007613000000005  1.6877576
H    -14.0628529  2.4323157  -1.5560401000000001
H    -12.254319899999999  2.9706158  2.2673962000000003
H    -14.8486866  3.8536573  0.011649299999999974
H    -8.5837602  2.9829464000000003  -0.8736198000000001
H    -6.913684  2.5428559  1.5121757
H    -8.0745022  3.8889055000000003  1.4271651
H    -4.9669413  6.172766  -0.5230484000000001
H    -4.569578099999999  7.237943400000001  1.6081923999999999
H    -2.9096807  6.7151558  1.2536745999999999
H    -4.016576  5.868232000000001  3.549011
H    -3.1905029  4.6842842000000005  2.524165
H    -5.2982577  3.6176974000000004  2.6653633
H    -6.1829102  5.1596633  2.7658138
H    -2.8958711  6.2921743  -1.6240953
H    -1.8056919999999999  3.6073847000000003  -2.0786984
H    -3.0552051999999996  4.5008097000000005  -4.0733819
H    -1.3316494999999997  4.2212012  -4.3642241
H    -1.7125844  6.2506991  -5.4291895
H    -0.9484046999999998  6.703115  -3.932144
H    -3.4063346999999995  7.0740701  -3.0317979
H    -3.8696006  6.9354335  -4.7196236
H    -2.2930834  8.8214734  -5.2557548
H    -1.9078213999999998  8.9572927  -3.5403998999999997
H    -3.6536529  10.516191500000001  -4.210236
H    -4.2476178  9.4212314  -3.1032663
H    -4.6195941000000005  9.252762  -4.7197883
H    0.5597968  3.6177286000000004  -2.5336872
H    1.8189701  5.854966500000001  -1.080707
H    2.8151699  3.0544189000000004  -1.7798807
H    2.4911780000000006  3.6942790000000003  -0.14976000000000012
H    5.0890754000000005  3.9600501  -3.0796167
H    7.142748200000001  5.119612500000001  -2.3130104
H    3.5772435  5.1901562000000006  1.6780289
H    8.2080154  6.1353194  0.0876288999999999
H    5.2229226  6.2736039  3.1536673000000004
H    7.5012686  6.7413353  2.3837935000000003
H    2.8207817000000004  7.3630408  -2.2583243
H    3.9085184  6.6078673000000006  -4.8822259
H    3.6826056000000005  8.994794800000001  -5.5851142
H    2.8812205000000004  9.3739387  -4.0660983
H    0.31015840000000017  8.887318400000002  -6.771361
H    1.6641379  9.9447992  -6.5322946
