106

C    20.122  -25.324  -25.018
C    17.896829699999998  -26.213974000000004  -24.4105894
C    16.737517599999997  -24.513788500000004  -26.999500700000002
C    16.479394499999998  -23.277495400000003  -27.5724947
C    15.694433999999998  -22.352630600000005  -26.902833400000002
C    15.171842599999998  -22.669496700000003  -25.657734
C    15.430148799999998  -23.905989400000003  -25.0869562
C    18.093164599999998  -27.505376700000003  -23.5377036
C    17.2830227  -27.366308600000004  -22.2185452
C    19.050992899999997  -25.908161700000004  -20.9592017
C    17.9833167  -27.012879200000004  -18.806934000000002
C    16.962451199999997  -26.5359997  -19.9050063
C    23.4326272  -27.712151400000003  -26.113647800000003
C    23.534552299999998  -26.8886448  -27.376752500000002
C    24.7204883  -26.919049  -28.1112498
C    24.8992273  -26.174319300000004  -29.2838388
C    23.805449699999997  -25.388920000000002  -29.696906400000003
C    22.604805199999998  -25.338106700000004  -28.9960904
C    22.4691251  -26.092329100000004  -27.8172715
O    21.2568482  -26.053173800000003  -27.085683
C    21.280652399999997  -25.136442000000002  -26.012699700000002
O    20.214806199999998  -24.768590300000003  -23.9279824
N    19.0245049  -26.055287600000003  -25.349684200000002
C    16.522510599999997  -26.191997900000004  -25.1248648
C    16.2198137  -24.843996800000003  -25.7498165
O    16.184064  -27.9129697  -22.1631582
N    17.752715499999997  -26.618350900000003  -21.1577998
S    19.5703008  -26.243767400000003  -19.2969967
C    16.358479799999998  -25.111776100000004  -19.660452
O    17.0277073  -24.108061300000003  -19.861630400000003
N    15.083950299999998  -25.044918300000003  -19.194136200000003
C    14.385252299999998  -23.806569500000002  -18.8338762
C    13.352346599999999  -24.107528200000004  -17.7115894
C    12.235206599999998  -23.075574300000003  -17.936142
C    12.320091899999998  -22.749794400000003  -19.412915400000003
C    11.383993699999998  -22.144862800000002  -20.242533
C    11.6838111  -21.944689300000004  -21.5891922
C    12.916530599999998  -22.330979100000004  -22.1003173
C    13.858789199999999  -22.9393856  -21.272306800000003
C    13.549390199999998  -23.1573026  -19.9349667
O    12.876564899999998  -25.430357900000004  -17.879571000000002
C    17.6390034  -26.571575900000003  -17.3899522
C    18.1330359  -28.538654100000002  -18.909801
O    17.788624799999997  -28.6784494  -24.2478897
C    21.4701369  -24.480799100000002  -29.5142144
N    26.1108786  -26.184924100000003  -30.0234068
C    26.7285284  -24.906131600000002  -30.365448
C    26.8520508  -27.440715700000002  -30.245388600000002
C    27.946917999999997  -27.414336700000003  -31.350291600000002
N    28.9241855  -28.5287499  -31.1559627
C    30.024509099999996  -28.109004300000002  -30.2766497
C    29.4690023  -29.074391400000003  -32.4181027
H    17.972086899999997  -25.354482700000002  -23.7331591
H    17.3430057  -25.231536600000002  -27.5318982
H    16.8869275  -23.039074000000003  -28.5429421
H    15.490130899999999  -21.389708100000004  -27.345317
H    14.5623653  -21.950280900000003  -25.1314986
H    15.017885799999998  -24.148707100000003  -24.117460400000002
H    19.162111799999998  -27.558105000000005  -23.2914083
H    16.146884  -27.2585529  -19.987115600000003
H    23.9362629  -28.665958600000003  -26.2414975
H    22.390343599999998  -27.892909500000002  -25.8616453
H    23.900749899999997  -27.187684000000004  -25.2811564
H    25.516520399999997  -27.548380400000003  -27.7440226
H    23.891458099999998  -24.804241200000003  -30.6006668
H    22.2043769  -25.221032400000002  -25.4290372
H    21.204006999999997  -24.1014836  -26.3781331
H    19.0296094  -26.597058900000004  -26.201414200000002
H    15.766233399999999  -26.430819500000002  -24.3761394
H    16.5193066  -26.968316  -25.8910862
H    14.5198571  -25.877027700000003  -19.0846322
H    15.144593399999998  -23.094150600000003  -18.4923936
H    13.817075799999998  -24.006304300000004  -16.7231728
H    12.424627699999998  -22.174464300000004  -17.3506284
H    11.257025299999999  -23.467328900000002  -17.6616419
H    10.427526099999998  -21.835421300000004  -19.849139100000002
H    10.953681399999999  -21.4830204  -22.2350631
H    13.145350599999999  -22.1707089  -23.1418201
H    14.8216051  -23.2425099  -21.658881700000002
H    12.218180999999998  -25.621121700000003  -17.198875
H    18.411136199999998  -26.917864500000004  -16.7095244
H    16.6810665  -26.987645900000004  -17.0870642
H    17.590111399999998  -25.486517700000004  -17.3353533
H    18.957641  -28.8610782  -18.2807314
H    18.340905199999998  -28.836060000000003  -19.9347129
H    17.219949399999997  -29.027855900000002  -18.5795043
H    16.8920641  -28.958976900000003  -23.9934122
H    21.5404628  -24.367099900000003  -30.592337800000003
H    21.5112284  -23.491058100000004  -29.0577926
H    20.514246999999997  -24.932660000000002  -29.25721
H    27.7110196  -24.816493100000002  -29.8953501
H    26.1040146  -24.105401900000004  -29.978853400000002
H    26.8205043  -24.780494200000003  -31.4463015
H    26.105958899999997  -28.203989400000005  -30.4775097
H    27.3468526  -27.724426500000003  -29.301873800000003
H    28.491675899999997  -26.473043300000004  -31.328479100000003
H    27.4729125  -27.518340500000004  -32.3259059
H    28.4199286  -29.294043400000003  -30.6916537
H    30.6565364  -28.958242800000004  -30.0285079
H    29.6363876  -27.683547800000003  -29.3545124
H    30.629582199999998  -27.360048300000003  -30.782823200000003
H    28.666454299999998  -29.462522300000003  -33.0401141
H    30.1669262  -29.877258400000002  -32.1985742
H    29.9910286  -28.2896518  -32.960823000000005
H    18.8858529  -24.834486500000004  -21.082774
H    19.794425999999998  -26.244972500000003  -21.680057700000003
