45

C    -44.561  -0.07899999999999996  -14.553999999999998
C    -43.4292884  -0.9041612  -14.357775
C    -43.256625  -2.1433213  -15.1345318
C    -42.7185123  -3.3403015  -14.7753479
C    -42.004996  -3.7549851  -13.544326799999999
C    -41.9894763  -5.1187776  -13.141113299999999
C    -41.3387613  -5.5947618  -11.9935531
C    -40.657923  -4.653022  -11.2208107
C    -40.6601411  -3.318773  -11.607135099999999
C    -41.3013746  -2.8085469  -12.756157499999999
C    -41.2097855  -1.3348317  -13.1649312
C    -40.0122332  -0.7286768  -13.360513899999999
C    -39.8333846  0.7374194000000001  -13.762737399999999
C    -38.644464  0.9718191  -14.706609799999999
C    -36.3063437  0.5761409000000002  -15.194806499999999
C    -37.5552461  -1.0589914  -13.9659066
C    -38.6785971  -1.3461109  -12.974911299999999
C    -42.4800541  -0.5278689999999999  -13.3852742
C    -42.748606  0.64327  -12.6514013
C    -43.8724138  1.4367360999999998  -12.8462219
C    -44.7969265  1.0716691  -13.816476699999999
N    -37.390282  0.380142  -14.211670199999999
O    -41.3582927  -6.9190895999999995  -11.629450199999999
H    -45.276552  -0.3804612999999999  -15.3073938
H    -43.7649446  -2.1260854  -16.091852499999998
H    -42.8339689  -4.1466756  -15.489513599999999
H    -42.5281588  -5.8343406  -13.7473159
H    -40.1382421  -4.943668  -10.3207822
H    -40.1547806  -2.6154864  -10.9601194
H    -39.6870767  1.3180074000000002  -12.8481331
H    -40.7341824  1.1101356000000002  -14.246205999999999
H    -38.5090247  2.0440252  -14.8465923
H    -38.8669538  0.5184857999999999  -15.674711599999998
H    -35.3764083  0.16186030000000007  -14.8146273
H    -36.1645157  1.6356681  -15.3938806
H    -36.5631839  0.0753393  -16.124232499999998
H    -37.7862737  -1.5405853  -14.918112599999999
H    -36.6214857  -1.4712478  -13.5833882
H    -38.7779534  -2.4261298  -12.8795132
H    -38.408107  -0.9519269  -11.991368099999999
H    -42.0454132  0.9300007000000001  -11.8819032
H    -44.0177118  2.3204377999999997  -12.245612399999999
H    -45.6811894  1.6611749999999998  -13.999692
H    -37.138409  0.8384096000000001  -13.3282577
H    -40.8598585  -7.0378777  -10.8086159
