19

N    13.736  39.498  0.09099999999999997
C    13.1503376  38.7416427  1.2143514
C    12.0030861  39.6235466  1.841871
O    11.793433700000001  40.7236256  1.2955086
C    14.2018707  38.3645265  2.2640722
C    15.2997858  37.506138299999996  1.6365102
C    14.793299600000001  39.60206899999999  2.9344959
O    11.3808965  39.174785699999994  2.8075273000000003
H    13.1207247  40.3596431  0.08350140000000006
H    14.6987012  39.779688799999995  0.29201750000000004
H    13.6839425  39.016235599999995  -0.8077768999999999
H    12.6644498  37.831939899999995  0.8548604000000001
H    13.670391700000001  37.7867976  3.0259868
H    15.9090482  38.074300099999995  0.9394536
H    15.958337  37.131460399999995  2.4159489
H    14.8716641  36.6499263  1.1214766
H    15.4227566  39.305457  3.7693898
H    15.403556400000001  40.19008839999999  2.2529862
H    13.9970713  40.2351836  3.3224024
