62

C    -14.133  -13.125  -19.896
C    -12.208433199999998  -14.416174899999998  -19.2364534
C    -11.762757599999999  -13.339572299999999  -18.4740602
C    -12.496802299999999  -12.168621299999998  -18.422502899999998
C    -11.675640199999998  -16.7138099  -18.4673214
C    -10.86179  -17.9183747  -18.740564199999998
C    -10.1738173  -18.2303711  -19.9263178
N    -16.3487223  -6.306946799999999  -17.5945826
C    -16.2757677  -7.142082099999999  -18.743257099999997
C    -16.0042562  -8.504345999999998  -18.6656995
C    -15.933269099999999  -9.2732406  -19.820673799999998
C    -16.127187199999998  -8.6893853  -21.0634688
C    -16.396759399999997  -7.334540699999999  -21.148456499999998
C    -16.465597199999998  -6.565951799999999  -20.0004326
C    -15.612572099999998  -10.741327599999998  -19.7288115
O    -14.373743099999999  -10.866714299999998  -19.0351957
C    -13.696601799999998  -12.047622599999999  -19.131602299999997
C    -13.3902539  -14.289933299999998  -19.950232399999997
N    -11.479013899999998  -15.652612399999999  -19.3052918
O    -12.484789399999999  -16.6787155  -17.5431404
N    -9.565486799999999  -19.394772699999997  -19.820570399999998
N    -9.832810799999999  -19.8620378  -18.596822
C    -10.613913299999998  -19.015728099999997  -17.916072
C    -9.311261499999999  -21.1251225  -18.1306397
C    -16.6429077  -6.682208699999999  -16.320374899999997
O    -16.9361005  -7.8206866999999995  -15.988921699999999
C    -16.6172212  -5.563636299999999  -15.280397699999998
S    -14.9058415  -5.169733799999999  -14.708722999999999
C    -14.104319699999998  -4.142183199999999  -15.9337106
N    -12.953325699999999  -3.591014799999999  -15.5704953
C    -12.319932699999999  -2.8165774999999993  -16.458354099999998
C    -12.868343699999999  -2.6084822999999986  -17.7209798
C    -14.076892999999998  -3.2197439999999986  -18.0214858
N    -14.687203799999999  -3.988921799999999  -17.1136268
C    -14.717107399999998  -3.048023399999999  -19.363584099999997
C    -11.019805499999999  -2.177658599999999  -16.0801557
H    -15.063127999999999  -13.094022399999998  -20.4373631
H    -10.8485968  -13.425937699999999  -17.9077526
H    -12.1637873  -11.3328241  -17.8286139
H    -10.105101399999999  -17.6853817  -20.8459768
H    -16.04403  -5.339084399999999  -17.7177661
H    -15.848681  -8.9720544  -17.706882999999998
H    -16.068409699999997  -9.287820199999999  -21.9591033
H    -16.5491314  -6.8714075999999995  -22.1102843
H    -16.6716373  -5.509085599999999  -20.070399199999997
H    -15.527721399999999  -11.146391199999998  -20.741373799999998
H    -16.394253399999997  -11.283283099999998  -19.179900699999997
H    -13.747102599999998  -15.123793499999998  -20.5353216
H    -10.770719199999998  -15.728631799999999  -20.0196015
H    -10.948208099999999  -19.1970243  -16.915387
H    -9.6970526  -21.315285  -17.1338006
H    -8.223018199999999  -21.086412199999998  -18.109371
H    -9.619456099999999  -21.9186653  -18.8094802
H    -17.109136799999998  -5.907617799999999  -14.374784499999999
H    -17.061686299999998  -4.644392499999999  -15.6549395
H    -12.3703183  -1.9870650999999988  -18.4460773
H    -15.796351199999998  -3.140486499999999  -19.2833643
H    -14.352498399999998  -3.8269696999999985  -20.032375299999998
H    -14.456241799999999  -2.0808488999999994  -19.780989899999998
H    -10.651584099999999  -1.5612163999999993  -16.8923718
H    -10.291921499999999  -2.949712999999999  -15.841520199999998
H    -11.155933999999998  -1.574482699999999  -15.1858034
