53

C    24.276  14.487  -12.031
C    25.4123385  15.452063299999999  -12.346567
C    26.7386442  13.449928199999999  -13.0077896
C    28.9966342  14.9566582  -14.124937500000001
C    27.8115143  15.3617489  -11.928143
C    28.8835706  16.4488503  -10.182767300000002
C    31.2543177  17.1554572  -10.428620500000001
N    27.7796761  15.8884408  -10.7011076
C    25.9195179  13.3508208  -14.292691900000001
C    24.5105291  12.8505907  -13.9861427
C    28.9013414  14.7341116  -16.351344
C    28.848516  15.673932599999999  -15.273445500000001
C    29.1657841  12.308237  -16.505746900000002
C    29.0980923  12.432037099999999  -17.881109900000002
C    28.9396164  13.6805148  -18.486447000000002
C    28.8375983  14.8342992  -17.7376074
O    31.477966000000002  17.2078376  -9.2174904
N    32.1891728  17.5723957  -11.3572211
C    33.4811394  17.8130605  -11.041794600000001
N    34.2090642  18.3441546  -11.990023
N    33.9935877  17.503049999999998  -9.867321
C    30.0492365  16.564353  -10.9859348
N    30.0577054  16.080637  -12.2438927
N    28.8480068  16.9291609  -8.938550000000001
N    26.6953294  14.7869131  -12.451875300000001
C    23.643915200000002  13.893035  -13.2872967
C    29.0006263  15.4495  -12.7191573
C    29.0721748  13.4753186  -15.7595171
O    29.1375082  13.6159552  -14.416232
H    23.499417700000002  15.0480661  -11.5058117
H    24.6146942  13.7045774  -11.3548988
H    25.506908  16.195072  -11.5529326
H    25.2053982  15.9768749  -13.286697400000001
H    27.7664584  13.135016  -13.124733800000001
H    26.3065608  12.7625356  -12.266348
H    26.4013431  12.6394405  -14.9675133
H    25.8891229  14.311846  -14.8037386
H    24.5793332  11.952538  -13.369074900000001
H    24.0187659  12.5644095  -14.9190924
H    28.7178832  16.7329274  -15.352670300000002
H    29.2938918  11.3518007  -16.0253035
H    29.170508  11.5491241  -18.4961333
H    28.8957686  13.7382838  -19.5631898
H    28.711932  15.7944058  -18.2135148
H    31.8886848  17.5439809  -12.3256239
H    35.19071  18.5365657  -11.854152200000001
H    33.8242143  18.5465992  -12.899296600000001
H    33.3716076  17.190924  -9.1292457
H    34.9514305  17.7300837  -9.6534904
H    29.7074655  17.2289289  -8.5022721
H    28.0051316  16.806724  -8.402691800000001
H    23.422193800000002  14.703976299999999  -13.9847339
H    22.693029199999998  13.4261336  -13.020717800000002
