57

N    11.966999999999999  -4.808  -1.206
C    11.2196335  -5.8194569  -0.7960314999999999
N    11.2721783  -7.0902552  -1.1801449
C    12.2155267  -7.335969499999999  -2.0986830999999997
C    13.048413  -6.337685  -2.6204699
C    12.9160366  -5.020035599999999  -2.1328994999999997
N    13.631526  -3.9432440999999994  -2.5092824
N    13.902970499999999  -6.8833457  -3.5384462
C    13.6161198  -8.145363699999999  -3.5690622999999997
N    12.5945804  -8.5002046  -2.7268155
P    17.1334083  -11.103098  -1.7253387999999998
P    18.0555341  -13.417141599999999  -0.1867357999999999
C    12.0807142  -9.826509399999999  -2.559081
O    17.6008409  -11.874699999999999  -2.9007655
O    17.9145169  -14.1194585  -1.4816961999999998
C    22.0078878  -9.795900099999999  -1.6515832999999998
O    23.1984499  -9.6683071  -2.3112994999999996
C    12.1845465  -10.580616599999999  -3.8677932999999998
O    10.9936073  -11.275972399999999  -4.1126587
O    17.6442929  -9.7175125  -1.5826935999999998
O    17.4922803  -14.149892699999999  0.9818943
C    22.2820356  -9.5779309  -0.14039369999999995
O    23.348709  -8.7229831  0.13515770000000016
C    13.4018832  -11.4911777  -3.6094951999999996
O    13.3347306  -12.6262338  -4.397650199999999
O    17.3817824  -11.909459  -0.29344419999999993
C    22.5574104  -11.0035671  0.29011770000000014
O    23.9014924  -11.261795  -0.005464999999999831
C    13.313969799999999  -11.787295799999999  -2.1026477
O    12.79233  -10.603779399999999  -1.5461174999999998
C    21.5546607  -11.7919407  -0.5886309999999999
O    21.5189995  -11.1347813  -1.8254605
C    14.695532499999999  -12.105262499999998  -1.5329696
O    15.5094627  -10.976560899999999  -1.7729864
C    20.1472362  -11.767757399999999  0.009720400000000184
O    19.6419303  -13.0805618  0.09040520000000019
H    10.4687763  -5.5906996  -0.05495609999999984
H    13.4938422  -3.0937447999999996  -1.9899611
H    14.420473399999999  -4.072330699999999  -3.117598
H    14.1659481  -8.846017999999999  -4.1613559
H    11.0438401  -9.741594899999999  -2.2112651
H    21.2349447  -9.113067399999998  -2.0415839
H    23.1025343  -9.9459863  -3.2356168
H    12.3720998  -9.9035388  -4.7100493
H    11.2028287  -12.060720199999999  -4.6490328000000005
H    21.3900014  -9.177799199999999  0.3440065000000001
H    24.1381722  -9.087485699999998  -0.30562259999999997
H    14.3297458  -10.9278511  -3.7787200999999997
H    14.1581411  -13.127960999999999  -4.3446593
H    22.3504576  -11.1771167  1.3529291000000003
H    24.122146  -12.180819999999999  0.20340350000000007
H    12.632325  -12.6276583  -1.9097384
H    21.8407202  -12.833251299999999  -0.7627152999999999
H    15.1349164  -12.9914956  -2.0072053999999997
H    14.6441764  -12.2914399  -0.4540097999999999
H    19.5132855  -11.146935899999999  -0.6321781999999998
H    20.1318187  -11.3371397  1.020305
