63

C    -30.050999999999995  6.324  -7.276
C    -36.278444099999994  2.7670619  -5.7251066999999995
C    -35.704651  1.7971867  -4.6955852
C    -31.748949499999995  0.40165289999999976  -5.0452718
C    -33.4300133  1.4260967999999998  -3.6825275
C    -34.306461999999996  1.3165437999999998  -4.7676543
C    -32.6891098  0.3272781  -6.0642428
C    -26.515203999999997  5.4101777  -6.3124779
N    -33.9325907  0.7609710999999999  -5.927262
C    -34.1610096  3.8506609  -6.4286901
C    -33.3295793  4.4935387  -7.3478246
C    -29.472727299999995  5.7842882  -6.1418506
C    -31.389376899999995  4.4385247  -5.7626687
O    -27.753028099999995  6.2517014  -4.1984607
S    -27.884093899999996  6.4131024  -5.6473834
O    -27.800467799999996  7.7595817  -6.2115778
C    -26.3489284  5.5276917999999995  -7.816333
O    -27.294613199999997  4.6900517  -8.442547
C    -30.125967999999997  4.8440632  -5.3652166
C    -31.998125599999998  4.9466744  -6.9225446
C    -31.308189499999997  5.906921199999999  -7.6708751
C    -35.4276103  3.4118790999999997  -6.77358
C    -35.893238  3.6266179  -8.079645
C    -37.2786249  3.2020237  -8.4620702
C    -37.291297799999995  1.8530836  -9.1828368
C    -38.748554199999994  1.4869737  -9.455268499999999
C    -38.969068199999995  -0.014953000000000216  -9.3794727
C    -40.403389499999996  -0.3530381  -9.759910699999999
C    -35.0766602  4.2772201  -9.0042189
C    -33.8053434  4.6965984  -8.650330199999999
C    -36.626644899999995  1.3162663000000001  -5.781754299999999
C    -32.135832199999996  0.9491812999999998  -3.8233268
H    -29.508365299999998  7.0796091  -7.8195632
H    -37.0393146  3.4326955  -5.3286829
H    -36.085676  1.8998544  -3.6875567
H    -30.746212699999997  0.0351897000000001  -5.1942041
H    -33.7640944  1.8695518  -2.7568778
H    -32.447110699999996  -0.09904920000000006  -7.0275431
H    -26.741298199999996  4.3890605  -6.020541
H    -25.647019799999995  5.7782157000000005  -5.7751871999999995
H    -33.8478399  3.7413295  -5.404337399999999
H    -31.884516199999997  3.6780714999999997  -5.1812191
H    -25.329826299999997  5.2234729  -8.0857354
H    -26.498222099999996  6.5782628  -8.1001115
H    -27.170576099999998  4.7205679  -9.4017283
H    -29.653207999999996  4.4656006999999995  -4.4747687
H    -31.756362399999997  6.3524829  -8.541610799999999
H    -37.7160921  3.9526187  -9.1248284
H    -37.898403599999995  3.1287968  -7.5707718999999996
H    -36.827822299999994  1.0988981  -8.549422999999999
H    -36.7194922  1.9099517  -10.1086669
H    -39.05122539999999  1.8528958  -10.4382088
H    -39.3943089  1.9646073  -8.7166315
H    -38.761148399999996  -0.3650975999999999  -8.3669447
H    -38.28136799999999  -0.5246796999999996  -10.0579428
H    -41.101504999999996  0.1470674999999999  -9.0921256
H    -40.6132972  -0.02973429999999988  -10.7770477
H    -40.5814968  -1.4246379  -9.699396499999999
H    -35.4436343  4.4487987  -10.004082
H    -33.18187519999999  5.1620691999999995  -9.3951732
H    -36.1446609  0.7247029  -6.5404108
H    -37.627219499999995  1.0023866  -5.5216487
H    -31.434324299999997  1.0147586  -3.0051921
