58

C    10.875  1.419  64.653
C    10.1379116  0.3288050000000001  63.848141000000005
C    10.451640000000001  0.0645612000000001  62.533600400000005
C    11.5228777  0.8144964000000001  61.72921660000001
C    12.9240472  0.22067360000000014  61.920273400000006
C    15.2808317  0.3631069000000001  61.4887713
C    16.4387495  0.5643031000000001  60.50442820000001
C    16.211947000000002  -0.1830179999999999  59.16765910000001
C    14.847008500000001  0.2654909000000001  58.622424800000005
C    13.7012516  0.11007410000000006  59.620113700000005
C    17.3007731  0.04361560000000009  58.116866
C    19.2075855  -0.03334429999999988  56.87834530000001
C    18.6301066  -0.5642811999999999  58.052283200000005
C    19.3891761  -1.4622690999999999  58.818575200000005
C    20.668248900000002  -1.8098659  58.427170700000005
C    21.2130642  -1.2631164999999998  57.2579841
C    20.5089377  -0.3720615999999999  56.46121060000001
C    9.7074164  -0.9896365999999999  61.80651220000001
C    7.8764593000000005  -2.7969227  61.84811810000001
C    7.2488359  -3.8541024999999998  62.77301870000001
C    6.432215  -3.131145  63.8313381
C    7.3498174  -2.1490408  64.6002703
C    8.4491035  -1.351762  63.837460500000006
F    22.4762278  -1.6346064999999999  56.9136706
N    13.9426216  0.7285952  60.95142440000001
N    17.1556068  0.8253378  57.07965850000001
N    8.685005100000001  -1.7086013  62.531359800000004
N    9.1274186  -0.40826169999999995  64.4586364
O    18.2940358  0.8043330000000002  56.30491930000001
O    9.9349143  -1.2694421999999999  60.62639300000001
H    11.9258395  1.1670001  64.7285569
H    10.754156  2.3733108  64.1515159
H    10.4418206  1.4718474000000001  65.6453587
H    11.5059634  1.8621896000000002  62.02376170000001
H    11.214709800000001  0.7246926  60.68686890000001
H    12.8682915  -0.8626304999999999  61.81511400000001
H    13.2667839  0.45400130000000005  62.928904
H    15.475615000000001  0.9531560000000001  62.383185000000005
H    15.239259  -0.6929783999999999  61.76258070000001
H    17.3533025  0.2164256000000001  60.981812500000004
H    16.5639717  1.6260067999999999  60.28363100000001
H    16.2029426  -1.2600083999999998  59.36534100000001
H    14.595000500000001  -0.3099483999999999  57.7336383
H    14.9427818  1.3056138000000002  58.307360100000004
H    13.529503400000001  -0.9555043999999999  59.7863612
H    12.7971746  0.5324990000000001  59.186156800000006
H    18.9767334  -1.8890620999999999  59.71880350000001
H    21.2596277  -2.4983728999999997  59.006596900000005
H    20.9358412  0.04143440000000009  55.5634858
H    7.0894306  -2.2809419  61.292312100000004
H    8.5612478  -3.2468342999999997  61.126553400000006
H    8.0314455  -4.4512032  63.242301600000005
H    6.630464600000001  -4.5032586000000006  62.157596700000006
H    5.999844  -3.8260834999999997  64.54736150000001
H    5.6217629  -2.5792834  63.353247700000004
H    7.900986400000001  -2.7048373  65.3632616
H    6.749886  -1.4102227999999999  65.1318112
H    13.876528500000001  1.7483035  60.86320550000001
