70

C    30.292  -30.648  -40.568
C    30.508733600000003  -30.637776300000002  -41.9628742
C    31.732422600000003  -30.1360591  -42.4260609
C    32.7134937  -29.7037325  -41.5489349
C    32.522497300000005  -29.718043  -40.150999999999996
C    31.2677197  -30.179069300000002  -39.7249007
O    33.8810073  -29.288229  -42.1051759
C    34.9210962  -29.0289959  -41.2766361
C    34.8153316  -28.8646454  -39.8731072
C    33.5720697  -29.2724055  -39.2211341
C    36.243765  -28.9216871  -41.6524506
N    36.945304  -28.6508712  -40.5198034
C    36.1324951  -28.595272400000002  -39.4262364
O    33.4194999  -29.307137400000002  -37.9947943
C    36.713669100000004  -28.2672147  -38.1564229
C    36.7918013  -29.0752625  -43.0351832
C    37.0285038  -30.5073337  -43.4789224
C    38.332398600000005  -31.0104848  -43.4890318
C    38.5225231  -32.3071676  -43.8997071
C    37.4624037  -33.1028192  -44.3202679
C    36.1736266  -32.626466  -44.3159236
C    35.976145800000005  -31.314653  -43.8899744
O    39.6843953  -33.044358  -43.920446
C    39.338836400000005  -34.2906271  -44.4984507
O    37.9347985  -34.346389200000004  -44.6741849
S    35.7721304  -28.2468682  -36.6837545
C    37.1820651  -27.724651  -35.8434407
C    38.229771  -27.6142587  -36.6998147
N    37.9640392  -27.922127200000002  -37.9898969
F    30.9731062  -30.1474698  -38.401529
N    29.602451600000002  -31.119346800000002  -42.8453969
C    28.3271836  -31.707644000000002  -42.5116917
C    28.4253529  -33.2316801  -42.2704415
N    27.9850688  -33.6508168  -40.9152417
C    28.1632952  -35.1112859  -40.6884878
C    27.072346200000002  -35.9440641  -41.3525838
N    25.7377921  -35.5282648  -40.879264
C    25.5462384  -34.1074074  -41.2243338
C    26.600698400000002  -33.250149900000004  -40.5427393
C    24.673225000000002  -36.3684102  -41.448602799999996
H    29.360447100000002  -30.9419067  -40.118906
H    31.946424800000003  -30.0880829  -43.4809703
H    37.938351600000004  -28.48073  -40.4602376
H    37.7317576  -28.5275377  -43.1073718
H    36.0714873  -28.6203185  -43.7178063
H    39.1724449  -30.4151515  -43.1713113
H    35.3562372  -33.2469585  -44.639232
H    34.9763528  -30.9123166  -43.8737898
H    39.6591175  -35.1010519  -43.8309109
H    39.8346536  -34.3946606  -45.4760991
H    37.1537813  -27.5380554  -34.7904958
H    39.2268735  -27.3094554  -36.440285
H    29.8567094  -31.0674789  -43.8187418
H    27.6533564  -31.5035715  -43.3435232
H    27.9403381  -31.1825939  -41.6395142
H    29.4668409  -33.5287698  -42.3937488
H    27.8313725  -33.7591203  -43.0143051
H    28.618527500000003  -33.1719615  -40.2628721
H    28.1595157  -35.2905788  -39.6109532
H    29.1344019  -35.4236549  -41.0722016
H    27.2452566  -36.9927166  -41.1060939
H    27.096217900000003  -35.8526898  -42.4392564
H    25.699663800000003  -35.6313945  -39.8563862
H    24.5614905  -33.7737137  -40.8938262
H    25.5839424  -34.0055453  -42.3098538
H    26.422578100000003  -32.209088300000005  -40.805792
H    26.5061579  -33.3373109  -39.457874
H    24.828142800000002  -37.4107761  -41.1824982
H    24.6678511  -36.2841971  -42.5325678
H    23.702584  -36.0573565  -41.0712812
