44

P    127.529  85.574  47.369
O    127.6884505  85.5435107  45.8643039
O    128.4763196  84.6825434  48.142072
O    126.112086  85.510574  47.8692508
O    128.1109075  87.1337814  47.7512417
P    127.16208850000001  88.4027216  47.665762300000004
O    125.9047363  88.21106970000001  46.899081800000005
O    128.0477459  89.5549831  47.3089183
O    126.84051480000001  88.6045696  49.2559923
P    125.4113304  88.4533406  50.0082443
O    124.3995884  87.6741571  49.251056000000005
O    125.739932  88.0926532  51.413900600000005
O    124.9667628  90.03626630000001  50.076718500000005
C    124.7689565  90.79422600000001  48.8930002
C    124.6933656  92.2754018  49.2761708
O    123.5272224  92.4851957  50.0656231
C    125.89342760000001  92.7742965  50.099057200000004
O    126.2472672  94.0841248  49.746962100000005
C    125.3544509  92.7573959  51.5414684
O    125.9641479  93.7294547  52.3415247
C    123.8698132  93.0880174  51.3038534
N    122.99502050000001  92.64908  52.3547041
C    122.8693584  91.3956174  52.908906
N    121.9795301  91.3431372  53.8565879
C    121.4581608  92.6171616  53.9515843
C    120.4433218  93.1851816  54.7996282
O    119.78649610000001  92.6253903  55.674615100000004
N    120.22008720000001  94.5379908  54.553099100000004
C    120.8852744  95.2669118  53.605158
N    120.5858965  96.5625722  53.4731757
N    121.820873  94.747094  52.8284704
C    122.0867724  93.43971230000001  53.0078704
H    123.8356983  90.46996700000001  48.420031900000005
H    125.5885722  90.59326800000001  48.1870132
H    124.5988378  92.8609804  48.353560800000004
H    126.7392308  92.0859951  49.9558502
H    126.4149352  94.57580730000001  50.580263900000006
H    125.4379796  91.7406648  51.939652900000006
H    126.7601669  93.3683704  52.7605291
H    123.7352103  94.1802545  51.2377454
H    123.44416840000001  90.5580619  52.5569732
H    121.0538076  97.06912750000001  52.741155400000004
H    119.82238050000001  96.9743254  53.9799728
H    119.5102894  94.97082300000001  55.135443800000004
