53

C    54.074  21.041  18.556
C    54.501357  24.6883433  19.559015300000002
C    55.1646793  23.3516036  17.505180600000003
N    52.6598517  17.142568  17.790581500000002
C    49.0714875  14.19405  25.1292343
C    47.6684618  14.904817400000002  23.442117200000002
C    47.6703036  16.326373200000003  22.909435000000002
C    48.9650233  16.787106700000002  22.209183900000003
C    49.1619878  16.1645456  20.8223854
C    49.8676051  17.1148585  19.850857400000002
C    49.8111281  16.608838700000003  18.4090397
C    50.2123453  17.678147000000003  17.3896973
C    51.6869054  17.955195800000002  17.32428
C    52.3207133  19.0517204  16.7532305
C    54.7161925  19.704134800000002  16.5237233
C    54.6654294  21.005977100000003  17.299497000000002
C    54.0137137  22.2214643  19.272993300000003
C    54.561185  23.3887918  18.756785400000002
C    55.2093638  22.1741008  16.7781854
C    46.3709158  16.268574  25.201347100000003
C    46.8670747  14.861769200000001  24.815325700000002
N    48.9807694  14.476175100000003  23.799218600000003
N    53.639533  18.8244413  16.9150673
N    53.8141622  17.6717249  17.548885700000003
N    47.8433206  14.381043600000002  25.728166800000004
O    50.0829596  13.802813  25.693363400000003
O    53.4343433  24.958316600000003  20.156502200000002
O    55.5221042  25.4130761  19.5753628
S    47.4407863  17.3857934  24.360519600000003
H    53.6609964  20.144484100000003  18.9948541
H    55.5996413  24.2617468  17.116984700000003
H    47.216681  14.227914600000002  22.7073982
H    46.8163927  16.490559500000003  22.2455615
H    49.8184092  16.600329900000002  22.8597009
H    48.8823426  17.8715584  22.099001700000002
H    48.1802365  15.928395600000002  20.403677300000002
H    49.7232879  15.232606800000001  20.890279200000002
H    50.907634800000004  17.2577299  20.149115400000003
H    49.3753102  18.090335500000002  19.898264200000003
H    48.788056  16.299551700000002  18.185373300000002
H    50.4668431  15.746056600000001  18.294316000000002
H    49.6984009  18.6178235  17.6045446
H    49.8988582  17.350516600000002  16.393805
H    51.940756300000004  19.9335607  16.2830334
H    55.6487208  19.174870400000003  16.736483900000003
H    54.6484094  19.9012001  15.451398600000001
H    53.5390508  22.259171300000002  20.2437094
H    55.6722215  22.164783500000002  15.802939100000003
H    46.0156344  14.172949300000003  24.753934200000003
H    49.7159403  14.278652500000002  23.147996400000004
H    47.729114100000004  14.355354400000001  26.7241199
H    45.3393459  16.4233963  24.8783363
H    46.445822  16.4380063  26.272325100000003
