51

C    13.919  -49.325  25.547
C    14.3757321  -47.10028580000001  24.9478544
C    15.6980808  -46.36086670000001  25.2105761
C    15.8663864  -47.71629360000001  23.095776
C    16.341612599999998  -48.884613800000004  22.272819
C    17.7955342  -48.74844350000001  21.8418706
C    18.165402699999998  -49.89821020000001  20.9095296
C    19.6414771  -49.820026600000006  20.503196
C    20.472357199999998  -50.8957114  21.2186646
C    20.307180199999998  -52.222312800000005  20.5454748
C    21.1074789  -52.738145  19.5439528
C    21.1372642  -54.821860400000006  18.2149477
C    20.8000958  -56.29931330000001  18.316577199999998
C    20.685311  -56.959568600000004  19.5354754
C    20.387097  -58.31415260000001  19.5776199
C    20.2131497  -59.041175800000005  18.408535999999998
C    20.347991099999998  -58.381812000000004  17.2011606
C    20.639569599999998  -57.02993670000001  17.138408599999998
C    14.519819  -48.01246410000001  23.7414676
F    20.180217  -59.08156280000001  16.0373159
N    13.9712985  -48.015750700000005  25.9898441
N    20.5886739  -53.948162200000006  19.239324099999997
N    19.513917199999998  -54.16089730000001  20.0000967
N    19.342016  -53.14033210000001  20.7835145
N    14.3047911  -49.33611810000001  24.2295041
O    13.5843972  -50.311300700000004  26.1936975
S    17.0307297  -47.31073000000001  24.4265325
H    13.590657  -46.345127500000004  24.812444799999998
H    15.911935199999999  -46.26982170000001  26.2724504
H    15.679090299999999  -45.370510700000004  24.757026
H    15.7806569  -46.81466270000001  22.4824086
H    15.7044407  -48.983808800000006  21.390937
H    16.2529117  -49.796863800000004  22.8652385
H    18.4369559  -48.75855070000001  22.725237399999997
H    17.9446375  -47.79687580000001  21.3273716
H    17.5306116  -49.84450480000001  20.022535599999998
H    17.967544  -50.85560470000001  21.3916747
H    20.039129799999998  -48.837830700000005  20.759983599999998
H    19.7541152  -49.94988310000001  19.4252322
H    20.1628875  -50.96471660000001  22.2608486
H    21.531170499999998  -50.63465910000001  21.1814409
H    21.9788348  -52.344075700000005  19.0650133
H    20.7974436  -54.45494190000001  17.2410364
H    22.2256861  -54.71018420000001  18.2612658
H    20.801943299999998  -56.410521300000006  20.4555982
H    20.288173  -58.81017370000001  20.5291907
H    19.977064  -60.09241430000001  18.4266669
H    20.7263365  -56.556375800000005  16.1728583
H    13.7524413  -47.780529900000005  22.9836046
H    13.861197  -47.76365380000001  26.9545469
H    14.1095279  -50.11926100000001  23.6333663
