243

C    4.543  29.157000000000004  5.321999999999999
O    5.5813253000000005  29.347234200000003  4.696228
C    4.051638700000001  30.0871998  6.396870199999999
N    3.7521052000000004  28.0982226  5.0759928
C    4.1093118  27.101610800000003  4.087179899999999
C    4.0014664  27.6146648  2.6491302999999995
O    4.706351400000001  27.1414605  1.7649464999999989
C    3.2280232000000004  25.856245100000002  4.2610313999999985
C    3.6132707  24.710151200000002  3.3592172
C    4.853741  24.089097700000003  3.4679180999999986
C    2.7186855000000003  24.223102200000003  2.4171046
C    5.200150600000001  23.0260052  2.6544992999999995
C    3.0475569000000005  23.150659700000002  1.6077946999999995
C    4.2930387  22.547369800000002  1.7161223999999997
O    4.652239000000001  21.499942200000003  0.9182427999999998
N    3.1052564000000005  28.5845565  2.4179522999999996
C    2.8789457000000005  29.058514000000002  1.067632399999999
C    2.2416436000000006  27.954862300000002  0.21610209999999874
O    1.5599321000000006  27.073539700000005  0.7225453999999996
N    2.4551920000000003  28.0439517  -1.107232400000001
C    2.0156999000000004  26.9962188  -2.0177327000000007
C    3.2386948  26.390600600000003  -2.7164170000000007
O    4.016088900000001  27.114237300000003  -3.344773300000001
C    1.0366113000000006  27.5239052  -3.079006800000001
C    0.5261211000000001  26.376388900000002  -3.9556789000000006
C    -0.6120215  26.763012200000002  -4.899502
N    -0.1780961999999997  27.5930368  -6.0035372
C    -0.30813869999999977  28.9134125  -6.063105700000001
N    -0.8973911999999995  29.580546400000003  -5.078624600000001
N    0.12237980000000004  29.574071100000005  -7.1343158
N    3.4145626000000004  25.073837600000004  -2.6258546000000003
C    4.5789698  24.443514200000003  -3.2366762000000007
C    4.429000200000001  24.427682500000003  -4.760313600000001
O    3.3171721000000005  24.472540900000002  -5.286081600000001
C    4.562044500000001  23.0191492  -2.6710057000000003
C    3.0772936000000004  22.762533500000004  -2.4616265000000004
C    2.5468453  24.103490200000003  -1.9700281000000004
N    5.5482592  24.3437164  -5.485147100000001
C    5.4633444  24.241527400000003  -6.9403141
C    4.7407104  22.956245600000003  -7.3533413
O    4.763428  21.948252600000004  -6.657600500000001
C    6.924451400000001  24.200952400000002  -7.408875900000001
C    7.7123119  24.817971600000003  -6.2575038
C    6.9242214  24.4202231  -5.014597800000001
N    4.1036478  23.010677700000002  -8.529503400000001
C    3.4410487000000005  21.831198300000004  -9.0747838
C    4.511213700000001  20.802801100000003  -9.460037900000001
O    5.5078034  21.1659414  -10.0928257
C    2.6312733000000006  22.248359100000002  -10.303895500000001
C    1.6955515000000005  21.1900006  -10.899126
C    0.4760604000000006  20.976487400000003  -10.0000429
C    1.2551195000000006  21.6545257  -12.287932600000001
N    4.3352789000000005  19.530354000000003  -9.1021555
C    5.410734100000001  18.5678294  -9.3179201
C    5.502714200000001  18.138903100000004  -10.7831579
O    4.503143100000001  18.0792755  -11.4967567
C    5.018745200000001  17.365168800000003  -8.4476636
C    3.5044699  17.4562987  -8.384632400000001
C    3.2377038000000002  18.9564136  -8.3306242
N    6.7129342  17.7759931  -11.221868500000001
C    6.867101  17.180063000000004  -12.543846
C    6.2295287  15.787656200000002  -12.5693351
O    6.088789800000001  15.114308400000002  -11.5566913
C    8.3850439  17.0899974  -12.739087900000001
C    8.9223183  16.978566800000003  -11.318566
C    7.9752028  17.844004100000003  -10.4961339
N    5.8359015  15.366071800000002  -13.7785148
C    5.328574000000001  14.018728100000002  -13.9734119
C    6.481054100000001  13.109192700000001  -14.410072800000002
O    7.2542516  13.454545500000002  -15.298259600000002
C    4.2093926  14.011485000000002  -15.015999700000002
C    2.9713101  14.716945300000003  -14.4753792
C    1.7968482000000003  14.660110000000003  -15.4472886
C    0.5318772000000003  15.144837200000001  -14.746037600000001
N    -0.6329005999999993  15.092337500000003  -15.662728600000001
N    6.584233800000001  11.940873700000003  -13.7641217
C    7.686221300000001  11.026270000000002  -13.985944400000001
C    7.1634476000000005  9.644210600000001  -14.408882900000002
O    5.9665619  9.398759800000002  -14.4823773
C    8.5601317  10.915903900000004  -12.725261500000002
C    8.887351200000001  12.296428800000001  -12.1476675
C    10.2333528  12.340160200000003  -11.4508723
O    10.348028800000002  12.664185600000003  -10.2744514
N    11.2843767  12.004302300000003  -12.211987400000002
N    8.1086392  8.745288100000002  -14.710950500000001
C    7.775170800000001  7.384355300000003  -15.112961
C    6.9675988  6.699187300000002  -14.001222
O    7.2771163  6.804525400000003  -12.82068
C    9.057049899999999  6.595299600000002  -15.3895385
C    8.794159700000002  5.190743800000002  -15.9300076
C    10.107024500000001  4.4266504000000015  -16.114493500000002
C    9.8474289  3.0243582000000018  -16.6571175
N    11.0962305  2.2214772000000025  -16.7141995
N    5.9122247  5.9885442000000015  -14.4149103
C    4.965911  5.413202900000002  -13.4830935
C    5.1800487  3.9073812000000014  -13.3170645
O    5.814790400000001  3.2341118000000026  -14.1188192
C    3.5288545000000004  5.709028600000002  -13.9343896
C    3.15071  7.152555600000003  -13.604568800000001
C    1.8198593000000005  7.574543600000002  -14.218051800000001
N    1.5564807000000003  8.967259100000003  -13.8878473
C    0.5743206000000001  9.693006100000002  -14.4079914
N    0.42784890000000075  10.971970500000001  -14.0520621
N    -0.24998629999999977  9.167824100000002  -15.306033200000002
N    4.645809300000001  3.407237000000002  -12.195730600000001
C    4.6978074  1.9891382000000029  -11.9088159
C    3.5748630000000006  1.2700618000000023  -12.664944600000002
O    2.4276511000000003  1.7023228000000028  -12.647817400000001
C    4.5615106  1.724038400000003  -10.4029938
C    5.8547314  1.2208016000000015  -9.7730973
C    6.2799342000000005  -0.11514439999999837  -10.3798732
C    7.6371669  -0.5694881999999986  -9.8669094
N    7.611609700000001  -0.7646238999999966  -8.396338700000001
N    3.9311588000000004  0.16028490000000062  -13.3124656
H    3.1087960000000003  29.763718800000003  6.823220299999999
H    3.9470231000000005  31.084970100000003  5.9772757
H    4.8051602  30.145940000000003  7.179036099999999
H    2.9255200000000006  27.938741300000004  5.631646
H    5.1673007  26.8389595  4.2180719
H    2.1902894000000006  26.129373200000003  4.060374699999999
H    3.3143788000000005  25.530487900000004  5.301021799999999
H    5.565529100000001  24.439177100000002  4.201133199999999
H    1.7550535000000003  24.6967217  2.299454599999999
H    6.166975600000001  22.5552992  2.738036899999999
H    2.3234421000000003  22.770067500000003  0.9015437999999989
H    3.8737780000000006  21.1484819  0.46107569999999853
H    2.4608910000000006  28.8523073  3.144680599999999
H    3.8417954000000005  29.3402885  0.6344946
H    2.2194632000000003  29.924692500000003  1.104285299999999
H    3.1178705000000004  28.710465300000003  -1.4769797000000011
H    1.5186304000000006  26.259534100000003  -1.3842144000000003
H    1.5590655000000004  28.2675112  -3.6830616000000003
H    0.20846320000000063  27.9985602  -2.551173800000001
H    0.13889060000000075  25.593651100000002  -3.301810400000001
H    1.3557556000000006  25.951102900000002  -4.5250415
H    -1.418723  27.2446056  -4.350122200000001
H    -1.0149002999999999  25.843614000000002  -5.3309315
H    0.37709980000000076  27.129009200000002  -6.706296700000001
H    -1.0267979999999994  30.575518600000002  -5.144856800000001
H    -1.1554978  29.131883900000002  -4.218979300000001
H    0.5435927000000005  29.090106400000003  -7.9076884000000005
H    0.018497100000000266  30.571690200000003  -7.199286700000001
H    5.4692099  25.008814900000004  -2.9530672000000004
H    5.099953  22.993633900000003  -1.7227549000000009
H    5.0151352000000005  22.308398600000004  -3.3596744000000003
H    2.8850827000000003  21.958176700000003  -1.7582768000000009
H    2.6176497000000003  22.516675900000003  -3.4196848000000006
H    1.5068978000000004  24.247885000000004  -2.253915000000001
H    2.6532566000000006  24.2067286  -0.8845156000000003
H    4.9191481  25.1101902  -7.325131300000001
H    7.0654405  24.734930500000004  -8.3445473
H    7.2229536  23.160850000000003  -7.5561062
H    7.7230305  25.903868000000003  -6.353680100000001
H    8.7383132  24.462178100000003  -6.220903400000001
H    7.240677  23.4421217  -4.637705100000001
H    7.0251302  25.157934400000002  -4.2194906
H    4.2580105  23.7876714  -9.152918600000001
H    2.8098924000000007  21.4341575  -8.277099100000001
H    3.3551879000000007  22.545699300000003  -11.068782200000001
H    2.0383276000000006  23.125218200000003  -10.035238600000001
H    2.2518340000000006  20.251833800000004  -11.004627300000001
H    -0.11718219999999935  20.139684000000003  -10.3573992
H    -0.14869109999999974  21.866643600000003  -10.01069
H    0.7642662000000002  20.7817474  -8.971455
H    2.1108517000000004  21.728386200000003  -12.9543464
H    0.7791401000000002  22.6302716  -12.227696400000001
H    0.5448819  20.951473200000002  -12.713112500000001
H    6.3496541  19.038885200000003  -9.0164024
H    5.4552332  17.478536100000003  -7.4549811
H    5.3663012000000005  16.429828600000004  -8.884739900000001
H    3.0894102000000006  16.935151500000003  -7.5266549000000005
H    3.081094  17.0470298  -9.3018084
H    2.2791974000000006  19.2134165  -8.7758713
H    3.2863225000000007  19.334453600000003  -7.303182100000001
H    6.3756477  17.8160081  -13.2863713
H    8.7465108  18.004714600000003  -13.2088866
H    8.6666162  16.241875800000003  -13.360554200000001
H    9.9538714  17.310598600000002  -11.2354226
H    8.861997  15.944333400000001  -10.975014100000001
H    7.8692224  17.4618843  -9.4811163
H    8.3122171  18.8858634  -10.4576363
H    6.091508800000001  15.885401300000002  -14.6051388
H    4.9569505000000005  13.698572500000003  -12.9954484
H    3.9810036  12.973048400000003  -15.260083400000001
H    4.574625500000001  14.493796800000002  -15.923929000000001
H    3.2203004  15.753251300000002  -14.240459000000001
H    2.6894818000000003  14.239992900000003  -13.5352423
H    1.6704495000000006  13.631009800000003  -15.784271100000002
H    2.0193450000000004  15.280985200000002  -16.3147071
H    0.6726020000000004  16.1672271  -14.3966834
H    0.3292270000000004  14.516481700000002  -13.879610200000002
H    -1.5011802999999997  15.325468800000003  -15.1683044
H    -0.7191093999999998  14.159490700000003  -16.0816205
H    -0.5096064999999994  15.765619900000003  -16.428028
H    5.935485900000001  11.699766400000001  -13.030804100000001
H    8.2630918  11.453440800000003  -14.815288500000001
H    9.4837872  10.396119800000001  -12.9725872
H    8.0416272  10.319820300000003  -11.9723313
H    8.1303526  12.628714300000002  -11.437708200000001
H    8.9294972  13.030458800000002  -12.958138100000001
H    12.2075285  12.083617000000002  -11.8163058
H    11.1963909  11.911689100000002  -13.2093521
H    9.081563  8.959877900000002  -14.562877700000001
H    7.1561516  7.443343400000002  -16.0158326
H    9.6139953  6.525992500000003  -14.4517421
H    9.6585406  7.154369200000001  -16.1085882
H    8.2764262  5.263162000000003  -16.887645300000003
H    8.1496063  4.644109700000003  -15.238925700000001
H    10.6096955  4.3658186000000025  -15.148306100000001
H    10.7492579  4.983757400000002  -16.797789700000003
H    9.4229505  3.090563200000002  -17.658569
H    9.127966  2.517068000000002  -16.0136166
H    10.905499200000001  1.282590100000002  -17.081642700000003
H    11.5074286  2.133399400000002  -15.777407400000001
H    11.7840579  2.676672700000003  -17.3254568
H    5.728050700000001  5.864517500000002  -15.3986126
H    5.171172400000001  5.887001700000003  -12.515804000000001
H    2.8397681000000006  5.016863700000002  -13.446665200000002
H    3.4583415000000004  5.530808100000002  -15.008770600000002
H    3.9397551  7.814752700000001  -13.9732494
H    3.1003347000000003  7.260781600000003  -12.519667000000002
H    1.0159106000000002  6.937527300000003  -13.8334977
H    1.8798778000000005  7.456048400000002  -15.3040929
H    2.1839640000000005  9.390976500000003  -13.222028600000002
H    -0.4352114999999994  11.440006300000002  -14.2692178
H    0.9795877000000006  11.346173500000003  -13.298630300000001
H    -0.16727129999999946  8.208687800000002  -15.5918804
H    -1.0070742  9.705366600000001  -15.6923723
H    4.0137540000000005  3.9700044000000023  -11.647009400000002
H    5.6617031  1.6557159000000023  -12.300659300000001
H    3.7673440000000005  0.9910452000000021  -10.2429424
H    4.2454919  2.6423048000000016  -9.9079952
H    5.6690354  1.123367400000003  -8.704272000000001
H    6.635521300000001  1.9673669000000018  -9.9279772
H    6.3554066  -0.03026769999999601  -11.4602628
H    5.521359800000001  -0.8693576999999983  -10.166394400000001
H    8.3938475  0.17831930000000185  -10.104323500000001
H    7.9138887  -1.5106083999999989  -10.341166000000001
H    8.5027473  -1.1486462999999993  -8.062835300000001
H    6.8610188  -1.4161634999999961  -8.1389768
H    7.4445423  0.12806630000000396  -7.919536300000001
H    3.2304571000000006  -0.34815619999999825  -13.829002500000001
H    4.889701400000001  -0.13148749999999865  -13.391081100000001
