34

C    53.477  45.019  164.86
C    55.437583599999996  40.5840807  166.3825741
C    55.4559479  38.2839037  165.677841
C    51.067157099999996  43.9947664  167.7417804
C    52.0191684  42.9813838  168.3690594
C    52.7924885  42.1920274  167.2762036
C    52.594631199999995  44.0426852  165.73208010000002
C    51.826796099999996  44.8842632  166.7639713
C    54.334652299999995  40.342596300000004  167.2058519
C    55.99009649999999  39.5672767  165.6219692
C    54.366090099999994  38.0240675  166.5250064
C    53.8150633  39.0450238  167.28564640000002
N    56.041407199999995  37.2523807  164.8589526
O    50.48332729999999  44.7753626  168.76348760000002
O    51.2568862  42.111964  169.1680972
O    53.4322629  43.0537976  166.33231840000002
O    50.887302999999996  45.722863000000004  166.1443031
O    52.909012399999995  46.0630055  164.4709461
O    54.650517799999996  44.7038233  164.6251264
O    53.758787899999994  41.386388000000004  167.9451446
O    56.92692529999999  37.5259814  164.0383265
O    55.62474339999999  36.1198879  165.0173712
H    55.81758119999999  41.5919631  166.31404270000002
H    50.281478899999996  43.4506161  167.1949477
H    52.7568754  43.528715500000004  168.97053590000002
H    52.078059999999994  41.5406062  166.7367431
H    51.865514899999994  43.5525594  165.0646924
H    52.560770899999994  45.4847557  167.33096890000002
H    56.83071029999999  39.7649133  164.9749055
H    53.95987709999999  37.0250974  166.5666424
H    52.96887399999999  38.8476761  167.9227984
H    49.96906059999999  45.4756647  168.33292640000002
H    51.845256199999994  41.628779200000004  169.7668767
H    51.365110699999995  46.1604639  165.4027053
