26

O    9.174  -2.963  1.109
S    9.2548288  -1.6415102  0.5198701999999997
O    8.2046545  -1.4321185  -0.4567023000000001
O    9.2938508  -0.5393839  1.4601900999999997
O    10.6932047  -1.5570145  -0.19116900000000014
N    10.9149314  -2.5603976  -1.1987488000000002
C    11.5145162  -2.0413132999999997  -2.4450228000000003
C    12.7217932  -1.1096544  -2.2110193000000002
C    12.3993375  0.37901950000000006  -2.0097979
C    11.4655524  0.8754127  -3.1115603000000003
C    12.1314692  0.8785848  -4.3980093
N    12.6517709  0.8587560000000001  -5.415381200000001
N    10.3038023  -0.005833599999999994  -3.1910607000000004
C    9.0840095  0.4513167  -2.9050683
O    8.8209715  1.5201630000000002  -2.3788444
C    10.5447154  -1.413291  -3.4512331000000005
H    9.985996  -2.9493361  -1.3568372000000002
H    11.8887145  -2.969986  -2.8892889000000004
H    13.370103799999999  -1.2072581  -3.0835866000000003
H    13.257152  -1.4739706  -1.3354050000000002
H    13.3233173  0.9548287  -2.0039121
H    11.8883661  0.5118862  -1.0527415000000002
H    11.0892703  1.8814519  -2.8901920000000003
H    8.2888834  -0.28309219999999996  -3.1151691
H    9.5851687  -1.9318661  -3.4262791000000004
H    10.9796833  -1.5095456  -4.4530335
