31

C    142.197  28.219  -11.422
C    142.150658  29.4989817  -9.415204600000001
C    137.9680747  31.0235402  -7.291139900000001
C    135.7883828  30.1083614  -8.003482300000002
C    138.6797703  31.8891323  -6.441251600000001
C    140.06682999999998  31.9464853  -6.554965500000001
C    140.74992469999998  31.1950496  -7.491796600000001
C    140.0629251  30.3357469  -8.3524267
C    140.7526911  29.5616114  -9.4104618
C    140.1218594  28.916108  -10.485344600000001
C    140.8178972  28.244963900000002  -11.4794329
C    142.8711301  28.8481661  -10.395273000000001
C    138.68073099999998  30.274430900000002  -8.212749800000001
C    134.2709516  30.1849381  -7.903265600000001
F    138.769495  28.904130900000002  -10.636316500000001
F    142.9131344  27.5650161  -12.3788588
N    136.5525824  30.934881100000002  -7.2422684
O    137.99769899999998  32.6424449  -5.537193100000001
O    136.222974  29.281813500000002  -8.7943612
S    133.66705159999998  31.1349253  -6.485552400000001
H    142.7028933  29.9535397  -8.612454900000001
H    140.6174785  32.6077374  -5.903370500000001
H    141.81725169999999  31.3189815  -7.548231400000001
H    140.2763636  27.762482600000002  -12.2763182
H    143.9479055  28.816828400000002  -10.364530700000001
H    138.1196644  29.6048656  -8.829460800000001
H    133.8656326  29.1754353  -7.890141000000001
H    133.90201639999998  30.696609900000002  -8.793598900000001
H    136.0858566  31.5745596  -6.605630800000001
H    138.6035765  33.2005662  -5.026795100000001
H    133.93542359999998  30.231047  -5.552872400000001
