53

C    -27.775  23.727  6.866
C    -27.97928  22.4958429  4.4081456
C    -23.7952241  25.8343621  3.1779960999999997
C    -22.6566762  25.2281731  0.48588770000000014
C    -21.512980499999998  26.2345419  0.4893304999999999
C    -21.421372799999997  26.9517445  1.8300172999999997
C    -24.7450822  20.3563177  3.3115857
C    -23.343135099999998  19.1655185  7.7713412
C    -23.518560299999997  18.794225400000002  6.3163307
C    -24.058110999999997  19.6754898  5.3791993
C    -24.918240299999997  21.36837  4.235442
C    -25.5014455  22.7090605  3.997257
C    -26.728527  22.8968909  4.8575735
C    -26.643922599999996  23.5105279  6.0993653
C    -29.014595099999998  23.3268945  6.397198899999999
C    -29.118239199999998  22.706060700000002  5.1642824
C    -24.9942739  24.9241189  3.4040882999999997
C    -22.567031999999998  24.2977523  1.6899796999999999
C    -21.374627699999998  25.9509754  2.9815432
C    -24.187911399999997  19.2567911  4.0309058
C    -23.317955799999996  17.2147572  4.5190802
C    -23.144692799999998  17.5381784  5.8637741
N    -24.506897799999997  20.9569394  5.4740939
N    -22.5565838  25.0641462  2.9539365
N    -23.820177499999996  18.0370815  3.6167331
O    -24.017093499999998  20.1309391  8.2026968
O    -24.584789299999997  23.7789454  4.1569636
O    -22.539144899999997  18.4944884  8.4539247
Cl    -28.1457819  21.7095154  2.867089
H    -27.6863088  24.204032  7.8289930000000005
H    -23.636523699999998  26.4438175  4.0698125
H    -24.0030035  26.4881546  2.3367177
H    -22.602001199999997  24.617568  -0.41581139999999994
H    -23.616759199999997  25.7413957  0.45811210000000013
H    -21.6494461  26.958218600000002  -0.31321319999999986
H    -20.574719199999997  25.7090896  0.2992441999999995
H    -22.2535717  27.642800100000002  1.9511105999999998
H    -20.508343399999998  27.5465391  1.8625948
H    -24.9795998  20.381887  2.2687212
H    -25.8347569  22.698954  2.9459156
H    -25.6756389  23.8294165  6.4544327
H    -29.901556699999997  23.4926138  6.9872349
H    -30.0772612  22.387134800000002  4.7882741
H    -25.412304199999998  24.5887045  2.4465516999999997
H    -25.782173399999998  25.465992200000002  3.9383675
H    -21.642289599999998  23.7208036  1.6381755
H    -23.399467499999997  23.595052  1.7032916
H    -21.337191599999997  26.4730847  3.937735
H    -20.480838999999996  25.3318687  2.8901985
H    -23.034364099999998  16.2395988  4.146158
H    -22.720000999999996  16.8396702  6.5690334
H    -24.566557699999997  21.4475599  6.3538735
H    -22.515262399999997  24.3865122  3.7250459
