199

N    51.093  8.285999999999998  3.423
C    49.75588380000001  8.617986199999997  2.8663787000000003
C    49.5148762  10.139923499999997  2.9407566999999997
O    48.51790270000001  10.604576599999996  3.4616032000000008
C    48.656150700000005  7.884136199999997  3.6332188
C    48.7008037  6.364857399999998  3.4621411999999996
C    49.8272307  5.720017399999996  4.249576300000001
O    50.1675351  6.137686199999997  5.354695400000001
N    50.46490730000001  4.715650199999995  3.6373333
N    50.507574500000004  10.883741799999997  2.4202054000000004
C    50.44057660000001  12.331594699999997  2.4152451
C    50.08238000000001  12.830938399999997  1.0158516000000004
O    50.514972500000006  12.289622699999997  0.005898800000000648
C    51.796121500000005  12.947402099999996  2.8258526
C    51.95617000000001  13.096082799999998  4.316460600000001
C    52.2731331  12.011592799999997  5.122145100000001
C    51.803074200000005  14.339118299999997  4.9216502
C    52.428872600000005  12.153620799999997  6.487455300000001
C    51.9598292  14.497795199999997  6.2848445
C    52.273457400000005  13.399481199999997  7.0795198
O    52.4245518  13.576193899999996  8.4229889
N    49.2763648  13.899771799999996  0.9966245000000002
C    48.9014437  14.537663299999997  -0.2348094999999999
C    49.77106570000001  15.782133999999996  -0.5176756999999998
O    50.70214730000001  16.062929099999998  0.42851260000000035
C    47.45391480000001  15.008964899999997  -0.2688326999999999
C    46.489232  13.930768999999996  0.17974479999999993
S    44.781909500000005  14.315194399999998  -0.33109520000000003
C    44.899965800000004  13.893944099999997  -2.0899473
C    50.8021699  17.619770199999998  -2.7099892
O    49.65664220000001  17.6224799  -3.146832
C    51.439996300000004  16.343581299999997  -2.2317582999999996
N    50.369150700000006  15.459935999999997  -1.8139456999999997
C    52.182900800000006  15.637959599999997  -3.3461599
C    53.240213100000005  14.733067699999998  -2.7312255999999997
C    53.9044923  13.918749399999998  -3.8259345
N    54.8865941  13.001754599999996  -3.2596726
C    55.5053405  12.072806299999996  -4.0551756999999995
O    55.19426610000001  11.941252099999996  -5.2412959
N    56.4289519  11.239637399999998  -3.4751851
N    51.474172900000006  18.719916799999996  -2.3875585999999998
C    50.9929975  19.934415799999996  -3.0000725
C    51.89084450000001  20.258152699999997  -4.1919883
O    53.050628100000004  19.862744499999998  -4.233943699999999
C    50.972236900000006  21.076707499999998  -1.9982794999999998
N    51.3036218  20.951002199999998  -5.1707563
C    52.039216100000004  21.396361999999996  -6.3375974
C    52.546211400000004  22.8218087  -6.1066684
O    51.853611400000005  23.6594186  -5.5367435
C    51.149458200000005  21.356728199999996  -7.5741111
C    51.9708151  21.581094799999995  -8.874991099999999
O    51.533171800000005  22.422169599999997  -9.6797458
O    53.001698600000005  20.893485899999998  -9.0204291
N    53.80238190000001  23.056354599999995  -6.5020077
C    54.44369520000001  24.338209399999997  -6.2576129
C    53.85798140000001  25.422217699999997  -7.1651161
O    53.6167998  25.216356199999996  -8.3486298
C    55.95014760000001  24.204911599999996  -6.5116534999999995
C    56.71179480000001  25.530587499999996  -6.5491091
C    57.114315000000005  26.019096399999995  -5.167692499999999
O    57.2321426  25.2509651  -4.218614
N    57.37916870000001  27.326029199999997  -5.0781822
N    53.652222900000005  26.609912099999995  -6.576461
C    53.268179  27.780232599999998  -7.3470881
C    54.532217800000005  28.4225717  -7.9323978
O    55.5371153  28.5882193  -7.2440002
C    52.53307780000001  28.784137099999995  -6.4671997999999995
N    54.478506  28.7576586  -9.2216773
C    55.631925700000004  29.310271599999997  -9.912889400000001
C    55.702753400000006  30.825161699999995  -9.6759637
O    54.731287800000004  31.5471795  -9.864715499999999
C    55.540182400000006  29.026549599999996  -11.4073007
N    56.8787056  31.285925399999996  -9.232578199999999
C    57.062354500000005  32.6976143  -8.955459
C    57.178360600000005  33.49977319999999  -10.2538624
O    57.94763640000001  33.1612082  -11.1460006
N    56.3535376  34.548065199999996  -10.357974299999999
C    56.322583300000005  35.356177599999995  -11.554021299999999
C    57.5682139  36.2340417  -11.7051939
O    58.40334060000001  36.3573896  -10.819532599999999
N    57.688058700000006  36.804356  -12.9139297
C    58.810851500000005  37.675358499999994  -13.218722699999999
C    58.670940400000006  38.9922221  -12.433933199999998
O    57.574091100000004  39.505299199999996  -12.2645851
C    58.852842  37.9207384  -14.7336717
C    60.0128404  38.7755715  -15.2619569
C    61.3656663  38.2608652  -14.7815155
C    59.978796700000004  38.778644199999995  -16.7920369
N    59.84764070000001  39.546954799999995  -12.078889
C    59.984462900000004  40.70057369999999  -11.1981843
C    59.63366860000001  40.3165899  -9.721532700000001
O    60.31341630000001  40.8478693  -8.82299
C    59.1198581  41.895338699999996  -11.6232563
C    59.1607411  42.2061267  -13.1212007
C    60.586639600000005  42.315563  -13.6443886
N    60.606319500000005  42.2915292  -15.0962545
C    61.713753000000004  42.1441252  -15.8160061
N    62.8947099  42.025069599999995  -15.2213875
N    61.640569400000004  42.1191142  -17.1434658
O    58.71304790000001  39.5077765  -9.531504
H    51.5319384  7.5064655999999985  2.9193297000000005
H    50.9882738  7.986727999999998  4.407888700000001
H    51.729039300000004  9.092823999999997  3.3953313000000005
H    49.720988600000005  8.332262199999997  1.8100665000000005
H    47.694966400000006  8.261988399999996  3.2868347
H    48.72737860000001  8.127210099999997  4.695182600000001
H    48.76405200000001  6.093467699999998  2.409147
H    47.7738512  5.946428299999997  3.8586174
H    51.1347542  4.179823899999995  4.168699
H    50.0939704  4.299574599999996  2.7992553000000004
H    51.137631600000006  10.496577899999997  1.7275388000000005
H    49.6619905  12.617212299999997  3.1278331
H    51.8726246  13.935810699999998  2.3709803000000003
H    52.59823540000001  12.331406899999998  2.4192215
H    52.4256334  11.040730099999998  4.680052700000001
H    51.5655726  15.204765499999997  4.3230170999999995
H    52.681293100000005  11.298523799999996  7.0972840999999995
H    51.847806500000004  15.462290199999996  6.7550422
H    52.636110300000006  12.736774699999996  8.8566985
H    49.0052656  14.339624299999997  1.8630203000000005
H    49.043397000000006  13.763891699999997  -0.9966023000000002
H    49.1130793  16.644673299999997  -0.6918882999999996
H    50.768309800000004  17.005666199999997  0.6238419000000004
H    47.21513710000001  15.312205099999996  -1.2876086999999998
H    47.313759000000005  15.876323099999997  0.37750410000000034
H    46.447855600000004  13.838095999999997  1.2622536000000002
H    46.73840260000001  12.959400999999996  -0.24843189999999993
H    43.884796900000005  13.905631899999998  -2.4741864
H    45.3203  12.898958599999997  -2.1951083
H    45.4916259  14.632716499999997  -2.6213626999999997
H    52.109856900000004  16.537510399999995  -1.3902276999999996
H    49.63868850000001  15.526229499999998  -2.5430154999999997
H    50.7395885  14.497262999999997  -1.7938452999999996
H    52.67629  16.367889899999998  -3.9939181999999995
H    51.4991064  15.077336599999997  -3.9821009999999997
H    52.803772800000004  14.042858099999997  -2.0064502999999996
H    53.995116800000005  15.337565799999997  -2.2289339999999997
H    54.3835442  14.580472999999998  -4.560994
H    53.1800666  13.310443099999997  -4.374047099999999
H    55.3379897  13.286761099999996  -2.4051047
H    56.95345340000001  10.664984099999996  -4.1108296
H    56.855174100000006  11.481963499999997  -2.597704
H    52.476052800000005  18.693901299999997  -2.236938
H    49.9791237  19.739630399999996  -3.3630563999999996
H    50.6764372  22.000259999999997  -2.4893102999999996
H    51.963498200000004  21.227456899999996  -1.5772500999999997
H    50.26821150000001  20.864373499999996  -1.2004305
H    50.398358  21.375978399999997  -5.0327442
H    52.88773810000001  20.719575099999997  -6.4815879999999995
H    50.381250400000006  22.130945199999996  -7.5273999
H    50.680118500000006  20.374655199999996  -7.656462899999999
H    54.220922800000004  22.432185299999997  -7.177380899999999
H    54.242560700000006  24.598369199999997  -5.2127266
H    56.06602410000001  23.706888299999996  -7.4771435
H    56.385159300000005  23.576449999999998  -5.732969
H    56.161632000000004  26.304910999999997  -7.0779293999999995
H    57.64716010000001  25.366738999999995  -7.0902291
H    57.6367345  27.709746599999995  -4.1825842
H    57.1006294  27.953998099999996  -5.8174009
H    53.9348565  26.758395899999996  -5.6194134
H    52.6299143  27.420899  -8.1604472
H    52.210677700000005  29.630731399999995  -7.0663563
H    53.19834410000001  29.143946199999995  -5.686116
H    51.6646823  28.312932599999996  -6.0170981
H    53.6224921  28.6604398  -9.7457469
H    56.51675710000001  28.834371199999996  -9.477606
H    56.438579600000004  29.380398899999996  -11.9045566
H    54.6841914  29.550513099999996  -11.8262892
H    55.431566000000004  27.959295199999996  -11.5791739
H    57.6882457  30.686657399999998  -9.2144881
H    57.97801140000001  32.8268595  -8.3794653
H    56.202958  33.0464427  -8.3798247
H    55.854401300000006  34.8782916  -9.547898199999999
H    55.4345221  35.9867511  -11.531574299999999
H    56.283710500000005  34.6823373  -12.4151639
H    56.890524600000006  36.8370436  -13.530870499999999
H    59.707082500000006  37.14956479999999  -12.8749356
H    57.909503300000004  38.397527  -15.0123277
H    58.89150780000001  36.9387799  -15.211243
H    59.87550410000001  39.7944706  -14.893823
H    62.166060900000005  38.7566091  -15.324088999999999
H    61.44869320000001  37.1911862  -14.963368
H    61.51405450000001  38.4360976  -13.7222814
H    59.018398000000005  39.1346948  -17.1547248
H    60.13057860000001  37.770483799999994  -17.1691665
H    60.7653991  39.41398289999999  -17.1849904
H    60.606950700000006  38.8897116  -11.9717543
H    61.042244000000004  40.98037839999999  -11.187781600000001
H    59.4604451  42.749518699999996  -11.033653900000001
H    58.08831610000001  41.6825592  -11.335308999999999
H    58.61326450000001  43.133200099999996  -13.289872899999999
H    58.636557800000006  41.399828299999996  -13.6365633
H    61.15305910000001  41.458073999999996  -13.2752984
H    61.04104600000001  43.2377999  -13.2669327
H    59.724642200000005  42.427113899999995  -15.5663398
H    63.7293834  41.889013899999995  -15.7653216
H    62.97646700000001  42.0404166  -14.2209747
H    60.756775600000005  42.212223699999996  -17.6127529
H    62.4708461  42.0304678  -17.7035588
