143

N    -34.081  38.622  0.3149999999999995
C    -34.5940938  38.4428453  -1.0601866000000015
C    -33.42457580000001  38.654236  -2.0275633000000006
O    -32.526069400000004  39.4458609  -1.7399748000000006
C    -35.713052700000006  39.4577714  -1.3792418000000009
C    -35.2730851  40.8811046  -1.0168668000000007
C    -37.004585600000006  39.0585298  -0.6670431000000008
C    -36.148665300000005  41.9476601  -1.6563583000000008
N    -33.440074300000006  37.9265513  -3.138833
C    -32.3780306  38.0556346  -4.121371000000001
C    -32.6316654  39.2502664  -5.04623
O    -33.691148000000005  39.8606278  -5.049103000000001
C    -32.4534778  36.7376224  -4.894969100000001
C    -33.945716700000006  36.4316009  -4.887281000000001
C    -34.425617800000005  36.9208646  -3.5231069
N    -31.581775400000005  39.5771562  -5.8164373000000005
C    -31.711729800000004  40.5522936  -6.890129100000001
C    -32.86562790000001  40.1214783  -7.7989047000000005
O    -32.95575600000001  38.9727094  -8.2174402
C    -30.398944000000004  40.6147115  -7.6737102
C    -30.323661100000006  41.6837007  -8.769343800000001
C    -30.443502400000003  43.0943994  -8.196638100000001
C    -29.004156000000005  41.5277829  -9.525564800000001
N    -33.7715394  41.0704528  -8.0818633
C    -35.0282307  40.7136457  -8.7053995
C    -34.8645075  40.1822848  -10.126345100000002
O    -35.677549500000005  39.3843406  -10.5797948
C    -35.988529500000006  41.9263776  -8.665236
O    -36.0170995  42.4623212  -7.3619238000000005
C    -37.387619400000005  41.5294193  -9.115956400000002
N    -33.8224287  40.6304442  -10.835758700000001
C    -33.656532500000004  40.2613689  -12.227815000000001
C    -32.17731130000001  40.2860924  -12.602373
O    -31.435167700000004  41.1600134  -12.1707652
C    -34.4329065  41.2449193  -13.120359400000002
C    -34.2740383  40.9492418  -14.6020669
C    -35.2797423  41.8010603  -15.414209000000001
O    -34.888373300000005  42.9035715  -15.8436573
O    -36.4229884  41.3269634  -15.563142000000001
N    -31.775732400000003  39.3028033  -13.416713000000001
C    -30.390701100000005  39.0831378  -13.7774052
C    -30.106466600000005  39.4898373  -15.2244755
O    -30.886790500000004  39.2225563  -16.132787800000003
C    -30.020472400000003  37.5995739  -13.6339118
C    -29.938538400000006  37.1515424  -12.184545
C    -28.769836200000004  37.8395012  -11.437121000000001
O    -27.799214000000006  38.23925  -12.109146800000001
O    -28.882133400000004  37.9470273  -10.198354400000001
N    -28.952532500000004  40.146097  -15.4061014
C    -28.436055400000004  40.4434126  -16.7298103
C    -27.577211900000005  39.2755514  -17.226951800000002
O    -26.940376100000005  38.5688755  -16.453601900000002
C    -27.591771100000003  41.7152994  -16.6980888
N    -27.594557600000005  39.0748026  -18.550249100000002
C    -26.687332400000003  38.1214914  -19.161211700000003
C    -25.247886700000002  38.6355502  -19.0327705
O    -24.994214100000004  39.8342521  -19.1331677
C    -27.001134700000005  37.934287499999996  -20.6423521
C    -28.297342000000004  37.1938097  -20.918785300000003
C    -28.480349900000004  36.9267963  -22.437727600000002
O    -27.531764000000003  37.1942424  -23.1989349
O    -29.576996600000005  36.4488625  -22.795634
N    -24.326318600000004  37.7109145  -18.760992100000003
C    -22.915935700000006  38.0402429  -18.7950327
C    -22.481940300000005  38.2722915  -20.2883573
O    -21.376141600000004  38.7977747  -20.4980628
C    -22.053820500000004  36.947653700000004  -18.1679858
C    -21.972461200000005  36.9128398  -16.6354334
C    -23.297968600000004  36.508093  -15.998191000000002
C    -20.867595100000003  35.9452099  -16.2117116
O    -23.267547700000005  37.9009886  -21.176246300000003
H    -33.63383210000001  37.7687839  0.6684745999999997
H    -34.831168000000005  38.9067742  0.9543096999999996
H    -33.359276900000005  39.3632978  0.26047580000000004
H    -34.9945759  37.4342574  -1.1666760000000007
H    -35.878013  39.424975  -2.4602425000000014
H    -34.250319000000005  41.0413711  -1.3642795000000003
H    -35.306151500000006  41.028344  0.06363359999999929
H    -37.258885500000005  38.0231463  -0.8757923000000005
H    -37.82563270000001  39.6735474  -1.0219114000000005
H    -36.933506300000005  39.198664  0.4079341999999997
H    -35.78564720000001  42.9386194  -1.3942636000000004
H    -37.181488900000005  41.8691394  -1.3270603000000012
H    -36.1251254  41.862749  -2.7405880000000007
H    -31.423222900000006  38.2133291  -3.611675400000001
H    -31.892864900000003  35.9656288  -4.367839700000001
H    -32.061894900000006  36.8266315  -5.907015600000001
H    -34.1528326  35.3767475  -5.047069100000001
H    -34.426074500000006  36.9976067  -5.687875900000001
H    -35.4253197  37.3500267  -3.584827500000001
H    -34.409113500000004  36.0982773  -2.8033593000000003
H    -30.803039400000003  38.9390945  -5.8930091000000004
H    -31.945873200000005  41.5202095  -6.4361256000000004
H    -30.233180600000004  39.6417588  -8.149151100000001
H    -29.584172200000005  40.7902021  -6.967694100000001
H    -31.129841100000004  41.5076562  -9.4921585
H    -30.298883100000005  43.8202763  -8.992547100000001
H    -29.679736500000004  43.2533949  -7.4401530000000005
H    -31.422475900000006  43.262013  -7.759225900000001
H    -28.879042800000004  40.5040751  -9.879938000000001
H    -28.158679400000004  41.7737734  -8.8873847
H    -28.990484600000006  42.1761539  -10.3986461
H    -33.7749127  41.9497573  -7.580637100000001
H    -35.480916900000004  39.8826825  -8.1428971
H    -35.583995900000005  42.7166597  -9.306016800000002
H    -36.548421700000006  41.8793557  -6.800100500000001
H    -38.046095900000005  42.391867500000004  -9.062967800000001
H    -37.7736013  40.7349551  -8.482130600000001
H    -37.36696190000001  41.1634883  -10.138690100000002
H    -33.16313400000001  41.302111  -10.4676752
H    -34.07273430000001  39.2568886  -12.3533725
H    -34.0859858  42.2620086  -12.923831400000001
H    -35.492931500000005  41.1783561  -12.8616249
H    -34.49970270000001  39.8997486  -14.8059741
H    -33.261508500000005  41.174823599999996  -14.944952
H    -32.45342720000001  38.6921528  -13.847835600000002
H    -29.781550600000003  39.6818035  -13.093352900000001
H    -29.034916800000005  37.4601154  -14.088391000000001
H    -30.745206000000003  37.0043384  -14.194264500000001
H    -29.759762800000004  36.0756585  -12.139253700000001
H    -30.858383300000003  37.3741887  -11.6387052
H    -28.275167800000006  40.1352569  -14.655371
H    -29.305947500000006  40.5551845  -17.3846189
H    -27.166430800000004  41.8981838  -17.6810538
H    -26.774826900000004  41.5864421  -15.9921865
H    -28.204476700000004  42.5593077  -16.3974137
H    -28.025957700000003  39.7509037  -19.1617694
H    -26.785268900000005  37.176852600000004  -18.6152804
H    -26.175752900000006  37.3946134  -21.1156785
H    -27.026676800000004  38.914074  -21.1260439
H    -29.168827300000004  37.7485983  -20.5674855
H    -28.301002900000004  36.2208226  -20.4219619
H    -24.565881400000006  36.7391718  -18.889119
H    -22.786048400000006  38.9983418  -18.280485300000002
H    -21.046961600000003  37.107041699999996  -18.566860900000002
H    -22.406215400000004  35.9831545  -18.5443615
H    -21.716249600000005  37.9210896  -16.292169100000002
H    -23.211200100000006  36.4962504  -14.9143322
H    -23.592228000000006  35.515372  -16.3322119
H    -24.092099400000002  37.2045173  -16.262205100000003
H    -19.912885300000006  36.2574453  -16.6258232
H    -21.093574300000004  34.9451199  -16.5727598
H    -20.791889000000005  35.9177785  -15.128359600000001
