64

C    95.12  113.795  -17.864
C    94.5152117  111.4210018  -18.1186432
C    95.799428  110.24647490000001  -13.840212099999999
C    94.4894882  110.3067565  -17.319107199999998
C    94.9472971  110.7592132  -16.0663947
C    96.2975419  111.46965320000001  -13.4665859
C    97.0359896  111.5382872  -12.2603829
N    94.1745808  112.9628809  -19.9998213
C    95.2890194  113.7211411  -19.3830659
C    94.2158881  113.03971870000001  -21.469881299999997
C    96.0396849  109.07871730000001  -13.006072699999999
C    97.6156233  112.8056243  -11.7686058
C    98.3617155  113.58578270000001  -12.6499484
C    98.9405046  114.76376210000001  -12.219344
C    98.7750737  115.1641091  -10.9039317
C    98.0303937  114.39679600000001  -10.014976899999999
C    97.4430759  113.19972800000001  -10.4337067
C    96.5639578  112.41841000000001  -9.478803899999999
C    98.8480287  114.7821003  -7.751112599999999
C    98.5738716  115.20561000000001  -6.3605744
C    97.41059249999999  115.5276912  -5.7343873
C    97.5709032  115.844993  -4.3558059
C    96.5993791  116.22719740000001  -3.423638199999999
C    96.9626498  116.5010183  -2.1264711
C    98.2936552  116.40104670000001  -1.7200907
C    99.2732654  116.0228325  -2.615371399999999
C    98.9106222  115.7453031  -3.9303098999999992
C    94.1844374  111.54760590000001  -19.5672109
N    95.0856613  109.9628204  -14.9597302
N    97.2573141  110.4857248  -11.5151485
N    96.7627309  109.3011134  -11.8893753
N    97.8513966  114.8394653  -8.6695722
N    94.9664621  112.44512540000001  -17.3675724
N    95.2300322  112.05647590000001  -16.1084963
O    95.6156151  107.9548274  -13.3101582
O    97.2908527  111.78548430000001  -8.434665599999999
O    99.97569  114.39660810000001  -8.050181499999999
S    99.9424564  115.25396690000001  -5.254973799999999
H    94.2450218  114.391129  -17.5846522
H    95.997198  114.2455364  -17.3984441
H    94.1941009  109.3112362  -17.5740818
H    96.1266661  112.34185360000001  -14.072273
H    93.29617209999999  113.389841  -19.679253199999998
H    96.224053  113.21495660000001  -19.6304265
H    95.3110258  114.7300306  -19.7941169
H    94.108145  114.07095100000001  -21.7960227
H    95.1662201  112.65501590000001  -21.831651700000002
H    93.4098179  112.4498122  -21.897833300000002
H    98.4904451  113.2520937  -13.6669795
H    99.5231034  115.369161  -12.8941805
H    99.231756  116.0735555  -10.5443942
H    96.003164  111.6694741  -10.0427473
H    95.8388654  113.1212445  -9.033141
H    96.4489365  115.5530277  -6.2155133
H    95.5688054  116.3060461  -3.7346348999999996
H    96.2117254  116.7970297  -1.4104682999999998
H    98.5610737  116.6196741  -0.6985653000000003
H    100.3052153  115.9407644  -2.3129476999999987
H    93.2169643  111.0846059  -19.7689745
H    94.9412992  111.0104857  -20.1480588
H    94.849346  108.9799249  -15.053945899999999
H    96.995021  108.5255935  -11.2767856
H    96.9019337  114.96246070000001  -8.3485702
H    96.6937097  111.1990577  -7.954138499999999
