55

C    0.7999999999999998  222.359  70.141
C    1.9042157999999998  221.6935248  70.95243310000001
C    1.5034767999999996  221.4909436  72.3326782
C    3.2819572999999993  222.3825936  70.93717170000001
C    4.101955599999999  222.0971919  68.5836893
C    4.911304299999999  220.18749480000002  66.67832380000002
C    4.724176099999999  222.4783351  67.3985758
C    4.9706478999999995  225.32448850000003  69.46449140000001
C    4.897990399999999  224.0090297  69.9353035
C    9.5020306  223.90290980000003  73.46381120000001
C    11.498231  225.22397010000003  73.2730746
C    4.3359099  219.78514320000002  67.8666551
C    5.112789599999999  221.5381461  66.4589193
C    10.6560548  224.42104070000002  74.02372020000001
C    11.1725915  225.50140790000003  71.95638400000001
C    3.9511347  220.72851880000002  68.79953250000001
C    10.0143252  224.99105980000002  71.3936675
C    6.1370185  226.01388350000002  69.7747011
C    9.1575218  224.1919971  72.1438095
C    6.9957458  224.23727430000002  70.87341640000001
C    3.8984137  226.0142294  68.68303410000001
C    2.8370790999999995  225.04262910000003  68.1902646
C    1.1906052999999996  223.3051292  69.02485970000001
C    2.4961756999999998  224.056304  69.30417390000001
C    3.6817179999999996  223.11481210000002  69.64268390000001
C    0.02472789999999936  224.27180840000003  68.78319900000001
N    1.2223111999999996  221.31479080000003  73.42943980000001
N    7.146821399999999  225.49887750000002  70.45252610000001
N    5.902839299999999  223.48877130000002  70.6357775
N    7.978294399999999  223.63332770000002  71.60613280000001
O    -0.3541678000000008  222.05321780000003  70.35066750000001
H    1.9494946999999998  220.68548070000003  70.51613920000001
H    4.062740099999999  221.6745869  71.21257800000001
H    3.2700533999999997  223.137074  71.73321170000001
H    5.217438  219.46348960000003  65.93887470000001
H    4.9530876  223.5161165  67.2118205
H    8.8543401  223.27366370000001  74.0569909
H    12.3988974  225.62713510000003  73.7089315
H    4.1960688  218.73637100000002  68.0795271
H    5.5920247  221.8703236  65.5498306
H    10.896670499999999  224.192673  75.05082530000001
H    11.8228458  226.11916280000003  71.35610940000001
H    3.5639146999999998  220.33638190000002  69.71972070000001
H    9.7543171  225.22253400000002  70.37316410000001
H    6.275710699999999  227.03814160000002  69.45214050000001
H    4.347708099999999  226.55385470000002  67.8467234
H    3.4321762999999996  226.76134140000002  69.33359870000001
H    3.1694677999999996  224.50417410000003  67.30444960000001
H    1.9545948999999996  225.61485130000003  67.9126861
H    1.3236080999999995  222.6666342  68.14120890000001
H    2.3292839999999995  224.65139040000003  70.21317900000001
H    -0.9150659000000001  223.73441000000003  68.8928542
H    0.05596779999999946  224.69130840000003  67.78362000000001
H    0.043174199999999274  225.0749584  69.51560780000001
H    7.671037  222.76967850000003  72.0345223
