103

C    23.598  42.021  39.133
C    24.2201587  42.879475  38.0379451
N    24.288378899999998  41.9593224  36.9148927
C    23.330781599999998  40.8531959  37.0533793
C    22.5844818  41.1738122  38.35816440000001
C    22.377611499999997  40.8208457  35.8526091
O    21.932323399999998  41.8549156  35.37576920000001
N    22.044199099999997  39.6116562  35.362562100000005
C    21.239288399999996  39.5274988  34.158926400000006
C    22.021305499999997  38.8502723  33.0248172
C    23.054347699999997  39.8101487  32.440496100000004
F    22.440309899999995  40.8845852  31.867654500000004
F    23.715543699999998  39.2158494  31.408625400000005
C    19.854941099999998  38.9083998  34.35052040000001
O    19.370641999999997  38.1313714  33.558120100000004
N    19.167969899999996  39.2818456  35.50555850000001
S    18.273214199999998  40.738658  35.5614106
O    18.724606799999997  41.5001327  36.695542
O    18.377835199999996  41.3359893  34.25342010000001
C    16.596313699999996  40.2034269  35.87612790000001
C    16.1978394  38.8606916  35.39913740000001
C    15.755563999999998  39.8810439  34.700491500000005
C    25.097261399999997  42.0209831  35.85054830000001
C    26.0639105  43.2087447  35.728399800000005
N    27.419357899999998  42.6986532  35.630674500000005
C    28.173249499999997  42.5228415  36.739160600000005
O    29.365782999999997  42.0071636  36.414408400000006
C    30.4063551  41.7065392  37.4077569
C    30.819843999999996  42.9688002  38.1576207
C    29.916967599999996  40.6260163  38.368315900000006
C    31.571181499999998  41.1892007  36.567467300000004
O    27.798578199999998  42.8255099  37.860791600000006
C    25.691930999999997  44.1677481  34.559891300000004
C    24.261082799999997  44.6736144  34.777092200000006
C    25.777153499999997  43.4655199  33.2047625
C    26.649898699999998  45.3643658  34.56829870000001
O    25.0807424  41.1301068  34.997962900000005
O    24.658765199999998  41.2129656  39.640104400000006
C    24.614662699999997  40.7478357  40.914469600000004
C    25.7481217  39.9993097  41.3449815
C    26.865851099999997  39.7308051  40.526411200000005
C    27.916011799999996  38.9998791  40.996529100000004
C    27.904073599999997  38.4996988  42.31747850000001
C    26.826659099999997  38.7429288  43.139160700000005
C    25.7250417  39.4954679  42.6725538
N    24.681413399999997  39.7034806  43.5078085
C    23.641842799999996  40.3952237  43.08470810000001
C    23.566880899999997  40.9392961  41.785853700000004
C    22.5018659  40.5520244  44.012577900000004
C    22.2240467  39.5497665  44.94269500000001
C    21.149101299999998  39.6618302  45.8061452
C    20.331774399999997  40.7799086  45.76167220000001
C    20.600981199999996  41.7865341  44.848742300000005
C    21.674397399999997  41.6751439  43.9815339
O    29.017259599999996  37.7959602  42.656491300000006
C    29.111145199999996  37.2501483  43.9623951
H    23.154597199999998  42.6291287  39.922305900000005
H    25.218089499999998  43.2007297  38.3382568
H    23.584736099999997  43.7359823  37.80109650000001
H    23.890450599999998  39.9147319  37.11784000000001
H    21.6920725  41.7613756  38.1408861
H    22.305168999999996  40.270766  38.89519190000001
H    22.4282181  38.7618564  35.747231600000006
H    21.020706899999997  40.5752767  33.8821245
H    21.327548899999996  38.5626656  32.23271460000001
H    22.538106799999998  37.961594  33.38382610000001
H    23.798006799999996  40.1834718  33.158922000000004
H    18.4861595  38.5604797  35.730304200000006
H    16.249102099999998  40.6726776  36.784519200000005
H    16.249893699999998  37.8169816  35.589121500000005
H    15.230689999999997  40.3136661  33.88737150000001
H    26.045666699999998  43.7953463  36.648727900000004
H    27.717181399999998  42.2681237  34.7688093
H    31.6400676  42.7365225  38.8283916
H    29.9853569  43.353913  38.7388199
H    31.138641599999996  43.7347552  37.454710500000004
H    30.733095099999996  40.3190825  39.013750400000006
H    29.557349  39.7648909  37.80971230000001
H    29.106815599999997  41.0115276  38.9823894
H    32.4044348  40.9391592  37.21487320000001
H    31.8840437  41.9493508  35.85737340000001
H    31.268359099999998  40.304191  36.014667
H    23.9889983  45.3588918  33.9794624
H    24.178957199999996  45.2001172  35.72472570000001
H    23.546739699999996  43.850925  34.7737696
H    26.805377299999996  43.2189301  32.95317610000001
H    25.385617999999997  44.1169162  32.4281372
H    25.1908142  42.5508236  33.20628620000001
H    26.562477899999998  45.919  35.4991988
H    26.411177699999996  46.0292307  33.743679400000005
H    27.679208499999998  45.0325659  34.4620576
H    26.867572599999995  40.1273309  39.522365300000004
H    28.7768189  38.786282299999996  40.384680800000005
H    26.777513499999998  38.3799682  44.15187710000001
H    22.662156699999997  41.4402969  41.488355600000006
H    22.869617899999998  38.6862162  44.9719964
H    20.949742199999996  38.8743688  46.516958900000006
H    19.4932618  40.8686514  46.43517130000001
H    19.9765511  42.6665347  44.8131995
H    21.884634499999997  42.4826287  43.296005400000006
H    30.073105399999996  36.7445824  43.991162900000006
H    28.3077822  36.5328732  44.145206400000006
H    29.081779899999997  38.0380303  44.7185848
