43

P    -46.092  41.19  12.381
S    -47.9913875  41.631465  12.137321799999999
O    -45.7916887  40.58882619999999  13.7318059
O    -45.4314601  40.417496299999996  11.2688335
P    -43.8652321  43.100661599999995  12.2694261
O    -43.1892751  43.003444699999996  13.5942476
O    -43.275933800000004  42.4163308  11.088705
O    -45.4258904  42.746450599999996  12.4129574
P    -44.0227103  45.4296617  10.5235408
O    -42.6444096  45.611292299999995  10.0046992
O    -45.0451334  44.832651999999996  9.6201324
O    -44.027010000000004  44.682327199999996  11.977266499999999
O    -44.5079666  46.882031  11.0995023
C    -45.8214235  47.111169  11.6110045
C    -46.3727826  48.413290599999996  11.0148033
O    -45.5781411  49.5249452  11.4223232
C    -46.3946242  48.431947599999994  9.479542499999999
O    -47.5072014  49.149863999999994  9.0278461
C    -45.0743212  49.1511497  9.1387617
O    -45.1238537  49.74503549999999  7.875293599999999
C    -44.9735023  50.1595897  10.3067283
N    -43.6338997  50.567323699999996  10.631045
C    -42.5541797  49.7750211  10.937488
N    -41.4779876  50.44318139999999  11.2247111
C    -41.841231300000004  51.7700804  11.1207966
C    -41.1394351  52.98459329999999  11.2971483
N    -39.8540254  53.06099759999999  11.642754799999999
N    -41.8197947  54.127990999999994  11.091687799999999
C    -43.0927084  54.0686779  10.7403168
N    -43.8566645  53.003023799999994  10.5488849
C    -43.191268300000004  51.861945999999996  10.755500699999999
H    -45.7422559  47.195679299999995  12.698837
H    -46.4631351  46.258404999999996  11.3623114
H    -47.3853515  48.56392399999999  11.4066501
H    -46.3891743  47.4024806  9.0909388
H    -47.3196608  49.459716699999994  8.123342899999999
H    -44.2692065  48.4102584  9.2266029
H    -44.2335214  49.8719172  7.5161469
H    -45.5255097  51.081164099999995  10.061477799999999
H    -42.6265025  48.701349099999995  10.9403127
H    -39.3493908  52.211754  11.8235753
H    -39.4412048  53.969911499999995  11.766411399999999
H    -43.5812183  55.02008359999999  10.5868591
