12

O    45.38  49.379  465.291
C    45.014158800000004  49.9285333  464.26350490000004
C    44.764729  51.3968026  464.1968986
C    44.7839967  49.1816941  462.99924020000003
C    44.3740563  49.8040079  461.87207700000005
C    44.1230975  51.2728706  461.8002804
O    43.7632154  51.8108282  460.7623906
C    44.3465748  52.0198262  463.0720369
H    44.207898300000004  49.258409  460.95520530000005
H    44.9634545  48.118223900000004  463.030365
H    44.165925800000004  53.083092900000004  463.0437729
H    44.9330724  51.9415778  465.11360460000003
