30

C    -7.833  -10.235  49.8
C    -9.0616888  -11.133913799999998  49.7737601
C    -8.8683771  -12.201335799999999  48.7034768
C    -7.6500611  -13.0525063  49.0506548
N    -10.0653435  -13.072323399999998  48.5687819
C    -11.371962  -12.37333  48.6352373
C    -12.170643  -12.890241199999998  49.809665499999994
S    -12.660301100000002  -14.637405099999999  49.461781499999994
O    -13.8879208  -14.5879845  48.6441643
O    -11.5446779  -15.282942099999998  48.721517899999995
O    -12.8796686  -15.292117799999998  50.7668742
C    -6.407546000000001  -12.166673399999999  49.125625799999995
C    -6.603699600000001  -11.057652699999998  50.153152799999994
H    -7.972665000000001  -9.442115399999999  50.5356125
H    -7.694177900000001  -9.765689799999999  48.8251864
H    -9.9183193  -10.493629399999998  49.5865915
H    -9.191240700000002  -11.603383399999998  50.7493359
H    -8.7106936  -11.707633399999999  47.739933799999996
H    -7.500607100000001  -13.82974  48.300380399999995
H    -7.805004200000001  -13.536700899999998  50.016116999999994
H    -10.0786709  -13.807688999999998  49.2903898
H    -10.009288000000002  -13.614262599999998  47.700557499999995
H    -11.9531082  -12.614760399999998  47.741176599999996
H    -11.238621  -11.297101599999998  48.6757691
H    -13.1205718  -12.386096199999999  49.9324758
H    -11.6280017  -12.9149532  50.747294999999994
H    -6.214201900000001  -11.7239423  48.1472298
H    -5.541917700000001  -12.774032099999998  49.391763399999995
H    -6.7267951  -11.494304099999999  51.1458472
H    -5.7181414  -10.420919099999999  50.179991199999996
