91

C    0.31400000000000006  10.134  -4.171
C    0.4675758000000001  9.6184214  -5.4622443
C    1.7223221  9.257920700000001  -5.9318817
C    2.8631903000000003  9.426427700000001  -5.0889414
C    2.6906716  9.974074400000001  -3.8257348
C    1.4281881  10.3239335  -3.3677781
O    10.2499746  6.187884400000001  -2.1704204000000002
C    9.2373329  6.8580190000000005  -2.3930529000000003
N    8.4347805  6.523882700000001  -3.4235827000000003
C    8.6938527  5.289216400000001  -4.1500819
C    7.3556256  7.284203700000001  -3.9022561000000002
C    7.1417291  7.338024300000001  -5.2757276
N    6.0913111  7.941404900000001  -5.806738900000001
C    8.9194761  8.0458592  -1.5457822000000003
C    10.0456903  8.673986300000001  -1.0070371000000002
C    9.930741600000001  9.775395000000001  -0.18293310000000051
C    8.6726535  10.2650211  0.12977939999999988
C    7.5421482  9.6526913  -0.37539950000000033
C    7.6302299  8.5296108  -1.2049239000000003
N    6.4425859  7.9670782  -1.7185087000000003
C    5.2085094000000005  7.773272100000001  -0.9415950000000004
C    6.3600949  7.9035305000000005  -3.1001773000000004
N    5.2962741  8.4829711  -3.6532145000000003
C    5.1816201  8.4882448  -4.982680200000001
N    4.1142281  9.067308700000002  -5.5975687
C    -3.4114819999999995  10.0764122  -3.7137425000000004
C    -4.3265341  8.9179539  -3.3506889
C    -1.7754119  8.224390300000001  -3.5424838000000003
C    -2.6247385000000003  7.531749900000001  -4.5939651
C    -4.1071631  7.6890844000000005  -4.2508755
C    4.3138492  6.748787900000001  1.1855761
C    5.5636643  7.109025500000001  0.3916162999999995
O    1.9467128000000002  8.723927000000002  -7.175284700000001
C    0.8681889  8.2969436  -8.0044705
C    -1.0406985  10.556224100000001  -3.6908619000000003
O    -1.2500807999999997  11.723220000000001  -3.3583045000000005
N    -2.0204671999999997  9.6443306  -3.6672867000000005
N    -4.614966  6.478384100000001  -3.5452397
C    -4.4122261  5.244725300000001  -4.3403836
C    -4.931457  4.025145300000001  -3.5994796000000004
N    -6.3590376  4.171028600000001  -3.2490499
C    -6.569070299999999  5.419945100000001  -2.4916925
C    -6.0619468  6.621302300000001  -3.2654519000000004
C    -6.8064670000000005  3.032057600000001  -2.4363812000000005
C    4.3718551  9.040966200000002  -0.7493588000000004
H    -0.3956681999999998  9.508526400000001  -6.0978669000000005
H    3.5608695  10.114875600000001  -3.2132318000000004
H    1.3094407000000001  10.7503454  -2.3839747000000004
H    9.2046364  4.607640300000001  -3.4701139000000003
H    9.3483088  5.458996300000001  -5.006079000000001
H    7.7501463  4.8610668000000015  -4.4772208000000004
H    7.8213324  6.889111300000001  -5.9822343
H    11.013634499999998  8.267802000000001  -1.2601060000000004
H    10.816924700000001  10.247707400000001  0.2109232999999997
H    8.5721283  11.131406900000002  0.7647948999999996
H    6.5744511  10.049644500000001  -0.12904650000000029
H    4.6316996  7.068128800000001  -1.5470659000000002
H    4.11619  8.9027831  -6.598885300000001
H    -3.5477489  10.9139108  -3.0242765000000005
H    -3.6227782  10.448742000000001  -4.7220877
H    -5.3429041  9.2967545  -3.4451908
H    -4.1444103  8.6682553  -2.3054763000000005
H    -0.7134754000000001  8.0438279  -3.7059017
H    -2.0145977999999998  7.902598200000001  -2.5255807000000003
H    -2.2959923  6.505233800000001  -4.696028800000001
H    -2.427913  8.018919  -5.548909500000001
H    -4.6864374  7.796208700000001  -5.1708176
H    4.5924921  6.200757800000001  2.0818394999999996
H    3.6560667000000002  6.121547500000001  0.5901110999999997
H    3.7726764  7.639590500000001  1.4863243999999995
H    6.1919696  7.780918500000001  0.9789873999999998
H    6.1489233  6.207987900000001  0.19211169999999989
H    1.3461817000000003  7.8253146000000005  -8.8584092
H    0.27170190000000005  9.147304100000001  -8.3414445
H    0.24346559999999995  7.5745013000000005  -7.4771366
H    -4.1023525  6.391052300000001  -2.6569084000000003
H    -3.3596556  5.065717300000001  -4.5405256000000005
H    -4.9209502  5.374680100000001  -5.297861600000001
H    -4.3722194  3.8699058000000006  -2.6736196000000003
H    -4.7948457  3.140949700000001  -4.223256
H    -6.920129500000001  4.197010000000001  -4.1101712
H    -6.051952299999999  5.329295300000001  -1.5338070000000004
H    -7.6322018  5.548328900000001  -2.2836704
H    -6.584902199999999  6.733733800000001  -4.2167545
H    -6.2460855  7.510851400000001  -2.6669896000000004
H    -6.6707218  2.098317500000001  -2.9771628000000003
H    -7.8599852  3.1304152000000007  -2.1872667000000003
H    -6.2360693  2.9809680000000007  -1.5125696000000004
H    3.3154130000000004  8.806185500000002  -0.8302948000000003
H    4.620831600000001  9.763196400000002  -1.5190992000000003
H    4.549612  9.4921644  0.2236161999999995
