29

C    48.317  15.980999999999998  46.716
C    49.091096  14.7579393  46.3294877
C    49.7764663  14.7944248  45.1291747
C    50.513870600000004  13.7085952  44.6987836
C    51.8993406  12.778861899999999  43.0409331
C    51.9689502  11.5880063  43.8213093
C    51.309142900000005  11.4477917  45.0118342
C    51.3024004  10.219742199999999  45.8214485
C    50.5584568  12.5603055  45.4915098
C    49.868648500000006  12.5273276  46.7048726
C    49.1424291  13.615644699999999  47.136244
C    48.413519300000004  13.575768199999999  48.4431569
O    51.168418800000005  13.8142377  43.508808
O    52.4632408  12.9414579  41.9644449
O    48.8820485  9.3860376  47.0071624
O    50.125091700000006  7.738459999999999  45.6078402
O    48.899435800000006  9.683696099999999  44.519748899999996
P    49.6645655  9.1858361  45.7289024
H    48.993776100000005  16.828989999999997  46.7933286
H    47.588753800000006  16.2067339  45.9404093
H    47.799010300000006  15.8555058  47.6575134
H    49.7376019  15.6708681  44.500507999999996
H    52.5358345  10.7710709  43.401212799999996
H    51.473293600000005  10.396752699999999  46.883972899999996
H    52.0504643  9.506153  45.4615183
H    49.8571803  11.6153055  47.2779591
H    48.7892413  14.3415539  49.1181771
H    47.346864700000005  13.723644799999999  48.289966
H    48.551909  12.5994008  48.9029786
