31

C    -7.179  32.754  -3.289
C    -8.682378100000001  32.7172736  -3.0575449
C    -9.193836000000001  34.1380323  -2.8888976
O    -7.7252289  35.647278  -4.0066729
C    -8.7657423  34.989870499999995  -4.1379742
O    -9.5244683  34.9203695  -5.1230279
N    -10.6681823  34.1392376  -2.8267466
C    -6.6420728  31.342745299999997  -3.3449573
C    -5.1593406  31.3200014  -3.6734177
N    -4.756034700000001  29.9454462  -3.5006865
C    -3.7842885  29.550025899999998  -2.7168941
C    -3.6533282000000002  28.089159499999997  -2.4645731
N    -2.9911466000000004  30.3926202  -2.0919011000000003
H    -6.7007607  33.321359  -2.4887368
H    -6.965699600000001  33.2812467  -4.2205013000000005
H    -8.9027292  32.129481399999996  -2.1644009
H    -9.1682112  32.2631738  -3.923355
H    -8.7558768  34.603114999999995  -2.0046455
H    -11.0363765  34.947409199999996  -2.3159732
H    -11.0481864  33.272346399999996  -2.4310254000000002
H    -10.9491967  34.2319351  -3.8271267
H    -7.195432500000001  30.781353499999998  -4.0997779
H    -6.800154  30.865126699999998  -2.3761520000000003
H    -4.6322055  31.9865313  -2.9965960000000003
H    -4.9835438000000005  31.6529386  -4.6991096
H    -5.3283816  29.251630799999997  -3.9614000000000003
H    -2.7469103000000006  27.8563239  -1.9157824
H    -3.6454583000000005  27.536493999999998  -3.400684
H    -4.507061200000001  27.7455453  -1.8836738
H    -2.2676404000000003  30.041175099999997  -1.4839827
H    -3.0298187000000003  31.388587599999997  -2.2402129000000004
