86

N    164.292  5.325  12.032
C    163.3207869  5.231785800000001  10.9069804
C    161.9556742  5.806973200000001  11.3537678
O    161.571933  5.6239707  12.511214299999999
C    163.2308712  3.7284666000000004  10.5826824
C    163.8425411  3.0290238000000005  11.7900175
C    164.8921687  3.9927827000000007  12.3049155
N    161.26193700000002  6.479660300000001  10.433841399999999
C    160.0394381  7.249027300000001  10.693675299999999
C    158.9464101  6.620661800000001  11.5586978
O    158.3522589  7.355553200000001  12.3543585
C    159.4893427  7.562950000000001  9.295663999999999
C    160.73707670000002  7.6338708  8.4367387
C    161.6418097  6.558578600000001  9.0224178
N    158.6396736  5.321432100000001  11.4323436
C    157.56688970000002  4.7736052  12.2606606
C    157.807226  4.854809  13.770772599999999
O    156.85654200000002  4.8333374000000005  14.546862599999999
C    157.42238690000002  3.3072230000000005  11.8105342
C    158.69625530000002  3.0062788000000005  11.0279651
C    159.0807234  4.3510315  10.4290351
N    159.0729598  4.8866168000000005  14.209545499999999
C    159.306588  4.8524107  15.6370653
C    159.6361549  6.2077064  16.2485318
O    159.8274341  6.3236892000000005  17.4569825
C    160.3637706  3.8170481000000005  16.010303999999998
C    161.7355717  4.1176807  15.4325419
S    162.5646523  2.5454254000000005  15.0770274
C    161.3660858  1.9268064000000003  13.8542425
N    159.7334786  7.2283887  15.3845156
C    159.8714126  8.5932236  15.861004099999999
C    158.70764400000002  8.9474029  16.7958537
O    157.56379890000002  8.575773900000002  16.5663615
C    159.88716150000002  9.539132  14.6672572
N    159.0185008  9.7302438  17.842567
C    157.9917595  10.2226531  18.727376
C    157.62755320000002  9.3143219  19.8984615
O    156.8407984  9.709574  20.7574081
N    158.1657259  8.0959503  19.9070175
C    158.00138  7.212904900000001  21.0323189
C    159.2348131  7.2316127  21.9909903
O    160.23355940000002  7.8871181  21.6489942
O    159.13705900000002  6.572949100000001  23.041385
H    163.7330775  5.583698  12.862208599999999
H    164.99993750000002  6.049583200000001  11.893588099999999
H    163.71418020000002  5.7851498  10.0593667
H    163.8079236  3.5152185000000005  9.6844211
H    162.20885140000001  3.3996921000000007  10.4126589
H    164.2637496  2.0624827000000003  11.5328357
H    163.10035720000002  2.8830337000000004  12.5639922
H    165.0927839  3.8584059000000006  13.3641167
H    165.8197323  3.8997835000000003  11.739890599999999
H    160.3122734  8.174844400000001  11.2148404
H    158.91550750000002  8.486198900000002  9.300854399999999
H    158.8342752  6.758408  8.962878700000001
H    161.1995731  8.6152954  8.5393304
H    160.5233092  7.462954400000001  7.3852943
H    161.4726234  5.593248600000001  8.5396614
H    162.6820381  6.8499515  8.8938945
H    156.64159070000002  5.339700400000001  12.0986054
H    156.5443866  3.2115502000000005  11.1729414
H    157.2848563  2.6501874000000005  12.667020599999999
H    158.5318129  2.2513476000000003  10.264403699999999
H    159.4729619  2.6539895000000007  11.7054215
H    160.14605780000002  4.4336020000000005  10.2455839
H    158.5325414  4.523047  9.4976582
H    159.85399610000002  5.0372650000000005  13.5792624
H    158.3521542  4.561509900000001  16.0971151
H    159.9935637  2.8483344000000006  15.6798571
H    160.41760050000002  3.7867518000000007  17.1022104
H    162.3572021  4.655569700000001  16.1460403
H    161.6779232  4.681841500000001  14.5041919
H    161.8830661  1.1951894000000003  13.2427453
H    161.0088095  2.7627908000000003  13.264265
H    160.5369028  1.430253800000001  14.351493
H    159.28574260000002  7.1338504  14.4787357
H    160.80559680000002  8.651957600000001  16.4310485
H    159.941009  10.568748200000002  15.0059981
H    158.975207  9.4040475  14.0888665
H    160.7471059  9.3199063  14.0417994
H    159.97889020000002  9.882378500000002  18.109338
H    157.0744539  10.3487495  18.1423488
H    158.2842259  11.189554000000001  19.138472
H    158.8765148  7.8350188  19.237423
H    157.8560792  6.1870742000000005  20.686567099999998
H    157.1293908  7.5337627000000005  21.6048413
