51

C    -26.39  -13.029000000000002  8.218
C    -22.609699799999998  -18.1040907  9.8958045
C    -26.145495699999998  -13.598247  9.4565696
C    -24.606944  -15.171436700000001  8.55062
C    -23.6717011  -17.0172193  7.332166800000001
C    -24.2932033  -15.009993600000001  6.125861700000001
C    -24.8157985  -14.192540500000002  5.184822200000001
C    -23.755562599999998  -16.313435000000002  8.6383767
C    -23.3900907  -16.850684  9.805457700000002
C    -22.7205858  -18.9090442  6.237914700000001
C    -22.9036835  -18.8986519  8.6299624
N    -25.6822129  -13.310874900000002  5.780507400000001
N    -22.6648246  -18.0772774  7.429789400000001
C    -24.8626807  -14.611668700000001  7.326705200000001
N    -21.826861899999997  -19.6732592  11.5504963
C    -25.732125099999998  -13.550138900000002  7.1189689000000005
C    -23.339102699999998  -16.1186578  6.140524200000001
C    -22.8958643  -18.9561807  11.148927700000002
C    -21.8426366  -20.440029000000003  12.779887
C    -25.270528499999998  -14.660431700000002  9.6344236
C    -21.5849455  -21.9215989  12.5195808
C    -22.8154403  -22.5835455  11.9182852
C    -20.821736599999998  -19.8924361  13.773044800000001
O    -23.9981632  -19.0051285  11.694213600000001
O    -21.3152099  -18.6835504  14.3084053
H    -27.083921699999998  -12.2053279  8.1283676
H    -21.5411514  -17.8513412  9.9385081
H    -26.668577  -13.199481000000002  10.314179000000001
H    -24.6478789  -17.482851200000002  7.145967400000001
H    -24.6523346  -14.149665400000002  4.125521700000001
H    -23.551322499999998  -16.319570600000002  10.7282369
H    -22.0922059  -19.790163300000003  6.363102000000001
H    -22.3619549  -18.3782134  5.362784700000001
H    -23.7407282  -19.242728300000003  6.065598400000001
H    -23.9495737  -19.212200000000003  8.638154100000001
H    -22.2750178  -19.7904236  8.5842016
H    -26.1966888  -12.599218700000002  5.289241500000001
H    -21.736960099999997  -17.644129900000003  7.505004400000001
H    -20.924668  -19.535127900000003  11.121789300000001
H    -23.4053205  -16.662463600000002  5.200030000000001
H    -22.3216216  -15.724537000000002  6.2439328000000005
H    -22.838995099999998  -20.3023591  13.2139074
H    -25.1569578  -15.069900600000002  10.6243964
H    -21.3399978  -22.4144818  13.459608500000002
H    -20.7306757  -22.0322745  11.8499476
H    -22.617085499999998  -23.6268013  11.6863448
H    -23.118852  -22.076393500000002  11.005845
H    -23.647196899999997  -22.5403203  12.617084
H    -19.856597899999997  -19.7286867  13.273172800000001
H    -20.6774339  -20.626383500000003  14.574168700000001
H    -20.714292399999998  -18.3578881  14.991287400000001
