86

C    -53.674  -6.354  15.336
C    -54.3363973  -4.2664138000000005  14.0995303
C    -53.352651  -5.2004739  14.7368174
C    -55.0014087  -6.8821549  15.5010255
C    -55.2778888  -8.0447684  16.0893787
C    -51.9002104  -4.7935052  14.661097100000001
C    -51.6210525  -3.3748483  15.1963986
C    -50.4065352  -5.6971294  11.3892754
C    -48.923830099999996  -5.5036212  11.0186237
C    -48.2879838  -4.2921761  11.7128773
C    -49.0043339  -2.982288  11.3891968
C    -48.4231998  -1.7112247000000003  12.0378366
C    -50.690093499999996  -5.7929891  12.8686392
C    -47.0047205  -1.4376522  11.5401207
O    -52.9578159  -7.0059307  20.6793427
C    -56.797564799999996  -8.0610534  18.7373844
C    -54.19405  -6.728108300000001  21.3191129
C    -54.9059303  -5.5887992  19.1741281
C    -55.2973141  -6.5978562  20.2540682
C    -55.3737093  -5.0661926  22.853227
O    -56.8743289  -8.5309694  20.0728476
C    -54.0795588  -5.4479028  22.1498847
O    -50.268792499999996  -6.6710253999999996  13.5958015
O    -51.4832416  -4.8146707  13.273083100000001
O    -48.1843345  -6.675044  11.3005071
O    -49.2803596  -0.6462833000000003  11.6504286
C    -55.6563477  -7.9459298  19.6493847
O    -47.8861319  -0.5944479999999999  14.1152734
O    -47.1881458  -1.6643135999999998  15.9565441
C    -56.906380999999996  -9.1013003  17.6423488
C    -56.6784337  -8.5509706  16.2296685
C    -56.9650251  -9.630728699999999  15.178388700000001
C    -50.197169699999996  -3.0235548000000003  14.8818867
C    -49.8275867  -2.025901  14.0966284
C    -48.433954  -1.8259900999999998  13.587621200000001
C    -47.2774906  -0.6503663  15.2997645
C    -46.716438  0.6806365000000003  15.6932404
C    -51.8922337  -3.3021861  16.6971583
H    -52.8798234  -6.9653719  15.7478043
H    -55.1981277  -4.8056257  13.7200088
H    -53.8625038  -3.7435536000000003  13.2722356
H    -54.6824003  -3.5293323  14.8228559
H    -55.8201054  -6.2740911  15.1434982
H    -54.487863  -8.6820349  16.4592472
H    -51.2801921  -5.5180841  15.2025012
H    -52.2747764  -2.6735079  14.6729486
H    -50.725479  -6.6430735  10.9439144
H    -51.0038981  -4.8896987  10.9716758
H    -48.8563302  -5.3831838  9.932607
H    -47.2446109  -4.2493244  11.3998944
H    -48.3114791  -4.4723139  12.790888800000001
H    -50.043667  -3.0445797  11.7134881
H    -48.9995218  -2.818409  10.310789
H    -46.6355949  -0.5027641000000003  11.9559472
H    -47.0121164  -1.3611103  10.4564856
H    -46.3309604  -2.2351490000000003  11.838176
H    -52.2633346  -7.059665  21.3486648
H    -57.3920676  -7.1653401  18.5702145
H    -54.4637832  -7.5678108  21.9820904
H    -55.6344661  -5.5879578  18.3687392
H    -53.9372724  -5.8550725  18.75874
H    -54.8477804  -4.5893189  19.5924042
H    -56.2037331  -6.2543039  20.7593575
H    -55.172863299999996  -4.3161304000000005  23.614638900000003
H    -55.8138518  -5.9352408  23.337865700000002
H    -56.0997653  -4.6498683  22.1612511
H    -53.7414825  -4.6361317  21.506123600000002
H    -53.3058507  -5.6096609  22.9059445
H    -48.3546329  -6.9434054  12.2155809
H    -48.9278151  0.17878849999999957  12.0125464
H    -54.8348221  -8.6467427  19.534374200000002
H    -57.9097688  -9.5331072  17.6995128
H    -56.1937336  -9.903882  17.8466114
H    -57.373087  -7.7208694  16.0624847
H    -56.8112638  -9.2272716  14.1813836
H    -57.9912728  -9.977851000000001  15.2635902
H    -56.2984292  -10.4790205  15.3144199
H    -49.4510991  -3.7008013  15.2827128
H    -50.5534368  -1.3321155999999998  13.6956893
H    -47.781979  -2.6402054  13.9208817
H    -46.2571395  0.6036551999999995  16.6729967
H    -47.5133761  1.4191061999999999  15.7061365
H    -45.9784097  0.9906658999999998  14.9580328
H    -51.738154  -2.2865533  17.0493761
H    -51.2168164  -3.9619668  17.2371206
H    -52.9128627  -3.6057459  16.9151703
