160

N    11.36  42.43900000000001  1.8069999999999995
C    10.6035632  41.575996  0.8721467999999994
C    10.918986499999999  40.0944213  1.1830200999999994
O    11.781776599999999  39.791119900000005  1.9914556999999995
C    10.986375499999998  41.9378102  -0.5668096000000005
C    12.4916865  41.8089577  -0.8283558000000002
C    12.883254299999999  42.3534069  -2.2132613
N    14.0485306  41.67181600000001  -2.7564676000000006
C    14.0146708  40.630548000000005  -3.5934956000000002
N    15.1591189  40.0836704  -4.0198625
N    12.858077299999998  40.124132900000006  -3.9903867
N    10.145022299999999  39.2097308  0.5375372999999994
C    10.4720634  37.7975505  0.5631272999999997
C    11.867925  37.575266600000006  -0.025855200000000522
O    12.377976799999999  38.389530400000005  -0.7831224000000003
C    9.481426899999999  36.9976228  -0.3024621000000005
O    8.150013199999998  37.1703193  0.09409569999999956
N    12.449719499999999  36.4390718  0.3596762
C    13.684143299999999  35.9807544  -0.23439120000000013
C    13.363859299999998  35.1521151  -1.4682502000000004
O    12.591821  34.2029076  -1.4210322000000004
C    14.458927799999998  35.1019522  0.7560816999999993
C    14.5692481  35.769592  2.0919687
C    15.116197399999999  37.038819700000005  2.1793610999999995
C    14.106982599999998  35.1498872  3.2453056999999994
C    15.210647599999998  37.679936100000006  3.3934602
C    14.198292599999998  35.782681200000006  4.4691016999999995
C    14.750278899999998  37.054969400000004  4.542505
O    14.837929299999999  37.663998500000005  5.7513331
N    14.029158299999999  35.501795  -2.5701222
C    13.917887099999998  34.732673500000004  -3.7809405000000003
C    13.3285004  35.5675055  -4.9171063
O    14.245183599999999  36.5751398  -5.2058904
C    15.305786099999999  34.1779852  -4.1127834000000005
O    16.2970121  34.502198  -3.4765552000000004
P    13.789085199999999  37.5650963  -6.4744177
O    13.650725999999999  36.6445194  -7.6622115
O    12.4756289  38.182939100000006  -5.9995588
O    14.943347  38.543409600000004  -6.5118996000000005
N    15.303879299999998  33.1975421  -5.0275714
C    16.5038269  32.4527434  -5.3734064
C    17.6562131  33.301512900000006  -5.9307091000000005
O    17.5258522  33.927873000000005  -6.9881764
C    16.1335122  31.3941532  -6.426640900000001
O    17.2248765  30.532068700000004  -6.6754605
N    18.8220289  33.2837602  -5.2702831
C    19.9302876  34.012099500000005  -5.8610381
C    20.5229304  33.319523600000004  -7.0931423
O    21.4706546  33.835087200000004  -7.677216700000001
C    20.9412964  34.1689802  -4.723807900000001
C    20.6809911  32.9610927  -3.8462734000000003
C    19.173534399999998  32.7303301  -3.959811
N    19.9952033  32.1378593  -7.4516031
C    20.371115  31.478885200000004  -8.6945889
C    21.8910977  31.247225500000003  -8.7186638
O    22.5614277  31.386611100000003  -9.7332047
C    19.9073575  32.2532347  -9.9311145
C    18.371401  32.182209400000005  -10.1795601
O    17.684378499999998  31.436650000000004  -9.446917
O    17.913786599999998  32.862988900000005  -11.1158966
N    22.4211243  30.873743800000003  -7.5461598
C    23.8445923  30.643280300000004  -7.377093800000001
C    24.148516  29.178768  -7.6972982000000005
O    23.5713011  28.268285000000002  -7.1147552
C    24.2915057  30.956763700000003  -5.9338120000000005
C    24.175565499999998  32.459150400000006  -5.651936
C    25.719555399999997  30.461771000000002  -5.6890457
C    24.1717189  32.782684800000006  -4.1591842
N    25.097711699999998  28.9778905  -8.6168862
C    25.7410998  27.693708  -8.8035648
C    27.1924188  27.879346400000003  -8.3332718
O    27.9304392  28.675058200000002  -8.9108224
C    25.7187551  27.240800600000004  -10.2683128
O    24.3678927  27.147730800000005  -10.679538
C    26.4261122  25.8944599  -10.407278300000002
N    27.5355987  27.217771700000004  -7.2284242
C    28.8691107  27.319210800000004  -6.666900200000001
C    29.9293909  26.696032200000005  -7.631030600000001
O    29.5832463  25.695947500000003  -8.2809958
C    28.9566467  26.609831800000002  -5.3229887
C    28.292888499999997  27.368450300000003  -4.1763873
C    28.7203254  26.797435500000002  -2.8325592000000004
O    29.476940399999997  25.838226100000004  -2.7329371
N    28.2193885  27.420299200000002  -1.7604797000000003
O    31.0516244  27.225509600000002  -7.662504800000001
H    11.7547176  43.259537  1.3338523999999996
H    12.1207928  41.8419649  2.1905735999999996
H    10.786696  42.747438100000004  2.6018086999999994
H    9.529100799999998  41.7260475  1.0031710999999994
H    10.667414099999998  42.9632975  -0.7637741000000005
H    10.4539195  41.2970344  -1.2667909000000002
H    12.759816699999998  40.7492231  -0.7919545000000001
H    13.085747899999998  42.3233126  -0.07764840000000017
H    13.1344298  43.4129868  -2.1512916000000004
H    12.060821599999999  42.2500008  -2.9207625000000004
H    14.953565999999999  41.965602200000006  -2.4227391000000003
H    15.1053766  39.4210834  -4.794007000000001
H    16.019781899999998  40.6006724  -3.9531665000000005
H    11.999794999999999  40.3555761  -3.5242309
H    12.823989699999998  39.3908415  -4.700889
H    9.620519  39.5292709  -0.2645365000000002
H    10.442986999999999  37.453324800000004  1.6012810999999996
H    9.696587899999999  35.9314095  -0.21326810000000052
H    9.621054299999999  37.275938200000006  -1.3574066000000005
H    7.858685399999999  38.080503  -0.061080700000000654
H    11.9308148  35.7551324  0.8904000999999999
H    14.252727999999998  36.866849900000005  -0.5241621000000003
H    15.4458895  34.9046432  0.3309803999999996
H    13.938566599999998  34.1458585  0.8451091999999996
H    15.4895974  37.5226101  1.2901927999999998
H    13.6809172  34.1596661  3.1858142999999997
H    15.646196499999999  38.6660899  3.4510287999999996
H    13.850576699999998  35.309318100000006  5.373169599999999
H    15.253377899999998  38.5356521  5.6629129
H    14.68559  36.2665865  -2.5998614
H    13.245034799999999  33.8931412  -3.5643601
H    12.3700276  36.018584000000004  -4.624154600000001
H    13.147936299999998  34.970705200000005  -5.8234677
H    14.549511899999999  33.171923400000004  -5.697336
H    16.8404606  31.953425000000003  -4.4594633
H    15.8354684  31.912571800000002  -7.3441712
H    15.2960126  30.794948100000003  -6.0521447
H    17.4239061  30.571802400000003  -7.6273965
H    19.5712597  34.9775864  -6.2412265
H    20.7214513  35.089652300000004  -4.1840322
H    21.9506695  34.2227491  -5.1188652
H    20.983626899999997  33.125016900000006  -2.8165012000000003
H    21.2068934  32.095359800000004  -4.2469096
H    18.9203205  31.6711376  -3.9149237
H    18.611046599999998  33.2789304  -3.1984728000000002
H    19.1001096  31.861883400000004  -7.0694787
H    19.876076899999997  30.501147700000004  -8.700131200000001
H    20.4074234  31.857322200000002  -10.8168899
H    20.1780105  33.3074706  -9.842922000000002
H    21.811126299999998  30.641358900000004  -6.776934300000001
H    24.3529897  31.296234000000002  -8.0928602
H    23.6173616  30.4054785  -5.2694908
H    23.26213  32.829390700000005  -6.1221496
H    25.008142  32.971940800000006  -6.1377905
H    25.775748099999998  29.379348400000005  -5.7803278
H    26.040991599999998  30.743312500000002  -4.6920989
H    26.4058027  30.895657900000003  -6.413906000000001
H    23.9862397  33.8416079  -4.0079411
H    25.1349676  32.542189500000006  -3.7178261000000004
H    23.4042674  32.2144567  -3.6450661
H    25.5345791  29.7602499  -9.0806677
H    25.190445699999998  26.976461900000004  -8.1891785
H    26.2468881  28.0060144  -10.8580967
H    24.342578699999997  26.896042  -11.6130014
H    26.4980575  25.611709100000002  -11.4537482
H    25.864478899999998  25.133160800000002  -9.8716006
H    27.432369899999998  25.946345900000004  -9.993324300000001
H    26.9642944  26.446577400000002  -6.9156583000000005
H    29.1219638  28.381727000000005  -6.5779024
H    30.0175894  26.483677500000002  -5.0889537
H    28.536808699999998  25.6069022  -5.4213068
H    27.206401399999997  27.324078800000002  -4.2614104
H    28.5947835  28.416651900000005  -4.217184400000001
H    28.467833  27.086316700000005  -0.8434014000000003
H    27.5917016  28.199476500000003  -1.8556444
