37

C    3.156  -8.961  -16.925
C    1.8104818999999999  -9.2583821  -17.266177900000002
C    1.3632611  -10.207400400000001  -16.2935972
C    -1.9887782  -8.645091800000001  -20.0908135
C    -1.7390987  -10.091758700000002  -19.6776771
C    -0.8240993000000001  -9.9131327  -18.4554891
C    -1.6337952  -9.6582293  -17.1964246
C    -2.3616734  -10.703603600000001  -16.633064400000002
C    -3.1126325  -10.503324000000001  -15.487439100000001
C    -3.1428574  -9.2520661  -14.8891425
C    -2.4257361  -8.2063301  -15.4453644
C    -1.6726202000000001  -8.409429500000002  -16.590741
C    2.1533816  -7.694699600000001  -19.035311800000002
N    3.4818691  -9.683830500000001  -15.821459
C    1.2743263999999999  -8.588639400000002  -18.395034300000003
C    2.4015103  -10.4331829  -15.4428902
N    0.01345179999999993  -8.7945203  -18.8541046
C    -0.6064099000000001  -8.0103182  -19.9158233
C    3.4514205  -7.5045523  -18.5851797
N    3.9899649  -8.1187903  -17.5410794
H    0.39058459999999995  -10.641606600000001  -16.1958467
H    -2.7064209  -8.1847709  -19.411908500000003
H    -2.3527304  -8.5504212  -21.110733
H    -1.2073470000000002  -10.6269837  -20.4638622
H    -2.6541652  -10.625463700000001  -19.4332
H    -0.19940960000000008  -10.8000077  -18.3073644
H    -2.3297076  -11.6816194  -17.0922008
H    -3.6685685  -11.323106500000002  -15.058019100000001
H    -3.7255331000000003  -9.094547700000001  -13.9939137
H    -2.4446137  -7.230568000000001  -14.9832248
H    -1.1038763  -7.592545100000001  -17.008680000000002
H    1.8236995999999999  -7.134885100000001  -19.8947194
H    4.3801402  -9.662025600000002  -15.3700501
H    2.4523262999999997  -11.0753442  -14.586273400000001
H    -0.6573782  -6.954136000000001  -19.6369538
H    -0.022354500000000083  -8.0995986  -20.839755500000003
H    4.1070723000000005  -6.816429500000001  -19.1030704
