67

C    -0.4610000000000001  31.747999999999998  7.206
C    -2.3654664000000003  30.3801937  7.951697
N    -2.921376  31.514591099999997  8.4849832
C    -0.39349040000000013  29.288296499999998  7.0084903
C    0.9037959  29.0644149  7.7777883
C    -0.28526550000000017  29.2667838  5.474831200000001
O    -2.9642671000000003  29.315901699999998  7.9434622
C    -4.2489027  31.3921025  9.0717871
O    0.5743839999999999  31.8461076  6.5514765
C    -2.2851798  32.7204203  8.463688000000001
C    -1.0885660000000001  32.9001821  7.8508201
N    -1.0792603  30.5211258  7.434422
N    0.8733118  28.850311899999998  4.9522801
O    -1.2685653000000001  29.555161  4.8002590000000005
N    -0.3105114  34.0707728  7.8665829
C    -0.23506290000000019  34.975996  8.8921502
C    0.6416485  36.159807  8.6851102
O    -0.8457189  34.8071962  9.9435305
C    0.4492280999999999  37.2928388  9.4854036
C    1.2901322  38.382793299999996  9.393524
C    2.3613695999999997  38.3860931  8.4907234
C    2.5590855  37.2561917  7.6958264
C    1.7109618  36.169877899999996  7.7886379
N    3.1939064  39.5009174  8.446426
C    4.0313075000000005  39.951834  7.4592032
C    4.8096963  41.1301474  7.7167444
N    5.6341134  41.6318337  6.847288900000001
N    4.122698  39.330934  6.2996059
C    4.968685  39.8431709  5.3715722
C    5.7408462  41.0052944  5.6424318
C    6.6060017  41.5099853  4.6533851
C    6.697801800000001  40.8857631  3.4368568
C    5.9356939  39.740121599999995  3.1661894
C    5.0873533  39.2240385  4.1101362
C    1.039261  28.5754299  3.5349401
C    1.7180255999999998  27.2117738  3.3360264
O    0.2986377  29.616593599999998  0.9654812000000002
C    1.4922711  29.708606099999997  1.3081478999999998
C    1.8082531999999998  29.688119  2.8301459
O    2.4721887999999996  29.815678  0.5394060999999999
O    1.7312949  26.7836791  1.9906379000000003
H    -1.1086767000000002  28.4885593  7.2449921
H    1.2855503  28.0718996  7.5641111
H    0.7005923999999999  29.1329687  8.8439411
H    1.6406459999999998  29.820169099999998  7.5165346
H    -4.5470299999999995  32.351527499999996  9.4787464
H    -4.2253934  30.6363792  9.855782900000001
H    -4.953847100000001  31.066689099999998  8.3074315
H    -2.7700096999999997  33.5318324  8.9840093
H    1.6873255  28.7480153  5.5379449
H    0.3483540999999999  34.1213449  7.0999185
H    -0.3701375  37.289389899999996  10.1877412
H    1.1164055  39.241116  10.024248
H    3.3773976  37.245908899999996  6.9949894
H    1.9279427  35.308565  7.1742007
H    3.0683328  40.145354499999996  9.2171951
H    4.7356309  41.644629699999996  8.6654488
H    7.180712099999999  42.3931842  4.8826036
H    7.358796699999999  41.2742715  2.678108
H    6.0189553  39.2617656  2.2023516
H    4.4932607  38.3443304  3.9165332
H    0.0333869  28.5525964  3.0939393
H    1.1696358999999998  26.4380587  3.8778629000000002
H    2.7491136  27.2658259  3.7171114000000003
H    2.8881015999999997  29.597195499999998  2.9626789000000002
H    1.4786076  30.6525161  3.2246989000000004
H    2.0668937  27.4925392  1.4271840000000005
