49

C    -35.996  15.439  -8.34
N    -37.414690500000006  15.6349702  -8.242308399999999
C    -37.9906006  14.7141933  -7.290333799999999
C    -37.6785786  15.334949  -5.9066512
C    -37.475489  16.832452  -6.1979545
C    -37.737303700000005  16.9479692  -7.715999399999999
C    -39.476689  14.6170538  -7.587491399999999
C    -40.130729800000005  15.972249699999999  -8.0200604
C    -39.1956362  17.2324194  -8.044208699999999
O    -41.14052  16.3227542  -7.130233799999999
C    -42.161910500000005  15.3817071  -6.8488358
C    -42.2280597  15.3159932  -5.3029304999999995
C    -41.185255700000006  15.8613765  -4.5468797
C    -41.2123312  15.8653095  -3.1566244999999995
C    -42.299222500000006  15.3180281  -2.4969010999999997
C    -43.342361800000006  14.767834  -3.2361513999999993
C    -43.308743500000006  14.7591742  -4.6273348
C    -43.7178131  17.2636918  -7.417612999999999
C    -44.8594208  17.7854239  -7.9996388
C    -45.729397600000006  16.9512877  -8.6886165
C    -45.444020800000004  15.6009083  -8.8068373
C    -44.2973228  15.0789419  -8.2273163
C    -43.434302900000006  15.9035159  -7.5116849
H    -35.7687334  14.4319984  -8.686874399999999
H    -35.522288700000004  15.582338  -7.3734673
H    -35.554710500000006  16.1434238  -9.0443191
H    -37.8366277  15.510101  -9.1684027
H    -37.543007700000004  13.722833  -7.3820251
H    -36.785763  14.8877962  -5.4754819999999995
H    -38.49593  15.157038  -5.2142862999999995
H    -36.469259400000006  17.1586732  -5.9466538
H    -38.169363800000006  17.4552189  -5.6412593
H    -37.1092243  17.7164786  -8.169293399999999
H    -39.9801688  14.2502444  -6.6955333999999995
H    -39.638766700000005  13.8833058  -8.379266399999999
H    -40.5640798  15.8349795  -9.0252397
H    -39.271165100000005  17.6856807  -9.032546799999999
H    -39.6209726  17.9412501  -7.336679299999999
H    -41.948922700000004  14.3850426  -7.246651399999999
H    -40.362815100000006  16.3333071  -5.055693199999999
H    -40.395383900000006  16.2984575  -2.6014156999999996
H    -42.347144400000005  15.3180106  -1.4184910999999998
H    -44.1940322  14.3424575  -2.7260765999999994
H    -44.1342161  14.3381202  -5.1828791999999995
H    -43.040471000000004  17.9022957  -6.8727395
H    -45.076857200000006  18.839299099999998  -7.914202899999999
H    -46.625576200000005  17.354683  -9.136132799999999
H    -46.113753700000004  14.9516853  -9.3508324
H    -44.084000700000004  14.0230386  -8.3180736
