42

N    21.422  39.334  16.85
C    20.752351  38.005836900000006  16.7904784
C    20.2542061  37.7470744  15.350883300000001
O    19.998249100000002  38.682189300000005  14.602652
C    19.5677876  37.976826  17.7518427
N    20.1600002  36.4596043  15.010523700000002
C    19.830532  36.0109684  13.665825700000001
C    18.3106449  35.761654500000006  13.524486300000001
O    17.636184200000002  35.489444500000005  14.511726500000002
C    20.6137922  34.721979600000004  13.355787600000001
C    22.1154661  34.843147  13.6108445
N    17.79131  35.8593787  12.287625100000001
C    16.3694267  35.6934454  12.020477300000001
C    16.0856699  34.748509500000004  10.8458541
O    16.8908035  34.5853678  9.9371033
C    15.665747  37.053124600000004  11.717340600000002
O    16.4791307  37.863816400000005  10.8964429
C    15.3381343  37.7977563  13.004862300000001
N    14.8878623  34.157825700000004  10.8680116
H    21.314602100000002  39.7616493  17.776662700000003
H    20.9530596  39.9263546  16.1397872
H    22.4165752  39.2779633  16.6055601
H    21.4672258  37.227318700000005  17.0660369
H    19.028371500000002  37.0387173  17.6603126
H    18.8687144  38.7763276  17.5205857
H    19.9038158  38.073206000000006  18.779721300000002
H    20.2193544  35.7375867  15.713880800000002
H    20.1211942  36.8170597  12.983732500000002
H    20.4369128  34.4598497  12.3124911
H    20.2040239  33.915947100000004  13.969636600000001
H    22.609161200000003  33.930513600000005  13.290760800000001
H    22.3286369  34.9944719  14.663724100000001
H    22.5311096  35.6728509  13.044693
H    18.369289600000002  36.099651200000004  11.495680900000002
H    15.9369546  35.2767799  12.935878500000001
H    14.721495800000001  36.832218700000006  11.196365700000001
H    16.575222800000002  37.4558167  10.0258727
H    14.9168496  38.768130600000006  12.759594500000002
H    16.2437462  37.951091600000005  13.586325100000002
H    14.6254611  37.2312464  13.593432000000002
H    14.6335324  33.553662100000004  10.102009800000001
H    14.249077400000001  34.274998000000004  11.635279400000002
