82

C    -3.137  31.709000000000003  32.57
C    -3.0101099000000002  32.9962366  33.3538826
C    -2.7581111000000003  32.711807  34.8275038
C    -2.9396644000000003  33.9672784  35.6646567
C    -2.6641509000000005  33.7609747  37.1507169
C    -1.2064541000000002  34.0518444  37.4601619
C    -0.9271472000000003  34.1770872  38.9568421
C    0.5092330999999997  34.5638645  39.196486
O    5.615228199999999  27.652357900000002  33.9073646
C    5.475296  28.957297  33.3465742
C    6.835868399999999  29.651749100000004  33.3384258
C    4.9744537  28.7694943  31.9116291
C    4.423444999999999  29.7411917  34.1477404
C    4.724957699999999  30.006028  35.622874
C    3.4589831999999996  30.427622200000002  36.3898392
C    2.9274179999999994  29.3404205  37.3261069
C    1.8361269999999996  29.8158114  38.305207
C    2.1125003999999996  31.133490700000003  38.9882628
C    1.2168800999999996  32.1848967  38.8456371
C    3.2616381999999997  31.3404823  39.7435515
C    3.5064437999999996  32.5755458  40.3206794
C    2.6122654999999995  33.6166569  40.1596962
C    1.4475447999999997  33.4444627  39.4090885
C    0.9779820999999997  35.8359167  39.1225266
C    0.24634239999999963  37.0493794  38.8431584
C    0.7342087999999997  38.2456802  38.4426388
C    2.1344535999999996  38.5503008  38.1262741
C    2.8777579999999996  37.7544142  37.3662623
C    2.6435739  39.860956200000004  38.695348700000004
O    3.9559075999999997  40.1431898  38.2656018
C    1.6944667999999996  41.009140200000004  38.3363753
C    0.2757158999999998  40.709784  38.8065083
O    0.2524729999999997  40.644362  40.2218467
C    -0.20615320000000037  39.3976944  38.1824003
H    -3.3000138  31.909714200000003  31.5129536
H    -3.9746508000000005  31.1193768  32.9367222
H    -2.2329505000000003  31.1106784  32.666093000000004
H    -3.9329327000000007  33.572997300000004  33.2514922
H    -2.1961222000000005  33.6026271  32.9514099
H    -1.7485540000000004  32.3151826  34.9554103
H    -3.4601737  31.9485603  35.1721721
H    -3.9723595  34.3047306  35.5340682
H    -2.2945779  34.7590811  35.2792607
H    -2.9265504000000004  32.7446347  37.4483544
H    -3.2869969000000006  34.4453669  37.7317864
H    -0.9317277000000002  35.0048103  36.9981677
H    -0.5721116000000004  33.2896043  37.0083981
H    -1.1478405000000005  33.2379446  39.4662956
H    -1.5882228000000005  34.9422925  39.3692936
H    6.0324671  27.7288631  34.7747714
H    6.752602999999999  30.639772800000003  32.894308
H    7.543132099999999  29.0643737  32.7576295
H    7.221376899999999  29.757109900000003  34.3499983
H    4.844198199999999  29.733484400000002  31.430869
H    4.0266313  28.2382184  31.917901
H    5.6925977  28.179839400000002  31.3482442
H    3.5003164999999994  29.1567544  34.0918597
H    4.2424456  30.6933426  33.6456881
H    5.4800883  30.7888747  35.7038577
H    5.1302112  29.1050988  36.0872993
H    2.6773365  30.7197242  35.6862949
H    3.6860435  31.308243100000002  36.9956054
H    3.7694316  28.9626111  37.9129219
H    2.5339051999999995  28.5051057  36.7448043
H    1.7056109999999998  29.0398813  39.0638435
H    0.8925832999999996  29.9058999  37.7617136
H    0.32858589999999976  32.0092577  38.2623076
H    3.9703733999999997  30.5361595  39.8758384
H    4.3996053999999996  32.723328  40.9103616
H    2.8110419999999996  34.5647272  40.6359147
H    2.0479271  35.9801248  39.2153038
H    -0.8286236000000002  36.983229  38.9709952
H    2.4798281999999996  36.8450871  36.9519737
H    3.9073648999999997  37.9815526  37.1482823
H    2.7011841  39.7723085  39.7865425
H    3.9366912  40.3268715  37.3156859
H    1.6842381999999998  41.1500075  37.2540833
H    2.0547348  41.9235617  38.8100778
H    -0.38500650000000025  41.5278954  38.473798
H    -0.6446026000000002  40.4385222  40.5151887
H    -1.2052550000000002  39.1560846  38.5512779
H    -0.2785357000000004  39.5472369  37.100782
