66

C    -1.3239999999999998  -37.677  24.155
C    0.7462796000000007  -33.943038099999995  23.4800437
C    4.622955600000001  -30.270314999999997  20.1167456
C    4.544893  -30.552527499999997  18.754137
C    5.540378800000001  -30.204225599999997  17.8359585
C    6.9968244  -33.444806799999995  17.0167869
C    3.0793336000000004  -29.668734099999998  22.0326274
C    1.5211583000000006  -31.119605699999997  22.947367
C    1.8328680000000006  -32.164062799999996  22.070675700000002
C    1.0851707000000004  -33.461084199999995  22.2079342
C    0.6497148000000004  -34.248550699999996  21.1323897
C    -0.04630739999999944  -35.4426479  21.3176725
C    -0.3571246999999995  -35.9459914  22.5981163
C    -0.7997976999999992  -38.3551076  21.9749312
C    0.4185529000000008  -39.1551416  22.4718448
C    -0.12158239999999942  -38.4319327  24.7446071
C    0.05588660000000045  -35.1325542  23.669698
C    2.8575740000000005  -31.8827307  21.1306766
C    3.5192689000000006  -30.643172  21.0858231
C    5.474051900000001  -33.3730956  17.1513476
C    7.478305000000001  -34.6583647  16.2179588
C    6.6893811  -29.511013199999997  18.2661568
C    7.772951600000001  -29.2893606  16.0949722
C    6.7698026  -29.213115499999997  19.6337976
C    5.779058200000001  -29.5814748  20.5270161
N    3.6352101000000006  -28.406464399999997  22.1002815
N    2.1135985000000006  -29.9354296  22.9202971
N    -1.0508914999999996  -37.1738682  22.8061735
N    0.27325150000000065  -39.5607839  23.8804805
N    5.3570935  -30.6008945  16.4603422
O    5.1016478  -32.4013893  14.6445489
O    3.2873898000000006  -32.127768599999996  16.1299226
O    7.747529200000001  -29.094829599999997  17.5021607
S    4.7420363000000005  -32.1299631  16.025370600000002
H    -1.6043788999999995  -36.858758699999996  24.8146007
H    -2.1874551999999996  -38.341046399999996  24.073063
H    1.0586033000000006  -33.389585499999995  24.3536071
H    3.6769325000000004  -31.060610099999998  18.3531831
H    7.4407769  -33.467821  18.012286
H    7.3351667  -32.5334457  16.521582000000002
H    0.7419475000000006  -31.2159533  23.6903955
H    0.8487641000000008  -33.921981699999996  20.1207871
H    -0.35547269999999953  -35.980576  20.4344308
H    -1.7031932999999997  -38.967484  21.9942342
H    -0.6173548999999996  -38.0576149  20.9441768
H    1.3012147000000005  -38.5172082  22.3826842
H    0.5538469000000004  -40.0338693  21.842974
H    -0.3698717999999994  -38.795699799999994  25.7406025
H    0.7213006000000006  -37.7411526  24.818532400000002
H    -0.14554489999999953  -35.4149026  24.6902866
H    3.1525636000000006  -32.6530402  20.4301277
H    5.148178700000001  -33.0615198  18.1374652
H    4.9754443  -34.291610999999996  16.858744
H    8.5607702  -34.6434272  16.1393967
H    7.056457400000001  -34.6337416  15.215727600000001
H    7.1757841  -35.5800736  16.7061468
H    8.753414  -28.924916999999997  15.7922623
H    6.9987219000000005  -28.7004497  15.6025879
H    7.666929800000001  -30.337960199999998  15.8210047
H    7.6471394  -28.690631399999997  19.977482600000002
H    5.918679000000001  -29.3588897  21.5729806
H    3.1140714000000007  -27.7596793  22.6702476
H    4.0495869  -28.040272599999998  21.2598981
H    1.1472907000000006  -39.977869399999996  24.2200396
H    -0.45865589999999923  -40.2824576  23.9372072
H    4.8837720000000004  -29.922410399999997  15.882883800000002
