66

C    19.858  21.567  8.39
C    21.3582435  21.8734699  8.4093269
C    21.5299641  23.3782107  8.219808
C    23.445858  19.6149316  6.234671100000001
C    20.6648555  24.1379107  9.159235
C    23.6079657  24.0350548  7.229987100000001
C    23.0940029  25.2341398  6.413868300000001
C    22.8920591  20.1927691  7.5063902
C    19.1301118  22.2454945  9.5515305
N    20.6515443  20.7230418  21.077917300000003
N    20.2320731  21.7714018  20.863942700000003
N    19.7400148  22.8678113  20.7087101
C    20.1455822  23.8499513  19.6763671
C    19.1065863  23.9210621  18.5347818
C    19.7113656  24.1214317  17.1469837
C    18.6301877  24.1430968  16.0569892
C    19.3181909  24.2296152  14.701468400000001
C    18.3661964  24.3524605  13.516269300000001
O    19.1354925  24.1038337  12.3474278
P    18.6008583  24.6816736  10.8923564
O    18.9402386  26.1406098  10.812452200000001
O    17.1385734  24.3645387  10.7453158
C    19.589404299999998  23.6417501  9.746267900000001
N    19.623043  20.1026925  8.4249741
N    22.0132143  21.1894113  7.3154415
O    23.1705013  19.7782622  8.623906400000001
O    22.8741151  23.7778446  8.4222906
C    25.0635752  24.2167392  7.646015200000001
C    25.6436643  22.8780947  8.0822047
C    23.187561  26.5519275  7.164209100000001
H    19.4458541  21.954195900000002  7.452335100000001
H    21.8364142  21.5566916  9.340163800000001
H    21.2222225  23.6314821  7.194423700000001
H    24.5270476  19.7393969  6.233953800000001
H    23.2544637  18.5445056  6.2156742000000005
H    23.0299067  20.0832497  5.350040700000001
H    20.9478218  25.1593719  9.3677504
H    23.5518615  23.1466827  6.5804049000000004
H    22.053868  25.0760996  6.121672000000001
H    23.6859778  25.2855315  5.498824100000001
H    19.3102233  21.7187437  10.4940189
H    18.0481903  22.275297600000002  9.4011675
H    21.1244909  23.5707273  19.2785241
H    20.2237065  24.8048199  20.193306900000003
H    18.3951616  24.720200900000002  18.741712500000002
H    18.5447165  22.9839717  18.5261557
H    20.4095928  23.3099199  16.93361
H    20.2673614  25.0596744  17.1161569
H    17.9725622  25.0017655  16.1964347
H    18.0246924  23.2380262  16.108419400000002
H    19.9174656  23.3317387  14.535166100000001
H    19.9954762  25.0853559  14.6749519
H    17.9114513  25.3494336  13.4522761
H    17.5541214  23.6161507  13.5688533
H    20.0523503  19.6462265  7.610811100000001
H    20.0421783  19.6996099  9.274222000000002
H    18.6143672  19.9038526  8.4330376
H    21.8548857  21.5508698  6.3866858
H    25.1000039  24.9179  8.478977400000002
H    25.6352133  24.6238991  6.812957600000001
H    25.0165196  22.432902  8.850333500000001
H    25.7024787  22.1935325  7.239042700000001
H    26.6438938  23.0062999  8.4880745
H    22.7055739  26.4680143  8.136711600000002
H    24.221962  26.8447181  7.3199677
H    22.6888785  27.3416605  6.607084800000001
