52

O    11.563  4.268  9.005
P    10.717648  2.9901275  8.983452000000002
O    9.422440700000001  3.1336536  9.764421000000002
O    11.493813300000001  1.7345885  9.350354800000002
C    10.226359  2.6570286  7.198213000000001
C    9.257725500000001  1.5090929  7.245035500000001
C    7.896890300000001  1.7594844  7.396595200000001
C    7.004801100000002  0.7024888  7.4479665000000015
C    7.442781600000001  -0.6075586  7.353493200000001
C    8.798970200000001  -0.8618328000000002  7.235107000000001
C    9.6978807  0.19146889999999983  7.184937700000001
O    9.5297432  3.7284937  6.578808900000001
O    11.332935800000001  2.2819597  6.408110100000001
C    12.2553649  3.2998094  6.086430400000001
C    11.564704500000001  4.513783  5.4867864000000015
O    11.179236000000001  4.212706  4.1579187000000015
C    10.273286400000002  4.887065  6.225798900000001
C    9.506343000000001  5.639999899999999  5.122500600000001
C    10.0607564  5.0078745  3.8227604000000013
N    9.0898309  4.2239732  3.0723715000000014
C    8.160364600000001  3.4544578  3.7154596000000013
C    9.1538827  4.2683091  1.6921443000000012
O    10.0187834  4.8776159  1.082759300000001
N    8.142009100000001  3.5823784  1.061558400000001
C    7.068051600000001  2.8938776  1.6425261000000013
O    6.202290400000001  2.4404453  0.907382300000001
C    7.121521600000001  2.8232204  3.1001024000000013
C    6.180891200000001  2.0871994  3.937343600000001
C    5.048373400000001  1.4710904999999999  3.599783600000001
C    4.197452000000001  0.7644313  4.571021700000001
P    3.524003500000001  -0.8320254999999999  3.871691800000001
O    2.8194902000000015  -0.4238247999999998  2.578190500000001
O    2.512376400000001  -1.3190781999999999  4.907842700000002
O    4.677889300000001  -1.8128156000000004  3.654144200000001
H    7.554578400000001  2.7802948  7.483493700000001
H    5.947409800000001  0.9072823000000001  7.557138100000001
H    6.724558000000001  -1.4143019  7.364206300000001
H    9.1608554  -1.8763971000000002  7.175857400000002
H    10.7601683  0.017109200000000158  7.097235100000001
H    12.929431400000002  2.8411551  5.362516800000002
H    12.796145500000002  3.6045344  6.993501500000001
H    12.254110500000001  5.3705542  5.489484000000001
H    10.480415400000002  5.475963999999999  7.126698600000001
H    9.7626111  6.6948713  5.167893400000001
H    8.435298900000001  5.5070806  5.232066700000002
H    10.3966299  5.7799063  3.1122299000000013
H    8.2882043  3.3724540000000003  4.785667400000001
H    8.148959000000001  3.6062203999999998  0.0450689000000013
H    6.486398000000001  2.0444679  4.979007900000001
H    4.679186900000001  1.4566206  2.5821478000000013
H    3.2747958000000015  1.3234555000000001  4.767584500000002
H    4.708675000000001  0.5740145000000001  5.518399000000001
