28

C    -4.301  3.2640000000000002  13.735
C    -4.7834503999999995  4.7056275  13.9140823
O    -4.9674972  1.3169916000000002  17.749231899999998
S    -5.835859  0.9419552000000002  16.665847
O    -7.2535656  0.8571312  16.8817189
N    -5.292688500000001  -0.47260360000000023  16.0845378
N    -5.6727183  2.0621596  15.4413482
C    -4.415865  2.4083078  14.9708195
N    -3.3554704  1.988235  15.5168652
S    -3.531267  5.875151300000001  14.5698791
C    -2.586293  6.298104  13.0501547
C    -1.5459912  7.3344164  13.328039799999999
N    -1.725792  8.2570555  14.3163532
C    -0.7283979  9.0628606  14.4017722
S    0.5448326000000003  8.785552899999999  13.2631614
C    -0.3712366  7.468529800000001  12.646254599999999
H    -3.2507929  3.2506802  13.4493412
H    -4.8913353  2.8007178  12.9420617
H    -5.5952901  4.7678443  14.6354303
H    -5.1178071  5.1159054  12.962808599999999
H    -4.3013035  -0.5118653000000002  15.9180359
H    -5.850543500000001  -0.8590704000000002  15.3417558
H    -6.515989  2.4210852000000003  15.0258208
H    -3.4837857  1.4765399000000001  16.380466
H    -3.3095396  6.6826504  12.3275882
H    -2.1189934  5.3937684  12.6621795
H    -0.6681487000000002  9.8600683  15.113788999999999
H    0.002332099999999837  6.875075600000001  11.8378359
