41

C    9.15  6.473000000000001  45.127
C    10.442578200000002  5.9909848  44.9379853
N    11.3385961  6.6221012  44.211902800000004
C    10.935254200000001  7.7900799  43.6660009
C    11.621925800000001  9.7491834  42.3301431
C    12.958368700000001  10.4694741  42.1432705
C    10.877532200000001  10.901932200000001  40.2187372
C    10.9238067  9.5756343  40.974548000000006
C    8.7853121  7.6793021  44.506086800000006
C    7.470775400000001  8.3613379  44.5715607
C    7.423748900000001  9.7357329  44.293096600000005
C    3.652937800000001  10.2918108  44.7326187
C    3.7050093000000013  7.9972346000000005  45.2165674
C    5.089682100000001  8.4300465  44.9116755
C    6.272623800000001  7.708038  44.8729735
Cl    8.0836147  5.5398547  46.1339672
N    11.8450772  8.461649  42.9565409
C    12.774158100000001  11.7313709  41.296918600000005
O    12.175730100000001  11.4403467  40.0455386
N    9.708986200000002  8.3121639  43.788650700000005
C    6.238991500000001  10.4520996  44.324090600000005
C    5.0631498000000015  9.7968711  44.6401284
N    2.9183897000000005  9.066751100000001  44.973301500000005
O    3.312758800000001  6.9059824  45.624876900000004
H    10.753903300000001  5.0610822  45.3924356
H    10.967691100000001  10.326596  42.9921917
H    13.646205400000001  9.8046239  41.617443
H    13.3898275  10.7350621  43.106703100000004
H    10.249993700000001  11.6242851  40.760308
H    10.478996  10.763314600000001  39.213005700000004
H    9.915271200000001  9.195267600000001  41.128494800000006
H    11.4856437  8.8536637  40.3790755
H    8.3501217  10.2281048  44.0468009
H    3.3255693000000006  10.7705915  43.8058033
H    3.523803000000001  10.9998106  45.5571106
H    6.221972900000001  6.6456351  45.040462500000004
H    12.734925500000001  8.005543900000001  42.8266043
H    13.738267500000001  12.1845648  41.0633811
H    12.153185500000001  12.4606469  41.837079900000006
H    6.2407039000000015  11.5072561  44.101090500000005
H    1.9345749000000012  9.0665824  45.1912813
