61

C    8.37  6.610000000000001  44.727
C    9.7053677  6.2189163  44.712260699999995
N    10.629139299999999  6.869411000000001  44.042087099999996
C    10.211085399999998  7.957889000000001  43.3622003
C    10.954886899999998  9.8539975  41.960908599999996
C    10.423542099999999  9.572520200000001  40.552382699999995
C    12.108067199999999  11.842913600000001  40.9864731
C    12.277185799999998  10.613089200000001  41.874605599999995
C    8.002003899999998  7.744586900000001  43.987744
C    6.617361399999999  8.2503805  43.8157457
C    6.2513011999999994  8.774508500000001  42.567404499999995
C    2.5735216999999992  9.5805533  43.3382721
C    0.8629935999999994  9.5539017  45.241591
C    0.3594476999999996  10.9992727  45.1413905
C    2.3762086999999994  12.2777492  45.804274799999995
C    2.8296975999999994  13.4304742  46.6972052
C    1.290415199999999  12.8250779  48.350831899999996
C    0.785348299999999  11.659120600000001  47.5009722
O    3.0389827999999994  8.2585671  46.5653436
C    4.364101699999999  8.6455335  44.552678699999994
Cl    7.265028699999999  5.6364526  45.6474688
N    11.1569618  8.6235225  42.6960929
C    10.376501699999999  10.871341600000001  39.7547563
O    11.651167399999999  11.4874407  39.695619
N    8.945760499999999  8.3980885  43.3129607
C    4.966140299999999  9.226201000000001  42.304827599999996
C    4.012887299999999  9.1622283  43.3058822
N    2.196904299999999  9.325490400000001  44.720179599999994
N    0.9506354999999989  11.995264200000001  46.070091899999994
O    2.6456850999999992  13.122727000000001  48.0668398
C    3.1692166999999993  8.6876356  45.4232905
C    5.648102499999999  8.189167600000001  44.819047499999996
H    10.0305079  5.343923900000001  45.2584965
H    10.2094332  10.4428012  42.507202
H    9.430418799999998  9.1310011  40.6127197
H    11.0912718  8.8703588  40.050294199999996
H    13.062355  12.3484446  40.8314303
H    11.3982774  12.546287300000001  41.446215699999996
H    13.0335171  9.9649534  41.4283657
H    12.6113322  10.9179771  42.865318599999995
H    7.007140499999999  8.8212186  41.7999248
H    1.9655145999999997  8.981059  42.6533279
H    2.4626929999999994  10.633696200000001  43.071097099999996
H    0.15302029999999966  8.9381327  44.678934899999994
H    0.8766946999999989  9.1875832  46.2697747
H    -0.7134517000000011  10.966379400000001  45.338768599999995
H    0.5110061999999989  11.3604911  44.123399299999996
H    2.9611441999999992  11.386263900000001  46.0343904
H    2.5163862999999993  12.5504922  44.759059099999995
H    2.2789208999999992  14.3493142  46.4475869
H    3.896852799999999  13.6126966  46.5735524
H    1.2562964999999995  12.567065900000001  49.4086879
H    0.6732069999999997  13.719842  48.1824314
H    -0.26323270000000054  11.4629554  47.7208578
H    1.380365199999999  10.772273700000001  47.726748799999996
H    12.0780089  8.2129946  42.7084289
H    9.656052299999999  11.566722  40.209153199999996
H    10.094268699999999  10.6867204  38.717373599999995
H    4.7261731  9.6204123  41.3301026
H    0.4355973999999989  12.8731455  45.9098496
H    5.881683999999999  7.825471  45.807342
