65

C    -11.586  -10.763  -0.849
C    -7.905633100000001  -10.640863699999999  -0.8546304
C    -7.144571000000001  -11.9561937  -0.9881017999999999
C    -6.331742400000001  -9.7154062  0.9227251
C    -5.989177800000001  -12.0619634  -1.7801523000000001
C    -5.3098835000000015  -13.280848899999999  -1.8204444999999998
C    -5.748951400000001  -14.3735015  -1.0902710999999998
C    -6.883449700000001  -14.2723456  -0.2989802
C    -7.564451000000001  -13.0642699  -0.2520535
C    -5.901189500000001  -8.391705199999999  0.7410866000000002
C    -4.614788500000001  -8.0336646  1.1380104000000002
C    -3.7545761000000013  -8.9513249  1.7096829000000002
C    -4.192589900000001  -10.254795  1.8900361
C    -5.469417100000001  -10.649705099999998  1.5059335000000003
C    -6.776180600000001  -7.341042799999999  0.11527360000000009
C    -5.443666800000001  -10.917594699999999  -2.5948238999999997
C    -13.8541515  -9.8833703  -1.5558629
N    -11.259299200000001  -10.2487312  0.3118345
N    -10.4743501  -11.042646099999999  -1.6175593999999998
C    -10.5124542  -11.633911699999999  -2.9473502
C    -9.679353500000001  -10.884571999999999  -3.9931417
C    -10.1073163  -13.108272699999999  -2.8677620999999998
C    -13.017384800000002  -10.9455111  -1.2137821
C    -9.4032578  -10.696434  -0.8534796
C    -9.892437900000001  -10.1983572  0.3284363
C    -8.793126200000001  -9.785549  1.2025587
N    -7.654083300000001  -10.0669395  0.49412599999999995
O    -8.844910400000002  -9.295601099999999  2.3240192
Cl    -3.0858589000000007  -11.3903973  2.6180247000000003
Cl    -4.8681068000000005  -15.883105  -1.1597392
N    -15.144485300000001  -10.0094879  -1.8609583
C    -15.6717169  -11.2349085  -1.8370832
N    -14.958584000000002  -12.324697599999999  -1.517373
C    -13.667498000000002  -12.208220899999999  -1.1994962999999998
O    -12.9369373  -13.286399699999999  -0.8714359
C    -13.365605000000002  -14.606074699999999  -1.2381391
O    -16.9676869  -11.338082199999999  -2.1628248
C    -17.480296000000003  -12.5967664  -2.6338424
H    -7.542910400000001  -9.928096799999999  -1.6026287
H    -4.422432500000001  -13.3737947  -2.4255459
H    -7.228792000000001  -15.1152734  0.27623260000000005
H    -8.444767  -12.9762265  0.36783960000000004
H    -4.287506500000001  -7.016128999999999  0.99662
H    -2.761625900000001  -8.6670269  2.0155797
H    -5.797824700000001  -11.6658069  1.6551074000000003
H    -7.828472900000001  -7.5440800999999995  0.29939000000000004
H    -6.611428100000001  -7.3090063999999995  -0.9612259999999999
H    -6.535316700000001  -6.3647583999999995  0.5245198000000001
H    -5.1930070000000015  -10.081018  -1.9442502
H    -6.170781700000001  -10.580420199999999  -3.3306768
H    -4.545501300000001  -11.2281833  -3.1175143999999997
H    -13.4720381  -8.8745374  -1.6067901999999998
H    -11.568156600000002  -11.575835999999999  -3.2439603999999997
H    -9.882644500000001  -11.3093398  -4.969692500000001
H    -8.619858200000001  -10.9913443  -3.777151
H    -9.938904500000001  -9.829212499999999  -4.0056252
H    -10.2842362  -13.5898303  -3.8239112
H    -10.6902442  -13.612757799999999  -2.1018702
H    -9.0529287  -13.199059  -2.6168845
H    -12.714291900000001  -15.277823699999999  -0.6875614
H    -13.246954800000001  -14.7424582  -2.3130432
H    -14.407009900000002  -14.7614653  -0.9596868999999999
H    -18.558429  -12.4707923  -2.6399398
H    -17.1847134  -13.4049164  -1.9662655
H    -17.108268700000004  -12.787069299999999  -3.6400362
