40

C    -42.762  7.116  -12.447
C    -41.9596368  5.848504999999999  -12.4791429
C    -40.0838964  7.016407699999999  -11.3055495
C    -38.9721353  7.5717509  -11.896879299999998
C    -38.414879  8.722662  -11.329244899999999
C    -39.9883104  8.7666545  -9.6426254
C    -40.5116332  9.387877099999999  -8.4835254
C    -41.6068606  8.872846899999999  -7.840997
C    -40.6210175  7.600787899999999  -10.1292976
C    -42.2258883  7.7091026  -8.323015799999999
C    -41.7400352  7.084660399999999  -9.4406894
C    -43.863902  0.9494999999999996  -14.8222578
C    -43.2868543  2.3276900999999994  -14.525002999999998
C    -43.8222069  4.5971972999999995  -13.6996542
C    -42.4675289  4.6783623  -13.0884772
C    -41.676464  3.514451899999999  -13.103947699999999
C    -40.3938283  3.540330199999999  -12.536798399999999
C    -39.8962306  4.683881599999999  -11.962663299999999
C    -40.6800263  5.831898099999999  -11.9161586
N    -44.2167998  3.390822499999999  -14.2038769
N    -38.9009299  9.2983611  -10.2569825
N    -42.1624171  2.3392795999999993  -13.6228889
O    -44.604532  5.547869899999999  -13.727892299999999
H    -43.1237219  7.353726399999999  -13.446233699999999
H    -42.1761174  7.950487599999999  -12.074970599999999
H    -43.6445959  6.991570199999999  -11.8227541
H    -38.5536007  7.140901899999999  -12.792717799999998
H    -37.5482929  9.2007818  -11.765334
H    -40.0175173  10.277062899999999  -8.1244658
H    -41.9948696  9.3591491  -6.959545199999999
H    -43.0825702  7.3057009  -7.805731699999999
H    -42.1993297  6.1784598  -9.8061145
H    -44.6263932  1.039777899999999  -15.587983999999999
H    -44.3034671  0.4990004999999993  -13.9347166
H    -43.0691604  0.310019099999999  -15.1887119
H    -42.8666956  2.6305545999999995  -15.533975499999999
H    -39.7979602  2.640243699999999  -12.559019999999999
H    -38.9068018  4.6954275999999995  -11.532654999999998
H    -45.130743  3.359717399999999  -14.6297968
H    -41.5240266  1.5647730999999991  -13.7004667
