61

O    0.856  17.291  -6.006
C    -0.015786500000000037  18.039934  -5.569536
N    -0.39570839999999996  19.1331398  -6.254415900000001
C    -1.2930293  20.153362  -5.7652343
C    -2.5460396999999997  20.3192449  -6.5898614
C    -3.3331533999999996  19.2259754  -6.9226587
C    -4.5030206999999995  19.3921319  -7.6258648
C    -4.9293225  20.6608537  -8.0136409
N    -6.1098747  20.810312099999997  -8.6756967
C    -4.1416412  21.7628164  -7.684456600000001
C    -2.9720693000000002  21.5836124  -6.9777912
C    0.17305289999999995  19.370874099999998  -7.5683965
C    1.6722556  19.4702163  -7.573273100000001
N    2.4450908  18.822898199999997  -8.467784700000001
N    3.6828864  19.1364934  -8.2153703
N    3.668883  19.962238499999998  -7.195257000000001
C    4.857410600000001  20.5415225  -6.611864800000001
N    2.4357693  20.1997484  -6.760252700000001
N    -0.5814515  17.8277902  -4.3441444
C    -0.20521280000000008  16.6146275  -3.6441880000000006
C    -0.8418464999999999  15.422335799999999  -4.349790200000001
O    -1.9886321  15.5479498  -4.779984700000001
N    -0.17747920000000006  14.268875699999999  -4.4691694
C    -0.852619  13.0823781  -4.9830525
C    0.21088359999999995  11.989316299999999  -4.986479600000001
C    1.5287169  12.7471341  -5.0586511000000005
C    1.2389584999999999  14.0233829  -4.261836100000001
C    1.5589111999999998  13.788852599999998  -2.8197773000000006
C    2.8694132999999997  13.8063314  -2.3780937000000004
Br    4.3045929  14.0914416  -3.6004959000000003
C    0.5619055  13.5220715  -1.8967193000000004
C    0.8746027999999999  13.325802399999999  -0.5664634000000008
C    2.1892407  13.3821433  -0.14114260000000023
C    3.1961462000000003  13.6269233  -1.0513562000000007
H    -0.7452551000000001  21.1041497  -5.7550106
H    -1.55481  19.9295184  -4.730575300000001
H    -3.0200123999999997  18.2312171  -6.632427600000001
H    -5.1050064  18.5319719  -7.881326700000001
H    -6.2752982  21.6851558  -9.1424463
H    -6.5170661  19.9939273  -9.0969767
H    -4.4533396  22.7526455  -7.980790600000001
H    -2.3697948  22.4447741  -6.724169900000001
H    -0.2535838  20.297556399999998  -7.952914000000001
H    -0.07851090000000005  18.5484394  -8.246209400000001
H    5.7042991  20.1832456  -7.188659300000001
H    4.9383168  20.2275999  -5.573222500000001
H    4.7858383  21.6259344  -6.6577033000000005
H    -1.5715413  18.020416  -4.2738962
H    -0.5895187  16.672696  -2.6250744000000004
H    0.8825898999999999  16.54874  -3.6288441000000002
H    -1.2256358  13.295779  -5.990502300000001
H    -1.7151313000000001  12.8496367  -4.3553797
H    0.08166609999999996  11.3053595  -5.8204631000000004
H    0.16274049999999995  11.4197741  -4.057762500000001
H    1.7667816  13.007649299999999  -6.090711400000001
H    2.3580436000000002  12.179502499999998  -4.6447193
H    1.8144703  14.8711816  -4.651638800000001
H    -0.4657856  13.494515799999999  -2.2196569000000004
H    0.08744739999999995  13.1237436  0.1425743999999991
H    2.4321834  13.2388646  0.8994609999999996
H    4.2280641  13.6641984  -0.7396224000000009
