50

C    -14.943  -7.591  24.163
C    -11.7563553  -8.997979500000001  25.0012883
C    -13.5935296  -6.8284853000000005  19.9042693
C    -13.3051705  -6.5057017  18.459623399999998
C    -11.9738651  -5.757274400000001  18.351326999999998
C    -11.4584848  -5.8240246  16.945094599999997
C    -10.7531266  -6.9333445000000005  16.4941368
C    -10.3148433  -7.002394000000001  15.1844577
C    -10.588204  -5.9596008000000005  14.3174301
C    -11.2991692  -4.857302000000001  14.759201099999999
C    -11.7350627  -4.7879465  16.068826299999998
C    -13.2043618  -8.161943500000001  22.5377506
C    -14.3423415  -8.4028401  21.5393814
C    -14.8865205  -9.827060000000001  21.6280422
C    -15.0255563  -10.310426  23.0647497
C    -15.1751511  -6.9369145  25.5217515
C    -14.1970039  -7.4605949  26.5487854
C    -12.8166694  -7.022922100000001  26.1044016
C    -12.4515886  -7.6238951  24.7455364
N    -13.5590604  -7.778070100000001  23.7920466
N    -13.9120656  -8.104117800000001  20.1911068
O    -10.551505800000001  -8.954101600000001  25.308211399999998
O    -12.4389497  -10.036726300000002  24.919282199999998
O    -12.034896400000001  -8.3102291  22.191932899999998
O    -13.6231796  -5.946396400000001  20.755431599999998
S    -15.9282359  -9.1729877  24.155380599999997
S    -14.7775731  -5.549319800000001  17.9351213
H    -15.421935399999999  -6.9612069000000005  23.405504399999998
H    -13.3056837  -7.398806700000001  17.834275299999998
H    -11.2764605  -6.243845100000001  19.0411444
H    -12.104167799999999  -4.7262428000000005  18.68159
H    -10.5390439  -7.738812500000001  17.1837585
H    -9.7610358  -7.8648715000000005  14.8462927
H    -10.247068800000001  -6.006315900000001  13.2943523
H    -11.514427  -4.047803  14.078361099999999
H    -12.2934942  -3.9304127000000006  16.412018099999997
H    -15.1448728  -7.687695100000001  21.747519999999998
H    -14.191431099999999  -10.503824000000002  21.124914099999998
H    -15.8548257  -9.864582500000001  21.1267218
H    -14.0460478  -10.4594931  23.5295553
H    -15.590873  -11.238185000000001  23.1176651
H    -16.2067228  -7.1479775000000005  25.806562999999997
H    -15.050174  -5.857083300000001  25.419583
H    -14.2421215  -8.552154400000001  26.593261499999997
H    -14.4200998  -7.0614056000000005  27.537193199999997
H    -12.0399771  -7.341402800000001  26.8037209
H    -12.7862175  -5.931877700000001  26.0383562
H    -11.6909101  -7.007251500000001  24.2482932
H    -13.6824436  -8.860503900000001  19.5658158
H    -14.6922435  -4.632497800000001  18.892796999999998
