166

N    59.374  -38.267  -8.74
C    58.4332061  -38.5607874  -7.627720200000001
C    57.792169200000004  -37.24364860000001  -7.1194728000000005
O    58.3401847  -36.5325843  -6.2938068000000005
C    59.1571675  -39.28084440000001  -6.4842748
C    60.562941699999996  -38.71797240000001  -6.2498262
C    60.9745275  -38.8466226  -4.788967
N    61.118313799999996  -40.24176200000001  -4.402853
C    61.9983748  -40.690479100000005  -3.513901
N    62.8278631  -39.852312600000005  -2.8977159
N    62.0535747  -41.992459600000004  -3.2339049
N    56.6215018  -36.9487912  -7.706523
C    55.8628857  -35.758158800000004  -7.3578766
C    55.3055322  -35.8893739  -5.9253485
O    55.006698  -36.98426800000001  -5.471033
C    54.6790026  -35.607338000000006  -8.3182493
C    55.0907395  -35.637305700000006  -9.7933493
C    53.8608765  -35.4130229  -10.6864347
N    53.0294743  -34.35830490000001  -10.1248151
C    52.5031717  -33.3210763  -10.760860000000001
N    52.6485475  -33.1719013  -12.0837948
N    51.7878098  -32.434327800000005  -10.070525400000001
N    55.1022584  -34.739642  -5.2592775
C    54.5198373  -34.73198240000001  -3.9179138
C    53.0311569  -35.13954640000001  -3.9951974
O    52.525129  -35.8541322  -3.1360577000000003
C    54.6980826  -33.33728310000001  -3.2892644
C    54.2329696  -33.235727700000005  -1.8251542
C    54.6544389  -31.875760900000003  -1.2345920000000001
N    54.0822648  -31.604080100000004  0.08017740000000018
C    52.9394496  -30.954544800000004  0.30853350000000024
N    52.1687804  -30.577097400000007  -0.7124046000000002
N    52.5211834  -30.745136500000005  1.5614845000000006
N    52.3387556  -34.63981820000001  -5.033026700000001
C    50.9099501  -34.87151490000001  -5.2415632
C    50.6297386  -35.283828400000004  -6.7034497
O    51.2427214  -34.768961000000004  -7.634885000000001
C    50.1097021  -33.597387600000005  -4.8828742
C    50.3870887  -33.11889660000001  -3.4501064
C    49.7373523  -34.038682300000005  -2.4055254
N    49.9628108  -33.5772891  -1.0403056
C    50.7749616  -34.1503299  -0.14995060000000038
N    51.5442688  -35.1766561  -0.48554350000000035
N    50.8507757  -33.66641490000001  1.0985429
C    47.9049514  -36.689651000000005  -8.5706801
N    49.7082491  -36.239084600000005  -6.8879895
O    47.0357384  -36.701510000000006  -7.7096487
C    49.3970689  -36.80050500000001  -8.1994549
C    49.728049  -38.30260450000001  -8.162571400000001
C    51.7997571  -39.182892200000005  -9.2890902
C    53.2617878  -39.595217100000006  -9.1091184
C    51.2323727  -38.571023700000005  -8.0058385
N    53.9665511  -39.612842400000005  -10.4154164
N    47.642725  -36.6081525  -9.892282999999999
C    46.2794719  -36.658382  -10.4230792
C    45.709741  -38.0389278  -10.031485
O    46.4091105  -39.0333899  -10.1949963
C    46.3012842  -36.54105020000001  -11.956806
C    46.7363345  -35.16190410000001  -12.4770188
C    47.0285557  -35.24399460000001  -13.9885365
N    47.4158803  -33.965812500000006  -14.5726214
C    48.640673  -33.4409398  -14.5170899
N    49.6079002  -34.0630522  -13.8428953
N    48.8917641  -32.264481800000006  -15.0920072
N    44.4848428  -38.078056700000005  -9.4919908
C    43.8695686  -39.318089900000004  -9.0190678
C    43.9749928  -39.414100000000005  -7.5292804
C    45.1984138  -39.7109165  -6.9396274
C    45.327877  -39.7703156  -5.5657392
C    44.2334246  -39.534628000000005  -4.727778600000001
C    44.3801383  -39.60385110000001  -3.2734544000000003
N    45.5531893  -39.890086600000004  -2.7456699
N    43.3483449  -39.340696200000004  -2.4987348000000003
C    43.0055105  -39.2343826  -5.3254627
C    42.8829914  -39.1750922  -6.703468
H    58.9015794  -37.8437715  -9.5485339
H    60.1099537  -37.620497400000005  -8.429071
H    59.8335919  -39.132519300000006  -9.0521554
H    57.6456106  -39.214145300000006  -8.007653900000001
H    59.2121794  -40.34456060000001  -6.7128198
H    58.5593074  -39.15860060000001  -5.5815531
H    60.5689668  -37.6434154  -6.4367771000000005
H    61.3084787  -39.208980100000005  -6.8723468
H    60.2345953  -38.353873400000005  -4.1499623
H    61.9325229  -38.34153690000001  -4.665153200000001
H    60.4483363  -40.895153900000004  -4.7787463
H    62.7318545  -42.34911760000001  -2.5840888
H    61.4905487  -42.66226940000001  -3.7290717
H    56.0854364  -37.698246600000004  -8.1201333
H    56.5442267  -34.9045136  -7.412148
H    54.2264141  -34.6495145  -8.0782729
H    53.9571894  -36.3968192  -8.1012401
H    55.5623723  -36.577071600000004  -10.059833300000001
H    55.8141004  -34.84052200000001  -9.969036599999999
H    53.2539448  -36.32174620000001  -10.726880399999999
H    54.1891719  -35.1663999  -11.6922491
H    52.6441961  -34.544481700000006  -9.204374
H    52.4178614  -32.277353500000004  -12.4850011
H    53.3623799  -33.685951300000006  -12.573927099999999
H    55.5003931  -33.87663980000001  -5.5983894
H    55.0102414  -35.4954741  -3.3029383
H    54.1612617  -32.60360910000001  -3.8928380000000002
H    55.7622307  -33.096380200000006  -3.3267534000000003
H    54.6815214  -34.03979940000001  -1.2440107000000005
H    53.1504142  -33.3367858  -1.7652450000000002
H    54.3906823  -31.069407400000003  -1.9209164999999997
H    55.7396009  -31.854283800000005  -1.1226889
H    54.6123865  -31.923514900000004  0.8760091000000001
H    51.728654399999996  -30.151882000000004  1.7388332999999996
H    53.1194191  -30.945455000000006  2.3444917000000007
H    52.8007379  -34.054876900000004  -5.7146461
H    50.6294548  -35.693588600000005  -4.5790919
H    49.0464224  -33.797731600000006  -5.0117383
H    50.3884616  -32.80540140000001  -5.5782861
H    49.9751003  -32.1157776  -3.3418717
H    51.4606419  -33.07072900000001  -3.278467
H    50.1194604  -35.052459000000006  -2.5037307
H    48.6582517  -34.064102600000005  -2.5741381
H    49.4005084  -32.7973982  -0.7359011000000004
H    51.3569963  -34.182351600000004  1.7980981000000007
H    50.1505684  -33.02922100000001  1.4383148000000006
H    49.1389241  -36.571833000000005  -6.1241561
H    50.0104744  -36.26738280000001  -8.9288724
H    49.3422606  -38.7741953  -9.0671552
H    49.1676185  -38.73833940000001  -7.3340822
H    51.1966626  -40.045934300000006  -9.5691001
H    51.7181281  -38.442767800000006  -10.0858835
H    53.3163837  -40.580798200000004  -8.6502592
H    53.7599046  -38.88448830000001  -8.4481733
H    51.3943277  -39.2619369  -7.1788709
H    51.7496056  -37.643543300000005  -7.7643244
H    54.9101337  -40.004965600000006  -10.3303403
H    53.4538824  -40.2118655  -11.0752956
H    54.0183112  -38.6721439  -10.8236365
H    48.3705943  -36.848430500000006  -10.5496358
H    45.6924621  -35.86017880000001  -9.962277
H    45.3007197  -36.7701575  -12.326691400000001
H    46.9635479  -37.32095270000001  -12.3385997
H    47.6227631  -34.826527600000006  -11.9413049
H    45.9401158  -34.439910000000005  -12.2995877
H    46.128244  -35.576734900000005  -14.5062991
H    47.8028733  -35.9877996  -14.187801799999999
H    46.6859548  -33.427886400000006  -15.0114061
H    49.8243796  -31.890729900000004  -15.1271265
H    48.1821532  -31.776900200000007  -15.6101032
H    43.9771445  -37.224529600000004  -9.3189682
H    44.4129476  -40.1401327  -9.493178
H    42.8269575  -39.340961300000004  -9.342326400000001
H    46.0496096  -39.897269400000006  -7.5757557
H    46.3012979  -40.008019000000004  -5.1727015000000005
H    45.6504965  -39.9796126  -1.7444148000000004
H    46.3358512  -40.15809110000001  -3.3187219000000003
H    42.116242  -39.048089000000004  -4.7460789000000005
H    41.920826  -38.94819950000001  -7.1379863
H    52.5102622  -30.641046800000005  -1.6560788999999998
H    51.3983248  -29.951470000000004  -0.5457004000000003
H    51.6968058  -35.4848725  -1.4388994999999998
H    52.119304  -35.61366590000001  0.2142558999999995
H    42.444242599999995  -39.113887500000004  -2.8761073
H    43.4225707  -39.406428600000005  -1.4940046000000002
H    62.7619439  -38.855751600000005  -3.0017022
H    63.514642800000004  -40.20420910000001  -2.2536026
H    51.344432499999996  -31.654212000000005  -10.522795
H    51.5296673  -32.6381432  -9.118606
H    50.5579342  -33.749531600000005  -13.9588503
H    49.4627675  -35.011431200000004  -13.540115400000001
