36

C    43.97  31.567  9.15
C    44.4828517  31.8700765  10.4344918
C    45.7871964  32.3676746  10.5491691
C    46.5483828  32.5833804  9.4292174
C    46.047022299999995  32.2885996  8.155659900000002
C    44.7768758  31.7746341  8.0203412
C    42.3459162  31.0753211  11.337572600000001
C    43.6307111  31.611339400000002  11.560791600000002
N    42.705351199999996  31.0970881  8.9553937
C    41.91857529999999  30.8625349  9.969382000000001
C    42.032007799999995  31.0440791  13.709402800000001
N    43.2373109  31.5729133  13.928504
C    44.0065676  31.8319644  12.8987066
C    41.55251989999999  30.771598  12.451157100000001
N    40.6298822  30.4290774  9.774859000000001
C    40.00082269999999  30.0454969  8.5919158
C    40.7174504  29.5327434  7.515060200000001
C    40.03761969999999  29.131810100000003  6.381553400000001
C    38.6601832  29.2183753  6.2777878000000005
C    37.9510911  29.7134673  7.359408600000001
C    38.60907219999999  30.1212229  8.5041139
Cl    40.966865  28.5095321  5.0383741
C    46.9060839  32.590152700000004  6.9356714
O    46.616946299999995  32.0210251  5.859482300000001
O    47.838482899999995  33.4128336  7.095153700000001
H    46.1994475  32.596212  11.518943100000001
H    47.5480222  32.9896424  9.490758000000001
H    44.39845149999999  31.5435425  7.035200900000001
H    41.453408399999994  30.8353074  14.597116800000002
H    44.9745054  32.2453252  13.140007200000001
H    40.581015199999996  30.3162095  12.3514038
H    40.00175539999999  30.5722356  10.5512574
H    41.791725799999995  29.4771326  7.5640350000000005
H    38.1634495  28.903179  5.376256400000001
H    36.87728129999999  29.7873197  7.3036615000000005
H    38.04321289999999  30.505782  9.338714300000001
