67

C    -5.5  1.748  -28.101
C    -4.351947099999999  1.2063864000000002  -23.7105008
C    -4.4053834  -0.42362050000000007  -21.9788905
C    -4.409847399999999  -1.7931998  -21.602795399999998
C    -4.7625288999999995  -2.4157672000000003  -20.427404
C    -4.0754214  -4.1799359  -21.522021199999998
C    -2.474776  -6.6750571999999995  -23.2437217
C    -2.2355196999999998  2.7059151999999997  -33.1085162
C    -3.7789531  2.4123691999999997  -31.371299899999997
C    -4.6198961999999995  3.3543452  -31.942787099999997
C    -5.7584858  3.7627978000000004  -31.276942999999996
C    -6.0649946  3.2542542  -30.025904999999998
C    -8.3332897  3.8123262  -30.171239699999997
C    -5.2227862  2.3059111000000003  -29.448172999999997
C    -4.1522879  1.5866364999999998  -27.3961422
C    -4.274057  0.8125012  -26.122541799999997
C    -4.4122496  -0.12608560000000002  -23.334436099999998
C    -4.3152881999999995  0.6043981999999999  -21.0444137
C    -4.268262099999999  1.8958175  -21.525837099999997
C    -2.7128072  -7.4694026  -24.368348299999997
C    -1.8956524  -8.5499326  -24.627684499999997
C    -0.8064985  -8.8244611  -23.8093084
C    -0.5373970999999997  -8.0062496  -22.721028299999997
C    -1.3673403999999998  -6.9438032  -22.4291366
C    -5.3053091  -1.7464184  -19.271510099999997
C    -4.6210629999999995  -1.8565111  -18.0708457
C    -5.1183195  -1.2477833  -16.9348733
C    -6.3058019  -0.5446046  -17.023905499999998
C    -7.0002805  -0.4292821  -18.216387499999996
C    -6.4939894  -1.0348253  -19.3518135
C    -4.0981246  1.8869016  -30.1319426
F    -6.8090664  0.050702499999999984  -15.895489699999997
N    -4.3368820999999995  1.6096989  -25.0268035
N    -4.2860211999999995  2.1945264  -22.820085
N    -4.5625218  -3.7382199  -20.396842799999998
N    -3.6697865999999997  -5.4152125  -21.800017999999998
N    -3.2807513999999998  -5.604140699999999  -22.9978415
O    -2.6340301999999998  1.96933  -31.967217499999997
O    -7.1998256  3.6189494  -29.340943199999998
O    -4.2876486  -0.40844800000000003  -26.113981399999997
S    -3.7925956  -2.9277612  -22.708096299999998
H    -5.986443599999999  0.7716992  -28.183770499999998
H    -6.1597225  2.4116191000000002  -27.542948799999998
H    -2.9140860999999996  2.5369779  -33.947285199999996
H    -2.166474  3.7721327000000002  -32.8858562
H    -1.2488287999999996  2.3249395999999996  -33.3667251
H    -4.422926599999999  3.7822154  -32.9105968
H    -6.400390099999999  4.4907806  -31.745343999999996
H    -8.3272534  4.8030458000000005  -30.632970399999998
H    -8.3873193  3.044576  -30.9447238
H    -9.1980902  3.7357073000000005  -29.514015899999997
H    -3.7092712999999997  2.56768  -27.2321015
H    -3.4815142999999997  0.9908395000000001  -28.006826999999998
H    -4.4807289  -0.9043855000000001  -24.074764499999997
H    -4.2649378  0.4031929999999999  -19.989081
H    -4.203013299999999  2.744909  -20.861715399999998
H    -3.5705247  -7.2563521  -24.985995699999997
H    -2.1045539  -9.183613900000001  -25.4754597
H    -0.16910630000000015  -9.6675102  -24.0230255
H    0.3178051000000002  -8.2025016  -22.093090999999998
H    -1.1805561  -6.2990357999999995  -21.583447
H    -3.7050547999999996  -2.4223383  -18.0291328
H    -4.6055597  -1.3162551  -15.989035699999999
H    -7.925062499999999  0.12422310000000003  -18.2431137
H    -7.0211555  -0.9599942  -20.288837199999996
H    -3.4493666999999997  1.1071112  -29.7782849
H    -4.3148024  2.6145312  -25.1515167
