44

C    1.802  -6.87  -7.573000000000001
N    1.9488385000000001  -6.5929333  -8.969177400000001
C    1.5510973  -5.4311496  -9.481832100000002
N    2.4716810000000002  -7.3934029  -9.893906400000002
C    2.4055526  -6.7345901  -11.043213800000002
C    1.834635  -5.4904839  -10.819532300000002
N    1.531813  -4.4849714  -11.688705100000002
C    0.3495747  -3.8744948000000003  -11.564994400000002
O    -0.5151157  -4.1761359  -10.743730400000002
C    0.15016510000000005  -2.7696021  -12.492048900000002
C    -0.8492903999999999  -1.8745984000000002  -12.2715153
C    0.9737998000000001  -2.6227597000000005  -13.635489600000001
N    1.9639248  -3.4740276000000003  -13.914384700000001
C    2.7008075000000002  -3.3031882  -14.983448700000002
C    2.5094662999999997  -2.2618559  -15.883865700000001
C    1.4927813  -1.3764111  -15.6257902
C    0.7142618000000001  -1.5573056000000003  -14.487312900000001
C    -0.3489162  -0.6373499000000001  -14.230036600000002
O    -0.5715579  0.2964157999999999  -14.985588300000002
N    -1.109871  -0.8557217000000001  -13.112114100000001
C    -2.1075756  0.15465259999999992  -12.811893200000002
C    -1.3512  1.3058563999999997  -12.227406600000002
C    -1.0333463999999999  1.3112990999999998  -10.8768708
C    -0.2739558999999999  2.3360486  -10.343746600000001
Cl    0.09976760000000001  2.3949195999999997  -8.651537200000002
C    0.18666920000000004  3.3554183  -11.162530600000002
Cl    1.1235324  4.6114165  -10.489242400000002
C    -0.11406640000000001  3.3478490999999995  -12.5102734
C    -0.8821432  2.3282892  -13.037035800000002
H    2.3628317  -6.1405201  -6.989275400000001
H    0.7491563  -6.821845300000001  -7.2965360000000015
H    2.1838766  -7.8676276000000005  -7.364879900000002
H    1.0986221  -4.6593833  -8.897326900000001
H    2.7712328  -7.1716605  -11.948416800000002
H    2.0562141  -4.3339184  -12.5619609
H    -1.4832844  -1.9911315000000003  -11.405069000000001
H    3.4818648  -4.0365269  -15.129013700000002
H    3.139898  -2.1615308000000004  -16.751215000000002
H    1.2712482  -0.5419141000000002  -16.2740899
H    -2.8356878  -0.25531170000000025  -12.113845000000001
H    -2.5905355  0.44391639999999977  -13.746922300000001
H    -1.3836446  0.5270447999999999  -10.224396100000002
H    0.24902470000000004  4.1437906  -13.139399300000001
H    -1.1174423  2.3320312999999997  -14.088646800000001
