53

C    -19.48  6.2669999999999995  -0.46899999999999986
C    -13.244632300000001  8.6263282  -1.9670187
C    -10.524251800000002  9.2164936  0.6621952000000002
C    -25.172037600000003  9.6570793  -5.6464985
C    -23.9263523  9.927837  -4.8435103
C    -23.215162300000003  8.8968904  -4.2323395999999995
C    -22.0719067  9.1523858  -3.486608
C    -21.5787136  10.4453218  -3.3686036
C    -19.0703435  9.2406851  -2.5026710999999997
C    -18.8714508  7.124806599999999  -1.5682968
C    -17.333549  7.241229799999999  -1.4154499999999999
C    -16.8066639  8.2008188  -2.5041249
C    -14.541373800000002  8.7984489  -1.4893064999999999
C    -11.949536000000002  8.9508996  -1.3316217999999997
C    -11.734690500000003  8.935164799999999  0.04002290000000008
C    -9.375897400000001  9.5242171  -0.08239439999999987
C    -9.5775286  9.5438279  -1.4685462999999999
C    -10.801620900000001  9.2463456  -2.054729
C    -17.5554263  9.5460693  -2.4220338999999997
C    -22.281099400000002  11.4912843  -3.9562371
C    -23.4351911  11.222304399999999  -4.6771094
F    -12.793473100000002  8.610759  0.7890555000000004
F    -10.452832500000001  9.1518655  2.0067699
F    -8.516479400000001  9.8554408  -2.2502339
F    -10.924359800000001  9.2833012  -3.3824036
N    -15.359262900000001  8.3186169  -2.4524634
N    -13.376590600000002  8.0543114  -3.2068374
N    -14.613443200000003  7.887431599999999  -3.4791526
O    -19.4715968  8.3997706  -1.465414
O    -20.840937800000003  6.045834599999999  -0.7319962999999998
O    -16.988041300000003  7.7531754  -0.15301489999999984
O    -8.196519600000002  9.775751099999999  0.49417420000000023
O    -17.153684900000002  10.3376799  -3.5057221
S    -20.074918500000003  10.796044  -2.4455346999999996
H    -19.360548100000003  6.8084168  0.4770447
H    -18.9367859  5.312151  -0.43004529999999996
H    -24.929711700000002  9.047182  -6.5146064
H    -25.8945012  9.1111519  -5.0437235000000005
H    -25.6201359  10.586720399999999  -5.9829571999999995
H    -23.5647209  7.878779  -4.315763199999999
H    -21.5727871  8.3314358  -2.9919896
H    -19.280168000000003  8.7868971  -3.4861302
H    -19.105195300000002  6.686204699999999  -2.5512517999999997
H    -16.8831336  6.2535907  -1.5790746999999998
H    -17.0011838  7.7709841  -3.4930665999999997
H    -14.912533300000002  9.192356  -0.5672709999999999
H    -17.3419597  10.0286724  -1.4573474999999998
H    -21.918103600000002  12.5016999  -3.8567199
H    -23.963992100000002  12.0502907  -5.126299599999999
H    -21.2475208  5.6061201  0.028329700000000235
H    -17.001192300000003  7.0560956  0.5149242000000003
H    -7.504464400000002  9.979152299999999  -0.16090269999999984
H    -17.617939300000003  11.189324599999999  -3.4848749
