49

F    20.03  162.974  145.363
C    27.6078186  163.12597929999998  148.01783849999998
C    26.190376  162.8668741  147.4779223
C    21.227211600000004  162.39664879999998  145.6028442
C    21.619879400000002  162.24923069999997  146.9239173
C    22.8389707  161.6409592  147.1630779
C    21.9920593  161.96426659999997  144.5249279
C    23.2140482  161.36065419999997  144.78072519999998
C    23.612800000000004  161.21280829999998  146.0964118
S    25.200565400000002  160.56309919999998  146.4485909
O    25.160510100000003  159.99962309999998  147.774771
O    25.6408938  159.71454479999997  145.3672727
N    26.1982597  161.8514228  146.44829389999998
C    25.5475354  164.1763312  146.9927257
C    25.291069200000003  165.10065759999998  148.18977429999998
C    26.5173798  165.15743239999998  149.0588261
C    27.528234700000002  164.24260429999998  149.0145428
C    28.4501099  164.56824099999997  150.0630179
C    27.9277009  165.72018559999998  150.7110817
C    28.5858525  166.24659139999997  151.82150289999998
C    29.755245600000002  165.63058529999998  152.25157299999998
C    30.286000700000002  164.5166864  151.59479399999998
C    29.640465000000003  163.97914669999997  150.49851669999998
N    26.743197300000002  166.119927  150.0634935
C    26.571057300000003  167.51257159999997  149.6319237
C    25.852661  168.4856993  150.5615312
C    26.931032000000002  169.28436969999998  151.3264357
O    27.663086500000002  170.07554159999998  150.6992516
O    27.0435772  169.05992709999998  152.5533514
H    28.273936100000004  163.4049661  147.1982199
H    27.997676900000002  162.21835099999998  148.47938109999998
H    25.591858600000002  162.44330709999997  148.2900655
H    20.986408800000003  162.59590659999998  147.72254039999999
H    23.202625400000002  161.47621329999998  148.16337679999998
H    21.625617300000002  162.10133069999998  143.5211066
H    23.8494658  160.99582769999998  143.9924063
H    26.5405787  162.12312759999998  145.54245229999998
H    24.607513200000003  163.96258799999998  146.48373619999998
H    26.2266362  164.66483279999997  146.29374529999998
H    24.465378100000002  164.7107657  148.7918144
H    24.993505000000003  166.0888574  147.83687659999998
H    28.202790800000002  167.120975  152.32829579999998
H    30.264615900000003  166.03611759999998  153.113116
H    31.203325000000003  164.077815  151.9555677
H    30.030509400000003  163.1096216  149.9918825
H    26.0298057  167.4814816  148.686042
H    27.562819500000003  167.9394812  149.4217452
H    25.219125700000003  167.97062609999998  151.2822122
H    25.263725500000003  169.1889369  149.9738061
