68

C    74.914  128.734  123.138
C    76.655835  128.82682540000002  124.8953388
C    75.967838  130.0495424  125.50856700000001
C    74.2648001  129.93359220000002  123.80877040000001
C    75.1043963  132.0827983  124.51675630000001
C    74.398818  132.72958160000002  123.4214108
C    73.4397281  133.6452227  123.70291680000001
C    72.9094688  134.39682560000003  122.65767290000001
C    73.4737581  134.34262170000002  121.36488340000001
C    74.5698068  133.49324470000002  121.14585520000001
C    75.030752  132.70783100000003  122.16417440000001
C    71.3633876  135.94862990000001  122.05278150000001
C    71.8322696  135.96804550000002  120.72707030000001
C    72.8862034  135.1653612  120.3890537
C    75.7709171  129.18556660000002  121.9557039
C    75.561202  126.67608810000002  124.2451216
C    76.0891061  124.62043430000001  125.20872100000001
C    76.9016257  123.94451150000002  124.11029020000001
C    78.3854  124.18734320000002  124.3521058
C    70.2113776  136.6756367  122.51233610000001
C    69.7276779  137.8076315  121.88309230000002
C    68.6049521  138.4259676  122.38842340000001
C    67.9843442  137.9080652  123.51547870000002
C    68.4965868  136.79403290000002  124.16922530000001
C    69.6128257  136.18728480000001  123.67105280000001
C    66.8107138  138.5566033  124.08844700000002
C    65.9996747  137.82905200000002  125.11995080000001
C    66.9318328  138.93253410000003  125.53759600000001
N    75.680724  128.0161084  124.166222
N    75.2544339  130.75803430000002  124.46893820000001
N    71.8697095  135.15778790000002  122.9644116
N    66.1074705  139.48438280000002  123.18971250000001
O    75.7699619  132.82298590000002  125.23716410000002
O    76.2988181  126.04655650000002  125.18630120000002
O    74.7466318  126.06359910000002  123.56626200000001
H    74.1439995  128.0409491  122.79019710000001
H    77.0922028  128.20884560000002  125.67894170000001
H    77.4450051  129.1469193  124.21038910000001
H    76.7032824  130.72834550000002  125.94245400000001
H    75.2688155  129.72871080000002  126.28952600000001
H    73.5414172  129.57738340000003  124.55453910000001
H    73.7320265  130.52697550000002  123.06605330000001
H    73.0162662  133.74085140000003  124.6893931
H    75.0468446  133.48091180000003  120.17709230000001
H    75.8751555  132.05617420000002  122.01184750000002
H    71.3619969  136.59480510000003  119.9867863
H    73.268281  135.1421989  119.37781580000001
H    76.51623120000001  129.90858400000002  122.2724852
H    76.2772429  128.33146040000003  121.51213890000001
H    75.13086  129.6366187  121.20459960000001
H    76.4334906  124.31373300000001  126.19667650000001
H    75.0215286  124.41779890000002  125.0945578
H    76.5945938  124.34552630000002  123.14327100000001
H    76.6810661  122.87740310000002  124.123287
H    78.5919845  125.25399740000002  124.39358730000001
H    78.6916085  123.74032890000002  125.29450920000001
H    78.9798361  123.75092520000001  123.5533747
H    70.2277577  138.20960670000002  121.0165795
H    68.246076  139.30769070000002  121.88567100000002
H    68.0589505  136.4063508  125.06999460000002
H    70.0375092  135.3178177  124.1413169
H    66.2080276  136.80166250000002  125.35560310000001
H    64.9426928  138.04660810000001  125.15766140000001
H    66.4982468  139.85889870000003  125.8786182
H    67.8511763  138.67993850000002  126.0411234
H    65.2408835  139.8172292  123.63395650000001
H    66.6919266  140.30450660000002  122.98082400000001
H    65.8609225  139.01094650000002  122.30991310000002
