44

P    3.057  -38.753  -2.714
O    3.6089506  -39.2679007  -4.026011899999999
O    3.8377606  -39.1891206  -1.4923436999999997
O    1.5612964  -38.8636448  -2.5868955999999996
O    3.4663549000000002  -37.105086  -2.8013998
P    2.4684439  -35.893647  -2.63543
O    1.2205088000000002  -36.0561644  -3.4271827999999998
O    3.3137211  -34.678998500000006  -2.8754443999999997
O    2.144374  -35.912344000000004  -1.0287223999999997
P    0.6329464000000001  -35.819771  -0.3911815999999998
O    -0.3640956999999999  -36.6144198  -1.1555957
O    0.7756962000000001  -36.083347100000005  1.0650525000000002
O    0.3215201000000001  -34.2243137  -0.5241686999999998
C    0.8495358000000001  -33.337225700000005  -1.4878532999999998
C    0.44233470000000014  -31.896619800000003  -1.1215513999999998
O    -0.8496499999999999  -31.883844000000003  -0.5276140999999998
C    1.4150183  -31.1892166  -0.15110929999999978
O    1.6651636  -29.880340800000003  -0.5974856999999998
C    0.6437497000000001  -31.171337100000002  1.1598546000000003
C    -0.8060206999999999  -31.1358405  0.6829522000000002
N    -1.6969321  -31.621783800000003  1.7148667000000002
C    -1.7549461  -32.9040027  2.259005
N    -2.6764375  -32.8915145  3.2635721
C    -3.1980054  -31.6150698  3.3742765
C    -4.1838033999999995  -31.0585583  4.235614
O    -4.8181737  -31.639891100000003  5.1190585
N    -4.4006205  -29.705529700000003  3.9918675000000006
C    -3.7463485  -28.989334400000004  3.0290503
N    -4.03581  -27.696105900000003  2.8870543000000004
N    -2.829014  -29.5219205  2.2316900000000004
C    -2.5756901  -30.826003200000002  2.4077494
O    -1.0913711  -33.8740091  1.9262725000000003
H    0.44973220000000014  -33.618124900000005  -2.4739196999999997
H    1.9362148000000001  -33.447437900000004  -1.5631313999999998
H    0.39773390000000014  -31.321805200000004  -2.0571558
H    2.3394974  -31.7752112  -0.09058469999999978
H    2.3693876  -29.485411400000004  -0.055180499999999785
H    0.8943358000000001  -30.326867800000002  1.7950757000000002
H    0.8022844000000001  -32.1195755  1.6774064000000002
H    -1.1457399  -30.109242300000002  0.4734890000000002
H    -3.55186  -27.193350300000002  2.1627445
H    -4.7407717  -27.250707000000002  3.4487562
H    -5.0998223  -29.2635845  4.5804764
H    -2.9283082  -33.7037324  3.8000861
