187

C    -1.9789999999999992  3.7170000000000005  -6.015
C    -1.719501199999998  2.2928444  -6.5278502000000005
C    -0.31370259999999917  2.1561269999999997  -7.0995982
C    -0.06628779999999956  3.2202040000000007  -8.1630833
C    -0.4271198999999992  4.6294076  -7.6612465
C    -0.4633003999999996  5.5729846  -8.8816329
N    -1.8755070999999983  1.312496900000001  -5.4275864
O    -0.21129889999999918  0.8604499000000008  -7.657130099999999
O    1.3082764000000005  3.1516385000000007  -8.4862642
O    -1.702440799999998  4.7070904  -7.0156362
O    -1.7617430999999986  6.0927964  -8.989468299999999
C    -5.848492899999998  6.4377519  -3.6274328999999996
C    -5.612796999999999  6.6543426000000006  -5.1378189999999995
C    -4.5006708999999985  5.8348551  -5.812427199999999
C    -3.6685212999999983  4.9453129  -4.8852173
C    -4.428034899999998  4.5817606  -3.6052524000000004
C    -3.5834193999999986  3.707586  -2.6818035
N    -6.8892384999999985  6.3566097  -5.8470007
O    -3.6752456999999987  6.750816400000001  -6.5035096999999995
O    -3.3178887999999986  3.7649792  -5.6119443
O    -4.770472199999999  5.799043800000001  -2.9468549
O    -2.5817904999999985  4.49652  -2.087808
C    -8.273454699999998  8.9281912  0.2738189000000002
C    -7.1137036999999985  7.9597487000000005  0.5693131999999999
C    -6.190610199999998  7.8514805  -0.6458785999999996
C    -6.993580699999999  7.5376439  -1.9016358999999996
C    -8.207357499999999  8.4620921  -2.0552725
C    -9.091353499999999  7.968344  -3.1962760999999995
N    -6.305693999999999  8.4002371  1.7294562000000004
O    -5.262347299999999  6.822883200000001  -0.3778921999999998
O    -6.152421699999999  7.6689115  -3.0439058999999995
O    -8.996154999999998  8.4643277  -0.8661867000000001
O    -10.260374299999999  8.7425996  -3.1811140999999994
C    -12.103744099999998  11.2536066  3.0880544000000003
C    -12.482524899999998  10.612065300000001  1.7441754000000005
C    -11.443317699999998  9.5434522  1.3763155000000005
C    -10.019913399999998  10.0919341  1.4216699000000004
C    -9.772984099999999  10.8508184  2.7324286000000004
C    -8.432279199999998  11.578320100000001  2.6604925
N    -13.797556699999998  9.938439800000001  1.8379696
O    -11.764072999999998  9.0363858  0.09956399999999999
O    -9.102113899999999  8.9962687  1.394311
O    -10.794009199999998  11.8127576  2.9876701000000003
O    -8.2880036  12.3183949  3.8431905000000004
C    -13.803685999999999  14.2508126  7.0700628000000005
C    -12.328373  14.0562729  6.7015851
C    -12.163904099999998  13.6963235  5.221755900000001
C    -13.047483699999999  12.4971043  4.860210400000001
C    -14.490901699999998  12.8028975  5.2871574
C    -15.397055499999999  11.6030154  5.0213768000000005
N    -11.551616799999998  15.2884849  6.9673945
O    -10.788477899999998  13.4744311  5.041584
O    -13.0276711  12.2355865  3.4569511000000004
O    -14.5415494  13.0858301  6.687154400000001
O    -16.6335104  11.8645426  5.6348913000000005
C    -16.6776889  15.4294507  11.3419444
C    -17.2464478  14.7652395  10.0832417
C    -16.125514099999997  14.108856  9.2714736
C    -15.057732299999998  15.1411713  8.9072989
C    -14.654223499999999  16.0021749  10.117777400000001
C    -13.929830999999998  17.242259400000002  9.5985731
N    -18.254007599999998  13.736772  10.421670500000001
O    -16.748387899999997  13.5798903  8.1246994
O    -13.870035099999999  14.4975441  8.4462916
O    -15.760619199999999  16.453476600000002  10.9190069
O    -13.1954  17.7865652  10.6621104
C    -18.248692499999997  17.3659143  16.105217
C    -17.0646332  17.8366426  15.2322478
C    -17.3982815  17.6292579  13.7562043
C    -17.4836274  16.1391311  13.5021688
C    -18.597219799999998  15.594621  14.4348885
C    -18.658770999999998  14.0699318  14.285949200000001
N    -16.6902027  19.2545328  15.3619691
O    -16.4113671  18.2609562  12.9787809
O    -17.7506077  15.9305745  12.108768600000001
O    -18.3755907  15.9353376  15.838120799999999
O    -17.4522822  13.4737504  14.6801143
C    -18.8514545  20.347810799999998  20.6089239
C    -19.6742154  19.0568696  20.5958719
C    -19.209647099999998  18.0583507  19.529759900000002
C    -18.8981078  18.6596093  18.1413517
C    -18.2818743  20.0841889  18.276584200000002
C    -18.580537999999997  20.9984504  17.0818827
N    -19.5990346  18.4466088  21.9447459
O    -19.4671673  21.1999958  21.5048061
O    -20.2573426  17.1169389  19.4123841
O    -18.0089649  17.722318  17.4684463
O    -18.8628841  20.8965046  19.3120982
O    -18.2396635  22.311718  17.4430681
H    -1.3129140999999986  3.9297900000000006  -5.1543585
H    -2.4436045999999987  2.0627989000000007  -7.315328500000001
H    0.4464990000000011  2.2919403000000003  -6.314959899999999
H    -0.6873731999999979  2.9752866000000004  -9.0372986
H    0.3514290000000013  4.9439533  -6.951857899999999
H    -0.19773189999999907  5.0213881  -9.7919205
H    0.26532450000000196  6.382586  -8.745504
H    -2.8513275999999994  1.2804263000000002  -5.1049216
H    -1.6168603999999984  0.38816450000000025  -5.810317199999999
H    -1.244436099999998  1.5129259000000008  -4.641454499999999
H    0.6355661000000019  0.7673167000000003  -8.109228299999998
H    1.5169966000000006  3.6818926000000003  -9.2632732
H    -1.8071880999999994  6.7011593000000005  -9.738979
H    -6.716157999999998  5.7540705  -3.521438599999999
H    -5.347225099999998  7.707165  -5.281926599999999
H    -4.954982499999999  5.1389144  -6.535353999999999
H    -2.7685495999999983  5.4913303  -4.5807922
H    -5.337924799999999  4.0205902  -3.8593064000000004
H    -3.1569563999999986  2.896371200000001  -3.2789638000000005
H    -4.235914399999999  3.2805251999999996  -1.9110632
H    -6.777221199999999  6.5796947  -6.847215599999999
H    -7.152050299999999  5.364916  -5.7731898
H    -7.6587163999999985  6.9397647000000005  -5.4889821
H    -3.002001599999998  6.2837259  -7.023199899999999
H    -2.1583860999999995  4.0065436000000005  -1.3722914
H    -7.867552299999999  9.929941  0.030734200000000378
H    -7.533097099999999  6.972895100000001  0.7894301000000006
H    -5.665278299999999  8.805081600000001  -0.8138761999999993
H    -7.357281399999999  6.5071311000000005  -1.8062011999999994
H    -7.874501099999999  9.486095200000001  -2.2724273999999998
H    -9.330750599999998  6.9092311  -3.0429407999999993
H    -8.5361763  8.117037  -4.1303651
H    -5.514241799999999  7.7412806  1.8121777000000003
H    -5.914848199999999  9.340465  1.5935402
H    -6.858980599999999  8.3710206  2.5955411
H    -4.733006699999999  6.6232156  -1.1643213000000001
H    -10.872193099999999  8.445576  -3.8670455000000006
H    -12.067794  10.4604168  3.8620667
H    -12.520998599999999  11.3798031  0.9670005000000002
H    -11.4891899  8.7240279  2.1144675000000004
H    -9.862976499999998  10.7526613  0.5629442999999998
H    -9.749399699999998  10.1337286  3.5649583000000002
H    -8.431405799999999  12.2423938  1.7862297000000003
H    -7.638672099999999  10.8325493  2.5620792000000003
H    -13.941949  9.4260518  0.9520525000000002
H    -13.830853999999999  9.2564888  2.6059176
H    -14.5542074  10.6233845  1.9508176000000002
H    -10.991627199999998  8.6163787  -0.3074576999999996
H    -7.480286599999999  12.8459474  3.8152134
H    -14.2268081  15.1084103  6.5093268
H    -11.919774299999998  13.2468204  7.314032900000001
H    -12.496752599999999  14.5373689  4.5892146
H    -12.695946099999999  11.6167833  5.413060000000001
H    -14.871416199999999  13.669875300000001  4.7306546
H    -14.944218099999999  10.7026277  5.455097100000001
H    -15.505580499999999  11.4978507  3.9385605000000004
H    -10.597631799999998  15.1185656  6.6042145
H    -11.936467899999998  16.1047957  6.4770389
H    -11.499241099999999  15.4789468  7.9759355
H    -10.591096699999998  13.0954025  4.1695175
H    -17.255713099999998  11.148420400000001  5.4564431
H    -16.1106679  14.6900001  11.9386367
H    -17.7263532  15.534099900000001  9.4696663
H    -15.642781399999999  13.3127904  9.8587086
H    -15.465616399999998  15.7872924  8.117791800000001
H    -13.970685799999998  15.4251193  10.753834900000001
H    -14.676443099999998  17.9501037  9.221895
H    -13.261532399999998  16.941459000000002  8.7852918
H    -18.48264  13.247201800000001  9.5390935
H    -17.8887589  13.0457781  11.0895039
H    -19.1029216  14.1699515  10.803467600000001
H    -16.1147007  13.1178417  7.5487179
H    -12.881424399999998  18.6717728  10.4393167
H    -19.186738899999998  17.8435837  15.7746909
H    -16.2017298  17.2259339  15.5192217
H    -18.3789177  18.075029  13.521339900000001
H    -16.541086999999997  15.648451099999999  13.7707239
H    -19.5589942  16.0223235  14.122052400000001
H    -18.8048945  13.8381163  13.234069300000002
H    -19.503331  13.675657600000001  14.861484400000002
H    -15.855809899999999  19.3783851  14.7585862
H    -17.410082699999997  19.8570657  14.9469019
H    -16.4575012  19.5201987  16.3243005
H    -16.2702495  17.7954365  12.1392793
H    -17.3491754  13.560630100000001  15.635639099999999
H    -17.8005677  20.141174499999998  20.8982634
H    -20.714512199999998  19.3286636  20.3892751
H    -18.2843846  17.5689372  19.8696441
H    -19.8450207  18.7325916  17.59353
H    -17.205668  19.994999  18.4820214
H    -19.653771999999996  20.9311053  16.8589391
H    -18.009560299999997  20.8323326  16.1881362
H    -20.211754199999998  17.6198909  21.9859142
H    -18.6416214  18.1643331  22.1897446
H    -19.925569199999998  19.1407287  22.6322625
H    -19.0356965  22.0624561  21.5401058
H    -19.966428  16.3506407  18.9009314
H    -18.7979745  22.6176596  18.1649414
