54

C    21.532  39.241  -7.54
C    21.2927957  38.545414799999996  -8.7160607
C    20.0037576  38.1498792  -9.039427
C    18.9000622  38.4342399  -8.207846700000001
C    19.1825982  39.123632199999996  -7.0330048000000005
C    17.4508305  37.9887763  -8.506828
C    16.9556538  38.6231547  -9.8504686
N    15.1807327  39.5333851  -6.1062593
N    20.604926  40.2295376  -5.4712188
O    20.9949736  43.5967214  -0.14606100000000044
C    16.8396948  40.1454556  -9.7494464
N    20.3851614  41.3718952  -2.9019695
C    15.9564797  39.3588595  -7.1900734
C    21.6963223  40.825930299999996  -4.9403536
C    21.4840462  41.5762511  -3.6451276
C    20.225245  42.0281795  -1.7691258999999997
C    21.1986065  42.9437212  -1.3231779000000001
C    22.4392264  42.4906022  -3.2001052
C    17.4720472  36.4541111  -8.6184882
F    22.910461599999998  43.6192098  1.0919917000000003
C    21.9825337  44.4000019  0.4302028
N    22.2857215  43.1558033  -2.0578671
O    22.8135501  40.8065789  -5.4445033
C    20.4715626  39.5357878  -6.6833077
F    19.8514708  37.4699324  -10.220805
N    16.5589485  38.2721912  -7.4078475
S    16.066081099999998  40.7985702  -8.234884300000001
C    15.716005  37.9521252  -10.4102268
C    15.861967799999999  37.146539499999996  -11.5405864
C    14.7789492  36.487953  -12.099606099999999
C    13.5177911  36.620583599999996  -11.5380734
C    13.3534004  37.4173833  -10.4163258
C    14.4407798  38.0790138  -9.8613958
H    22.5317243  39.551684  -7.2870148
H    22.0971954  38.301968599999995  -9.389714
H    18.3646252  39.3415111  -6.3644157
H    17.7505715  38.4467189  -10.582369100000001
H    19.7546207  40.3199191  -4.9233053
H    16.2386496  40.5368188  -10.570501100000001
H    17.8345051  40.5945238  -9.7850103
H    19.3250828  41.8326965  -1.2085058000000002
H    23.3372523  42.6983172  -3.7616567
H    17.9133393  36.03987  -7.7164979
H    16.4545864  36.0842952  -8.7107089
H    18.0432114  36.1304341  -9.4828802
H    21.4855587  45.0141866  1.1840395
H    22.5421385  44.9741114  -0.31589940000000016
H    16.8402659  37.030450699999996  -11.985913
H    14.9221761  35.8721488  -12.9746769
H    12.672767799999999  36.1070126  -11.9703427
H    12.3781256  37.5321645  -9.9689406
H    14.2862641  38.7014166  -8.993863900000001
H    14.5776714  40.3362529  -6.061003
H    14.9791481  38.7202941  -5.5502597
