60

C    23.197  13.353  5.433999999999999
O    22.105888999999998  13.9169697  5.356982299999999
C    24.1152124  13.2011748  4.2547669
N    23.5483974  12.6598877  6.5220579
C    22.7381189  12.6107057  7.722259599999999
C    23.585770099999998  13.1709288  8.8579717
O    24.8029087  12.966751799999999  8.883220399999999
C    22.3437318  11.1590144  8.0285356
C    21.4021081  10.583390399999999  6.9527928999999995
C    21.7367617  10.9777256  9.4127206
C    21.9521543  9.2659167  6.4308862
N    22.9892498  13.9177351  9.7850171
C    23.8002837  14.507909399999999  10.8456798
C    24.5338779  13.4594614  11.681219599999999
O    24.0177661  12.3855665  11.9773268
C    22.780244  15.268578399999999  11.701956899999999
C    21.7073786  15.6509809  10.7032788
C    21.6126743  14.403059299999999  9.8323231
N    25.7539916  13.8366106  12.066105499999999
C    26.578283  13.1046306  12.996195
C    26.5894501  13.8187024  14.4025936
O    27.295730499999998  13.265096  15.279365599999998
C    27.9859711  12.926162  12.4342088
C    28.1313271  11.9750309  11.2748248
C    29.1024948  12.2167833  10.308021799999999
C    27.3874937  10.8059237  11.1734289
C    29.304842700000002  11.3293015  9.2678014
C    27.5729421  9.9272638  10.118699699999999
C    28.529575  10.1904978  9.1569506
O    25.8765507  14.8482533  14.487641799999999
H    25.1568817  13.2081321  4.561779199999999
H    23.9280125  14.0000502  3.5430440999999995
H    23.8914692  12.2496018  3.776937899999999
H    24.4855063  12.296412499999999  6.629534
H    21.853032499999998  13.220915699999999  7.5328308999999996
H    23.2842896  10.5943517  8.0127004
H    21.3086195  11.289432099999999  6.12542
H    20.4089151  10.4345997  7.3743077999999995
H    22.4148293  11.3156672  10.1960489
H    21.5368129  9.9223027  9.5804168
H    20.7989536  11.5211253  9.4968516
H    21.2801106  8.8332299  5.6930119999999995
H    22.0696778  8.554956  7.2454637
H    22.922008899999998  9.417645199999999  5.9639089
H    24.5402364  15.1779817  10.3920782
H    23.2379301  16.1115879  12.213894799999998
H    22.3828924  14.5852846  12.4553215
H    22.0374059  16.501029199999998  10.1062704
H    20.7605719  15.8930541  11.1778517
H    20.9777821  13.6512389  10.3070781
H    21.241767  14.6200301  8.8317929
H    26.0410267  14.7914152  11.907801
H    26.0939096  12.138498199999999  13.1697511
H    28.5984105  12.5632384  13.2690878
H    28.3717045  13.9101711  12.154544699999999
H    29.7042225  13.111768099999999  10.377637
H    26.635537199999998  10.5819167  11.916353599999999
H    30.0647463  11.5397174  8.529727399999999
H    26.9645246  9.0373398  10.0575919
H    28.678479799999998  9.5071417  8.334959
