45

C    26.09  187.967  -69.191
C    26.6886463  187.23673470000003  -70.1968496
C    27.0974155  185.93750190000003  -69.9204298
C    26.9045298  185.38398550000002  -68.6686366
C    26.290841399999998  186.12381510000003  -67.65635499999999
C    25.8823753  187.42991960000003  -67.9354329
C    29.2781498  188.52731540000002  -75.7802645
C    29.0138191  189.87904460000001  -75.1690167
C    29.5470534  191.03015500000004  -75.72648
C    29.3085233  192.27881410000003  -75.1691683
C    28.5265299  192.3805163  -74.0236869
C    27.9957441  191.25208500000002  -73.4177095
C    28.2438675  190.02556760000002  -74.0259988
C    27.134545199999998  191.37580090000003  -72.1644527
C    29.8887114  193.486667  -75.75959449999999
C    31.1530008  193.4446698  -76.34348229999999
C    31.7073349  194.58914230000002  -76.8863136
C    31.010385199999998  195.78935700000002  -76.8493811
C    29.7551152  195.83936740000001  -76.26644019999999
C    29.1949293  194.69391510000003  -75.7250391
F    27.6978407  188.90883750000003  -73.4575146
N    27.5165056  190.66456780000001  -71.0474369
N    26.8466673  190.69534610000002  -69.8011704
O    26.1697055  192.1251956  -72.13674329999999
O    24.640798  189.62979090000002  -70.7096657
O    24.750559799999998  190.16765320000002  -68.3883826
O    26.1099837  185.56236330000002  -66.4382968
S    25.4755572  189.64418290000003  -69.5289174
H    26.8115668  187.66801400000003  -71.1768498
H    27.567574099999998  185.35477060000002  -70.69507899999999
H    27.2183205  184.3762125  -68.450656
H    25.3989249  188.04778640000004  -67.1941154
H    28.969520799999998  188.52783580000002  -76.8225803
H    30.3430105  188.31089420000004  -75.740348
H    28.737407  187.74894400000002  -75.25084439999999
H    30.135137399999998  190.94465430000002  -76.62610579999999
H    28.3486767  193.33883950000003  -73.5620246
H    31.7135558  192.52351700000003  -76.3486191
H    32.6882723  194.55122100000003  -77.33489349999999
H    31.4469134  196.68109440000003  -77.27223029999999
H    29.2072346  196.76905480000002  -76.2376786
H    28.2039674  194.73277070000003  -75.2992137
H    28.2634946  189.98413720000002  -71.0863214
H    26.471521799999998  191.62625710000003  -69.6432391
H    25.6780122  186.17735380000002  -65.8256396
