38

C    20.58  14.734  8.312
C    19.830749799999996  16.806604399999998  9.4705872
C    21.5067222  14.182570499999999  7.2686809
C    22.854489299999997  11.7089313  5.0870949
C    24.060490299999998  11.038098999999999  5.2777125
C    24.3614483  9.9114079  4.524789999999999
C    23.474111299999997  9.4448376  3.5685822999999997
C    22.2796587  10.1161411  3.36731
C    21.971936599999996  11.2401357  4.1195793
C    23.156784099999996  14.078797199999999  5.7698293
C    24.283800999999997  14.4907845  4.9102611
C    25.568037099999998  14.560151399999999  5.4408484999999995
C    26.618944499999998  15.0167208  4.6648259
C    26.394463299999998  15.4262961  3.3608919999999998
C    25.1133018  15.3847715  2.8363028999999997
C    24.060126299999997  14.9241146  3.6079187
C    22.528676899999997  14.925155  6.6562218
N    20.641409699999997  16.119306599999998  8.554411
N    18.516084399999997  16.9507867  9.451541299999999
N    18.1829276  17.665446799999998  10.5238054
N    19.213125899999998  17.9832  11.1993738
N    20.2814591  17.470769  10.5785781
N    21.526865799999996  12.931216899999999  6.763393199999999
N    22.523451799999997  12.8815046  5.8616996
O    19.819354299999997  14.041402099999999  8.9588076
H    24.757681399999996  11.392899199999999  6.0217094
H    25.296607799999997  9.4013929  4.6931422
H    23.7111003  8.5678562  2.9880270999999996
H    21.578042899999996  9.770340099999999  2.6248102999999996
H    21.034229099999997  11.753563499999998  3.9687173999999996
H    25.740727299999996  14.245166399999999  6.4595215
H    27.613433999999998  15.057504199999999  5.0818164
H    27.214575399999998  15.7833315  2.7575396
H    24.930330799999997  15.714023099999999  1.8251885999999997
H    23.060616899999996  14.8898031  3.2001111
H    22.8061172  15.947738699999999  6.8143912
H    21.380483899999998  16.6546129  8.1204561
H    21.2118029  17.5976888  10.9534421
