43

P    9.066  19.77  6.497
O    8.868546  21.220775399999997  6.1564531
O    8.1391806  19.2466923  7.5649467999999995
O    10.510572100000001  19.3589435  6.7343282
P    7.3107024  18.9798026  4.3271393
O    6.4405421  17.853995199999996  4.7690826
O    6.7202175  20.341163199999997  4.298826399999999
O    8.720845800000001  18.8948188  5.071623799999999
P    8.7914366  17.764738899999998  1.9936423999999997
O    8.8748664  18.279296099999996  0.5971281999999998
O    8.4067603  16.342473499999997  2.1973291999999995
O    7.790559200000001  18.772979499999998  2.7692115999999998
O    10.242585700000001  18.0704656  2.682743
C    10.8466655  17.1331477  3.5476105999999996
C    12.3424989  17.416082699999997  3.5790562999999995
O    12.9027922  17.339624399999998  2.2822105999999995
C    12.6931656  18.814212499999996  4.122068799999999
O    12.7985792  18.874865699999997  5.5067872
C    14.0737284  19.0369185  3.4580111999999996
O    15.0590305  18.379841399999997  4.2025179
C    13.8870541  18.3541267  2.1082406
N    13.497049800000001  19.262033399999996  1.0642518999999997
C    12.245801100000001  19.6310175  0.6457129999999998
N    12.268464100000001  20.4685751  -0.3481920000000005
C    13.6016198  20.6824533  -0.6090693000000003
C    14.2814402  21.465180399999998  -1.5589401000000005
N    13.6785157  22.237588499999998  -2.4696705
N    15.6268902  21.430011999999998  -1.5417745000000003
C    16.2481051  20.6808104  -0.6486245000000004
N    15.7201515  19.9059599  0.28948839999999976
C    14.3831717  19.9300908  0.2701853999999999
H    10.6210764  16.126059299999998  3.1814617
H    10.431215700000001  17.2450965  4.559503899999999
H    12.821469  16.667157999999997  4.228143899999999
H    11.9562418  19.534497199999997  3.7307786999999997
H    11.9242878  19.043580799999997  5.9330093999999995
H    14.2784367  20.106189399999998  3.3533580999999995
H    15.9249695  18.7953898  4.0481804
H    14.818994100000001  17.872349699999997  1.7775112999999998
H    11.3505948  19.241027399999997  1.0894521999999998
H    12.675199000000001  22.2798722  -2.4734308000000005
H    14.2478667  22.7783283  -3.0978732
H    17.3270002  20.699218899999998  -0.6837234000000003
