70

C    109.847  -52.018  14.086
C    111.53600709999999  -51.1875206  13.0346027
C    111.9969742  -52.2835566  13.7199861
C    110.93375759999999  -53.9661095  15.244394000000002
C    106.948899  -49.9837406  14.202794200000001
C    105.95823719999999  -49.6152067  15.333021400000002
C    105.8966641  -52.0421642  13.233030900000001
C    104.618698  -52.1705513  14.105937200000001
C    103.52758549999999  -51.0875396  13.904163700000002
C    104.0222213  -49.6460831  13.658894700000001
C    105.0088761  -47.6810691  15.324793000000001
C    105.3783017  -46.6630515  14.231318900000002
C    106.2330356  -48.2783398  16.0729332
C    106.1294928  -48.2773444  17.594159700000002
C    107.1850367  -47.813663  18.384948
C    107.09511509999999  -47.7777577  19.7747254
C    105.942634  -48.1996959  20.4459799
C    105.83934149999999  -48.119622899999996  21.9329402
C    104.88581559999999  -47.2800241  22.540997400000002
C    103.9449341  -46.4574752  21.6926621
C    104.81012589999999  -47.199522  23.9440716
C    103.79052739999999  -46.3036052  24.606065100000002
C    105.68952759999999  -47.956145  24.7197387
C    106.63614869999999  -48.7840032  24.1253052
C    106.71261139999999  -48.8604328  22.740044400000002
C    104.88261279999999  -48.656459  19.6518602
C    104.9748757  -48.6941351  18.2641424
N    110.19860359999998  -51.0371654  13.2740945
N    110.91932299999999  -52.804282799999996  14.38372
N    107.03843129999998  -51.408640399999996  13.908622900000001
N    104.6099744  -49.0897174  14.904271900000001
O    108.14415449999998  -51.946795  16.164822
O    106.52344339999999  -45.9463067  14.6796824
O    107.8648049  -53.733084399999996  14.617652800000002
S    108.1573555  -52.3220773  14.760522300000002
H    112.05266719999999  -50.5041711  12.3958641
H    112.96830449999999  -52.7241289  13.788683200000001
H    110.8578355  -53.6578661  16.289063600000002
H    110.07904079999999  -54.601974  15.0122926
H    111.8611579  -54.5119109  15.088750000000001
H    107.9461417  -49.6961344  14.5402077
H    106.7459873  -49.4472641  13.277898
H    105.8899381  -50.472150299999996  16.0039212
H    105.70620399999999  -51.5038671  12.3050152
H    106.24688909999999  -53.0431952  12.982056400000001
H    104.93721409999999  -52.2263317  15.1470365
H    104.15885709999999  -53.1311838  13.8781765
H    102.85039689999999  -51.1145783  14.7563884
H    102.95062719999999  -51.3585833  13.020084100000002
H    103.16665699999999  -49.024149  13.3893056
H    104.74434459999999  -49.6113528  12.850129800000001
H    104.256498  -47.2488091  15.9835732
H    104.54013579999999  -45.9817219  14.058895300000001
H    105.6156046  -47.1847174  13.2963619
H    107.1675583  -47.7996312  15.789028400000001
H    108.09272449999999  -47.4690884  17.9138874
H    107.9317057  -47.4085829  20.3496987
H    104.25582619999999  -46.4525496  20.6541324
H    102.93363889999999  -46.8585121  21.7607109
H    103.91748109999999  -45.4312874  22.0536232
H    103.9686548  -45.2626235  24.3411289
H    102.78521479999999  -46.5671753  24.2836217
H    103.84899019999999  -46.400018599999996  25.686722600000003
H    105.63316649999999  -47.8971543  25.797018
H    107.31031689999999  -49.3637931  24.737130200000003
H    107.4452202  -49.5026049  22.2725817
H    103.9778688  -48.9969317  20.1325085
H    104.11770399999999  -49.0654467  17.7230434
H    103.949299  -49.3831036  15.6322036
H    106.7183384  -45.2364261  14.0563923
