52

C    18.135  -10.308  -11.245
C    13.699946500000001  -17.7457478  -6.840973199999999
C    11.636519200000002  -18.1828395  -5.651784799999999
C    11.2872496  -16.8304272  -5.723967799999999
C    10.016894200000001  -16.3236951  -5.138705299999999
C    8.407408100000001  -14.573693299999999  -4.755778699999999
C    8.000638300000002  -16.615250699999997  -3.857257999999999
C    12.172334900000001  -15.956005699999999  -6.365189999999998
C    16.816844200000002  -11.3434029  -8.7687298
C    18.1876561  -11.642848599999999  -10.848724999999998
C    18.9836253  -12.515478899999998  -11.5999407
C    19.7159774  -12.0546765  -12.688006899999998
C    19.658587  -10.714904599999999  -13.043273199999998
C    18.8619311  -9.842415299999999  -12.323437499999999
C    15.8184543  -12.017066  -7.790832399999998
C    15.579697800000002  -13.476574799999998  -8.154634399999999
C    14.349450400000002  -15.4767006  -7.625808599999999
C    13.3826177  -16.384386799999998  -6.895226899999999
C    12.825086800000001  -18.6118642  -6.215075899999999
C    9.596222700000002  -15.0011523  -5.321262999999998
C    9.174166200000002  -17.138360799999997  -4.375360099999998
C    14.092914300000002  -13.351741299999999  -6.205828199999999
C    15.335085200000002  -12.8074769  -5.478821799999999
C    16.2043335  -11.876415599999998  -6.312161999999999
F    13.1560482  -19.9346034  -6.150551999999999
F    16.0745754  -13.901143199999998  -5.084414599999999
F    14.958331900000001  -12.1800506  -4.320758899999999
N    17.4029305  -12.1029954  -9.753125999999998
N    14.558775  -14.151490699999998  -7.3259409999999985
N    7.621553600000001  -15.360024099999999  -4.037820899999999
O    16.9815663  -10.1410036  -8.661297199999998
O    14.973891300000002  -15.951588099999999  -8.572825499999999
Cl    20.5751622  -10.0873371  -14.398830099999998
H    17.525665200000002  -9.612594299999998  -10.692568399999999
H    14.6189142  -18.105803299999998  -7.275483499999999
H    11.001811100000001  -18.9152889  -5.1827863999999995
H    8.0626657  -13.557302599999998  -4.881097499999999
H    7.331892500000001  -17.2262901  -3.267818799999999
H    11.9020647  -14.920955  -6.478149199999999
H    19.035959400000003  -13.561155399999999  -11.3394003
H    20.3271667  -12.740468799999999  -13.2511257
H    18.804102800000003  -8.803265  -12.6023746
H    14.898027400000002  -11.447893299999999  -7.960404499999999
H    16.5037324  -14.0564293  -8.0340923
H    15.2482175  -13.5696754  -9.193066199999999
H    10.161779300000003  -14.2974813  -5.906603899999999
H    9.416654200000002  -18.166580699999997  -4.168298899999998
H    13.466567300000001  -12.521519799999998  -6.5376287999999985
H    13.5466998  -13.973253399999999  -5.494480099999999
H    16.0635708  -10.8496239  -5.977112699999999
H    17.250567  -12.144648299999998  -6.155255699999999
H    17.3339272  -13.109174199999998  -9.6930094
