57

C    13.609  81.149  108.671
C    7.482728  89.4785578  103.72068730000001
C    5.2696736  89.7296148  102.4480558
C    4.3816325  89.6999374  99.06720130000001
C    5.6578653  89.6858961  98.5066573
C    4.884937799999999  88.4143556  96.64158760000001
C    3.3718499  89.0473077  98.3729114
C    5.4373735  88.2061198  102.3599836
O    6.6583942  86.62370539999999  106.8421697
C    7.7502528  86.7970385  106.30318240000001
N    8.8684768  86.1636132  106.79989520000001
C    8.7330632  85.3141739  107.9812011
C    10.0344904  84.6234328  108.3400848
C    10.6125377  83.8121628  107.18539720000001
C    11.679628000000001  82.8849738  107.68974560000001
C    12.110793699999999  82.98021609999999  109.0073663
C    13.064226999999999  82.1127064  109.49922260000001
C    13.197226  81.05425079999999  107.35067260000001
C    12.2315917  81.9150227  106.8606759
N    7.9040745  87.6053555  105.1973518
C    6.835754  88.3679045  104.5409927
C    6.4217963  90.42977909999999  103.1864085
O    5.3138273  90.2804067  101.1439151
C    4.1298659  90.3660782  100.3943206
F    6.6847516  90.3051826  99.14182740000001
C    5.919601999999999  89.0543671  97.30432110000001
C    3.6033777999999996  88.4057942  97.17131330000001
F    2.113085  89.0408185  98.9032432
C    5.9368731  87.5040499  103.6330064
H    14.357041500000001  80.4671381  109.0489514
H    8.031472299999999  89.0325012  102.8899741
H    8.1845792  90.0387829  104.3380996
H    4.3098825  89.9754888  102.9240765
H    5.0760514  87.9169662  95.7056033
H    6.1610984  88.0387871  101.557524
H    4.496230799999999  87.75345469999999  102.0454689
H    9.7832705  86.5274709  106.5882778
H    7.952613299999999  84.5814893  107.7532654
H    8.3728586  85.912707  108.8285536
H    9.7954164  83.9608721  109.1706176
H    10.7555382  85.3714435  108.6714134
H    11.0280977  84.46863929999999  106.41936170000001
H    9.8187818  83.2265662  106.7157069
H    11.741958499999999  83.7343431  109.6768038
H    13.3906996  82.1899863  110.52573980000001
H    13.627667500000001  80.3026029  106.7053346
H    11.9012485  81.8377887  105.8353757
H    8.7650605  87.5276228  104.67783770000001
H    6.2280893  88.7983103  105.3441346
H    6.8774996999999995  91.1225178  102.4787294
H    6.0165188999999994  91.0103185  104.0165815
H    3.2851291  89.88820009999999  100.90181290000001
H    3.8826764999999996  91.42708089999999  100.23631560000001
H    6.9202629  89.0688919  96.9056901
H    2.7902816999999995  87.9096863  96.6677375
H    6.497902  86.6170599  103.3321372
H    5.089791699999999  87.15498029999999  104.22566970000001
