48

N    1.26  22.316  13.186
C    -1.1266691  20.2441894  11.137068099999999
C    -0.6879523000000001  21.3821624  12.0547082
C    0.8048153  21.2378419  12.3513889
C    1.669122  21.1127352  11.0917225
C    1.1358191  20.020495599999997  10.1686601
C    -0.31507260000000004  20.294545499999998  9.859468399999999
O    4.5114406  22.519720799999998  16.0457939
P    3.9816608000000002  23.652837599999998  15.204284
O    4.3642472  23.684790399999997  13.7568322
O    4.0015096  25.000621699999996  15.9054882
C    2.1214199000000002  23.330703999999997  15.1576501
F    1.5120109  24.442679  14.6443659
F    1.6137355  23.2322416  16.4334891
C    1.7987912  22.089396599999997  14.390597199999998
O    1.949613  20.979805  14.892424199999999
O    -1.442032  21.369509599999997  13.2132399
P    -2.6620966  22.572674099999997  13.4438177
O    -1.9152962999999998  23.659552599999998  14.1974819
O    -3.6733735999999997  21.8386815  14.279193
O    -3.1899286  23.064884399999997  12.116012699999999
O    -2.4666306999999996  20.344473299999997  10.834306
P    -3.4638136999999993  19.027893799999998  11.174733799999998
O    -2.8948114  17.852067499999997  10.400672499999999
O    -4.8116595  19.4973249  10.6852117
O    -3.3914964000000003  18.817970499999998  12.672843199999999
O    -0.42251170000000005  21.5315004  9.2474996
P    -1.0618474  21.571124599999997  7.664610699999999
O    -0.7199585  20.2769475  6.9838048
O    -0.3735389  22.781641599999997  7.079929299999999
O    -2.5548118000000004  21.752887599999998  7.828108599999999
O    1.8843933  19.9061468  9.0144016
P    1.9508656  18.372197699999997  8.2452457
O    0.6838839  18.116016899999998  7.4632187
O    3.1631251999999996  18.5710847  7.372249699999999
O    2.1420453  17.3517053  9.3570795
O    2.9360979  20.7545614  11.493082
P    4.2963088  21.6888141  11.1331399
O    3.8838396  23.1446011  11.203142199999998
O    4.724866700000001  21.2421357  9.750961799999999
O    5.2253172  21.203584999999997  12.214397499999999
H    1.2979017000000002  23.2316494  12.7651851
H    -0.9180097999999999  19.276951299999997  11.6510258
H    -0.8623463  22.321961199999997  11.485276299999999
H    0.946219  20.313882  12.9332393
H    1.6750263  22.071472999999997  10.5315339
H    1.1878316  19.060101699999997  10.7385214
H    -0.6892761000000001  19.500808  9.180652199999999
