47

C    -28.836  20.69  -20.066
C    -29.5123999  15.649845  -23.587086
C    -32.0899168  18.6334754  -26.306671199999997
C    -29.442070199999996  19.9912689  -26.2856967
C    -29.7038375  18.7585306  -27.1491285
C    -28.3848715  17.9808177  -27.4594673
C    -29.324617399999998  14.3617023  -23.0524483
O    -28.573614099999997  15.4858516  -19.1136819
C    -28.8219562  16.2536997  -20.173581199999997
C    -28.871409099999997  17.6315468  -20.075246099999998
C    -29.1382779  18.4309039  -21.2142861
C    -29.233209199999997  19.9231375  -21.169730899999998
C    -29.764053599999997  20.615312799999998  -22.266775699999997
C    -29.9020433  21.994139099999998  -22.2650197
C    -29.521919899999997  22.731028600000002  -21.153853299999998
C    -28.988667299999996  22.0695192  -20.058432699999997
N    -29.367128299999997  17.8325784  -22.3806494
C    -29.322156299999996  16.5063654  -22.483291899999998
C    -29.8770839  16.0344201  -24.9832006
N    -30.334982099999998  17.3023865  -25.194527599999997
C    -30.7613842  17.851599  -26.492707
C    -32.0021323  20.1541949  -26.5220977
C    -30.7165911  20.809929699999998  -26.004911
O    -27.4133565  18.1301459  -26.688118799999998
O    -28.362667499999997  17.2729375  -28.491518799999998
O    -29.831893799999996  15.1898668  -25.8804992
N    -29.0411777  15.6898194  -21.3975907
N    -29.047556299999997  14.3863138  -21.749097499999998
H    -28.399825399999997  20.2104033  -19.2039381
H    -32.4365811  18.4330154  -25.290646799999998
H    -32.833600499999996  18.2292205  -26.9919832
H    -28.693255999999998  20.6018882  -26.7956635
H    -28.971210999999997  19.6505905  -25.361189999999997
H    -30.099474299999997  19.0460408  -28.1297905
H    -30.0675577  20.0363685  -23.125031999999997
H    -30.3103174  22.488010799999998  -23.133215399999997
H    -29.635256199999997  23.8032348  -21.144564
H    -28.678202199999998  22.6275881  -19.1889143
H    -30.161199299999996  17.9651503  -24.448083399999998
H    -30.9027778  16.974688  -27.1351186
H    -32.8638433  20.623967399999998  -26.0498162
H    -32.0698272  20.3441725  -27.596138099999997
H    -30.628071799999997  21.7941652  -26.4640615
H    -30.8085377  20.957228999999998  -24.929253699999997
H    -28.572362999999996  14.5404562  -19.354449199999998
H    -28.7079763  18.0614483  -19.1030984
H    -29.3861614  13.43028  -23.5768836
