35

O    9.028  20.022  -8.438
C    9.590437900000001  20.8174592  -9.209643
C    9.9817845  22.157411699999997  -8.8229047
O    9.7082876  22.523878299999996  -7.5504789
C    10.587354300000001  22.977053599999998  -9.7297381
C    10.861651700000001  22.553477899999997  -11.061043
C    11.5428093  23.519587099999995  -11.9655585
C    12.825992000000001  23.307904399999998  -12.4650883
C    13.4492099  24.260361699999997  -13.2607365
C    12.8188458  25.454712999999998  -13.6022562
C    13.502119800000001  26.518290599999997  -14.4905966
O    12.7659099  27.358388799999997  -15.0555107
O    14.7501459  26.483681699999998  -14.5778719
C    11.5380597  25.6622696  -13.0974865
C    10.9178137  24.723958399999997  -12.2877208
C    10.4940327  21.2793972  -11.4347485
C    10.7082739  20.673365499999996  -12.769839600000001
C    10.3159723  21.310764199999998  -13.949061500000001
C    10.515243600000002  20.7068004  -15.1802126
C    11.1143245  19.4606437  -15.21462
F    11.3200356  18.856813799999998  -16.4185892
C    11.5145134  18.796974  -14.0709201
C    11.299252200000002  19.410948199999996  -12.850807
N    9.8848164  20.473947399999997  -10.499316
H    9.2751678  21.767183699999997  -7.1097997
H    10.8779847  23.9727014  -9.4327618
H    13.3477718  22.391757499999997  -12.230469600000001
H    14.4508796  24.091980899999996  -13.6333035
H    11.035084600000001  26.584517299999998  -13.3568175
H    9.9264449  24.926939499999996  -11.9087172
H    9.8589318  22.286255499999996  -13.900823
H    10.217862700000001  21.190580799999996  -16.0953389
H    11.982215400000001  17.829419899999998  -14.142699
H    11.6224922  18.913872599999998  -11.949227500000001
H    9.602726400000002  19.541239499999996  -10.7845066
