55

C    76.339  84.407  -6.909
C    76.1722415  84.1463977  -8.3050719
C    76.9198765  85.6695699  -6.5551574
C    73.71993570000001  81.33375869999999  -3.2483162999999995
C    76.0102525  82.901823  -2.3164399999999996
C    76.5264193  85.03124009999999  -9.293236799999999
C    77.1899075  82.00856809999999  -1.8878618999999996
C    76.1307013  83.7543075  -4.6880478
N    74.0220992  81.37518469999999  -1.7959176999999997
N    75.7070777  82.81752429999999  -3.7536067999999996
C    78.40534670000001  85.51826369999999  0.6764418000000005
C    78.8714014  86.96159949999999  0.40754640000000064
C    80.3442866  87.0798999  0.853018
C    78.03673140000001  87.9169616  1.2865921000000005
C    78.6825532  87.3388583  -1.0797351999999996
C    78.0729355  86.5960827  -2.1195758999999996
C    78.1229366  87.36041619999999  -3.2898495
C    77.0894141  85.8803174  -5.102502299999999
C    74.7557504  82.6167546  -1.4411218999999997
C    74.9678796  81.6021126  -4.1252292
C    77.2802683  86.5585559  -7.594410399999999
C    77.089794  86.25915739999999  -8.926034999999999
F    75.6335723  82.96046559999999  -8.68657
N    77.66307040000001  87.06069339999999  -4.6045188999999995
N    76.6947856  84.9385334  -4.2506892999999994
N    75.9585181  83.48059509999999  -5.983367899999999
N    78.7492654  88.5185985  -2.9141562
N    79.0777344  88.5059823  -1.6026022999999996
H    72.9739759  82.1016016  -3.4599604999999998
H    73.3200515  80.3610451  -3.5249040999999997
H    76.2930353  83.9416912  -2.1311966999999994
H    76.3684772  84.7651973  -10.325156
H    76.98393540000001  80.95385789999999  -2.0421142999999997
H    78.07111  82.2646597  -2.4698703999999996
H    77.4140099  82.18286889999999  -0.8407862999999995
H    74.6108423  80.5668719  -1.5536495999999995
H    73.1559883  81.3142987  -1.2508462999999996
H    78.9815652  84.8167912  0.0784050000000005
H    78.5518395  85.2858206  1.7270948000000002
H    77.3507718  85.4115776  0.43710519999999997
H    80.4261029  86.8456087  1.9100968000000003
H    80.97215080000001  86.39257839999999  0.28995229999999994
H    80.70647600000001  88.09046819999999  0.6849008000000008
H    76.98107970000001  87.8473432  1.0339883000000003
H    78.16551270000001  87.6616597  2.3346045000000006
H    78.3604207  88.9425445  1.1316713000000003
H    77.65726140000001  85.61347649999999  -2.06201
H    74.0668052  83.4544918  -1.5639579999999995
H    75.0759578  82.57167679999999  -0.40223929999999974
H    74.6658073  81.7048284  -5.1661228
H    75.6519844  80.75010189999999  -4.0572693
H    77.7197914  87.51337509999999  -7.3454467999999995
H    77.3764584  86.9655397  -9.6867585
H    77.9107511  87.74301829999999  -5.3060408
H    78.97659130000001  89.3352501  -3.4582270999999998
