87

N    62.064  117.951  14.486
C    60.7116712  117.72140569999999  13.9152944
C    60.146915799999995  116.38150569999999  14.4007598
O    59.601716999999994  115.59496299999999  13.649312000000002
C    60.7600458  117.74845649999999  12.397007200000001
C    59.372522  118.13299529999999  11.7927596
O    58.526655399999996  118.61000769999998  12.571851
O    59.2360676  117.96330499999999  10.567355200000002
N    60.399209799999994  116.11502699999998  15.701537900000002
C    59.9254677  114.86976569999999  16.266633
C    58.399667099999995  114.86705679999999  16.3344439
O    57.736376899999996  115.87623769999999  16.1259307
C    60.5370322  114.64560559999998  17.6481135
C    61.7681118  113.69020939999999  17.588187400000002
O    61.6841982  112.7123238  16.8226509
O    62.7334726  113.97551289999998  18.3182351
N    57.8615554  113.68341179999999  16.648383
C    56.479924  113.53281559999999  17.062572
C    56.5056959  112.84799499999998  18.426151400000002
O    57.062957  111.76785419999999  18.5779092
C    55.6881002  112.67138809999999  16.0597892
C    54.2392501  112.45873109999998  16.4246577
C    53.257097699999996  113.36755329999998  16.0427466
C    53.8393449  111.31466599999999  17.1042388
C    51.9232723  113.15497299999998  16.3405858
C    52.5073053  111.08447739999998  17.3915228
C    51.5386196  112.00588839999999  17.0224274
O    50.2224226  111.8030623  17.3068935
N    55.906773799999996  113.50713219999999  19.4213203
C    55.6775519  112.87864439999998  20.7068132
C    54.162140799999996  112.88661289999999  20.9274494
O    53.561943299999996  113.96185559999999  20.993523800000002
C    56.4017549  113.60743399999998  21.8519493
O    57.7789163  113.28673109999998  21.756413300000002
C    55.838909799999996  113.17730399999999  23.204401400000002
N    53.5295832  111.71755899999998  20.9740886
C    52.0963329  111.68481239999998  21.2536725
C    51.832437399999996  112.20927649999999  22.6742938
O    52.5398734  111.85126569999998  23.6130588
C    51.709349599999996  110.20426429999999  21.1485571
C    52.9207896  109.49344509999999  20.5464166
C    54.1092571  110.3877831  20.863394
N    50.8006009  113.04237299999998  22.8110185
C    50.480617099999996  113.66027619999998  24.0822603
C    49.2820848  112.91837169999998  24.7790517
O    48.1755431  112.96831309999999  24.2194341
C    50.12157  115.13035459999999  23.89054
O    51.1487129  115.80601239999999  23.198371
O    49.515451399999996  112.33196309999998  25.8452714
H    62.0537828  117.95981739999999  15.512422
H    62.6982129  117.20079119999998  14.181331
H    62.4313374  118.85017839999999  14.146153700000001
H    60.0105909  118.50512089999998  14.2307196
H    61.018988199999995  116.77830139999999  11.9757593
H    61.4578633  118.50006159999998  12.0291528
H    60.4116091  116.88338739999999  16.3602478
H    60.244606899999994  114.04825969999999  15.6102307
H    59.8218891  114.15665149999998  18.314311500000002
H    60.8449228  115.5799874  18.1164116
H    58.4643853  112.88729519999998  16.8082637
H    56.0503334  114.53726289999999  17.1210683
H    56.191679699999995  111.70419009999999  15.997834000000001
H    55.756585199999996  113.16429189999998  15.08794
H    53.5431581  114.25686319999998  15.500244
H    54.5840939  110.58870049999999  17.3972913
H    51.1691672  113.86719139999998  16.0459268
H    52.2013764  110.16723289999999  17.8681314
H    50.0872081  110.91125289999998  17.6599273
H    55.4106926  114.37118999999998  19.2557824
H    56.1039726  111.87671739999999  20.6452034
H    56.253797899999995  114.69020379999999  21.7193811
H    58.2459141  113.68051099999998  22.5068701
H    54.7765292  113.39654789999999  23.2724088
H    55.9798798  112.10799979999999  23.3420183
H    56.3475587  113.70520299999998  24.0068651
H    51.586335299999995  112.32433679999998  20.5266378
H    50.808972499999996  110.07396959999998  20.555372900000002
H    51.5120339  109.82769269999999  22.1538757
H    52.8165258  109.39114989999999  19.4712062
H    53.0496646  108.50133549999998  20.9721505
H    54.5653368  110.11285039999999  21.819890100000002
H    54.862335599999994  110.35930859999999  20.0770874
H    50.2392811  113.31474589999999  22.0190632
H    51.361546  113.5478029  24.722505
H    49.9586772  115.56617739999999  24.884898200000002
H    49.175408999999995  115.17008569999999  23.3322219
H    50.8869373  116.72907739999998  23.0679896
