123

C    17.839  -4.014  -5.334
O    16.7940956  -3.5362387  -4.902565899999999
C    18.220748499999996  -4.1667033  -6.767014099999999
N    18.785040099999996  -4.5015874  -4.531709799999999
C    18.630556199999997  -4.4103922  -3.1324987999999987
C    19.504557799999997  -3.315061900000001  -2.5652219999999994
O    20.728415799999997  -3.2680618000000003  -2.6730833999999994
C    19.054088299999997  -5.7671352  -2.5644127999999995
O    18.281103299999998  -6.8665362000000005  -2.9835516999999987
C    18.895826399999997  -5.7416964  -1.0675437999999993
N    18.798075499999996  -2.4634939000000005  -1.8436996999999993
C    19.472816999999996  -1.3508395000000002  -1.267378599999999
C    19.241546399999997  -1.3089687000000003  0.23287120000000083
O    18.279162399999997  -0.9055610000000003  0.876022900000001
C    19.128166099999998  -0.06304970000000032  -2.0298909999999992
C    18.960654899999998  -0.2747358000000003  -3.537295099999999
C    20.195379699999997  1.0106274999999996  -1.8775379999999995
C    20.293494799999998  -0.5554873000000002  -4.239962699999999
N    20.296239799999995  -1.6958016000000002  0.9325376000000007
C    20.062392099999997  -1.7581559000000002  2.358130900000001
C    20.664786999999997  -0.6833605000000003  3.250094300000001
C    20.650118899999995  -3.0094830000000004  2.948697900000001
C    20.3327507  -4.220518200000001  2.122802700000001
C    18.858045399999998  -4.5532993  2.235788500000001
C    18.813679599999997  -6.0023612  2.653345500000001
N    20.400166899999995  0.6670181999999997  2.774410500000001
C    20.459238999999997  1.7184649999999997  3.796119100000001
C    19.539592199999998  1.4441356999999997  5.000066700000001
O    18.429743499999997  0.9228571999999997  5.004432600000001
C    20.205782299999996  3.0224374  3.054533600000001
C    20.230264899999998  4.2031811  3.998469200000001
C    19.590596699999995  5.417376999999999  3.357021300000001
C    18.090409699999995  5.3221590999999995  3.554305400000001
N    20.085018499999997  1.8072719999999998  6.161470800000001
C    19.286283799999996  1.6795257999999995  7.380318500000001
C    19.610245399999997  2.8054174999999995  8.4113614
O    20.737159399999996  3.1711972999999998  8.732496000000001
C    19.379311199999997  0.23279919999999965  7.918642100000001
C    18.604783299999998  0.02182919999999966  9.198030800000002
C    19.395256399999997  0.48485359999999966  10.375416000000001
O    20.612528999999995  0.5320107999999997  10.2993992
N    18.720246099999997  0.7882789999999996  11.4929269
N    18.568953399999998  3.4480049999999998  8.9679794
C    18.781147999999998  4.3894949  10.075538900000002
C    17.931481499999997  4.0101648  11.271244600000001
O    16.834910799999996  3.5082762999999995  11.058877500000001
C    18.318785999999996  5.750183099999999  9.6325921
C    19.027678299999998  6.216487399999999  8.3882033
C    18.372666899999995  7.5708041999999995  8.238142700000001
N    18.746149199999998  8.1874903  6.995115000000001
C    18.282408499999995  9.383828  6.671527600000001
N    17.333551699999997  9.9563645  7.405449600000001
N    18.797305999999995  10.0063426  5.620014500000001
N    18.375836299999996  4.2368527  12.5094551
H    17.478641099999997  -4.779120900000001  -7.2780232
H    18.204095899999995  -3.1924488  -7.254364999999998
H    19.200600399999995  -4.6124504  -6.886469699999999
H    19.6963241  -4.7472747  -4.887187699999998
H    17.571199499999995  -4.2283919  -2.9314704999999988
H    20.111679199999998  -5.9248507  -2.8326005999999992
H    18.306302999999996  -6.956650300000001  -3.9456727999999988
H    17.856818999999998  -5.5458362  -0.815863199999999
H    19.161774999999995  -6.7125808000000005  -0.6569032999999989
H    19.5381105  -4.9856065  -0.6291026999999989
H    17.791038899999997  -2.4958176000000005  -1.8152888999999988
H    20.539549599999997  -1.5573127000000002  -1.4239565999999995
H    18.174463799999998  0.31037949999999964  -1.635843799999999
H    18.525696499999995  0.6321923999999997  -3.9610079999999988
H    18.2597842  -1.0843521000000003  -3.7556452999999994
H    20.194147499999996  1.4095418999999998  -0.8643233999999991
H    21.1823055  0.6128182999999997  -2.087280099999999
H    19.994638099999996  1.8325825999999996  -2.556466499999999
H    20.9121939  0.3338528999999997  -4.291553899999999
H    20.851902899999995  -1.3485668000000004  -3.755546099999999
H    20.098523999999998  -0.8718081000000004  -5.264458999999999
H    21.141037399999995  -2.0782799000000005  0.5378941000000008
H    18.978063299999995  -1.7600366000000003  2.488505000000001
H    21.745357099999996  -0.8130616000000004  3.343133200000001
H    20.2149631  -0.8085242000000004  4.234562600000001
H    20.277998399999998  -3.1605844000000003  3.961075100000001
H    21.738228499999998  -2.9124507000000004  3.011895400000001
H    20.924004699999998  -5.059362800000001  2.4911502000000008
H    20.623891099999998  -4.082181800000001  1.081299700000001
H    18.321388899999995  -4.4067759  1.3004149000000012
H    18.368875099999997  -3.9481674  2.998000600000001
H    19.316167099999998  -6.6314137  1.922230600000001
H    19.297815199999995  -6.137835300000001  3.617408700000001
H    17.789973899999996  -6.3700637  2.746931100000001
H    19.439641699999996  0.6578574999999997  2.385907500000001
H    21.026583499999997  0.9048937999999996  1.9980958000000009
H    21.479390499999997  1.7305968999999997  4.197895000000001
H    19.226403699999995  2.9716080999999996  2.573392800000001
H    20.963451199999998  3.1601612999999995  2.283495100000001
H    21.2649007  4.4191065  4.276409600000001
H    19.6867371  3.9702838  4.9141175000000015
H    19.835391799999996  5.4667705  2.295578700000001
H    19.960545999999997  6.3315909999999995  3.8209256000000007
H    17.689320099999996  4.4040098  3.132793500000001
H    17.8413363  5.3402145999999995  4.6125142000000015
H    17.574358299999997  6.1504435  3.071611600000001
H    21.012670799999995  2.1913245999999997  6.273247500000001
H    18.241502499999996  1.8320861999999996  7.0740981000000005
H    20.426725499999996  -0.012558800000000314  8.107173900000001
H    18.989743199999996  -0.41272900000000035  7.131746700000001
H    18.433026399999996  -1.0491813000000003  9.339523200000002
H    17.626466699999998  0.5058683999999997  9.164695700000001
H    19.233515499999996  1.0277468999999997  12.3248314
H    17.716159899999997  0.7510383999999997  11.532905600000001
H    17.616600999999996  3.1160031999999998  8.885217400000002
H    19.849826399999998  4.370999299999999  10.3066177
H    18.485384699999997  6.4541680999999995  10.449110600000001
H    17.242643799999996  5.683052699999999  9.4567415
H    18.814130599999995  5.5692227999999995  7.541499900000001
H    20.102596499999997  6.279329  8.5399024
H    18.662915799999997  8.2119954  9.077171700000001
H    17.287953199999997  7.432618  8.246223100000002
H    19.532580399999997  7.80382  6.495312700000001
H    16.958102799999995  10.8500248  7.137232900000001
H    16.9188846  9.491319899999999  8.191886
H    17.765212  4.0321814  13.284233
H    19.281680999999995  4.6359867  12.6882064
H    19.520343699999998  9.5789154  5.068628900000001
H    18.439680499999998  10.8952407  5.314160600000001
