72

N    -20.681  8.947  24.386000000000003
C    -15.4515517  10.0715213  27.018802700000002
C    -11.950784800000001  10.6806125  25.2431163
C    -9.686460700000001  10.437332999999999  24.0207619
C    -8.9167982  10.728645499999999  25.336003400000003
C    -9.7439821  11.658290599999999  26.2070931
C    -11.1444194  11.0342298  26.5043688
C    -8.6262471  9.6511393  23.1809674
C    -7.3349228  10.475734899999999  23.3798403
C    -7.4634139  11.1155504  24.8191543
C    -12.9728297  8.4804137  26.0566532
C    -8.7275405  9.436625  26.154944
C    -16.2708862  10.004417199999999  25.7485444
C    -18.2936649  8.9507373  24.9783547
C    -19.5321073  9.8242237  24.705482800000002
C    -21.7872624  9.7252042  23.780123500000002
C    -22.967241  8.8420806  23.387888
C    -21.108353100000002  8.2081327  25.6092905
C    -20.9517127  6.7013886  25.4466651
C    -15.514424400000001  9.1955374  24.667301000000002
C    -14.1642385  9.8700458  24.3157934
C    -13.291929  9.9076631  25.5867033
C    -14.0587967  10.6293829  26.7280164
C    -13.418682200000001  9.3944646  22.9934952
C    -11.9166325  9.7856344  22.857846900000002
C    -11.1221662  9.859999  24.2150666
O    -17.5344791  9.4238828  26.0785942
O    -6.598070000000001  11.7331913  25.4067085
H    -20.3788604  8.2533314  23.691993500000002
H    -15.395876000000001  9.0735062  27.4533765
H    -15.9540901  10.712231  27.7444197
H    -12.230144300000001  11.6232896  24.7593855
H    -9.8115643  11.4089282  23.5213647
H    -9.888716800000001  12.6154347  25.6972047
H    -9.2347476  11.8627717  27.149932800000002
H    -11.0134658  10.166311  27.144012800000002
H    -11.6936475  11.7832976  27.075043400000002
H    -8.902172400000001  9.6026472  22.129941300000002
H    -8.509902100000001  8.6396745  23.560843600000002
H    -7.2767299  11.3047912  22.677068900000002
H    -6.4178237000000005  9.8966725  23.314162800000002
H    -13.8028076  8.0608604  26.615228600000002
H    -12.7726354  7.822314899999999  25.2161954
H    -12.1102955  8.4688124  26.717224700000003
H    -7.957601  8.7980651  25.7220847
H    -8.4038474  9.6888813  27.1632558
H    -9.6466714  8.8682079  26.2034191
H    -16.4372424  11.0246047  25.3619205
H    -17.7124947  8.8532577  24.070032400000002
H    -18.6096678  7.9497924  25.2816589
H    -19.7643385  10.4185558  25.589425900000002
H    -19.346153  10.5024509  23.872124200000002
H    -21.4048362  10.2270497  22.8910244
H    -22.1040735  10.4828107  24.4982408
H    -22.6508494  8.044571  22.720560900000002
H    -23.4717665  8.405089199999999  24.2423053
H    -23.6947139  9.4477849  22.8551876
H    -22.145588  8.4485763  25.830428
H    -20.5052272  8.5417103  26.453320700000003
H    -21.5544389  6.330326599999999  24.6211199
H    -19.9193048  6.4063423  25.285548000000002
H    -21.2953878  6.2069629  26.3509898
H    -16.0557022  9.172488399999999  23.7227625
H    -15.3650751  8.1733265  25.0089019
H    -14.413577700000001  10.9244445  24.1153573
H    -13.4710778  10.562711499999999  27.6421333
H    -14.153878500000001  11.6862709  26.465248000000003
H    -13.9619824  9.793471799999999  22.1400204
H    -13.4877947  8.3044455  22.9515303
H    -11.8543332  10.7732279  22.394783
H    -11.4301324  9.0721361  22.196569800000002
H    -11.0118834  8.838637799999999  24.580851000000003
