59

C    15.299  12.753  -25.512
C    14.3104932  12.836699600000001  -24.326825099999997
C    14.760296499999999  13.838921500000001  -23.253095199999997
C    13.745562399999999  14.081928900000001  -22.125958999999998
C    13.0908908  12.813035500000002  -21.5764514
C    12.6039022  13.2020797  -20.1832155
C    13.6048221  14.2376707  -19.6683007
C    14.4117758  14.709228000000001  -20.8898385
C    12.9964177  13.304555100000002  -24.9296449
C    11.990192  10.133847200000002  -25.7569447
C    10.6741805  10.3882384  -26.501292199999998
C    9.870968999999999  11.52528  -25.8564305
C    10.7419808  12.774959500000001  -25.7191737
C    9.9968807  13.9206675  -25.0046555
C    8.6438331  15.914255400000002  -25.599219299999998
C    8.194633799999998  16.269132900000002  -24.3294319
C    7.487068099999999  17.4512667  -24.1992652
C    7.253081  18.234987500000003  -25.3191028
C    7.7447339  17.790671500000002  -26.5353976
C    17.672949199999998  13.043023600000001  -24.8608303
N    16.6020617  12.303979600000002  -25.116418799999998
N    11.982479099999999  12.4064212  -25.0299542
N    12.1030874  11.061998500000001  -24.609964299999998
N    9.369527999999999  14.750637300000001  -25.871214799999997
N    8.421529699999999  16.661145400000002  -26.6802572
O    16.6829357  10.922290100000001  -24.935875199999998
O    12.8522362  14.437083800000002  -25.3447157
O    9.9818101  14.017904000000001  -23.7906957
O    18.7406974  12.5814766  -24.4744392
H    15.3975306  13.736126100000002  -25.9744621
H    14.9334571  12.041636800000001  -26.256641899999998
H    14.298537  11.857394000000001  -23.8478712
H    14.9761733  14.799511500000001  -23.725365999999998
H    15.6914509  13.4687753  -22.817104399999998
H    12.957756  14.7491251  -22.490116099999998
H    13.835208399999999  12.020210700000002  -21.4896253
H    12.2540094  12.492264800000001  -22.190390299999997
H    12.5281345  12.343335300000001  -19.5183028
H    11.6133998  13.654395800000001  -20.259824
H    14.270951  13.8009216  -18.9238426
H    13.091298199999999  15.0709905  -19.1893037
H    14.4435212  15.795668500000001  -20.960763
H    15.4420021  14.3584762  -20.8107076
H    12.8453976  10.295794  -26.4123451
H    12.0378432  9.114515800000001  -25.3755053
H    10.0580913  9.491886100000002  -26.511385699999998
H    10.8784448  10.652153400000001  -27.53755
H    9.4715943  11.2370429  -24.8825462
H    9.0146635  11.7619453  -26.4852292
H    11.0319063  13.135142900000002  -26.7138921
H    8.401046  15.6416266  -23.479256999999997
H    7.1222199999999996  17.7567745  -23.2304194
H    6.7075059999999995  19.1615261  -25.252055499999997
H    7.595200899999999  18.357733800000002  -27.443744
H    17.5116827  14.113763500000001  -25.033009999999997
H    13.001246199999999  10.9233635  -24.119816399999998
H    11.348962799999999  10.8440603  -23.9332121
H    9.5353703  14.6454649  -26.8661735
H    17.6058924  10.7356729  -24.6735404
