80

C    65.59300000000002  50.948  12.837999999999997
O    66.05954860000001  50.9676036  11.501772499999998
C    66.493502  51.8560015  13.673919799999998
C    67.5349642  51.309388  14.458331599999998
C    68.36879150000001  52.1450332  15.226371099999998
C    68.17096240000001  53.5367825  15.207740799999998
C    67.14469950000002  54.1005363  14.424962499999998
C    66.31211290000002  53.260025399999996  13.659003699999998
S    69.26659080000002  54.611852999999996  16.2200256
O    68.49654550000001  55.7018905  16.787205999999998
O    69.89532030000001  53.826921  17.266910799999998
N    70.44588650000001  55.2336509  15.196890899999998
C    71.1888655  54.223573699999996  14.461736799999997
C    72.7006029  54.4814461  14.472615999999999
C    73.22409170000002  54.4655859  15.907167699999999
C    73.4111749  53.4356954  13.605838899999998
C    70.16535540000001  56.485078099999996  14.524818799999998
C    71.05137470000001  57.6211039  15.063704699999999
C    73.33811440000001  52.0284452  14.187742899999998
O    70.92732590000001  58.7283215  14.205137399999998
C    70.68126350000001  58.0147488  16.5107397
N    71.69729420000002  58.9399686  17.005035399999997
C    72.61293690000001  58.607560899999996  17.938823699999997
O    72.65547830000001  57.525992599999995  18.4952297
O    73.51003850000001  59.5980764  18.196541999999997
C    74.36627070000002  59.4576548  19.353365699999998
C    75.68445580000001  59.9832508  18.948576199999998
O    75.46958930000001  61.4133104  18.9496057
C    74.53201990000001  61.7644151  19.9763922
O    73.41526800000001  62.5734834  19.532979499999996
C    72.20945080000001  61.8393133  19.572475599999997
C    72.46686150000001  60.7177131  20.574867899999997
C    73.97306270000001  60.4674317  20.473101299999996
C    69.30209630000002  58.682100399999996  16.631559799999998
C    68.7569466  58.2468302  19.0914349
C    68.5558967  58.6818312  20.4150961
C    68.66280130000001  60.048566  20.735170399999998
C    68.97114210000001  60.973044099999996  19.723027499999997
C    69.1753735  60.5354721  18.3999259
C    69.06996310000001  59.167396499999995  18.0612808
H    65.63255900000001  49.931151899999996  13.245130299999998
H    64.5645817  51.3245498  12.893201699999999
H    65.47731590000001  50.4230553  10.954512299999998
H    67.69126800000001  50.2441639  14.479636499999998
H    69.14583510000001  51.7381107  15.851587199999997
H    66.9979727  55.166624399999996  14.434699399999998
H    65.52819830000001  53.692305499999996  13.061106199999998
H    70.81786280000001  54.1555471  13.432227199999998
H    70.9825734  53.2852025  14.975987799999999
H    72.88672210000001  55.4649991  14.032041799999998
H    72.85256960000001  55.3241246  16.4644026
H    72.8828763  53.5802392  16.434538299999996
H    74.31028590000001  54.492179  15.919036199999997
H    74.4591955  53.721692  13.505207699999998
H    72.96780400000002  53.4386905  12.608401999999998
H    69.119881  56.7501501  14.679628899999997
H    70.34833440000001  56.3877531  13.451672099999998
H    72.08737680000002  57.2596719  15.083417399999998
H    73.84611970000002  51.9745716  15.144856599999997
H    72.31002360000001  51.7053025  14.318886999999998
H    73.82425980000001  51.3290684  13.510670399999999
H    71.70036950000001  59.3029456  14.292908999999998
H    70.7223103  57.121572799999996  17.141174
H    71.70084580000001  59.8791739  16.636488899999996
H    74.33466570000002  58.4168994  19.6839721
H    75.98453610000001  59.718662099999996  17.936227199999998
H    76.47277740000001  59.7335032  19.6659515
H    75.06322510000001  62.38355  20.708412699999997
H    71.97176300000001  61.445209399999996  18.579502499999997
H    71.42970330000001  62.5311069  19.890055999999998
H    71.88222940000001  59.8248058  20.355647599999998
H    72.2225391  61.0530585  21.582497399999998
H    74.40981380000001  60.132274699999996  21.4111503
H    68.54224520000001  57.9398682  16.397873599999997
H    69.24019530000001  59.5141595  15.930750399999997
H    68.66485620000002  57.2003087  18.8392639
H    68.3169998  57.9606402  21.1796643
H    68.5056258  60.3806783  21.747829399999997
H    69.03537840000001  62.0234534  19.9541804
H    69.39578540000001  61.2604286  17.632105799999998
