63

N    15.297  -10.129  -7.384
C    15.1076268  -9.560088399999998  -8.7015724
C    13.6625313  -9.2110633  -8.8898584
O    12.9255355  -9.096408099999998  -7.9176902
C    15.7820065  -10.328362599999998  -9.844729000000001
C    15.5207704  -11.786032299999999  -9.8379149
C    16.6368204  -12.6036197  -9.7772297
C    14.2491356  -12.3371021  -9.8457889
C    16.5007982  -13.9749308  -9.7317117
C    14.0969989  -13.7114383  -9.7968101
C    15.2266566  -14.504147  -9.7383171
C    10.968488  -9.872014499999999  -10.4511348
C    11.8082629  -8.617974799999999  -10.2673123
C    16.5074046  -10.195937899999999  -6.7944224
C    16.507688  -10.639863799999999  -5.3971248
C    15.476700300000001  -11.384014599999999  -4.848120600000001
C    15.5178827  -11.743484899999999  -3.5104974
C    16.563497  -11.3154276  -2.706442
C    17.5772854  -10.545820099999998  -3.2472934
C    17.5508123  -10.2059185  -4.5858796
C    14.4283419  -12.5724439  -2.9500277000000006
C    15.2803937  -9.749419499999998  -11.1021319
C    14.0331285  -9.1893573  -11.1972085
C    15.7937982  -9.666860799999998  -12.3880375
C    17.0761833  -10.233056799999998  -12.8566534
C    12.895603600000001  -7.992374299999999  -13.049565600000001
C    13.0276905  -6.618166699999999  -13.0786697
C    11.9835214  -5.841298599999999  -13.5292741
C    10.8021763  -6.442186699999999  -13.9277391
C    10.6664671  -7.816680499999999  -13.856039500000001
C    11.6963892  -8.591543199999998  -13.3584443
F    15.0804043  -15.856776399999998  -9.689266400000001
N    13.2074429  -8.976861699999999  -10.1309891
N    13.9277145  -8.636586399999999  -12.403617
N    14.9569946  -8.997771899999998  -13.160962
O    17.5517938  -9.955385499999998  -7.394409100000001
H    14.4532062  -10.147689199999999  -6.824380400000001
H    15.614320900000001  -8.570521  -8.7047177
H    16.8595081  -10.166937099999998  -9.7485148
H    17.6223396  -12.166654  -9.75009
H    13.3764598  -11.7052468  -9.8770083
H    17.3551618  -14.6305939  -9.6819711
H    13.1212101  -14.169922199999998  -9.7969569
H    11.3535591  -10.484646399999999  -11.2620151
H    10.9822112  -10.460458699999998  -9.535699000000001
H    9.9407697  -9.601520699999998  -10.6726113
H    11.5207356  -8.1213032  -9.3373204
H    11.686300899999999  -7.918591799999999  -11.086824400000001
H    14.6667216  -11.7460659  -5.463168100000001
H    16.5857733  -11.586677299999998  -1.6624628000000001
H    18.3912472  -10.205956899999999  -2.6249573
H    18.337015700000002  -9.6132137  -5.029205800000001
H    13.470436  -12.0628731  -3.0490475000000004
H    14.3515946  -13.516934699999998  -3.4874049000000005
H    14.595432  -12.787599399999998  -1.8979867000000006
H    17.9033481  -9.8093487  -12.288978
H    17.0820635  -11.311611899999999  -12.7067716
H    17.217715  -10.015024499999999  -13.9104048
H    13.9560079  -6.170100999999999  -12.7601124
H    12.0815607  -4.767184099999999  -13.559460600000001
H    9.982659  -5.837783799999999  -14.2834413
H    9.739126  -8.2848078  -14.1467422
H    11.5939473  -9.662584899999999  -13.2957816
