25

C    43.07  -21.379  35.433
C    43.9486044  -22.5954485  35.7579817
C    43.3110633  -23.6034374  36.7340204
C    44.29574040000001  -24.6343369  37.3417408
C    45.171183500000005  -25.3888952  36.3257489
C    46.25928510000001  -26.3259799  36.8569756
N    42.043066800000005  -21.6760861  34.3835431
N    46.1814538  -26.7847556  38.1191322
O    47.188048800000004  -26.6562828  36.1190037
O    47.205598900000005  -27.6535279  38.5639407
H    43.7042702  -20.5746194  35.0636595
H    42.562696300000006  -21.0384243  36.334607
H    44.864776600000006  -22.2214999  36.2169303
H    44.232896800000006  -23.1014591  34.8363617
H    42.521560900000004  -24.159943300000002  36.225808
H    42.8648546  -23.065867  37.5708347
H    43.703600200000004  -25.3472876  37.9164384
H    44.958537500000006  -24.1068431  38.0317926
H    45.7134185  -24.688387900000002  35.6907284
H    44.5481697  -26.005812900000002  35.6731221
H    41.477977200000005  -20.8417731  34.1932524
H    42.50401840000001  -21.974231800000002  33.5164259
H    41.4246429  -22.4311386  34.6997667
H    45.454855200000004  -26.5597834  38.7793455
H    47.0146268  -27.8684678  39.4924499
