31

C    44.629  43.069  23.479
C    44.252950899999995  42.5470873  24.8835321
C    42.9457819  41.7059247  24.883590299999998
C    42.892463199999995  40.534241  25.9104012
C    43.062297199999996  39.1128187  25.3015933
C    42.595345699999996  37.9452881  26.2275016
C    43.707901699999994  36.927432  26.580244399999998
C    43.4574643  35.989069  27.771612599999997
N    46.0342844  43.5895628  23.398398
N    42.7644105  34.8462789  27.5882164
O    42.581644999999995  33.9817813  28.7014192
O    43.9304942  36.2754621  28.8729924
H    43.9437302  43.8638165  23.1885532
H    44.5329844  42.2505131  22.7659465
H    44.1494656  43.3708763  25.5864785
H    45.0582505  41.8998976  25.2367255
H    42.7986358  41.2811271  23.889101
H    42.102555499999994  42.3682295  25.0724467
H    41.916865599999994  40.5614248  26.3992218
H    43.640752199999994  40.6796744  26.6901317
H    44.1080463  38.9595044  25.0344725
H    42.4775424  39.0664996  24.3825084
H    41.765522399999995  37.4186079  25.7586828
H    42.2232397  38.3664843  27.1652545
H    44.6019547  37.4801803  26.8712777
H    43.9378569  36.327468  25.6978907
H    46.2322822  43.912216  22.4456961
H    46.159537199999995  44.3722643  24.0508271
H    46.698357699999995  42.8477345  23.648666499999997
H    42.338290199999996  34.5638686  26.7196828
H    42.0553982  33.2270965  28.3880647
