77

O    22.08  12.473  32.817
C    21.4670866  11.7385531  32.0442325
N    20.1160513  11.7094041  31.987798899999998
C    19.3720636  12.537392700000002  32.9240321
C    22.2288056  10.7809705  31.1363684
C    22.8229756  9.643248600000002  31.995679799999998
C    21.7484916  8.7580722  32.6096011
N    21.453662299999998  10.2685505  30.0193704
C    22.1666879  10.0453159  28.7670078
C    22.949379999999998  8.7568439  28.652233799999998
C    24.3366849  8.7402078  28.729318499999998
C    25.0416771  7.566061  28.519220699999998
C    24.367786799999998  6.394021700000001  28.225997
C    22.9843069  6.397539600000001  28.1654514
C    22.2812254  7.569244600000001  28.380016599999998
C    20.106606499999998  10.1130276  30.129408299999998
C    19.4195991  10.781733200000001  31.185508199999997
N    19.4440615  9.3277622  29.2774295
C    18.1232616  9.137247  29.486849099999997
N    17.4350348  9.6221729  30.522107499999997
C    18.0861972  10.4459967  31.3451082
N    17.4852028  8.4127179  28.5289844
C    16.1281383  8.268251000000001  28.227600199999998
C    15.1065904  8.932394100000002  28.8903532
C    13.7998242  8.8473392  28.441023299999998
C    13.4676096  8.0949723  27.3235277
C    14.4753463  7.357039500000001  26.7019991
C    15.7910247  7.4384227  27.135388199999998
O    16.8544642  6.792089800000001  26.554036999999997
C    16.6151104  5.6643224000000005  25.7203579
C    17.9636269  5.144245700000001  25.245306499999998
C    12.079512399999999  8.160255000000001  26.720234299999998
C    11.7591445  9.586952100000001  26.2425993
C    10.3571674  9.6628918  25.6482571
N    9.345405399999999  9.2433338  26.6375596
C    7.985000899999999  9.4064555  26.107972399999998
C    9.5988352  7.8469503000000005  27.0445666
C    10.976523799999999  7.708768900000001  27.686432699999997
H    18.5895334  13.0773404  32.3935489
H    18.9319301  11.9237908  33.7108902
H    20.0750471  13.2390801  33.3684357
H    23.0689487  11.3591525  30.7301842
H    23.4241727  10.1034339  32.7814524
H    23.4760482  9.039982100000001  31.3636141
H    21.1126008  9.3293174  33.2834253
H    21.1276986  8.3132751  31.8346436
H    22.2101836  7.954787400000001  33.1774943
H    22.8409629  10.893708  28.6163474
H    21.4045936  10.0469171  27.9838772
H    24.8739774  9.6542604  28.9407024
H    26.119879599999997  7.572015200000001  28.575910399999998
H    24.9179181  5.4825084  28.0484501
H    22.452888  5.484329000000001  27.9439773
H    21.2024649  7.5807834000000005  28.332085499999998
H    17.4844144  10.853377  32.1438627
H    18.1017448  8.0036269  27.8377196
H    15.3588582  9.532687200000002  29.7478019
H    13.046484199999998  9.4052827  28.9734867
H    14.2326255  6.7381066  25.8528181
H    16.0141331  5.9606513  24.851658699999998
H    16.0736683  4.897471  26.287511199999997
H    18.4882284  5.9209719000000005  24.696113099999998
H    18.5722905  4.847893700000001  26.0951481
H    17.8158803  4.285792300000001  24.5978611
H    12.0664176  7.495416100000001  25.8506796
H    12.4845835  9.8906513  25.4890133
H    11.8533827  10.2791037  27.0798122
H    10.2796957  9.0047724  24.7813071
H    10.1461343  10.68459  25.3304928
H    9.4528762  9.8372072  27.4682826
H    7.8096715  10.4435994  25.8335932
H    7.858672199999999  8.783362200000001  25.2258171
H    7.252046  9.1110381  26.854428499999997
H    9.5332438  7.216303400000001  26.1564937
H    8.8297718  7.5344239  27.7517548
H    11.0252152  8.3009058  28.600842999999998
H    11.1368812  6.6682638  27.9655883
