15

C    -1.095  -2.3680000000000003  -26.048
C    0.3195611000000001  -3.4312945000000004  -27.240478099999997
N    2.4349558  -5.531379  -29.010666699999998
N    1.0165914  -6.0308997  -27.2769439
C    -0.2933454999999999  -4.3516285  -26.336837
N    -1.1900146999999999  -3.6334836  -25.5925874
C    1.5487041000000001  -5.0975658  -28.111004299999998
C    0.12950180000000008  -5.6497477  -26.4036224
I    -0.6284418999999999  -7.0548655  -24.989516199999997
N    -0.21644879999999994  -2.1993262000000002  -27.005975399999997
N    1.2536184000000001  -3.7915904000000005  -28.1118383
H    2.709415  -6.4973788  -29.0049079
H    2.8709975  -4.858734200000001  -29.615637
H    -1.7915982  -3.986899  -24.864519199999997
H    -1.6831743  -1.5628951000000004  -25.655215499999997
