30

C    -0.594  -8.275  -26.42
C    -1.0379641  -9.3854033  -25.7259923
C    -1.2924753999999998  -9.3070632  -24.3643043
C    -0.2952654999999999  -4.5338051  -26.250441600000002
C    -1.165895  -8.0999859  -23.686455000000002
C    -1.3797826  -7.9672484  -22.204780500000002
C    -2.4855627  -8.813296000000001  -21.5082643
C    -0.7205850999999999  -6.9914273  -24.396717300000002
C    -1.0898187  -2.628725  -25.720537200000003
C    0.3210723000000001  -3.5687113  -27.086074300000003
N    2.3410113  -5.5043952  -29.122460200000003
N    0.9411938000000001  -6.1282866  -27.443759200000002
C    -0.43051399999999995  -7.0590539  -25.754134900000004
N    -1.1735014  -3.8850889  -25.404889800000003
C    1.4766317  -5.1312777  -28.1682887
C    0.06880370000000002  -5.8751695  -26.473829700000003
O    -2.3052426  -9.0317957  -20.2927757
O    -3.5014033  -9.1355007  -22.153570300000002
N    -0.1988362999999999  -2.3628546999999998  -26.723763100000003
N    1.2123198  -3.8206898000000002  -28.036331200000003
H    -0.3767229999999999  -8.3277735  -27.474690100000004
H    -1.1700281  -10.3259656  -26.2382066
H    -1.6386526999999997  -10.1739552  -23.818834400000004
H    -1.6227187  -6.9274336000000005  -21.9619201
H    -0.4502831999999999  -8.2112055  -21.678194800000004
H    -0.6092386  -6.044141  -23.8874314
H    -1.6576795999999998  -1.8610892000000003  -25.235587100000004
H    2.5646405  -6.4788574  -29.205424400000002
H    2.791108  -4.802247  -29.6805911
H    0.02821140000000011  -1.4680020000000003  -27.124620800000002
