23

N    41.573  34.611  -23.407
N    40.318169899999994  33.576996599999994  -24.8923571
C    42.1033791  34.9186779  -24.6316677
C    39.7363522  33.23338639999999  -22.5631481
C    41.170996099999996  35.608149499999996  -29.277054900000003
C    40.727210199999995  35.446712  -27.750327300000002
C    41.3703942  34.2317962  -27.068293800000003
C    41.2454208  34.2294418  -25.5695717
N    40.502124499999994  33.8020145  -23.6244546
N    39.247636699999994  35.38119579999999  -27.7272082
O    42.3750982  35.599807199999994  -29.533281900000002
O    40.220138299999995  35.768423  -30.0773827
O    43.0979579  35.6381113  -24.813639000000002
H    41.9022078  34.8661688  -22.4891796
H    38.928381099999996  32.6618516  -23.010979300000002
H    40.353185599999996  32.5695996  -21.9557577
H    39.3214191  34.018477999999995  -21.9320665
H    41.0877226  36.3536953  -27.258429800000002
H    42.4328906  34.257612699999996  -27.322811400000003
H    40.939969299999994  33.313621299999994  -27.4691201
H    39.029696699999995  35.5379259  -28.7539503
H    38.920628799999996  34.45324539999999  -27.4388557
H    38.8054463  36.10429129999999  -27.1578963
