92

C    51.062  -18.825  -75.386
C    50.6226207  -19.8159203  -74.51024189999998
C    53.5033537  -25.427012899999998  -78.07756959999999
C    53.421380400000004  -24.094540699999996  -78.46780779999999
C    53.5714419  -23.0971782  -77.50753999999999
C    53.1478691  -23.721490199999998  -79.92820699999999
C    55.4415808  -25.450314399999996  -74.09117659999998
C    55.6700903  -25.597394499999996  -72.58336379999999
C    54.6044886  -26.532110099999997  -71.99727219999998
C    53.2277775  -25.9077526  -72.2555891
C    51.0010201  -21.264674199999998  -74.75228449999999
C    50.7764821  -22.867414699999998  -72.83546199999999
C    52.4388778  -22.269422199999998  -71.59017669999999
C    52.448506  -21.4735156  -72.71801839999999
C    53.3126294  -20.366966499999997  -73.06112789999999
C    54.192650900000004  -20.2700297  -74.12187079999998
C    54.3246719  -18.3372821  -73.0127407
C    53.3826129  -19.136905199999998  -72.32576099999999
C    52.755539  -18.6349171  -71.17728709999999
C    53.0830438  -17.368368699999998  -70.7419908
C    54.022942900000004  -16.5954537  -71.44100339999999
Cl    52.0184776  -19.2363093  -76.80739849999999
C    49.871046  -19.435602499999998  -73.3999061
C    49.5497955  -18.108797099999997  -73.1684409
C    49.9918274  -17.1461558  -74.06349189999999
C    50.7507335  -17.4923911  -75.17092089999998
Cl    49.6029211  -15.475894899999998  -73.81302349999999
N    51.3848859  -21.8685178  -73.49571859999999
N    51.3701369  -23.133751299999997  -71.71059589999999
N    54.7841289  -19.0361107  -74.08045839999998
C    54.6574723  -17.0569784  -72.57585099999999
Cl    54.4086253  -14.992278999999998  -70.8665365
C    54.4651832  -21.186070299999997  -75.24194839999998
O    55.1326911  -20.8021666  -76.20303119999998
N    53.8875664  -22.4214706  -75.17182669999998
C    53.8092152  -23.408121299999998  -76.1732926
C    53.8627958  -24.756220499999998  -75.78176319999999
C    53.7211196  -25.750368299999998  -76.74695739999999
O    53.242161700000004  -22.511328699999996  -80.23208949999999
O    52.8280447  -24.6323135  -80.7338657
N    54.073886  -25.020371899999997  -74.39226889999999
C    53.0120845  -25.8107607  -73.7706183
N    54.8784571  -26.859446999999996  -70.58912459999999
C    54.5815733  -25.8765875  -69.54629839999998
C    55.196347  -26.2511838  -68.19598659999998
C    55.0179669  -27.7474322  -67.99845619999999
O    55.6680295  -28.450250299999997  -69.06390129999998
C    55.3982757  -28.075938199999996  -70.3286007
O    55.6536722  -28.895515099999997  -71.20535059999999
C    53.3534901  -22.339301499999998  -70.42676669999999
C    52.833444  -22.7654951  -69.2000607
C    53.638394  -22.897810399999997  -68.07955799999999
C    54.9959932  -22.619514499999998  -68.15585829999999
C    55.5330817  -22.2032599  -69.36660749999999
C    54.7253114  -22.0613763  -70.48950589999998
C    49.9034301  -22.041025199999996  -75.48661299999999
H    53.3876192  -26.188868  -78.83430969999999
H    53.5209749  -22.068120899999997  -77.8372874
H    55.6687619  -26.4149802  -74.5775372
H    56.1158074  -24.6989846  -74.5092854
H    55.5984125  -24.617995099999998  -72.10837509999999
H    56.666292  -26.0064395  -72.41613089999998
H    54.6636783  -27.493959099999998  -72.5196431
H    53.1694666  -24.914055499999996  -71.81487349999999
H    52.4388901  -26.527813199999997  -71.83249969999999
H    51.8811046  -21.2708099  -75.40167229999999
H    49.9115988  -23.389615  -73.1859284
H    52.0396115  -19.236351699999997  -70.64228459999998
H    52.6185782  -16.9561258  -69.8619349
H    49.532670100000004  -20.192421099999997  -72.71012609999998
H    48.9651091  -17.8250772  -72.3096667
H    51.0960022  -16.7403081  -75.85974809999999
H    55.3762404  -16.450917099999998  -73.10236149999999
H    53.7103645  -22.8115113  -74.24801399999998
H    53.7802697  -26.787765999999998  -76.45294299999999
H    52.067545100000004  -25.306528399999998  -73.98211109999998
H    52.9619015  -26.8298535  -74.18802299999999
H    53.4934232  -25.800311899999997  -69.45085689999999
H    54.9590041  -24.9078037  -69.8781176
H    54.7056906  -25.690360499999997  -67.40544359999998
H    56.2621416  -26.021183599999997  -68.19284189999999
H    53.9582908  -28.021544399999996  -67.98820629999999
H    55.5028124  -28.1122472  -67.09325959999998
H    51.7810444  -22.995150999999996  -69.14572639999999
H    53.2024602  -23.2177695  -67.14594809999998
H    55.628851  -22.724129299999998  -67.28905029999999
H    56.5875346  -21.985837299999996  -69.44730899999999
H    55.1578147  -21.7371533  -71.4260353
H    50.2277869  -23.0619685  -75.67176299999998
H    48.9745648  -22.0401851  -74.92300889999999
H    49.7283734  -21.561522599999996  -76.44554539999999
H    55.4437063  -18.7271103  -74.77754429999999
