74

C    134.419  108.397  41.078
C    132.69998160000003  110.68729660000001  41.3454715
C    132.07718710000003  111.68923310000001  42.3624609
C    132.74839280000003  113.0635717  42.2819687
C    132.19108500000002  114.1117183  43.245815300000004
C    130.95376520000002  114.8399565  42.7284755
C    129.63793840000002  114.07516820000001  42.926470200000004
C    136.63973430000001  111.6787663  38.760231600000004
C    139.13074920000003  111.4560079  39.3050455
C    139.50634920000002  113.11842870000001  40.7408019
C    139.29038290000003  115.0012468  42.1675162
C    137.35396760000003  114.1894774  40.93536
C    138.13408590000003  113.1706767  40.3694992
C    129.79639650000001  112.58103530000001  43.214601800000004
C    135.47122170000003  105.85754010000001  35.5986578
C    135.48841090000002  107.2945917  35.0882723
C    134.73376400000004  108.27603810000001  35.9967428
C    135.3394311  108.3327696  37.4094184
C    134.39573760000002  110.6722226  37.3825939
C    136.35778940000003  110.1476868  38.9110524
C    136.40898640000003  109.7158647  40.408709
C    134.20321250000003  110.90126330000001  41.0231696
C    130.5574649  111.799867  42.1336596
C    137.91954010000003  112.08441810000001  39.4448154
C    137.93564990000002  115.07907130000001  41.8145163
C    140.09121450000004  114.01775880000001  41.6329469
N    135.09101010000003  109.631564  38.192460600000004
N    135.12678000000002  109.6980475  41.2260833
N    140.07480000000004  112.06363970000001  40.08092
H    133.67504120000004  108.4164576  40.2861807
H    135.13060660000002  107.5978248  40.8870668
H    133.9013681  108.14182240000001  41.9985853
H    132.13094020000003  110.7871032  40.4214651
H    132.49881370000003  109.70017  41.745319
H    132.22981880000003  111.3093636  43.37874
H    132.67866930000002  113.45472740000001  41.265967700000004
H    133.79877050000002  112.9796487  42.5557953
H    132.96622890000003  114.8714384  43.388969700000004
H    131.9993257  113.67949370000001  44.2275447
H    131.09862490000003  115.0549869  41.667569400000005
H    130.87223950000003  115.80591940000001  43.2320653
H    129.00719080000002  114.1990043  42.0430829
H    129.08773960000002  114.5111566  43.765287
H    135.85276480000002  112.2992981  39.1792502
H    136.73922800000003  111.9181374  37.7021786
H    139.40511200000003  110.6181947  38.6958665
H    139.70253100000002  115.7230782  42.8573879
H    136.30884350000002  114.2961129  40.6872284
H    128.78598990000003  112.16817730000001  43.292839900000004
H    130.26368600000004  112.4314717  44.1883989
H    136.04959240000002  105.7468944  36.5111403
H    134.45180810000002  105.52766390000001  35.786223
H    135.90015670000003  105.19009530000001  34.8544712
H    135.02380250000002  107.3229568  34.1011414
H    136.5232745  107.62082240000001  34.9675808
H    133.68576780000004  107.979063  36.0348966
H    134.80433500000004  109.2362482  35.4958022
H    136.41570040000002  108.21168300000001  37.296051500000004
H    134.95807460000003  107.5042878  38.000306200000004
H    135.01975560000002  111.01449600000001  36.5646986
H    133.474036  110.2585773  36.9853663
H    134.14238590000002  111.5308026  37.9960521
H    137.20857460000002  109.6599214  38.4357762
H    137.10167280000002  110.41364920000001  40.8821841
H    136.83757520000003  108.71912520000001  40.484928700000005
H    134.6255197  111.6941587  41.6300289
H    134.27974390000003  111.2111458  39.9903908
H    130.14598900000001  110.7880377  42.097331600000004
H    130.36568130000003  112.2694038  41.1671789
H    137.33548220000003  115.8667152  42.2469734
H    141.13953670000004  113.94697910000001  41.8846574
H    134.41437500000004  109.378348  38.916856700000004
H    135.44317970000003  109.7349743  42.199031500000004
H    141.04652460000003  111.8100771  40.124934700000004
