184

N    73.558  -31.493  193.383
C    74.19425480000001  -30.9564168  194.6210509
C    74.06316810000001  -32.0332589  195.7300738
O    72.9586852  -32.4872137  195.9996429
C    73.49037510000001  -29.6659443  195.076052
C    74.2604689  -28.927780399999996  196.1803854
C    75.3995385  -28.088323699999997  195.6253149
O    75.19386320000001  -27.1283665  194.8900149
N    76.63523380000001  -28.475915199999996  195.9669821
N    75.22088420000001  -32.428596399999996  196.2813798
C    75.30532610000002  -33.302530999999995  197.4548617
C    75.0965874  -32.4003132  198.6979618
O    75.2359868  -31.180638699999996  198.57987260000002
C    76.62542460000002  -34.1177097  197.4111416
C    76.542831  -35.4650195  198.1568384
C    77.37872480000001  -36.628744499999996  197.5880644
N    77.24694920000002  -37.7902324  198.47070580000002
C    78.1123366  -38.785170099999995  198.663464
N    79.25907370000002  -38.8612641  197.99903600000002
N    77.80796720000001  -39.7606274  199.52285410000002
N    74.662737  -33.0061247  199.8121083
C    74.5986888  -32.3492931  201.1140997
C    75.93170150000002  -32.597343699999996  201.8582568
O    76.45590500000002  -33.705835099999994  201.8252922
C    73.43854660000001  -32.903143  201.9659584
C    72.22220720000001  -31.986434799999998  202.0331028
C    71.27253370000001  -32.0921144  200.8397549
N    70.0898714  -31.289032  201.1007245
C    69.1832973  -31.565607599999996  202.0357195
N    69.27707370000002  -32.6599186  202.78750340000002
N    68.16589470000001  -30.7337188  202.2334845
N    76.44558710000001  -31.544809199999996  202.5423821
C    77.71311410000001  -31.529247399999996  203.2892593
C    77.58582240000001  -32.251356099999995  204.6473545
O    78.57330890000001  -32.5653157  205.30401990000001
C    78.2784232  -30.0933744  203.43407430000002
C    77.35436390000001  -29.181734199999998  204.2368168
C    79.66715180000001  -30.110899399999997  204.069926
N    76.31062990000001  -32.4996631  204.9956956
C    75.85071310000001  -33.459635299999995  205.98402910000001
C    76.35419170000002  -34.8690146  205.582707
O    76.77379250000001  -35.611715499999995  206.4537689
C    74.31899760000002  -33.269450299999995  206.195934
O    73.99536460000002  -33.4502828  207.5616213
C    73.44982390000001  -34.1814738  205.33764060000001
N    76.37471710000001  -35.1876665  204.2668925
C    76.70087180000002  -36.5082513  203.7306505
C    78.14811890000001  -36.9759667  203.9161082
O    78.39496570000001  -38.1795304  203.89920890000002
C    76.48898290000001  -36.572265699999996  202.21224850000002
C    75.00634480000001  -36.330937199999994  201.7999173
O    74.1197343  -36.9169492  202.4402768
O    74.7998615  -35.6187493  200.8102203
N    79.08828270000001  -36.0160305  203.94320860000002
C    80.52277740000001  -36.265484099999995  203.9432725
C    81.0546814  -36.4748422  205.3752962
O    81.7552399  -37.4510003  205.6242767
C    81.25406350000002  -35.1478981  203.1723431
C    80.77408630000001  -35.0619885  201.7431363
C    81.34500260000002  -35.8350144  200.73918270000001
C    79.71306480000001  -34.2328735  201.407024
C    80.88330400000001  -35.7557176  199.4356128
C    79.2493912  -34.1461757  200.107513
C    79.8446758  -34.9001989  199.1132445
N    80.70246470000001  -35.5617167  206.2930658
C    81.05407190000001  -35.6494843  207.7088148
C    79.74898650000002  -35.891362  208.53194390000002
O    78.6969547  -35.500047699999996  208.045296
C    81.75324180000001  -34.3332814  208.15753890000002
C    82.4261359  -33.526079499999994  207.0630597
C    81.77954640000002  -32.4277703  206.5027811
C    83.72309430000001  -33.8026086  206.6431863
C    82.40708160000001  -31.640122599999998  205.5523546
C    84.34578440000001  -33.024792899999994  205.6790879
C    83.68982450000001  -31.938341199999996  205.1308952
N    79.83083580000002  -36.509331599999996  209.734945
C    78.70251370000001  -36.748114199999996  210.66022750000002
C    79.1409885  -36.547827299999994  212.1551667
O    80.33327710000002  -36.4759001  212.436799
C    78.13093660000001  -38.153047799999996  210.46014780000002
N    78.12928740000001  -36.3606718  213.0314399
C    78.26901310000001  -36.006408099999994  214.4547675
C    79.282396  -36.9787037  215.19732390000001
O    79.390009  -36.8796672  216.4377992
C    76.91685720000001  -36.007578599999995  215.1922211
C    75.84867220000001  -35.0375441  214.6534862
C    74.4300661  -35.439642  215.0880756
N    73.40923920000002  -34.942193499999995  214.1684993
C    72.09532240000001  -35.1285248  214.30638620000002
N    71.6021869  -35.7862836  215.3497537
N    71.26087640000001  -34.647060499999995  213.38830520000002
O    79.92099240000002  -37.8013164  214.52114210000002
H    74.11207660000001  -32.254282599999996  192.9729462
H    72.62897070000001  -31.864232199999996  193.6359745
H    73.43918610000001  -30.748725899999997  192.6847088
H    75.2443276  -30.740083  194.4127196
H    72.49793540000002  -29.9237537  195.44783560000002
H    73.38598560000001  -28.978940899999998  194.2344333
H    74.61793310000002  -29.620707999999997  196.9425387
H    73.5765422  -28.221123499999997  196.6524865
H    77.41289130000001  -27.891806099999997  195.7015941
H    76.77101130000001  -29.142139899999997  196.70991610000002
H    76.05818440000002  -31.897309099999998  196.08742230000001
H    74.44932770000001  -33.983483  197.402296
H    77.44125730000002  -33.513666199999996  197.8040594
H    76.82445940000001  -34.319970399999995  196.3571496
H    75.50131010000001  -35.7947616  198.1675366
H    76.82162020000001  -35.3196316  199.2021283
H    78.42862470000001  -36.3491322  197.52874
H    77.01283740000001  -36.8900398  196.5900962
H    76.40993560000001  -37.7910295  199.0360499
H    79.89188180000001  -39.625163699999995  198.1600957
H    79.49136800000001  -38.1882709  197.2894528
H    74.70422810000001  -34.022232699999996  199.8922877
H    74.479538  -31.2777489  200.9220607
H    73.81817120000001  -33.0258798  202.97825170000002
H    73.1841588  -33.8981011  201.6004829
H    72.55671920000002  -30.952147299999996  202.1278015
H    71.6803045  -32.2329273  202.9446835
H    70.99548530000001  -33.1352633  200.6660292
H    71.7478997  -31.720809499999998  199.9339644
H    70.0050927  -30.4151046  200.60593360000001
H    68.52169730000001  -32.901306  203.4071338
H    69.914465  -33.397612699999996  202.5391732
H    75.99043650000002  -30.647005299999996  202.4512565
H    78.44643220000002  -32.1117195  202.7230625
H    78.37398820000001  -29.693599099999997  202.41839190000002
H    76.37147540000001  -29.084038299999996  203.78511450000002
H    77.23739530000002  -29.5644614  205.2490246
H    77.79260970000001  -28.189803299999998  204.30062560000002
H    79.6152016  -30.4878449  205.0868879
H    80.33937110000001  -30.7480849  203.4999874
H    80.07375710000001  -29.103329  204.09091030000002
H    75.60430120000001  -32.157787199999994  204.3558563
H    76.34272510000001  -33.2700301  206.9463404
H    74.12659260000001  -32.2126753  205.94079010000002
H    73.03090600000002  -33.4521704  207.6523454
H    73.86526920000001  -34.343336699999995  204.34978610000002
H    73.4046442  -35.164657899999995  205.8056617
H    72.44365870000001  -33.782834099999995  205.2560882
H    76.19405340000002  -34.498158399999994  203.5453572
H    76.05652860000001  -37.250907399999996  204.2180556
H    76.75755260000001  -37.5818429  201.89713220000002
H    77.12933910000001  -35.848952499999996  201.710092
H    78.78654410000001  -35.0644238  204.0994249
H    80.66847940000001  -37.2302446  203.442798
H    82.321909  -35.3682988  203.2065853
H    81.08541760000001  -34.2019781  203.693623
H    82.1637457  -36.4952513  200.9860587
H    79.2480914  -33.6552398  202.1888084
H    81.36338450000001  -36.3467171  198.6715954
H    78.43085180000001  -33.4776412  199.8899986
H    79.54278130000002  -34.7736921  198.0874506
H    80.00395560000001  -34.8612201  206.0812823
H    81.72885570000001  -36.505156199999995  207.8041492
H    82.48424980000001  -34.5854316  208.9266358
H    80.99188500000001  -33.696632699999995  208.6167742
H    80.76991880000001  -32.1964118  206.8109238
H    84.2482439  -34.643870299999996  207.0739522
H    81.9031257  -30.7753451  205.1571838
H    85.35146590000001  -33.2686542  205.3708954
H    84.17988640000002  -31.323256299999997  204.3923747
H    80.73230800000002  -36.749273099999996  210.1274251
H    77.94109120000002  -36.0017287  210.4079364
H    77.84351290000001  -38.278447199999995  209.4187221
H    78.88104150000001  -38.897426499999995  210.7174597
H    77.26299660000001  -38.305566  211.0924434
H    77.20324180000001  -36.633299699999995  212.73508560000002
H    78.7461293  -35.019444799999995  214.5057898
H    77.15149240000001  -35.804892599999995  216.23767560000002
H    76.5421335  -37.0344592  215.14324
H    75.9019882  -35.054966  213.562992
H    76.08220370000001  -34.0262031  214.9822122
H    74.2435135  -35.0557935  216.094851
H    74.3789789  -36.5339001  215.1193605
H    73.74433570000001  -34.4391295  213.3609853
H    70.61088080000002  -35.9215509  215.4499394
H    72.20759540000002  -36.1671967  216.0549434
H    68.0889496  -29.869947099999997  201.7248503
H    67.47693950000001  -30.9240726  202.9406519
H    71.60560000000001  -34.1441556  212.58933820000001
H    70.26818070000002  -34.7722773  213.485701
H    78.48697340000001  -40.4654234  199.7540564
H    77.00792310000001  -39.6852282  200.12666430000002
