122

C    -0.9429999999999998  -2.012  16.43
C    1.1576123000000003  -3.1576158000000007  16.4394451
C    1.0946533  5.069450499999999  10.567845399999998
C    -0.7583876999999998  5.585636399999999  11.998533599999998
C    1.5363284000000004  4.147937799999999  11.483825999999999
C    -1.9592574999999997  7.148317499999999  5.303055599999999
C    -1.6793115999999997  7.7632186999999995  6.4971980999999985
C    0.6426919000000004  -4.127627  15.592593099999998
C    0.3822331000000001  -2.0777511  16.864679
C    -3.13412  6.372336  5.134251899999999
C    -1.8281061999999997  3.2671420999999996  5.210328899999999
C    -2.5505701  7.626814099999999  7.575421099999998
C    -0.6658364999999997  -4.021604  15.1525386
C    1.926145  -0.22436200000000017  17.5520614
C    0.31721160000000026  -1.1333059000000003  19.231006299999997
C    -1.7743588999999997  3.2728215999999994  7.987415799999998
C    -2.8230579  2.6625403999999997  7.3146879999999985
C    -0.7439861999999998  3.8614103999999996  7.2671427999999985
C    -0.31568169999999984  4.6795103  12.923752399999998
C    -2.8518152999999997  2.6569483999999997  5.930382899999998
C    -0.7612227999999998  3.8506522999999997  5.881919699999998
C    -1.4660073999999998  -2.9696218  15.575443599999998
C    -3.7208683999999996  6.9160508  7.450836399999998
C    -0.061165799999999715  5.819284  10.805637999999998
C    0.8371827000000001  3.9171506999999997  12.684837199999999
C    -3.9819253  6.2679317  6.259804999999998
C    0.9314474000000001  -1.0802568000000004  17.844313399999997
C    -0.5166347999999998  6.7969641  9.821229899999999
C    2.4871592  0.7844258999999996  18.5578711
C    0.5730789000000001  0.1558423999999996  20.0073105
C    2.677364  2.6365672999999994  13.604422499999998
C    0.5509821000000001  2.8370407999999996  14.854664999999999
C    2.8478726000000005  1.2399347999999994  14.176423199999999
C    0.8189541  1.4616040999999997  15.456656599999999
C    -4.0705697  4.2676403  -1.183897700000001
C    -3.0883738999999997  6.270783699999999  -2.1180197000000014
C    -4.9991748  4.1963801  -2.3963541000000017
C    -4.067861799999999  6.1819022  -3.282767500000002
C    2.0671755000000003  0.4716173999999995  20.0045111
C    2.8470186  -0.7429078000000007  20.4954595
C    2.3482305000000006  1.6496093999999997  20.9431664
C    2.5008634  -0.1511897000000002  16.148168599999998
C    -3.496721  5.4627912  1.5577071999999985
C    -2.7886463999999997  5.7750338999999995  0.2375311999999976
C    -1.4055216999999998  4.9004886999999995  2.9179869999999983
C    -2.62112  5.8334545  2.7747605999999987
C    -6.6511194  6.673014  5.380532199999998
N    1.2744444000000001  3.0179527999999998  13.600090199999999
N    -3.4371229999999997  5.768649399999999  3.976203899999999
N    -1.6833320999999999  7.4430774  10.114999399999999
N    2.2671169000000004  1.1825250999999994  15.534250899999998
N    -3.7078933  5.6771557  -0.9111187000000012
O    0.04179740000000032  7.0508071999999995  8.7589008
O    -6.0897967  5.1823491  7.4470706999999985
O    -5.4977593  4.327501099999999  5.222661999999998
O    -1.3495785999999999  9.6191699  8.864117999999998
O    -3.5764198  8.8983133  9.617575599999999
O    -4.4199667  4.823189599999999  -3.536094300000002
F    -6.927994099999999  7.6382987  6.254421699999998
F    -6.0682111  7.2098197  4.3031169999999985
F    -7.7763298999999995  6.0616173  5.024090499999999
S    -1.8859298999999998  3.1992747999999995  3.434891099999999
S    -5.5072822  5.4274219  6.158369199999998
S    -2.2916643  8.5373571  9.054980399999998
Cl    -1.3231644999999999  -5.254725800000001  14.101275699999999
H    -1.5752699999999997  -1.1993975000000003  16.753054999999996
H    2.1758332  -3.2512771000000007  16.784691799999997
H    1.6398451  5.2460413  9.6536324
H    -1.6460622999999999  6.148090699999999  12.2418804
H    2.4209870000000002  3.5971521999999996  11.222482699999999
H    -1.2759571999999997  7.281795  4.483827899999999
H    -0.7890599999999998  8.3518995  6.642892699999999
H    1.2529314  -4.958639100000001  15.2794055
H    0.7109358000000001  -1.996546  19.768192199999998
H    -0.7581474999999998  -1.2993188000000004  19.1296732
H    -1.7547374999999998  3.2877004999999997  9.066028
H    -3.6286043999999995  2.1979703999999995  7.862486099999998
H    0.07410920000000032  4.3382125  7.783537599999999
H    -0.8773137999999998  4.5922443  13.835190299999997
H    -3.6742035  2.1943564999999996  5.405545299999998
H    0.06394650000000013  4.2869654  5.341284299999998
H    -2.4887525  -2.9041663000000004  15.242134399999998
H    -4.4208061999999995  6.847089199999999  8.266245999999999
H    2.1304227  1.7883653999999995  18.314970499999998
H    3.5765135  0.7832729999999994  18.4970558
H    0.2174908000000002  0.038941199999999565  21.032391099999998
H    0.016470000000000207  0.9781070999999995  19.5556798
H    3.0791225000000004  2.6323603999999996  12.598904099999999
H    3.2538581000000004  3.3612740999999997  14.195991999999999
H    0.8270679000000003  3.6264166999999996  15.566061199999998
H    -0.5175982999999997  2.8923660999999994  14.666196
H    3.9069652  0.9864715999999998  14.218392599999998
H    2.3300334000000005  0.5092447999999998  13.5540788
H    0.3674984000000001  0.6849033999999996  14.837186999999998
H    0.3816375000000001  1.4063614999999996  16.4526228
H    -3.1546044999999996  3.7143006999999995  -1.3954556000000018
H    -4.5707169  3.8321580999999996  -0.3221595000000015
H    -2.8324472  7.3129877  -1.9316874000000013
H    -2.1855705  5.7075669  -2.357498100000001
H    -5.9651647  4.670213599999999  -2.1709881000000024
H    -5.1735463  3.1616383999999997  -2.687155800000001
H    -3.6132095  6.5433688  -4.203875600000002
H    -4.9751309  6.7666032  -3.0777613000000024
H    2.8725529000000005  -1.5332206000000004  19.7520996
H    3.8764949  -0.46372740000000023  20.7171493
H    2.4135100000000005  -1.1378185000000003  21.411864599999998
H    3.3965246000000002  1.9384867999999997  20.902457599999998
H    1.7406361000000001  2.5137690999999998  20.6816654
H    2.1151484000000003  1.3724734999999995  21.968350299999997
H    2.0390039000000004  -0.9094616000000006  15.518351
H    3.5783369  -0.32466560000000033  16.1867724
H    -3.7298967  4.4016363  1.6414411999999983
H    -4.4185753  6.039495799999999  1.6353781999999981
H    -1.9629993999999997  5.085032699999999  0.0694354999999991
H    -2.3955256  6.7924269  0.27597649999999874
H    -0.7128829999999998  5.276985799999999  3.662664499999998
H    -0.8825103999999998  4.778943999999999  1.9747737999999986
H    -2.2618324999999997  6.8598782  2.6591381999999983
H    -4.1837227  5.0864156  3.984397099999998
H    -2.2139303  7.273331  10.954100599999999
H    2.7152524  1.8971204999999995  16.121034599999998
H    -4.5686012  6.1984727  -0.6986277000000012
