40

C    -23.63  -2.803  -17.1
C    -23.3363174  0.8689178000000001  -19.3291496
C    -22.6797059  1.9312109000000002  -21.4850925
C    -22.427135099999997  1.6387796000000001  -22.8317602
C    -22.337965699999998  2.6424250000000002  -23.7755799
C    -22.485622699999997  3.9872059  -23.4147986
C    -22.075034499999997  -6.165599  -18.3109997
C    -23.258834399999998  -5.292255  -18.6698223
O    -22.783575  -4.0046289  -19.065852200000002
C    -23.1787352  -2.8688466  -18.404811600000002
C    -23.9820675  -1.5747997  -16.5548551
C    -23.8654929  -0.4223235999999999  -17.2984756
C    -23.386446799999998  -0.44796199999999997  -18.6162906
O    -23.7817758  1.8819742000000002  -18.7971223
N    -22.790180799999998  0.8728071000000001  -20.580961000000002
C    -22.7248928  4.2749238  -22.066337100000002
C    -22.8190806  3.2728708  -21.1212595
C    -22.4421482  5.069809  -24.4157011
N    -23.118929899999998  6.1778333  -24.1860355
N    -21.7691505  4.940444  -25.5375409
C    -23.0493159  -1.6899033  -19.1715198
O    -22.5943309  -1.8089157999999999  -20.4445297
H    -23.7042373  -3.6909840000000003  -16.4931094
H    -22.316383499999997  0.6090984  -23.1348505
H    -22.186452499999998  2.3634004  -24.8060769
H    -21.385274199999998  -6.2205568  -19.148499100000002
H    -21.5459233  -5.7562617  -17.4533116
H    -22.4151565  -7.1680216  -18.0681383
H    -23.967484  -5.2144118  -17.8450263
H    -23.783291499999997  -5.7036883  -19.539692600000002
H    -24.3406526  -1.5282491  -15.539429
H    -24.1361195  0.5372097  -16.8863535
H    -22.529927899999997  -0.035958599999999896  -20.951960500000002
H    -22.7999403  5.2945145  -21.7236136
H    -23.0081958  3.5215362  -20.0900851
H    -23.105568599999998  6.9412303  -24.845936000000002
H    -23.695031  6.2704316  -23.3653376
H    -22.4250428  -2.7516602999999997  -20.6260698
H    -21.7605324  5.6786059  -26.2257486
H    -21.2010014  4.1254038  -25.7057057
