37

C    -23.479  -0.485  -19.046
C    -22.3205051  2.7205207  -24.114394400000002
C    -22.8444658  4.313105  -22.3983359
C    -22.9253777  3.2974307  -21.4658999
C    -22.4985225  5.1556598000000005  -24.7147391
C    -22.7313092  -5.261275299999999  -18.9122546
O    -22.481476299999997  -3.9714820000000004  -19.445035
C    -23.0696732  -2.8847801  -18.8404313
C    -23.747646  -2.9089499  -17.633654
C    -24.3105563  -1.7365011000000004  -17.1391542
C    -24.184753999999998  -0.5511078000000001  -17.8324951
C    -23.460351  0.8337138  -19.7610427
O    -24.052937  1.8013267000000002  -19.2900663
N    -22.8083311  0.8885438999999999  -20.959522
C    -22.718707499999997  1.9662856999999998  -21.8439766
C    -22.4014578  1.7027841  -23.184024100000002
C    -22.531071299999997  4.0530903  -23.7388351
N    -23.182752999999998  6.252712600000001  -24.4564045
N    -21.822298  5.0580488  -25.8398444
C    -22.9243269  -1.6715667  -19.5500497
O    -22.2437853  -1.6946221000000001  -20.7264892
H    -22.1174248  2.4618073  -25.1410495
H    -22.9725802  5.323373800000001  -22.0448412
H    -23.166019199999997  3.523304  -20.4403739
H    -22.291977  -5.3674231  -17.9177204
H    -23.8035613  -5.4648428  -18.8693178
H    -22.250130499999997  -5.9535553  -19.59918
H    -23.858028899999997  -3.8269467  -17.0810956
H    -24.848636  -1.7597978000000003  -16.2055972
H    -24.623993799999997  0.36161469999999996  -17.4613112
H    -22.435504899999998  0.010827999999999949  -21.3075352
H    -22.236471599999998  0.6824  -23.4935643
H    -23.1809205  7.0288501000000005  -25.1016301
H    -23.7719722  6.316536500000001  -23.6428869
H    -21.9436795  -2.6043655  -20.9036029
H    -21.8163906  5.8138269000000005  -26.508337
H    -21.242590099999997  4.2552603  -26.0240483
