51

C    -24.648  -14.183  6.027
C    -22.5785903  -15.3914629  6.6017888000000005
C    -28.5005447  -5.260244199999999  9.0598349
C    -26.9786561  -6.883122499999999  8.6061235
C    -29.9025279  -4.194679799999999  7.5747641
C    -30.094001799999997  -3.717957599999999  8.8364717
N    -24.2336727  -6.5739225  3.5066068
C    -23.982491999999997  -7.8130747  3.1054569
O    -24.971581299999997  -15.156557  5.3538812
C    -25.2933152  -8.7942085  4.659924
C    -25.319398399999997  -11.8552538  6.5518920000000005
C    -23.2242543  -14.0112644  6.5135269000000005
C    -28.250548799999997  -6.0163025999999995  6.7678501
C    -28.886567199999998  -5.1844129  7.6842234000000005
C    -25.6597688  -7.5189872  5.1928826
C    -25.0664637  -6.3850207  4.5480685
C    -26.555441899999998  -7.814180299999999  6.2890487
C    -27.265817  -6.889754699999999  7.2252912
C    -25.997346399999998  -11.191131799999999  5.3283332
C    -27.4747818  -11.6160506  5.2830062
C    -27.6843616  -13.1256381  5.3929501
C    -26.944158899999998  -13.654258599999999  6.6067174
N    -24.4530927  -8.9408614  3.6105728
N    -25.9388586  -9.729881599999999  5.4086866
N    -26.6862876  -9.1271612  6.3738847000000005
N    -25.302358199999997  -5.1216143999999995  4.926914
N    -25.551487799999997  -13.279411499999998  6.4717347
N    -27.5582447  -6.0983065  9.5060489
N    -29.2599639  -4.3489156  9.728079000000001
H    -23.128812399999997  -16.020808799999998  7.2967846000000005
H    -22.594774899999997  -15.8723049  5.6275762
H    -21.549068  -15.308415499999999  6.9402482
H    -26.2264402  -7.5494506999999995  9.0032516
H    -23.310236699999997  -7.9172721  2.2662678000000005
H    -25.7766296  -11.4564495  7.4617372
H    -24.2523193  -11.6397107  6.5532088
H    -23.2289326  -13.5251147  7.4884238
H    -22.659520399999998  -13.3909686  5.8132847000000005
H    -25.4715013  -11.4768893  4.4128694
H    -27.922091599999998  -11.2462997  4.3582999000000004
H    -27.9737373  -11.1219064  6.1189199
H    -27.2906575  -13.6258702  4.5051908
H    -28.7510229  -13.3373491  5.4599411
H    -27.000337799999997  -14.7420194  6.6584254000000005
H    -27.3260504  -13.211561199999998  7.5285929
H    -24.845125999999997  -4.3780157  4.4284202
H    -25.913293699999997  -4.9298024  5.7010636
H    -28.5177715  -5.9909861  5.7199799
H    -30.771525399999998  -2.962331399999999  9.1828909
H    -29.222104799999997  -4.1708023999999995  10.7182693
H    -30.406847499999998  -3.8927883999999997  6.6802049
