45

C    17.01  8.06  22.233
C    12.519467000000002  3.7166559  24.92002
C    10.567691500000002  4.9828523  24.2288445
C    15.912484000000003  10.2959027  22.532788
C    14.395435800000001  10.7210006  20.6716385
C    14.616658600000003  8.4586249  21.4749791
C    15.928736100000002  7.6977702  21.2172134
C    13.448177200000002  4.5402528  24.0277562
C    11.420550000000002  5.767370400000001  23.2453351
C    12.857764000000003  5.9298206  23.7533288
C    13.801027500000002  7.9774926  22.694129
C    17.261380000000003  9.5686793  22.3126336
N    11.148568400000002  3.6387948000000003  24.3739063
N    13.633198100000001  6.6384168  22.7419226
N    18.074620200000002  10.1062221  21.1925153
N    14.899624000000003  9.885602500000001  21.5735706
O    17.0253334  11.7634802  18.099353999999998
O    13.723901300000001  10.4086881  19.6944812
O    13.346704500000001  8.7546899  23.5199602
O    19.181168000000003  10.8048951  18.7025352
O    17.299715300000003  9.3586683  18.434949
O    17.2619316  10.9038282  20.3138343
S    17.734949  10.7036379  18.7834251
H    17.940144600000004  7.5560616000000005  21.9713055
H    16.701147000000002  7.7254817000000005  23.2256991
H    12.466330700000002  4.1785466  25.9071426
H    12.927179800000001  2.7116645000000004  25.0272756
H    9.544243500000002  4.9112951  23.8615791
H    10.561033300000002  5.4793323  25.1995371
H    16.0547523  11.3717436  22.4488099
H    15.550401100000002  10.0427569  23.5331236
H    14.661404200000002  11.7743106  20.8561598
H    13.966345800000003  8.3582712  20.5950142
H    15.772816000000002  6.621976  21.2128877
H    16.271664800000003  7.9880587  20.2162497
H    13.595995100000001  4.0312058  23.0738329
H    14.418615000000003  4.6303847000000005  24.5107154
H    10.989122500000002  6.7568305  23.0906038
H    11.438874200000003  5.2665352  22.2758884
H    12.870539700000002  6.556683700000001  24.6494667
H    17.882312300000002  9.7845511  23.1898248
H    10.567987600000002  3.0608905  24.9921604
H    11.177341300000002  3.1871429000000004  23.450586
H    13.951974700000003  6.095507700000001  21.9539965
H    18.420759600000004  9.368953600000001  20.5778658
