28

C    25.044  15.919999999999998  -8.012
C    25.8124701  18.701356699999998  -8.888012600000001
C    26.901423899999998  19.6914567  -8.994229800000001
C    29.0442613  21.3775415  -8.627455300000001
C    27.5585754  19.7356266  -7.754225100000001
C    26.9131531  18.7946994  -6.855683500000001
C    27.289168099999998  20.471490499999998  -10.052144600000002
C    28.391136  21.343959899999998  -9.877246200000002
C    28.640881999999998  20.587879899999997  -7.572005800000001
N    23.7484956  15.532043499999999  -8.203100300000001
N    25.8876298  18.1901516  -7.605184900000001
C    25.0276662  17.1475202  -7.0991544000000015
N    28.8032072  22.125265499999998  -10.8901298
C    22.8149587  16.3477113  -7.599488800000001
C    23.5478536  17.5295997  -7.0194154000000015
O    26.0200769  15.375948999999999  -8.467967900000001
O    21.632339799999997  16.119439399999997  -7.558732700000001
O    24.979620699999998  18.3707423  -9.709456200000002
O    27.1316079  18.5290854  -5.689314500000001
H    29.884064799999997  22.0424266  -8.503278300000002
H    26.768358799999998  20.419591299999997  -10.995084700000001
H    29.147842699999998  20.622141499999998  -6.621029700000001
H    23.494120499999998  14.712265299999999  -8.7430166
H    25.4412484  16.872998099999997  -6.120189600000002
H    29.5895109  22.738749199999997  -10.7679203
H    28.3348993  22.0920775  -11.778221600000002
H    23.3329967  18.3949799  -7.649834600000001
H    23.201334799999998  17.748386699999998  -6.0113191000000015
