62

C    21.362  9.975  13.334
C    20.483470699999998  9.046474  13.867991400000001
C    20.091506699999996  9.1216499  15.1962083
C    20.581317399999996  10.1257913  16.0182745
C    20.1387242  10.2455282  17.4627419
C    11.532728499999997  3.2452240000000003  15.8954966
C    12.119564299999997  3.6416445  17.2910376
C    13.325629199999998  7.206558  16.9587102
C    14.390658299999997  4.6834283  17.3724873
C    15.225626499999997  5.7820132  17.316243
C    14.697921599999997  7.0490096  17.1099906
C    15.623525899999997  8.2353652  17.1001604
C    16.983935199999998  10.7641825  16.7168371
C    16.929640199999998  11.610846800000001  14.0710998
C    18.841596999999997  13.8377716  17.4126474
C    18.865252599999998  12.4239251  17.1915987
C    19.917149  11.7047129  17.7453046
C    20.892189499999997  12.3930433  18.4939015
C    19.890528999999997  14.4194961  18.1884719
F    21.080122099999997  17.8061599  18.9013923
F    22.221115299999997  15.9934642  18.7146109
F    20.998467999999995  16.3197475  20.4833642
C    21.029795399999998  16.4689829  19.1340331
C    21.466552999999998  11.0522948  15.4712076
C    21.852852699999996  10.9856315  14.1433421
O    11.969974599999997  3.8191785000000005  14.8842016
O    10.650620999999997  2.3541392000000005  15.8900705
C    12.492269799999997  6.1058242  17.0196551
C    13.015725499999997  4.8326274  17.2318357
O    15.209600099999996  9.1854846  16.1295293
C    16.0937301  10.1837622  15.8101547
C    16.0601848  10.6226955  14.4863037
C    17.824916399999996  12.1744149  14.9649177
C    17.856806599999995  11.7732547  16.3010562
N    20.8862982  13.6791406  18.7130434
C    19.886787299999998  15.8258866  18.401191700000002
C    18.8975773  16.6100555  17.8605088
C    17.861940499999996  16.0334218  17.115023700000002
C    17.831801799999997  14.6822831  16.9000883
H    21.654213199999997  9.9118266  12.2973936
H    20.090580799999998  8.256185200000001  13.2452425
H    19.395386699999996  8.3939587  15.5882764
H    20.916837899999997  9.8558349  18.121406
H    19.231723199999998  9.662518  17.6108313
H    12.645169599999997  2.7588736999999997  17.6609083
H    11.254035499999997  3.8187482  17.934343000000002
H    12.921323999999997  8.1915979  16.783728
H    14.801834799999996  3.6958154  17.5239459
H    16.291804199999998  5.6521252  17.4290403
H    16.648466599999995  7.9096271  16.8810913
H    15.611028599999997  8.6952876  18.1015994
H    16.987097999999996  10.4502129  17.7495295
H    16.919887499999998  11.9379101  13.0436914
H    21.7233666  11.8540529  18.9281507
H    21.864222999999996  11.8416735  16.0939109
H    22.537468799999996  11.7198744  13.7473572
H    11.424984199999997  6.2176849  16.8932061
H    15.356864399999997  10.160229900000001  13.8127691
H    18.520819599999996  12.9266817  14.625020600000001
H    18.9141101  17.6780149  18.0127846
H    17.089264999999997  16.6668321  16.7121001
H    17.030258299999996  14.2370005  16.3308965
