60

C    -16.38  -9.063  -13.481
C    -15.251993799999997  -8.4958462  -14.0516331
C    -16.612209099999998  -10.4250431  -13.5954616
C    -14.582152699999998  -10.6467484  -14.8683318
C    -3.629092599999998  -17.706159900000003  -15.0968336
C    -2.546927199999998  -16.711047  -17.0120647
C    -13.600599299999999  -11.501998  -15.602071
C    -7.206101499999998  -9.775117300000002  -13.4865778
C    -4.861416299999998  -17.5362031  -15.7083358
C    -3.775396699999998  -16.5332095  -17.618525299999998
C    -12.511034999999998  -12.0400161  -14.6674169
C    -6.322469799999999  -10.7041672  -14.0061307
C    -8.472936799999998  -9.672284300000001  -14.0292544
C    -6.6979701999999985  -11.5236552  -15.0622994
C    -8.837340799999998  -10.472945500000002  -15.094259
C    -6.237743399999998  -16.778829700000003  -17.6816572
C    -10.567945599999998  -13.608597800000002  -14.57401
C    -7.968214599999998  -11.423290000000001  -15.6064203
N    -7.127450999999998  -15.797594400000001  -17.0766558
C    -7.038307499999998  -14.414093000000001  -17.288123
C    -8.842468299999998  -14.744421500000001  -15.9703339
C    -8.135576799999999  -13.7715949  -16.6103861
C    -14.351630099999998  -9.2862987  -14.7432767
C    -15.715298099999998  -11.207291900000001  -14.296523
C    -2.478788699999998  -17.3110684  -15.765181499999999
C    -4.926504799999998  -16.9532423  -16.967738699999998
C    -11.725983599999998  -13.1048726  -15.4201972
O    -8.594595599999998  -17.1724937  -15.98447
O    -6.141615199999999  -13.919604000000001  -17.9487688
N    -9.897443399999998  -14.7463422  -15.158851499999999
C    -8.211487299999998  -16.0655402  -16.3141133
C    -8.409881499999997  -12.304653100000001  -16.7462975
H    -17.0801782  -8.440369800000001  -12.9431917
H    -15.079923399999998  -7.433509000000001  -13.9577333
H    -17.492255999999998  -10.865228900000002  -13.151399399999999
H    -3.563766099999998  -18.158934600000002  -14.1201989
H    -1.6428512999999985  -16.395035800000002  -17.5094159
H    -13.134451399999998  -10.9291136  -16.4055818
H    -14.124644999999997  -12.348620100000002  -16.0506502
H    -6.910409199999998  -9.147426300000001  -12.6600383
H    -5.772264599999998  -17.8484682  -15.2181864
H    -3.8465976999999985  -16.0613925  -18.5863231
H    -12.972753499999998  -12.4723696  -13.778835299999999
H    -11.856301599999998  -11.229636800000002  -14.347116399999999
H    -5.327562199999998  -10.7941167  -13.5945404
H    -9.172611399999997  -8.949646600000001  -13.636441699999999
H    -6.001611599999999  -12.2482009  -15.461792599999999
H    -9.823828599999999  -10.369297300000001  -15.5228039
H    -6.058240699999998  -16.4534534  -18.7092911
H    -6.794303099999999  -17.7221299  -17.6860368
H    -10.944459099999998  -13.9167929  -13.5970812
H    -9.835890799999998  -12.811361300000002  -14.428248
H    -13.473733199999998  -8.8442428  -15.190138899999999
H    -15.891645999999998  -12.2684542  -14.400057799999999
H    -1.5169090999999977  -17.4553684  -15.295281899999999
H    -11.357616599999998  -12.6985308  -16.3621922
H    -12.3885464  -13.9390417  -15.6594198
H    -10.233871899999999  -15.6677399  -14.9069333
H    -7.867823399999998  -11.978953200000001  -17.6429297
H    -9.473294399999999  -12.148900000000001  -16.9285286
