134

N    1.0020000000000002  5.256  2.4529999999999994
C    2.0026416  6.2919754  2.840853900000001
C    1.9568919999999999  6.5826538  4.3589529
O    2.5669833  7.5010098  4.8789674
C    1.9208338999999999  7.4788049  1.8365749000000005
C    0.8605645000000002  8.5308362  2.1500331
C    3.2802641  8.1443334  1.6259957000000007
N    1.2426487000000002  5.6986132000000005  5.0822068
C    1.1708555  5.7359551  6.5358164
C    1.9831995  4.5320442000000005  7.0856727
O    1.7408424  3.4407991000000004  6.5821531
C    -0.3260284999999996  5.5794506  6.9027661
O    -0.4548104999999998  4.6342023  7.944687500000001
N    2.9617869  4.7132838  7.997775799999999
C    3.7127261000000003  3.5702194000000005  8.5272493
C    3.3617064  3.2524881000000003  9.9997506
O    3.0661826000000003  4.153004500000001  10.7716646
C    5.2479038  3.7293095000000003  8.4374559
C    5.7499189  4.824638800000001  9.3639212
C    7.1574829  4.7790854000000005  9.9127733
O    7.5312663  5.714879000000001  10.6194185
N    7.9226326  3.7165202  9.6394256
N    3.4943106999999998  1.9546163000000005  10.3504456
C    3.1440431  1.3544969000000004  11.6316963
C    4.0762296  0.26747310000000035  12.2016263
O    3.9630563  -0.9142938999999997  11.8963967
C    1.7872327000000001  0.6272561000000003  11.5505312
C    0.7945928000000002  1.7128390000000004  11.2370113
O    0.3709313999999999  1.8789301000000003  10.1022287
N    0.5567345000000001  2.5050725000000003  12.2895097
C    6.9749867000000005  1.3899169000000005  11.3175679
C    9.033462199999999  1.8496332000000004  12.5417934
C    7.867083  0.8690044000000003  12.4362792
C    7.1782218  0.7525270000000004  13.8062252
C    5.906726  -0.10206169999999963  13.789488
C    5.5315151  -0.6977803999999996  15.1676696
N    4.8768388  0.7070538000000004  13.1680225
O    5.3451744  0.2561673000000004  16.1890416
C    4.3326779  -1.6510664999999995  15.116219300000001
C    4.5613618  -2.9141806999999997  15.9668165
C    3.2667382  -3.7757042999999997  15.903738
C    3.4976481  -5.2834717  15.9124065
C    2.3383545  -3.4376887999999997  17.0664423
C    5.8188141  -3.6846927  15.5427497
O    6.2473639  -3.7298423999999994  14.3908198
N    6.466128100000001  -4.3216893999999995  16.5351414
C    7.5302473  -5.282551499999999  16.263691299999998
C    7.2345427  -6.4343126999999996  17.2126385
O    7.0135685  -6.1799466999999995  18.3976578
C    9.0055647  -4.8001986  16.386584499999998
C    9.9789075  -5.6628478  15.5375448
C    9.5771008  -4.8607493999999996  17.810717
C    9.3781096  -6.7238896  14.617140299999999
N    7.1152353999999995  -7.663388299999999  16.723540200000002
C    6.9201115  -8.745926  17.6638457
C    8.0107552  -9.8303495  17.4040458
O    8.5286226  -9.8671543  16.269504
C    5.4586128  -9.2312118  17.7482716
C    4.579745  -8.223606499999999  18.4983891
C    4.8156375  -9.5670878  16.4050006
O    8.2853843  -10.558256499999999  18.376305000000002
H    0.9949690000000002  5.1651862  1.4262982999999991
H    0.057418199999999864  5.5331482  2.7483758
H    1.2253142000000001  4.330802800000001  2.8384119000000005
H    3.0019523  5.8604764000000005  2.6965701000000006
H    1.6549908000000002  7.0318145  0.8711198000000007
H    0.8480821999999999  9.2819583  1.3667985999999992
H    1.08744  9.0285492  3.090923
H    -0.13391730000000024  8.098839000000002  2.2203546999999997
H    4.0203691  7.4294169000000005  1.2756851000000005
H    3.6372545  8.5814333  2.5564275
H    3.195881  8.9365737  0.8887736999999998
H    0.9957475000000002  4.775669700000001  4.7501546
H    1.5832005000000002  6.682695600000001  6.8877801
H    -0.8730928000000002  5.231642900000001  6.0199613
H    -0.7289966999999997  6.5514615  7.2121699
H    -1.3920297000000001  4.4694807  8.1090821
H    3.0165479  5.572601000000001  8.5252218
H    3.4019965  2.7247597000000003  7.9026001
H    5.5244045  3.9390744  7.4051414
H    5.6585759  2.7620506000000002  8.7291939
H    5.1181229  4.8871997  10.2544369
H    5.6601623  5.8010152  8.880055
H    8.8719017  3.7184106000000003  9.9779967
H    7.6762999999999995  3.0818352000000004  8.9007799
H    3.6436253  1.2859611000000004  9.6062403
H    3.0883008  2.1877475000000004  12.3390096
H    1.5770629  0.1347932000000004  12.4974984
H    1.8181221  -0.12021559999999963  10.7597754
H    -0.041133399999999654  3.3096382  12.190843600000001
H    0.9019842000000002  2.2682583000000003  13.202444
H    7.5857609  1.4931142000000004  10.4283324
H    6.5494692  2.3557261000000005  11.5720314
H    6.1775745  0.6904164000000004  11.0822824
H    9.6850324  1.5984842000000004  13.3769209
H    8.663823  2.8615612000000006  12.6899829
H    9.632275700000001  1.8247220000000004  11.6359016
H    8.2423639  -0.12172129999999963  12.1620093
H    6.9341056000000005  1.7531702000000005  14.170371
H    7.8958271  0.3063710000000004  14.4981072
H    6.0566815  -0.9774467999999996  13.1451701
H    6.4119448000000006  -1.3136935999999997  15.4257772
H    4.8739211000000005  1.6848210000000003  13.4188263
H    6.1764233  0.7171418000000004  16.3596286
H    4.1644822  -1.9522952999999996  14.0818966
H    3.4531312  -1.1263193999999996  15.4862034
H    4.7219484000000005  -2.6097599  17.0058527
H    2.7643003999999998  -3.5328142999999996  14.9622441
H    2.5468246  -5.8050165  15.8459243
H    3.9952633  -5.5951635  16.8291632
H    4.1167445  -5.5925414  15.070811599999999
H    2.1571151  -2.3674612999999995  17.1255897
H    2.7777743  -3.7656889  18.0059079
H    1.3843871  -3.9425320999999998  16.9413152
H    6.1464542  -4.2947728  17.4938198
H    7.3623588  -5.5828003  15.2277842
H    9.018906000000001  -3.7680268999999997  16.0290062
H    10.6644224  -6.182271399999999  16.2060407
H    10.575338200000001  -4.985701  14.9228549
H    8.9607282  -4.3004481  18.5122805
H    10.579755500000001  -4.4433646  17.8144541
H    9.618770900000001  -5.8894104  18.1611319
H    10.170147799999999  -7.080564099999999  13.9570479
H    8.5885035  -6.338430799999999  13.979978299999999
H    9.041146399999999  -7.592708999999999  15.171634300000001
H    7.357060000000001  -7.931124199999999  15.7821876
H    7.1719329  -8.351672999999998  18.6581214
H    5.5119018  -10.1527609  18.3450598
H    3.5699987  -8.613225100000001  18.5915751
H    4.5490034  -7.2837363999999996  17.9551849
H    4.9815634  -8.0293469  19.489433599999998
H    5.4562142  -10.244505499999999  15.8420621
H    4.6682013  -8.661545400000001  15.820093400000001
H    3.8543645  -10.0448119  16.5665632
